aasaa,0.011639
abdulbah,0.009268
abound,0.007241
abov,0.005665
abovement,0.007108
abraham,0.020784
abstract,0.003893
abund,0.004486
accept,0.002777
accord,0.022124
accordingli,0.009959
account,0.002605
act,0.005057
action,0.002718
activ,0.008830
actual,0.002831
adam,0.008980
address,0.006663
adher,0.004475
ador,0.008311
advanc,0.002732
advoc,0.003798
afraid,0.007000
age,0.005541
agent,0.003772
aggeliko,0.011639
aggelo,0.011639
agoni,0.008816
agre,0.003335
ahura,0.008411
air,0.003398
ajraeel,0.011639
akero,0.011639
albaqara,0.010228
albigens,0.010551
alexandria,0.006031
allus,0.007373
altern,0.002843
american,0.002506
amesha,0.010379
ancient,0.003205
angel,0.870171
angelin,0.011639
angellik,0.011639
angelolog,0.031138
angelu,0.019717
anglu,0.011639
ani,0.001949
announc,0.003715
annunci,0.028012
antiqu,0.004578
antonia,0.009571
anyth,0.004372
apocalypt,0.015497
apostl,0.006977
appeal,0.004120
appear,0.023064
appli,0.002365
approach,0.002546
appropri,0.003546
approv,0.003800
aquina,0.006224
arab,0.012259
archangel,0.138899
argu,0.002943
aristotl,0.013683
armour,0.006656
art,0.030463
articl,0.002629
articul,0.005343
artist,0.004643
ask,0.003657
aspect,0.005815
assembl,0.003454
assert,0.003800
assign,0.007948
assiyah,0.011639
associ,0.002161
atmospher,0.004334
attain,0.004478
attempt,0.002523
attest,0.005825
attribut,0.017197
audienc,0.009988
august,0.003362
augustin,0.005941
authent,0.005604
azraaeel,0.023279
azrael,0.021498
b,0.002930
babel,0.008915
babylon,0.006665
babylonian,0.006014
bad,0.004538
bah,0.021441
bahullh,0.017040
band,0.004811
baptist,0.019380
baroqu,0.007486
base,0.005783
basic,0.002683
basilian,0.011639
basilica,0.007629
bassu,0.010228
battl,0.004178
battleground,0.007999
beauti,0.015207
becam,0.004877
becaus,0.004016
becom,0.006406
bedsid,0.008816
beek,0.009970
begin,0.002601
behold,0.008248
beingsth,0.011639
believ,0.030352
belong,0.007539
benevol,0.013261
best,0.002940
bibl,0.042800
biblic,0.011462
bifurc,0.007769
biographi,0.005146
bird,0.004554
birth,0.015724
blend,0.005592
bless,0.006323
blind,0.010920
blow,0.005652
blown,0.007707
bn,0.006648
bodi,0.026771
bodyguard,0.007999
bone,0.005003
book,0.017748
born,0.003768
borrow,0.004427
brahma,0.015713
breastplat,0.010092
briefli,0.009897
bright,0.005834
brilliant,0.006604
bring,0.006633
burn,0.009146
byzantin,0.005488
came,0.011685
carmelit,0.009488
carri,0.005760
case,0.004468
catacomb,0.009571
categori,0.003409
cathol,0.008628
ceas,0.004513
celesti,0.005664
centuri,0.009177
centuryi,0.011639
certain,0.002445
certitud,0.009268
chain,0.003991
chaplet,0.011639
character,0.003389
characterist,0.003079
charg,0.003448
chayot,0.010749
cherubim,0.034918
child,0.008582
children,0.007349
chitar,0.023279
choir,0.008311
christ,0.022806
christian,0.038091
chrysostom,0.009268
church,0.032298
circumst,0.008209
citi,0.003085
civil,0.003065
claim,0.010849
class,0.002963
clear,0.003325
closest,0.005409
cloth,0.009342
color,0.004451
colossian,0.009488
come,0.007667
comfort,0.005676
command,0.007498
commentari,0.005151
commun,0.002336
complet,0.004936
compos,0.006780
conceiv,0.004692
concept,0.007481
concern,0.002508
concours,0.011639
confirm,0.003852
conflict,0.003328
congreg,0.012920
conjunct,0.004994
conjur,0.008558
connect,0.005884
conscienc,0.006538
consciou,0.005284
consid,0.002084
constantli,0.009964
constitut,0.002821
consum,0.003558
contact,0.003750
contain,0.002563
context,0.006287
continu,0.002165
contra,0.007812
contrast,0.003018
convent,0.003460
convers,0.003687
convey,0.005395
convict,0.005179
coogan,0.020758
cope,0.005735
correspond,0.003244
costum,0.007358
council,0.009776
councilwer,0.011639
count,0.004075
counten,0.009202
courier,0.007790
coven,0.006579
cowderi,0.021498
creat,0.013115
creation,0.006506
creatur,0.010899
credimu,0.011639
cross,0.003900
cubicolo,0.011639
cure,0.005481
cycl,0.003663
d,0.002893
dalmat,0.010983
damn,0.007648
danger,0.004197
daniel,0.031115
dardail,0.011639
dark,0.004621
dastonac,0.011639
david,0.003174
dawn,0.005656
day,0.026968
deacon,0.007926
dead,0.008960
deal,0.002879
death,0.021910
deathse,0.011639
deceas,0.006343
decemb,0.003279
declar,0.010355
decre,0.010264
dedic,0.004292
deed,0.012399
default,0.005453
definit,0.002825
dei,0.007147
deiti,0.011437
deliv,0.004212
dellannunziazion,0.011639
demarc,0.006243
demon,0.006323
demonstr,0.003212
demot,0.008218
denot,0.008721
depend,0.002358
depict,0.035662
deriv,0.008152
describ,0.015397
descript,0.009800
desert,0.005082
despit,0.006060
destini,0.006364
destroy,0.007474
deva,0.039061
develop,0.010724
devil,0.006330
devote,0.007707
did,0.005305
die,0.003424
differ,0.007578
differenti,0.003618
direct,0.007119
directori,0.005998
disagr,0.005082
disciplin,0.006586
discourag,0.005395
discov,0.006294
disembodi,0.016320
disput,0.003594
divers,0.003437
divin,0.033273
doctrin,0.012857
doe,0.004836
dogmat,0.006692
dome,0.007134
drawn,0.004217
dread,0.007687
dress,0.017810
dure,0.004114
dwell,0.018969
earli,0.008608
earliest,0.010789
earth,0.016889
earthli,0.027686
eastern,0.003571
eden,0.007255
effect,0.006270
egyptian,0.004849
element,0.002736
elev,0.004800
elia,0.007255
elijah,0.008160
eman,0.012660
emanuel,0.007213
embryo,0.005962
emperor,0.004745
emphas,0.003776
empti,0.005129
encount,0.004237
encyclopedia,0.007411
endl,0.010983
endow,0.010899
energi,0.003012
engel,0.006639
english,0.005993
enter,0.009436
entir,0.005581
entitl,0.004441
entri,0.008323
enumer,0.006218
ero,0.008483
esoteric,0.008311
especi,0.009993
establish,0.002296
ether,0.013367
etymolog,0.004580
eve,0.006296
event,0.002800
eventu,0.009174
evid,0.005868
evil,0.020934
evolut,0.010480
evolutionarili,0.007769
exampl,0.011561
exceedingli,0.022121
exeget,0.008769
exist,0.006418
expel,0.005187
experi,0.002645
explain,0.011585
explicit,0.009396
exquisit,0.008446
extend,0.002838
extens,0.005811
extenu,0.010379
extern,0.001682
extrabibl,0.010228
extraordinari,0.005616
eyck,0.009202
eye,0.008602
ezekiel,0.008598
face,0.003229
fact,0.005463
fail,0.006470
fairi,0.007241
faith,0.021506
famili,0.002979
familiar,0.004552
fashion,0.004528
father,0.007565
fear,0.004037
feet,0.005254
fieri,0.007974
fifth,0.009164
fighter,0.005844
figur,0.025492
filiu,0.010092
fine,0.004599
finer,0.006868
firmit,0.011639
flame,0.012772
flesh,0.006415
floor,0.005233
follow,0.001840
fondli,0.010092
forc,0.009224
foretel,0.008915
form,0.014069
founder,0.004032
fourth,0.004014
fravashi,0.010749
free,0.002628
french,0.003096
friend,0.004569
frighten,0.007134
function,0.007066
g,0.003112
gabriel,0.063875
galgani,0.023279
garden,0.010292
gemma,0.009022
gener,0.001653
genesi,0.005788
gentil,0.007592
germanu,0.010228
glori,0.006475
gloriou,0.007011
gnome,0.008681
god,0.197318
goddess,0.006475
gold,0.004000
golden,0.004662
gomorrah,0.010551
good,0.012789
grace,0.006064
grade,0.005366
grant,0.003527
granth,0.041244
grave,0.011216
greater,0.002897
greek,0.013032
growth,0.002912
guard,0.009617
guardian,0.022739
guid,0.013012
guidanc,0.005187
gupat,0.023279
guru,0.034341
ha,0.018409
hachazakah,0.011639
hadeeth,0.010983
hadith,0.007328
halo,0.007298
hamavet,0.011639
hand,0.002850
haqqdm,0.011639
harbing,0.008639
hard,0.003776
harri,0.004838
harut,0.010749
hatorah,0.011270
heal,0.011279
heaven,0.033061
heavenli,0.013029
hebrew,0.028876
height,0.004587
hellfir,0.010379
help,0.002518
helynm,0.011639
hermet,0.008050
hi,0.041258
hierarchi,0.018754
high,0.004659
higher,0.002735
highest,0.007046
histori,0.003832
hn,0.007790
hold,0.002771
holi,0.034099
host,0.012621
hous,0.003086
howev,0.011203
human,0.048766
humankind,0.006379
humanlik,0.007328
humbl,0.007328
icon,0.006193
identif,0.004531
identifi,0.005562
ii,0.015055
ill,0.004467
imag,0.007085
imit,0.005443
immateri,0.013800
immedi,0.006764
immort,0.006092
imperi,0.004482
import,0.005886
inasmuch,0.007668
incarn,0.020189
includ,0.004791
increas,0.002212
indic,0.008491
individu,0.016612
infal,0.007707
influenc,0.002534
inform,0.006862
inherit,0.008532
initi,0.002499
innumer,0.007389
insid,0.003858
inspir,0.003806
instanc,0.006231
instrument,0.003542
intellect,0.018506
intellig,0.007179
interact,0.008611
intermedi,0.004521
intermediari,0.011678
interpret,0.009208
intim,0.005757
invoc,0.007856
involv,0.002230
isaac,0.004979
isaiah,0.007269
islam,0.026810
israel,0.009423
israfel,0.011639
israfil,0.022540
isrfl,0.011639
issu,0.002468
istanbul,0.007147
ix,0.006720
izrail,0.021498
jame,0.003244
jan,0.005056
jannat,0.010749
jerusalem,0.006150
jesu,0.045087
jewel,0.006966
jewish,0.038156
jibrail,0.034918
jibril,0.009970
job,0.003973
john,0.018318
jophiel,0.011639
joseph,0.015165
jr,0.004886
judaism,0.016508
judeochristian,0.007538
judgement,0.011632
juniu,0.009079
just,0.005365
justic,0.003888
kabbalah,0.015852
kabbalist,0.008483
katibin,0.011639
key,0.002927
kind,0.003064
kiraman,0.011639
kirtland,0.009660
knee,0.007035
know,0.003485
knowledg,0.005787
known,0.005766
kumari,0.017935
lamp,0.006483
late,0.013315
later,0.018301
lateran,0.008558
latin,0.007230
latterday,0.007707
law,0.002317
ld,0.007328
lead,0.006885
leav,0.003257
left,0.006132
legatu,0.010749
level,0.002300
lhm,0.023279
life,0.007417
light,0.015855
lighter,0.006036
lightn,0.006596
like,0.010272
likewis,0.004555
limit,0.002349
line,0.002752
linear,0.004092
link,0.001672
lip,0.007343
liter,0.004423
literatur,0.003436
littl,0.005887
liturgi,0.007389
live,0.014922
loan,0.004462
logo,0.011976
long,0.007492
look,0.006351
loos,0.004781
lord,0.018209
loro,0.010228
lot,0.009474
love,0.004566
luke,0.028189
maalik,0.011639
magic,0.005362
maid,0.008344
maimonid,0.028747
maintain,0.008045
majesti,0.013441
major,0.002040
make,0.003911
malach,0.011639
malachi,0.018536
malak,0.010551
male,0.004314
malikah,0.011270
malk,0.034918
malkh,0.022540
man,0.017015
mani,0.010430
manifest,0.008849
mankind,0.022202
mari,0.008887
mark,0.003088
martin,0.004071
marut,0.011270
materi,0.002695
matter,0.008679
matthew,0.016731
mazda,0.008311
mean,0.012709
mediat,0.004711
meet,0.006223
mehl,0.032949
member,0.004907
men,0.010699
mental,0.004161
mention,0.033512
merkabah,0.039881
messag,0.009559
messeng,0.152454
metaphys,0.009841
metatron,0.010983
michael,0.042474
middl,0.003171
midrd,0.009755
mikail,0.010749
mikhail,0.006058
militari,0.009334
militarystyl,0.010228
mind,0.007254
minist,0.010410
miracl,0.006004
mission,0.011504
modern,0.006920
moment,0.008751
monoth,0.006943
moreov,0.004412
mormon,0.007592
moroni,0.028715
mortal,0.015421
mosaic,0.006408
mose,0.006276
mostli,0.003281
motion,0.003881
mount,0.004483
movement,0.002652
mover,0.015581
muaqqibat,0.011639
munkar,0.010551
mycenaean,0.008311
mystic,0.017017
mytholog,0.005379
naiv,0.006337
nakir,0.011639
natur,0.026692
near,0.006324
neoaristotelian,0.009970
neoplaton,0.006692
nether,0.009755
new,0.005153
ngelo,0.043933
nike,0.009202
noah,0.007200
noonday,0.010228
normal,0.003065
note,0.002217
nun,0.007284
nuntiu,0.011639
obey,0.005488
object,0.002629
observ,0.005076
occur,0.002443
offic,0.006191
old,0.009547
oliv,0.005453
omnisci,0.007574
onli,0.015934
open,0.005266
oper,0.004852
ophanim,0.011639
oppos,0.003214
order,0.008477
ordinari,0.004194
organ,0.002097
orient,0.004007
origin,0.006394
orthodox,0.005179
p,0.011744
pain,0.004871
paint,0.004884
pallium,0.010379
panchpada,0.011639
paradis,0.006889
particip,0.006068
particl,0.004134
particular,0.007222
particularli,0.002697
partli,0.004135
pass,0.002987
patron,0.005887
paul,0.006686
peac,0.003709
pendent,0.010092
peopl,0.016964
perfect,0.004297
perform,0.010815
perhap,0.003575
peril,0.007011
period,0.009141
pernici,0.007790
perplex,0.015852
persian,0.014496
person,0.027683
personag,0.008967
peter,0.003507
philo,0.007707
philosoph,0.003375
physic,0.010066
pictur,0.004305
pieti,0.007108
piu,0.007284
place,0.004350
plane,0.004632
planet,0.008727
planetari,0.005513
plant,0.003339
plato,0.005066
pleasant,0.006837
poetri,0.005366
point,0.002230
pois,0.007611
pope,0.016227
popular,0.002751
posit,0.002279
possess,0.010368
possibl,0.002249
postbibl,0.010983
postexil,0.010092
power,0.013541
practic,0.002359
prais,0.010314
precolumbian,0.006797
prefer,0.003377
presenc,0.003335
present,0.002205
previous,0.003362
priest,0.005222
priesthood,0.007592
primari,0.002911
princ,0.004759
principl,0.002647
prior,0.006662
priscilla,0.009079
privat,0.003162
process,0.004169
proclaim,0.009978
proclu,0.017196
produc,0.004589
promin,0.003458
pronounc,0.005327
prophet,0.011577
prophetwarrior,0.011639
propos,0.002721
provid,0.003913
psalm,0.015455
pterug,0.011639
punish,0.004851
pure,0.003487
puriti,0.006243
purport,0.006237
qabalah,0.010228
qualiti,0.003286
question,0.008308
quot,0.004614
quran,0.031967
r,0.002951
raag,0.011270
race,0.004332
rank,0.007447
raphael,0.030154
rd,0.003949
read,0.002429
readi,0.005140
receiv,0.002672
recoil,0.008816
record,0.005896
recount,0.006490
redeem,0.006579
refer,0.019581
referenc,0.006009
reflect,0.003005
regard,0.010734
reincarn,0.006921
relat,0.003771
releas,0.003495
religi,0.003572
religion,0.007124
reliquari,0.010092
rememb,0.005135
reni,0.010551
repeat,0.004037
repent,0.007707
report,0.002688
repres,0.006883
represent,0.007057
reputedli,0.008160
resolut,0.004278
rest,0.003277
restor,0.003955
restrict,0.003241
resurrect,0.031029
reveal,0.007358
revel,0.011216
ridwan,0.009337
robe,0.023004
rock,0.004380
role,0.004900
roll,0.005219
room,0.013611
rosica,0.011639
rule,0.002553
ruoppolo,0.011639
s,0.003967
sacrament,0.015852
sacrific,0.005697
sage,0.011027
sahib,0.040660
saint,0.046771
salamand,0.007879
salvat,0.018126
samael,0.020185
sandalphon,0.011639
sarcophagi,0.009488
sarcophagu,0.027804
sarigzel,0.011639
save,0.007944
say,0.003030
scene,0.005038
scenesfor,0.011639
scholar,0.007104
scienc,0.002352
scribe,0.007227
script,0.005513
scriptur,0.011255
sculptur,0.006289
search,0.003580
second,0.002295
secondari,0.003983
seek,0.006277
seen,0.008233
self,0.004806
selfless,0.008639
semi,0.008050
semidom,0.011639
send,0.004374
sent,0.007753
separ,0.005110
separati,0.011639
sephirot,0.010551
septuagint,0.017449
seraphim,0.063306
serv,0.011137
servic,0.002725
sever,0.002029
shall,0.005105
shape,0.003333
shepherd,0.007173
shown,0.010119
sight,0.005190
signifi,0.005643
signific,0.004969
sikh,0.007298
sikhism,0.012950
similar,0.004649
simpli,0.003176
sin,0.005535
sire,0.009022
sixwing,0.011639
size,0.006062
smaller,0.003310
smith,0.024745
societi,0.007316
sodom,0.009970
solar,0.009286
someon,0.004547
someth,0.003742
sometim,0.007602
son,0.007454
soon,0.003569
sorcer,0.008724
soul,0.020104
space,0.003001
speak,0.003732
specif,0.002329
specifi,0.003957
spell,0.005372
spent,0.004302
spenta,0.010092
sperm,0.006422
sphere,0.013069
spirit,0.043984
spiritu,0.049338
spoke,0.005372
spoken,0.005236
sri,0.028321
st,0.003138
stage,0.003399
stand,0.007316
state,0.005109
stone,0.004347
strength,0.003948
strive,0.005581
structur,0.002274
studi,0.002057
sublim,0.013594
subordin,0.005372
subsequ,0.003037
substantii,0.011639
suffer,0.003552
suggest,0.002725
summa,0.014568
sun,0.004318
superior,0.008665
supernatur,0.022624
superscript,0.008248
support,0.002314
suppos,0.004277
sura,0.008311
surah,0.008967
swedenborg,0.008639
sword,0.006379
syllab,0.008598
sylph,0.011639
symbol,0.003534
systemat,0.003719
tacitli,0.008132
taken,0.002850
talk,0.004188
talmud,0.023123
tanakh,0.008132
task,0.021667
taught,0.004340
teach,0.022880
tell,0.004384
templ,0.005146
temptat,0.007255
term,0.014715
terminolog,0.004583
terrifi,0.007812
test,0.009547
testament,0.006098
text,0.010074
tfd,0.009970
th,0.008928
thanato,0.010551
thcenturi,0.004488
themselv,0.005775
theodosiu,0.007269
theolog,0.009490
theologian,0.005757
theologica,0.008377
theophan,0.010379
theosoph,0.008218
theosophi,0.008024
theosophist,0.037350
thi,0.024752
thing,0.009292
think,0.006751
thoma,0.006964
thought,0.005517
thu,0.015929
tie,0.003797
tilang,0.011270
timaeu,0.008104
time,0.008611
titl,0.003494
togeth,0.005368
told,0.004937
tomb,0.006199
took,0.006082
torah,0.007186
total,0.002716
touch,0.010275
tradit,0.009805
trait,0.004612
transgress,0.007727
translat,0.040215
translit,0.009858
travel,0.003437
treatis,0.004696
trinitarian,0.008411
triniti,0.006400
truli,0.004878
trumpet,0.025132
tunic,0.016559
turn,0.008073
type,0.004680
typic,0.005223
unconsci,0.005820
understand,0.002642
understood,0.007306
undin,0.010551
uniform,0.009026
uniqu,0.003319
univers,0.002016
unnam,0.007241
unusu,0.004719
upper,0.003931
uriel,0.019717
use,0.020677
usual,0.004685
van,0.004258
variou,0.002216
vatican,0.019713
vein,0.005797
vener,0.006445
venom,0.008104
veri,0.004446
vernacular,0.006729
vers,0.005731
vestment,0.009488
vicereg,0.008865
view,0.009979
virgin,0.005962
visibl,0.004302
vision,0.012649
visit,0.019555
voic,0.004639
vulgat,0.008411
wa,0.023941
warn,0.004680
warrior,0.005867
washington,0.004285
way,0.002081
wealth,0.004008
wear,0.010550
western,0.002928
wheellik,0.010983
whi,0.003581
white,0.014783
whitmer,0.011270
wing,0.084795
wisdom,0.005154
wise,0.012162
wit,0.009482
woman,0.004860
womb,0.007453
word,0.018915
world,0.025656
worldocean,0.011639
worship,0.015825
write,0.012174
written,0.006164
yad,0.009858
yam,0.014940
ye,0.012424
year,0.001964
yesodei,0.011639
yhwh,0.019511
zechariah,0.009488
zoroastrian,0.034238
