abovement,0.027878
accept,0.032680
accord,0.008676
act,0.019833
ad,0.022146
addit,0.008777
andrea,0.023086
angel,0.020807
anoth,0.008345
antenicen,0.041376
antilegomena,0.554115
apocalyps,0.088899
apostl,0.027362
appli,0.018551
arthur,0.017699
articl,0.030936
august,0.013185
authent,0.021977
authorship,0.027878
barnaba,0.106149
base,0.007560
baumler,0.045645
baur,0.039099
befor,0.008935
belong,0.014782
besid,0.017900
bibl,0.083922
bibliographi,0.015215
book,0.099434
britannica,0.042556
brought,0.012896
c,0.040051
cajetan,0.038257
cambridg,0.013877
canon,0.285395
canonwhat,0.045645
carlstadt,0.088392
categor,0.017812
cathol,0.033836
centuri,0.008997
certain,0.009590
chisholm,0.028565
christ,0.022359
christian,0.054319
church,0.158324
class,0.023244
classic,0.011577
classif,0.015461
closur,0.022630
codex,0.028622
colossian,0.037211
constantin,0.025364
corinthian,0.031470
crude,0.022008
csarea,0.045645
current,0.008972
cushman,0.039099
debat,0.026095
delight,0.028679
deserv,0.024824
deuterocanon,0.037536
develop,0.014018
didach,0.040703
digniti,0.025044
direct,0.009306
disagr,0.019929
discrimin,0.019462
discuss,0.011435
disput,0.112777
distinct,0.010794
divid,0.011113
dogmat,0.026246
domain,0.027376
doubt,0.036175
dure,0.008067
earli,0.033757
earlier,0.012468
ed,0.059061
edit,0.013206
encyclopdia,0.065659
encyclopedia,0.029064
ephesian,0.034575
epistl,0.369723
erasmu,0.027543
especi,0.009797
essay,0.016351
ether,0.026211
eusebiu,0.188822
evangelist,0.031676
everett,0.030810
evid,0.011506
exclud,0.015873
expand,0.011936
express,0.010932
extant,0.044652
extern,0.006597
f,0.012429
fact,0.010713
fals,0.017112
father,0.029669
fifti,0.021385
franz,0.023825
frederick,0.020355
galatian,0.037536
gari,0.022510
gospel,0.050728
greek,0.025553
ground,0.026258
group,0.016277
hagiographa,0.045645
hebrew,0.226483
hendrickson,0.039099
henri,0.014542
heret,0.052211
herma,0.077322
hi,0.048539
histor,0.020270
histori,0.037575
historian,0.015203
homologoumena,0.126460
howev,0.007322
hugh,0.021172
import,0.007695
includ,0.025053
incorpor,0.024780
inde,0.015341
issu,0.009681
jame,0.050901
john,0.061575
jude,0.133654
kalin,0.039099
lee,0.020512
librari,0.014171
link,0.006558
list,0.008387
liter,0.017345
london,0.012700
luther,0.131234
lutheran,0.081432
major,0.008002
mani,0.006817
mass,0.012369
matter,0.011345
mcdonald,0.057955
mcgiffert,0.045645
mean,0.008306
misunderstood,0.028796
modern,0.009047
mosaic,0.025129
need,0.009067
new,0.053897
nicen,0.034044
notabl,0.011573
note,0.008696
notha,0.088392
nt,0.028622
nuttal,0.036906
object,0.010310
old,0.012479
opposit,0.012410
order,0.016623
origin,0.008358
otto,0.021251
overlook,0.023301
p,0.011513
pass,0.011717
pastor,0.023825
paul,0.039332
paulin,0.030722
peabodi,0.032722
pentateuch,0.033413
person,0.009869
peshitta,0.080221
peter,0.082520
philemon,0.039579
philip,0.037078
philippian,0.040110
pieper,0.038257
place,0.008529
portion,0.015156
posit,0.008938
possibl,0.008821
postnicen,0.079159
pp,0.014100
prematur,0.024613
present,0.008648
press,0.010179
proper,0.015516
prophet,0.022701
public,0.034841
question,0.010861
r,0.011573
read,0.009526
reckon,0.054288
recogn,0.011761
refer,0.010970
reform,0.026835
reject,0.054089
remain,0.009071
renaiss,0.018137
respect,0.010431
revel,0.065979
revolut,0.013588
right,0.009843
roman,0.014713
rome,0.018728
said,0.022540
sander,0.049811
say,0.011884
schaff,0.077322
scholar,0.013930
scriptur,0.044140
second,0.036010
seri,0.010927
seven,0.014394
shepherd,0.084394
sight,0.020355
sinaiticu,0.039099
sinc,0.007633
socal,0.046210
sometim,0.019875
spoken,0.020535
spuriou,0.058855
statu,0.012749
teach,0.014954
term,0.043281
terminolog,0.017975
testament,0.143487
testimoni,0.024561
text,0.065844
th,0.017506
thcenturi,0.017602
theolog,0.018609
therefor,0.010376
thessalonian,0.040703
thi,0.022839
thrown,0.025424
today,0.010966
tradit,0.028838
translat,0.013142
transliter,0.028796
trent,0.030810
type,0.009178
univers,0.007906
usag,0.016012
use,0.018713
valu,0.009784
vol,0.016406
wa,0.031296
wace,0.043072
want,0.014094
warn,0.018356
weigh,0.021510
wide,0.009832
wit,0.018593
wittenberg,0.035168
wl,0.033719
wood,0.017615
write,0.059680
written,0.024172
wrote,0.013006
york,0.011757
