abdic,0.005322
abl,0.002231
abolish,0.003691
abolit,0.004639
abomin,0.006716
abraham,0.004148
absenc,0.019485
absolut,0.020974
abstract,0.003108
accept,0.013306
accord,0.031796
account,0.002080
accumul,0.003388
accur,0.003009
accus,0.003542
acknowledg,0.003406
acquaint,0.005170
act,0.006056
activ,0.003525
actual,0.004521
add,0.003368
addit,0.001787
adher,0.010719
adject,0.004828
admir,0.004185
adopt,0.002437
adult,0.003458
advanc,0.004363
advantag,0.002742
advoc,0.012129
affirm,0.004263
africa,0.005737
afterlif,0.005403
age,0.015486
agnost,0.061581
agnostic,0.049360
ago,0.003422
agre,0.002663
aim,0.002522
al,0.003030
alain,0.005589
alexand,0.003384
alien,0.004139
aliv,0.004413
alloc,0.003525
allpow,0.006610
almaarri,0.017538
alrawandi,0.008582
alrazi,0.006386
alreadi,0.002573
alway,0.002375
amalr,0.007960
ambigu,0.004150
america,0.007427
american,0.008005
analog,0.003156
analyt,0.006441
analyz,0.002969
anarch,0.005151
ancient,0.012797
andrew,0.003587
ani,0.024909
anim,0.002472
ann,0.004137
anni,0.005950
announc,0.002966
annual,0.002713
anoth,0.001699
anticler,0.006203
antimetaphys,0.008287
antiqu,0.014622
antireligi,0.021117
antisemit,0.005696
antitheist,0.016332
antoni,0.005239
anyon,0.003851
anyth,0.010473
apath,0.007960
aphor,0.005899
apologet,0.006561
apologist,0.006347
apostasi,0.006386
appear,0.006138
appli,0.011330
applic,0.004219
apprehend,0.005804
approach,0.002033
arab,0.016313
arabia,0.004321
arbitrari,0.003814
argu,0.032900
argument,0.065294
argumentscombin,0.008769
aris,0.005763
aristophan,0.006662
arizona,0.005093
arlington,0.006538
armstrong,0.005450
arrang,0.002879
arthur,0.003603
ascend,0.004628
ascrib,0.009331
aseb,0.008769
asia,0.015165
ask,0.008760
aspect,0.004643
assert,0.033381
assign,0.003173
associ,0.012079
assum,0.002447
ataraxia,0.007575
ath,0.007871
atheism,0.579496
atheist,0.568718
atheistsmost,0.008769
athenian,0.005838
atheo,0.008769
atheon,0.008769
atheot,0.008769
athism,0.008769
atmospher,0.003460
atomist,0.011178
atroc,0.010658
attack,0.005696
attackshav,0.008769
attain,0.010727
attempt,0.010075
attribut,0.008238
august,0.002684
australia,0.006141
australian,0.007347
austria,0.004087
author,0.019889
authoritarian,0.018128
autrecourt,0.008423
avail,0.002159
averag,0.010554
axiolog,0.006515
ayer,0.011982
b,0.002339
baggini,0.016574
bahrain,0.005579
bakunin,0.006515
ban,0.003559
barber,0.011955
bard,0.006203
baron,0.014100
baruch,0.005411
base,0.007696
basi,0.011001
basic,0.004285
bbc,0.004018
bbccouk,0.007712
bce,0.031271
becam,0.005840
becaus,0.009620
becom,0.001705
befor,0.005457
began,0.002126
behav,0.003788
behavior,0.007495
belgium,0.004180
belief,0.091242
beliefsa,0.008582
believ,0.039654
believersagnost,0.008769
bena,0.008423
bench,0.005781
benefici,0.003908
benjamin,0.004039
berlin,0.003793
bertrand,0.009279
best,0.007042
bestsel,0.005253
better,0.007205
biblic,0.004576
bigotri,0.007347
billion,0.003025
birth,0.003138
blackford,0.007513
blainey,0.030055
blais,0.005483
blind,0.004359
blossom,0.005570
bodhisattva,0.006449
bonaventur,0.006833
boobquak,0.008769
book,0.006073
born,0.006017
botton,0.008769
bradford,0.005950
brahmin,0.006290
brain,0.006817
branch,0.002265
brethren,0.005899
breviti,0.006561
bright,0.004658
britain,0.003000
britannica,0.004332
british,0.004756
broad,0.005721
broadcast,0.004132
broader,0.003551
broadest,0.005517
broadli,0.003565
brought,0.002625
buddha,0.014986
buddhism,0.030362
buddhist,0.012853
burden,0.004065
bureau,0.004028
burk,0.010716
bush,0.004393
c,0.012231
cabal,0.007297
caf,0.006122
cairo,0.005350
cambodia,0.005194
came,0.009329
camp,0.003859
capac,0.002957
care,0.002680
carri,0.004599
case,0.003567
cast,0.003623
categor,0.007252
categori,0.016332
cathol,0.010333
cattl,0.004178
caus,0.003808
censur,0.006106
center,0.004550
central,0.001999
centuri,0.029310
certain,0.003905
certainti,0.004502
chanc,0.003434
chang,0.006433
chao,0.004128
charact,0.002948
chatterje,0.007118
chicago,0.003476
chiefli,0.004625
child,0.006852
children,0.002934
china,0.016445
chines,0.003066
christian,0.047000
christoph,0.007477
church,0.016116
cicero,0.010629
circl,0.003437
cite,0.014919
citi,0.002463
civil,0.002447
claim,0.012993
class,0.002366
classic,0.016499
classifi,0.011543
clear,0.002655
clergi,0.014579
close,0.001908
closedmind,0.008058
cloud,0.004080
code,0.005521
cofound,0.004901
cognit,0.003382
cohen,0.009392
coher,0.003932
coin,0.008863
cologn,0.005887
comic,0.004990
command,0.002993
comment,0.003417
commit,0.005980
common,0.008626
commonli,0.004738
commun,0.003731
communist,0.007038
compar,0.002110
compat,0.008186
complet,0.001970
complex,0.004175
comprehens,0.006285
compris,0.005837
compulsori,0.004512
conceiv,0.003746
concentr,0.002792
concept,0.017920
conceptu,0.003434
concern,0.004006
conclud,0.002918
condemn,0.004018
condit,0.005989
conduct,0.004890
confer,0.002808
confid,0.003649
conjectur,0.004506
connot,0.004715
conqueror,0.005246
consciou,0.012657
conscious,0.003634
consensu,0.003559
consequ,0.004852
consid,0.019968
consider,0.004795
consist,0.001909
constitut,0.004505
construct,0.002209
constum,0.008769
contagion,0.012733
contemporari,0.008372
contenti,0.005070
contest,0.003754
continu,0.001728
contract,0.002862
contradict,0.003811
contrari,0.003731
contrarythat,0.008769
contrast,0.014461
contribut,0.006282
controversi,0.002811
convers,0.002943
convey,0.004307
convict,0.004135
convinc,0.022790
corollari,0.005579
corpor,0.002799
correl,0.019955
corrupt,0.003503
counter,0.007716
counterargu,0.006347
counti,0.004246
countri,0.011266
cours,0.004973
court,0.005412
courthous,0.007347
crackdown,0.005759
creat,0.003490
creationist,0.006773
creator,0.017106
creatorstatu,0.008769
creatur,0.004351
crime,0.003540
crisi,0.002944
critia,0.008058
critic,0.033581
crusad,0.004841
crvka,0.013729
cult,0.013986
curlett,0.008769
current,0.003653
curriculum,0.004419
cusa,0.007118
custom,0.002885
cypru,0.004756
cyrena,0.007399
cyrenaicu,0.008769
czech,0.013717
da,0.003798
danger,0.010055
daniel,0.007097
datta,0.007712
daughter,0.003916
david,0.005069
dawkin,0.028532
day,0.002153
dead,0.003577
death,0.004998
deathb,0.006688
debat,0.005312
decis,0.002405
deck,0.006186
declar,0.002755
deduc,0.004261
deduct,0.004128
deed,0.009899
defianc,0.005925
defin,0.009790
definit,0.015793
degre,0.004673
deifi,0.013123
deism,0.035785
deist,0.019614
deiti,0.077617
deliber,0.003819
demand,0.005094
demarc,0.004985
democraci,0.006356
democritu,0.010822
demograph,0.011493
demonstr,0.002564
deni,0.033077
denial,0.019701
dennett,0.017699
denomin,0.004251
denot,0.006963
denounc,0.004621
deorum,0.008058
depend,0.001882
depict,0.003559
deriv,0.004339
describ,0.007025
deserv,0.005054
design,0.002095
despit,0.007258
destruct,0.003377
determin,0.003963
develop,0.004281
dewey,0.005293
dholbach,0.021611
diagora,0.008582
dictatorship,0.004611
did,0.019063
differ,0.010588
difficult,0.007465
difficulti,0.003081
dilemma,0.004841
dinant,0.008769
disagre,0.004102
disassoci,0.006538
disbelief,0.048379
discard,0.004772
discern,0.009377
discourag,0.004307
discours,0.003907
discov,0.005025
discoveri,0.002672
discrimin,0.007924
discuss,0.002328
disfavor,0.006716
disord,0.003678
dispassion,0.006965
disprov,0.004930
disput,0.002870
disrespect,0.006515
distinct,0.006592
distinguish,0.005066
divid,0.002262
divin,0.056926
divis,0.002473
dmoz,0.003779
docta,0.007077
doctrin,0.006843
document,0.002754
doe,0.023168
dogmat,0.021374
domin,0.002348
dont,0.003987
doubt,0.014730
drang,0.007249
draw,0.005850
dream,0.004119
drop,0.003131
dure,0.014782
dysteleolog,0.007960
e,0.002312
earli,0.025772
earlier,0.007615
earliestfound,0.008769
earlystcenturi,0.008769
earth,0.005393
east,0.002641
eastern,0.002851
econom,0.001879
edmund,0.004370
educ,0.006565
effect,0.001668
egypt,0.003627
elvi,0.007642
embodi,0.003971
embryo,0.004760
emerg,0.011008
emir,0.004896
emot,0.003528
emperorworship,0.008769
emphat,0.005977
empir,0.007191
empiric,0.009301
empiricu,0.006716
encompass,0.003216
encyclopdia,0.004455
encyclopedia,0.008875
end,0.001878
enforc,0.003220
engel,0.005300
england,0.005961
english,0.004785
enlighten,0.015004
enslav,0.004915
entail,0.008017
entiti,0.002914
environment,0.002761
epic,0.004618
epicurean,0.011677
epicuru,0.005759
epistemolog,0.016330
equal,0.004678
era,0.010856
erect,0.004658
eriugena,0.007575
ernest,0.004419
especi,0.001994
espous,0.029268
essenc,0.011641
establish,0.003666
estim,0.009669
estonia,0.010303
etern,0.008685
ethic,0.031617
ethicsath,0.008769
ethnocentr,0.006688
etymolog,0.007313
eu,0.007480
euhemeru,0.015920
eurobaromet,0.023613
europ,0.016305
european,0.010698
euthyphro,0.007455
evalu,0.005953
event,0.004471
everi,0.006448
everyon,0.003966
everyth,0.013683
evid,0.011712
evil,0.012535
evolutionari,0.006769
exampl,0.007692
excerpt,0.004747
exclus,0.002934
execut,0.005204
exist,0.085413
existenti,0.009309
exjesuit,0.008769
expand,0.002430
expans,0.002898
expect,0.004720
expedi,0.005804
experi,0.002112
experienc,0.003084
experiment,0.002869
explain,0.009250
explan,0.006047
explicit,0.030008
explicitli,0.003497
explor,0.002617
expos,0.010323
express,0.002225
expuls,0.005037
extend,0.002265
extens,0.002319
extern,0.002686
extrem,0.002464
extrins,0.005827
fabl,0.005589
fact,0.004362
factor,0.002178
faith,0.020605
faithbas,0.006833
fall,0.004689
fallaci,0.004882
fals,0.003484
falsifi,0.005016
famou,0.005675
fanat,0.006449
far,0.004658
father,0.003020
favor,0.014186
fear,0.009670
featur,0.004646
feel,0.003211
fell,0.003317
femin,0.005127
feminist,0.004502
feuerbach,0.019411
fideism,0.007575
fight,0.003223
figur,0.010176
filthi,0.007712
findlay,0.007871
fl,0.005220
flat,0.003928
flew,0.005343
florida,0.004509
focus,0.004782
follow,0.014694
forbid,0.004939
forc,0.003682
form,0.023869
formal,0.002298
forsaken,0.007960
forth,0.003734
forum,0.003772
forward,0.003260
fought,0.003896
foundat,0.004790
founder,0.006439
foxhol,0.017538
fr,0.004535
fragmentari,0.006220
franc,0.018408
franklin,0.004202
franoi,0.004542
free,0.004196
freedom,0.002899
freeli,0.003995
freethink,0.006538
freethought,0.007118
french,0.022249
frequent,0.005164
freud,0.009850
friedrich,0.011271
friend,0.003648
frighten,0.005696
fruit,0.003640
fulfil,0.003714
fulldevelop,0.008769
function,0.001880
fundament,0.002352
futur,0.002237
g,0.002485
gain,0.004469
galaxi,0.004572
gallup,0.018559
gautama,0.011928
gaylor,0.017538
gener,0.010559
geoffrey,0.009604
georg,0.007942
german,0.007782
germani,0.005531
given,0.003684
global,0.007318
goal,0.002526
god,0.321510
godbas,0.008769
goddess,0.005170
godhood,0.007712
godless,0.023613
goe,0.003305
golden,0.007444
govern,0.006987
gradual,0.002952
granit,0.005716
grasp,0.004582
great,0.004140
greater,0.002313
greec,0.003472
greek,0.018208
greeley,0.007960
gregori,0.004468
ground,0.002672
group,0.003314
guilti,0.004930
h,0.002551
ha,0.026947
half,0.005057
halo,0.005827
happen,0.005806
happi,0.012185
harass,0.004995
harm,0.003541
harri,0.027042
hbert,0.007788
health,0.002560
heard,0.004367
heart,0.003371
heartless,0.007960
held,0.010859
hellenist,0.004669
help,0.002011
henc,0.002866
heresi,0.005526
heterodox,0.010776
hi,0.034588
hidden,0.004045
high,0.001860
higher,0.008735
highest,0.005625
highli,0.002418
highlight,0.003782
hindranc,0.006153
hindu,0.017035
hinduism,0.026501
histor,0.014444
histori,0.004590
historian,0.003095
hitchen,0.022041
hitherto,0.005419
hitler,0.005005
hobb,0.005157
hold,0.019913
holyoak,0.014320
homogen,0.004137
hong,0.004294
hostil,0.003809
howev,0.013417
hu,0.005626
human,0.037165
humanist,0.004462
humbl,0.005850
hume,0.014343
ibn,0.003999
iceland,0.004723
idea,0.028863
idealist,0.005087
identifi,0.019985
ideolog,0.010409
iek,0.007788
ignor,0.003186
ignorantia,0.008287
ignostic,0.007575
illus,0.013606
illusori,0.005937
imman,0.005706
immanuel,0.004636
immor,0.005127
immort,0.004864
immut,0.005646
imper,0.009939
imperman,0.006716
impieti,0.006931
impiou,0.007788
impious,0.008769
impli,0.005711
implicit,0.012907
import,0.003133
imposs,0.006212
imprison,0.004367
improb,0.006076
improv,0.002260
inclin,0.004545
includ,0.030604
incompat,0.004681
inconsist,0.008537
incorpor,0.002522
increas,0.005299
increasingli,0.005416
independ,0.003773
india,0.014061
indian,0.012163
indiana,0.004639
indic,0.011298
individu,0.009473
indra,0.006773
industri,0.002096
infer,0.003530
influenc,0.016186
influenti,0.002954
ingersol,0.006716
inhabit,0.003193
inher,0.003520
injunct,0.011955
innatismth,0.008769
inquiri,0.010991
inquisit,0.011253
inscrib,0.005646
insepar,0.005475
inspir,0.006078
instead,0.006454
instinct,0.004859
institut,0.001943
institution,0.004855
instruct,0.006916
insult,0.005483
intellect,0.004925
intellectu,0.006302
intellig,0.014330
intens,0.003050
intern,0.004829
internet,0.006026
interpret,0.002450
intervent,0.003333
introduc,0.002154
intuit,0.003930
invent,0.017933
invok,0.004411
involv,0.007123
iq,0.005748
ireland,0.003839
irrat,0.004731
irreligi,0.013324
irreligion,0.014498
islam,0.006115
issu,0.007884
itand,0.008287
j,0.018455
jacobin,0.013221
jacqu,0.004261
jacquesandr,0.008769
jagodzinski,0.008769
jainism,0.022282
jan,0.008073
japan,0.006075
jean,0.003809
jeanpaul,0.005912
jefferson,0.005246
jennif,0.005561
jewish,0.003808
jo,0.004370
johann,0.003930
john,0.010446
jordan,0.004628
joseph,0.003027
journey,0.004268
judaism,0.008787
judg,0.003392
judgment,0.007785
julian,0.004735
just,0.002141
justic,0.006208
justifi,0.003694
kant,0.008887
kantian,0.005815
karen,0.005259
karl,0.010364
kazimierz,0.006744
khmer,0.005991
kind,0.004893
kingdom,0.002443
know,0.011132
knowabl,0.006237
knowledg,0.020792
known,0.010743
knutzen,0.008423
kong,0.004332
korea,0.007414
kuwait,0.005194
label,0.006609
lack,0.004683
lampsacu,0.007788
land,0.004648
landmark,0.004323
languag,0.004616
larg,0.004855
larger,0.004848
late,0.006378
later,0.016438
latin,0.002886
lauri,0.006203
law,0.009250
lawmak,0.011178
lead,0.005497
leader,0.008056
leagu,0.003768
leap,0.004887
learn,0.002579
leav,0.005201
led,0.001982
legalist,0.006407
legisl,0.002811
lend,0.003945
lenin,0.010791
leonardo,0.005026
letter,0.003031
level,0.001836
liber,0.002768
liberti,0.003898
librari,0.005770
lie,0.003008
life,0.013819
like,0.008201
likelihood,0.004258
limit,0.005626
link,0.002670
liter,0.003531
literari,0.003851
literatur,0.005487
littl,0.004700
live,0.005956
local,0.004159
lock,0.007955
logic,0.017833
lokyata,0.007871
long,0.001993
loss,0.002686
love,0.003645
low,0.002353
lower,0.004538
ludwig,0.012650
luther,0.005343
lvistrauss,0.006347
m,0.002196
machiavelli,0.005759
madalyn,0.016332
madsen,0.007513
magazin,0.003555
mainland,0.003989
maintain,0.002141
major,0.013033
make,0.012492
malais,0.006470
malta,0.005059
man,0.016302
mandat,0.003826
mani,0.011103
mankind,0.004431
mao,0.022468
maoist,0.006347
martin,0.013001
marx,0.017168
marxism,0.009604
mass,0.005036
materi,0.008607
materialist,0.049647
mathemat,0.002414
matter,0.004619
matthia,0.005696
max,0.003752
mccollum,0.007575
mccreight,0.008769
mean,0.011838
meaning,0.003991
meaningless,0.025850
meant,0.003149
media,0.002816
mediev,0.003275
mediumhigh,0.008769
mention,0.002972
merci,0.005314
mere,0.009062
meslier,0.008423
messag,0.003816
metaphys,0.039288
michael,0.002826
michel,0.004209
middl,0.010127
mikhail,0.004837
milit,0.004798
million,0.007235
mimamsa,0.014078
mind,0.011583
mirecourt,0.008769
miser,0.005815
misrepres,0.005696
modern,0.012893
moksha,0.006290
molest,0.007160
monism,0.016210
monist,0.005804
monopoli,0.003934
monotheist,0.005450
montaign,0.006538
monument,0.004396
moral,0.058369
mormon,0.006061
morocco,0.004859
motiv,0.003000
movement,0.029644
muhammad,0.004411
multipl,0.002361
murder,0.015599
murray,0.013322
muslim,0.003434
mystic,0.004528
myth,0.003921
n,0.002757
nagel,0.006203
naigeon,0.008769
napoleon,0.004187
narrow,0.006935
nation,0.010209
nationalist,0.003981
natur,0.011475
natura,0.005535
naturalist,0.012549
nearli,0.005349
necessari,0.012236
necessarili,0.003005
need,0.014767
neg,0.021302
negat,0.004887
neiman,0.008423
neopagan,0.006122
neopositiv,0.015742
net,0.003227
netherland,0.007157
new,0.008229
newborn,0.005395
niccol,0.005759
nichola,0.008261
nicol,0.005579
nietzsch,0.010377
nigel,0.011631
nihil,0.011701
nobodi,0.005373
nois,0.004379
nomin,0.003205
nominalist,0.006897
non,0.004425
nonalchemist,0.008769
nonastrolog,0.008769
nonbelief,0.016332
nonbeliev,0.006965
nonchristian,0.005925
noncognitiv,0.013795
nonphys,0.005912
nonreligi,0.017736
nonsens,0.005293
nontheism,0.007455
nontheist,0.006237
norm,0.003561
north,0.002438
note,0.012393
noteworthi,0.005188
noth,0.009748
notion,0.005810
noun,0.004832
novelist,0.005293
nuanc,0.005450
number,0.009217
numer,0.002274
obedi,0.005350
object,0.008396
objectiv,0.012941
obliter,0.006716
obscur,0.004253
occasion,0.003464
occurr,0.003971
ockham,0.011955
offens,0.004279
offer,0.002283
ohair,0.016332
older,0.009667
oldest,0.003321
omnibenevol,0.015284
omnipot,0.011585
omnipres,0.006018
omnisci,0.012094
oneself,0.004806
onli,0.021202
onlin,0.002687
ontolog,0.012621
open,0.002102
openli,0.013952
opium,0.005526
oppos,0.002566
opposit,0.002526
oppress,0.009057
order,0.005076
organ,0.011724
origin,0.005105
orthodox,0.012405
outlaw,0.004930
outsid,0.002342
outspoken,0.005685
pagan,0.009439
palestin,0.004841
panenth,0.006186
panentheist,0.006965
pantheism,0.005759
pantheist,0.012244
parsimoni,0.005759
parti,0.002373
partial,0.002824
particular,0.001922
particularli,0.008614
pascal,0.009553
passion,0.004611
past,0.004872
path,0.006226
paul,0.002669
pave,0.008685
peac,0.005922
pejor,0.010716
pens,0.007001
peopl,0.035553
percentag,0.013687
perfect,0.003430
perhap,0.005709
period,0.007298
periyar,0.008166
permit,0.003127
perpetu,0.004160
persian,0.003858
persist,0.003481
person,0.020093
personhood,0.006492
personifi,0.006203
perspect,0.002747
pertain,0.004246
pew,0.018559
phenomena,0.005863
phil,0.011215
philodemu,0.007960
philosoph,0.080859
philosophi,0.062745
philpap,0.005598
physic,0.002009
pieti,0.005675
place,0.005209
plaintiff,0.006309
plan,0.002325
plato,0.008090
plausibl,0.004589
play,0.004434
plinth,0.007642
plu,0.003454
plural,0.003949
point,0.003562
pol,0.006427
poland,0.004195
polem,0.005862
polici,0.002272
polish,0.004148
polit,0.019272
poll,0.042740
poorer,0.005016
popul,0.015293
popular,0.002196
portray,0.003997
posit,0.027298
positiv,0.010001
possess,0.005518
possibl,0.005388
pot,0.005388
pound,0.004413
poverti,0.003622
power,0.007207
practic,0.016955
pragmat,0.012876
prayer,0.004639
preced,0.003336
precept,0.005509
precis,0.002900
preclud,0.005048
predat,0.003908
prefer,0.002696
prejud,0.007160
prejudic,0.004887
prescript,0.004639
presenc,0.002662
present,0.003521
preserv,0.002967
presocrat,0.010746
prevail,0.003725
prevent,0.002517
previou,0.002655
prier,0.008769
priest,0.004169
primarili,0.002406
primit,0.003896
principl,0.004227
priori,0.004719
priv,0.007712
probabilityth,0.008769
probabl,0.007580
problem,0.003766
prodicu,0.014236
produc,0.001832
profil,0.003801
project,0.002178
prolif,0.005021
promin,0.016567
promot,0.002511
proof,0.007180
propag,0.003923
proper,0.003159
properti,0.002132
propon,0.003689
propos,0.002172
proposit,0.016188
protagora,0.006407
protest,0.009817
prove,0.002717
provid,0.004686
prussia,0.005213
pseudoreligion,0.008769
psychoanalyst,0.006170
psycholog,0.003001
psychologist,0.008069
public,0.007093
publish,0.007817
punish,0.007747
pure,0.002784
pursu,0.003202
purva,0.007575
pyrrhonismthat,0.008769
qualifi,0.007405
qualiti,0.007870
quantifi,0.003956
question,0.006633
quick,0.004351
quietli,0.005665
quit,0.002975
quot,0.003683
quotat,0.004677
quran,0.005104
rabelai,0.007297
racism,0.005176
racist,0.005727
radic,0.006455
ralism,0.007347
ramasami,0.007788
rancher,0.006688
rang,0.010568
rare,0.002897
rate,0.006546
ration,0.015173
rational,0.009939
rationalist,0.025465
rdcenturi,0.007160
reach,0.002269
reaction,0.002863
read,0.001939
real,0.002317
realiti,0.003037
realli,0.007185
reason,0.020042
recent,0.007735
reclaim,0.005213
recogn,0.002394
recognit,0.003061
reconcil,0.004390
record,0.002353
reduc,0.002115
reductionari,0.008769
refer,0.006700
reflect,0.002399
reform,0.002731
reformist,0.005350
refut,0.008822
regard,0.008570
regim,0.013016
region,0.003999
regul,0.002643
regular,0.006118
reign,0.003861
reject,0.055060
rel,0.012013
relat,0.007528
relatedli,0.006688
relativ,0.005483
relev,0.002920
relianc,0.004477
religi,0.094136
religion,0.133682
religionist,0.007455
religiousbelief,0.008769
remain,0.007387
renaiss,0.007385
render,0.007325
report,0.010732
repres,0.001831
represent,0.002817
republ,0.010484
requir,0.010548
research,0.007246
reserv,0.002970
resolv,0.003243
resort,0.004144
resourc,0.002260
respect,0.006371
respond,0.024095
respons,0.009684
restructur,0.004411
result,0.004666
reveal,0.002937
revel,0.004477
rever,0.009970
revers,0.003074
revolut,0.011066
richard,0.013794
richer,0.005336
right,0.004008
risen,0.004704
robert,0.002455
role,0.003912
roman,0.011982
romania,0.004684
rome,0.003812
root,0.005642
rose,0.003388
roug,0.006170
roughli,0.003132
rule,0.006115
ruler,0.003731
russel,0.007828
ruthless,0.005862
s,0.004751
safeti,0.003599
said,0.009178
sam,0.029758
samkhya,0.012941
sampl,0.003327
saramagohav,0.008769
sartr,0.018510
saudi,0.004552
saudia,0.008769
save,0.003171
say,0.007258
scant,0.006272
schklenk,0.008769
scholar,0.002836
scholarship,0.003993
school,0.034081
schopenhau,0.005950
scienc,0.009391
scientif,0.006741
scientism,0.006220
scope,0.006566
score,0.008186
scottish,0.004286
scotu,0.006254
sderqvist,0.008287
second,0.001832
sect,0.004677
secular,0.061839
secularist,0.006931
secur,0.002372
seek,0.002505
seen,0.008764
seiz,0.003839
selfavow,0.007642
selfidentifi,0.018056
selfreport,0.005950
sell,0.003159
semiatheist,0.008769
sens,0.013787
separ,0.004080
serv,0.002222
set,0.001729
seventeenth,0.004850
sever,0.004860
sexism,0.012694
sextu,0.006515
sexual,0.003669
shah,0.005170
shalt,0.007077
share,0.002176
short,0.002381
siddhartha,0.006833
sigh,0.007399
sigmund,0.005182
similar,0.003711
similarli,0.002944
simpl,0.002469
simpli,0.007608
sin,0.004419
sinc,0.006216
singular,0.004095
situat,0.004785
sixteenth,0.004906
skeptic,0.032747
slaveri,0.004095
slavoj,0.007642
slightli,0.003368
smart,0.009765
smartest,0.007712
smith,0.009878
social,0.027680
societ,0.004370
societi,0.013630
sociolog,0.003682
sociologist,0.008822
socrat,0.009596
soften,0.006033
someth,0.002988
sometim,0.010116
sophistri,0.007001
sort,0.013039
sought,0.006055
soul,0.004012
soulless,0.007712
sourc,0.005864
south,0.007301
soviet,0.013465
space,0.002396
specif,0.007438
spectrum,0.003675
spinoza,0.015944
spirit,0.010535
spiritu,0.025067
spread,0.005494
stalin,0.025551
stand,0.002920
stanford,0.003610
state,0.025838
statement,0.019972
statist,0.002549
statu,0.002595
steal,0.005127
stenger,0.014320
stephen,0.003452
stika,0.007347
stirner,0.007118
strato,0.007642
strict,0.003611
strictest,0.006170
strictli,0.003665
strong,0.002258
stronghard,0.008769
strongli,0.005991
struck,0.004419
structur,0.005447
studi,0.008212
stupid,0.006061
subconsci,0.005925
subject,0.005931
subordin,0.004289
subsequ,0.002425
substanti,0.002885
subtl,0.004596
success,0.002061
suffer,0.002836
suggest,0.006527
superior,0.003459
supernatur,0.018063
support,0.001847
supposedli,0.004743
suprem,0.009548
supremaci,0.005081
sure,0.004258
surround,0.002846
survey,0.029874
surviv,0.008041
susan,0.004752
suspend,0.003863
sweden,0.003882
syntheism,0.008582
systemat,0.002969
taken,0.002275
taoism,0.005314
taught,0.003465
tear,0.004985
tell,0.003500
tendenc,0.010470
tenet,0.004576
term,0.032309
terror,0.004137
terrorist,0.009408
text,0.002681
th,0.028514
thcenturi,0.014334
theism,0.057379
theist,0.031834
theistic,0.034364
themselv,0.018443
themselvesto,0.008769
theo,0.018764
theodicean,0.008769
theodor,0.004253
theodoru,0.007249
theodosiu,0.005804
theolog,0.018943
theologian,0.009193
theori,0.001821
theorist,0.003622
therefor,0.008449
thermidorian,0.008423
thi,0.037200
think,0.002695
thinker,0.015028
thoma,0.005560
thoroughli,0.004925
thou,0.005937
thought,0.015418
thu,0.001816
time,0.011001
timothi,0.004964
tirthankara,0.007077
today,0.004465
togeth,0.002143
toland,0.007455
toler,0.011797
tortur,0.004677
totalitarian,0.005098
trace,0.002980
tradit,0.001957
trait,0.003682
transcend,0.017585
transcendent,0.009929
translat,0.002675
transliter,0.005862
travers,0.005054
treat,0.002721
treatis,0.003749
trend,0.008905
tri,0.002446
trial,0.007092
true,0.010065
truth,0.006613
truthit,0.008769
turn,0.002148
type,0.001868
uae,0.005950
uk,0.002848
ulterior,0.007249
unabl,0.003229
unacquaint,0.007960
unaffili,0.026754
unattain,0.006716
unawar,0.005054
uncertainti,0.003616
undeni,0.006309
underdevelop,0.005194
undermin,0.008239
understand,0.004219
understood,0.002916
underw,0.004509
unfett,0.006272
ungodli,0.008582
unintellig,0.006220
uninterest,0.006106
union,0.016166
unit,0.006270
uniti,0.003416
univers,0.011268
unjustifi,0.005887
unnecessari,0.009179
unobserv,0.005329
unpreced,0.004413
unprov,0.006328
unproven,0.011774
unreason,0.005770
unutter,0.008423
unveil,0.010601
unverifi,0.006220
unwarr,0.006688
urg,0.004102
usag,0.003259
use,0.016509
usher,0.004760
utilitarian,0.004925
v,0.005542
vale,0.006636
valid,0.005935
valu,0.005976
vanish,0.004558
vari,0.006873
varieti,0.009334
variou,0.005308
vashti,0.008769
veda,0.010533
vedic,0.010629
vehement,0.005899
veri,0.008874
versa,0.004411
vice,0.003598
victor,0.004183
view,0.037848
viewpoint,0.004091
vile,0.007297
vinci,0.005300
violenc,0.007402
virginia,0.004477
virtu,0.003938
virtual,0.009221
visvi,0.006427
vladimir,0.004422
voltair,0.016631
volum,0.002662
volumin,0.006470
vs,0.007505
w,0.002607
wa,0.054796
wager,0.006427
wall,0.003290
want,0.002869
war,0.004415
warraq,0.008423
way,0.013294
weak,0.003087
weaksoft,0.008769
wealth,0.006401
web,0.003369
websit,0.002938
wellb,0.004157
western,0.009351
whatev,0.003826
wherea,0.002696
wherev,0.004985
wicca,0.006662
wide,0.006005
wildli,0.006047
william,0.002490
wise,0.004855
wit,0.003785
witch,0.005607
withhold,0.005336
wittgenstein,0.005365
wolfgang,0.004719
woman,0.003880
women,0.005915
word,0.017259
work,0.016760
world,0.031514
worldview,0.009537
worldwid,0.006306
worship,0.008423
wrath,0.006047
write,0.024300
writer,0.012759
written,0.004921
wrong,0.007311
wrote,0.007943
wycliff,0.006833
ye,0.004959
year,0.006274
young,0.005771
yszczyski,0.008769
zdybicka,0.008769
zeal,0.006328
zedong,0.005874
zofia,0.007575
zuckerman,0.013795
