abandon,0.003028
abba,0.004952
abdulbah,0.027168
abjad,0.007224
absolut,0.002750
absorb,0.003241
accept,0.006107
accord,0.003242
account,0.003819
achiev,0.002039
acquir,0.002641
acr,0.004339
addit,0.003280
admonish,0.006301
adopt,0.002237
adrianopl,0.006533
advanc,0.002002
afnan,0.008530
afnn,0.017060
age,0.006091
agre,0.002444
ahang,0.008530
ahl,0.006496
ahmad,0.014072
akka,0.008259
al,0.008343
alar,0.006461
albaqara,0.007495
albayt,0.007606
ali,0.028137
alimuhammad,0.008530
alislm,0.008259
alkaf,0.008530
alkawthar,0.008259
allegedli,0.004175
allow,0.003224
allud,0.004952
alm,0.005791
alqaim,0.007732
alqim,0.008530
alreadi,0.002362
alsoedit,0.005104
alway,0.002180
amanat,0.007149
amir,0.005486
analysi,0.001954
angel,0.003888
ani,0.002858
anim,0.004539
announc,0.002722
anonym,0.004293
anoth,0.003119
answer,0.011548
antibbist,0.008530
anticip,0.003606
apolog,0.004938
apost,0.006301
apostasi,0.011724
apostl,0.010226
appar,0.002768
appear,0.013146
appeas,0.005286
appli,0.001733
appoint,0.013327
approach,0.001866
april,0.007441
arab,0.032943
archangel,0.006361
archiv,0.005968
arrang,0.002643
arrest,0.017817
arriv,0.002610
ascend,0.004248
asiat,0.005450
ask,0.002680
assert,0.002785
assum,0.002246
astonish,0.005266
attend,0.006187
attent,0.005288
attitud,0.003328
audiobook,0.005064
author,0.018256
authorit,0.004525
avail,0.001982
avoid,0.002421
await,0.004840
away,0.002469
azal,0.007495
azali,0.014298
azerbaijian,0.008530
b,0.002147
bab,0.044757
babism,0.016518
baghdad,0.022516
bah,0.146658
bahji,0.008049
bahullah,0.008530
bahullh,0.112394
balyuzi,0.008259
baptist,0.004734
baraghni,0.008530
barrack,0.016315
basi,0.002019
basic,0.003933
basm,0.008530
bayan,0.006842
bayn,0.038171
baynulharamayn,0.008530
bb,0.857637
bbbah,0.008530
bbc,0.003688
bbi,0.030425
bbism,0.007149
beard,0.005228
bearer,0.005276
beat,0.004112
becam,0.016084
becaus,0.008830
becom,0.001565
befor,0.015028
beg,0.005113
began,0.005856
begin,0.005719
beirut,0.005826
belief,0.005234
believ,0.018199
bibl,0.003920
bibliographi,0.002843
big,0.002960
birth,0.005761
bl,0.005577
black,0.002638
blasphemi,0.006067
boldli,0.006612
book,0.022297
border,0.005760
born,0.005523
boy,0.007705
brief,0.003098
brill,0.020623
bring,0.002430
british,0.002182
broad,0.002626
broadcast,0.003793
broke,0.003352
brother,0.003278
brought,0.004820
brown,0.026539
bullet,0.004834
bushehr,0.053245
busi,0.004407
calendar,0.004009
calendaredit,0.008530
cambridg,0.005186
came,0.006422
camp,0.003542
campaign,0.002939
canada,0.002804
capit,0.004259
carmel,0.013395
catalogu,0.004464
caus,0.003495
cautiou,0.005010
ce,0.003587
cell,0.005632
centr,0.005384
central,0.001835
challeng,0.002339
champion,0.004065
chant,0.005010
chapter,0.012207
chehriq,0.034120
chief,0.002726
chihrq,0.016518
child,0.003144
choic,0.002572
cholera,0.005266
christ,0.004178
christian,0.005075
cie,0.005980
circl,0.003155
citi,0.011307
claim,0.055657
claimant,0.005381
clandestin,0.005228
clean,0.003833
clear,0.002437
clemenc,0.007014
clergi,0.040145
cleric,0.009479
close,0.007008
cloth,0.003423
collect,0.001910
come,0.003745
commemor,0.008769
commentari,0.037752
common,0.001583
commonli,0.002174
commot,0.007079
commun,0.010274
companion,0.007554
compar,0.001937
compil,0.006757
complet,0.009043
compli,0.004317
compos,0.027331
composit,0.002715
comprehens,0.002884
conceiv,0.003438
condit,0.001832
conduct,0.002244
confid,0.003350
confin,0.003516
confus,0.002947
connect,0.002156
conscious,0.003336
consid,0.006109
consider,0.004401
consist,0.008764
constantli,0.003651
constitut,0.002067
consult,0.003024
contain,0.007515
contemporari,0.002561
content,0.005168
continu,0.004760
contrast,0.002212
contribut,0.001922
controversi,0.002580
convert,0.002669
convey,0.007908
copi,0.009472
cormick,0.008530
cornel,0.004142
corner,0.004225
corpor,0.005139
correct,0.002637
correspond,0.002377
counsel,0.004216
countri,0.001723
coupl,0.006061
courtyard,0.012135
creat,0.001601
creation,0.002383
credenc,0.005537
credibl,0.004076
critic,0.001926
crowd,0.004081
crown,0.006784
current,0.001676
custodian,0.005774
cut,0.002780
dalilisabih,0.008530
damascu,0.005191
date,0.002188
daughter,0.007189
dawnbreak,0.015754
day,0.015811
death,0.022938
debat,0.004876
decemb,0.004806
decis,0.002208
declar,0.032885
declarationedit,0.008530
deeper,0.003913
defeat,0.003098
defin,0.005392
deleg,0.003698
delicatelook,0.008530
deliv,0.003087
demand,0.002338
demonstr,0.002354
deni,0.009108
depart,0.004592
departur,0.004022
deputi,0.007014
deriv,0.001991
descend,0.003170
describ,0.006448
descript,0.002394
destroy,0.002738
did,0.013609
die,0.005018
differ,0.006942
dimens,0.003013
diplomat,0.003111
disagr,0.003724
disappear,0.003329
discipl,0.013130
disclos,0.004575
disclosur,0.004712
discontinu,0.003976
discret,0.003088
discuss,0.006411
disguis,0.004774
display,0.002976
disput,0.002634
dissert,0.004460
distinguish,0.002325
distribut,0.006483
dit,0.007014
divers,0.002518
divert,0.004599
divin,0.031351
doctor,0.003125
doctrin,0.006281
document,0.005057
domain,0.002557
domin,0.002155
door,0.004095
doubt,0.003380
dozen,0.003663
drb,0.008530
dress,0.004350
dujarr,0.008530
dump,0.005130
dure,0.009045
earli,0.029964
earlier,0.004659
earliest,0.007906
easi,0.003202
easier,0.003376
easili,0.002701
eaten,0.004756
ed,0.008829
edirn,0.020690
edit,0.014807
editeur,0.008530
edward,0.002868
effect,0.001531
effendi,0.013395
eighteen,0.009360
eighteenth,0.004030
eightyf,0.007495
ej,0.005550
elijah,0.005980
elucid,0.004388
embarrass,0.004938
emerg,0.002020
emphas,0.005534
emphasi,0.002860
english,0.002196
englishlanguag,0.005182
enjoy,0.003001
entir,0.006135
epidem,0.004376
episod,0.011617
equal,0.002147
equivoc,0.005919
erect,0.004275
esoter,0.004821
especi,0.001830
essenc,0.003561
essenti,0.002191
establish,0.003365
estim,0.002218
ethic,0.002902
event,0.002051
eventu,0.004482
evid,0.002150
evolv,0.002588
exact,0.003008
exalt,0.005327
examin,0.002467
exampl,0.001412
exceed,0.003311
excerpt,0.004358
execut,0.021497
executionedit,0.007732
exil,0.003601
exist,0.003135
expect,0.004332
experi,0.001939
expert,0.003114
explain,0.002122
explan,0.002775
explicitli,0.006420
exposit,0.004321
extant,0.016688
extens,0.002129
extern,0.001232
extract,0.003035
extrem,0.004523
eyewit,0.022203
face,0.002366
fail,0.002370
failur,0.002743
fair,0.003193
faith,0.025217
famili,0.004366
far,0.002138
father,0.005544
fatimah,0.006953
fatwa,0.006612
februari,0.023056
feet,0.007701
ferrabi,0.008530
festiv,0.003916
fifti,0.003996
figur,0.004670
final,0.010197
finish,0.003628
focu,0.002313
follow,0.021580
foot,0.003663
forerunn,0.004477
form,0.002577
forti,0.012629
fortress,0.018437
founder,0.008865
fourteen,0.009170
fr,0.004163
freeli,0.007334
french,0.002269
ftimih,0.015754
fulfil,0.003409
fulli,0.002542
function,0.001726
furthermor,0.002889
garden,0.003771
gate,0.036734
gather,0.005878
gener,0.001211
genesi,0.004242
genr,0.003981
georg,0.014580
given,0.005073
god,0.053119
good,0.001874
gorji,0.017060
govern,0.011223
governor,0.012379
grade,0.007865
gradual,0.010841
grammar,0.004193
granvil,0.006496
great,0.001900
green,0.002899
grew,0.002817
ground,0.002453
group,0.006083
grow,0.002162
gulf,0.003814
gutenberg,0.004516
ha,0.007870
habbullh,0.017060
habibullah,0.006953
hadith,0.005370
hadyidawlatabd,0.008530
haifa,0.006067
half,0.004641
hamadan,0.007732
hand,0.004178
handsom,0.006023
handwrit,0.005577
happi,0.003728
hardcov,0.005486
harm,0.003250
harsh,0.004011
haykal,0.008259
hbahai,0.008530
head,0.010883
hear,0.003555
heart,0.003094
heaven,0.008076
heir,0.004314
held,0.001993
herald,0.004739
hi,0.172345
hidden,0.048268
high,0.001707
histor,0.001894
histori,0.007021
hj,0.006139
hm,0.004477
hold,0.002030
holi,0.003569
home,0.007223
homili,0.006792
hour,0.002962
hous,0.011309
howev,0.008210
hundr,0.010247
husayn,0.067809
husaynedit,0.008530
huseyn,0.007396
ibn,0.003670
ident,0.009657
identifi,0.004076
illinoi,0.008254
illustr,0.005750
imam,0.067606
imit,0.003988
imm,0.006272
immedi,0.002478
immin,0.004846
impli,0.002621
import,0.012942
impostor,0.006842
impress,0.003441
imprison,0.008018
imprisonmentedit,0.008530
incarcer,0.005450
includ,0.002340
inconsist,0.007836
incorrect,0.004014
incorrig,0.006842
independ,0.001731
indic,0.002074
individu,0.001739
infal,0.005648
inform,0.001676
insan,0.005200
insist,0.003440
inspir,0.008369
instantan,0.004423
instantli,0.005041
instead,0.003949
instruct,0.006348
insurrect,0.004945
intact,0.004321
intend,0.005220
inter,0.004739
internet,0.002765
interpret,0.006748
introduc,0.001977
invit,0.003474
involv,0.001634
iran,0.042072
iranian,0.004252
iraq,0.007546
isbn,0.029898
isfahan,0.035757
islam,0.016840
isol,0.002737
israel,0.003452
issu,0.007237
istanbul,0.005237
iter,0.004219
ithaca,0.005327
jailor,0.008259
januari,0.002406
jeopard,0.005881
john,0.003835
join,0.002507
joseph,0.008335
journal,0.002168
journey,0.003918
judgement,0.004262
juli,0.009741
juma,0.006953
june,0.009825
just,0.001966
kaaba,0.013144
kabir,0.006533
kalimt,0.008530
karbala,0.007079
kazim,0.068458
khadijeh,0.017060
khadjihbagum,0.008530
khan,0.008776
khasilisabih,0.008530
khsish,0.008530
khutbih,0.008530
kill,0.011133
kind,0.004491
kirmanshah,0.008530
kitabi,0.008259
kitabulasm,0.008530
kitbifihrist,0.008530
kitbipanj,0.008530
kitbiqn,0.007732
kitbir,0.008530
knowledg,0.002120
known,0.007043
l,0.002481
lambden,0.008530
languag,0.006356
larg,0.001485
lash,0.006139
late,0.007806
later,0.011735
laurier,0.006896
law,0.001698
lawson,0.011297
lay,0.003172
le,0.003357
lead,0.003363
leader,0.009859
leadership,0.006116
leav,0.002387
lectur,0.003065
led,0.003638
left,0.006741
legisl,0.005161
leiden,0.014816
lend,0.003621
length,0.019577
lengthi,0.004396
lenient,0.006091
letter,0.044522
librari,0.002648
librivox,0.005191
life,0.001812
lifeedit,0.013907
light,0.004647
like,0.003011
linksedit,0.005147
list,0.006269
literatur,0.002518
littl,0.002157
live,0.014580
livingedit,0.007732
lo,0.003865
local,0.007636
locat,0.002072
london,0.002373
long,0.005490
longer,0.006974
lost,0.007348
lower,0.002082
m,0.002015
maceoin,0.025590
mahdi,0.043151
maid,0.006114
major,0.005981
make,0.007166
maktab,0.007877
maku,0.076770
man,0.014963
mani,0.014014
manifest,0.029183
manouchehr,0.015212
manuchehri,0.008530
manuscript,0.015299
march,0.016361
mark,0.002263
marri,0.003533
marriag,0.003563
marriageedit,0.008530
master,0.003008
materi,0.001975
matern,0.004503
matur,0.003279
maximum,0.003065
mazraih,0.008049
mean,0.003104
mecca,0.036467
medic,0.002595
medina,0.010655
medium,0.003213
meet,0.004561
melodi,0.005693
mention,0.002728
merchant,0.020085
mere,0.002772
messag,0.007005
messeng,0.017876
messiah,0.005564
messian,0.011049
met,0.005764
metaphor,0.003963
metaphys,0.003606
mid,0.002806
middl,0.002323
middleclass,0.004821
mild,0.004350
million,0.002213
mind,0.002658
minimum,0.003074
minist,0.007629
minor,0.002608
mir,0.005486
miracl,0.008800
mirza,0.018418
miscellani,0.006361
mission,0.011241
mistak,0.003879
mode,0.003173
modest,0.004115
moham,0.004585
mohammad,0.005104
momen,0.007606
month,0.019922
moojan,0.008049
moot,0.006023
morn,0.004095
mosqu,0.014322
mostli,0.004809
mother,0.006496
mount,0.006571
movement,0.009718
movementedit,0.008530
mrz,0.030425
muhammad,0.044536
muhammadali,0.008530
mull,0.082761
multipl,0.002167
musket,0.005426
muslim,0.009456
mystic,0.008314
nabl,0.008530
nablizarand,0.017060
nader,0.005980
naqshband,0.007606
narr,0.011127
natur,0.001504
nd,0.002622
near,0.002317
nearli,0.004909
necessari,0.002246
netherland,0.003284
network,0.002356
new,0.011331
nichola,0.007582
nicola,0.004222
night,0.010371
nineteen,0.010113
nonbb,0.008530
nongovernment,0.004507
northwestern,0.004279
notabl,0.002162
note,0.008125
notesedit,0.005791
novemb,0.002528
nubuvvih,0.008530
number,0.002820
numer,0.016705
nuqtat,0.008530
obey,0.004022
observ,0.001860
occupi,0.002825
occur,0.005372
octob,0.004874
offer,0.002095
offici,0.002139
older,0.002957
onli,0.010379
openli,0.004269
opinion,0.002995
oppos,0.002355
opposit,0.002319
order,0.013979
organ,0.001537
origin,0.004686
outer,0.003601
outlin,0.002743
outsid,0.006450
overse,0.004203
oxford,0.015889
page,0.019342
paint,0.003579
parallel,0.002920
parent,0.003174
pari,0.003082
pass,0.004379
past,0.002236
paul,0.002450
pdf,0.003262
pen,0.013549
penalti,0.004216
peopl,0.004662
period,0.003349
persecut,0.008124
persia,0.012591
persian,0.046036
person,0.003688
phase,0.002710
philosoph,0.004947
physician,0.010666
piec,0.003112
pilgrimag,0.039735
place,0.006376
plain,0.003683
poet,0.003897
point,0.001634
polem,0.005381
polici,0.002085
popular,0.010082
portrait,0.004571
portray,0.003668
pose,0.003433
posit,0.001670
possibl,0.001648
postpon,0.004589
power,0.001654
pp,0.002635
prayer,0.021294
preach,0.009228
pregnanc,0.004696
preoccupi,0.005338
prepar,0.005242
presenc,0.007332
present,0.003232
presentday,0.003630
press,0.009511
pressur,0.004865
primal,0.005370
primari,0.002133
primarili,0.002209
prime,0.007790
primeminist,0.006461
princ,0.006975
princip,0.002524
principl,0.005820
prison,0.003430
probabl,0.004638
proclaim,0.010968
proclam,0.004633
proclamationedit,0.008530
produc,0.006726
project,0.001999
promin,0.010137
promis,0.027333
prompt,0.003538
pronounc,0.003904
proof,0.009886
propheci,0.004911
prophet,0.008484
prophethood,0.006654
prove,0.007483
provinc,0.005975
provision,0.004095
public,0.016277
publicli,0.013834
publish,0.007175
punish,0.010666
pure,0.002555
purpos,0.004204
qa,0.005741
qaim,0.015754
qajar,0.012488
qayymulasm,0.017060
quarter,0.003361
qudd,0.017060
question,0.014207
quit,0.002731
quot,0.003381
quran,0.037483
rabbani,0.006896
rais,0.002383
rang,0.001940
rapid,0.002801
rapidli,0.002724
rashti,0.076770
read,0.001780
readi,0.003767
realiti,0.002788
reason,0.001839
recant,0.036689
receiv,0.001958
recept,0.004056
recipi,0.003956
recit,0.004680
recogn,0.015385
reconstruct,0.003212
recount,0.004756
refer,0.004100
referencesedit,0.005048
refus,0.002991
regard,0.001966
regul,0.002426
relat,0.001382
relax,0.003918
releas,0.002561
religi,0.020946
religion,0.013053
remain,0.010171
render,0.003361
renew,0.002997
repent,0.005648
repetit,0.004181
repli,0.004216
report,0.009850
repres,0.001681
reprint,0.003942
request,0.006231
requir,0.004840
rescu,0.004067
research,0.001662
resourcesedit,0.015754
respons,0.007111
restrict,0.002375
result,0.004283
resurrect,0.004547
retriev,0.030453
return,0.006223
reveal,0.032355
revel,0.024659
rid,0.004945
ring,0.003471
rival,0.003386
ronald,0.021969
root,0.002589
rope,0.004945
royal,0.002704
rumour,0.005678
s,0.001453
sacr,0.003925
sahfih,0.008530
sahfihyijafariyyih,0.008530
sahfihyimakhznih,0.008530
saiedi,0.017060
sail,0.003877
sanctuari,0.005147
sane,0.006272
saniti,0.006139
saoshyant,0.007877
satisfactorili,0.005709
save,0.002910
say,0.002220
sayi,0.008049
sayyid,0.024761
school,0.004170
sea,0.005230
search,0.002623
second,0.010094
secretari,0.010046
secretli,0.004938
section,0.007619
seek,0.002300
sejdlimohmdirzi,0.008530
select,0.011144
selim,0.006461
send,0.003205
sens,0.004218
sent,0.014206
sentenc,0.003504
sepehr,0.008530
septemb,0.022247
seri,0.002042
sermon,0.005138
servant,0.003951
servic,0.001997
seven,0.013449
seventeen,0.009631
sever,0.013384
seyi,0.007079
shah,0.014236
shaken,0.005648
shall,0.014966
shan,0.006001
shape,0.002443
sharia,0.005048
sharif,0.005648
shawl,0.007396
shaykh,0.024976
shaykhi,0.040245
shed,0.004369
shia,0.009680
shift,0.004968
shii,0.013685
shiism,0.006697
shiraz,0.104538
shirazi,0.012602
shirzi,0.008530
shoghi,0.014029
shoot,0.004346
shorter,0.007298
shortest,0.005041
shortli,0.003190
shot,0.003986
shrine,0.005048
shrz,0.015754
shshvn,0.008530
sign,0.002348
significantli,0.002630
simpli,0.004655
site,0.002402
siyyid,0.007306
small,0.001745
smoke,0.004238
soar,0.004624
societi,0.001787
soft,0.003642
sojourn,0.006244
soldier,0.009738
someth,0.002742
sometim,0.003714
son,0.002731
sonnenschein,0.007396
soon,0.002616
sort,0.002992
sourc,0.017944
special,0.005352
specif,0.003413
speed,0.002917
spend,0.002961
spent,0.003153
spirit,0.003223
spiritu,0.006574
spontan,0.003686
spread,0.005043
squad,0.027433
squar,0.003022
stage,0.014947
start,0.001805
state,0.011234
statement,0.002618
station,0.015582
statu,0.007147
statur,0.005348
stay,0.003122
stephen,0.003168
stood,0.003837
strike,0.003173
struck,0.004056
studi,0.007538
style,0.002939
subdivid,0.003909
subhiaz,0.110283
subject,0.001814
subsequ,0.002226
succeed,0.002916
success,0.001891
successionedit,0.008530
successor,0.016022
succinct,0.006045
suffer,0.002603
suggest,0.001997
summar,0.003633
summari,0.017165
summer,0.003300
support,0.003392
supposedli,0.004354
suppress,0.003266
surah,0.039432
surih,0.025590
surviv,0.004920
suspend,0.007092
swann,0.006842
swift,0.004751
symbol,0.002589
sympathet,0.004561
tablet,0.004547
tabriz,0.046578
taciturn,0.008530
tafsir,0.033489
tafsrisrihikawthar,0.008530
tafsrisrihivalasr,0.008530
taherzadeh,0.034120
taken,0.002088
tarikhijadid,0.008530
task,0.005292
teach,0.027946
teachingsedit,0.008530
teenag,0.005104
tehran,0.021801
term,0.001348
test,0.002332
testament,0.013407
text,0.022148
themat,0.009948
theme,0.003159
themselv,0.004232
thenc,0.005900
theoret,0.002339
theoris,0.005317
thi,0.029877
thing,0.004539
thirih,0.023632
thirteen,0.004279
thirti,0.003846
thirtyf,0.006164
thought,0.002021
thousand,0.015094
threw,0.005228
throne,0.004024
thu,0.001667
tie,0.002782
time,0.010097
titl,0.010242
tj,0.005862
today,0.002049
todd,0.009962
told,0.010854
tomb,0.004543
tour,0.004115
town,0.002929
trace,0.002735
trade,0.002063
tradit,0.003592
tran,0.017507
transfer,0.004882
translat,0.014735
transport,0.002445
travel,0.012594
treatis,0.006883
trial,0.029297
trialedit,0.008530
true,0.004619
trust,0.009355
turban,0.006496
turkish,0.008260
turn,0.001972
twelfth,0.009977
twelv,0.007526
twelver,0.031361
twenti,0.003508
twentyfour,0.005678
uk,0.015689
ultim,0.002467
uncl,0.018246
undat,0.006697
undermin,0.003781
understand,0.003872
undocu,0.006001
undoubtedli,0.005033
unfavour,0.005499
unfold,0.004690
unharm,0.012602
unit,0.001438
unitari,0.004477
uniti,0.021950
univers,0.005910
unknown,0.005907
unless,0.003196
unmistak,0.006067
unrel,0.004078
unsign,0.006792
unusu,0.003458
usa,0.012739
use,0.003496
usual,0.003433
utter,0.004701
vahd,0.008530
valid,0.002724
valu,0.001828
variat,0.005348
variou,0.006496
vast,0.002864
vener,0.004723
veri,0.009775
vers,0.037802
vhid,0.017060
vigil,0.005550
visit,0.008598
visitor,0.003902
voic,0.003400
vol,0.003065
volum,0.012218
wa,0.104103
wall,0.006041
wane,0.004654
watch,0.003637
way,0.003050
wear,0.003865
welcom,0.003937
went,0.005233
western,0.002145
whid,0.008259
whip,0.005524
wide,0.003674
wield,0.005104
wife,0.011033
wilfrid,0.005808
william,0.002285
wilmett,0.016098
wit,0.010423
woman,0.007123
word,0.003960
work,0.060137
world,0.004338
write,0.040149
writingsedit,0.008530
written,0.022586
wrote,0.007291
yahi,0.016518
yavuz,0.008049
yazhiruhullh,0.008530
ye,0.004552
year,0.012957
yearli,0.004229
york,0.002197
young,0.010595
yusuf,0.010924
zarrn,0.008530
zonuz,0.008530
zoroastrian,0.005018
