abus,0.007200
accompani,0.006471
accord,0.003347
account,0.007884
achiev,0.004210
action,0.004112
actual,0.008568
ad,0.012815
addit,0.013545
affair,0.005534
age,0.016768
agent,0.005707
album,0.054568
alchemi,0.020251
alldrunken,0.017609
alljok,0.017609
allow,0.003328
alreadi,0.014629
altar,0.044622
alter,0.006004
alway,0.004501
american,0.003792
analyz,0.005626
angra,0.026976
ani,0.011800
anoth,0.009658
anton,0.029116
apostol,0.010661
appear,0.031016
appli,0.003578
aquino,0.013488
archbishop,0.010439
arm,0.005337
art,0.005120
articl,0.011934
ass,0.025896
assassin,0.007922
associ,0.003269
assumpt,0.005702
attempt,0.003818
aubrey,0.036660
author,0.007537
avail,0.008183
ave,0.039803
aveng,0.012064
away,0.005098
bacchu,0.014615
backlash,0.011041
balaam,0.015269
band,0.014557
bare,0.008245
base,0.005833
baudelair,0.014480
becam,0.007378
becaus,0.003038
becom,0.003230
began,0.008060
begin,0.011806
believ,0.004174
benedico,0.017609
benedict,0.010328
benedictio,0.017609
bibl,0.024281
bizarr,0.011514
black,0.299591
blad,0.017609
blasphem,0.027300
bless,0.019132
blood,0.006572
bodi,0.004050
bodin,0.012834
book,0.046031
borborit,0.016262
bough,0.014355
burana,0.015962
buri,0.007980
came,0.004419
candl,0.010661
carmina,0.015962
case,0.003379
catherin,0.019258
cathol,0.078321
cattl,0.007917
cavendish,0.021786
celebr,0.013934
center,0.004311
central,0.007578
centuri,0.038183
ceremoni,0.037310
certain,0.007399
ch,0.008625
chalic,0.015083
chant,0.031032
chapter,0.012600
charact,0.005586
character,0.005127
charl,0.005177
chosen,0.006177
christian,0.020955
christin,0.010555
church,0.103833
citi,0.004668
civic,0.008805
claim,0.008207
classic,0.013399
client,0.007785
clignum,0.017609
coakley,0.015702
collect,0.003943
combin,0.003855
come,0.007733
common,0.003269
compendium,0.020306
complet,0.007468
condemn,0.022845
consecr,0.034715
contain,0.015514
copyist,0.013488
coupl,0.006256
coven,0.049770
cover,0.004451
creat,0.019842
creator,0.008103
crimin,0.006848
crop,0.006684
cult,0.008834
cultu,0.015269
curs,0.010590
dakhma,0.035218
dark,0.006991
dead,0.013556
deal,0.004355
declin,0.005133
dei,0.032438
demonolog,0.013488
denni,0.018539
depict,0.006744
der,0.007075
deriv,0.004111
describ,0.009983
descript,0.014827
desecr,0.012779
design,0.003971
destroy,0.005653
deu,0.011786
develop,0.005408
devil,0.038306
diabol,0.013826
dialogu,0.007548
diatrib,0.015962
did,0.008027
differ,0.002866
dignum,0.017609
director,0.006501
discuss,0.013235
dmonomani,0.017609
doe,0.007316
domini,0.014355
dont,0.007555
doubl,0.005986
draw,0.005542
drawn,0.006380
drew,0.007451
drinker,0.013411
drunk,0.012260
dunkl,0.015702
earli,0.026046
ecclesiast,0.009694
eclect,0.010488
edit,0.005094
effect,0.003162
ego,0.020782
elabor,0.006773
els,0.006703
employ,0.012953
end,0.017795
enemi,0.021825
english,0.013600
enterpris,0.006127
entir,0.008444
entitl,0.033600
error,0.012379
especi,0.011339
essenti,0.004525
establish,0.003473
et,0.011190
eucharist,0.012433
european,0.004054
event,0.008472
eventu,0.009253
evid,0.004438
exactli,0.006376
exampl,0.011661
excelsi,0.016262
execut,0.004930
exist,0.003236
expand,0.004604
express,0.008435
extens,0.004395
extent,0.005356
extern,0.002545
f,0.014384
factual,0.009379
father,0.005722
feast,0.020478
featur,0.004402
femal,0.006535
festiv,0.008084
fiction,0.006942
filii,0.017609
final,0.004210
fix,0.005166
follow,0.002784
fool,0.021146
form,0.013303
formula,0.006078
founder,0.006100
fourteen,0.009465
franc,0.039864
frazer,0.026535
french,0.074950
fulllength,0.012345
furthermor,0.005964
g,0.004708
gain,0.004234
galleri,0.008951
gambl,0.009640
gambler,0.012389
gascogn,0.017609
gasconi,0.014914
gener,0.002501
genuin,0.008074
gerhard,0.020223
german,0.004915
givri,0.035218
gnostic,0.010832
god,0.030461
golden,0.007053
goliard,0.016616
gott,0.014355
grammat,0.031667
grandier,0.017050
great,0.003923
gregorian,0.011251
grillot,0.035218
grimoir,0.014355
group,0.015699
grow,0.004463
guibourg,0.051150
h,0.014505
ha,0.002320
hand,0.004312
heavili,0.005611
held,0.008230
herbert,0.007537
heret,0.010071
hi,0.031209
high,0.003524
hire,0.007600
histor,0.003910
histori,0.011596
historian,0.005865
hold,0.004192
honoriu,0.028475
host,0.038189
howev,0.011299
htf,0.017609
huge,0.006473
huysman,0.111736
huysmanss,0.017609
illustr,0.005935
imag,0.010719
impli,0.010822
import,0.002968
imprison,0.008276
incident,0.010488
includ,0.007248
incorrectli,0.009417
inferi,0.017609
influenc,0.003833
influenti,0.005598
initi,0.003781
insert,0.016149
inspir,0.005759
instead,0.008153
institut,0.003683
instruct,0.006552
internet,0.005710
introibo,0.035218
invers,0.014699
invert,0.018815
investig,0.004877
invit,0.007173
invoc,0.011886
involv,0.003374
isbn,0.016459
iv,0.007555
j,0.004371
jean,0.007218
jeanfranoi,0.011991
jester,0.014480
jesu,0.008526
jeu,0.013826
john,0.003959
joriskarl,0.047887
jule,0.010153
juliett,0.015702
king,0.016631
knowledg,0.004377
known,0.005816
la,0.017427
laefificat,0.017609
laetificat,0.017609
laffair,0.017609
lament,0.010812
languag,0.013122
larg,0.003066
late,0.008058
later,0.006921
latin,0.164088
launch,0.005860
lavey,0.152690
lba,0.065048
le,0.020796
legend,0.008198
letter,0.005744
libel,0.012140
lie,0.005701
link,0.002530
litani,0.013567
literatur,0.005199
littl,0.004453
liturgi,0.033537
locat,0.004278
london,0.009799
long,0.011334
loos,0.007234
loui,0.006566
love,0.020724
low,0.004459
lucif,0.013411
luciferi,0.017609
lurid,0.028253
madam,0.012220
magic,0.040566
magni,0.016262
main,0.003683
mainyu,0.028042
major,0.003087
make,0.005918
maleficarum,0.059036
malleu,0.028042
mani,0.010520
manual,0.014699
marqui,0.011132
marquis,0.014480
mass,0.486736
materi,0.032620
matthew,0.008437
mean,0.006409
medici,0.011064
mediev,0.024825
melech,0.097572
mention,0.005633
mere,0.005724
mess,0.051336
method,0.003603
michael,0.005354
michelet,0.014237
middl,0.023987
mind,0.005487
minut,0.006945
miracl,0.018167
missa,0.078514
missal,0.031405
mistress,0.023704
modern,0.020941
modifi,0.011355
monk,0.017213
montagu,0.011251
montespan,0.035218
monvoisin,0.035218
mystica,0.015269
nake,0.009287
natur,0.003106
necessarili,0.005695
need,0.006995
new,0.002599
nicola,0.008717
niger,0.020688
noir,0.035262
nomin,0.018219
nonfict,0.010153
nostri,0.033232
notabl,0.004464
noth,0.006157
novel,0.019320
novelist,0.010031
number,0.002910
numer,0.004310
obtain,0.004522
obviou,0.007349
occult,0.031719
offer,0.004326
offertori,0.034100
oklahoma,0.010555
old,0.004814
onc,0.008695
onli,0.013392
ophit,0.015473
oppon,0.007228
opposit,0.004787
origin,0.019347
outlin,0.005663
outsid,0.004438
outstretch,0.016616
pact,0.008737
pamphlet,0.009831
pari,0.006362
parodi,0.096454
particip,0.004590
particular,0.003642
patri,0.015473
paul,0.005057
peculiar,0.009059
perfom,0.017609
perform,0.024543
person,0.007614
philosophi,0.004953
phrase,0.042066
piu,0.011019
place,0.006581
play,0.004201
poetri,0.016236
poison,0.016266
pope,0.024549
populair,0.012674
popular,0.024977
popularli,0.008730
portion,0.005847
portray,0.007573
potion,0.013650
power,0.003414
pp,0.005439
practic,0.017849
practis,0.008778
prais,0.007801
prayer,0.026376
present,0.006672
pretridentin,0.017609
preval,0.007346
priest,0.047401
princip,0.005212
print,0.012531
privat,0.004784
protagonist,0.010084
protest,0.006200
provid,0.002960
pseudonym,0.010812
psychodrama,0.013567
public,0.010080
publish,0.051848
purport,0.009436
quatorz,0.017609
queen,0.007002
quit,0.005638
quotat,0.017725
rang,0.004005
react,0.007393
read,0.003675
realiti,0.005756
reap,0.011019
reason,0.003797
receiv,0.004042
recit,0.009661
record,0.031222
recount,0.009820
refer,0.002116
regard,0.004059
regardless,0.006397
rege,0.017609
relat,0.002853
reli,0.010197
religi,0.010810
remain,0.003499
reminisc,0.010181
repres,0.003471
requiem,0.013736
requir,0.003331
research,0.003432
resembl,0.013350
result,0.005895
reviv,0.006724
reword,0.013921
rhode,0.058167
richard,0.005227
ritchi,0.012140
rite,0.018796
ritual,0.118373
roman,0.051085
s,0.012004
sabbat,0.013488
sabbath,0.012345
sacrament,0.011991
sacrilegi,0.031405
sade,0.014021
said,0.008695
saint,0.007075
saintscair,0.035218
sancti,0.014914
satan,0.578726
satana,0.146358
satani,0.017050
satanist,0.104402
satanskult,0.017050
satanu,0.017609
satir,0.009831
saw,0.010356
say,0.009169
scholarli,0.014980
schwarz,0.011852
second,0.006946
secret,0.006528
section,0.010486
seen,0.004152
sentiment,0.008224
servic,0.012368
set,0.006556
sexual,0.013907
similar,0.010550
simpli,0.004805
sinc,0.002944
singl,0.003941
situat,0.004534
sloan,0.010717
small,0.003603
sole,0.005977
solemn,0.012725
solemni,0.051150
someon,0.013758
sometim,0.003833
soon,0.005400
sorcier,0.017050
soul,0.007603
sourc,0.037044
speak,0.005647
spell,0.008128
spent,0.006509
spiritu,0.006785
spite,0.025453
spread,0.005205
st,0.004747
stage,0.005143
start,0.007455
state,0.005153
statement,0.010813
stolen,0.009892
stomach,0.009867
stori,0.011939
student,0.005012
studi,0.009337
substanti,0.005467
success,0.003905
summer,0.006813
sung,0.033608
supernatur,0.008556
superstit,0.020391
supplic,0.013488
suppos,0.006471
supposedli,0.008989
sworn,0.009379
synod,0.011431
szandor,0.017050
t,0.015372
taken,0.008624
talk,0.006337
testament,0.009225
text,0.020321
tfp,0.014021
th,0.037146
thi,0.013216
thophil,0.014126
thu,0.006885
tienn,0.011301
time,0.013028
titl,0.010572
togeth,0.004061
tradit,0.011125
translat,0.010140
trollop,0.014480
true,0.004768
turn,0.004071
type,0.007081
typic,0.007902
unclear,0.007736
und,0.008664
understand,0.003997
unit,0.002970
unknown,0.012194
unlik,0.004904
unusu,0.007140
urbain,0.013488
use,0.021657
usual,0.003544
vade,0.015962
variou,0.013410
verbatim,0.012260
version,0.046364
vestment,0.014355
vi,0.008375
vo,0.024204
votiv,0.013921
vulgat,0.025451
wa,0.074856
way,0.006297
wayn,0.020910
wear,0.007980
welcom,0.008128
went,0.010803
west,0.015170
wheatley,0.026823
wine,0.008287
witch,0.021251
witchcraft,0.089244
witchhunt,0.040015
word,0.008176
work,0.008661
worship,0.031923
write,0.027628
writer,0.012088
written,0.018650
wrong,0.006926
wrote,0.020070
xiv,0.009941
year,0.002972
zacharia,0.041209
