abbrevi,0.006448
abov,0.003389
academician,0.010196
accept,0.003324
accord,0.015885
accus,0.005309
act,0.003026
action,0.003253
activ,0.018493
ad,0.003378
adapt,0.004216
addit,0.010714
adept,0.026308
adher,0.032134
administr,0.022212
ador,0.009946
affair,0.021889
affili,0.006056
age,0.009947
ageold,0.010797
agricultur,0.007870
ai,0.006651
aim,0.003780
alison,0.027529
aliv,0.006615
allan,0.007297
alleg,0.005474
allianc,0.004951
altar,0.017648
alway,0.003560
america,0.003710
amnesti,0.038169
amour,0.012626
ancestor,0.017072
ancient,0.003836
andor,0.004633
angel,0.019048
ani,0.004666
anim,0.003706
annal,0.007104
anniversari,0.014043
announc,0.004446
anthropolog,0.006002
anticoloni,0.009375
applic,0.003162
appoint,0.004352
approv,0.004548
arc,0.007116
archbishop,0.057800
archiv,0.004873
area,0.005259
array,0.005777
articl,0.003146
ascetic,0.009375
asia,0.004546
asian,0.020176
aspect,0.006959
assist,0.015791
associ,0.002586
astronomi,0.005944
atmospher,0.005186
attain,0.026798
attend,0.005052
attent,0.004317
attract,0.004260
attribut,0.004115
australia,0.009204
author,0.014905
autumn,0.007044
avoid,0.003954
away,0.004033
azur,0.011560
b,0.017535
bai,0.009835
balanc,0.008381
banner,0.015535
base,0.006921
basic,0.003211
bch,0.010937
becam,0.005836
becaus,0.002403
becom,0.005111
befor,0.008179
began,0.003187
begin,0.003113
belief,0.012821
believ,0.042926
belong,0.004511
benefactor,0.009456
besid,0.005462
better,0.003600
biederman,0.012626
birth,0.004704
bishop,0.026137
blagov,0.013928
blavatski,0.010731
blue,0.005690
bn,0.007955
bnh,0.011454
bo,0.112654
bodhisattva,0.019332
bodi,0.054462
boundari,0.004457
bowl,0.008110
branch,0.040741
brill,0.008419
bring,0.007937
broader,0.005323
broken,0.005323
brother,0.005353
brought,0.003935
bt,0.009513
btquii,0.013928
buddha,0.044923
buddhism,0.045508
buddhist,0.025686
build,0.003378
c,0.021387
calendar,0.006546
canon,0.017417
cao,0.493047
caodai,0.041786
caodaism,0.340907
caodaist,0.328588
cardin,0.056083
care,0.016067
carri,0.013787
cathol,0.005162
caus,0.002853
censor,0.016925
center,0.003410
centr,0.043965
central,0.005994
centuri,0.002745
ceremoni,0.041317
certain,0.002926
ch,0.006822
chair,0.006005
champion,0.006637
chao,0.006187
chaplin,0.010494
charg,0.008252
charit,0.007863
chariti,0.006938
charli,0.008649
chicago,0.005211
chief,0.022263
children,0.004397
china,0.004108
chines,0.004596
chiu,0.045047
chnh,0.011174
chosen,0.004886
christ,0.006822
christian,0.004143
christma,0.007534
chu,0.017723
church,0.033819
churchil,0.007934
citi,0.007385
claim,0.003245
clergi,0.007283
close,0.002861
cng,0.042927
cochinchina,0.046697
code,0.016550
coloni,0.013265
color,0.015980
combin,0.006098
come,0.003058
command,0.004486
commission,0.006576
commit,0.004482
committe,0.004587
common,0.005171
commun,0.013981
communist,0.010549
compass,0.013779
complaint,0.014172
compon,0.003682
compos,0.012171
compris,0.013124
concern,0.003002
confirm,0.004610
conform,0.005902
confucian,0.054438
confucianist,0.041763
confuciu,0.025849
conscienc,0.007824
conscious,0.005447
conseil,0.009348
conserv,0.004245
consid,0.004988
consist,0.005724
constantli,0.005961
constel,0.008053
constitut,0.016884
content,0.004219
contrast,0.003612
control,0.008524
controversi,0.004214
convert,0.004359
coreligionist,0.011090
correspond,0.007764
corrupt,0.005250
cosmic,0.013085
cosmo,0.007237
cosmolog,0.006252
council,0.066293
cours,0.003727
court,0.004056
coven,0.023621
creat,0.002615
creation,0.003892
creator,0.019229
critic,0.003145
critiqu,0.005433
cu,0.042460
cultiv,0.005462
cultur,0.009647
culturebound,0.013143
cycl,0.004384
d,0.003462
dai,0.087887
daili,0.005001
dao,0.020216
david,0.007598
day,0.006454
death,0.011237
decad,0.007775
decemb,0.003924
decid,0.004167
declar,0.008261
deed,0.007418
defenc,0.010412
degre,0.003502
deiti,0.006843
deleg,0.012077
deliv,0.005040
deliver,0.009322
depend,0.005643
deputi,0.005727
describ,0.005264
design,0.006282
desir,0.004025
destin,0.005985
destruct,0.005061
devil,0.015150
devot,0.005055
dialogu,0.005970
diaspora,0.007749
dictatorship,0.006911
dieu,0.011560
differ,0.020405
dignitari,0.078681
dignitati,0.012239
digniti,0.007642
dim,0.008842
dipankara,0.026973
direct,0.005679
directli,0.006872
director,0.010284
discipl,0.035736
disclos,0.007471
disembodi,0.009765
dissid,0.007616
district,0.010346
districtsdeleg,0.013928
diu,0.022523
divid,0.013565
divin,0.159271
dng,0.022710
doctrin,0.020515
doe,0.002893
dogma,0.007311
doi,0.005661
domain,0.004176
domin,0.003519
door,0.006687
downward,0.006863
dozen,0.005982
dress,0.028417
du,0.006044
dualiti,0.007339
duc,0.010196
dun,0.008433
dure,0.004923
duster,0.013143
duti,0.010178
earth,0.012126
earthli,0.049698
ebook,0.008787
echelon,0.019892
econom,0.002817
ecstasi,0.009634
educ,0.016401
eldest,0.008522
elect,0.003797
elev,0.005744
eller,0.010731
els,0.005302
eman,0.007575
emblem,0.019085
emot,0.010578
emperor,0.005678
emphas,0.004518
enabl,0.004083
engag,0.004077
english,0.007172
ensu,0.006294
ensur,0.004230
equal,0.007012
escap,0.005169
esoter,0.007873
essenc,0.005816
essenti,0.003579
establish,0.016487
estim,0.007246
et,0.013278
etern,0.026037
ethnic,0.010162
europ,0.006982
european,0.009621
eve,0.007534
everi,0.003221
everyth,0.005127
everywher,0.006687
evolut,0.016722
evolv,0.008452
exalt,0.008699
examin,0.004029
excus,0.008537
execut,0.023402
exemplari,0.009064
exist,0.005120
exoter,0.010196
expans,0.004344
express,0.003336
extern,0.002013
extrem,0.003693
eye,0.041178
faad,0.009871
factor,0.003264
faith,0.061768
fall,0.007029
famili,0.014261
father,0.049794
fault,0.006916
favour,0.005063
feather,0.008031
femal,0.005169
feminin,0.008244
fervent,0.009731
fifteenth,0.008031
fifth,0.005483
figur,0.015252
final,0.003330
financ,0.004079
flower,0.012505
focu,0.003777
follow,0.011012
forc,0.008278
forgotten,0.007270
form,0.010522
formal,0.003445
format,0.007510
formless,0.010608
forward,0.004887
founder,0.019303
fourth,0.004803
frailti,0.010550
free,0.003144
freedom,0.008692
french,0.029642
fulfil,0.005567
function,0.002818
fundament,0.003525
funer,0.007534
fuse,0.006778
fusion,0.006417
futur,0.003353
gather,0.004799
gautama,0.008939
gave,0.004006
gener,0.001978
geniism,0.013928
geograph,0.004477
giaotong,0.013928
giotng,0.069644
globe,0.006270
goal,0.003787
god,0.149386
goddess,0.015498
gong,0.009247
goossaert,0.013928
gouvern,0.010731
govern,0.015709
governor,0.005053
grade,0.006421
gradual,0.004426
grant,0.004220
gratitud,0.008824
great,0.034134
group,0.009934
grow,0.003530
guan,0.010550
guanyin,0.012239
guid,0.031142
h,0.022948
ha,0.042225
hall,0.010447
hamlet,0.009199
hanoi,0.009871
happi,0.018263
harmoni,0.012843
haven,0.006971
hawaii,0.007325
hc,0.009698
head,0.042653
health,0.007676
heart,0.010107
heaven,0.046157
heavenli,0.046774
hell,0.015200
help,0.009042
hi,0.019749
hierarchi,0.039275
high,0.013939
higher,0.003273
highest,0.033729
highlight,0.005669
hip,0.017433
histori,0.011466
hng,0.034065
ho,0.014125
hoi,0.010865
hold,0.003316
holi,0.110760
home,0.003931
honolulu,0.009199
honor,0.005695
honour,0.006493
hophap,0.013928
hoskin,0.036233
host,0.005034
hous,0.011080
howev,0.002234
hphp,0.055715
hugo,0.021031
human,0.034484
humanit,0.013143
humil,0.009731
huyn,0.012420
hy,0.012239
idea,0.003090
identifi,0.003328
ignor,0.004775
imag,0.004239
imagin,0.005504
immort,0.029162
impart,0.007767
imped,0.007418
import,0.004696
improv,0.003388
inaccur,0.007464
incens,0.018750
incept,0.007166
includ,0.019112
incom,0.004217
incorpor,0.003780
ind,0.009985
independ,0.005655
indic,0.003387
indigen,0.005489
individu,0.002839
indochina,0.017298
industri,0.003142
infinit,0.005391
influenc,0.003032
initi,0.011966
insid,0.004617
institut,0.002913
instruct,0.005183
instructor,0.008270
intend,0.004262
intens,0.004572
interdict,0.010338
interfer,0.005619
interior,0.005403
introduc,0.003229
invis,0.013441
involv,0.002669
isbn,0.022783
island,0.004080
iu,0.010066
j,0.003457
jack,0.006509
jade,0.009348
jamm,0.027857
janet,0.023867
jayn,0.010388
jeremi,0.014527
jersey,0.006817
jesu,0.013488
jewel,0.016672
jiang,0.010066
joan,0.007487
journey,0.012796
joy,0.007464
judgment,0.005834
jul,0.009871
juli,0.035791
jurisdict,0.005587
justic,0.023264
k,0.020871
kardec,0.012077
karmic,0.010196
key,0.007007
khim,0.013928
khm,0.025726
kilometr,0.006383
kim,0.023084
kindl,0.009799
kinh,0.025726
kw,0.009666
kyoto,0.008492
l,0.012156
lao,0.007853
laojun,0.013143
laozi,0.010151
largest,0.003801
law,0.024956
lay,0.010359
le,0.010966
lead,0.002746
leader,0.008050
leap,0.007325
led,0.005941
left,0.007338
legal,0.003798
legisl,0.042143
lenin,0.008087
level,0.002752
li,0.007134
liber,0.004150
librari,0.008648
life,0.014794
light,0.007589
like,0.004917
limit,0.011244
lindochin,0.012626
line,0.003294
ling,0.009908
linh,0.011454
link,0.002001
listen,0.013002
liter,0.010586
literatur,0.004112
liturgi,0.008842
live,0.014880
lo,0.012625
local,0.009352
locat,0.003384
longer,0.003796
lord,0.021791
loui,0.005193
love,0.010928
lowest,0.016424
lunar,0.014650
lut,0.026973
luxuri,0.006905
m,0.013167
ma,0.017441
madam,0.009666
magazin,0.005328
main,0.020397
maintain,0.006418
major,0.009767
make,0.002340
male,0.015488
mani,0.010401
mankind,0.019927
mark,0.003695
marriag,0.011637
masculin,0.008182
materi,0.003225
matter,0.003462
mean,0.007604
meaningless,0.007749
meanwhil,0.005565
medit,0.006993
medium,0.005247
mediumship,0.011174
meet,0.003724
member,0.011746
men,0.012803
merg,0.005543
merit,0.026272
messag,0.017159
messeng,0.014595
midday,0.010289
midnight,0.017959
militari,0.003723
million,0.010845
minh,0.028125
minist,0.004152
ministri,0.004948
minor,0.004259
minut,0.005493
misl,0.009572
mission,0.018356
missionari,0.019553
mix,0.004427
model,0.002866
modern,0.005521
monotheist,0.008170
month,0.008132
monthli,0.012547
moral,0.004604
mose,0.007510
mother,0.063651
mouth,0.006525
mouvement,0.009085
mu,0.036487
muhammad,0.006611
multilingu,0.008751
music,0.005058
mysteri,0.006075
mystic,0.006788
nam,0.014487
nameless,0.010731
nation,0.007651
natur,0.004914
neg,0.003991
network,0.003847
new,0.020558
ng,0.060896
nguyn,0.010797
nh,0.007633
nhn,0.011090
nineteenth,0.005757
nineti,0.008349
ninh,0.080180
nirvana,0.017959
nm,0.007471
nng,0.023594
nonviol,0.007934
nook,0.012239
north,0.007308
northwest,0.006294
nova,0.006938
novel,0.005094
number,0.013815
nurtur,0.007591
nutshel,0.009731
o,0.101924
obey,0.006568
object,0.006292
oblig,0.005082
oct,0.008537
offer,0.013689
offic,0.003704
officebear,0.013143
offici,0.020965
oliv,0.006525
onc,0.010317
onli,0.010593
open,0.006301
oracl,0.008122
ordain,0.016810
order,0.010145
organ,0.002510
organis,0.013072
origin,0.005101
orphanag,0.010196
outlin,0.004479
outsid,0.003511
overse,0.013727
oversea,0.005489
p,0.003513
paid,0.004692
palmer,0.008751
pantheon,0.024228
paradis,0.008244
pari,0.005033
parish,0.015425
parishparish,0.013928
particular,0.002880
pasteur,0.007976
path,0.009333
patricia,0.007934
pdf,0.010653
peac,0.004438
peasant,0.012835
peopl,0.005075
perfect,0.005142
period,0.008204
permiss,0.006398
pervers,0.008805
ph,0.036453
phapchanhtruyen,0.013928
phase,0.004426
phc,0.011797
philosoph,0.004039
phm,0.047189
phn,0.012239
php,0.049356
pht,0.035023
physic,0.003011
pictori,0.008805
pilgrimag,0.008110
ping,0.010440
place,0.015617
plan,0.010456
plane,0.011086
planet,0.005222
plant,0.003995
play,0.006646
pledg,0.013051
point,0.016018
polit,0.008666
pope,0.090620
popul,0.003274
popular,0.016464
posit,0.010910
possibl,0.002691
power,0.037812
practic,0.011295
pray,0.016413
prayer,0.090408
preach,0.007534
predict,0.003861
prescrib,0.006445
prescript,0.013908
present,0.013194
preserv,0.008896
presid,0.007633
press,0.009318
prevent,0.003773
priest,0.056241
priestli,0.009297
primari,0.003483
primarili,0.007215
prime,0.004240
princip,0.024737
principl,0.009504
probabl,0.003787
process,0.002495
profession,0.004276
progress,0.003597
promot,0.003764
promulg,0.006730
pronounc,0.006375
propheci,0.008020
prophet,0.020781
proscrib,0.009429
protector,0.019590
provinc,0.024394
provinci,0.006383
public,0.005315
publish,0.002929
punish,0.005805
purif,0.007712
quan,0.021874
quang,0.011261
queen,0.005539
question,0.003314
qui,0.009946
quietud,0.012626
quit,0.004460
qun,0.170865
qunh,0.013928
race,0.005185
radiat,0.010571
rank,0.053471
rapporteur,0.010731
ratio,0.004759
ray,0.011434
reach,0.010204
read,0.002907
realiti,0.004553
realm,0.037012
reason,0.003004
receiv,0.012791
recogn,0.003589
recognit,0.009175
reconcil,0.006580
red,0.009279
redempt,0.016084
redund,0.007404
refer,0.003347
reflect,0.003597
reform,0.004094
refus,0.004884
regard,0.003211
regim,0.004877
region,0.008992
regress,0.006602
regul,0.003962
reign,0.005787
reincarn,0.008283
relat,0.004513
religi,0.153922
religieux,0.013928
religion,0.204631
remain,0.002768
remind,0.015101
renov,0.008377
renunci,0.009085
replac,0.003410
report,0.003217
repres,0.046677
represent,0.008445
repress,0.006312
republ,0.003928
requir,0.002634
research,0.002715
resourc,0.003388
respect,0.009549
respons,0.008709
restor,0.004733
retriev,0.054701
reveal,0.026417
revel,0.026844
rever,0.007471
rich,0.009599
right,0.003003
rise,0.003368
rite,0.007433
ritual,0.031210
rock,0.005241
role,0.014661
root,0.004228
routledg,0.005964
rseaux,0.013143
rule,0.018332
s,0.011869
sacerdot,0.057271
sacr,0.006409
sage,0.006598
said,0.003439
saigon,0.020392
saint,0.033582
salvat,0.007230
sanc,0.010865
sanction,0.012568
sang,0.009603
sanh,0.038589
sasra,0.010440
satan,0.008477
savant,0.010797
save,0.004753
scienc,0.005630
sciencefict,0.009247
scriptur,0.033674
se,0.006959
sea,0.004270
seat,0.004953
second,0.002747
secret,0.005164
sect,0.035052
sectarian,0.008665
section,0.004147
secular,0.023171
select,0.003639
seminari,0.008919
sen,0.008020
sergei,0.008787
seri,0.003334
serv,0.006663
servitud,0.008939
set,0.002592
seven,0.008784
seventi,0.007834
sever,0.014571
shakespear,0.008231
shakyamuni,0.011797
shang,0.009272
shape,0.007979
ship,0.004749
sign,0.003835
similar,0.005563
simultan,0.004881
sin,0.006624
sinc,0.009317
singapor,0.006138
slave,0.005504
sng,0.011931
social,0.005926
socialist,0.005211
societi,0.008755
soul,0.072174
sourc,0.005860
south,0.003648
southeast,0.011405
southern,0.012970
speak,0.004466
special,0.005826
specialist,0.005780
specif,0.005574
spirit,0.063162
spiritu,0.064410
spring,0.005254
st,0.003755
stanc,0.006421
stand,0.008755
standard,0.003137
star,0.005166
state,0.004076
statement,0.004276
stipul,0.007044
stori,0.004722
stress,0.004777
strictli,0.005493
structur,0.013608
struggl,0.009766
student,0.015859
studi,0.027080
subdignitari,0.041786
subdivid,0.006383
submit,0.005834
success,0.003089
suffer,0.008503
sun,0.005167
supervis,0.005570
suppli,0.003797
suprem,0.019081
surviv,0.004017
suscept,0.006715
sydney,0.080273
symbol,0.025375
syncret,0.008309
taishang,0.012626
tam,0.057619
tao,0.008363
taoism,0.063730
taoist,0.043412
task,0.004321
tc,0.034730
tea,0.014897
teach,0.027380
teacher,0.005338
technic,0.004143
tell,0.005247
templ,0.067739
tend,0.003825
term,0.004402
text,0.008037
th,0.010684
themselv,0.006910
theolog,0.005678
theosophi,0.019206
thi,0.026136
thing,0.003706
thino,0.013928
thirti,0.018842
thn,0.012420
thng,0.081720
thngphm,0.041786
thngsanh,0.013928
thnh,0.011931
thnhtht,0.027857
tho,0.010668
thousand,0.008216
threefold,0.008462
tian,0.020132
time,0.014427
timelin,0.005483
tin,0.029081
tinh,0.013928
titl,0.008362
tm,0.008842
tn,0.017648
togeth,0.009636
total,0.006500
tourist,0.006208
towerpalac,0.013928
tr,0.024849
tradit,0.008800
tradition,0.010289
train,0.004022
transform,0.003813
transgress,0.009247
translat,0.008020
transpacif,0.010108
tre,0.009908
tri,0.003666
tribun,0.007237
trn,0.022908
trng,0.070784
trnh,0.024479
true,0.003771
trung,0.011931
truth,0.009912
truyn,0.012863
tt,0.051411
tude,0.010151
twelv,0.006145
twelvefold,0.034065
twice,0.005552
ty,0.079570
tyninh,0.013928
tze,0.011931
u,0.021742
ultim,0.012087
unchang,0.006211
underground,0.006456
undermin,0.006174
understand,0.003162
unhappi,0.008170
unif,0.006624
union,0.006923
unit,0.004699
uniti,0.010240
univers,0.062730
unknown,0.004823
unrecogn,0.009322
unveil,0.007945
uphold,0.007659
upward,0.006484
ursa,0.011797
use,0.001903
v,0.008307
valu,0.005971
vari,0.003434
variou,0.007955
vegetarian,0.009021
vener,0.046276
vestment,0.011355
victor,0.025080
viet,0.020777
vietnam,0.063128
vietnames,0.070162
vietnamgearcom,0.013928
vietnamien,0.013928
view,0.023885
villag,0.026615
vincent,0.007382
virtu,0.029512
virtuou,0.016438
visibl,0.005149
vision,0.005045
visit,0.004680
vn,0.047864
vng,0.011560
voic,0.005552
vt,0.009297
wa,0.015280
war,0.003309
ward,0.007128
watch,0.011877
way,0.019926
websit,0.004404
wellknown,0.005468
werner,0.007374
west,0.003999
whatev,0.005734
wine,0.013110
winston,0.007853
wisdom,0.006167
wit,0.005673
women,0.013300
word,0.009700
work,0.006851
world,0.021255
worldli,0.008477
worship,0.044190
worthi,0.014692
written,0.007376
x,0.004124
xia,0.010338
xiantiandao,0.013928
y,0.004960
yale,0.006368
yang,0.038429
yat,0.012863
year,0.002350
yellow,0.013085
yiguandao,0.012239
yin,0.042460
yu,0.008447
ziya,0.012420
zodiac,0.009666
