abandon,0.027785
accept,0.018674
accord,0.014874
afflict,0.046245
answer,0.026485
archimed,0.044012
arril,0.078251
author,0.016747
bach,0.102845
bani,0.110506
battl,0.056183
begin,0.017488
benti,0.289058
beynti,0.078251
bhabour,0.078251
book,0.017046
born,0.025336
charitar,0.073839
charitropakhyan,0.151534
chaupai,0.709332
chittar,0.078251
choupai,0.078251
closur,0.038796
complet,0.016593
consist,0.016080
dasam,0.194838
defens,0.026371
degre,0.019676
depend,0.015853
desir,0.022612
devil,0.042556
dohra,0.078251
dr,0.029809
enemi,0.032329
extern,0.022621
feel,0.054083
gain,0.018818
gobind,0.055456
goddess,0.043533
granth,0.166369
gurdwara,0.065586
gurind,0.078251
gurmukhi,0.064350
guru,0.092350
hymn,0.091394
illustr,0.026378
includ,0.010737
intern,0.013554
kabiyo,0.156503
kal,0.063268
kamalroop,0.078251
later,0.015379
leicest,0.052818
link,0.011244
london,0.043546
lord,0.030605
maha,0.054860
mani,0.011687
mann,0.048226
massiv,0.027514
method,0.016014
nangal,0.075767
narrat,0.042982
normal,0.020610
offer,0.019227
onlin,0.022630
press,0.017450
proof,0.030231
protect,0.019761
purpos,0.019286
quest,0.037342
question,0.018619
read,0.016332
receiv,0.017965
recit,0.042934
refer,0.028209
reliabl,0.028117
research,0.015255
result,0.013098
safeti,0.030309
sahib,0.273354
savaiy,0.069779
secur,0.019978
selfconfid,0.056096
short,0.020049
sikh,0.049067
singh,0.139382
spiritu,0.030154
sri,0.114240
struggl,0.027433
suprem,0.026799
tenth,0.040118
th,0.015006
thi,0.039154
uk,0.023987
univers,0.013554
upbeat,0.073839
wa,0.021461
worldli,0.047624
worri,0.038560
written,0.020720
