abl,0.007567
abramelin,0.029741
act,0.041085
actual,0.007667
ad,0.007645
advis,0.012110
africanamerican,0.019215
age,0.007503
agent,0.020430
agrippa,0.023747
aim,0.008555
aleist,0.024918
allah,0.019116
alleg,0.012388
altern,0.007698
amulet,0.024005
ancient,0.008680
angel,0.014367
anoint,0.023072
antiqu,0.012398
arab,0.011066
arabia,0.014655
archangel,0.023507
aris,0.009774
art,0.027497
articl,0.007120
asia,0.020574
aspect,0.007874
attempt,0.013668
author,0.026982
away,0.018252
bag,0.018598
ball,0.014795
barbar,0.020660
bardon,0.027329
barrett,0.019646
becaus,0.005438
belief,0.048352
believ,0.014943
beneath,0.015614
bestial,0.025919
betterendow,0.031518
bid,0.015393
bind,0.012475
black,0.009749
bodi,0.007249
brief,0.011449
bring,0.008980
brother,0.012114
burlingam,0.029741
cabalist,0.030517
cadr,0.019608
candl,0.019083
carrol,0.018326
case,0.012099
cast,0.049161
caus,0.006457
ceremoni,0.013356
charm,0.041424
chicago,0.011792
christian,0.009376
citi,0.016712
classic,0.007994
clyde,0.021593
cogniz,0.021527
collect,0.007058
combin,0.006900
command,0.010152
commerci,0.009270
common,0.023405
commonli,0.016072
compar,0.007157
complex,0.014162
conceiv,0.012706
concept,0.006753
conduct,0.008294
conjur,0.648926
conjurar,0.031518
conjurison,0.031518
conjuror,0.126073
consid,0.005643
consider,0.008132
conspiraci,0.017197
contact,0.010154
contemporari,0.037863
context,0.025538
contrast,0.008174
contributor,0.014156
corneliu,0.019083
corrupt,0.011881
creat,0.011838
crowley,0.022777
crystal,0.013576
cult,0.015812
cultur,0.021829
customarili,0.019884
dagger,0.021398
daoism,0.022175
dead,0.012132
deific,0.026416
deiti,0.061940
demon,0.119857
describ,0.011912
dessoir,0.028106
devil,0.017141
devot,0.022878
diabol,0.024748
diagram,0.026625
differ,0.005130
discuss,0.007896
diseas,0.020274
distinct,0.007453
divert,0.016995
divin,0.051485
dodg,0.022336
drawn,0.011421
dure,0.005570
effect,0.005660
element,0.007410
emir,0.016607
employ,0.007728
end,0.006370
enhanc,0.010791
enochian,0.029741
enslav,0.016671
enter,0.017035
entertain,0.042978
entir,0.007557
entiti,0.009885
equinox,0.021274
escap,0.011697
esoter,0.017816
esoteric,0.045013
evil,0.056688
evoc,0.287259
evocatio,0.063036
evok,0.053248
exampl,0.005218
exist,0.017381
exorc,0.022777
expect,0.008005
familiar,0.012327
favor,0.019246
featur,0.007879
fit,0.010607
folk,0.015061
forbid,0.016754
foretel,0.024141
foreword,0.018955
form,0.004762
formerli,0.011670
formula,0.010879
forth,0.037995
franci,0.011931
franz,0.016451
frequent,0.008758
frost,0.018924
futur,0.007588
gain,0.007579
gener,0.017907
ghost,0.016924
given,0.006248
god,0.032712
goodrickclark,0.026416
grand,0.012101
grant,0.009550
greater,0.007847
grimoir,0.154167
ground,0.009065
grudg,0.023393
h,0.008654
harm,0.024022
heal,0.015272
hear,0.013137
hellen,0.017931
help,0.006820
henri,0.010041
hermetic,0.046351
histori,0.005189
hoodoo,0.077757
hous,0.008357
howev,0.005056
human,0.012004
idea,0.006992
illus,0.046147
illusion,0.027696
illusionist,0.052833
imag,0.019186
imbu,0.020366
impiou,0.026416
import,0.005313
incant,0.024431
incens,0.021213
includ,0.008649
independ,0.006398
individu,0.006426
inform,0.006193
inher,0.023878
inspir,0.010307
instruct,0.011728
insult,0.018598
intens,0.010347
interact,0.007773
interpret,0.008311
invoc,0.063823
invok,0.044880
iraq,0.013942
islam,0.020742
j,0.007824
juggler,0.029741
just,0.007264
kenneth,0.013979
kept,0.011225
key,0.015855
kind,0.008298
king,0.009922
knowledg,0.007835
kocku,0.029106
konstantino,0.024283
languag,0.023487
later,0.006194
latin,0.039159
lavish,0.020712
legerdemain,0.063036
lemegeton,0.030517
lesser,0.025538
level,0.006228
liddel,0.024431
link,0.004528
litani,0.024283
live,0.006734
london,0.008769
long,0.006762
loot,0.017640
macgregor,0.024283
mad,0.016977
mage,0.022971
magic,0.377570
magician,0.168768
mainli,0.008646
maintain,0.007262
make,0.005296
mani,0.042367
manual,0.013155
mather,0.024431
max,0.012727
mean,0.011471
medium,0.011873
method,0.025800
middl,0.008586
midwest,0.040190
militari,0.008425
mindalt,0.027329
mirror,0.014062
misfortun,0.042548
mitig,0.014970
modern,0.012494
morocco,0.016482
mysteri,0.027494
mystic,0.015360
natur,0.005560
necrom,0.026695
neg,0.009031
neoplaton,0.018123
nichola,0.014009
object,0.014239
obtain,0.008095
offer,0.007744
oil,0.010395
oman,0.018862
onli,0.009588
opportun,0.009837
oppos,0.008703
opposit,0.008569
origin,0.005771
otherwis,0.009906
overdos,0.022096
overpow,0.020926
pact,0.015638
paragraph,0.017771
paranorm,0.041321
parchment,0.022420
particular,0.006518
particularli,0.007303
pass,0.008090
past,0.008262
peopl,0.011484
perform,0.029285
permiss,0.014478
person,0.034074
personifi,0.021038
peter,0.009496
plenti,0.016375
popular,0.007451
possess,0.018717
power,0.030557
pp,0.019472
practic,0.038337
practition,0.012533
primari,0.007883
procedur,0.020800
produc,0.006213
promis,0.011221
protect,0.007959
provid,0.015896
psycholog,0.010179
public,0.006014
publish,0.006628
puriti,0.016907
purpos,0.007768
read,0.006578
recent,0.006558
recit,0.017293
refer,0.030299
regard,0.014533
regularli,0.012893
rel,0.006791
religi,0.019349
religion,0.028940
repel,0.016436
result,0.005275
ritual,0.028249
roman,0.010159
rule,0.006913
sacr,0.029008
sacrilegi,0.028106
said,0.015564
samuel,0.013464
santera,0.026695
saudi,0.015439
secret,0.011686
seen,0.022294
seer,0.045370
self,0.026032
sell,0.010714
sens,0.015587
sentenc,0.012948
servic,0.007379
servitud,0.020228
set,0.005867
settl,0.010764
sever,0.005495
sex,0.013114
shaman,0.018893
shintoism,0.026998
shorttemp,0.031518
shrine,0.018655
sieg,0.015699
similar,0.006294
similarlymind,0.031518
simpl,0.008375
simpli,0.008601
sinc,0.010542
solomon,0.032374
sometim,0.013724
sort,0.011056
soul,0.013609
sourc,0.006630
space,0.008126
speak,0.010107
specif,0.012613
spell,0.058193
spirit,0.238206
spiritu,0.036436
stave,0.021800
strongli,0.010159
stuckrad,0.029106
studi,0.005570
substanc,0.011082
summon,0.110923
supernatur,0.045947
suppli,0.008593
surrend,0.014521
suspect,0.028171
swear,0.021336
symbol,0.009569
synonym,0.013155
systemat,0.010070
talisman,0.025694
techniqu,0.016201
templ,0.013934
term,0.029885
text,0.027279
thaumaturgi,0.028106
therefor,0.007164
theurgi,0.052833
thi,0.015770
thing,0.008387
thoma,0.009429
thought,0.014941
threat,0.011056
thu,0.012323
time,0.004663
tinsley,0.029741
today,0.015145
togeth,0.014537
tradit,0.079653
translat,0.018149
trick,0.052856
tutelari,0.026998
umbanda,0.026416
unholi,0.025284
unit,0.005316
usag,0.033168
use,0.064607
usual,0.006343
utter,0.017371
vari,0.007770
varieti,0.015829
veri,0.006019
view,0.006756
voic,0.012563
volunt,0.014530
von,0.010691
vow,0.018542
wa,0.025932
wand,0.024586
way,0.011272
western,0.039645
witchcraft,0.019967
word,0.051219
work,0.005167
world,0.005344
worship,0.014284
xii,0.019018
