accord,0.007121
add,0.013579
adi,0.047568
akhari,0.037464
amritdhari,0.070704
amritvela,0.037464
anand,0.053714
antar,0.029831
apocryph,0.025216
asa,0.023175
atma,0.031094
attain,0.028832
bani,0.185175
basi,0.008870
bavan,0.037464
becom,0.006874
bed,0.018546
befor,0.022001
bliss,0.023684
book,0.008161
central,0.008062
chaupai,0.101881
chitta,0.034598
come,0.008226
common,0.013910
commonli,0.019104
compil,0.014840
compos,0.010912
composit,0.047698
comprehend,0.040749
consciou,0.034018
consid,0.020125
contain,0.008252
context,0.020237
daili,0.026907
dakhni,0.037464
dasam,0.093282
day,0.008680
depend,0.007590
describ,0.007080
dhur,0.037464
directli,0.018485
discuss,0.009386
englishpunjabi,0.037464
erad,0.020138
etymolog,0.014742
explan,0.012190
extern,0.005415
extract,0.013331
filth,0.030054
final,0.008957
form,0.011321
frequent,0.010410
gener,0.005321
gobind,0.053101
gosht,0.037464
granth,0.318610
guid,0.010470
gun,0.017388
gur,0.124376
gurbani,0.602901
gurbaniorg,0.037464
guru,0.221073
gutka,0.072549
ha,0.004937
hazar,0.034598
histor,0.008318
hous,0.009934
hundr,0.011251
hymn,0.087513
illumin,0.017399
initi,0.008046
insid,0.012420
intern,0.019468
jaap,0.056455
japji,0.064971
ji,0.023635
just,0.008634
kachi,0.033960
khojgurbaniorg,0.039141
ki,0.049239
kirtan,0.062801
knowledg,0.009313
languag,0.018612
like,0.006612
link,0.005383
lord,0.014652
maryada,0.033960
mean,0.020453
mind,0.035023
mix,0.011907
multipl,0.019043
nitnem,0.162428
oankar,0.035352
onlin,0.010834
paath,0.036274
page,0.024272
primal,0.023587
pronunci,0.018825
punjabi,0.027424
qualiti,0.010576
read,0.046915
receiv,0.008601
recit,0.020555
refer,0.027012
rehat,0.032921
rehra,0.069196
sahib,0.392620
savaiy,0.100225
script,0.017747
section,0.011155
select,0.009789
shabad,0.032485
sidh,0.035352
sikh,0.305396
sin,0.017818
singh,0.044488
small,0.007667
sohila,0.070704
soul,0.016177
sound,0.013192
sourc,0.015762
speech,0.040498
spiritu,0.014436
state,0.016447
sukhmani,0.034598
sunris,0.025435
sunset,0.023733
suprem,0.064154
sweet,0.019518
tavprasad,0.103794
term,0.005920
text,0.032425
textual,0.019684
therebi,0.012968
translat,0.010786
truth,0.013331
unauthent,0.035352
use,0.020478
var,0.024619
vari,0.009236
variou,0.007132
veri,0.007155
wherea,0.010872
wisdom,0.033180
word,0.008697
work,0.006142
worldli,0.045602
write,0.039186
writer,0.012859
written,0.019840
