abandon,0.005125
abid,0.008058
abil,0.011325
abl,0.003465
abolitionist,0.009461
abraham,0.006443
abrogio,0.013084
absorb,0.005484
abstract,0.004828
absurd,0.007884
abus,0.005902
accept,0.027557
access,0.003796
accompani,0.005304
accomplish,0.005514
accord,0.024692
accur,0.014023
achiev,0.003451
acknowledg,0.005290
acquaint,0.008030
acquir,0.008937
acquisit,0.005932
action,0.006742
activ,0.005475
actor,0.006324
ad,0.010504
adapt,0.004369
address,0.008263
adher,0.011100
adject,0.007499
adler,0.025287
admir,0.019503
admit,0.011571
adopt,0.011358
advent,0.012000
advisori,0.006745
advoc,0.023549
afer,0.012363
affair,0.004536
affect,0.003585
affirm,0.013245
afford,0.005892
african,0.004809
afterlif,0.016785
age,0.037797
agenc,0.012948
agnost,0.008695
agnostic,0.009583
agre,0.012410
agreement,0.004188
agricultur,0.004078
aha,0.010819
ahmad,0.007937
ahura,0.020862
albert,0.005576
aldu,0.012363
alfonso,0.009415
alfr,0.005622
alhashimi,0.013084
alien,0.006429
alienum,0.038050
align,0.005927
alli,0.005067
almamun,0.010765
alon,0.009384
altar,0.009143
altern,0.010576
altogeth,0.006801
altrui,0.013084
altruism,0.016714
altruist,0.008724
amass,0.008666
america,0.011535
american,0.018652
analect,0.011188
analog,0.004902
analysi,0.006614
anarchist,0.008078
anatomi,0.006443
anaxagora,0.029063
ancient,0.035777
andrew,0.011144
angel,0.006579
anger,0.007161
anglophon,0.019599
ani,0.009672
anim,0.011521
ann,0.006426
anonym,0.007264
anoth,0.005277
anteced,0.007849
anthoni,0.012958
anthropomorph,0.008491
antichristian,0.010519
anticler,0.009634
antihuman,0.022667
antihumanist,0.044483
antiqu,0.028388
antoni,0.008138
antoninu,0.010993
appar,0.004683
appear,0.003177
appli,0.008799
applic,0.003276
appoint,0.004510
approach,0.015788
approv,0.004713
april,0.004197
ar,0.007893
aragon,0.009087
arbitr,0.015549
architect,0.007294
area,0.005450
argument,0.009219
aristotelian,0.021354
aristotl,0.022624
arnold,0.013948
art,0.037777
articl,0.003260
articul,0.006626
artist,0.011516
ascet,0.008863
ascrib,0.007246
asia,0.004710
asimov,0.009124
ask,0.004535
aspect,0.003606
assert,0.014140
assign,0.004928
associ,0.026802
assum,0.003800
atheist,0.022457
athen,0.015167
atmospher,0.005374
atom,0.004797
attack,0.004423
attain,0.005554
attempt,0.009389
attent,0.004474
attitud,0.022530
attribut,0.012795
audienc,0.006193
aught,0.012871
august,0.012507
augustin,0.014736
aulu,0.011055
auster,0.007783
author,0.037070
authoritarian,0.007039
autonomi,0.005733
avail,0.010061
avoid,0.004098
b,0.010902
background,0.004712
backwardslook,0.013084
bacon,0.007355
barbar,0.009461
base,0.026297
basi,0.003417
basic,0.006656
bauman,0.033167
bavarian,0.009888
bbc,0.006241
bce,0.054641
beauti,0.006286
becam,0.024192
becom,0.005296
becominganim,0.013084
befor,0.005651
began,0.019821
begin,0.003225
behavior,0.003880
belief,0.008857
believ,0.013686
belong,0.004674
benevol,0.041112
berri,0.009032
best,0.010938
better,0.018653
bibl,0.013268
biblic,0.007107
bid,0.007049
bigotri,0.011411
biograph,0.015026
birkhead,0.012363
birmingham,0.008478
birth,0.004874
bitch,0.011979
bless,0.007841
blindli,0.010229
board,0.004772
boccaccio,0.010933
bodi,0.009959
bona,0.020458
book,0.018865
borrow,0.005490
boston,0.006099
boundari,0.004618
boydorr,0.013084
bragg,0.027853
bridg,0.005465
bright,0.007235
bring,0.008225
britannica,0.006728
british,0.007387
broad,0.004443
brock,0.009951
brother,0.005548
brought,0.016312
bruni,0.022667
brutal,0.014424
brute,0.009087
buckman,0.013084
buddha,0.007758
build,0.003500
built,0.004124
burckhardt,0.033167
burk,0.008322
bylaw,0.009951
byzantin,0.006806
c,0.015831
ca,0.006085
california,0.005075
caliph,0.007492
camaldoles,0.012871
cambridg,0.026330
came,0.003622
campaign,0.004973
canada,0.004745
capabl,0.008726
capac,0.004593
capit,0.007207
care,0.008325
career,0.005435
carl,0.011064
carri,0.003571
carthusian,0.012225
case,0.002770
cathedr,0.007849
cathol,0.010699
catholic,0.007425
cato,0.008583
caus,0.002957
caution,0.007799
cavalri,0.008108
celebr,0.005710
celenza,0.012515
center,0.007068
centr,0.018224
centuri,0.073977
certain,0.003032
certainli,0.006324
challeng,0.003958
chancellor,0.023575
chang,0.002498
chapter,0.005164
characteris,0.006642
charl,0.012731
charter,0.011921
chaumett,0.012683
chicago,0.010800
chiefli,0.007184
china,0.008514
chisholm,0.009032
choic,0.008707
christ,0.007070
christian,0.042941
christianis,0.010613
christianismu,0.013084
christoph,0.005807
chronicl,0.006979
church,0.065084
cicero,0.049530
circa,0.007445
circl,0.010678
citi,0.003826
citizenri,0.009634
civic,0.014436
civil,0.007601
civilis,0.015124
claim,0.010090
clara,0.009222
clarioncal,0.013084
clariti,0.007955
classic,0.036610
clergyman,0.010191
clever,0.008530
close,0.005929
coalit,0.010739
coin,0.013766
coinag,0.007858
collect,0.009697
collector,0.007858
colleg,0.014430
colophon,0.010933
coluccio,0.011979
columbia,0.006163
combin,0.012639
come,0.019016
comedi,0.008277
comic,0.015501
comment,0.005307
commission,0.006815
commit,0.004644
common,0.005359
commonli,0.007360
commonplac,0.007910
commun,0.002897
companion,0.006391
compar,0.003277
compet,0.004569
complac,0.010191
complain,0.007195
complet,0.006121
complex,0.003242
compli,0.014612
compos,0.008408
comprehens,0.004881
compuls,0.009163
comt,0.049334
conceiv,0.005818
concentr,0.008673
concept,0.021648
concern,0.009333
concis,0.013499
concord,0.009124
confer,0.013087
conflict,0.012382
confucian,0.032235
confus,0.004987
congreg,0.008011
connect,0.003648
connot,0.007324
consciou,0.006553
conscious,0.011290
consequ,0.007536
conserv,0.008798
consid,0.018091
consider,0.007448
consolid,0.005818
constantin,0.008020
contact,0.004650
contain,0.009537
contemporari,0.030344
continu,0.008055
contrari,0.005795
control,0.002944
controversi,0.008734
converg,0.005838
convert,0.004517
convict,0.006422
cook,0.006248
copernican,0.008815
corliss,0.023158
cornel,0.007008
cornerston,0.007783
correct,0.004462
correctli,0.006367
corros,0.017631
counter,0.005992
countri,0.002916
court,0.012610
cousin,0.007288
craft,0.006666
creat,0.016264
creation,0.004034
creativ,0.017179
creator,0.006642
crime,0.005498
critic,0.035859
criticis,0.006523
critiqu,0.005630
crombi,0.011188
cruelti,0.008979
cult,0.036205
cultur,0.049983
curiou,0.008709
currenc,0.004856
curriculum,0.013729
da,0.017698
damag,0.004782
dame,0.008666
dark,0.005730
davi,0.044982
david,0.003936
day,0.003344
dc,0.006136
dead,0.016668
deal,0.003570
dealt,0.013284
death,0.011644
debat,0.012377
decis,0.007473
decisionmak,0.006388
declar,0.008561
declin,0.004207
dedic,0.005323
deem,0.011995
deep,0.004933
deeper,0.006622
deepli,0.012515
defenc,0.005394
defend,0.009917
defin,0.009124
degre,0.003629
deific,0.024195
deism,0.018527
deist,0.010155
deistic,0.011670
deleuz,0.019321
demand,0.007913
democrat,0.013027
democritu,0.008404
depart,0.003885
depend,0.002924
deriv,0.013478
describ,0.021822
descript,0.004051
design,0.003255
desir,0.012513
despit,0.003757
despot,0.008895
destini,0.007893
detach,0.007212
deu,0.009660
develop,0.008865
devis,0.006079
devoid,0.008491
devot,0.005238
dewey,0.016444
dictamini,0.012363
dictat,0.006337
dictionari,0.005373
dictum,0.009660
did,0.019738
differ,0.009397
differenti,0.004487
dific,0.013084
dignifi,0.010875
dilapid,0.010819
direct,0.002942
director,0.010657
directori,0.007439
disbelief,0.009392
discern,0.007282
disciplin,0.008167
discours,0.006068
discredit,0.007711
discrep,0.007649
discuss,0.003616
disobey,0.010191
disput,0.008915
distinct,0.003413
distinguish,0.003934
distribut,0.003656
divin,0.023578
divis,0.007682
divorc,0.007445
doctor,0.005288
doctrin,0.010629
document,0.004278
doe,0.002998
dogma,0.007576
doin,0.009888
domin,0.014587
donat,0.006638
doubt,0.005719
draft,0.005719
drag,0.007672
drakaki,0.013084
drama,0.007485
dreamt,0.011579
drive,0.004761
dtapl,0.012515
duke,0.006988
dure,0.025511
dust,0.007235
dutch,0.010886
dynam,0.004155
e,0.003591
earli,0.034692
earlier,0.003942
earliest,0.013379
earnestli,0.011493
earthli,0.008583
ecclesiast,0.015892
econom,0.002919
ed,0.003735
edit,0.008352
editor,0.022719
edmund,0.006788
educ,0.033991
effect,0.002592
efficaci,0.007330
einstein,0.006433
elect,0.007870
element,0.006786
eliot,0.044986
eloqu,0.028246
emancip,0.007634
emancipatori,0.022986
embrac,0.030095
emperi,0.012871
emperor,0.005884
emphas,0.009365
emphasi,0.004839
empir,0.011169
employ,0.007078
enabl,0.008462
encompass,0.004995
encyclopaedia,0.008429
encyclopdia,0.006920
encyclopedia,0.004595
end,0.014586
endors,0.012630
engag,0.021126
english,0.029728
enlighten,0.040782
enrich,0.006983
enter,0.003900
entir,0.010382
epicurean,0.009068
epicuru,0.008945
epitomis,0.011493
equip,0.004770
equival,0.004297
era,0.004215
erasmu,0.034839
ernest,0.006864
error,0.010147
eruditionem,0.013084
eschatolog,0.009242
especi,0.012393
espous,0.015152
essay,0.010341
essenc,0.012054
essenti,0.003709
est,0.007412
establish,0.008542
etern,0.006745
ethic,0.127679
etymolog,0.005679
eudaimonia,0.010191
europ,0.007235
european,0.003323
evan,0.007458
everywher,0.006930
evid,0.003638
evil,0.006490
exalt,0.009014
examin,0.004176
exampl,0.004779
excess,0.005156
execut,0.004041
exist,0.015919
existenti,0.007229
experi,0.003281
experiment,0.004456
explain,0.003591
expos,0.016033
exposit,0.007312
express,0.003457
extend,0.007038
extent,0.004390
extern,0.002086
ezra,0.009583
f,0.007860
fabric,0.013349
fact,0.010163
failur,0.004642
fair,0.005404
faircloth,0.013084
faith,0.021336
fall,0.010926
fals,0.005411
famou,0.008815
far,0.003617
father,0.018763
fault,0.007167
favorit,0.007866
fc,0.008962
februari,0.004334
felicit,0.011055
felix,0.015599
fell,0.005153
fellow,0.018098
fellowship,0.007657
femal,0.010714
ferguson,0.008695
ferrara,0.010388
feuerbach,0.030150
fifteenth,0.016644
figur,0.007903
flew,0.008299
flood,0.006298
florenc,0.023040
florentin,0.009392
flourish,0.023488
focu,0.003914
focus,0.003714
folktal,0.010267
folli,0.009888
follow,0.015976
font,0.019116
food,0.004106
foolish,0.009326
forc,0.008579
foreign,0.003714
forerunn,0.022729
forgeri,0.009608
form,0.015265
formal,0.003570
formul,0.004569
forward,0.015194
foucault,0.008255
foundat,0.003720
founder,0.010001
fourteenth,0.008583
fragment,0.005611
franchis,0.007703
franci,0.016391
free,0.016294
freedom,0.022520
freeli,0.012410
freethink,0.010155
freethought,0.011055
french,0.046076
frequent,0.020054
freud,0.007649
friedrich,0.017507
friend,0.011333
friendli,0.006572
fulfil,0.017309
futur,0.010424
g,0.003859
gain,0.006942
galileo,0.014048
gaspard,0.010613
gatha,0.023158
gautama,0.009263
gave,0.004151
gay,0.016318
gelliu,0.084684
gelliuss,0.013084
gemistu,0.012097
gener,0.008200
genius,0.010431
georg,0.028784
german,0.048352
germani,0.008592
gherardo,0.012363
giustinianivito,0.013084
given,0.011446
gloomi,0.010765
glori,0.024090
goal,0.003924
god,0.069911
goeth,0.009068
goldhil,0.013084
gone,0.012662
good,0.028548
goodfeel,0.013084
gore,0.009583
gospel,0.024061
gouven,0.013084
govern,0.002713
gradual,0.004586
grafton,0.022111
grammar,0.028386
grammarian,0.019269
grammat,0.008652
grant,0.004373
grassroot,0.008815
great,0.016078
greater,0.007187
greatest,0.010041
greec,0.016179
greek,0.096965
grendler,0.013084
grew,0.004767
grip,0.008583
ground,0.004151
groundwork,0.008058
group,0.015441
guattari,0.011188
guilti,0.007657
guin,0.009143
guo,0.009715
h,0.003963
ha,0.024731
haberma,0.009242
habit,0.006049
hale,0.008863
hamowi,0.009888
hampshir,0.008784
hand,0.003535
handl,0.005188
hannah,0.009415
happi,0.006308
hardi,0.008357
hardli,0.007627
harmoni,0.013308
harriet,0.009326
harsh,0.006788
harvard,0.011148
hbert,0.012097
head,0.003683
health,0.003977
heart,0.010473
heaven,0.013666
hegelian,0.027044
heidegg,0.025831
held,0.013493
help,0.009370
henceforth,0.009143
henri,0.004598
hereaft,0.010307
hermetic,0.010613
hero,0.006766
heroic,0.008357
hi,0.074187
hideous,0.012683
high,0.005777
higher,0.003391
highli,0.003755
highlight,0.005874
histor,0.019229
histori,0.026140
historian,0.043269
hitherto,0.008416
hold,0.006873
holiday,0.006715
homini,0.011333
homo,0.037395
honor,0.005902
honorari,0.029422
hope,0.019431
horrif,0.010713
hous,0.003827
howev,0.020839
huge,0.005306
hulm,0.024727
human,0.395828
humancent,0.021750
humancentr,0.021426
humani,0.029575
humanismu,0.013084
humanist,0.547506
humanistaffili,0.013084
humanita,0.116703
humanitarian,0.007178
humanitati,0.011766
humanityal,0.013084
humankind,0.031642
humanu,0.012363
hundr,0.004334
hunger,0.007849
huxley,0.016196
idea,0.032022
ideal,0.013927
idealis,0.010613
identif,0.005619
identifi,0.010346
ideolog,0.016168
idiom,0.009143
idolatri,0.009608
iheu,0.038050
ii,0.007467
imadaddean,0.013084
imbu,0.009326
imit,0.006749
immanuel,0.007200
impart,0.008049
imparti,0.008695
imperi,0.005558
impli,0.008871
import,0.007300
imposs,0.004824
improv,0.007021
includ,0.027728
incoher,0.009032
increasingli,0.008412
independ,0.002930
indian,0.004722
indiana,0.007206
indic,0.007019
individu,0.014714
inferior,0.006944
infertil,0.009263
inflict,0.007766
influenc,0.012569
influenti,0.009177
inform,0.011345
ingenu,0.009182
inher,0.005467
inim,0.010765
initi,0.006200
injunct,0.009284
injuri,0.006324
innov,0.004942
input,0.005168
inquiri,0.017072
insist,0.005821
inspir,0.009441
instanc,0.003863
instant,0.007374
instead,0.010025
institut,0.006038
institutionalis,0.009828
institutionemqu,0.013084
integr,0.003443
intellect,0.007649
intellectu,0.009789
intellig,0.004451
interchang,0.006530
intern,0.007500
interpret,0.011419
interrupt,0.007096
intervars,0.011493
introduc,0.006693
inveigh,0.012515
invent,0.013927
inventor,0.007059
invit,0.005879
involv,0.008297
ionia,0.011120
ionian,0.009828
iran,0.006472
irreligi,0.010347
isaac,0.006175
isbn,0.047218
islam,0.023747
ism,0.009742
isol,0.004632
issu,0.009184
itali,0.020537
italian,0.037474
iv,0.006193
ivori,0.007750
jacob,0.019299
jacqu,0.013237
jame,0.004023
jardin,0.010191
jeanfranoi,0.019657
jeanpierr,0.008831
jerom,0.007992
jesu,0.013977
jesuit,0.007992
jewish,0.005914
ji,0.009106
john,0.016225
johnson,0.013038
join,0.004243
jonathan,0.006670
joseph,0.004701
journal,0.003669
jrgen,0.008118
juan,0.007024
judg,0.010537
julian,0.014711
june,0.004156
just,0.006653
justic,0.009643
justli,0.009888
k,0.004325
kabbalah,0.009828
karl,0.005365
kate,0.009182
kenneth,0.006401
key,0.003630
kind,0.011400
king,0.027265
know,0.004322
knowledg,0.035883
known,0.019070
kristel,0.025031
kurt,0.007513
la,0.009523
label,0.010265
lack,0.003637
ladi,0.007598
lamont,0.022667
languag,0.021512
lao,0.008138
larg,0.005027
larger,0.003765
late,0.006605
lateantiqu,0.012871
latenineteenth,0.012097
later,0.017021
latin,0.053799
lauri,0.019269
lavenir,0.010993
law,0.008620
lawyer,0.013841
lay,0.010735
lccn,0.008831
lead,0.002846
leader,0.012513
leadership,0.010350
lean,0.007791
learn,0.028049
leav,0.004039
leben,0.011333
led,0.003078
left,0.007604
lefvr,0.011670
legaci,0.005997
legal,0.007872
legisl,0.004367
legitim,0.005924
leiden,0.008357
leo,0.007139
leon,0.007096
leonardo,0.015615
let,0.005344
letter,0.023543
levantin,0.011259
level,0.002852
lew,0.010933
lhumanit,0.013084
liang,0.010155
liber,0.021502
libertarian,0.007548
liberti,0.012109
librari,0.013443
life,0.042927
lightheart,0.011120
like,0.030573
line,0.010241
ling,0.010267
linguist,0.011214
link,0.004148
lip,0.009106
lisa,0.008928
list,0.002652
liter,0.005484
literari,0.029908
literatur,0.017046
littera,0.012097
littl,0.007301
liturgi,0.009163
live,0.024672
logic,0.009232
lokayata,0.011869
london,0.012048
long,0.003096
longer,0.003933
longtim,0.008128
look,0.011814
lord,0.005645
lorenzo,0.008928
lost,0.004144
love,0.016987
lower,0.003524
ludwig,0.013098
lui,0.007425
lutheran,0.008583
lyotard,0.022111
macmillan,0.006515
madagascar,0.008322
main,0.006039
mainli,0.003959
maintain,0.003325
maistr,0.011670
major,0.012652
makdisi,0.012683
make,0.007276
male,0.010699
man,0.033760
mani,0.015090
manifesto,0.022560
manli,0.010933
mann,0.008895
manner,0.004603
mantua,0.011979
manuscript,0.025888
manutiu,0.012683
march,0.003955
mari,0.016530
martineau,0.031987
marx,0.006666
maslow,0.009799
master,0.015270
mathematician,0.005838
matter,0.003587
matthew,0.006916
mazda,0.020614
mean,0.028893
meant,0.009783
measur,0.003123
meddl,0.010155
medicin,0.004547
mediev,0.025435
medit,0.007246
melvyn,0.010613
member,0.015215
men,0.022113
menand,0.010388
mere,0.004692
messag,0.011854
metaphys,0.012204
method,0.011815
michel,0.006538
middl,0.015729
midnd,0.011120
midth,0.011769
midtol,0.009533
mifflin,0.008800
milan,0.008001
miletu,0.008847
milton,0.007080
mind,0.008995
minist,0.012910
minor,0.004413
miracul,0.009124
mockeri,0.010875
mode,0.005369
model,0.017825
modern,0.040051
monasteri,0.007246
monk,0.007054
monograph,0.007445
montesquieu,0.009485
moral,0.052486
movement,0.029599
muscl,0.006614
muslim,0.005334
mutual,0.005030
mystra,0.013084
myth,0.006090
nachdruck,0.013084
nameless,0.011120
napl,0.017857
narr,0.012552
narrow,0.010771
nasadiya,0.011579
nation,0.010571
natur,0.028008
naturalist,0.012994
nazi,0.006650
near,0.003921
necess,0.005976
necessari,0.003800
need,0.020070
neg,0.004135
neishi,0.013084
neoplaton,0.016599
new,0.042608
nichola,0.006415
niethamm,0.037091
niethhamm,0.013084
nihil,0.036349
nil,0.009222
nineteenth,0.023864
nineteenthcenturi,0.008392
nobil,0.007439
nonchristian,0.009202
nonhuman,0.014637
noninterven,0.025031
nonsuperstiti,0.013084
nontheist,0.048438
north,0.007573
norton,0.014864
notabl,0.007319
note,0.013749
noth,0.015141
notion,0.013537
notr,0.009326
novelist,0.016444
nowaday,0.007218
number,0.002386
numer,0.003533
oak,0.007680
obscur,0.006606
observ,0.012591
occas,0.005932
occasion,0.005380
occupi,0.004781
occur,0.003030
oclc,0.013738
offend,0.007983
offer,0.010639
offici,0.010862
old,0.011839
onc,0.003563
onli,0.017563
open,0.009795
oppon,0.011849
oppos,0.019928
opposit,0.003924
ordain,0.008709
order,0.010513
organ,0.005203
organis,0.058702
origin,0.013215
orthodox,0.012845
os,0.008709
oskar,0.017248
ought,0.006846
outmod,0.010662
outset,0.008429
outstand,0.006523
overarch,0.008068
overestim,0.008912
overli,0.007634
owner,0.005394
oxford,0.008962
p,0.003640
pagan,0.036654
paideia,0.035010
pain,0.030204
pair,0.005082
palgrav,0.007080
pali,0.008945
panopli,0.011055
papal,0.016532
paradox,0.006099
pari,0.005215
parisian,0.009951
partak,0.009392
parti,0.003685
particip,0.011287
particularli,0.006689
partli,0.005128
partner,0.005213
passag,0.005682
passion,0.007161
past,0.003783
patrist,0.011259
paul,0.020729
peac,0.004599
pedantri,0.011979
pejor,0.008322
pen,0.007642
pens,0.010875
peopl,0.013147
perhap,0.004433
pericl,0.021530
period,0.011335
perman,0.004622
persecut,0.006874
persist,0.010815
person,0.006241
perspect,0.004267
persuad,0.013785
persuas,0.007513
pertain,0.013190
pervas,0.007499
pessimist,0.008863
peter,0.013047
petrarch,0.100843
phenomenolog,0.007212
philanthrop,0.019657
philanthropi,0.019321
philippa,0.010474
philolog,0.054524
philologist,0.010191
philosoph,0.079540
philosophi,0.113697
phrase,0.022987
physic,0.006241
pierr,0.006139
pieti,0.008815
pioneer,0.004982
piu,0.018065
place,0.010789
placehold,0.010084
plan,0.003611
planet,0.005411
plato,0.012565
platon,0.007612
platonist,0.009438
play,0.010330
playwright,0.009263
pleas,0.014447
pletho,0.012363
poet,0.006595
poetri,0.026617
point,0.005533
polaris,0.008815
polem,0.009106
polit,0.020954
polyth,0.009263
pope,0.013415
popular,0.003412
popularli,0.007156
portal,0.006878
portrait,0.007734
posit,0.005653
positiv,0.015533
possibl,0.008368
postmodern,0.014749
posttheist,0.012871
potter,0.052085
pound,0.013711
pour,0.014356
power,0.002798
pp,0.013376
practic,0.008778
practition,0.005739
pragmat,0.006666
pragmatist,0.009485
prais,0.006395
prayer,0.007206
preach,0.007807
precipit,0.006289
predat,0.006071
predecessor,0.005963
prepar,0.004435
present,0.010938
presid,0.015820
presocrat,0.016691
press,0.032188
presupposit,0.009050
pretens,0.018568
pretext,0.009124
previous,0.004169
pride,0.007527
priest,0.006475
primarili,0.003738
primogenitor,0.013084
princip,0.004272
principl,0.022981
print,0.010272
prison,0.005804
problem,0.008774
proctor,0.010875
profession,0.008863
professor,0.004887
profound,0.012477
program,0.013761
programm,0.005256
progress,0.003727
project,0.010152
prolifer,0.006732
promin,0.012866
promot,0.015605
proof,0.005576
properti,0.006622
propheci,0.008311
propos,0.006748
prose,0.015469
protagora,0.009951
protest,0.015247
protestant,0.008754
proudhon,0.009951
prove,0.004220
proverb,0.009461
provid,0.002426
prudent,0.009050
pseudosci,0.008345
psychoanalysi,0.008322
psychoanalyt,0.008680
psycholog,0.018647
psychologist,0.006266
public,0.005508
publish,0.003035
punish,0.018049
pure,0.004324
purport,0.007734
pursu,0.009947
puto,0.038050
qualifi,0.005751
quarrel,0.008895
queen,0.005739
quentin,0.009919
question,0.003434
quickli,0.004451
quit,0.004622
quot,0.005721
quotat,0.007264
quran,0.007928
rabelai,0.011333
race,0.010746
radic,0.010027
radio,0.005599
rais,0.004034
raison,0.010347
rang,0.006566
ration,0.028280
rational,0.007719
rationalist,0.007910
raymond,0.007128
rd,0.004897
react,0.006060
read,0.006025
reader,0.005914
readi,0.006374
realiti,0.009436
realli,0.005580
realm,0.005479
reason,0.071599
receiv,0.003313
recent,0.003003
recognis,0.010710
record,0.018280
rediscoveri,0.008466
refer,0.015610
reflex,0.007627
reform,0.042428
refuge,0.012987
refus,0.005061
regard,0.006655
region,0.003106
regul,0.004106
reject,0.017103
relationship,0.003310
religi,0.075320
religion,0.101608
religios,0.009583
remain,0.005737
remark,0.005320
remedi,0.006860
renaiss,0.212210
renan,0.012225
renew,0.005072
replac,0.010603
repres,0.005690
research,0.002813
resembl,0.005471
reserv,0.004613
respect,0.003298
respons,0.024067
restor,0.004905
restrict,0.004020
result,0.004832
resum,0.006634
retain,0.004561
retreat,0.006699
retrospect,0.007634
revel,0.020863
reverber,0.010119
reviv,0.027561
revolut,0.030078
reward,0.006000
rhetor,0.040295
richard,0.012855
ridicul,0.008138
rig,0.008098
right,0.015562
righteou,0.009438
ritual,0.012937
robert,0.007627
roff,0.012515
roger,0.005816
role,0.003038
roman,0.023263
rome,0.047377
ronald,0.012392
root,0.008763
rose,0.005263
rousseau,0.008108
routledg,0.018543
roy,0.007112
ruge,0.012225
rujia,0.013084
rule,0.012664
ruler,0.011590
s,0.014760
safe,0.005671
sagan,0.009485
sage,0.027350
said,0.003563
saint,0.011599
sake,0.007246
salutati,0.035938
salvationist,0.012871
sanctifi,0.010875
saw,0.012733
say,0.030063
schiller,0.019217
schmitt,0.009919
scholar,0.026429
scholarli,0.012279
scholarship,0.012404
scholast,0.007513
scholastic,0.033244
school,0.021173
scienc,0.032089
scientif,0.020942
scorn,0.009392
scriptur,0.006979
sean,0.009032
search,0.004439
second,0.011387
secondari,0.004939
secret,0.005351
secular,0.102051
secur,0.003685
seek,0.023352
seen,0.010210
selfactu,0.010191
selfdescrib,0.009951
sellar,0.010474
semin,0.006634
seneca,0.018697
senior,0.005749
sens,0.021414
sentient,0.008266
sentiment,0.006741
separ,0.006337
seri,0.006910
serv,0.003452
servant,0.006686
set,0.010747
settl,0.004929
sever,0.007549
shadow,0.006758
shall,0.012662
shape,0.008268
share,0.003379
short,0.007396
shun,0.008928
sigmund,0.008049
signatori,0.008345
signifi,0.006998
signific,0.003081
silver,0.006035
similar,0.002882
simon,0.005799
simpli,0.011817
sinc,0.009655
sink,0.007189
situat,0.003716
sixtu,0.011055
skeptic,0.019073
skill,0.009300
skinner,0.016622
slave,0.005704
slop,0.013084
socal,0.009741
sociabl,0.010229
social,0.024567
societi,0.033269
sociolog,0.005719
sole,0.004899
someth,0.004641
sometim,0.012569
soon,0.008853
soper,0.012363
sought,0.009405
soul,0.018697
sourc,0.024291
south,0.003780
spanishborn,0.011493
spare,0.007513
speak,0.018515
speci,0.004439
special,0.003019
specialist,0.011979
specif,0.002888
speech,0.010401
spirit,0.027271
spiritu,0.005562
split,0.009922
spoke,0.006662
spoken,0.006493
sponsor,0.006051
sprang,0.008815
spread,0.004266
squadron,0.008179
stage,0.012646
stanc,0.026617
stand,0.004536
standard,0.003251
stark,0.008148
state,0.010560
statement,0.004431
stipul,0.007300
stirl,0.009461
stood,0.006493
strauss,0.009284
strausss,0.011979
stress,0.009900
strictest,0.009583
studi,0.028062
studia,0.010307
studious,0.012225
style,0.009947
stylist,0.008624
subject,0.006141
submit,0.012092
substanti,0.004481
suffer,0.004405
suggest,0.003379
sukta,0.011188
sum,0.014445
summaris,0.008610
superior,0.005373
supernatur,0.084167
superstit,0.008357
support,0.008610
suprem,0.004943
surviv,0.012490
symbol,0.008765
synonym,0.006024
synthesis,0.009050
t,0.008400
tao,0.008666
taoist,0.017994
taproom,0.013084
tast,0.006775
taught,0.016146
tbingen,0.010519
teach,0.009457
teacher,0.011064
technic,0.004293
techniqu,0.007419
teeth,0.007598
templ,0.006381
tempor,0.006361
tend,0.007928
terenc,0.027262
terentiu,0.011869
term,0.027372
text,0.024985
textbook,0.005441
textual,0.007583
th,0.033215
thale,0.016098
thcenturi,0.050095
theft,0.008058
theism,0.008912
theistic,0.026686
theme,0.005346
themselv,0.028645
theolog,0.023538
theologian,0.028559
theophilanthropi,0.013084
theophilanthropist,0.013084
theori,0.008488
theorist,0.005626
thi,0.045139
thing,0.011523
think,0.025117
thinker,0.023342
thirti,0.006508
thoma,0.012954
thought,0.051318
thousand,0.004257
thu,0.031040
thucydid,0.009202
time,0.019222
timothi,0.015422
tini,0.006512
today,0.020807
togeth,0.006657
toni,0.029916
topic,0.003830
total,0.003368
tower,0.007059
tradit,0.027358
train,0.016673
transcend,0.006828
transcendent,0.007711
translat,0.020779
trap,0.006324
traversari,0.013084
treat,0.004227
trenchantli,0.012515
tri,0.003799
triumph,0.007513
troubl,0.006337
truli,0.006049
truth,0.015408
turk,0.007627
turn,0.016686
twentieth,0.011390
twist,0.007919
type,0.002902
typic,0.006477
tzu,0.009533
uk,0.008849
ultim,0.016700
umanista,0.012683
umanisti,0.025031
unattest,0.012871
unavail,0.007893
unchang,0.006436
understand,0.009830
understood,0.009060
unesco,0.006556
unifi,0.005052
union,0.014348
uniqu,0.004116
unit,0.004869
unitarian,0.034609
uniti,0.015918
univers,0.072505
unqualifi,0.010191
unwis,0.010347
upset,0.008159
urbino,0.012515
usag,0.005063
use,0.041421
useless,0.007910
usual,0.002904
utilitarian,0.007649
utterli,0.008997
v,0.008608
valla,0.032139
valu,0.021657
valuabl,0.005666
variou,0.005496
veda,0.008179
vein,0.007189
venetian,0.008652
venic,0.015821
ventur,0.006357
vernacular,0.008345
vernant,0.012871
version,0.004222
versu,0.005634
victorian,0.015501
vidal,0.009888
view,0.030939
vinci,0.008233
violent,0.005960
virgin,0.007393
virtu,0.024466
virtuou,0.017034
visconti,0.012097
vision,0.005228
vital,0.005391
vive,0.010347
vivr,0.012515
voigt,0.045645
vol,0.005188
voltair,0.008610
voltairean,0.013084
vonnegut,0.011766
vulgat,0.010431
w,0.016201
wa,0.148447
wagon,0.009242
wallac,0.007380
want,0.004456
war,0.006858
washington,0.005314
way,0.018067
weather,0.005919
web,0.005233
wedg,0.009087
welfar,0.005560
wellknown,0.005666
went,0.004427
wernick,0.021638
wesen,0.011579
west,0.004144
western,0.003631
whatev,0.017828
wherebi,0.005454
whitehead,0.007955
wholeheart,0.011670
wholeheartedli,0.011259
wide,0.012436
wife,0.006223
william,0.003868
willingli,0.009348
win,0.005428
wisdom,0.019174
wish,0.010675
witt,0.009799
witti,0.010050
women,0.022970
won,0.004886
wood,0.005570
word,0.070368
work,0.014199
world,0.041605
worldview,0.007406
worship,0.013083
write,0.037743
writer,0.019817
written,0.007643
wrong,0.011355
wrote,0.012338
wu,0.008190
x,0.004274
xenophan,0.021131
xv,0.008945
yao,0.010084
yea,0.011979
year,0.004872
yellow,0.006779
york,0.022307
zarathustra,0.022241
zeitgeist,0.010388
zhou,0.017166
zhu,0.009202
zhuan,0.011259
zuo,0.010875
