abandon,0.002730
abhinavagupta,0.013512
abov,0.003742
absenc,0.008060
absolut,0.101640
absoluterel,0.006856
accept,0.001834
access,0.002022
accompani,0.002825
accomplish,0.002937
accord,0.051152
accur,0.002490
acharya,0.005653
achiev,0.001838
acknowledg,0.005636
activ,0.004375
actual,0.001870
ad,0.001865
adapt,0.004654
addit,0.002957
adher,0.005912
adi,0.019524
adopt,0.012101
advait,0.007255
advaita,0.382103
advaitaorguk,0.007255
advaitavda,0.007255
advaya,0.120708
advayaphilosophi,0.007255
advoc,0.007526
adyava,0.007255
age,0.012812
agethink,0.007255
aid,0.002192
aim,0.008348
aivism,0.006969
aja,0.006586
ajativada,0.013712
ajta,0.006856
akti,0.006756
alan,0.003098
alaya,0.006969
alayavijnana,0.014510
albert,0.002970
alcott,0.006322
aldo,0.005449
aldou,0.005390
alexand,0.002800
alfr,0.002994
allembrac,0.005251
allow,0.002906
alon,0.004998
altern,0.001878
alway,0.001965
amo,0.004624
analog,0.002611
anatman,0.020000
anatta,0.005579
ancient,0.008470
andrew,0.002968
ani,0.023185
anicca,0.005923
anil,0.006322
annihilation,0.006756
anonym,0.003869
anoth,0.008434
answer,0.002602
anubhava,0.006969
anyth,0.002888
apart,0.002678
appar,0.007485
appear,0.020314
appli,0.003124
approach,0.011774
approxim,0.001991
april,0.002235
aquariu,0.006322
archaic,0.004190
argu,0.005832
aris,0.009537
arisen,0.003991
arriv,0.002352
arthur,0.005962
asesha,0.007100
asia,0.002509
asian,0.027843
aspect,0.003841
assert,0.015064
associ,0.004283
astrolog,0.004228
atman,0.073748
atmanbrahman,0.006969
atmapatha,0.007255
attach,0.005534
attain,0.005917
attempt,0.010002
attent,0.002383
attract,0.004703
attribut,0.011360
aurobindo,0.011920
author,0.003291
autonom,0.002955
avail,0.001786
avatasaka,0.006512
avidya,0.006322
avoid,0.002183
awak,0.004956
awar,0.013221
away,0.002226
background,0.002510
baker,0.003955
banarsidass,0.011526
barth,0.004729
base,0.011461
baseconsci,0.014510
basi,0.007281
basic,0.001772
bce,0.006468
becam,0.004832
becaus,0.006633
becom,0.007053
befor,0.001505
began,0.001759
begin,0.003436
belief,0.021231
believ,0.001822
bernadett,0.006381
berzin,0.006586
best,0.007769
bestknown,0.003841
betray,0.004272
better,0.001987
bevrijdingsweg,0.007255
bhagavad,0.005628
bhagavan,0.006268
bhagavatpda,0.007255
bhai,0.006216
bhairava,0.006856
bhakta,0.006586
bhedabheda,0.007100
biblic,0.003786
bind,0.003043
blend,0.007388
bliss,0.014582
boaz,0.006168
bodi,0.007073
book,0.003349
border,0.002596
borrow,0.002924
bradley,0.004537
brahma,0.005189
brahmaikameva,0.007100
brahman,0.153625
brahmaworld,0.007100
breakthrough,0.007521
brief,0.002793
brihadaranyaka,0.018366
broad,0.002367
bronkhorst,0.006381
bronson,0.006037
buddha,0.041329
buddhadhtu,0.007100
buddhahood,0.005763
buddhanatur,0.058239
buddhism,0.179434
buddhist,0.120520
built,0.002196
bundl,0.003918
c,0.001686
came,0.005789
canon,0.003204
care,0.002217
categor,0.003000
caus,0.001575
ce,0.025872
center,0.001882
central,0.011581
centuri,0.018187
cephalopod,0.005132
chandogya,0.020269
chandradhar,0.007255
chang,0.001330
chanzen,0.006216
chao,0.003415
character,0.006716
characterist,0.002034
charl,0.004521
chasid,0.006856
china,0.009070
chines,0.035520
chinul,0.006969
chit,0.012536
chitachit,0.007100
chitta,0.007100
chittamatrin,0.007255
chn,0.022513
christian,0.016012
citta,0.006666
cittamatra,0.006666
cittamtra,0.041818
claim,0.003583
clean,0.003455
clear,0.004393
close,0.006317
cloud,0.003376
coarisen,0.014510
cognit,0.025186
cognitum,0.021765
cogniz,0.010503
cohen,0.003885
coher,0.003253
coinag,0.004186
coloni,0.004881
coman,0.013939
come,0.006753
commenc,0.003570
commit,0.002474
common,0.014273
commoncor,0.021765
commonli,0.001960
commun,0.001543
compar,0.003491
comparison,0.002475
complementari,0.003443
complet,0.004891
compos,0.002239
comprehend,0.008363
conceiv,0.006199
concept,0.037890
conceptu,0.011365
concern,0.001657
concret,0.009702
condit,0.001651
confin,0.003169
confus,0.002657
conn,0.005449
connect,0.001943
conscious,0.075180
consciousnessmindidea,0.014510
consciousnessonli,0.020269
consequ,0.002007
consid,0.011014
consist,0.004740
consol,0.004695
constitut,0.007456
construct,0.005484
contain,0.001693
contempl,0.008150
contemporari,0.002309
contend,0.003402
content,0.002329
context,0.002076
continu,0.004291
contrari,0.003087
contrast,0.011965
contribut,0.003465
contributor,0.003453
convent,0.027431
convey,0.007128
copleston,0.006322
core,0.002506
correct,0.002377
correl,0.002751
correspond,0.002143
corrupt,0.002898
cosmic,0.003611
cosmo,0.003994
cothen,0.007255
coulson,0.005449
counter,0.003192
coupl,0.005463
cours,0.006172
creat,0.007219
creativ,0.003050
creatur,0.007200
criterion,0.007089
critic,0.008682
criticis,0.006949
critiqu,0.002999
crown,0.003057
cultur,0.005325
current,0.003022
d,0.001911
daili,0.005522
dale,0.004523
dalvi,0.006969
dao,0.005579
dark,0.006105
dasgupta,0.011920
dass,0.006168
date,0.003946
david,0.012582
day,0.001781
death,0.002067
debat,0.002197
decemb,0.002166
decept,0.004150
deconstruct,0.004380
deepen,0.012727
deepli,0.003333
defend,0.005282
defil,0.005603
defin,0.012961
definit,0.011200
deiti,0.003777
delhi,0.008150
deni,0.010946
denial,0.004075
depend,0.014019
derrida,0.005040
describ,0.011624
descript,0.006474
design,0.001733
desika,0.007100
desilet,0.007255
destroy,0.004937
determin,0.001639
deutsch,0.003991
develop,0.022432
devil,0.004181
devoid,0.004523
devote,0.005091
dharma,0.022719
dharmadhatu,0.020269
dharmakaya,0.006381
dialect,0.003472
diamond,0.003584
diamondsutra,0.007255
dichotomi,0.008495
did,0.005257
differ,0.027533
diksha,0.007100
dimens,0.002716
direct,0.003135
disagre,0.003393
disappear,0.003001
discern,0.011637
discours,0.003232
discrimin,0.003278
discuss,0.003852
distinct,0.020000
distinguish,0.006287
diverg,0.003190
divers,0.009082
divin,0.012559
dmoz,0.003126
doctrin,0.067947
doe,0.025557
dogma,0.004035
domin,0.001942
door,0.003691
draw,0.002420
drawn,0.002786
dt,0.004655
dual,0.006656
dualism,0.049291
dualist,0.004550
dualiti,0.028359
duo,0.005220
dure,0.004076
dvaita,0.033479
dvaya,0.006969
dzogchen,0.041720
earli,0.011372
earlier,0.002100
earliest,0.007127
easi,0.002886
east,0.010926
eastern,0.018872
eckhart,0.011920
eddi,0.004811
ego,0.004537
egoiti,0.007255
eighth,0.003966
ein,0.004631
ekamevadvitiyam,0.007255
element,0.005422
eleph,0.003931
elephantless,0.014510
eliot,0.004792
eloqu,0.005015
els,0.002926
eman,0.004181
embodi,0.003286
embrac,0.003206
embryo,0.003938
emerg,0.003643
emerson,0.004991
emphas,0.019955
emphasis,0.007659
empir,0.003966
empiric,0.003848
empti,0.135541
end,0.001553
endors,0.006727
endow,0.003600
energi,0.003979
english,0.015835
enlighten,0.012413
entail,0.003316
enter,0.002077
entiti,0.004823
epistem,0.004516
epistemolog,0.016889
equal,0.001935
equat,0.002363
era,0.004491
eric,0.003376
erron,0.008142
esoter,0.004346
esoteric,0.010980
especi,0.006601
espn,0.006122
essenc,0.057791
essencefunct,0.026667
essenti,0.017781
essentialist,0.017203
etern,0.014372
etymolog,0.003025
european,0.001770
event,0.011097
everchang,0.005511
everi,0.003557
everyday,0.006072
everyth,0.025471
evid,0.003876
evidenti,0.005469
evil,0.003457
evolut,0.002307
evolv,0.002332
exactli,0.005568
examin,0.002224
exampl,0.003818
exceed,0.002984
exchang,0.002009
exclud,0.002673
exegesi,0.005189
exert,0.003261
exist,0.059361
experi,0.078650
experienc,0.005103
experienti,0.004586
explain,0.005740
explor,0.002165
expos,0.002846
express,0.020256
extern,0.002222
extravag,0.004783
extrem,0.006116
eye,0.002841
f,0.004187
fabric,0.003555
face,0.006399
facet,0.008437
fact,0.003609
fail,0.002136
faith,0.002841
fall,0.001940
fals,0.005765
famous,0.003691
far,0.001927
fazang,0.006666
fearless,0.005556
featur,0.003844
feel,0.002657
fenton,0.005960
figur,0.004209
findabl,0.006969
fit,0.002587
fleet,0.003417
flourish,0.003128
flower,0.010354
follow,0.008510
forc,0.001523
forev,0.004051
form,0.015102
formless,0.005856
formul,0.002433
forth,0.003089
foundat,0.003963
founder,0.002663
framework,0.002177
frederick,0.003428
free,0.003472
freed,0.003918
frequent,0.002136
friedrich,0.003108
fring,0.004067
frontier,0.003350
fuller,0.004451
fulli,0.011456
function,0.004668
fundament,0.011677
gain,0.005547
gangaji,0.007255
garbha,0.006969
gari,0.003791
garland,0.014643
gate,0.003679
gauapda,0.007255
gaudapada,0.057432
gaudapda,0.006856
gd,0.010292
gener,0.002184
german,0.004292
gita,0.005390
given,0.003048
glori,0.004277
gloria,0.005335
glossari,0.003704
gnostic,0.009459
goal,0.008362
god,0.066501
godhead,0.016811
goldsmith,0.004624
gone,0.003372
good,0.003379
goodevil,0.006666
gorakhnath,0.007100
gospel,0.004272
govern,0.001445
govinda,0.006268
gradat,0.005603
gradual,0.004886
gradya,0.007255
grahaka,0.007255
grandteach,0.013712
grasp,0.018958
graspap,0.007255
great,0.003425
greec,0.002872
gregori,0.003696
griffithdickson,0.007255
gross,0.002971
ground,0.015480
grow,0.005846
guru,0.013611
guy,0.004128
gwen,0.006078
gzhan,0.006969
h,0.004222
ha,0.025335
hakuin,0.006381
half,0.004184
handl,0.002763
harmonis,0.005175
hasid,0.011067
haven,0.003848
head,0.001962
health,0.002118
heart,0.005579
held,0.001796
henri,0.002449
herder,0.004860
hermeneut,0.004639
herselfhimself,0.006969
heterodox,0.008916
hi,0.016352
highest,0.023273
highli,0.006002
hinayana,0.006216
hindu,0.028188
hinduism,0.043852
histor,0.001707
histori,0.002531
hold,0.018306
holist,0.007810
homogen,0.003423
hori,0.013024
household,0.003023
howev,0.006167
hua,0.005301
huayan,0.024672
huayen,0.006586
human,0.007321
hume,0.003955
huxley,0.004313
hypothesi,0.002647
idea,0.047761
ideal,0.019783
idealist,0.012627
ident,0.019585
identif,0.002993
identifi,0.001837
ignor,0.002636
illumin,0.003570
illus,0.011257
illusori,0.009825
imag,0.002340
imagin,0.003038
imaginari,0.003980
imman,0.014163
immedi,0.002234
immediat,0.014510
imperman,0.005556
imperson,0.014087
impli,0.002362
import,0.001296
impos,0.002613
imposs,0.005139
inact,0.011888
inasmuch,0.005065
inbetween,0.005706
inchegeri,0.007255
includ,0.004220
inclus,0.006261
inconceiv,0.005301
incorrectli,0.008223
indebt,0.004663
independ,0.004682
indestruct,0.005015
india,0.016287
indian,0.040253
individu,0.018811
ineff,0.005556
inferior,0.003699
infinit,0.011903
influenc,0.026783
influenti,0.017110
inform,0.001510
infus,0.004362
inher,0.017475
initi,0.006605
innat,0.003738
inner,0.003055
innov,0.002632
input,0.002753
insenti,0.006586
insight,0.025372
instead,0.001780
institut,0.001608
institutionsparticularli,0.006512
instruct,0.002861
insuffici,0.003445
integr,0.001834
intellect,0.008150
intellectu,0.002607
intellig,0.002371
intens,0.002524
interchang,0.006957
interior,0.002982
intermediari,0.003857
interpenetr,0.016347
interpret,0.030414
interrel,0.003709
intrins,0.006435
introduc,0.001782
introduct,0.004029
intuit,0.013008
involv,0.001473
isbn,0.001796
iswara,0.006969
ithaca,0.004802
j,0.003817
jain,0.004721
jainism,0.004609
jame,0.004287
jay,0.004071
jed,0.006168
jen,0.004704
jerri,0.008372
jesusian,0.007255
jewish,0.009451
jing,0.004956
jiva,0.005856
jizang,0.006756
jnaneshvara,0.007255
joel,0.004439
john,0.005185
jonang,0.006666
journal,0.001954
judaism,0.003635
just,0.003544
justif,0.007102
justifi,0.006112
juwelenschip,0.007255
kabbal,0.006586
kabbalah,0.005235
kagyu,0.006037
kahn,0.010321
kajiyama,0.007255
kalupahana,0.006444
kan,0.005371
kanstudi,0.007100
kant,0.003676
kapalika,0.007100
karl,0.002858
karma,0.009130
karmic,0.005628
kashmir,0.052720
katz,0.013849
kaula,0.006168
ken,0.004218
kenneth,0.003410
kensh,0.006969
kensho,0.025072
kevala,0.006512
key,0.001933
king,0.004841
know,0.004605
knowledg,0.013380
known,0.007618
koan,0.012645
koanstudi,0.007255
kochumuttom,0.014510
korean,0.007055
ksemaraja,0.007255
l,0.002236
label,0.005468
lack,0.003875
lai,0.016471
lamp,0.008565
languag,0.009549
lankavatara,0.026048
lankavatarasutra,0.007100
lao,0.004335
larg,0.001339
larger,0.002005
late,0.003518
later,0.007555
latin,0.002388
lead,0.003032
led,0.001639
left,0.002025
len,0.003854
lengthi,0.003962
level,0.012155
liber,0.016036
lie,0.002489
life,0.008166
light,0.008379
like,0.008142
likewis,0.003009
limit,0.001551
limitless,0.015852
lingpa,0.014201
linji,0.006666
link,0.003314
list,0.001412
liter,0.014608
live,0.008214
longer,0.004191
look,0.004195
lost,0.002207
love,0.006032
loy,0.018366
lumin,0.004830
lun,0.005556
lustr,0.005763
m,0.001817
macrocosmo,0.007255
madhvacharya,0.006381
madhyamaka,0.096556
madhyamakabuddh,0.014510
madhyamakainspir,0.007255
madhyamakaschool,0.007255
madhyamakathought,0.007255
madhyamika,0.018968
magazin,0.002941
magri,0.006969
mahadevan,0.006586
mahamudra,0.006381
mahaparinirvana,0.006216
maharaj,0.013712
maharshi,0.037608
mahayana,0.060622
mahayogi,0.007255
mahyna,0.011469
main,0.012867
mainstream,0.003083
maintain,0.001771
major,0.002695
make,0.002583
mandair,0.007100
mandukaya,0.007255
mandukya,0.006666
mani,0.005741
manichaean,0.005960
manifest,0.011691
manuscript,0.003447
margaret,0.003712
mari,0.002935
mario,0.004403
mark,0.002039
mask,0.004028
master,0.002711
mat,0.004594
materi,0.003560
matter,0.003822
max,0.003104
maya,0.013695
mckenna,0.005923
mdhyamaka,0.006512
mdhyamika,0.006756
mean,0.033581
meant,0.005211
mediat,0.003112
mediev,0.005419
medit,0.011581
mediterranean,0.003323
meister,0.005653
men,0.002355
mental,0.005498
mere,0.009997
merg,0.003060
metaphor,0.003573
metaphys,0.019503
methodist,0.004729
methodolog,0.002689
michael,0.007014
michaelson,0.012888
microcosmo,0.006666
middl,0.006284
milk,0.003752
millennium,0.003171
miller,0.003546
mind,0.047918
mindonli,0.013024
mindstream,0.012762
mindthought,0.007255
mindu,0.014510
miracl,0.007932
mirror,0.003430
mispercept,0.005856
mistak,0.003496
mistakenli,0.004374
misunderstand,0.004172
mlamadhyamakakrik,0.006512
mller,0.008748
mode,0.008580
modern,0.025906
modernis,0.004380
modif,0.006039
mohanta,0.014510
moksha,0.010409
moment,0.002890
momentum,0.003340
monast,0.004391
monism,0.049177
monist,0.024010
monk,0.003758
monoth,0.004586
monotheist,0.009019
monument,0.003637
moral,0.010166
mother,0.002927
motil,0.009494
motion,0.002563
motiv,0.004964
movement,0.026278
muir,0.005371
multipl,0.003908
mundan,0.028327
murti,0.011995
mutual,0.005359
mysteri,0.003353
mystic,0.033723
nagarjuna,0.021877
nake,0.004055
nath,0.010707
natha,0.014510
nathtradit,0.007255
nation,0.001407
natur,0.033908
nayanar,0.006666
nd,0.002363
necessari,0.002024
negat,0.008087
nengso,0.007255
neoadvaita,0.058042
neocoloni,0.005335
neohindu,0.006444
neoplaton,0.026526
neovedanta,0.035136
neplaton,0.007255
new,0.012483
newland,0.005706
ngospro,0.007255
ngosprod,0.007255
ngrjuna,0.012336
nickoloff,0.007255
nigel,0.004811
nihil,0.004840
nikaya,0.005490
nikriya,0.007100
nirguna,0.006512
nirvan,0.020269
nirvana,0.024784
nirvikalpasamadhi,0.007255
nisargadatta,0.013939
nissvabhava,0.007255
nominalist,0.005706
non,0.007323
nonb,0.005889
nonconceptu,0.006268
nondiffer,0.014510
nondistinct,0.007100
nondual,0.579681
nondualism,0.007255
nondualist,0.041720
nondualitycom,0.007255
nondula,0.007255
nonessentialist,0.007100
nonexist,0.011835
nonmonist,0.007255
nontwo,0.014510
normal,0.002025
north,0.002017
notabl,0.009747
note,0.002929
noth,0.008065
notic,0.005767
notion,0.024037
number,0.003813
numer,0.001882
numin,0.005856
nun,0.004811
nyat,0.006078
nyavda,0.007255
nyaya,0.005132
o,0.002679
object,0.015630
occur,0.001614
ocean,0.002614
offer,0.001889
old,0.002102
oldest,0.008245
onc,0.003796
onli,0.015203
onlin,0.004447
ontolog,0.034807
onward,0.003220
opinion,0.002700
oppos,0.002123
opposit,0.008362
order,0.001400
ordinari,0.005540
organ,0.002771
organis,0.004810
orient,0.013236
origin,0.015487
orthodox,0.006842
outcom,0.002597
outsid,0.001938
outstand,0.003474
overcom,0.006240
overlaid,0.005734
overwhelm,0.003406
oxford,0.002387
oxherd,0.013512
padmasambhava,0.006216
paradvaita,0.007255
parallel,0.002632
paramartha,0.006756
parapsycholog,0.005511
paratantra,0.007255
parikalpita,0.007255
parinipanna,0.007255
pars,0.004870
particular,0.004770
particularli,0.001781
partiesultim,0.007255
partsufim,0.007255
passiv,0.003500
patanjali,0.006122
path,0.005151
patrick,0.003679
paul,0.002208
peak,0.002787
peopl,0.004202
perceiv,0.010219
percept,0.010817
perenni,0.026144
perennialist,0.012762
perfect,0.002838
period,0.006038
person,0.013299
phase,0.002443
phenomen,0.022075
phenomena,0.014554
phenomenolog,0.007683
phenomolog,0.007255
philip,0.003122
philosoph,0.011150
philosophi,0.058402
phrase,0.012244
physic,0.004987
physicisttheologian,0.006969
piantelli,0.007255
pictur,0.005688
plane,0.003060
platform,0.003111
plotinu,0.010264
plural,0.003267
pluralist,0.004351
point,0.008842
pointingout,0.007255
polar,0.006224
polit,0.001594
polyval,0.006586
ponder,0.004902
poonja,0.007255
popular,0.010905
popularis,0.004490
portion,0.002552
posit,0.009034
possibl,0.002971
postcoloni,0.004380
postmodern,0.003928
postul,0.012538
postved,0.006586
prabhvarasatna,0.007255
practic,0.014028
practition,0.009172
pragmat,0.003551
prais,0.003406
prajna,0.006168
prajnaparamita,0.012888
prakaaram,0.007100
prakriti,0.006216
pramrthika,0.006969
prasagika,0.006856
prasthana,0.007255
pratibhasika,0.006969
pratityasamutpada,0.006444
prattyasamutpda,0.006444
prayer,0.003838
prebuddhist,0.006586
precanon,0.014201
precept,0.009116
preconcept,0.005204
predat,0.003234
predecessor,0.003176
predic,0.008041
preexist,0.003966
prefer,0.002230
prefix,0.003914
premis,0.010252
preparatori,0.009913
presectarian,0.006666
presenc,0.002203
present,0.010197
preserv,0.009822
press,0.001714
primarili,0.003982
primordi,0.004095
principl,0.010492
privat,0.002088
problemat,0.010533
process,0.004131
profound,0.009970
proof,0.002970
properli,0.003063
propon,0.009158
proposit,0.003348
protest,0.002707
proudfoot,0.012888
provid,0.003877
prthibhsika,0.006969
psycholog,0.009933
public,0.001467
publish,0.003234
pure,0.016125
puriti,0.008248
purpos,0.001895
purusha,0.006078
qualif,0.003702
qualifi,0.015318
qualiti,0.006511
qualityless,0.014510
quantum,0.002938
question,0.003659
quit,0.004924
radhakrishnan,0.028965
ralph,0.003918
ram,0.004340
ramakrishna,0.024314
ramana,0.047982
ramanuja,0.005763
rana,0.005793
rangtong,0.027025
rangtongshentong,0.007255
rank,0.004919
rate,0.001805
raven,0.005040
reach,0.001877
read,0.004814
real,0.019177
realist,0.006350
realiti,0.173417
realiz,0.020668
realli,0.008917
realm,0.002918
reason,0.001658
rebirth,0.008585
receiv,0.003530
recent,0.001599
recogn,0.005943
recognis,0.005705
recognit,0.002532
recommend,0.002723
reconcil,0.010898
record,0.001947
redeem,0.004346
reduc,0.001750
refer,0.016630
reflect,0.007942
reform,0.004520
reformist,0.004427
regard,0.008863
regardless,0.002793
region,0.001654
reific,0.011413
reincorpor,0.005469
reinterpret,0.008555
reject,0.009111
rel,0.018223
relat,0.004983
relationship,0.007054
reli,0.006679
reliabl,0.002762
religi,0.068444
religion,0.037652
religios,0.015314
renard,0.024866
render,0.006060
replac,0.001882
repres,0.004546
represent,0.006992
representationonli,0.021301
research,0.002997
resid,0.002447
resolv,0.002683
resourc,0.001870
respect,0.001757
respond,0.002491
respons,0.001602
result,0.001287
reveal,0.004860
revel,0.003704
reviv,0.002936
rex,0.004923
reynold,0.004403
richard,0.002282
riep,0.007100
rigpa,0.019332
rinpoch,0.005960
ripen,0.005490
ritschl,0.006512
ritual,0.003445
robert,0.004063
rohit,0.006969
romant,0.003931
romantic,0.004445
ronald,0.003300
room,0.002997
root,0.007002
rope,0.004458
routledg,0.003292
s,0.003931
sabha,0.005889
sacr,0.010614
saguna,0.006756
sahaja,0.013712
said,0.001898
saivism,0.019332
sakti,0.006756
sakya,0.005960
salient,0.004586
samkhya,0.005353
sampradaya,0.019144
samsar,0.013712
samsara,0.020366
samvritisaya,0.006969
sangha,0.005449
sankara,0.012433
sanlun,0.006856
sanskrit,0.038268
sant,0.005603
sarlo,0.006756
sarma,0.011526
sarvastivada,0.006512
sarvep,0.006216
sat,0.004374
satcitananda,0.007255
satyadvayavibhga,0.007255
sautrntika,0.006322
saw,0.002261
say,0.004003
schell,0.004881
schemata,0.005653
schleiermach,0.022135
schmithausen,0.006444
scholar,0.037543
school,0.052635
schopenhau,0.004923
scienc,0.006215
scientif,0.001859
scriptur,0.007435
search,0.002364
second,0.006065
section,0.002289
secular,0.003197
seen,0.014503
seer,0.005533
self,0.066680
selfconsci,0.004624
selfexist,0.005997
selfhelp,0.005318
selfliber,0.006666
selflumin,0.006756
selfnatur,0.006756
selfproclaim,0.005204
selfreli,0.004765
selv,0.005118
seminar,0.004199
sens,0.005703
sensori,0.007163
sentient,0.013209
separ,0.011816
serv,0.001839
servic,0.001800
set,0.002862
sever,0.005362
shade,0.008418
shaiva,0.006216
shaivism,0.054490
shaktism,0.012336
shankara,0.061378
shape,0.002202
share,0.001800
sharf,0.006756
shavisim,0.014201
shentong,0.046668
shentongpa,0.007255
shikantaza,0.006586
shiva,0.005160
shokan,0.007255
shuddhadvaita,0.006756
shunyata,0.006122
siddhanta,0.005603
signific,0.004924
sikh,0.019284
sikhism,0.004277
silenc,0.004120
similar,0.007677
similarli,0.002436
simpl,0.004086
simpli,0.010491
simultan,0.002694
sinc,0.006429
singh,0.013695
singl,0.003441
situat,0.001979
siva,0.006322
skeptic,0.003386
small,0.001573
smooth,0.003410
snake,0.008166
socal,0.002594
societi,0.008055
sof,0.006322
sogen,0.006969
somananda,0.007255
someon,0.003003
sooklal,0.007255
sort,0.002697
sought,0.002505
soul,0.049800
sourc,0.003234
south,0.002013
southeast,0.003147
specif,0.006154
specifi,0.002614
sphere,0.002877
spirit,0.005810
spiritu,0.059257
spontan,0.006646
spread,0.004545
sravaka,0.007100
sri,0.007483
sridhar,0.006512
st,0.002072
staal,0.006512
stage,0.002245
stanc,0.003544
stand,0.002416
standard,0.003463
state,0.025878
statement,0.004721
step,0.002180
stong,0.006756
storehouseconsci,0.007255
stra,0.005204
strand,0.021999
stratum,0.005220
stress,0.005273
strict,0.002988
strike,0.002860
strip,0.003374
strong,0.007473
strongli,0.004956
structur,0.001502
student,0.004377
studi,0.002717
subcategori,0.004397
subject,0.017994
subjectobject,0.018366
sublat,0.012762
subschool,0.005960
subsequ,0.008026
substanc,0.010813
substanti,0.002387
substratum,0.005353
subtl,0.003803
success,0.001705
sudden,0.003681
suddhadvaita,0.007100
suggest,0.009000
sunyata,0.037299
superior,0.002862
supersed,0.007430
support,0.003057
suppos,0.002825
suprem,0.010533
surviv,0.004435
susan,0.007863
sutra,0.059071
suzuki,0.005104
svabhava,0.006586
svabhavasunya,0.007255
svabhva,0.006666
swami,0.005284
sway,0.004303
swedenborgian,0.012645
symbol,0.004669
synonym,0.003209
synthesi,0.005741
synthet,0.003189
t,0.002237
taft,0.011307
taken,0.001882
tang,0.004154
tantra,0.031909
tantric,0.016228
tantrika,0.007255
taoism,0.013192
taoist,0.004792
tathagatagarba,0.006756
tathagatagarbha,0.019144
tathgata,0.006586
tathgatagarbha,0.013024
tatvam,0.007100
taught,0.011468
teach,0.057937
teacher,0.023574
techniqu,0.001976
term,0.040097
terminolog,0.009083
tetragrammaton,0.006856
text,0.019964
textual,0.004039
th,0.020642
thcenturi,0.002965
theistic,0.004738
theme,0.002847
themselv,0.001907
theolog,0.006269
theologian,0.007606
theori,0.007536
theorist,0.002997
theosoph,0.016287
theosophi,0.005301
theravada,0.004870
theravadacanon,0.007100
therebi,0.002661
therefor,0.003495
thesi,0.009546
thi,0.048090
thing,0.032737
think,0.011150
thoma,0.002300
thomism,0.005511
thomist,0.005653
thoreau,0.005301
thought,0.038271
thoughtonli,0.007255
thread,0.004103
thrive,0.003559
thu,0.012025
tibet,0.013760
tibetan,0.022417
tie,0.002508
time,0.007964
timeless,0.005078
tirthika,0.007255
tman,0.018649
toll,0.004099
took,0.008035
total,0.003588
tou,0.005823
tozan,0.006969
trace,0.009862
tradit,0.064770
train,0.002220
trajectori,0.003835
transcend,0.032737
transcendent,0.041076
transcendentalist,0.027899
transecendent,0.007255
transform,0.002104
translat,0.033206
transmigr,0.005679
traya,0.007255
treatis,0.006204
tri,0.002024
true,0.018738
truli,0.006444
truth,0.131323
tsongkhapa,0.018804
tune,0.004176
turn,0.003555
type,0.001546
typic,0.003450
uitgeverij,0.007100
ultim,0.073395
unborn,0.005284
unbound,0.004496
unchang,0.010286
uncondit,0.004362
undecay,0.006969
underli,0.007325
understand,0.026182
understood,0.009653
undifferenti,0.005027
undivid,0.011207
unenlighten,0.006216
unifi,0.002691
uninfluenc,0.006168
union,0.001910
uniqu,0.004385
unit,0.002593
unitarian,0.018436
unitarianist,0.006856
uniti,0.016959
univers,0.023972
universalist,0.014582
unjustifi,0.004870
unknow,0.010006
unlik,0.002141
unmedi,0.006512
unproduc,0.006756
unreal,0.009585
upanisad,0.007255
upanishad,0.082125
usag,0.002697
use,0.017862
usual,0.001547
utpaladeva,0.007255
vaishnav,0.011113
vajrayana,0.005301
valid,0.004911
valu,0.001648
vari,0.001895
varieti,0.005792
variou,0.024886
various,0.003976
vasugupta,0.006756
vedant,0.012645
vedanta,0.244432
vedantin,0.013512
vedic,0.008794
vednta,0.006381
veri,0.004405
vernacular,0.008891
vers,0.007572
verslui,0.006856
victor,0.003461
view,0.018129
vijapti,0.007255
vijaptimtra,0.077331
vijaptimtratvda,0.014510
vijnana,0.006666
vilifi,0.005889
violat,0.002845
vipassana,0.005960
vir,0.005923
visavi,0.005429
vishishtadvaita,0.035543
vivekananda,0.028533
vivekanda,0.007100
void,0.004116
vyavahara,0.006969
vyvahrika,0.006969
w,0.004315
wa,0.037956
waldo,0.005040
wapnick,0.007255
war,0.001826
watt,0.004107
wave,0.002593
way,0.019248
wayn,0.004565
websourc,0.005997
wei,0.009721
wellknown,0.003018
wesley,0.004403
west,0.002207
western,0.056094
whalen,0.006322
whatev,0.003165
wherea,0.002231
white,0.002441
whitehead,0.004237
wide,0.001656
wilber,0.012762
william,0.004121
wisdom,0.013618
womb,0.004923
word,0.010709
work,0.002521
world,0.032592
worldli,0.004679
worldview,0.011835
wove,0.006168
wriggl,0.006586
write,0.006031
writer,0.005278
written,0.006107
wrote,0.002190
wu,0.008725
wyli,0.011778
y,0.002738
yajnavalkya,0.006512
yale,0.003515
yandel,0.013712
yang,0.004242
yin,0.004687
yixuan,0.006856
yoga,0.018783
yogacara,0.074923
yogacarathought,0.007255
yogachara,0.006666
yogcra,0.018649
yogcrin,0.013939
yogi,0.005734
yogic,0.005960
yuichi,0.006444
zen,0.041756
zenbuddhist,0.007100
zi,0.005469
