abl,0.042352
accord,0.033528
appropri,0.107493
avail,0.040986
basi,0.041763
bodi,0.040569
brush,0.106260
centuri,0.034770
child,0.065034
clear,0.050400
collect,0.039502
condit,0.075788
consid,0.031584
contain,0.038852
content,0.053439
dure,0.031176
english,0.045411
foundress,0.162894
global,0.046302
god,0.061025
govern,0.066312
ha,0.069747
human,0.067183
hypernationalist,0.176390
ii,0.045630
import,0.029737
instruct,0.131280
intermediari,0.088490
interpret,0.046515
involv,0.033800
japanes,0.066448
known,0.029131
languag,0.043815
level,0.034856
like,0.031134
live,0.037689
mani,0.026344
materi,0.040844
matur,0.067824
mean,0.032099
method,0.036098
miki,0.147840
mind,0.164896
nakayama,0.146397
necessari,0.046449
need,0.035038
ofudesaki,0.488683
ofudeseki,0.176390
onli,0.026829
openli,0.088278
order,0.064238
origin,0.129203
person,0.038138
place,0.032962
poem,0.258073
possess,0.052376
practic,0.035758
preach,0.095415
pristin,0.112705
prolifer,0.082277
provid,0.088961
recent,0.036705
respons,0.036764
return,0.128696
salvat,0.091563
scriptur,0.085287
sect,0.088777
seiz,0.072876
shinto,0.115913
sinc,0.029498
singleheart,0.176390
spiritu,0.067972
spread,0.052144
stepbystep,0.116503
strategi,0.054952
suppress,0.067555
taught,0.065772
tenriki,0.166444
tenrikyo,0.283008
text,0.050889
th,0.033826
thcenturi,0.068021
thi,0.022065
threeyearold,0.139452
timber,0.088349
time,0.026101
tip,0.082277
train,0.050940
translat,0.050786
understand,0.040043
use,0.024104
villag,0.067410
volum,0.050531
wa,0.048376
war,0.041906
water,0.045505
way,0.031542
western,0.044374
whatev,0.072622
word,0.040949
world,0.059816
write,0.046124
written,0.046705
yamato,0.130301
year,0.029771
