abbot,0.016618
abov,0.004050
abus,0.006805
abyssinian,0.006373
accept,0.001985
access,0.002188
accord,0.007908
achiev,0.001989
achil,0.005755
act,0.001807
action,0.001943
activ,0.001578
ad,0.006055
adc,0.006533
address,0.004763
adject,0.004323
administ,0.006201
adolf,0.004363
adopt,0.002182
ador,0.005942
adult,0.003096
aetat,0.015704
africa,0.002568
age,0.019809
agreement,0.002414
aim,0.004517
albanian,0.005328
albert,0.006429
albertu,0.011020
alexandria,0.030182
alexandrian,0.016755
algeria,0.004459
alleg,0.003270
alphonsu,0.015086
ambrogio,0.006974
ambros,0.011332
ambrosian,0.016642
ambrosiu,0.007312
amor,0.005569
ancien,0.005683
ancient,0.002291
angel,0.003793
angelicu,0.008321
anglic,0.006064
anglican,0.028368
anglosaxon,0.004940
annaba,0.007215
anno,0.006091
anoint,0.012182
anselm,0.010456
anthoni,0.011206
antioch,0.005496
antiochen,0.015704
antiqu,0.003273
aofm,0.008321
aosta,0.013686
apostl,0.014964
apostol,0.035268
appear,0.003664
appoint,0.002600
approv,0.005434
approxim,0.002155
april,0.016939
apulia,0.006906
aquin,0.008321
aquina,0.008900
aquino,0.006373
arch,0.009677
archbishop,0.049329
archiepiscop,0.015704
architectur,0.005967
argu,0.002104
aris,0.002580
armenian,0.024056
articl,0.007519
asia,0.002715
assembl,0.007408
assisi,0.006303
assist,0.002358
assumpt,0.002694
assumptionist,0.007852
assyrian,0.004956
assyrochaldean,0.008321
athanasiu,0.035003
attack,0.002550
attempt,0.001804
attest,0.004164
attribut,0.002458
augoustino,0.008321
august,0.016825
augustin,0.033982
augustinian,0.005737
aureliu,0.005569
austin,0.004550
austria,0.003659
author,0.007123
authorit,0.004414
autocrat,0.005207
autonom,0.006396
avignon,0.012237
avila,0.013157
b,0.002095
baptism,0.015561
baptiz,0.011233
baroqu,0.005352
base,0.004134
basel,0.004902
basil,0.019191
basilica,0.010909
battista,0.005496
bc,0.002821
bcbce,0.008321
bear,0.002960
bec,0.006450
becam,0.006973
becaus,0.001435
becom,0.001526
bede,0.024825
befor,0.006515
began,0.003809
begin,0.005579
behavior,0.002237
belaru,0.004880
belarusian,0.005989
belief,0.007659
believ,0.005918
bellarmin,0.014095
bellarmino,0.008321
benedict,0.073213
benedictin,0.011751
bernard,0.007429
bestknown,0.004158
bestow,0.004940
betray,0.004623
better,0.004301
biblic,0.004097
bibliographi,0.002773
birth,0.002810
birthplac,0.005091
bishop,0.128821
bless,0.045206
blood,0.003106
bodi,0.015311
bodili,0.004167
bohemia,0.005364
bonaventur,0.006118
born,0.024248
branch,0.002028
breach,0.004315
brennend,0.007543
brest,0.006147
brindisi,0.023556
britain,0.002686
brother,0.006396
bruno,0.004586
builder,0.004640
bulgarian,0.004880
busiest,0.005875
byzantin,0.058858
c,0.025554
ca,0.010524
caesarea,0.018619
calvin,0.004759
canisiu,0.016642
canon,0.006937
canterburi,0.025689
cap,0.007782
capac,0.002647
capit,0.004155
cappadocia,0.006491
capuchin,0.011751
cardin,0.020940
carita,0.014255
caritati,0.008321
carmel,0.006533
carmelit,0.027135
carthusian,0.007047
case,0.004791
castil,0.005585
catech,0.040981
catechesi,0.008321
cathar,0.006269
cathedr,0.004525
catherin,0.004550
cathol,0.573675
catholic,0.029967
ccc,0.005109
ceil,0.004734
celebr,0.003292
center,0.002037
central,0.003581
centuri,0.013122
certain,0.001748
cesar,0.005328
chaldean,0.011549
chang,0.001440
channel,0.003153
chapter,0.002977
characterist,0.004403
charg,0.002465
chariti,0.008289
charl,0.002446
charlemagn,0.005109
chief,0.002660
chiesa,0.007127
child,0.006136
children,0.002627
christ,0.032609
christendom,0.005187
christian,0.103976
christiano,0.006974
chrysologu,0.016642
chrysostom,0.013251
church,0.562827
circl,0.003078
cistercian,0.006237
citi,0.011030
civil,0.002191
claim,0.001939
clairvaux,0.013567
class,0.002118
cleric,0.004623
close,0.001709
cluniac,0.006783
collect,0.001863
cologn,0.005271
come,0.001827
comit,0.005897
command,0.005360
commit,0.005355
common,0.006179
commun,0.006682
communi,0.006783
communion,0.042172
companion,0.003684
compar,0.001889
compos,0.002423
compris,0.002613
concept,0.003565
concern,0.005381
concilium,0.016642
conclav,0.019013
condemn,0.003598
condit,0.001787
confer,0.002514
confessor,0.013067
confirm,0.005508
congreg,0.023092
connect,0.002103
conquer,0.003459
consecr,0.005468
consensu,0.003186
consequ,0.002172
consid,0.004470
consist,0.001710
constanc,0.005012
constantin,0.009247
constantinopl,0.013256
constantinopolitan,0.016642
constitut,0.006052
contain,0.001832
contempl,0.008820
continent,0.003402
contribut,0.001875
control,0.003395
conven,0.004405
convert,0.002604
convey,0.003857
convict,0.003702
convok,0.006450
coptic,0.011332
corpor,0.002506
council,0.048923
councilar,0.007852
counter,0.003454
counterreform,0.016850
countri,0.003362
coven,0.004703
creation,0.002325
creed,0.014776
crime,0.003169
critic,0.003758
croatia,0.004581
cross,0.008365
crusad,0.004335
cruz,0.004771
cultur,0.001921
current,0.004907
custom,0.002583
customari,0.008517
cyril,0.020401
d,0.002068
dalzon,0.008321
damascu,0.010128
damian,0.012982
damiani,0.024964
damiano,0.006147
danger,0.006002
date,0.002135
day,0.003856
deacon,0.033998
death,0.022377
decad,0.002322
decalogu,0.006906
decemb,0.011723
decis,0.004308
declar,0.007403
declin,0.002425
defin,0.001753
definit,0.004040
dei,0.010219
della,0.004996
denomin,0.011419
deprav,0.006411
deriv,0.001942
dernier,0.007543
describ,0.004717
design,0.001876
deu,0.005569
develop,0.010222
devot,0.003020
diacon,0.008321
differ,0.001354
digniti,0.004565
dioces,0.015166
diocesan,0.006783
direct,0.003393
directli,0.002052
discuss,0.002084
disposit,0.004351
disput,0.002569
distinct,0.001967
distinguish,0.004536
divid,0.004052
divin,0.027186
doctor,0.027442
doctrin,0.033704
document,0.012333
dogma,0.021839
dogmat,0.009569
domin,0.002102
dominican,0.009193
downgrad,0.005377
draw,0.002619
du,0.003611
dualist,0.004925
dure,0.005883
dutch,0.003137
earli,0.013846
east,0.007094
easter,0.004888
eastern,0.061276
eastwest,0.004996
ecclesia,0.006625
ecclesiast,0.022906
ecclesiolog,0.006675
econom,0.006733
ecumen,0.037815
edessa,0.006176
educ,0.001959
effect,0.002988
eighth,0.004292
elect,0.004537
element,0.003912
elev,0.003431
embodi,0.003556
emperor,0.006785
emphas,0.005399
empir,0.015024
enclos,0.004177
encompass,0.002879
encycl,0.029946
encyclica,0.008321
end,0.003363
english,0.014996
enlighten,0.003358
entrust,0.004910
eparchi,0.007312
ephrem,0.007852
episcop,0.021712
equival,0.002477
error,0.002925
especi,0.001786
essenc,0.003474
essenti,0.004276
est,0.004273
establish,0.004924
et,0.005288
ethic,0.008493
ethiopian,0.004845
eucharist,0.017627
europ,0.006257
european,0.001915
event,0.002001
ex,0.004161
exercis,0.002642
expeditionari,0.005187
exposit,0.004215
expound,0.004570
express,0.003986
extend,0.002028
face,0.002308
facti,0.007543
faith,0.018450
fall,0.002099
famili,0.006389
familia,0.006728
father,0.010817
featur,0.002080
februari,0.014994
fell,0.002970
feudal,0.003973
figur,0.006834
final,0.001989
flourish,0.003385
follow,0.007894
fontivero,0.008321
foreign,0.002141
form,0.007543
formal,0.002058
formerli,0.003081
formul,0.002634
fought,0.003488
founder,0.002883
fr,0.004061
franc,0.004709
francesco,0.004831
franci,0.012599
franciscan,0.016131
frank,0.003220
free,0.001878
freedom,0.002596
french,0.006640
friar,0.026702
function,0.001684
fundament,0.002106
furthermor,0.002818
galile,0.005666
gallican,0.007543
gaudium,0.013251
gener,0.002363
geneva,0.004372
genocid,0.004450
gentium,0.025801
geographi,0.003027
geometr,0.003382
georgia,0.003931
german,0.004645
germani,0.004953
giacomo,0.005833
gioacchino,0.007127
giovanni,0.008936
giulio,0.005633
giusepp,0.004948
given,0.003299
global,0.004368
glossari,0.004009
gnostic,0.005119
goal,0.002262
god,0.040304
good,0.005486
gospel,0.009247
gothic,0.004910
govern,0.003128
grace,0.026012
grant,0.002521
grave,0.004009
great,0.014830
greater,0.002071
greek,0.032609
greekcathol,0.007543
gregori,0.024006
gregoriu,0.007215
group,0.004451
guid,0.002325
ha,0.005483
harmoni,0.003836
head,0.010617
heaven,0.003939
heir,0.004208
held,0.007778
henc,0.002566
heresi,0.004948
hi,0.035395
hibernoscottish,0.007684
hierarch,0.003773
hierarchi,0.006703
high,0.003331
higher,0.003910
hilari,0.010164
hippo,0.015038
hispan,0.005207
histor,0.001847
histori,0.012330
historian,0.005543
hitler,0.008964
hold,0.003962
holi,0.041791
holocaust,0.014202
home,0.002348
homeland,0.004255
honor,0.003402
hope,0.011202
human,0.009508
hungarian,0.004240
ignatiu,0.005989
ii,0.019374
immacul,0.006906
immens,0.003952
implic,0.002865
import,0.005611
improv,0.002024
inaugur,0.003799
includ,0.005709
independ,0.003378
index,0.002613
indic,0.002023
individu,0.005089
industri,0.001877
infal,0.016531
influenc,0.003623
influenti,0.010581
initi,0.005361
inquisit,0.020153
institut,0.006962
intend,0.002546
interview,0.003401
introduct,0.002180
investig,0.002304
involv,0.001594
irish,0.003901
isidor,0.010477
issu,0.003530
italian,0.015431
italoalbanian,0.007684
italogreek,0.008321
iuri,0.019877
ix,0.014413
jansen,0.006269
januari,0.014084
jarrow,0.006373
jerom,0.009215
jerusalem,0.013192
jesu,0.064467
jesuit,0.009215
jew,0.003866
jewish,0.003409
john,0.028063
join,0.002446
juan,0.008098
judaism,0.003934
juli,0.007127
june,0.016774
juri,0.023038
jurid,0.005524
jurisdict,0.006676
justic,0.002779
kani,0.007852
kept,0.002963
king,0.002619
kingdom,0.002187
known,0.020614
koin,0.006337
krievci,0.008321
la,0.002745
landmark,0.003871
languag,0.004134
languedoc,0.006625
larg,0.002898
largest,0.006813
late,0.005711
later,0.003270
latin,0.038770
law,0.004969
lawrenc,0.007357
lay,0.003094
laybroth,0.008057
le,0.003275
lead,0.001640
leader,0.004809
learn,0.002310
led,0.003549
leo,0.020580
letter,0.010858
levant,0.004634
life,0.012373
light,0.004534
liguori,0.015369
lisbon,0.004818
lisieux,0.007543
list,0.003058
liturg,0.053405
liturgi,0.052827
live,0.001778
long,0.001785
longestreign,0.008321
lord,0.003254
love,0.013058
loyola,0.006206
luigi,0.004902
lumen,0.022875
luther,0.014354
lutheran,0.004948
lvarez,0.006206
macedonian,0.010238
magisterium,0.013812
magnu,0.009595
main,0.001740
mainli,0.006848
maintain,0.005752
major,0.011670
male,0.003084
man,0.012164
mani,0.002485
manifest,0.003163
manner,0.002653
march,0.018241
mari,0.069888
maria,0.012192
mariolog,0.078407
mark,0.008830
maronit,0.006303
marriag,0.006952
martin,0.005821
masonri,0.005942
mass,0.006764
massiv,0.002925
mastaiferretti,0.008321
matrimoni,0.006675
matter,0.006205
matthean,0.008321
matthew,0.003987
mazaca,0.008321
mean,0.001514
mediev,0.002932
melchiorr,0.008321
melkit,0.007852
member,0.008771
memberspronounc,0.008321
men,0.005099
mendic,0.006237
mental,0.002975
merci,0.004759
mesopotamia,0.004181
messag,0.003417
met,0.005623
method,0.001702
metropoli,0.005271
metropolitan,0.020889
middl,0.009068
milan,0.004613
milanes,0.007420
million,0.002159
mind,0.002593
minist,0.004961
ministeri,0.009162
minor,0.007633
missal,0.007420
mission,0.008224
missionari,0.011681
mit,0.003341
modern,0.004947
modernday,0.007827
modifi,0.002682
moment,0.003128
monast,0.009505
monasteri,0.016711
mond,0.005510
monk,0.020335
monkwearmouth,0.008321
monkwearmouthjarrow,0.008321
mont,0.004122
montalembert,0.007543
montenegro,0.005147
moral,0.011003
moravia,0.005813
moreau,0.006269
mother,0.019013
motu,0.005683
mount,0.009616
movement,0.005688
mozarab,0.015086
murder,0.003492
mysteri,0.003629
mystic,0.012165
nation,0.001523
natur,0.004403
nazareth,0.011751
nazi,0.007668
nazianzu,0.013948
nazioccupi,0.006974
nazism,0.005364
near,0.002260
nearli,0.002394
necess,0.003445
neighbour,0.003358
neri,0.006625
new,0.002456
news,0.003001
nicaea,0.016899
nicen,0.018619
night,0.003372
nineti,0.004988
ninetyf,0.006491
nomin,0.002869
nonchristian,0.005305
nonitalian,0.007543
nonromaneasternrit,0.008321
normal,0.002191
northumbria,0.006450
northumbrian,0.007420
nostra,0.013948
novarum,0.006906
novemb,0.019729
number,0.002751
nun,0.010415
obstin,0.006728
obtain,0.002137
ocist,0.008321
octob,0.011888
offic,0.006639
offici,0.008350
offshoot,0.004888
offspr,0.004125
ofm,0.014430
oftquot,0.006625
old,0.004550
ongo,0.003008
onli,0.001265
op,0.010909
open,0.001882
oper,0.001734
operato,0.008321
opinion,0.002922
oratori,0.005989
ordain,0.015063
order,0.043942
ordin,0.012165
organ,0.002999
organis,0.002603
orient,0.005730
origin,0.016761
orthodox,0.033324
orthodoxi,0.013823
osb,0.007543
ottoman,0.007777
outlin,0.008029
overseen,0.004910
overview,0.005510
padua,0.011049
palm,0.004284
paolo,0.005157
papaci,0.021508
papal,0.033358
paragraph,0.004692
parish,0.009215
particip,0.002169
particular,0.024095
particulari,0.007543
particularli,0.001928
partnership,0.003460
pass,0.006408
passion,0.004128
pater,0.006578
patriarch,0.027550
paul,0.023901
pecci,0.007543
penanc,0.006303
peopl,0.001515
period,0.009802
perpetu,0.007450
persever,0.005774
persian,0.003454
person,0.007196
pertain,0.003802
peter,0.022565
petru,0.012129
philip,0.003379
philosoph,0.009653
phrase,0.009939
pier,0.005119
pieter,0.005282
pietro,0.005737
piu,0.057282
place,0.004665
plan,0.004164
play,0.001985
point,0.001594
poitier,0.019121
politi,0.004251
pontif,0.005402
pontiff,0.012822
pontificum,0.007543
pope,0.259088
popular,0.001967
portugues,0.003500
possibl,0.001608
post,0.002668
postindustri,0.005854
poverti,0.009730
practic,0.001686
prayer,0.004154
precis,0.002597
predecessor,0.003437
predestin,0.005701
prelat,0.006491
premis,0.003698
prepar,0.002557
presbyt,0.020719
presenc,0.002384
present,0.006306
presentday,0.003541
preserv,0.002657
priest,0.052266
priesthood,0.021712
primari,0.002081
primat,0.008946
princ,0.003402
princip,0.002463
principl,0.001892
problem,0.001686
process,0.001490
procreat,0.005774
profess,0.003294
programm,0.003030
progress,0.002148
promin,0.002472
promulg,0.028144
proper,0.002828
properli,0.003315
proprio,0.007852
proselyt,0.005524
protest,0.014651
protestant,0.005046
provid,0.001398
provinc,0.005829
public,0.004763
publish,0.001750
pulpit,0.006533
purpos,0.002050
quadragesimo,0.006906
question,0.001980
raffael,0.006783
rank,0.007986
ratti,0.008321
ravenna,0.006533
reach,0.004064
read,0.001736
real,0.002075
reason,0.003589
receiv,0.003820
recogn,0.004288
recognis,0.003087
reconcil,0.003931
redempt,0.004804
redemptorist,0.008057
refer,0.005999
referenc,0.004296
reform,0.031798
regard,0.005755
region,0.003581
regiu,0.006303
reichskonkordat,0.007852
reign,0.013830
relat,0.006741
relationship,0.003817
religi,0.051086
religion,0.010187
renaiss,0.003306
repres,0.003280
republ,0.002346
rerum,0.005616
resid,0.007947
resign,0.003417
respect,0.001901
respons,0.005203
rest,0.002342
restor,0.002827
result,0.002785
reveal,0.002630
revel,0.004009
reviv,0.006355
rite,0.222055
ritual,0.003729
robert,0.004397
roberto,0.005064
role,0.007006
roman,0.126069
romanesqu,0.006269
romanian,0.004838
rome,0.044385
romolo,0.008321
round,0.003167
rule,0.009126
russian,0.002927
russo,0.006974
ruthenian,0.006728
s,0.004254
sacerdo,0.008321
sacr,0.019147
sacrament,0.073663
sacramentum,0.007127
sacrific,0.004073
sacrosanctum,0.016642
said,0.004109
saint,0.093625
sale,0.005826
salisburi,0.005942
salvat,0.017278
salvi,0.015704
san,0.003175
sanctifi,0.012539
sarto,0.008321
sarum,0.016642
saturday,0.004996
savant,0.006450
save,0.008519
savior,0.005833
say,0.004333
schism,0.019466
scholar,0.002539
scholast,0.004331
scholastic,0.004791
school,0.002034
scienc,0.001681
scottish,0.003838
scriptur,0.012070
second,0.013129
secondlongest,0.007215
section,0.002477
secular,0.003460
send,0.003127
senior,0.003314
sent,0.005543
separ,0.001826
septemb,0.021703
serbia,0.004372
seri,0.007968
sermo,0.007852
sermon,0.010025
serv,0.011943
set,0.001549
seven,0.013120
sever,0.001450
sevil,0.015882
sex,0.010387
sexual,0.006571
short,0.004264
sick,0.011779
siena,0.005875
sign,0.006874
signific,0.003553
simpli,0.004541
simultan,0.002916
sin,0.031661
sinc,0.001391
sister,0.003840
sj,0.005755
slovak,0.005496
social,0.014163
societi,0.008718
sole,0.002824
solemnli,0.006578
someon,0.003250
sometim,0.003623
son,0.007993
sorg,0.007312
soul,0.003593
sovereign,0.003326
span,0.003214
spanish,0.009028
spark,0.003682
spe,0.026503
specif,0.004995
specifi,0.002829
speech,0.002998
spirit,0.006289
spiritu,0.019239
split,0.002860
spous,0.005119
spread,0.004919
st,0.035895
staf,0.004697
state,0.013394
statesponsor,0.005633
studi,0.002941
subject,0.001770
subsist,0.003831
subsistit,0.016642
substanti,0.002583
subtitl,0.005454
successor,0.006252
sui,0.040730
summari,0.003349
summorum,0.008321
sumu,0.007684
sunday,0.013855
supper,0.006118
suppress,0.003186
suprem,0.002849
switzerland,0.003566
syriac,0.021086
syrian,0.023579
syromalabar,0.008057
syromalankara,0.008057
systemat,0.002658
teach,0.046346
technolog,0.002006
teresa,0.011437
term,0.003945
territori,0.002435
testament,0.004359
text,0.002400
th,0.019149
thcenturi,0.006417
themselv,0.002064
theolog,0.054280
theologian,0.024697
theotoko,0.007543
thi,0.002081
thing,0.002214
thirti,0.007504
thoma,0.007468
thrse,0.013686
thrseoflisieux,0.008321
time,0.002462
titl,0.012490
today,0.001999
togeth,0.005757
tom,0.003817
topic,0.002208
totalitarian,0.004565
trace,0.002668
tradit,0.012267
transform,0.002278
trent,0.005616
trial,0.003175
tridentin,0.007215
triniti,0.009151
true,0.002253
truth,0.008882
turkey,0.003629
twentyfirst,0.004728
type,0.001673
ukrainian,0.009649
understand,0.001889
uniat,0.007215
unifi,0.002913
union,0.016544
unit,0.004211
univers,0.001441
universali,0.006206
unrel,0.003979
unrestrain,0.005774
upbring,0.005539
use,0.015920
usual,0.005024
validli,0.006337
vari,0.002051
variant,0.003371
varieti,0.002089
variou,0.007921
various,0.004304
vatican,0.070468
veil,0.005100
vener,0.009215
verbum,0.016642
veri,0.001589
verit,0.005793
vi,0.011872
victori,0.003223
view,0.001783
vii,0.004233
vincenzo,0.006038
virgin,0.051149
virtu,0.003526
visibl,0.003076
visigoth,0.005649
vote,0.005278
vowsand,0.008321
vulgat,0.006013
wa,0.060477
wall,0.002946
war,0.013838
wealth,0.005731
western,0.014653
wide,0.003584
window,0.003911
wish,0.003077
woman,0.010424
women,0.007945
word,0.003863
work,0.002728
world,0.007054
worldwid,0.005646
worship,0.026399
write,0.006527
writer,0.005712
written,0.006610
x,0.004928
xi,0.012866
xii,0.015063
xiii,0.010275
xv,0.010314
xvi,0.044260
xxiii,0.012352
year,0.007022
yepe,0.008321
