abbot,0.012035
abheda,0.016121
abid,0.020187
abl,0.004340
abov,0.004399
absolut,0.017486
accept,0.004314
access,0.004754
accident,0.008888
accord,0.024054
accordingli,0.007734
acintya,0.016695
action,0.004222
activ,0.006858
ad,0.004385
addit,0.003476
adibuddha,0.015886
advaita,0.011821
advoc,0.005899
agenc,0.005406
ajooni,0.018078
akaalmoorat,0.018078
akin,0.009197
akti,0.015886
alexand,0.006584
alien,0.008053
align,0.007424
allpervas,0.031352
altogeth,0.008519
alway,0.009242
america,0.024081
american,0.031149
anabaptist,0.013483
ancient,0.014937
andrew,0.013958
ang,0.012960
ani,0.003028
anim,0.004810
ankur,0.018078
annihil,0.009748
anoth,0.013221
anthropomorph,0.021271
anubhava,0.016387
apocatastasi,0.016121
appar,0.005866
appear,0.007960
arabi,0.013012
arbitrari,0.007420
argu,0.013715
argument,0.005773
arjan,0.014617
arthur,0.007010
articul,0.008299
ascrib,0.009076
aspect,0.018066
assert,0.005903
associ,0.006714
assum,0.004760
atheist,0.009376
attain,0.006956
attempt,0.007839
attest,0.009047
attribut,0.032053
attributeson,0.017059
audienc,0.007756
austin,0.009886
author,0.003869
avoid,0.005133
aztec,0.032354
baal,0.013483
bah,0.044404
bahadur,0.013012
bahu,0.017504
baird,0.013119
bar,0.007768
barua,0.016695
baruch,0.031581
base,0.002994
basic,0.008337
bc,0.006130
bce,0.007604
becaus,0.003119
becom,0.016585
befor,0.007078
begin,0.004040
beholden,0.014395
bektashi,0.015886
belief,0.038828
believ,0.021428
ben,0.008862
ber,0.010684
best,0.004567
bhagavad,0.013234
bhai,0.014617
bhane,0.018078
bheda,0.015676
bibl,0.008309
biblic,0.008902
bibliographi,0.006026
birth,0.012211
block,0.006172
bodi,0.004158
book,0.007876
borrow,0.006877
bracken,0.015004
brahman,0.043784
branch,0.008813
buddha,0.009717
buddhism,0.050628
buddhist,0.058343
budhi,0.017504
built,0.005165
c,0.003965
ca,0.022865
caitanya,0.018078
callicott,0.016121
came,0.004537
categori,0.010591
cathol,0.006700
catholic,0.009301
caus,0.003704
central,0.003890
centuri,0.014255
certain,0.007597
certainli,0.007921
chaim,0.013234
changeless,0.015312
character,0.015791
charl,0.021261
chaturaiai,0.018078
cheroke,0.028028
christian,0.064542
church,0.031353
cit,0.028205
cite,0.005804
claim,0.012638
class,0.004603
classic,0.009170
clayton,0.012003
clearli,0.012480
clever,0.010684
close,0.007427
coextension,0.018078
coin,0.017242
collect,0.004048
coloni,0.005739
colour,0.015843
columbu,0.009489
come,0.003969
common,0.003356
compil,0.007161
complex,0.004061
conceiv,0.007288
concept,0.042609
conceptu,0.006680
condit,0.003883
confess,0.010081
congreg,0.010034
conjoin,0.012504
conjunct,0.007756
connect,0.004570
conscious,0.014141
consequ,0.009440
consid,0.016185
consist,0.003715
contain,0.023892
contemporari,0.005429
context,0.009765
conting,0.016123
continu,0.003363
contradict,0.007414
contradictori,0.009800
controversi,0.005469
conveni,0.007411
cordovero,0.017504
corpor,0.005446
cosmic,0.016983
cosmo,0.065752
cosmolog,0.008115
creat,0.027162
creatio,0.017504
creation,0.126316
creativ,0.014344
creator,0.024959
creatur,0.025394
culp,0.018078
cycl,0.005690
dark,0.007178
death,0.009723
debat,0.005167
defeat,0.006567
defin,0.003809
definit,0.004389
deism,0.023205
deiti,0.026646
deliber,0.007430
deni,0.012869
denomin,0.008270
depend,0.003662
descend,0.006718
describ,0.023916
descript,0.010148
destruct,0.006569
determin,0.003854
deu,0.012100
develop,0.005552
devot,0.006561
devour,0.011764
dharmakaya,0.015004
dialogu,0.007749
dictionari,0.006729
did,0.004120
die,0.005318
differ,0.011770
differenti,0.005620
dimens,0.006386
directli,0.008920
discard,0.009284
discuss,0.004529
distinct,0.012825
distinguish,0.009856
divers,0.010677
divid,0.004401
divin,0.110744
doctrin,0.039941
doe,0.011267
domin,0.004567
dov,0.014292
dr,0.006887
dualism,0.009658
dualist,0.021401
dunami,0.016387
dvaitadvaita,0.016121
dynam,0.010408
e,0.013494
earlier,0.004938
earliest,0.005585
east,0.005138
eastern,0.011093
ed,0.004678
eerdman,0.013418
effect,0.003246
effulg,0.015886
eighteenth,0.008541
ein,0.010890
ek,0.012003
elabor,0.006954
element,0.004250
elit,0.007420
els,0.006882
elucid,0.009301
eman,0.068824
embodi,0.007726
embrac,0.007539
emerson,0.023473
emin,0.009507
emphas,0.005865
emphasi,0.012123
empir,0.004663
en,0.016425
encompass,0.012512
encyclopedia,0.005755
end,0.003653
energi,0.032749
england,0.005799
enmesh,0.014102
entir,0.004334
entireti,0.009553
entiti,0.005670
ephesian,0.013694
espous,0.018979
essay,0.025904
essenc,0.022647
essenti,0.018582
etern,0.008448
evangel,0.010497
event,0.004349
everi,0.012545
everyth,0.019964
everywher,0.017361
evid,0.004557
evil,0.024387
ex,0.009040
exactli,0.013093
examin,0.005230
exclus,0.005709
exist,0.046525
expand,0.004727
experi,0.008219
explain,0.008997
explicitli,0.006803
express,0.025980
extend,0.004408
extens,0.009025
extern,0.002613
fail,0.005024
faith,0.026723
fallen,0.016239
favor,0.005519
fear,0.006270
featur,0.004519
femal,0.006709
fifth,0.007116
figur,0.004949
final,0.004322
fit,0.006084
fix,0.005304
follow,0.008575
footstep,0.012504
forc,0.014327
form,0.019120
formal,0.004471
formul,0.005722
formula,0.006240
founder,0.006263
fragment,0.007028
freedom,0.005641
friedrich,0.021927
fruit,0.007081
fulli,0.005387
fundament,0.004576
furthermor,0.006123
fusion,0.008329
gaudiya,0.015004
gener,0.002567
georg,0.005150
german,0.020187
gg,0.025091
gita,0.012674
gnostic,0.100093
goal,0.004915
god,0.562918
godgod,0.017059
goe,0.006431
good,0.003973
gospel,0.010045
grace,0.018838
granth,0.064061
great,0.012082
greater,0.009002
greek,0.015181
green,0.006145
ground,0.005200
guroult,0.017059
gurprasad,0.017504
guru,0.128016
ha,0.028594
hand,0.004427
happili,0.013065
hartshorn,0.060841
hasid,0.052048
hate,0.010258
hear,0.007535
hegel,0.009758
held,0.008450
help,0.003912
henri,0.005759
heraclitu,0.022764
hesh,0.044567
hi,0.044858
highest,0.010944
highli,0.004704
highlight,0.007358
hill,0.007108
hindu,0.033139
hinduism,0.017185
hisher,0.020544
histori,0.002976
hold,0.025826
holi,0.015132
howev,0.011600
human,0.013771
hymn,0.010557
hypostasi,0.014292
iamblichu,0.014395
ibn,0.007779
idea,0.012032
ideal,0.005814
idel,0.015312
ident,0.015350
identifi,0.017279
ignatian,0.017059
ik,0.038158
illus,0.008823
imag,0.005502
imman,0.099910
imperfect,0.008797
imperish,0.013694
impli,0.005555
impos,0.006145
imprint,0.010367
imprison,0.008497
inanim,0.010684
inca,0.011002
includ,0.012403
inconceiv,0.012464
incorpor,0.004907
independ,0.007340
indian,0.011831
indic,0.004396
individu,0.007372
ineff,0.013065
infinit,0.020992
influenc,0.011808
influenti,0.005747
inherit,0.006626
initi,0.003882
innat,0.008791
inner,0.007183
insist,0.014582
inspir,0.005912
instead,0.004185
intellect,0.009581
intellectu,0.006130
intent,0.006013
interact,0.004458
interchang,0.008179
intermediari,0.009069
intern,0.006263
interpenetr,0.012812
interpret,0.014302
intrins,0.007566
invis,0.008722
irradic,0.018078
isaac,0.007734
isbn,0.004224
islam,0.005948
ismaili,0.025819
ix,0.020876
j,0.004487
jacob,0.008057
jame,0.010080
jasper,0.012100
jay,0.028716
jesu,0.008753
jew,0.008401
jewish,0.007408
ji,0.011405
john,0.008129
join,0.005315
jon,0.009975
joseph,0.011777
journal,0.004596
judaism,0.034188
justifi,0.007186
kabbalah,0.049243
kabbalist,0.026352
kaplan,0.011453
karl,0.020162
kartaapurakh,0.018078
kashmir,0.033808
kind,0.004759
know,0.005414
knowledg,0.008988
known,0.005971
kraus,0.042586
krishna,0.011247
lakota,0.014867
later,0.014212
law,0.003599
lead,0.007129
lectur,0.006496
let,0.006694
letter,0.005897
life,0.003840
lifelong,0.010467
lift,0.007975
light,0.014776
like,0.003191
link,0.002597
liter,0.027480
live,0.003862
logo,0.027903
long,0.003879
look,0.004932
lord,0.007070
love,0.021277
lower,0.004414
luria,0.013012
lurian,0.016387
maffi,0.017059
maggid,0.036157
maimonid,0.011162
mainli,0.004959
mainstream,0.007249
maintain,0.012496
major,0.003169
make,0.003037
male,0.006700
man,0.005285
mani,0.029701
manicha,0.012860
manichaean,0.014014
manifest,0.054979
mann,0.011141
manner,0.005765
mantar,0.016387
martial,0.009619
masculin,0.010619
mass,0.004899
master,0.012751
materi,0.004186
matter,0.026962
maya,0.021468
mcdaniel,0.015485
mean,0.009869
membership,0.006580
menahem,0.016695
mendel,0.010542
mere,0.023507
merg,0.007195
met,0.006109
metaphys,0.007643
methodist,0.022242
mezeritch,0.018078
milai,0.018078
millennia,0.008704
mind,0.011267
mistaken,0.009864
mode,0.013450
modern,0.014333
modif,0.007100
monad,0.024772
monism,0.031536
monist,0.011291
monoth,0.021569
monotheist,0.021208
mool,0.017059
moral,0.005976
mordecai,0.014738
mose,0.009748
mosh,0.012674
motiv,0.005836
movement,0.012358
mula,0.016387
mysteri,0.007885
mystic,0.026431
myth,0.015258
na,0.009033
nadar,0.015312
nahuatl,0.013621
nanak,0.052479
narrat,0.009930
nativ,0.012349
natur,0.025513
natura,0.010767
nazaren,0.014503
necessari,0.014282
necessarili,0.005847
negat,0.009507
neoplaton,0.031186
neoplatonist,0.012134
new,0.013341
nihilo,0.013551
nimbarka,0.015004
nirbhau,0.017504
nirvair,0.017059
nizari,0.014867
nondivin,0.018078
nonhasid,0.016695
north,0.009486
notabl,0.004583
noth,0.025286
notion,0.028259
nou,0.012100
nullif,0.014195
numer,0.013277
oan,0.016121
oankar,0.051178
observ,0.003942
occur,0.003795
oldenburg,0.013847
older,0.006268
oneself,0.009350
onli,0.013749
onlin,0.005228
ontolog,0.008184
oord,0.032775
open,0.008179
oper,0.007537
order,0.013168
ordinarili,0.010452
origin,0.019863
orthodox,0.024133
orthodoxi,0.020021
ousia,0.014292
outset,0.010557
outsid,0.004557
outwork,0.016387
overcom,0.007336
overse,0.008908
oversoul,0.015312
pagan,0.009182
paiai,0.018078
pandeism,0.028028
panenth,0.445299
panentheist,0.311683
pantheism,0.112046
pantheist,0.023820
particip,0.004712
particl,0.006421
particularli,0.004189
passag,0.014233
pathi,0.015676
pave,0.008448
peacock,0.011682
peopl,0.003293
perfect,0.040046
perman,0.005789
person,0.003908
personifi,0.012067
perspect,0.005345
pervad,0.034077
phenomen,0.010381
philip,0.007342
phillip,0.009244
philosoph,0.057677
philosophi,0.055946
physic,0.003908
piec,0.006596
pietist,0.015004
place,0.003378
plato,0.007869
pleas,0.009047
pleroma,0.015676
plotinu,0.012067
pn,0.022044
point,0.003465
polkinghorn,0.015004
polytheist,0.023003
popular,0.004273
posit,0.003540
possibl,0.003493
power,0.003505
pp,0.005584
prakriti,0.014617
preach,0.009779
precis,0.005642
predominantli,0.007604
preetern,0.018078
preeuropean,0.012765
prefix,0.009205
presenc,0.020720
present,0.017126
primal,0.022764
primari,0.004521
primarili,0.009365
primordi,0.019258
princ,0.007392
pringlepattison,0.017059
problem,0.003663
problemat,0.008255
proce,0.008339
process,0.022668
project,0.004238
properti,0.008295
prophet,0.008991
propos,0.004226
propound,0.010424
protestant,0.010964
prototyp,0.008836
provid,0.003039
psych,0.010700
pure,0.005416
purusha,0.042878
qi,0.011291
qualifi,0.007203
quit,0.005789
rabbi,0.022764
rabbin,0.011971
ralph,0.018426
ramanuja,0.013551
real,0.004509
realiti,0.059095
realiz,0.006074
reason,0.003899
recent,0.003762
reconcil,0.017083
reconcili,0.009091
reconstructionist,0.014292
refer,0.008689
reflect,0.004668
regard,0.016672
reject,0.010711
rel,0.003895
relat,0.011716
relationship,0.004146
religi,0.011098
religion,0.005533
render,0.007125
requir,0.003420
reson,0.008314
result,0.003026
return,0.004396
reveal,0.005714
revel,0.017421
reverend,0.011576
review,0.004867
rig,0.010143
rmnuja,0.018078
roman,0.011655
s,0.003081
sacr,0.008319
sahib,0.037892
sahibang,0.036157
saibhan,0.017059
said,0.013391
saint,0.007264
saiva,0.014395
samuel,0.007723
sanskrit,0.008998
sat,0.010285
satnaam,0.018078
satnam,0.017059
savor,0.016695
say,0.028241
schell,0.011477
scholar,0.016551
scholarship,0.007768
school,0.022100
scienc,0.003653
scientif,0.004371
scriptur,0.026224
second,0.003565
sect,0.009099
section,0.005383
seek,0.004874
seemingli,0.008524
seen,0.012788
self,0.007466
selfdescrib,0.012464
sens,0.017881
separ,0.007938
sephirot,0.016387
seri,0.004327
seth,0.011910
sever,0.003152
shaivism,0.038437
shakti,0.042878
shaktism,0.014503
shaku,0.015312
shape,0.005178
share,0.004233
shem,0.014292
shiva,0.036402
siddhanta,0.013176
sign,0.009956
signifi,0.008766
signific,0.003859
sikh,0.022672
sikhism,0.020115
similar,0.003610
simultan,0.006336
sin,0.008598
sinc,0.009070
singl,0.012139
singleword,0.018078
sive,0.012348
small,0.003699
smith,0.006405
societi,0.003788
sof,0.014867
soul,0.015613
sound,0.006366
south,0.004734
sovereignti,0.007291
soyen,0.015676
space,0.013984
spark,0.016002
spinoza,0.124076
spirit,0.040990
spiritu,0.048766
split,0.006214
spread,0.005344
sri,0.026393
stanford,0.007023
start,0.003827
state,0.018518
stay,0.006618
stone,0.006752
stress,0.006200
strong,0.008786
strongli,0.011655
studi,0.003195
subsequ,0.009436
subsist,0.008324
successor,0.006791
sufi,0.033613
suggest,0.008465
sukta,0.042042
sum,0.006031
superior,0.006729
suppos,0.006643
suprem,0.012383
surpris,0.007950
sustain,0.005914
synonym,0.007545
tahuatinsuyu,0.018078
taken,0.004427
tantra,0.012504
tao,0.010855
taoism,0.020679
tathagata,0.015004
taught,0.006741
teach,0.023692
tegh,0.016121
teotl,0.015312
term,0.039998
texa,0.008536
th,0.006933
theism,0.033487
theistic,0.011141
themselv,0.004484
theocosmocentr,0.017059
theolog,0.147410
theologian,0.017885
theori,0.003544
therefor,0.004109
thi,0.052015
thing,0.062543
thinker,0.014618
thoma,0.021634
thought,0.047136
thu,0.010603
timaeu,0.012587
time,0.018726
timeless,0.011940
titl,0.005427
token,0.010181
tom,0.008294
took,0.004723
total,0.008437
tour,0.008722
tov,0.014738
tradit,0.022844
trait,0.007164
transcend,0.128292
transcendentalist,0.013119
translat,0.010410
treatis,0.007294
tribe,0.007443
true,0.009791
truli,0.007576
truth,0.019298
typic,0.004056
tzimtzum,0.032242
ultim,0.026147
ulwujud,0.018078
uncreat,0.027388
understand,0.012312
understood,0.017023
undi,0.015312
unifi,0.006328
unit,0.003049
unitarian,0.032511
uniti,0.013292
univers,0.075156
universalist,0.034287
unlik,0.005035
unmanifest,0.015676
unorthodox,0.011850
unten,0.011850
use,0.007411
usual,0.003638
util,0.005469
vaishnav,0.013065
valentinian,0.015004
variou,0.003442
vast,0.006071
veda,0.010245
vedanta,0.011269
veri,0.013811
vers,0.008902
version,0.005288
view,0.027126
viewpoint,0.007959
vishistadvaita,0.017504
visibl,0.020049
volozhin,0.016387
wa,0.032228
wahdat,0.015152
waldo,0.023701
ward,0.009252
way,0.006465
west,0.015574
western,0.004548
whatsoev,0.010395
wherebi,0.006831
wholli,0.017595
wide,0.003894
wilhelm,0.015222
withdraw,0.007267
wood,0.006976
word,0.016788
work,0.002964
world,0.058242
worldli,0.011002
wright,0.008970
write,0.004727
writer,0.006205
written,0.009574
wrote,0.010302
year,0.003051
zen,0.032727
zuck,0.017059
