abbrevi,0.010227
abhidhamma,0.017589
abhidharmakosa,0.040049
absent,0.010234
absolut,0.014245
abstract,0.007389
accept,0.005271
accord,0.046189
account,0.004945
achiev,0.010565
acknowledg,0.008097
action,0.010319
activ,0.004190
ad,0.005358
address,0.006323
advantag,0.006518
agenc,0.006605
aggreg,0.008880
akira,0.015487
alan,0.008902
alex,0.024788
alloc,0.008379
alon,0.007181
alreadi,0.006117
alway,0.016940
analysi,0.005061
anatta,0.032063
ancient,0.006084
anger,0.010960
ani,0.014803
anicca,0.034040
anoth,0.016155
antimetaphysician,0.022090
anyth,0.033195
apart,0.007695
apekhasamutpda,0.022090
appar,0.007168
appear,0.038910
appli,0.040401
applic,0.010029
approach,0.009665
argu,0.005586
argument,0.014110
aris,0.184965
aros,0.008339
asava,0.021389
aspect,0.011037
assert,0.050495
associ,0.016408
atharvaveda,0.016031
attain,0.025500
attempt,0.004789
attribut,0.006527
avatamsaka,0.037030
avidya,0.054498
away,0.006396
bad,0.008614
ball,0.010369
bardo,0.017589
base,0.003658
basi,0.010460
bce,0.009291
beacon,0.013717
becaus,0.030492
becom,0.012159
begin,0.004937
belief,0.013555
believ,0.005236
better,0.005709
bhava,0.019411
bhavacakra,0.019154
bhikkhu,0.080854
bhva,0.022090
billiard,0.015836
birth,0.059685
bodhi,0.015655
bodi,0.005080
boisvert,0.020024
born,0.007152
brahman,0.013375
brahmana,0.016476
branch,0.005384
break,0.020938
brihadaranyaka,0.017589
bring,0.006294
broken,0.008442
bucknel,0.018710
buddha,0.059372
buddhadasa,0.018922
buddhadhasa,0.022090
buddhaghosa,0.052037
buddhism,0.164971
buddhist,0.183318
c,0.004845
case,0.004240
caus,0.095052
causal,0.226599
causat,0.048928
ceas,0.068528
centuri,0.004354
certain,0.013924
certainti,0.010703
cessat,0.040057
chain,0.045457
chang,0.007646
chapter,0.007903
christian,0.006572
coaris,0.106946
collect,0.004947
come,0.014551
comment,0.008123
commentari,0.009777
common,0.004101
commonli,0.005632
compar,0.005016
compat,0.019461
complement,0.010000
complementari,0.009894
complet,0.009368
concept,0.037866
conceptu,0.008163
concern,0.004761
condit,0.104407
confirm,0.014624
connect,0.011168
connot,0.011210
conscious,0.008640
consequ,0.005767
consid,0.019777
consist,0.009079
contact,0.007117
contain,0.019463
context,0.005966
continu,0.008219
convinc,0.009029
coorigin,0.019411
core,0.007202
correct,0.006830
cosmic,0.010376
cosmo,0.011477
crave,0.015134
creat,0.008297
creativ,0.008764
creator,0.010165
credenc,0.014341
crown,0.008784
cut,0.007200
cycl,0.020859
cyclic,0.010534
da,0.009029
death,0.047524
deepli,0.009577
defend,0.007588
definit,0.005363
demerit,0.017464
deni,0.015725
denial,0.011707
denomin,0.010105
denot,0.008276
depend,0.241672
dependentorigin,0.041690
deriv,0.005157
descent,0.009730
describ,0.025048
descript,0.006200
design,0.004981
destin,0.009492
destini,0.036240
destroy,0.007092
develop,0.010176
dharma,0.039166
differ,0.021574
direct,0.013512
disadvantag,0.010058
disagre,0.009751
discours,0.018575
discuss,0.016603
divis,0.005878
doctrin,0.187085
doe,0.013768
dt,0.013375
dukkha,0.176346
dure,0.003904
dzogchen,0.034247
earlier,0.006034
effect,0.043638
efficaci,0.011219
ego,0.026070
elabor,0.008497
element,0.005193
eleventh,0.012685
els,0.016818
embryolog,0.013468
emerg,0.005233
emphas,0.014333
empir,0.005698
empti,0.077885
emptinessalso,0.022090
emptinesslack,0.022090
end,0.008929
endless,0.025006
endur,0.009966
energi,0.005716
english,0.005687
entir,0.010593
entiti,0.020786
epistemolog,0.009705
equat,0.006791
essenti,0.005676
etymolog,0.008692
europ,0.005537
event,0.005314
everi,0.005109
everyday,0.008723
everyth,0.032526
eviatar,0.022090
evidenc,0.011498
evolv,0.006702
exampl,0.003657
exist,0.081214
experi,0.015064
experienc,0.007331
explain,0.060469
exposit,0.011191
express,0.021163
extens,0.022057
extern,0.003193
fact,0.005184
fall,0.005574
fester,0.018166
fifth,0.008696
fine,0.008729
fit,0.007434
flour,0.013157
flow,0.006430
follow,0.003493
forecast,0.009620
form,0.013350
foster,0.009335
foundat,0.005694
founder,0.007653
fourth,0.007618
fruit,0.008653
fundament,0.011183
futur,0.005318
gain,0.005312
garfield,0.017123
gather,0.007612
gener,0.009413
genesi,0.010986
gesh,0.018334
gestat,0.027930
gethin,0.039398
given,0.004379
glean,0.014024
god,0.007642
good,0.004854
grain,0.009487
grant,0.006694
great,0.009842
greed,0.013516
groner,0.020400
grove,0.012668
ha,0.017469
hanh,0.040801
harri,0.009183
harvey,0.044294
hi,0.019576
highlight,0.008991
hirakawa,0.019154
histor,0.004905
hoffman,0.014241
hold,0.005259
howev,0.007087
httpphilpapersorgreckohpi,0.022090
hua,0.015230
huayan,0.017721
hume,0.011365
hymn,0.012900
ian,0.010781
idea,0.019603
identifi,0.010557
ignor,0.015148
illus,0.010781
illustr,0.014893
imag,0.006723
impact,0.005984
imperman,0.047894
impli,0.013577
implic,0.007608
incorrect,0.010396
independ,0.031394
indian,0.014456
indirect,0.009487
individu,0.009008
indivis,0.012394
indra,0.016100
indulg,0.013285
infinit,0.008550
influenc,0.004809
influenti,0.014045
inform,0.004341
inher,0.025104
inquiri,0.008709
insight,0.008099
instant,0.022573
instantan,0.011456
instead,0.010229
integr,0.005269
intent,0.007348
interdepend,0.076726
intermedi,0.008581
intern,0.003826
interpenetr,0.015655
interpret,0.034953
invers,0.009220
invest,0.006217
isol,0.007089
jaramarana,0.022090
jay,0.011696
journal,0.005616
kant,0.010563
karma,0.104928
karmic,0.032341
key,0.005556
khandro,0.020024
kind,0.005816
knowledg,0.005491
known,0.003648
kohl,0.016920
label,0.007855
lack,0.016700
lamott,0.019699
lankan,0.014705
later,0.004341
laumaki,0.021389
layer,0.008403
lead,0.013067
lean,0.011924
learn,0.006132
liber,0.019745
life,0.046927
lifetim,0.046740
like,0.003899
link,0.066659
lion,0.011365
literatur,0.019566
live,0.047201
lost,0.006343
madhyamaka,0.065274
mahanidana,0.022090
mahasi,0.018710
mahavihara,0.017721
mahayana,0.040194
majjhima,0.018008
mandala,0.015598
manner,0.007044
mark,0.005860
materi,0.005115
mathieu,0.015433
matter,0.005490
mean,0.024120
meaningless,0.012289
mechan,0.005390
mechanist,0.012175
mediev,0.015571
mental,0.015797
mere,0.014362
merit,0.010416
metaphor,0.020531
metaphys,0.046696
middl,0.006018
millennium,0.009110
mind,0.034418
mipham,0.019154
mislead,0.011038
mlamadhyamakakrik,0.018710
model,0.036375
moment,0.033218
moon,0.028518
motiv,0.014262
mountain,0.007853
mulamadhyamikakarika,0.022090
multipl,0.011228
mutual,0.015399
nagarjuna,0.062857
nama,0.017464
natur,0.046763
nd,0.006791
necessari,0.005817
necessarili,0.007145
necessit,0.011754
need,0.004388
nescienc,0.020845
net,0.007673
newtonian,0.022592
newtonianlik,0.022090
ngrjuna,0.017721
nhat,0.018008
nibbana,0.018710
nidana,0.387611
nidna,0.039398
nikaya,0.031549
nikya,0.017721
nirvana,0.056967
noa,0.019411
nobl,0.047460
north,0.005795
note,0.004208
noth,0.046346
notion,0.006906
nuanc,0.012957
object,0.014969
observ,0.009635
occur,0.009275
offer,0.005427
oldag,0.016644
older,0.007660
onc,0.005454
oneself,0.011425
onli,0.013440
ontolog,0.060003
order,0.020112
ordinari,0.007959
origin,0.169902
originationth,0.022090
outlin,0.014210
oxford,0.013716
padmasambhava,0.017861
paiccasamuppda,0.021389
pali,0.027382
pass,0.005670
past,0.011581
paticcasamuppada,0.088363
paticcasamuppadavibhanga,0.022090
paticcasamuppda,0.020845
paul,0.006345
payutto,0.019154
peopl,0.004024
perceiv,0.007340
perish,0.012440
perman,0.014147
person,0.028658
peter,0.019968
phenomen,0.012685
phenomena,0.041817
phenomenolog,0.022076
phenomenon,0.015035
philosophi,0.018644
physic,0.009552
pitaka,0.035722
place,0.004128
plural,0.018775
pp,0.006824
practic,0.004478
pragmat,0.010202
prati,0.022090
pratiti,0.022090
pratitya,0.044181
pratityasamutpada,0.129606
prattyasamutpda,0.240698
prayudh,0.019154
preced,0.015860
preciou,0.010986
predict,0.006124
predilect,0.017232
preexist,0.011395
present,0.046038
press,0.009852
prevent,0.017952
previou,0.006312
princip,0.006538
principl,0.065319
print,0.007860
process,0.027699
produc,0.008710
product,0.004362
prolong,0.010643
promot,0.005970
propens,0.013015
properti,0.005068
proposit,0.009620
prpyasamutpda,0.022090
psycholog,0.007134
public,0.004215
question,0.015769
quot,0.008757
rahula,0.017589
read,0.004610
realiti,0.057767
realm,0.025157
reason,0.004764
rebirth,0.172675
rebound,0.012567
recogn,0.005692
redeath,0.019699
reed,0.012617
refer,0.021236
reflect,0.011409
regard,0.010186
rel,0.009519
relat,0.032213
relationship,0.020269
relev,0.006943
remain,0.004390
remov,0.006129
repres,0.004354
respect,0.010096
result,0.018489
revers,0.014616
revolv,0.010821
right,0.004763
rigveda,0.029491
rinchen,0.018710
rinpoch,0.085619
rise,0.016025
roderick,0.014084
ronkin,0.020024
root,0.013411
rupert,0.015134
s,0.003765
sammohavinodani,0.022090
samsar,0.019699
samsara,0.058514
samutpada,0.066272
samyutta,0.017721
sankhara,0.020845
sanskrit,0.043980
sarvastivada,0.018710
sarvastivadin,0.020024
sarvstivda,0.018334
sasra,0.016558
say,0.017254
sayadaw,0.018515
schilbrack,0.022090
scholar,0.020224
scholarli,0.009396
scholastic,0.012719
school,0.027004
schopenhau,0.014146
seat,0.007855
second,0.017427
seen,0.005208
self,0.045614
selfconcept,0.015134
selfhood,0.017589
sens,0.010924
sentient,0.025302
separ,0.009699
seri,0.010576
serial,0.012027
seven,0.006966
shambala,0.021389
shape,0.006327
shulman,0.037845
signific,0.004716
similar,0.004411
simpli,0.006028
sinc,0.011083
singl,0.019777
skandha,0.035722
sky,0.010506
snow,0.011446
sogyal,0.019699
someth,0.021309
sometim,0.004809
sonam,0.016476
sourc,0.009294
space,0.005696
spaciou,0.016100
span,0.008534
speak,0.007084
specif,0.017681
speech,0.007959
spring,0.008333
sri,0.010750
stabl,0.007270
stand,0.006943
start,0.004676
state,0.067885
statement,0.006782
stephen,0.008206
sthavira,0.020400
strictest,0.014666
studi,0.011713
subject,0.009399
subsequ,0.011530
substanti,0.013716
suffer,0.020229
suffici,0.006830
suggest,0.010344
surround,0.006765
suspend,0.009183
sustain,0.007226
sutra,0.052221
sutta,0.064683
suzuki,0.014666
svabhva,0.019154
svadha,0.022090
synonym,0.018440
taught,0.024711
teach,0.065137
tempor,0.009735
tenet,0.010877
tenth,0.022651
term,0.024437
text,0.025493
textual,0.011606
th,0.004236
thanissaro,0.053583
themselv,0.005480
theori,0.021652
theravada,0.097962
theravadin,0.017345
theravda,0.016170
thereaft,0.009660
therefor,0.005021
thesi,0.009142
thi,0.093955
thich,0.019699
thing,0.058786
think,0.006407
thought,0.015708
thrangu,0.021389
thu,0.012956
tibetan,0.038645
tienn,0.014177
time,0.009806
togeth,0.005094
tradit,0.051175
transcend,0.010450
translat,0.025441
tree,0.015220
trigger,0.008987
true,0.005981
truth,0.117908
turn,0.010215
twelfth,0.012919
twelv,0.214410
twelvefold,0.018008
u,0.008620
ultim,0.019170
unawar,0.012013
understand,0.020059
understood,0.013867
uneas,0.016243
uniqu,0.006299
univers,0.007652
upanisa,0.044181
upanishad,0.027759
use,0.021131
usual,0.004445
vajrayana,0.030460
vari,0.005446
variat,0.006925
variou,0.008411
various,0.011425
vast,0.007418
vasubandhu,0.033288
veda,0.025038
vedic,0.063171
vener,0.012232
veri,0.008438
vexat,0.020845
vibhanga,0.041690
view,0.023676
vinaya,0.016733
visuddhimagga,0.019154
wa,0.006058
walpola,0.017721
water,0.011398
watercomplet,0.022090
watt,0.011801
way,0.007900
wayman,0.040801
websourc,0.017232
western,0.005557
whatev,0.027285
whatsoev,0.012702
wherea,0.006410
womb,0.014146
word,0.010256
work,0.007243
world,0.014982
wrongli,0.014177
yen,0.014054
zen,0.013330
