abhij,0.017385
abid,0.020050
abil,0.009392
abl,0.004311
abraham,0.008015
absenc,0.012549
absolut,0.005789
academ,0.005112
accept,0.008570
accomplish,0.006859
accord,0.017065
achiev,0.004293
acorn,0.013528
acquir,0.005559
act,0.007801
action,0.008387
activ,0.017028
activist,0.008142
ad,0.004355
add,0.006508
addit,0.003452
adept,0.011304
adequ,0.007160
adopt,0.004710
adult,0.006681
advanc,0.004215
affair,0.005643
age,0.004274
agenc,0.010738
ahwal,0.017955
aim,0.009747
al,0.005854
albert,0.006936
alcohol,0.047014
aldou,0.012588
aliv,0.008528
alon,0.005836
alter,0.012244
alway,0.004589
amal,0.013528
amalgam,0.029757
amanita,0.015049
amen,0.009612
anagarika,0.014902
andrew,0.006931
ani,0.015040
ann,0.007994
anni,0.011498
anonym,0.036148
anoth,0.003282
antiintellectu,0.014195
appear,0.011860
apprehend,0.011214
approach,0.011784
aqwal,0.017955
archetyp,0.010001
argu,0.022702
arisen,0.009320
articl,0.004056
aryan,0.012772
ascet,0.022051
asia,0.005860
asian,0.039013
aspect,0.008971
aspir,0.008580
assert,0.005863
assess,0.005813
associ,0.013336
attach,0.006461
attain,0.020727
attempt,0.003893
attract,0.005491
attribut,0.005305
audienc,0.007704
authent,0.008645
author,0.003842
awaken,0.057970
awar,0.024701
ayahuasca,0.030098
b,0.004520
baba,0.024381
background,0.005861
bare,0.008407
barlaam,0.031138
barth,0.011045
base,0.014870
basi,0.004251
basic,0.004140
bath,0.009582
batson,0.015208
beauti,0.007819
becam,0.007523
becaus,0.009294
becom,0.023061
began,0.004109
begin,0.004012
beheld,0.015208
behold,0.012725
belief,0.027545
believ,0.063849
belong,0.011630
besant,0.015208
bestknown,0.008972
biblic,0.008841
big,0.006231
bind,0.007106
biocultur,0.013753
biolog,0.004881
biotheolog,0.016943
bird,0.007025
black,0.022217
blavatski,0.013834
blend,0.008627
blind,0.008423
bliss,0.011351
bodhi,0.012725
bodi,0.016519
book,0.015645
born,0.005813
brahm,0.014006
brain,0.059272
breach,0.009312
breath,0.008848
bring,0.005116
broad,0.011055
brunton,0.016581
buddha,0.009651
buddhanatur,0.013600
buddhism,0.041903
buddhist,0.024833
bureau,0.007784
butterfli,0.010099
c,0.003938
calabrian,0.016011
calm,0.009682
capabl,0.005427
carl,0.013763
carri,0.004443
categor,0.014013
categori,0.005259
caterpillar,0.012544
caudat,0.015380
caus,0.014716
ceas,0.020887
centuri,0.038934
challeng,0.004923
chao,0.007976
characterist,0.009502
charl,0.010558
charlesworth,0.043213
christ,0.026386
christian,0.037393
church,0.024911
circl,0.006641
citiqu,0.017955
claim,0.012552
class,0.004571
classic,0.009108
cleans,0.010816
close,0.011065
closer,0.006820
closet,0.012923
coast,0.006291
cognit,0.013070
coher,0.007598
colleagu,0.007451
colonialis,0.016943
come,0.011827
commit,0.005777
common,0.010000
commun,0.007209
communion,0.011374
compar,0.004077
compel,0.017230
complex,0.004034
compon,0.004747
comprehens,0.006072
concentr,0.010789
concept,0.019236
condit,0.003857
confer,0.005426
confess,0.010013
confus,0.006204
connect,0.009078
consciou,0.008151
conscious,0.028090
consid,0.025721
consist,0.003689
contact,0.005785
contain,0.003955
contempl,0.038065
context,0.009699
continu,0.003340
contribut,0.008092
control,0.003662
convinc,0.007338
core,0.005854
corpor,0.005409
correct,0.005551
correl,0.012852
cortex,0.020050
cosmo,0.009329
coulson,0.012725
countri,0.007256
credul,0.013753
criterion,0.008277
critic,0.008110
criticis,0.008114
crossleg,0.016276
cultur,0.020726
current,0.003529
curriculum,0.008539
d,0.004463
danc,0.008841
danger,0.006475
date,0.004607
ddhi,0.017955
death,0.004828
decent,0.011327
deep,0.012275
deeper,0.008238
defend,0.018505
defens,0.006051
defin,0.011350
definit,0.008718
dein,0.015778
deiti,0.026464
deliveri,0.007968
demon,0.009754
denomin,0.008213
depress,0.006849
depth,0.007238
descend,0.006672
describ,0.027146
descript,0.010079
determin,0.003828
develop,0.008271
deviat,0.007823
dharmapala,0.014006
diagnosi,0.008364
did,0.004092
differ,0.020458
differenti,0.005582
difficult,0.009616
dimens,0.006343
directli,0.008859
disappear,0.007009
disbeliev,0.026287
disciplin,0.005080
discov,0.009710
dissemin,0.017171
distinct,0.008492
distinguish,0.009789
dive,0.009989
divid,0.004371
divin,0.058661
divinorum,0.015569
dmt,0.014765
doctrin,0.006611
doe,0.014921
domin,0.004536
door,0.008621
dorsolater,0.014765
dose,0.010049
doubl,0.006103
dougla,0.008147
dr,0.013680
driven,0.012836
drug,0.013004
druginduc,0.013918
dt,0.032614
dualiti,0.009461
dure,0.012694
duti,0.006560
dwell,0.009754
earli,0.013279
earlier,0.004904
earth,0.010421
east,0.005103
eastern,0.011018
ecstasi,0.074517
ecstat,0.026783
eeg,0.011890
effect,0.029020
emerg,0.008507
emphais,0.017955
emphas,0.005825
emphasi,0.006020
emphasis,0.017887
empiric,0.008986
emul,0.009516
enabl,0.005263
encount,0.006537
encyclopedia,0.005716
endors,0.007855
endur,0.008100
english,0.004622
englishlanguag,0.010908
enhanc,0.006147
enjoy,0.006319
enlighten,0.014495
enter,0.009704
entheogen,0.013203
enthusiasm,0.030372
epilepsi,0.022749
esoter,0.010149
especi,0.003854
essenc,0.007497
essenti,0.009228
et,0.005705
etern,0.008391
ether,0.010310
evalu,0.011502
event,0.004319
everi,0.004153
everyday,0.007090
everywher,0.008621
evolutionari,0.013078
evolv,0.005448
exampl,0.005945
exercis,0.011405
exert,0.007616
exist,0.003300
existenti,0.008993
experi,0.518366
experienc,0.041712
experienti,0.042846
explain,0.013404
explan,0.011685
explicitli,0.006757
explor,0.005057
export,0.012177
expound,0.009862
express,0.004300
extend,0.004378
extern,0.002595
extrem,0.004761
eyewit,0.011684
face,0.009963
fact,0.004214
factor,0.012625
faith,0.019906
fall,0.004530
fals,0.006731
famous,0.008621
far,0.004500
fascin,0.009896
fascinan,0.015569
fear,0.006227
featur,0.013466
feel,0.031024
felt,0.007006
field,0.010874
fifti,0.016825
figur,0.004915
final,0.008586
fit,0.006042
flesh,0.009896
focu,0.004869
focus,0.004620
follow,0.008517
followup,0.010531
forc,0.007114
foremost,0.009270
forget,0.009907
form,0.010851
formal,0.004441
formul,0.005683
forth,0.007215
foundat,0.009256
frame,0.006782
framework,0.005085
free,0.004054
freud,0.009516
friedrich,0.007259
fulfil,0.007177
fundament,0.009090
gain,0.008636
gener,0.010201
geograph,0.005772
german,0.015037
geschwind,0.033886
giussani,0.016581
gnostic,0.011045
goal,0.014645
god,0.198785
goe,0.006387
good,0.015784
gospel,0.009977
grasp,0.008854
great,0.012000
gregori,0.008633
griffith,0.010579
ground,0.005164
group,0.009604
grow,0.009102
ha,0.049699
habel,0.116072
hallucinogenna,0.017955
hand,0.008795
happen,0.005609
haqiqa,0.032023
hard,0.005825
harmoni,0.008277
head,0.004581
heal,0.017400
hear,0.007484
heart,0.013029
heavili,0.005721
held,0.004196
helena,0.010947
hell,0.009797
helmet,0.012154
help,0.003885
henc,0.005537
henosi,0.015208
henri,0.005720
herder,0.011351
hesychasm,0.030098
hesychast,0.049745
hi,0.031823
hidden,0.007815
higher,0.008438
higherord,0.010816
highest,0.027175
highli,0.009344
hindu,0.024685
hinduism,0.042670
histor,0.003986
histori,0.002956
hold,0.012825
holi,0.015029
home,0.005068
hopkin,0.008744
howev,0.005760
hua,0.012379
human,0.037614
hume,0.009237
huxley,0.010074
hypothes,0.007057
icon,0.009554
idea,0.039834
ideal,0.005775
identifi,0.012871
idiosyncrat,0.011086
illumin,0.008338
imman,0.011025
immedi,0.015651
implic,0.006184
import,0.009081
impract,0.010242
inaccess,0.009873
inbetween,0.013326
inbuilt,0.014517
incept,0.009237
includ,0.012319
incorpor,0.004873
independ,0.003645
indescrib,0.027837
india,0.010867
indian,0.017625
individu,0.032948
induc,0.007028
ineff,0.012976
infinit,0.013899
influenc,0.019546
influenti,0.028541
ing,0.012226
inher,0.006801
injunct,0.023099
innat,0.008731
inner,0.007134
innermost,0.012190
input,0.006430
insight,0.006583
institut,0.011267
integr,0.008566
intellect,0.019032
intellectu,0.012177
intellig,0.005537
interact,0.004428
intercours,0.011829
interdepend,0.008909
interior,0.006965
interplay,0.009818
interpret,0.004735
intertwin,0.009953
interven,0.007626
introduc,0.016653
intuit,0.022784
investig,0.004973
invok,0.008522
involv,0.006881
inward,0.010124
irrat,0.009142
isbn,0.008391
islam,0.005908
issu,0.003808
jacob,0.008002
jame,0.050057
japan,0.005869
japanes,0.006764
jesu,0.052164
john,0.012110
journal,0.004564
journey,0.016496
judg,0.006554
judgment,0.007521
june,0.005170
jung,0.054929
just,0.008276
justif,0.008293
justifi,0.014275
kant,0.008585
karl,0.006675
kensho,0.014637
kind,0.004727
knowledg,0.031246
known,0.017792
koren,0.016011
krishna,0.011170
l,0.005223
la,0.005923
ladder,0.010282
lajoi,0.016943
languag,0.008920
lanka,0.009470
lankan,0.011953
lao,0.010124
laps,0.010563
larg,0.006254
late,0.004108
law,0.003574
lead,0.010621
learn,0.004984
leav,0.010050
let,0.006648
lewi,0.014895
liber,0.016049
life,0.022886
light,0.004891
like,0.012677
limbic,0.013326
link,0.005160
literatur,0.005301
live,0.015346
lobe,0.043195
local,0.004018
long,0.003852
look,0.004899
lord,0.007022
lose,0.012480
love,0.028176
lucid,0.012119
luigi,0.010579
maddox,0.015569
magnet,0.006965
maha,0.012588
maharshi,0.014637
main,0.011268
maintain,0.004137
major,0.006295
make,0.003017
mani,0.016090
manifest,0.006825
mantra,0.011656
maqam,0.017955
masteri,0.032083
materi,0.004157
matthew,0.008603
mcgill,0.012226
mcnamara,0.039259
mean,0.016337
meaning,0.007711
mechan,0.004381
mediat,0.050879
medit,0.072121
medium,0.013528
meet,0.014401
meher,0.028594
member,0.003785
mention,0.005744
merci,0.010269
mere,0.017510
mescalin,0.016276
messag,0.007373
metaphys,0.015182
methodist,0.011045
methylphenidateritalin,0.017955
michael,0.005460
mighti,0.012502
mimesi,0.013203
mind,0.027975
missionari,0.016803
model,0.003695
modern,0.021353
modernist,0.010627
moment,0.013500
momentari,0.011921
monk,0.008776
month,0.005242
moon,0.007726
moor,0.016014
moral,0.023742
moreov,0.006806
mortif,0.016276
mose,0.009682
mostli,0.005062
mountain,0.006383
movement,0.032730
multipl,0.004563
muscaria,0.015208
muscimol,0.016011
mushroom,0.011107
music,0.006520
muslim,0.006635
mutual,0.012516
mysterium,0.028391
mystic,0.332518
mysticsm,0.017955
myth,0.007577
narrow,0.006699
nation,0.003287
natur,0.038009
neardeath,0.029035
need,0.003566
neopagan,0.011829
neoplaton,0.030974
neovedanta,0.054702
neural,0.015944
neuroimag,0.022846
neurolog,0.026937
neurophysiolog,0.033512
neurosci,0.024540
neurotheolog,0.056395
neurotheologist,0.017955
new,0.021201
newberg,0.016581
nikaya,0.012821
nirvikalpa,0.016011
noetic,0.014637
nondual,0.024839
nonspecif,0.011498
normal,0.028375
norman,0.016719
notabl,0.004552
note,0.003420
noth,0.006278
notion,0.061747
nou,0.012018
npr,0.012544
nucleu,0.007859
number,0.005936
numin,0.109404
oak,0.009554
object,0.004055
obscur,0.008218
observ,0.015663
occas,0.007379
occult,0.010781
occur,0.011308
odonoghu,0.015049
offer,0.004411
olcott,0.015208
onc,0.008866
oneself,0.009287
onli,0.010924
open,0.004061
oper,0.003742
opinion,0.006306
opposit,0.004881
order,0.006539
ordinari,0.012939
ordinarili,0.010381
organ,0.006472
orient,0.006182
origin,0.029592
orthodox,0.007989
otto,0.041798
ourselv,0.009582
outsid,0.009052
outward,0.009134
overal,0.005430
overlap,0.006594
overt,0.010871
overwhelm,0.007955
oxford,0.016723
pacif,0.006876
pain,0.007514
palama,0.015778
paper,0.004895
paradigm,0.007188
paradis,0.010627
parallel,0.006147
pariet,0.012725
parietaloccipit,0.016581
particular,0.011141
particularli,0.008321
pass,0.004609
passiv,0.016351
path,0.024062
pathway,0.007968
patient,0.007226
pattern,0.005062
paul,0.010314
peak,0.006510
perceiv,0.005966
percept,0.018945
perenni,0.030527
perennialist,0.014902
perfect,0.019886
perfectioni,0.016581
perform,0.004170
perhap,0.005515
period,0.003525
persing,0.016581
persist,0.006727
person,0.031058
perspect,0.010618
peru,0.009363
peyot,0.014404
phase,0.011411
phenomena,0.011329
phenomenon,0.006110
philosoph,0.015623
philosophi,0.025256
physic,0.003882
physicisttheologian,0.016276
piec,0.006551
pizza,0.026287
plato,0.007815
platonist,0.011741
play,0.004283
plotinu,0.023970
point,0.006883
popular,0.021223
popularis,0.010485
porphyri,0.012588
portion,0.005961
posit,0.003516
possess,0.031990
possibl,0.017350
potenti,0.013214
power,0.013926
practic,0.047321
praj,0.014517
prajna,0.014404
pray,0.021158
prayer,0.017929
prefront,0.012379
preparatori,0.011575
presenc,0.010289
press,0.012012
preternatur,0.033886
primev,0.026406
principl,0.020420
print,0.006389
privat,0.014635
problemat,0.008199
process,0.022514
profession,0.005512
profound,0.015522
program,0.008559
promot,0.009706
proof,0.006936
propel,0.009535
prophetth,0.017955
propon,0.014258
propos,0.008395
proposit,0.007819
protest,0.006322
proudfoot,0.015049
psilocybin,0.043913
psychedel,0.012301
psychiatr,0.009631
psychiatri,0.009612
psycholog,0.034795
psychologist,0.015592
psychopatholog,0.021223
psychos,0.014765
psychot,0.013143
public,0.010279
pure,0.010759
purg,0.009516
purpos,0.004425
qualiti,0.005069
quan,0.014098
queen,0.007140
question,0.004272
quit,0.005749
radhakrishnan,0.027057
ragama,0.016011
ramana,0.014006
rampart,0.014195
rang,0.008168
ration,0.005863
raven,0.011770
rd,0.006092
reach,0.017540
read,0.011242
real,0.017913
realis,0.008700
realiti,0.035215
realiz,0.018099
reason,0.015490
receiv,0.004122
recogn,0.004626
recognit,0.005914
recoveri,0.007183
recruit,0.007955
redeem,0.010149
refer,0.010788
reform,0.005278
regard,0.008279
regardless,0.006522
region,0.007727
regist,0.006690
reject,0.005319
relat,0.002909
relationship,0.004118
religi,0.402350
religion,0.137390
religios,0.011921
remov,0.004981
repeat,0.006227
repetit,0.017603
report,0.004147
repos,0.014297
repres,0.003539
research,0.003500
result,0.012022
retir,0.022026
retrac,0.012632
return,0.008733
reunit,0.010013
revel,0.008651
revelatori,0.015569
reviv,0.006857
rhythmic,0.022846
richard,0.010661
right,0.003872
rise,0.004341
ritschl,0.015208
ritual,0.024140
road,0.012535
robert,0.004744
romant,0.009181
romantic,0.010381
room,0.006998
root,0.016351
rr,0.011498
rudolf,0.017736
run,0.004741
s,0.012241
sacr,0.041315
saint,0.007215
salik,0.016943
salvia,0.014765
salvinorin,0.016943
samadhi,0.013675
samdhi,0.029275
samyutta,0.014404
sarvep,0.029035
say,0.014024
scala,0.012190
schemata,0.013203
schizophrenia,0.010763
schleiermach,0.051693
scholar,0.027398
scholast,0.009346
school,0.008779
scienc,0.014516
scientif,0.008683
search,0.016568
seat,0.006385
secret,0.013314
section,0.005346
secular,0.007467
seen,0.008467
self,0.044491
selfdevelop,0.013753
selfenquiri,0.017955
selfhood,0.014297
selfrepresentationscognit,0.017955
selftranscend,0.029275
sens,0.013319
sensat,0.008795
sensori,0.008364
seri,0.004298
sever,0.009391
shaman,0.032290
shape,0.005142
shapiro,0.011005
shar,0.015778
sharf,0.015778
shariah,0.051091
sick,0.008472
sigmund,0.010013
silenc,0.009621
simon,0.007215
sin,0.008539
sinc,0.009008
singl,0.004018
sink,0.008943
sinless,0.016011
sinner,0.013086
skandha,0.029035
skandhamara,0.071822
skeptic,0.015818
small,0.003674
socialpsycholog,0.015778
societi,0.041386
sole,0.006095
solitud,0.012632
soma,0.012632
someon,0.014029
someth,0.017320
sometim,0.007818
son,0.005749
soon,0.005506
soul,0.046520
sourc,0.011331
space,0.013889
special,0.003755
specif,0.007185
spectrum,0.007101
spirit,0.027140
spiritu,0.186819
sri,0.017475
st,0.004840
stage,0.031465
stanford,0.006975
start,0.003801
state,0.031530
station,0.006560
steel,0.007521
step,0.025460
stimul,0.026881
stra,0.012154
stream,0.007197
stress,0.006158
string,0.007976
stroke,0.019185
structur,0.003508
studi,0.050777
subject,0.019100
suffici,0.005551
sufi,0.033384
suggest,0.008408
suluk,0.016943
sun,0.006661
sunset,0.011374
superior,0.006684
supernorm,0.014195
suppos,0.006598
suprem,0.006149
suzuki,0.035764
swallow,0.010228
swami,0.024680
sway,0.010049
swinburn,0.040175
syllabl,0.011523
symbol,0.005451
symptom,0.017090
synchron,0.009862
syncretist,0.014297
syndrom,0.018300
synonym,0.007494
taken,0.004397
taoism,0.010269
tariq,0.012871
tariqa,0.064046
task,0.005570
tauhid,0.016943
tave,0.016011
teach,0.052944
teacher,0.013763
tell,0.013528
tempor,0.023739
temporari,0.007082
tendenc,0.020229
tension,0.006820
term,0.025538
testifi,0.010242
testimoni,0.009661
text,0.005180
th,0.041320
thcenturi,0.013848
theme,0.006650
thenc,0.012419
theolog,0.014640
theologian,0.017763
theoria,0.013326
theosoph,0.101427
theosophi,0.012379
theravada,0.022749
thesi,0.007431
thi,0.053906
thing,0.019113
think,0.010415
thinker,0.029038
thought,0.042559
threefold,0.010908
time,0.007970
timeless,0.011859
took,0.004691
total,0.004189
totem,0.011890
tou,0.013600
touch,0.015851
trace,0.011516
tradit,0.056721
train,0.010371
tranc,0.024839
transcend,0.033978
transcendent,0.057555
transcendentalist,0.026061
transform,0.014746
transient,0.009733
translat,0.005169
transperson,0.061320
travel,0.005302
trembl,0.012190
tremendum,0.015569
tri,0.004726
tribal,0.008375
tripartit,0.010563
true,0.019448
truth,0.044724
turn,0.012454
twelfth,0.021001
twentieth,0.007084
type,0.003610
typic,0.020143
tze,0.015380
uncloud,0.016276
uncommon,0.009205
unconnect,0.012085
underli,0.005702
understand,0.032609
understood,0.011271
unhind,0.013391
union,0.013387
unit,0.012115
unitarian,0.032290
unitarianist,0.016011
uniti,0.019802
univ,0.010175
univers,0.021771
universalist,0.011351
unlik,0.005000
unusu,0.007280
use,0.034352
usual,0.010841
util,0.005432
utter,0.009896
vajrayana,0.012379
valid,0.005734
valuabl,0.007049
vari,0.004426
varieti,0.036071
variou,0.003418
venti,0.016011
verbal,0.008639
veri,0.006858
version,0.010505
vestibul,0.014765
view,0.011546
virtu,0.007608
viscer,0.012725
vision,0.019513
visionari,0.011351
vivekananda,0.026653
vivekenanda,0.017955
voic,0.007157
w,0.005038
wa,0.044319
walk,0.038352
wall,0.006358
wander,0.010061
war,0.004265
water,0.018528
wave,0.006055
way,0.019265
wayfar,0.014517
wayn,0.010660
wcprr,0.017955
weak,0.005965
websourc,0.014006
week,0.006311
wellb,0.008033
wesley,0.020565
west,0.025781
western,0.063239
wherea,0.010421
whirl,0.014195
white,0.022805
wide,0.011603
william,0.038495
wisdom,0.007951
withdraw,0.007218
word,0.016673
work,0.011775
world,0.018267
worldview,0.009213
worthi,0.009470
worthless,0.011327
write,0.004695
year,0.003030
york,0.004625
zaehner,0.029275
zen,0.010834
zenbuddh,0.016581
zenbuddhist,0.016581
