abil,0.010286
abstract,0.006578
accept,0.004693
account,0.008805
achiev,0.004702
acknowledg,0.007208
act,0.008545
activ,0.014920
adam,0.007586
adjudgedreligi,0.018557
adult,0.007318
advoc,0.006417
affirm,0.009023
aforement,0.010582
age,0.004681
agnost,0.011847
agre,0.005636
agreement,0.005706
albeit,0.009449
alter,0.006705
altern,0.004803
ambigu,0.017568
america,0.005239
american,0.016942
analyz,0.006283
ancient,0.010832
ani,0.003294
anoth,0.007191
answer,0.006656
antith,0.016172
anyth,0.014776
appear,0.004329
appli,0.003996
appreci,0.008295
apprehend,0.012282
approach,0.008604
appropri,0.005992
aquina,0.010517
area,0.007425
argument,0.012561
arrow,0.009598
art,0.011438
articl,0.017771
artist,0.007845
aspect,0.009826
assert,0.006421
assess,0.006367
associ,0.021911
atheism,0.011355
atheist,0.010199
attack,0.006027
attempt,0.012792
attent,0.006095
attitud,0.007674
attribut,0.005811
augsburg,0.013199
augustin,0.010039
author,0.004209
avoid,0.005583
awar,0.006763
awe,0.026783
b,0.004951
bang,0.010073
barlow,0.014098
barr,0.012828
base,0.003257
basi,0.013969
basic,0.009069
battl,0.007060
bce,0.008272
beauti,0.025694
becaus,0.003393
becom,0.007216
befor,0.011549
begin,0.013185
behavior,0.005287
belief,0.024136
believ,0.018648
belknap,0.013127
belov,0.013886
bernard,0.008779
best,0.004968
beth,0.024196
better,0.005083
big,0.006825
billion,0.012805
biolog,0.005346
biologist,0.016867
birth,0.006641
blind,0.009225
book,0.038556
born,0.006367
boston,0.008310
brahman,0.011907
brian,0.009219
bridg,0.007447
briefli,0.008361
brightman,0.035654
burho,0.018557
c,0.017255
cambridg,0.005979
came,0.009872
categor,0.015348
categori,0.005760
cavanaugh,0.018161
celebr,0.007780
center,0.009630
central,0.004232
centuri,0.011630
chaisson,0.017281
challeng,0.005393
chanc,0.007267
chapman,0.010876
chapter,0.014072
character,0.005726
characterist,0.005203
chardin,0.014978
chet,0.049970
chicago,0.007358
christ,0.009633
christian,0.017552
chronicl,0.009508
church,0.006821
circl,0.007274
civil,0.005178
claim,0.004582
class,0.005007
collaps,0.006650
colleg,0.013108
collid,0.010227
columbia,0.008397
combin,0.004305
come,0.012954
commit,0.006328
commonli,0.005014
commun,0.023688
compass,0.019456
compat,0.008662
complet,0.004170
complex,0.013255
compon,0.005199
conceiv,0.007928
concept,0.042137
conceptu,0.014535
concern,0.038152
conclus,0.006727
condemn,0.008504
confer,0.005943
confess,0.021934
conger,0.017052
congreg,0.043660
conni,0.016172
consequ,0.005134
consid,0.021128
consist,0.012124
contempt,0.012538
content,0.005958
contest,0.007944
continu,0.018293
contribut,0.008863
convers,0.012459
convict,0.008750
core,0.012824
cosmic,0.036950
cosmolog,0.017656
cover,0.004971
creation,0.016489
creativ,0.039011
creator,0.009050
creatur,0.009208
credo,0.030127
critic,0.026649
crosbi,0.094912
cultur,0.018160
current,0.007731
daniel,0.007510
dao,0.014272
daoism,0.013836
daoist,0.014596
david,0.005363
dawkin,0.012076
debat,0.005621
dec,0.011907
deep,0.006722
deepen,0.010851
deepli,0.008525
defici,0.009577
defin,0.004143
definit,0.014323
deiti,0.009662
demonstr,0.005427
dennett,0.012485
depth,0.023784
desacr,0.017052
describ,0.022299
design,0.004435
desir,0.005683
despit,0.005120
determin,0.004193
develop,0.006039
dialogu,0.008429
didnt,0.009922
differ,0.012804
differenti,0.006114
difficult,0.005266
direct,0.008019
disagre,0.008680
disbelief,0.012797
discours,0.008268
discuss,0.044343
disposit,0.010284
distinct,0.009301
divers,0.011615
divid,0.009576
divin,0.008031
doe,0.008171
domain,0.005897
donald,0.059592
dowd,0.030682
dr,0.007491
draw,0.006190
drawn,0.007126
drive,0.006487
dub,0.009713
dubss,0.018557
duti,0.007185
e,0.009786
earli,0.003636
earlier,0.005371
earliest,0.006076
earth,0.011414
ecolog,0.013701
ecosystem,0.008245
ecozo,0.018557
ecumen,0.012767
edgar,0.010626
edit,0.005689
edmund,0.009249
educ,0.004631
edward,0.006613
effort,0.005034
element,0.009247
els,0.007486
embrac,0.016402
emerg,0.027955
emot,0.007468
emphas,0.006380
encourag,0.005975
end,0.003974
enemi,0.008125
engag,0.005756
enlarg,0.009285
enrich,0.009515
entir,0.004715
entiti,0.006168
entitl,0.007505
environ,0.004819
environment,0.005844
epic,0.117276
epicurean,0.012356
epistemolog,0.008640
era,0.005743
eric,0.008635
error,0.006912
essenti,0.005053
establish,0.003879
ethic,0.033454
eugeni,0.016032
evalu,0.006299
evangelist,0.013647
everi,0.004549
everybodi,0.011468
everyth,0.014478
everywher,0.009442
evid,0.004957
evil,0.008842
evolut,0.123953
evolutionari,0.042974
evolutiontold,0.018557
examin,0.005689
exampl,0.009767
exclus,0.006210
exist,0.014460
expand,0.010285
experi,0.008940
explain,0.004893
explicitli,0.007400
explor,0.016617
express,0.009420
extend,0.004795
extent,0.011963
extern,0.002842
extraordinari,0.009488
facebook,0.011386
facilit,0.006554
fact,0.004615
fair,0.007363
faith,0.043605
fall,0.004962
fals,0.007373
falsehood,0.012989
famili,0.005033
familiar,0.015383
far,0.004929
farther,0.010153
feel,0.020388
fertil,0.007620
feuerbach,0.013693
final,0.004702
fitra,0.017537
flare,0.012258
focu,0.026666
follow,0.006219
footprint,0.011732
forc,0.003896
forgotten,0.010265
form,0.011885
forth,0.007902
fortress,0.010626
forward,0.006900
foster,0.008310
founder,0.013627
frame,0.014858
framework,0.005569
fraught,0.013558
frequent,0.005464
fundament,0.014934
futur,0.009469
galaxi,0.009676
gather,0.020330
gener,0.002793
georg,0.011205
gillett,0.014896
global,0.005162
goal,0.005347
god,0.176901
godlanguag,0.054484
gone,0.008626
good,0.004321
goodenough,0.126214
gordon,0.027199
grab,0.012737
grace,0.010246
grand,0.007550
gratitud,0.024917
great,0.013143
green,0.013370
greenwood,0.010889
ground,0.011313
group,0.021039
grown,0.007486
guilt,0.011694
h,0.010800
ha,0.018144
half,0.005351
hall,0.007375
harpercollin,0.012235
harvard,0.007595
haught,0.036323
heart,0.014270
hefner,0.018557
help,0.012767
henri,0.018796
heritag,0.007951
hi,0.031369
hindu,0.009012
histor,0.004366
histori,0.009713
hodgepodg,0.015152
hogu,0.035654
holi,0.016461
honor,0.008041
howev,0.003154
human,0.067414
humankind,0.010778
humil,0.027479
ian,0.009598
idea,0.013089
ignatowski,0.035654
imag,0.005985
imbu,0.012707
imman,0.012076
imperfect,0.009570
impli,0.012087
implic,0.006773
import,0.006630
inclin,0.009619
includ,0.035081
independ,0.003992
indispens,0.010851
individu,0.024058
inform,0.003864
inher,0.014899
inquiri,0.023261
insid,0.006519
insight,0.021632
inspir,0.006431
institut,0.004113
integr,0.004691
intellectu,0.006668
intellig,0.006065
intend,0.006017
intent,0.006541
interact,0.004850
intercept,0.011323
interconnect,0.018795
intern,0.003406
interpret,0.015558
introduct,0.005153
investig,0.005447
involv,0.003768
ira,0.011713
isbn,0.096504
islam,0.006471
issu,0.016685
ix,0.011355
jame,0.005482
jerom,0.043558
jewish,0.024176
jing,0.012678
john,0.013264
join,0.005782
joseph,0.006405
journal,0.024999
judgment,0.008238
juli,0.005614
june,0.011326
justic,0.013139
justif,0.009083
kaplan,0.012458
karl,0.014622
kauffman,0.027386
kaufman,0.040808
kenneth,0.008722
kind,0.010355
klein,0.010293
knowledg,0.004889
known,0.006495
lake,0.007665
languag,0.004885
larg,0.003425
larger,0.005130
law,0.003915
lawton,0.015659
lead,0.003877
leader,0.011366
leap,0.010342
learn,0.005459
leav,0.005503
led,0.020972
lenienc,0.016032
liber,0.011719
life,0.033421
like,0.006942
limit,0.007938
link,0.005651
lion,0.010117
list,0.007227
literatur,0.017419
littlefield,0.012407
live,0.037818
local,0.008803
long,0.008439
look,0.005365
loomer,0.018557
love,0.023145
loveland,0.017281
loyal,0.069342
ludwig,0.008923
luther,0.011308
magic,0.009061
mainli,0.010790
mainstream,0.015773
major,0.006895
make,0.013218
man,0.005749
mani,0.014686
manner,0.006271
march,0.005388
margin,0.007121
mark,0.005217
martinez,0.013989
matrix,0.008157
matter,0.009776
mean,0.021473
meaning,0.033784
meaningless,0.010940
measur,0.004256
memor,0.010790
menac,0.012538
mesl,0.018161
metaphor,0.018278
meteor,0.011339
method,0.012074
michael,0.035882
michigan,0.009378
mike,0.010790
miller,0.018144
mind,0.006128
minim,0.006858
minimalist,0.013739
minist,0.011726
miracl,0.010144
modern,0.011693
moment,0.007393
moral,0.026004
mordecai,0.016032
mortal,0.008685
movement,0.026886
multipl,0.004998
mutual,0.006854
mysteri,0.025733
mystic,0.009584
myth,0.033195
mythic,0.010827
narr,0.025655
nathan,0.011604
natur,0.371210
naturalismorg,0.018161
naturalist,0.398374
near,0.005343
need,0.011719
nelson,0.029457
neotheist,0.018557
new,0.023221
nirgua,0.018557
nonmilit,0.017281
nontheist,0.026399
notabl,0.004986
note,0.003746
nottheist,0.018557
number,0.009752
numer,0.004814
o,0.006852
obtain,0.005051
occur,0.004128
octob,0.005619
ohio,0.010495
old,0.010753
oler,0.018557
onceforgotten,0.018557
onli,0.014956
onlin,0.005687
open,0.004448
oper,0.004099
oppos,0.005430
option,0.006780
order,0.003581
orient,0.006771
ourselv,0.031487
outlook,0.009316
outstand,0.008887
outward,0.010005
oxford,0.006105
p,0.004960
pagan,0.009988
panenth,0.013091
pantheism,0.036565
pantheist,0.038868
paradigm,0.015747
particip,0.005126
past,0.005155
pastor,0.010265
path,0.006588
paul,0.005648
pearsonprentic,0.017827
peopl,0.017914
percept,0.006916
perform,0.004568
perrigo,0.018557
person,0.017008
perspect,0.034889
peter,0.011851
philip,0.007987
philosoph,0.017111
philosophi,0.022130
phrase,0.007829
physic,0.004252
piu,0.012307
place,0.011025
placement,0.020398
plain,0.016984
planet,0.014746
planetari,0.009316
point,0.003769
pope,0.009139
popular,0.004649
posit,0.007702
possibl,0.003800
postsecular,0.018161
power,0.007626
practic,0.003986
practition,0.007820
preach,0.010638
predat,0.008272
preemin,0.010802
prejudic,0.010342
premis,0.008741
presenc,0.005635
present,0.014903
press,0.052628
pride,0.010255
primaci,0.011131
primari,0.004918
primordi,0.010474
principl,0.008946
probabl,0.005347
problem,0.003985
process,0.028181
profess,0.007787
professor,0.006659
progress,0.010157
promin,0.005843
promis,0.021006
propon,0.015616
provid,0.023143
pub,0.011145
publish,0.016544
pure,0.005892
purpos,0.009694
quest,0.018769
question,0.014038
quietli,0.011990
r,0.004986
rabbi,0.037144
radic,0.006831
ralph,0.010022
rapid,0.006457
ration,0.006421
raymo,0.055672
reach,0.004802
read,0.016418
realiti,0.006428
realli,0.007603
realm,0.007465
reason,0.012724
rebirth,0.010980
recent,0.008184
recogn,0.005067
recognit,0.006477
reconnect,0.040676
reconstruction,0.015776
reduc,0.004477
refer,0.011816
reflect,0.005078
refus,0.006896
regard,0.009068
regardless,0.007144
reinforc,0.016096
reject,0.005826
rel,0.008474
relat,0.015932
releas,0.005906
reli,0.005694
reliabl,0.014133
religi,0.567456
religion,0.132422
religionbas,0.016172
requir,0.003720
resourc,0.009568
respect,0.008988
respond,0.025495
respons,0.012297
reveal,0.006216
rever,0.031648
review,0.005295
reviv,0.007510
rich,0.006776
richard,0.005838
right,0.004240
rigor,0.007957
rise,0.004755
risen,0.009955
ritual,0.008813
rn,0.057423
road,0.006864
robert,0.010392
robertson,0.011188
robinson,0.009691
roger,0.007925
rough,0.009372
rowman,0.012737
rue,0.142125
ruse,0.014667
rutger,0.012258
s,0.010055
sacr,0.045251
sacred,0.015341
sacredriverorg,0.018557
said,0.009711
sake,0.019748
sanctifi,0.014817
santayana,0.014896
saw,0.005783
say,0.005120
school,0.009616
scienc,0.067571
scientif,0.028533
scientist,0.005404
scope,0.013895
scott,0.008746
scrutini,0.010742
se,0.009826
second,0.003878
secular,0.016358
seek,0.021212
seeker,0.012356
seen,0.018548
self,0.008121
selfesteem,0.012432
selforgan,0.011484
selv,0.013091
sens,0.038902
sentient,0.011262
separ,0.004317
sept,0.012797
septemb,0.005699
serv,0.009408
seven,0.006201
sever,0.006857
share,0.013815
shortli,0.007355
signific,0.004198
similar,0.007855
simpl,0.005226
sinc,0.003288
singl,0.004401
sketch,0.010549
skill,0.006336
social,0.008368
societi,0.008241
solidar,0.010117
sometim,0.008563
somewhat,0.006972
sorin,0.016172
sought,0.006407
soul,0.008492
sourc,0.008274
space,0.010141
spectacular,0.011451
spiritu,0.098519
spring,0.007418
springer,0.007961
stage,0.005743
standard,0.004429
stanley,0.008662
star,0.007294
state,0.020145
statement,0.012076
station,0.007185
stewardship,0.012621
stewart,0.010443
stoicism,0.012621
stone,0.044073
stori,0.080006
strand,0.009378
strong,0.014337
stuart,0.018244
studi,0.006951
subgroup,0.010352
subject,0.008368
submit,0.008238
subsequ,0.005132
substanti,0.012211
subtradit,0.017827
sum,0.006560
summar,0.008377
sun,0.007296
supernatur,0.028669
superordin,0.015152
support,0.019553
suprem,0.006735
suspect,0.017578
sustain,0.006433
swimm,0.017827
syllabu,0.012767
symbol,0.005971
sympathi,0.010778
synonym,0.008208
tail,0.009522
teilhard,0.015442
tell,0.007408
tendenc,0.007385
tenet,0.009683
term,0.037295
terminolog,0.007744
text,0.011347
th,0.007542
thank,0.009044
theism,0.012142
theistic,0.012120
theme,0.021853
themselv,0.014636
theolog,0.032070
theologian,0.009728
theori,0.007710
thereaft,0.008599
therefor,0.004470
thi,0.041821
thing,0.026167
think,0.017111
thoma,0.005883
thou,0.012565
thought,0.013984
thu,0.023069
tillich,0.015152
time,0.014550
timea,0.017281
titl,0.005903
today,0.009450
told,0.008341
took,0.005138
tool,0.005266
topic,0.005218
total,0.004589
trace,0.006306
tradit,0.028992
transcend,0.027911
translat,0.005662
travi,0.015244
treat,0.011518
tri,0.010354
true,0.005325
trust,0.007190
truth,0.027991
twenti,0.008089
type,0.007908
ultim,0.034132
undersid,0.013693
understand,0.026787
understood,0.006172
uniqu,0.005608
unitari,0.020645
unitarian,0.023577
univers,0.074943
universalist,0.012432
ursula,0.094912
usa,0.007343
usag,0.020696
use,0.053749
usual,0.003958
valu,0.029508
vari,0.004848
variat,0.006165
varieti,0.019753
variou,0.007488
verifi,0.016628
view,0.046370
vike,0.022067
virtu,0.008333
vision,0.007124
vs,0.007941
wa,0.016180
want,0.012144
way,0.028134
webbas,0.012649
websit,0.006219
welfar,0.015151
wellb,0.017597
wendel,0.012737
wesley,0.011262
west,0.005647
western,0.009894
whi,0.018155
whig,0.012458
wieman,0.045456
wildman,0.017281
wilson,0.024647
wonder,0.028587
work,0.003224
world,0.060022
worldview,0.010091
write,0.020570
writer,0.006750
written,0.005207
wrote,0.022414
x,0.017470
xxiii,0.014596
year,0.013277
york,0.025328
zeno,0.012538
zygon,0.033691
