abl,0.005675
accept,0.005640
accord,0.026957
accumul,0.034478
acknowledg,0.008663
act,0.025676
action,0.016562
activ,0.008966
adulteri,0.016878
afterlif,0.013743
alexand,0.008608
aliv,0.011226
altern,0.005773
alway,0.006041
anabhisankhara,0.023636
anatman,0.020495
anatta,0.068613
ancient,0.006509
anger,0.011727
ani,0.011879
anicca,0.018211
anim,0.044022
anoth,0.034571
antigod,0.022303
argu,0.011954
aris,0.007330
asaraka,0.022303
asia,0.015429
asian,0.008559
assert,0.038592
asura,0.037374
attach,0.017012
attain,0.054571
attempt,0.015375
avidya,0.097188
bad,0.009216
bardo,0.018820
beat,0.011396
becaus,0.020391
becom,0.004336
befor,0.004627
begin,0.015847
beginningless,0.021077
believ,0.011206
belong,0.015310
berzin,0.020246
better,0.006109
bhavacakra,0.020495
birth,0.039914
blow,0.034432
bodi,0.021745
born,0.007653
brahma,0.015954
bronkhorst,0.019617
buddha,0.025411
buddhaghosa,0.037119
buddhism,0.154452
buddhist,0.348706
calm,0.012745
came,0.005932
candl,0.014311
canon,0.009852
care,0.006816
caus,0.033901
ce,0.009942
ceas,0.009165
cessat,0.014287
cetan,0.019617
chanc,0.008734
changeless,0.020019
chapter,0.008456
character,0.006882
characterist,0.006254
chogyam,0.022886
christian,0.007032
circumst,0.008335
cling,0.030272
cold,0.008649
come,0.005190
concept,0.010128
conclud,0.014844
condit,0.005077
connect,0.005975
conscious,0.046223
consequ,0.006171
consid,0.029626
constitut,0.017190
constru,0.013926
contempl,0.012527
continu,0.013191
cosmolog,0.106103
cours,0.006325
crave,0.113357
culmin,0.009616
current,0.013938
cycl,0.066957
cyclic,0.022543
damien,0.016878
damnat,0.017543
daniel,0.009026
david,0.006446
day,0.010953
death,0.012712
deed,0.012589
demerit,0.018687
demigod,0.107424
demon,0.012840
demytholog,0.020019
denot,0.008855
describ,0.017867
descript,0.013268
desir,0.034151
destruct,0.017178
determin,0.020159
detradition,0.022886
deva,0.079322
dhyana,0.038538
die,0.020861
differ,0.019236
difficulti,0.007838
direct,0.004819
directli,0.005831
disagre,0.010433
disappear,0.009227
disast,0.010025
distinguish,0.006443
divid,0.005754
doctrin,0.052220
doe,0.014731
domain,0.007088
donat,0.010870
drink,0.010762
driven,0.016898
dukkha,0.034306
dure,0.004177
earli,0.013110
earlier,0.006456
earth,0.006859
east,0.013435
eaten,0.013181
elsewher,0.009007
empti,0.010417
end,0.033440
endless,0.013378
endow,0.011067
enjoy,0.008318
enter,0.006387
equal,0.005950
equival,0.007038
everi,0.010935
evid,0.005958
evil,0.063768
evolv,0.014344
exactli,0.008559
exampl,0.003913
excess,0.008443
exist,0.060828
experi,0.005373
explain,0.017645
explan,0.007691
extrem,0.018802
face,0.006558
feed,0.010030
fetter,0.017012
fight,0.008198
final,0.005651
flame,0.012968
follow,0.003737
food,0.006724
forc,0.004683
form,0.007142
fortun,0.010598
fortynin,0.019111
frauwalln,0.023636
futur,0.011381
gain,0.017052
gati,0.021426
gethin,0.084310
ghost,0.076154
goal,0.006426
god,0.057242
goleman,0.019269
good,0.020778
grasp,0.011656
group,0.004214
ha,0.009346
happen,0.014768
harvey,0.011848
heavenli,0.052916
hell,0.064484
hellish,0.101234
higher,0.011108
hinayana,0.019111
hinder,0.011773
hindu,0.021664
hinduism,0.011234
histor,0.005248
hold,0.005627
hopkin,0.011510
hot,0.010288
howev,0.003791
human,0.031509
hungri,0.091853
idea,0.005243
identifi,0.005647
ignor,0.064833
iii,0.008935
ill,0.009072
immedi,0.006868
imperman,0.068327
impuls,0.011974
includ,0.003243
inconsist,0.010857
inconstru,0.023636
inde,0.007944
india,0.007153
indispens,0.013042
indra,0.017226
initi,0.005076
innov,0.008092
insight,0.104000
instinct,0.012360
intens,0.007759
intent,0.031450
intermedi,0.009182
interpret,0.006233
invis,0.011404
jainism,0.014168
jeffri,0.019437
jhana,0.039621
kamma,0.020246
karma,0.224543
karmic,0.034605
keown,0.037119
kevin,0.012258
kind,0.006223
lack,0.017868
larg,0.004116
later,0.027873
lay,0.008790
lead,0.023302
leav,0.006614
level,0.004670
liber,0.112680
lie,0.007653
life,0.035148
lifetim,0.020004
literatur,0.006978
live,0.010100
longer,0.006442
lower,0.011543
major,0.004143
manusya,0.022886
manuya,0.022886
map,0.007145
matter,0.005875
mcmahan,0.021426
mean,0.012904
mechan,0.011535
mechanist,0.013027
mental,0.025354
merit,0.011145
meru,0.019111
midst,0.013447
mildest,0.020246
millennium,0.009748
mind,0.022096
mingyur,0.022886
misconcept,0.013724
modern,0.004684
modernist,0.013990
moffitt,0.022886
moksha,0.064002
monk,0.011552
moral,0.007813
motiv,0.015260
mount,0.009105
mouth,0.011074
mundan,0.014514
naraka,0.020770
natur,0.016678
nearbi,0.009612
necessari,0.006224
need,0.004695
nikaya,0.016878
nirvana,0.121907
nonexist,0.012128
nonself,0.068907
noself,0.020019
nosoul,0.022886
notabl,0.005993
note,0.009006
notion,0.007389
notknowing,0.023636
numer,0.005786
occur,0.019849
offer,0.005807
oldest,0.008449
oneself,0.024450
onli,0.003595
open,0.005347
opportun,0.007377
order,0.004304
organ,0.004260
origin,0.004328
otherwis,0.007429
overcom,0.009592
pain,0.019784
pali,0.029298
partial,0.007184
particular,0.014666
particularli,0.005477
past,0.006195
patisandhi,0.022303
paul,0.013578
peopl,0.004306
perpetu,0.052905
person,0.015332
peter,0.007121
phenomenon,0.008043
phillip,0.012086
physic,0.015332
pith,0.018559
plant,0.006780
pleasur,0.023225
point,0.004530
possibl,0.004568
potenti,0.005798
power,0.004583
practic,0.028750
prajna,0.037923
pratityasamutpada,0.019810
preced,0.008485
predomin,0.010216
preta,0.019617
previou,0.013507
prey,0.012203
primit,0.009910
principl,0.005376
product,0.004667
proport,0.007404
psycholog,0.061073
purpos,0.005825
pursu,0.008145
pursuit,0.010097
rahula,0.018820
realis,0.011453
realiti,0.038631
realli,0.018276
realm,0.520412
rebirth,0.369519
rebirthlink,0.022886
reborn,0.112333
recognit,0.007785
reconstruct,0.008901
recur,0.024257
refer,0.011361
regard,0.005449
region,0.005086
religi,0.007255
religion,0.007234
repeat,0.016397
repetit,0.011586
replac,0.005788
requisit,0.013803
respons,0.004926
restless,0.016095
result,0.007913
rinpoch,0.018322
rittaka,0.022303
ritual,0.031778
root,0.021525
run,0.012484
s,0.004028
said,0.005836
samsara,0.234783
samyutta,0.018961
sanskrit,0.011764
sasra,0.088587
schmithausen,0.019810
scholar,0.014426
school,0.011557
second,0.004661
seek,0.006373
seen,0.011146
self,0.048806
serv,0.005654
sever,0.004121
shift,0.006883
similar,0.009440
simpl,0.006281
singl,0.005290
skandha,0.057333
small,0.004837
sociolog,0.009366
sought,0.007701
soul,0.030619
sourc,0.004972
southeast,0.009677
speech,0.025550
spirit,0.008931
spiritu,0.018216
state,0.044965
stomach,0.013245
subdivid,0.010832
subrealm,0.022886
substanc,0.008310
substanti,0.007338
subtl,0.011691
suffer,0.028860
sufferingladen,0.022886
suggest,0.022136
supernorm,0.018687
supersed,0.011420
sutta,0.034605
teach,0.007743
temporari,0.018645
term,0.007470
text,0.095470
theft,0.013197
theme,0.008755
theravada,0.014973
thereaft,0.010336
therefor,0.010746
thi,0.056178
thing,0.006290
thirsti,0.018104
thirti,0.010658
thought,0.005602
thu,0.009242
tibetan,0.013783
time,0.006995
tiryag,0.023636
tortur,0.011896
tradit,0.039823
trainor,0.021077
transfer,0.013529
translat,0.006805
transmigr,0.052382
troubl,0.010378
true,0.019201
truli,0.009905
trungpa,0.020246
truth,0.016821
tucchaka,0.022303
twenti,0.009723
type,0.004752
typic,0.021213
udayabbaya,0.021828
ultim,0.006837
uncontrol,0.013743
undergo,0.009165
underli,0.007507
unsatisfactori,0.028384
unwholesom,0.038222
updna,0.020770
vain,0.015005
vari,0.011655
variou,0.004500
vast,0.007937
vastli,0.012360
veri,0.013543
vetter,0.040493
view,0.010133
vinnana,0.045772
volit,0.015037
wa,0.012965
waldron,0.018820
walpola,0.018961
wander,0.026490
way,0.004226
web,0.008570
wheel,0.023812
wholesom,0.036644
william,0.025337
work,0.003875
xv,0.014649
year,0.003989
