aal,0.004260
abandon,0.004809
abcclio,0.003290
abd,0.010690
abdal,0.003680
abdallah,0.003249
abdel,0.003133
abdelkad,0.003824
abdu,0.006186
abdul,0.005281
abdullah,0.005250
abdulqadir,0.023206
abida,0.004260
abil,0.001180
abl,0.003252
ablut,0.003824
abolish,0.005380
abolkheir,0.004515
abov,0.003296
abraham,0.014109
abridg,0.002924
absolut,0.002911
abstain,0.002685
abstin,0.003165
abu,0.035030
abul,0.009599
abulhassan,0.004371
abulkhair,0.004515
abusaeid,0.004515
academ,0.003856
academi,0.001653
accept,0.003232
access,0.002375
accommod,0.001993
accomplish,0.001724
accord,0.019740
accru,0.002506
accus,0.003442
achiev,0.005398
acknowledg,0.001655
acquir,0.002795
act,0.001961
action,0.001054
activ,0.007707
actual,0.001098
ad,0.004381
adam,0.003483
addin,0.003176
addit,0.000868
addn,0.003784
address,0.002584
addurrya,0.004515
adept,0.008528
adequ,0.001800
adham,0.004515
adher,0.017361
adhes,0.002575
adjoin,0.002777
adopt,0.002368
adorn,0.002917
adversari,0.002545
advoc,0.001473
af,0.003039
afak,0.004371
afandi,0.009030
affair,0.002838
affili,0.005890
affin,0.002108
afford,0.001843
afghanistan,0.004404
afghanscottish,0.004515
afq,0.004515
africa,0.005575
african,0.003008
afterlif,0.002625
aftermath,0.002138
afternoon,0.005757
age,0.004299
agenc,0.001350
agha,0.003545
ago,0.003326
agre,0.001294
agreement,0.002620
aguli,0.004169
ah,0.005745
aham,0.003595
ahl,0.006877
ahlu,0.004026
ahm,0.027130
ahmad,0.019863
ahmadullah,0.008743
aid,0.001287
aikah,0.004515
aim,0.008579
ainsham,0.004515
ajmer,0.012509
aka,0.002339
akbar,0.003013
akhmet,0.004515
al,0.008833
alabb,0.004260
aladawiyya,0.013545
alala,0.004092
alan,0.001819
alansari,0.004260
alaqqa,0.004515
alarabi,0.003824
alawiyya,0.009030
alawliya,0.004515
alazhar,0.017194
albaghdadi,0.003545
albahr,0.004515
albania,0.005164
albarya,0.004515
albayan,0.003967
albidn,0.004515
album,0.002798
alburda,0.004260
albusiri,0.004371
alchemi,0.002596
alchirkavia,0.004515
aldabba,0.009030
aldhahab,0.009030
aldin,0.005515
alevi,0.003713
alfutuhat,0.004515
algeria,0.004839
algerian,0.002974
alghayb,0.004260
alghazali,0.018560
alhallaj,0.016371
alhanafiyyah,0.004515
alhaqqani,0.004371
alharam,0.008339
alharawi,0.009030
alhidayah,0.004260
alhikam,0.004371
alhussein,0.012509
ali,0.057449
alian,0.004515
alim,0.003622
alinsan,0.004515
alinsn,0.009030
aljunayd,0.004515
alkad,0.004515
alkamil,0.004169
alkarkhi,0.004515
alkawkib,0.004092
alkmil,0.009030
alkusajri,0.004515
allafi,0.004515
allah,0.030123
alleg,0.003549
allegi,0.016039
allegor,0.002878
allegori,0.002715
alli,0.004755
allow,0.004267
allse,0.004515
almahdi,0.003367
almahjb,0.004515
almakkiyya,0.004515
almarifa,0.004515
almasjid,0.003967
almawala,0.004515
almonitor,0.004515
almsgiv,0.003824
almuasabah,0.004515
almuhammadiyya,0.004515
almuhasibi,0.004515
almunqidh,0.004169
almurshid,0.004260
almusayyib,0.004515
alnajib,0.004371
alon,0.001467
alongsid,0.001785
alqadir,0.011603
alqaeda,0.002910
alqarani,0.004515
alqarni,0.013115
alqubrusi,0.004515
alqushayri,0.009030
alraqb,0.004515
alreadi,0.001250
alridha,0.003747
alrifai,0.004169
alright,0.004260
alrisala,0.004515
alrudhabari,0.004515
alsadiq,0.003967
alsafadiyya,0.004515
alsalaf,0.004515
alsaqati,0.004515
alsari,0.004371
alsayyida,0.009030
alshabab,0.009030
alsuhrawardi,0.004371
altafarrud,0.004515
altaubah,0.004515
altawakkul,0.004515
altawau,0.004515
altern,0.001102
altijani,0.009030
alulub,0.004515
alway,0.003462
alwujud,0.004092
alzuhd,0.004515
amad,0.003438
ambigu,0.002016
america,0.001202
american,0.001944
amir,0.008713
amman,0.006640
amo,0.002715
analhaqq,0.004515
anatolia,0.002582
ancient,0.001243
andor,0.001501
angha,0.027091
ani,0.009833
anim,0.001201
annabawi,0.004260
annemari,0.003824
annot,0.002350
announc,0.001441
annual,0.003955
anoth,0.004127
ansar,0.003290
anta,0.007830
antimaterialist,0.012278
antishia,0.004260
antisufi,0.004515
anuradha,0.003915
anyth,0.001696
aphor,0.002866
apolit,0.003065
apostasi,0.003103
appear,0.002982
appli,0.002752
appreci,0.001904
apprehens,0.002798
approach,0.006914
appropri,0.001375
approv,0.001474
approxim,0.002339
april,0.003939
aptitud,0.002924
aqidah,0.007935
aqqah,0.004371
arab,0.015852
arabi,0.038997
arba,0.004026
area,0.002557
argu,0.003425
argument,0.002884
arid,0.002503
ariqah,0.004515
arm,0.006842
arqah,0.021859
arrang,0.001399
arrest,0.011317
arriv,0.002763
arrog,0.002982
arson,0.003224
art,0.001313
articl,0.004080
artifact,0.002033
artisan,0.004735
aryan,0.003211
arziyan,0.004515
ascens,0.002729
ascet,0.002772
ascetic,0.009117
asceticchopra,0.004515
ashraf,0.003595
ashrafi,0.004515
ashshadhili,0.017487
ashshirwani,0.004515
asia,0.013263
asim,0.003967
aspect,0.010152
aspir,0.004315
assamasi,0.009030
assembl,0.001339
assenussi,0.016371
assert,0.004423
assist,0.001279
associ,0.004192
assum,0.001189
astonish,0.002787
atatrk,0.007000
ate,0.005515
atsayevalso,0.004515
atta,0.003784
attach,0.006499
attack,0.026292
attain,0.010424
attar,0.015470
attasawwuf,0.004515
attempt,0.001958
attent,0.005598
attest,0.004519
attijn,0.004515
attract,0.004143
attribut,0.009339
attun,0.003176
audienc,0.001937
auffah,0.004515
august,0.002608
aulia,0.004515
auliya,0.008339
authent,0.002174
author,0.008697
avail,0.002098
avoid,0.002564
awaken,0.002429
awar,0.003105
away,0.003922
awok,0.003713
awqaf,0.004026
axi,0.001968
axiomat,0.002363
azam,0.007735
azmayesh,0.004515
b,0.003410
ba,0.004567
bab,0.016922
baba,0.045983
babak,0.003867
babaziz,0.004515
babou,0.004260
badawiyya,0.004515
baghdad,0.028604
bagheri,0.004260
bahauddin,0.011603
bahu,0.004371
bahya,0.008052
bakhtiyar,0.003967
bakool,0.004515
bakr,0.012226
balkan,0.004869
balm,0.003867
balochistan,0.006735
bamba,0.004515
ban,0.012105
band,0.003732
bangladesh,0.009801
baqir,0.003622
bar,0.001940
barelvi,0.020464
bari,0.003030
bark,0.002664
base,0.005982
basic,0.001041
basra,0.009143
bastam,0.004515
bastami,0.030603
battl,0.001620
bawa,0.008339
bawaldin,0.004515
baya,0.004260
bayah,0.007735
bayazid,0.029188
baylor,0.003650
bbc,0.001952
bear,0.001606
beauti,0.001966
becam,0.006621
becaus,0.010906
becom,0.004970
bedtim,0.007935
befor,0.008838
began,0.010334
begin,0.003027
beginn,0.002752
behaviour,0.001595
behead,0.008901
bektash,0.008521
bektashi,0.019838
belief,0.013853
believ,0.021407
belong,0.004386
bemasoreth,0.004515
ben,0.006640
bench,0.002809
benefactor,0.003065
benefic,0.003133
bengali,0.006027
benghazi,0.003713
bensouda,0.004260
berber,0.002772
best,0.006843
bestow,0.002680
better,0.002334
bewilder,0.004026
biblic,0.002223
bibliographi,0.001505
bidah,0.004026
bilal,0.003650
bin,0.002386
birth,0.003049
birthday,0.005079
bittersweet,0.004092
black,0.001396
bless,0.007358
blew,0.003176
blow,0.002192
bo,0.002809
bodi,0.005192
bodili,0.002261
bolster,0.002503
bomb,0.021554
bomber,0.010385
book,0.009835
born,0.010233
borujerd,0.004515
bosnia,0.002629
boston,0.001908
boutchichi,0.013545
branch,0.012106
breath,0.004450
bridg,0.001709
brief,0.001640
bring,0.002573
british,0.002311
broad,0.001390
broadcast,0.002008
broadli,0.001732
broken,0.001725
brotherhood,0.013888
brought,0.005102
build,0.003285
bukhara,0.006526
bukhari,0.010785
bulent,0.004260
bulgaria,0.002345
bulla,0.003680
bulldoz,0.007044
burhaniyya,0.004515
buri,0.002046
burn,0.003548
burnt,0.002660
bypass,0.002400
c,0.002971
cairo,0.002599
calendar,0.002122
california,0.001587
caliph,0.016406
calligraphi,0.003211
came,0.004533
camel,0.002706
campaign,0.003111
canon,0.001882
canteen,0.004260
captur,0.001423
care,0.002604
cast,0.001760
castig,0.003595
caucasu,0.002530
caus,0.001850
ceas,0.001750
celebr,0.005359
celesti,0.004394
center,0.008844
centr,0.001425
central,0.005829
centuri,0.016021
ceremoni,0.009566
certain,0.001897
certainti,0.002187
chagigah,0.004515
chain,0.010839
chak,0.004169
chang,0.000781
channel,0.001711
chapel,0.002660
chapter,0.003230
charact,0.004297
character,0.002629
charg,0.002675
chart,0.003948
charttopp,0.004515
cheikh,0.003569
chief,0.004330
china,0.001331
chines,0.001489
chisht,0.013115
chishti,0.049115
chishtiyya,0.013115
chittick,0.013115
chodkiewicz,0.004169
choos,0.001491
chopra,0.003650
chosen,0.001583
christian,0.004029
circl,0.005010
circumst,0.001592
cite,0.004349
citi,0.013167
citizen,0.001418
civil,0.005945
clad,0.003263
claim,0.009469
clariti,0.002488
clash,0.010315
clashedsometim,0.004515
class,0.002299
classic,0.005726
claud,0.002245
clay,0.002213
clean,0.002029
cleans,0.002720
clear,0.001290
clearest,0.003093
cleric,0.007526
clinic,0.001807
cloak,0.015069
close,0.005565
closer,0.001715
closur,0.002238
cloth,0.003624
code,0.001341
codifi,0.002276
coeli,0.004515
cognit,0.001643
coincid,0.001864
coleman,0.002952
collabor,0.001592
collect,0.001011
colleg,0.001504
combat,0.003639
combin,0.001976
come,0.003965
command,0.004363
comment,0.001660
commentari,0.005995
commiss,0.001380
commit,0.004358
common,0.003352
commonli,0.003453
commun,0.005438
compani,0.001094
companion,0.001999
compar,0.002050
comparison,0.001453
compat,0.003977
compil,0.001788
complement,0.002044
complet,0.007659
complex,0.004057
complic,0.001571
compon,0.001193
compos,0.002630
composit,0.001437
comprehend,0.002455
comprehens,0.001526
compris,0.001418
comput,0.001148
concentr,0.002713
concept,0.005804
concern,0.001946
concis,0.002111
conclud,0.001417
condit,0.000970
conduct,0.001188
conduit,0.002803
confer,0.002729
confess,0.002517
confin,0.001861
confisc,0.002434
conflict,0.001291
conform,0.001913
confront,0.001915
confus,0.001560
congeni,0.006917
conjectur,0.002189
connect,0.005707
conscious,0.003531
consensu,0.003458
consequ,0.001178
consid,0.013744
consider,0.001165
consist,0.001855
constantli,0.001932
constitut,0.001094
constraint,0.001721
contain,0.000994
contempl,0.004786
contemporari,0.005424
contempt,0.002878
contend,0.001998
content,0.001367
context,0.001219
contin,0.003572
continu,0.007560
contradict,0.001851
contrari,0.003625
contrast,0.002342
contribut,0.003052
control,0.002763
controversi,0.001366
convers,0.002860
convert,0.001413
convey,0.004186
convict,0.002009
convinc,0.001845
corpor,0.001360
correct,0.002792
correspond,0.002517
corrupt,0.003404
cosmolog,0.002026
countercultur,0.002997
countri,0.007298
cours,0.003624
court,0.002629
cousin,0.002279
cover,0.001141
covert,0.002757
crazi,0.003133
creat,0.005087
creation,0.005047
creatur,0.004228
credit,0.002683
creed,0.008017
crime,0.001720
crimin,0.003512
critic,0.003059
critiqu,0.001761
crosswis,0.004260
crucial,0.003375
cruel,0.002762
crystal,0.003889
culmin,0.001836
cultur,0.011466
currenc,0.001519
current,0.005325
custodi,0.002738
custom,0.001401
customari,0.002310
cut,0.001471
cypru,0.002310
cyrenaica,0.007190
cyril,0.002767
d,0.006733
dagestan,0.010375
daili,0.001621
damag,0.004488
danc,0.013340
dastag,0.004515
data,0.002212
daughter,0.001902
david,0.002463
day,0.005230
dead,0.006952
deal,0.003350
death,0.004856
debat,0.001290
decemb,0.007633
decis,0.001168
declin,0.002632
dede,0.003824
dedic,0.001665
deed,0.002404
deem,0.001876
defend,0.001551
defi,0.002621
defin,0.006660
definit,0.003288
degre,0.004541
deiti,0.002218
delhi,0.007179
deliber,0.001855
demand,0.001237
democraci,0.001544
democrat,0.001358
demolish,0.005745
den,0.002485
deni,0.001607
denot,0.001691
denounc,0.006736
deobandi,0.012278
depart,0.002431
depict,0.001729
depriv,0.004453
depth,0.001820
deput,0.003402
deputi,0.001856
dera,0.003967
deriv,0.003162
dervish,0.033845
dervishesin,0.004515
descend,0.010068
describ,0.007679
descript,0.002534
desecr,0.013107
desert,0.001971
desir,0.009133
destin,0.003880
destroy,0.018846
destruct,0.009844
detach,0.002256
detent,0.005320
develop,0.004160
devic,0.003098
devot,0.022942
devote,0.005980
devout,0.002885
dhikr,0.074262
dhikrequlb,0.004515
diagnos,0.002245
dialogu,0.001935
dictat,0.001982
did,0.005145
die,0.019925
differ,0.008084
differenti,0.001403
dimens,0.007975
dine,0.002897
dir,0.003713
direct,0.010126
directli,0.006683
director,0.003333
disapprov,0.005199
discipl,0.020852
disciplin,0.003832
discours,0.003796
discrimin,0.001925
discuss,0.003393
dismemb,0.003438
dismiss,0.001847
dispens,0.002412
display,0.004726
disregard,0.002393
distinct,0.006406
distinctli,0.002533
distribut,0.001143
district,0.003353
divers,0.001333
divid,0.002198
divin,0.035034
djezairi,0.004515
dmoz,0.001836
doctrin,0.018288
doe,0.003752
doi,0.001835
domain,0.006770
domin,0.005704
donkeycart,0.004515
dont,0.001937
doubl,0.001534
doubt,0.001789
dozen,0.005817
dr,0.008600
drastic,0.002075
draw,0.009948
dream,0.008006
dress,0.002302
driven,0.001613
drown,0.002762
durbar,0.004515
dure,0.007980
durke,0.004515
duti,0.003299
dynasti,0.001802
earli,0.015861
earlier,0.002466
earth,0.002620
east,0.002566
eat,0.003895
eckhart,0.003500
eclips,0.002236
econom,0.000913
economist,0.001567
ecstasi,0.006246
ecstat,0.010102
eddin,0.003967
educ,0.003189
effect,0.004054
effort,0.002311
efo,0.004169
ego,0.007993
egoself,0.004515
egypt,0.012338
egyptian,0.001881
eighteen,0.002477
el,0.004013
elabor,0.003473
element,0.005307
eleventhcenturi,0.004092
elif,0.004515
elrifai,0.004515
els,0.001718
eltayeb,0.008185
embark,0.002345
embodi,0.001929
embrac,0.007531
emerg,0.003209
emin,0.007123
emir,0.004758
emot,0.001714
emphas,0.004394
emphasi,0.006055
empir,0.001164
emul,0.004786
encompass,0.001562
encroach,0.002572
encyclopedia,0.001437
end,0.000912
endeavor,0.002200
endow,0.008456
endpoint,0.002860
energi,0.001168
engag,0.003965
england,0.001448
english,0.002324
englishspeak,0.002287
engulf,0.002952
enhanc,0.001545
enlarg,0.002131
enlighten,0.001822
entail,0.001947
enter,0.002440
entir,0.001082
entiti,0.001416
entitl,0.001723
entri,0.001614
entrust,0.002664
envi,0.002809
eponym,0.002702
equip,0.001492
er,0.002636
era,0.001318
erron,0.002390
esoter,0.007657
especi,0.010661
essay,0.001617
essenc,0.007541
essenceallhand,0.004515
essenti,0.005801
establish,0.008016
estim,0.001174
ethic,0.009217
ethicomyst,0.004515
ethiopia,0.002361
etho,0.002787
etymolog,0.001776
europ,0.003395
european,0.001039
evacu,0.002281
eventu,0.001186
everi,0.004177
everlast,0.003113
evid,0.002276
evil,0.002030
exampl,0.003737
excel,0.001805
exclud,0.001570
exemplar,0.002885
exemplifi,0.004252
exercis,0.005736
exhum,0.003478
exil,0.003812
exist,0.011619
existenti,0.002261
exoter,0.006610
expens,0.001490
experi,0.005131
experienc,0.001498
expert,0.003297
explain,0.003370
explan,0.002938
explic,0.002738
explor,0.001271
explos,0.003700
expon,0.004735
express,0.005407
expressli,0.002640
expropri,0.002787
exsoviet,0.003650
extant,0.002208
extend,0.001100
extens,0.005635
exterior,0.002466
extern,0.000652
extract,0.001606
extrem,0.003591
extremist,0.008443
eye,0.006674
eyeth,0.004169
f,0.007376
fact,0.006358
factor,0.001058
faculti,0.005783
faith,0.018354
fakir,0.004026
fallaci,0.002372
fals,0.003385
famili,0.003467
famou,0.012409
famous,0.002167
fana,0.004092
fanatic,0.003458
far,0.003395
farai,0.004260
fardiya,0.004515
farid,0.009960
fariddudin,0.004515
fariduddin,0.004169
fascin,0.002488
fast,0.005125
fasten,0.003143
fatal,0.002169
fateh,0.003915
fatehpur,0.009030
father,0.001467
fatou,0.003747
fatwa,0.007000
favor,0.002757
favour,0.001641
fawzi,0.004260
faya,0.003784
fear,0.001566
februari,0.005424
feder,0.001328
feel,0.001560
feldheim,0.004260
fellow,0.001887
festiv,0.004145
fez,0.006376
field,0.001822
figur,0.003708
file,0.001863
filib,0.004515
film,0.008464
filmi,0.004092
financi,0.001191
finest,0.002640
fiqh,0.006309
firmli,0.002181
fit,0.001519
fitra,0.004026
fitzpatrick,0.003123
fivehundr,0.004026
fiveyear,0.002032
flautist,0.004260
flee,0.002140
flexibl,0.001847
flog,0.003545
flourish,0.003673
flow,0.001314
flu,0.002990
flute,0.003047
focu,0.001224
focus,0.003485
folk,0.006472
follow,0.024274
followup,0.002648
fomul,0.004371
food,0.001284
foot,0.001939
forbid,0.002400
forbidden,0.002206
forc,0.005367
foremost,0.004662
form,0.009551
formal,0.003350
forth,0.001814
forti,0.002228
forum,0.001833
foster,0.001908
foundat,0.002327
founder,0.010950
fourth,0.003114
frager,0.007735
freedom,0.001408
french,0.001201
fudayl,0.004515
fulfil,0.005414
fulli,0.002691
fundament,0.002285
furthermor,0.006117
fusu,0.004515
futuh,0.004026
gaber,0.004515
gaddafi,0.003199
gain,0.003257
galleri,0.002295
gamal,0.003143
gamard,0.004515
gambia,0.002891
ganj,0.008339
gao,0.002967
garb,0.003595
garden,0.001996
garment,0.002702
gate,0.008642
gather,0.006223
gausul,0.009030
gave,0.003896
gedo,0.004515
gener,0.007054
genocid,0.002414
genr,0.004214
geograph,0.001451
georg,0.001286
georgia,0.002133
germani,0.001343
ghader,0.004515
gharb,0.003867
ghazali,0.007361
ghazi,0.010709
ghori,0.003967
gift,0.002014
gilani,0.043067
given,0.007161
glass,0.001967
glimps,0.002945
gln,0.003747
globe,0.002032
goal,0.003682
god,0.090603
godhead,0.003290
godintox,0.003967
godla,0.009030
godwari,0.004515
golden,0.007234
gomaa,0.004260
gonabadi,0.018061
good,0.003969
govern,0.011033
grace,0.004704
gradual,0.001434
grand,0.006934
granddaught,0.003335
grandson,0.002500
grant,0.001368
grasp,0.002226
grate,0.002967
gratitud,0.002860
grave,0.006526
great,0.009053
greatest,0.004711
greatli,0.002923
greec,0.001687
grenad,0.003211
grew,0.001491
ground,0.003896
groundwork,0.002521
group,0.012076
grow,0.001144
growth,0.002259
grudg,0.003351
guardian,0.002205
guid,0.012619
guidanc,0.012074
guidelin,0.001979
gunon,0.007830
gurdjieff,0.003967
gurdjieffian,0.004515
ha,0.023805
habit,0.001892
hadith,0.017056
hadj,0.003650
haf,0.004026
haider,0.003622
hair,0.002125
haji,0.006353
hajwari,0.004515
halebabot,0.004515
half,0.001228
hall,0.005080
hamadani,0.007426
hammaaq,0.004515
hammad,0.012509
hammaspiq,0.004515
hamza,0.007301
hanafi,0.009872
hanbali,0.020012
hand,0.005529
hang,0.002390
hani,0.003824
happerishuth,0.004515
happi,0.001973
haqiqa,0.004026
haqqnyy,0.009030
haraam,0.003713
harass,0.002427
hard,0.001464
hardlin,0.003039
harith,0.003915
harm,0.001720
harmonis,0.003039
hasan,0.013965
hasid,0.006499
hat,0.002497
hawdiyya,0.004515
hazarkhwani,0.004515
hazrat,0.015870
head,0.006913
headquart,0.001977
heal,0.002187
healer,0.005890
health,0.001244
healthcar,0.002102
hear,0.003764
heart,0.037678
heartbeat,0.003290
heaven,0.002137
heavi,0.003085
heavili,0.002877
hebrew,0.002240
held,0.006331
hell,0.004927
help,0.002931
henc,0.001392
herat,0.003438
heresi,0.002685
heret,0.005164
hermet,0.003123
herzegovina,0.002772
hfz,0.004515
hi,0.069622
hideou,0.003569
high,0.006326
higher,0.001061
highest,0.001366
highli,0.001174
highlight,0.001837
hikmet,0.004515
hilmi,0.009030
hinduism,0.004292
histor,0.010025
histori,0.004460
hithbonen,0.004515
hizb,0.006610
hold,0.005375
holi,0.009448
hope,0.007598
hospic,0.009339
hossein,0.006499
hous,0.001197
howev,0.005070
hrka,0.004515
hujwiri,0.013545
human,0.012038
humanismnondogmat,0.004515
hundr,0.002712
hundredpag,0.004515
hunger,0.002455
hunwick,0.004260
hurufi,0.004092
husband,0.002325
ia,0.002787
ibid,0.003478
ibn,0.060232
ibrahim,0.010471
idea,0.003005
identifi,0.001078
ideolog,0.001685
idri,0.016121
idriss,0.003622
ihsan,0.007935
ii,0.001168
ikhwanwebcom,0.004515
ila,0.007000
ilah,0.003867
ilahinama,0.004515
illtreat,0.003367
illumin,0.002096
imag,0.002748
imagemak,0.004092
imam,0.038539
iman,0.003478
imit,0.002111
immedi,0.001311
impedi,0.002772
imperi,0.001738
import,0.008373
impoverish,0.002517
imprison,0.002122
improv,0.001098
impuls,0.002287
impur,0.002596
inayat,0.007735
incens,0.003039
inclin,0.002208
includ,0.011771
incompat,0.002274
incorpor,0.001225
increas,0.001716
incred,0.002552
indescrib,0.003500
index,0.001417
india,0.012297
indian,0.005909
indic,0.002195
indirect,0.001939
individu,0.000920
inerrantli,0.004515
inflict,0.002429
influenc,0.013762
influenti,0.007177
inform,0.000887
inherit,0.001655
initi,0.004848
injunct,0.002904
injur,0.031687
injuri,0.001978
inner,0.005382
innov,0.003091
innumer,0.002866
inop,0.003595
insepar,0.002660
insight,0.003311
inspir,0.005906
instanc,0.003626
instead,0.002090
instinct,0.002361
institut,0.003777
institution,0.002358
instruct,0.008401
instructor,0.002680
instrument,0.002748
insuffici,0.002023
integr,0.005385
intellect,0.002393
intellectu,0.004593
intellig,0.001392
intend,0.001381
intens,0.001482
intensif,0.002997
intensifi,0.002187
intent,0.001501
interact,0.001113
interced,0.003351
intercess,0.003420
interchang,0.002042
intercultur,0.003224
interdepend,0.002240
interior,0.003503
intern,0.008603
internet,0.001464
interpret,0.005953
interreligi,0.003595
intim,0.002233
intoler,0.002599
intox,0.003047
intrins,0.001889
introduc,0.004187
intuit,0.005729
invent,0.001452
investig,0.001250
invis,0.002178
invoc,0.003047
involv,0.000865
inward,0.007637
inwardli,0.003500
iqquim,0.004515
iran,0.020246
iranian,0.004501
iraq,0.005991
irina,0.007494
isbn,0.011605
isfahan,0.006309
ishaq,0.003276
ishq,0.004026
isi,0.002648
islam,0.200574
islamhowev,0.004515
islamist,0.013383
island,0.001322
ismail,0.005555
issu,0.002873
istanbul,0.005545
itiner,0.003074
ivan,0.002400
iyad,0.004092
iyya,0.004515
jaana,0.004515
jadhba,0.004515
jafar,0.006399
jahri,0.004515
jalal,0.007090
jalluddn,0.004371
jamaat,0.003650
jame,0.001258
jami,0.006287
jamshid,0.003680
janissari,0.003522
januari,0.005094
javad,0.008052
jeddah,0.003420
jee,0.004260
jenkin,0.002878
jeremiah,0.003143
jerrahi,0.009030
jerusalem,0.002386
jew,0.002098
jewel,0.005404
jewish,0.014801
jewishsufi,0.009030
jhal,0.004515
jihad,0.002848
job,0.001541
jodhaa,0.004515
john,0.002030
join,0.001327
joshua,0.002511
journal,0.004591
journalist,0.002100
journey,0.002074
jstor,0.002245
judah,0.002997
judaism,0.006404
judeoarab,0.004026
judg,0.004944
judgmentsufi,0.004515
judici,0.001713
juli,0.006445
julia,0.002668
juma,0.003680
junaidia,0.004515
junayd,0.025018
june,0.005201
junoon,0.004515
jurisprud,0.005006
jurist,0.015797
kaki,0.004515
kalimat,0.004371
karachi,0.006399
karaj,0.004371
karamat,0.004260
kashf,0.004371
kashgar,0.003824
kashmir,0.005629
kashmiri,0.003478
kate,0.002872
kazi,0.003867
keller,0.002982
kemal,0.003290
key,0.001135
khadim,0.004515
khaldun,0.002803
khalid,0.003074
khalwati,0.009030
khan,0.011614
khanqah,0.012509
khawaja,0.004169
khayr,0.003867
khemir,0.004515
khlidyy,0.009030
khoja,0.009030
khwaja,0.011353
ki,0.002967
kianfar,0.013545
kibrawiya,0.004515
kidal,0.003967
kidnap,0.005066
kifyah,0.004371
kill,0.033886
kilometr,0.002069
kimiyayi,0.004260
kind,0.002377
king,0.001421
kinki,0.003967
kish,0.003420
kitab,0.002798
kitb,0.003320
kitchen,0.005477
know,0.008113
knowledg,0.012347
known,0.017151
kosovo,0.002514
kubra,0.012278
kubrawiya,0.021859
kulob,0.004515
kun,0.006957
labaf,0.004515
labisalsuf,0.004515
lack,0.001137
laetril,0.004026
lahor,0.015565
laid,0.001684
lak,0.003784
lal,0.003143
lalan,0.004515
landscap,0.001860
languag,0.004486
larg,0.004718
largest,0.002464
lash,0.003249
lashkareislam,0.004515
lashkarejhangvi,0.009030
lataifesitta,0.004169
late,0.004132
later,0.005324
latif,0.003747
law,0.013483
lawb,0.004515
laweven,0.004515
lawwhat,0.004515
lawyer,0.002165
layer,0.001717
lead,0.005341
leader,0.014352
leaderlik,0.004515
leadership,0.004856
leadersnot,0.004515
learn,0.003760
leav,0.003790
lectur,0.001622
led,0.005778
left,0.004757
legaci,0.003752
legal,0.002462
legisl,0.001366
legitim,0.001853
lengthi,0.004654
lesson,0.006283
levant,0.002514
level,0.003569
lexic,0.002842
liber,0.002690
librari,0.001401
libya,0.014127
libyan,0.011050
lie,0.001461
life,0.013428
light,0.006150
like,0.007969
liken,0.002640
likewis,0.005301
lineag,0.015459
linguist,0.001754
link,0.003244
list,0.002489
listen,0.004214
litani,0.003478
literatur,0.003999
littlefield,0.002848
live,0.006753
lj,0.003351
llewellyn,0.006149
local,0.003031
locat,0.001097
lodg,0.007599
london,0.001256
long,0.007750
longtim,0.002542
look,0.001231
lord,0.001765
loreena,0.004515
lost,0.001296
love,0.030113
low,0.001143
lower,0.004410
lowest,0.001774
maarifah,0.004515
macedonia,0.002599
mad,0.002432
madariya,0.004515
madhhab,0.003522
madhi,0.004515
madonna,0.007190
magazin,0.001727
magh,0.004515
maghsoud,0.009030
magic,0.006241
magsi,0.004515
maimon,0.004169
maimonid,0.008363
maimonidean,0.008521
maimuni,0.018061
main,0.001889
mainli,0.001238
mainstream,0.010864
maintain,0.008323
maizbhandari,0.036122
maizbhanderi,0.009030
majali,0.004515
majlisi,0.008339
majlision,0.004515
major,0.008707
make,0.004552
maker,0.004116
makhzoomi,0.008339
maladi,0.003276
malang,0.004260
mali,0.005042
maliki,0.006640
man,0.010560
mani,0.014161
manifest,0.008582
manifold,0.002337
mankind,0.002153
manner,0.002879
mannheim,0.003420
mansur,0.009599
mantl,0.002524
manual,0.003769
maqaam,0.004260
maqsd,0.004515
march,0.008660
mark,0.001197
marku,0.002997
marriag,0.001886
maruf,0.003967
marufiyyah,0.004371
marvi,0.004092
marzouq,0.004515
mask,0.002365
massiv,0.001587
master,0.027069
matani,0.004515
materi,0.003136
matlbmi,0.004515
matter,0.003366
matthij,0.004260
mausoleum,0.009530
mawla,0.004371
mawlawiyya,0.004515
mawlid,0.009030
mback,0.009030
mckennitt,0.004515
mean,0.017255
meant,0.001530
mecca,0.008273
media,0.001368
mediev,0.004774
medina,0.002820
medit,0.009068
meet,0.003621
meher,0.003595
meister,0.003320
member,0.005711
membership,0.001643
memorandum,0.002636
men,0.004150
mend,0.002866
mental,0.001614
mention,0.001444
mercan,0.004260
merci,0.002582
mere,0.001467
merit,0.002129
messag,0.003708
met,0.001525
metaphor,0.002098
metaphys,0.001908
method,0.003696
mevlevi,0.028650
mevlna,0.004515
mewithouty,0.004515
mi,0.001881
mian,0.004169
michael,0.001373
michel,0.002045
middl,0.002460
mile,0.001734
milit,0.011656
millennium,0.003724
million,0.001171
mim,0.003351
minaldal,0.004515
mind,0.001407
mindassert,0.004515
minist,0.001346
ministri,0.003208
miracl,0.004658
miraj,0.003967
mirror,0.004029
mission,0.001487
mix,0.001435
mixedgend,0.004260
moder,0.008546
modern,0.010739
mohammad,0.002702
mohiuddin,0.004026
moinuddin,0.031741
momen,0.004026
moment,0.003394
monarchi,0.001912
monast,0.005157
monasteri,0.002267
monastic,0.009224
mongol,0.004687
monotheist,0.002648
monsieur,0.003438
month,0.002636
moojan,0.004260
moon,0.001942
moor,0.002013
moral,0.004477
morn,0.002167
moroccan,0.002777
morocco,0.011805
mose,0.002434
mosqu,0.032852
mostafa,0.003967
mostli,0.001272
motiv,0.004372
moulay,0.003650
moulid,0.004515
mourid,0.004092
mout,0.004515
movement,0.004115
mto,0.004092
muammar,0.003249
mubarak,0.006226
muflaa,0.004515
mufti,0.006423
muhaiyaddeen,0.009030
muhammad,0.184313
muhyiddin,0.004515
mujaddidi,0.004515
mujaddidia,0.009030
multan,0.003713
multipl,0.001147
muraqaba,0.015870
murd,0.009030
murder,0.001894
murdn,0.004515
murid,0.004026
muridiyya,0.004515
murshid,0.003915
music,0.019677
musician,0.005206
muslim,0.066743
mustaba,0.004515
mustafa,0.002959
mutual,0.001573
muzaff,0.004515
muzaffar,0.004092
mysteri,0.001969
mystic,0.050610
mysticalascet,0.004260
nacer,0.004515
nader,0.003165
nadjm,0.004515
naeemi,0.004515
naf,0.014088
nahid,0.009030
naif,0.004515
najmiya,0.009030
najmuddin,0.008743
naqashbandia,0.004515
naqshband,0.012079
naqshbandi,0.072475
naqshbandia,0.008339
naqshbandiah,0.004515
naqshbandiyya,0.013545
narcot,0.002752
narrat,0.002480
narrow,0.001684
nasir,0.002982
nasr,0.006149
nation,0.004960
nativ,0.001542
natur,0.003186
nawz,0.004515
nazar,0.003747
nazim,0.007494
nazrul,0.003747
near,0.004906
nearer,0.002787
nearli,0.002599
necess,0.001869
necessari,0.004756
necessarili,0.001460
need,0.000896
negoti,0.001561
nematollahi,0.013545
neoplaton,0.002596
neosuf,0.009030
neosufi,0.018061
nephew,0.002497
network,0.001247
new,0.001999
news,0.001628
ney,0.003784
nichola,0.002006
night,0.001830
nile,0.002414
nimatullah,0.004371
nimatullahi,0.004371
nimatullh,0.022576
ninth,0.002335
nishapur,0.011472
nishtar,0.009030
nizamuddin,0.009030
nonislam,0.007190
nonmuslim,0.008005
nonprofit,0.002151
nonviol,0.002572
noorani,0.004260
noorbakhshia,0.004515
noorbakshia,0.004371
nooruddeen,0.004515
norm,0.005191
north,0.001184
noshahi,0.004515
notabl,0.006869
note,0.000860
noteworthi,0.007563
noth,0.004736
notion,0.001411
noura,0.004515
novel,0.001651
novemb,0.006690
nowshera,0.004515
nubakshia,0.004515
nuh,0.003867
number,0.006717
numer,0.003316
nur,0.003176
nurbakhsh,0.013115
nurbakshi,0.008743
nursi,0.004515
nusrat,0.004092
o,0.006293
obadyah,0.009030
obedi,0.007799
object,0.002039
obligatori,0.005596
obscur,0.002066
observ,0.002954
obtain,0.002319
occas,0.001855
occur,0.002843
octob,0.005160
odd,0.002104
offici,0.006796
offshoot,0.007957
old,0.001234
oldest,0.001613
omar,0.005035
omer,0.003915
omnipres,0.002924
oneself,0.002335
oneworld,0.003545
ongo,0.001632
onli,0.006181
onlin,0.001305
onward,0.001891
open,0.003064
openli,0.002259
oper,0.000941
opinion,0.001585
oppos,0.007481
opposit,0.001227
orbit,0.001892
order,0.109351
orderha,0.004515
orderiran,0.004515
orderscongreg,0.004515
orderssuch,0.004515
ordin,0.002200
organ,0.003255
organis,0.007062
orientalist,0.010375
origin,0.014056
orthodox,0.010045
orthodoxi,0.007500
oscarwin,0.004026
ostens,0.002417
ostent,0.004092
ottoman,0.008440
ought,0.002141
outer,0.001906
outlaw,0.002395
outlin,0.001452
outloud,0.004515
outrag,0.002568
outright,0.002310
outsid,0.009105
outward,0.009188
overcom,0.001832
overt,0.002733
oveyssi,0.004515
ovot,0.004515
owaisi,0.018061
oxford,0.001401
ozak,0.004515
p,0.003416
paid,0.001521
pakistan,0.034670
pakistani,0.010844
pakpattan,0.009030
pale,0.002897
pani,0.003569
paper,0.001231
paquda,0.008339
parabl,0.002924
paradis,0.008017
paradiseaft,0.004515
park,0.003487
partial,0.001372
particular,0.000933
particularli,0.003138
partli,0.001604
parveen,0.004260
pashto,0.003680
pass,0.004636
passion,0.002240
past,0.002367
path,0.021178
pathway,0.002003
patienc,0.003039
patronym,0.003713
pattern,0.003818
paulist,0.003784
pay,0.002785
peac,0.005755
peopl,0.013984
perceiv,0.001500
percept,0.006352
perenni,0.002558
perfect,0.018336
perform,0.004195
period,0.005319
permeat,0.002685
permit,0.003039
perpetr,0.002617
perplex,0.003074
persecut,0.006451
persia,0.004443
persian,0.013121
person,0.014644
persona,0.002910
perspect,0.004005
pertain,0.004126
perushim,0.004260
peshawar,0.017292
peshwar,0.004169
phenomenon,0.001536
philip,0.001833
philosoph,0.002619
philosopherulama,0.004515
philosophi,0.007621
photo,0.002308
photograph,0.002053
physic,0.004881
physician,0.001882
pieti,0.002757
pietism,0.003569
pietist,0.003747
pilgrim,0.002656
pilgrimag,0.005258
pillar,0.002261
pinza,0.004515
piou,0.005919
pir,0.023348
piran,0.003915
place,0.005906
plan,0.001129
planet,0.001692
plant,0.001295
play,0.003231
pleas,0.002259
pleasur,0.002218
pledg,0.014808
plural,0.001918
pluralist,0.002555
poem,0.008808
poet,0.022694
poetic,0.002400
poetri,0.006244
point,0.003461
pole,0.002066
polic,0.008296
polit,0.002809
polytheist,0.002872
pool,0.001953
poolan,0.004515
poor,0.005900
poorer,0.002437
popul,0.002123
popular,0.010674
portion,0.001499
posit,0.001768
possessioncharg,0.004515
possibl,0.003490
potenti,0.001107
power,0.005253
practic,0.043937
practis,0.002250
practition,0.007182
prais,0.006001
prakashan,0.003747
pray,0.002660
prayer,0.022543
preach,0.009769
preacher,0.002878
preced,0.001620
precept,0.005353
precis,0.002818
preclud,0.002452
precondit,0.002660
predat,0.001899
predict,0.001251
predilect,0.003522
preoccup,0.002809
prerequisit,0.004949
prescrib,0.014624
prescript,0.002254
presenc,0.005175
present,0.005132
presentday,0.005764
preserv,0.001442
press,0.002013
pressur,0.005151
prevent,0.002446
previou,0.002580
previous,0.001304
price,0.001266
pride,0.002354
primaci,0.002555
primari,0.002258
primarili,0.003508
prime,0.002749
primordi,0.002404
princip,0.005345
principl,0.004108
prior,0.002584
prison,0.003631
privat,0.001226
probabl,0.001227
proceed,0.001565
process,0.000808
proclaim,0.001935
procliv,0.003263
produc,0.001780
profess,0.001787
professor,0.003058
progress,0.001166
prohibit,0.003491
promin,0.008049
promot,0.002440
prompt,0.001872
proof,0.006977
propag,0.003812
proper,0.003069
properti,0.001035
prophet,0.056139
propos,0.002111
prosecutor,0.002706
prospect,0.001818
prosuf,0.004515
protect,0.003420
protest,0.003179
proven,0.001807
provid,0.001518
provinc,0.003163
pseudosuf,0.004515
psycholog,0.005833
psychologist,0.001960
public,0.004308
publicli,0.003661
publish,0.010445
pull,0.001963
punjab,0.008993
pure,0.004058
purg,0.002393
purif,0.010000
purifi,0.007304
puritan,0.002793
puriti,0.007266
purpos,0.002225
pursu,0.001555
pursuit,0.003857
purveyor,0.003747
qadat,0.004515
qadi,0.003569
qadiri,0.025018
qadiria,0.004515
qadiriyya,0.025563
qadiriyyah,0.007935
qadri,0.012079
qahistani,0.004371
qaland,0.004515
qalandar,0.007935
qalandariyya,0.009030
qalb,0.004026
qanun,0.004260
qassem,0.004260
qawwali,0.008521
qhaderi,0.004515
qom,0.003824
qualiti,0.002549
quarter,0.001779
qudsi,0.003824
quest,0.002154
quot,0.005369
quran,0.042163
qutb,0.013405
r,0.004579
rabbi,0.008528
rabia,0.016105
rafiullah,0.004515
rahimi,0.003867
rahman,0.008693
rajma,0.009030
rakhel,0.004515
ramadan,0.003249
rana,0.006804
rand,0.002530
rang,0.002054
rank,0.001444
rashid,0.009224
rauf,0.003680
rawalpindi,0.003595
raze,0.003199
reach,0.006616
reaction,0.002782
read,0.001884
reader,0.001850
readi,0.003988
realiti,0.001475
reason,0.002921
reborn,0.003065
recant,0.006473
receiv,0.006219
recent,0.005637
recept,0.002147
recipi,0.002094
recit,0.014864
reclus,0.003276
recogn,0.008144
recognit,0.001487
recondit,0.003747
record,0.003431
recours,0.002689
reed,0.002578
reemerg,0.002636
refer,0.008681
reform,0.001327
refus,0.004750
regard,0.015614
region,0.004858
regular,0.002973
rehman,0.007568
reject,0.005350
relat,0.002926
relationship,0.004142
releas,0.004068
relentless,0.003113
relianc,0.002175
relic,0.002702
religi,0.029106
religion,0.017965
religiouspolit,0.004371
remain,0.007179
remark,0.001664
remedi,0.002146
remembr,0.015238
remiss,0.003276
remot,0.001836
remotecontrol,0.004026
remov,0.001252
ren,0.004252
renew,0.001586
renounc,0.002437
renown,0.009259
reorgan,0.002268
reorient,0.002836
repar,0.002706
repeat,0.001566
repent,0.002990
repetit,0.004426
replac,0.001105
report,0.009385
reportedli,0.004309
repres,0.008010
republ,0.002546
republican,0.001938
reputedli,0.003165
requir,0.003416
research,0.001760
resid,0.002875
resist,0.004218
resort,0.004027
respect,0.002063
respons,0.001882
rest,0.001271
restor,0.001534
result,0.000755
resurg,0.002320
retreat,0.004191
return,0.003294
rever,0.012110
reviv,0.005173
revolut,0.004032
revolv,0.002211
richard,0.001340
rifai,0.013545
rifaiyya,0.004515
right,0.003894
righteou,0.002952
rightli,0.002910
rigor,0.001827
risalei,0.004515
rise,0.007643
risen,0.002285
rishia,0.004515
risla,0.004371
ritual,0.014164
riyaz,0.004515
riyaziya,0.009030
rmsufism,0.004515
road,0.001576
robert,0.001193
rock,0.006796
rocket,0.002304
rockstar,0.004260
role,0.004752
rolemodel,0.004515
root,0.006853
rough,0.002151
routledg,0.003867
rowman,0.002924
rqb,0.004515
ruh,0.007735
rule,0.008914
ruler,0.001812
rumi,0.043998
run,0.001192
rural,0.001754
russia,0.003189
russian,0.001588
ruwaym,0.004515
s,0.001539
saadi,0.007044
sacr,0.004155
sadat,0.003249
sadegh,0.004515
sadeq,0.004169
saeed,0.013915
safavid,0.003022
safaviyya,0.004260
sage,0.002138
sahaba,0.015137
sahib,0.003154
sahurwardia,0.004515
said,0.017837
saidulauliya,0.009030
saieen,0.004515
saifiah,0.004515
saint,0.030844
sake,0.002267
sakhi,0.004371
saladin,0.003236
salaf,0.011903
salafi,0.023240
salafist,0.003824
salaheddin,0.004515
salasa,0.004515
salik,0.004260
salvat,0.002343
sama,0.003478
samiullah,0.004515
sanam,0.004515
sanctiti,0.009496
sanctuari,0.002724
sang,0.003113
sarfraz,0.004515
sarwar,0.004092
sarwari,0.017042
sat,0.002568
satan,0.002748
save,0.001540
say,0.009404
sayyid,0.009830
sayyidut,0.004515
schimmel,0.003784
schmidl,0.004515
schmidt,0.002648
scholar,0.041338
scholarli,0.003841
scholarship,0.001940
school,0.013247
scienc,0.005475
scientist,0.001240
score,0.001988
seal,0.004069
seclus,0.003402
second,0.001781
secondclass,0.003188
secondli,0.002386
secret,0.005022
sect,0.006817
section,0.004033
secular,0.003755
secur,0.003458
seek,0.007305
seeker,0.051065
seen,0.008517
sefer,0.003867
sehwan,0.004515
seiz,0.003730
select,0.001179
self,0.009323
selfcontrol,0.002878
selfdiagnos,0.004092
selfdisciplin,0.003402
selfdisclosur,0.003824
selfdiscoveri,0.003622
sell,0.001534
sema,0.024158
semazen,0.022576
semit,0.002872
seneg,0.018274
sens,0.003349
sentenc,0.001854
senussi,0.019121
septemb,0.003925
sequenti,0.002350
seri,0.001080
sermon,0.005440
serv,0.009720
servant,0.008367
servanthood,0.004515
servic,0.001057
session,0.004128
settl,0.003084
seven,0.004271
seventyeight,0.004169
sever,0.010234
sew,0.003093
sey,0.009030
seyyedeh,0.004260
shadhili,0.017487
shadhiliyya,0.017487
shadiliyya,0.013545
shafii,0.003420
shah,0.042703
shahab,0.003713
shahbaz,0.008052
shahbuddin,0.004260
shahmaghsoudi,0.004515
shahmiri,0.004515
shaivin,0.004515
shakar,0.004515
shakkar,0.004515
shakoor,0.004515
shall,0.001980
sham,0.006027
shami,0.008185
shamil,0.003915
sharia,0.021380
shariah,0.009635
sharif,0.002990
shaykh,0.036357
sheikh,0.032750
shergil,0.004260
shia,0.023059
shii,0.014488
shiism,0.003545
shiit,0.003083
shine,0.002562
shirazi,0.003335
shirk,0.003335
short,0.001156
shortcom,0.002530
shortli,0.001688
shot,0.002110
shrine,0.104229
shroud,0.003154
shun,0.002793
shut,0.002267
shuyukh,0.004515
sidi,0.009749
sight,0.002013
sign,0.004973
signifi,0.004378
significantli,0.001392
sikk,0.004515
silenc,0.002419
silent,0.004498
silistrev,0.004515
silsila,0.011903
silsilah,0.004026
silsilat,0.008521
similar,0.003606
simpl,0.002399
simpli,0.001232
simultan,0.001582
sin,0.004294
sinc,0.003775
sincer,0.002825
sindh,0.003199
sing,0.005000
singer,0.009688
singersongwrit,0.003569
singl,0.002021
singular,0.001989
sipahesahaba,0.004371
sipahisahaba,0.004515
site,0.005087
situat,0.001162
sixth,0.002004
skirt,0.003133
sky,0.002147
skylight,0.003915
slander,0.003320
slave,0.001784
slaymn,0.009030
slaymnyy,0.004515
sleep,0.002148
sleepless,0.003784
sleymaniy,0.004515
slightli,0.001636
smithsonian,0.002582
sober,0.006011
societi,0.003784
solar,0.001801
solitari,0.002772
solitud,0.009530
somali,0.002866
somalia,0.005178
someon,0.001763
someth,0.002903
sometim,0.004915
son,0.004337
song,0.018023
soninlaw,0.002924
sophia,0.002974
sought,0.001471
soul,0.005849
soundest,0.003867
sourc,0.000949
south,0.004730
southeast,0.001848
southeastern,0.002345
southern,0.002803
space,0.001164
spaciou,0.003290
span,0.003488
spare,0.002350
speak,0.001447
speci,0.001388
special,0.000944
specif,0.003614
spent,0.003338
sphere,0.003379
spin,0.004188
spirit,0.005118
spiritu,0.059158
spiritualist,0.003199
spokesman,0.002720
spread,0.017352
springer,0.001827
srinagar,0.004260
ssp,0.007361
staff,0.001780
stage,0.002637
stagger,0.002872
stand,0.001419
state,0.018500
statement,0.002772
station,0.003299
statu,0.003783
stay,0.001652
steadili,0.001992
stem,0.003394
stori,0.007653
strain,0.003754
street,0.001723
strengthen,0.001708
stress,0.006194
stretch,0.001903
strict,0.007019
strictli,0.001780
strike,0.001679
strip,0.001981
strive,0.012990
strong,0.001097
strongest,0.002190
strongli,0.001455
structur,0.001764
student,0.003855
studi,0.005586
subcontin,0.004654
subject,0.003842
submit,0.001891
subord,0.003595
subsect,0.002904
subsequ,0.001178
substanti,0.001401
subtl,0.008933
subvers,0.002836
succeed,0.001543
success,0.003004
sudan,0.004650
sufi,0.747174
sufic,0.004169
sufiori,0.004515
sufism,0.383592
sufismrel,0.004515
sufiwho,0.004515
suggest,0.003171
suhrawardi,0.007190
suhrawardiyya,0.017487
suicid,0.015155
suicidebomb,0.008339
suit,0.001755
sulhekul,0.004515
sulk,0.004515
sultan,0.011175
summar,0.001923
summari,0.001817
summit,0.002208
sun,0.003350
sung,0.002872
suni,0.002945
sunna,0.010375
sunnah,0.015282
sunnat,0.004260
sunni,0.035756
sunnipopul,0.004515
supererogatori,0.011745
superior,0.003361
superstit,0.002614
superstiti,0.003176
supplic,0.003458
support,0.002693
suppress,0.005187
suprem,0.003092
sure,0.002069
surg,0.002331
surpass,0.002131
surround,0.001382
survey,0.001451
surviv,0.003907
suspend,0.001877
sv,0.006131
swat,0.007830
swedishborn,0.004260
swine,0.003154
switzerland,0.001935
sy,0.014989
sylhet,0.003867
symbol,0.006854
symposia,0.003305
syncretist,0.003595
syrian,0.002558
taawwuf,0.008521
tabrizi,0.004026
tactic,0.002008
tafsir,0.007090
taifai,0.004515
tajikistan,0.002910
taken,0.004422
taliban,0.012122
tall,0.002402
talmud,0.002990
taoism,0.002582
tarek,0.004092
target,0.002812
tarighat,0.004515
tarikaemaizbhandari,0.004515
tarin,0.004092
tariqa,0.040264
tariqah,0.004092
tariqushshukr,0.004515
tariqussabr,0.004515
tarqt,0.004515
tasawuf,0.004515
tasawwuf,0.040264
task,0.001400
tast,0.002119
taught,0.005050
tawassul,0.004371
tawhid,0.007426
taymiyya,0.012781
tazkiah,0.004515
teach,0.026627
teacher,0.027688
techniqu,0.001160
technolog,0.002177
tehrik,0.004260
tehriketaliban,0.004515
tekk,0.012509
televis,0.003404
tell,0.001700
tempor,0.001989
tend,0.001240
tendenc,0.001695
tenet,0.006670
tennur,0.004515
term,0.006422
terminolog,0.001778
terror,0.002010
terrorist,0.002285
testifi,0.002575
text,0.001302
th,0.015585
thanda,0.004515
thank,0.002076
thcenturi,0.003482
themselv,0.010081
theocrat,0.003188
theolog,0.005522
theophani,0.004169
theoret,0.002476
theori,0.004425
therebi,0.001563
therefor,0.004105
thi,0.031630
thing,0.002403
think,0.003928
thinktank,0.006553
thompson,0.002242
thought,0.012842
thousand,0.001331
thu,0.006179
tibbon,0.004092
tie,0.001472
tijani,0.009030
tijaniyya,0.009030
tijaniyyah,0.008743
timbuktu,0.006499
time,0.007349
timelin,0.001777
timewa,0.003915
timothi,0.004824
titl,0.006777
today,0.006509
togeth,0.002082
toler,0.001910
tomb,0.014429
tombston,0.003402
took,0.001179
torah,0.002787
tori,0.003022
tortur,0.004545
touba,0.004371
tour,0.002178
town,0.004652
trace,0.010135
tradit,0.023772
traditionalist,0.002782
train,0.009127
trait,0.001789
tranc,0.003123
transact,0.001625
transform,0.001236
translat,0.013000
transmiss,0.003730
trap,0.001978
travel,0.001333
treat,0.005289
treatis,0.009108
treatment,0.001389
trend,0.005769
tri,0.001188
trial,0.005169
tribe,0.001859
trigger,0.001836
true,0.003668
truth,0.009639
ttp,0.003915
tunisia,0.010196
tunisian,0.003143
turbul,0.002341
turkey,0.013785
turkish,0.006558
turkistan,0.004169
turn,0.006263
tweedi,0.007494
twelver,0.006640
twentieth,0.005344
twentyf,0.002752
twin,0.002221
twofold,0.002787
type,0.001815
typic,0.003039
tyrant,0.002917
ubudiyya,0.004515
ulama,0.006610
ulema,0.003249
ullah,0.012079
ultim,0.002612
umar,0.011753
umayyad,0.002820
unaccept,0.002460
unaffect,0.002693
unclear,0.001983
unconsci,0.002257
undermin,0.002001
understand,0.008200
understood,0.004251
undertak,0.002049
undertaken,0.001945
unesco,0.004102
unimprison,0.004515
uniqu,0.002575
unislam,0.003747
unit,0.005331
uniti,0.006639
univers,0.007821
universea,0.003522
unknown,0.001563
unlik,0.001257
unreli,0.002419
unveil,0.002575
upright,0.002689
ur,0.003056
urban,0.001583
urdu,0.006095
urg,0.009965
uruq,0.004515
usag,0.001583
use,0.006170
usual,0.002726
utmost,0.002860
utter,0.002488
uwai,0.021859
uwaisi,0.009030
uwaiysi,0.013115
uway,0.004260
uwaysi,0.013545
uzbekistan,0.002711
valid,0.002884
valley,0.003492
valu,0.000967
valuabl,0.001772
van,0.001651
vari,0.005566
variat,0.001415
varieti,0.001133
variou,0.006877
various,0.002335
vast,0.001516
vaughanle,0.009030
veli,0.007735
vener,0.005000
veri,0.005174
vers,0.008893
viabl,0.002077
vicissitud,0.003747
victim,0.004058
victori,0.001748
video,0.001662
view,0.005807
vigil,0.005876
villag,0.003451
violat,0.001670
violenc,0.001798
violent,0.005594
violentlysinc,0.004515
virtu,0.007653
visibl,0.001669
visit,0.010620
visual,0.001593
viz,0.002798
vocal,0.004717
vocalist,0.004092
vow,0.002656
wa,0.051390
wahalo,0.004515
wahdat,0.003784
wahe,0.003867
wahhab,0.003500
wahhabi,0.003290
wahid,0.003545
wake,0.002014
wali,0.003154
waljamaa,0.004092
walk,0.001928
walker,0.002379
wander,0.007590
wane,0.002463
waqf,0.003500
war,0.003218
waridka,0.004515
watch,0.003850
water,0.001164
watermelon,0.006670
way,0.017763
wayfar,0.007301
weaken,0.001891
wealth,0.001555
wealthi,0.001970
wear,0.002046
webcast,0.003335
websit,0.002855
week,0.001587
weekli,0.002240
went,0.004155
west,0.015559
western,0.010223
westernorient,0.004515
westward,0.002592
wherev,0.004844
whirl,0.017848
white,0.001433
wide,0.005835
widespread,0.005803
wiener,0.002607
wilayah,0.003967
william,0.003630
willing,0.002306
wincelberg,0.004515
winslet,0.004515
winter,0.003742
wisdom,0.005998
wit,0.003678
women,0.004311
wont,0.002625
wool,0.009887
woollen,0.006769
word,0.015723
wore,0.008106
work,0.008143
world,0.018374
worldli,0.013740
worldwid,0.001531
worship,0.024556
worth,0.001709
wound,0.004143
wreck,0.002697
write,0.014168
writer,0.003099
written,0.003586
wrote,0.005146
wwwsufilivecom,0.004515
yaakov,0.003650
yahya,0.003123
yassawi,0.004515
year,0.011431
yearli,0.002238
yearold,0.004400
yemen,0.005304
yoea,0.004515
zaouia,0.004169
zarrabizadeh,0.004515
zawiya,0.007830
zaytuna,0.004260
zeinab,0.009030
zekr,0.004515
zikrya,0.004515
zinda,0.004515
zo,0.003500
