abbasid,0.012593
abd,0.025638
abdullah,0.025186
abi,0.014379
abraham,0.009668
abu,0.067212
accept,0.051687
accord,0.016467
accordingli,0.009265
achiev,0.005179
acquir,0.006705
act,0.014116
action,0.005058
adam,0.008355
addit,0.004165
adher,0.049967
affirm,0.009937
aforement,0.023308
afterlif,0.012593
age,0.010311
agre,0.018621
ahadith,0.018344
ahl,0.148460
ahlu,0.019313
ahmad,0.035730
al,0.007061
alashari,0.037104
albukhari,0.034490
aldarimi,0.043316
alghazali,0.014838
alhadith,0.038063
alhajjaj,0.018552
alhasan,0.016788
ali,0.020412
allencompass,0.014060
almahdi,0.016153
almaturidi,0.040874
alnasai,0.020437
alon,0.007040
alongsid,0.008562
alrai,0.019632
alrazzaq,0.020437
alsadiq,0.019031
alsittah,0.061311
alsughra,0.018344
altahawi,0.021658
altirmidhi,0.019313
american,0.004664
amman,0.015925
anaf,0.021658
analog,0.007356
anatolia,0.012386
angel,0.009872
ani,0.003628
anoth,0.011879
answer,0.014660
anyon,0.008975
apocalyps,0.014060
appar,0.007028
appli,0.004401
approach,0.004738
appropri,0.006599
aqeedah,0.041940
aqeedat,0.021658
arab,0.060833
archriv,0.016318
area,0.004088
arent,0.012940
aros,0.008175
arrazzaq,0.021658
articl,0.019571
ashar,0.019313
ashari,0.155208
asia,0.007068
ask,0.006805
assanani,0.021658
assum,0.005703
assunnah,0.081748
assunnat,0.043316
asterisk,0.016788
athari,0.020970
attempt,0.004696
attirmidhi,0.019031
attribut,0.031999
authent,0.031284
author,0.009270
avoid,0.006149
await,0.012289
awak,0.013962
baghdad,0.011434
bakr,0.029322
balkan,0.011678
base,0.007174
basi,0.005128
basic,0.004994
beatif,0.018344
becam,0.009075
becaus,0.014947
becom,0.007947
befit,0.033577
began,0.004956
behavior,0.005823
belief,0.219291
believ,0.041074
best,0.021885
bila,0.020001
billion,0.007051
bind,0.017144
bodi,0.009962
bodili,0.010848
book,0.014153
born,0.007012
branch,0.010558
branon,0.021658
broader,0.016554
brought,0.006119
bukhari,0.017245
calendar,0.010179
caliph,0.022485
canon,0.009027
cardin,0.010900
carolina,0.011202
catholic,0.011142
caucasu,0.012136
cement,0.010963
center,0.010605
central,0.004660
centuri,0.012808
certain,0.004550
chain,0.007427
champion,0.010321
chang,0.003748
charact,0.006870
choic,0.006532
choos,0.007152
christian,0.006443
civil,0.005703
claim,0.010094
classic,0.021973
clearli,0.022428
clergi,0.011325
coalesc,0.012196
codifi,0.021836
collect,0.033952
columbia,0.009247
come,0.019022
command,0.006976
commentari,0.009585
common,0.004020
commonli,0.016566
commun,0.021740
companion,0.067134
competit,0.006538
compil,0.017158
compris,0.006802
conceptu,0.008003
condemn,0.009366
conduct,0.005699
confin,0.008928
conflict,0.012386
congreg,0.012020
conjunct,0.009292
consensu,0.016589
consid,0.011634
consider,0.005588
consign,0.015999
constitut,0.010501
contain,0.009541
continu,0.008058
contradict,0.008882
contrari,0.008695
contrast,0.011234
controversi,0.006552
conundra,0.019632
convers,0.006860
core,0.007061
correct,0.006696
council,0.006063
cousin,0.010936
coven,0.012242
creat,0.008135
creation,0.012106
creed,0.128194
current,0.008514
custom,0.006724
daili,0.007777
david,0.005907
dawood,0.017810
dawud,0.018779
day,0.010036
death,0.011648
declar,0.006422
defend,0.014880
defin,0.004563
delin,0.022845
delv,0.013869
denomin,0.009907
denot,0.008114
deriv,0.025281
design,0.004884
develop,0.013303
deviat,0.009437
did,0.004936
die,0.006371
differ,0.028202
dimens,0.007651
directli,0.010686
disagr,0.009456
discours,0.009105
discret,0.007843
discuss,0.005426
disproportion,0.011606
disput,0.006688
distinct,0.005121
divin,0.026534
divis,0.005763
doctrin,0.055824
doe,0.013498
domin,0.005472
dure,0.011483
earli,0.008008
ecumen,0.014060
egypt,0.008454
eighthcenturi,0.018552
elect,0.005905
embrac,0.009031
emerg,0.010262
emot,0.008224
emphasi,0.014523
empir,0.022345
encompass,0.007495
end,0.004377
endeavor,0.010554
engag,0.012680
english,0.005575
era,0.006325
error,0.007613
especi,0.009297
essenc,0.009043
essenti,0.011130
establish,0.008545
estim,0.005633
etern,0.030364
ethic,0.014737
ethnic,0.007900
evalu,0.006937
event,0.005210
eventu,0.005690
evid,0.005459
exacerb,0.011084
exact,0.007637
exalt,0.013527
exampl,0.003585
exclud,0.007531
exclus,0.006839
exemplari,0.014093
exist,0.023887
explicitli,0.008150
extern,0.003130
face,0.006009
faith,0.072033
fatherinlaw,0.015652
favor,0.006612
felt,0.008451
field,0.004372
fold,0.010206
follow,0.041095
forbidden,0.021171
form,0.013089
formal,0.005357
fourth,0.007469
free,0.009780
frequent,0.006018
friday,0.012386
friend,0.008503
furthermor,0.007336
gain,0.010417
gener,0.009228
given,0.004293
globe,0.009749
god,0.142367
gospel,0.012034
grant,0.006563
greater,0.005392
grew,0.007154
ground,0.006229
group,0.011585
ha,0.014273
haakim,0.021658
habit,0.018153
hadith,0.218171
hanafi,0.078924
hanbal,0.035022
hanbali,0.047997
hanbalit,0.043316
hand,0.005304
happen,0.013532
held,0.005061
heresi,0.012879
hi,0.046062
hibbaan,0.021658
hierarchi,0.008724
highli,0.005635
hir,0.038626
hirt,0.019632
histor,0.004809
histori,0.014263
historian,0.007214
hold,0.005156
howev,0.006948
httptheislamicmonthlycommeccatoselma,0.020970
human,0.016498
ibn,0.102519
idea,0.004804
ident,0.006130
ideolog,0.024260
ii,0.005602
ijma,0.018152
imam,0.039613
iman,0.066747
impact,0.005866
import,0.007302
includ,0.011887
infinit,0.008382
influenc,0.004715
influenti,0.006885
inform,0.004256
innov,0.007415
insist,0.008734
intellectu,0.007344
intellig,0.006679
intend,0.006627
intens,0.007110
intercess,0.016405
intern,0.003751
interpret,0.034268
intim,0.010713
islam,0.299317
islamorguk,0.021658
issu,0.009187
jami,0.015080
januari,0.006109
jesu,0.020973
jordan,0.010788
journey,0.019897
judg,0.007905
judgment,0.018145
jurid,0.014379
jurisprud,0.060032
jurist,0.037888
kaifa,0.020970
kalam,0.031708
key,0.005447
khaldun,0.013448
khateeb,0.021658
khuzaymah,0.043316
king,0.006818
know,0.006486
knowledg,0.005384
known,0.021461
kutub,0.062911
lack,0.005457
languag,0.010759
largest,0.011823
later,0.017026
latterday,0.014342
law,0.047429
lay,0.008054
lead,0.004270
leader,0.006258
leadership,0.007765
led,0.004619
legal,0.017718
lesser,0.017549
levant,0.012063
life,0.004600
link,0.003112
liter,0.024690
littl,0.005477
live,0.009255
ljamah,0.043316
loss,0.006259
mainli,0.005941
mainten,0.008585
majah,0.038063
majesti,0.012505
major,0.003796
make,0.010918
malcolm,0.012337
malik,0.014980
maliki,0.031851
malikit,0.020001
mamluk,0.014342
mani,0.016173
mankind,0.010328
manner,0.006906
mansur,0.015349
mass,0.005869
masud,0.017374
matter,0.021533
maturid,0.020970
maturidi,0.077253
maturidiyyah,0.020437
mean,0.023648
mecca,0.013227
mediat,0.008767
mesopotamia,0.010882
messag,0.008893
messiah,0.014127
metaphor,0.020129
method,0.013297
methodolog,0.015150
midday,0.015999
middl,0.017701
migrat,0.015293
minist,0.006457
minor,0.013245
miracl,0.011172
mistak,0.009849
modern,0.004292
month,0.006322
monthli,0.009754
moral,0.007159
mose,0.023357
mosqu,0.012121
movement,0.024674
muhammad,0.195322
musannaf,0.021658
muslim,0.184085
musnad,0.019031
mustadrak,0.021658
mutazili,0.018344
mutazilit,0.072610
muwatta,0.019031
narr,0.009417
narrat,0.059483
narrativebas,0.021658
natur,0.007641
new,0.003196
nicen,0.016153
nichola,0.009626
night,0.008778
norm,0.008300
note,0.004126
number,0.003580
numer,0.005302
oblig,0.015806
observ,0.004723
occupi,0.007174
offici,0.005433
offspr,0.010737
omnipot,0.013500
onli,0.009882
onlin,0.006263
onward,0.009072
opinion,0.007606
oppos,0.005980
opposit,0.005888
option,0.007467
oral,0.018495
order,0.003943
organ,0.003903
organiz,0.009375
orthodox,0.028911
orthodoxi,0.035977
ottoman,0.020243
outlin,0.020897
particular,0.008959
particularli,0.005018
partli,0.007695
past,0.005677
patler,0.020970
peopl,0.019728
percept,0.007617
period,0.004252
persian,0.008991
person,0.004682
pew,0.014417
philosoph,0.012563
philosophi,0.006093
pillar,0.043392
pit,0.011336
plural,0.009203
point,0.004151
polit,0.013474
popul,0.010183
posit,0.004241
practic,0.017562
pray,0.012760
preced,0.007775
predestin,0.014838
preemin,0.011896
prefer,0.006284
prescrib,0.010021
presentday,0.009217
preserv,0.006916
press,0.004829
previous,0.012512
primarili,0.005609
prime,0.006593
princip,0.012821
principl,0.014778
product,0.004277
promin,0.006435
promis,0.007711
prophet,0.107713
psalm,0.014379
public,0.004132
quarter,0.008535
question,0.015460
quran,0.261725
rank,0.006928
rashidun,0.014932
ration,0.021217
rationalist,0.047479
reaction,0.006673
read,0.009040
reaffirm,0.012354
real,0.005401
realiti,0.021238
reason,0.028026
recent,0.004506
recogn,0.011161
recognit,0.007133
record,0.016458
refer,0.023423
reflect,0.005593
regard,0.029960
region,0.004660
reject,0.032080
relat,0.003509
releas,0.006504
reliabl,0.007782
relianc,0.010435
religi,0.013296
remain,0.008608
repres,0.021346
research,0.004222
resembl,0.008210
resent,0.011222
respect,0.004949
restrict,0.006032
reveal,0.034230
revel,0.020870
rever,0.011618
right,0.009340
rightlyguid,0.019313
rise,0.005237
rival,0.008599
rule,0.009501
safavid,0.014496
sahabah,0.018344
sahih,0.083434
said,0.005347
saint,0.026108
salafi,0.015925
salvat,0.022485
saw,0.012738
say,0.011277
scholar,0.066096
scholarli,0.009212
scholarship,0.009306
school,0.180037
scienc,0.004377
scriptur,0.020944
scrutin,0.013869
seal,0.009760
second,0.012814
sect,0.032701
seljuk,0.015184
selma,0.017511
sens,0.005355
sent,0.007214
sequenc,0.007225
servic,0.010141
sever,0.015104
shafi,0.017656
shafii,0.032810
shafiit,0.021658
shall,0.009500
sharia,0.025638
shia,0.036869
shiaism,0.019313
shiism,0.017006
shiit,0.014792
short,0.005549
shorten,0.011000
sift,0.015406
sign,0.005963
signific,0.004623
sinc,0.003622
slightli,0.007850
sni,0.019313
sole,0.014704
sometim,0.014145
son,0.006935
soninlaw,0.014027
sought,0.007056
sourc,0.022781
south,0.005672
speak,0.006945
specialist,0.008987
specif,0.004333
specul,0.007535
spell,0.009997
spread,0.006402
state,0.003169
statu,0.012099
stood,0.009743
strength,0.007346
stress,0.014855
strict,0.008417
strictli,0.008542
structur,0.004232
studi,0.011483
subsequ,0.005652
succeed,0.007405
successor,0.016272
sudan,0.011152
sufism,0.014838
sultan,0.010721
sunan,0.104248
suni,0.028255
sunn,0.018152
sunna,0.016589
sunnah,0.146612
sunni,0.457361
sunnidomin,0.021658
sunnipath,0.021658
sunnism,0.077253
sunnit,0.020001
support,0.004306
synthesi,0.008086
tafwid,0.021658
tahawi,0.021658
tahawiyyah,0.021658
takfir,0.020437
talib,0.016686
task,0.006719
tawhid,0.017810
tawil,0.019031
technic,0.006442
tend,0.005948
tenet,0.021329
tension,0.008227
tenth,0.011103
term,0.006845
terminolog,0.008529
testifi,0.012354
text,0.012496
textual,0.011379
textualist,0.043316
th,0.004153
themselv,0.005372
theolog,0.141277
therefor,0.004923
thi,0.027092
thought,0.015400
thrive,0.010027
thu,0.004234
time,0.003204
today,0.015610
togeth,0.009989
torah,0.013372
total,0.005053
tradit,0.104907
traditionalist,0.106783
translat,0.012471
treatis,0.008738
tribe,0.017834
true,0.017594
trustworthi,0.013931
truth,0.007706
turk,0.011445
turkey,0.009446
turkish,0.010486
umar,0.014093
unbeliev,0.015080
uncreat,0.032810
underli,0.006878
unknown,0.007499
uphold,0.011910
urban,0.007597
use,0.020717
usual,0.004358
uthman,0.015465
vari,0.010679
variou,0.012370
vast,0.007273
vener,0.023985
verifi,0.018313
viabl,0.009966
view,0.013927
viewpoint,0.019070
violent,0.008944
vision,0.007845
wa,0.032669
wahhab,0.016788
wahhabi,0.015784
welfar,0.008342
welleduc,0.014577
wheeler,0.012666
wherev,0.011618
wide,0.004665
wisdom,0.009590
word,0.020112
work,0.007101
world,0.014689
wrong,0.025558
wrote,0.012342
x,0.006413
zahir,0.018152
