accept,0.033206
administr,0.036981
approv,0.045436
belief,0.042692
causal,0.059470
chang,0.024081
common,0.025831
continu,0.025885
creator,0.192097
deiti,0.068361
dure,0.024592
earli,0.025726
english,0.035822
entir,0.033362
equival,0.041431
evad,0.079685
eventu,0.036557
everyth,0.051218
faith,0.051419
follow,0.022001
frequent,0.038664
gender,0.058963
given,0.027585
god,0.144416
goddeiti,0.139143
govern,0.052309
great,0.030998
ha,0.018339
histori,0.022908
instead,0.032214
japanes,0.052416
jifukuji,0.139143
kami,0.105976
kanji,0.111623
key,0.034998
leap,0.073176
meiji,0.090546
moonsun,0.139143
natur,0.024545
offici,0.034906
order,0.025336
origin,0.025480
outsid,0.035074
oya,0.116622
oyagamisama,0.134725
parent,0.155339
persecut,0.066265
place,0.026001
proceed,0.048248
progress,0.035933
refer,0.033441
relationship,0.031917
restor,0.047287
ritual,0.062356
shugendo,0.126129
singl,0.031142
small,0.028475
spirit,0.052580
stage,0.040638
step,0.078919
teach,0.045586
templ,0.061517
tenrikyo,0.669743
tenrinnyorai,0.139143
tenrinomikoto,0.404175
themselv,0.034518
thi,0.052217
time,0.020589
tsukihi,0.134725
underli,0.044192
understand,0.157938
univers,0.024101
use,0.019014
vari,0.034305
variou,0.026491
wa,0.038160
