abhisanda,0.032579
abov,0.007928
accumul,0.011880
action,0.007609
advanc,0.007648
aka,0.016881
alexand,0.023730
altern,0.007957
anguttara,0.027906
araa,0.088596
argu,0.008238
aris,0.010103
attain,0.025072
audio,0.016253
author,0.006972
avatamsaka,0.027305
awaken,0.017530
bar,0.013998
basic,0.007512
bed,0.016127
belief,0.019991
berzin,0.055813
bhikkhu,0.071545
bodhi,0.023088
bodi,0.007493
brahman,0.019725
bring,0.009283
buddha,0.262686
buddhahood,0.024420
buddhism,0.091236
buddhist,0.045059
centr,0.020566
ceremoni,0.013805
ch,0.031917
chandogya,0.028628
charact,0.031004
chi,0.017915
chines,0.010750
chio,0.073640
chir,0.032579
chodron,0.029532
chok,0.028249
chup,0.030742
cologn,0.020639
commentari,0.014418
common,0.006048
conduct,0.025719
confid,0.012795
congreg,0.018081
consum,0.009960
contemporari,0.009784
contrast,0.008449
dak,0.057256
danc,0.016042
dang,0.027305
day,0.007548
deepli,0.014124
degre,0.008191
deiti,0.016006
delv,0.020862
dhamma,0.095823
dharma,0.134777
dharmapala,0.050828
di,0.015568
direct,0.006642
dr,0.024821
dram,0.025414
dro,0.029532
drup,0.032579
du,0.014138
dutiyampi,0.097737
eat,0.014053
element,0.007659
employ,0.015976
encourag,0.019796
enlighten,0.013150
entertain,0.014808
entir,0.007811
establish,0.006427
ethic,0.022168
experi,0.007405
explicitli,0.012260
extern,0.004709
faith,0.060197
fear,0.011300
follow,0.005151
form,0.014767
formul,0.020625
freedom,0.010166
gacchmi,0.390950
gain,0.007834
gem,0.040306
gendn,0.030086
gi,0.036037
graviti,0.014040
great,0.007258
greatest,0.011332
guard,0.013460
gy,0.049908
gyi,0.030086
happi,0.028478
harm,0.024830
harmoni,0.015019
high,0.006520
howev,0.005226
hurt,0.016881
idea,0.007227
imperman,0.023544
import,0.005492
improp,0.037995
includ,0.008940
inner,0.025891
intoxic,0.025414
introduct,0.008537
jang,0.029051
jewel,0.077991
jewelri,0.020191
jin,0.020347
kalama,0.028249
khmer,0.063010
khuddakapatha,0.031544
kill,0.010630
know,0.009757
knowledg,0.008099
kyap,0.032579
kyapsu,0.097737
kyi,0.025254
la,0.053738
lead,0.006423
level,0.006437
lie,0.010548
life,0.006920
lifetim,0.013786
link,0.004681
list,0.005986
luxuri,0.016152
mahayana,0.039518
mahyna,0.024298
major,0.005711
make,0.005474
makeup,0.017199
mean,0.011857
meaning,0.013992
moon,0.042058
motif,0.017815
motiv,0.042068
music,0.011831
nam,0.016942
namo,0.092226
natur,0.005747
new,0.004808
nikaya,0.023264
nirvana,0.021003
noon,0.020511
note,0.012413
notion,0.010185
obstruct,0.018256
ocean,0.011078
onlin,0.009422
order,0.005932
outer,0.027508
pa,0.016775
pacasila,0.032579
pali,0.020191
par,0.016518
particularli,0.007549
pen,0.017249
perceiv,0.010826
perfum,0.021200
pitaka,0.026341
pli,0.020908
practic,0.026418
prayer,0.016266
precept,0.154506
primarili,0.008438
public,0.006216
quarter,0.012839
reach,0.007956
read,0.006799
reason,0.007026
rebirth,0.036379
recogn,0.008394
refer,0.003914
refrain,0.144149
refug,0.601297
religion,0.009971
remain,0.006474
rig,0.036557
root,0.019779
roughli,0.010982
saddha,0.032579
safe,0.012800
sagha,0.109223
salvat,0.016911
samahita,0.032579
sang,0.067384
sanggi,0.032579
sangha,0.161620
sangharakshita,0.029051
sanskrit,0.016215
sanskrittriratna,0.032579
saraa,0.293212
saranagamana,0.032579
school,0.007965
second,0.006425
secret,0.024158
sentient,0.055972
sexual,0.038594
shok,0.032579
simpli,0.008890
sing,0.018039
sleep,0.015505
slightli,0.011809
sok,0.027305
someon,0.012727
sometim,0.007092
spiritu,0.012554
steal,0.017977
studi,0.005758
su,0.016746
substitut,0.012107
suffer,0.019889
sutra,0.057761
sutta,0.023848
taken,0.015956
tantric,0.022921
tatiyampi,0.097737
teach,0.021347
temporari,0.012849
text,0.009399
thangka,0.057256
thanissaro,0.026341
theravada,0.020639
theravda,0.023848
threefold,0.019793
thubten,0.029051
tibetan,0.094989
time,0.014462
tisarana,0.032579
tradit,0.020583
tree,0.011223
trikaya,0.028628
tripl,0.045032
trust,0.011910
tsok,0.032579
ultim,0.009424
understand,0.007395
undertak,0.044373
unsurpass,0.024298
upanishad,0.020469
use,0.004452
uyghur,0.024180
vajrayana,0.044923
valu,0.006983
veda,0.036926
ven,0.024298
version,0.047654
view,0.006983
voluntarili,0.017660
vow,0.038333
watch,0.013891
way,0.005825
wear,0.029531
western,0.008195
windhors,0.029051
wish,0.048189
wont,0.018943
word,0.007563
yoga,0.019897
