aba,0.022500
abai,0.071297
abandon,0.005678
abnorm,0.007565
abus,0.006538
academ,0.004552
acb,0.014051
accept,0.015264
accord,0.006079
account,0.007160
accredit,0.015398
achiev,0.007647
acknowledg,0.011722
acquir,0.019803
acquisit,0.006572
act,0.003474
activ,0.003033
addit,0.012300
administ,0.005958
advanc,0.003754
advisori,0.007472
affect,0.003972
agenc,0.004781
agre,0.004582
agreedupon,0.010824
ai,0.015272
alan,0.006443
allen,0.007017
allow,0.003022
alway,0.008174
america,0.004259
american,0.003443
analys,0.005942
analysi,0.120918
analysisi,0.015089
analysisth,0.014767
analyst,0.034490
analyt,0.022166
ani,0.010715
anim,0.029782
annual,0.009338
anteced,0.008696
anthropolog,0.006891
anthropologist,0.007798
anticip,0.006760
apa,0.009539
appletoncenturycroft,0.036337
appli,0.022746
applic,0.021780
appreci,0.006744
approach,0.024487
approv,0.005221
approxim,0.008284
archiv,0.005594
area,0.006037
argu,0.020218
argumentbut,0.015089
aros,0.006036
arthur,0.006200
articl,0.010837
artifici,0.005133
asia,0.005219
aspect,0.007989
assess,0.005177
assist,0.004532
associ,0.023754
assum,0.004210
atomist,0.009617
attempt,0.003467
attent,0.004956
attribut,0.004725
audiolingu,0.015089
august,0.004619
author,0.003422
autism,0.030021
autom,0.006801
b,0.012078
bacb,0.045267
basi,0.015144
basic,0.007374
baum,0.021587
becam,0.010050
becaus,0.002759
becom,0.005868
beetl,0.009766
behavior,0.765288
behavioranalyt,0.015089
behaviorismknown,0.015089
behaviorist,0.210566
behaviour,0.118668
behaviourist,0.024947
belong,0.005178
best,0.004039
better,0.004133
bf,0.103328
bibcodesci,0.013543
big,0.005549
biolog,0.008693
blackwel,0.007662
board,0.005287
book,0.017417
box,0.013742
brain,0.005865
branch,0.003897
brief,0.005809
bsi,0.013697
busi,0.004131
california,0.005622
cambridg,0.004861
canada,0.005257
canon,0.006665
cao,0.020964
career,0.006021
carl,0.012257
carnap,0.010508
carri,0.003957
categori,0.004683
caus,0.013105
cb,0.009715
center,0.015660
central,0.006882
centuri,0.012608
certain,0.006719
certif,0.007134
certifi,0.008009
certific,0.014495
chamber,0.006513
chang,0.013837
chant,0.009393
chapter,0.011442
character,0.004655
characteris,0.007358
chase,0.008346
chemistri,0.005380
cheney,0.012320
chiesa,0.013697
child,0.005895
choic,0.009646
chomski,0.026882
choral,0.011926
claim,0.014905
class,0.012214
classic,0.024335
classif,0.005416
classroom,0.017856
clear,0.004569
clearli,0.005519
cliff,0.008219
clinic,0.006402
close,0.003284
cognit,0.093122
coher,0.006766
colleagu,0.006635
colleg,0.005329
columbia,0.006827
combin,0.003500
come,0.007022
commiss,0.004887
commit,0.010291
common,0.005937
complement,0.007239
complementari,0.007162
complet,0.010172
complex,0.003592
complic,0.005563
comprehens,0.005407
comput,0.040681
concentr,0.004804
concept,0.013704
conceptu,0.047274
condit,0.061835
confer,0.009665
confirm,0.005293
connect,0.004042
consciou,0.014519
consequ,0.029224
consid,0.008589
consider,0.004126
consist,0.003286
constrain,0.007138
construct,0.011405
contextu,0.018010
conting,0.028523
continu,0.005949
contrast,0.012442
control,0.045668
controversi,0.009676
cooper,0.009385
core,0.015641
correct,0.004944
correl,0.005722
counsel,0.007903
counterpart,0.006583
cours,0.004279
creat,0.003003
credenti,0.018290
credibl,0.007641
critic,0.028892
critiqu,0.006237
cultur,0.029533
current,0.022002
d,0.003974
daniel,0.006106
darwin,0.006871
data,0.011755
datadriven,0.011556
david,0.004361
day,0.003705
deal,0.003955
decid,0.004784
decis,0.004139
decompos,0.007958
deepli,0.006932
defend,0.016480
defin,0.003369
delin,0.008433
deliv,0.005787
demand,0.004383
demonstr,0.008826
deni,0.005691
dennett,0.010151
depth,0.006446
deriv,0.003733
descend,0.005942
describ,0.012088
descript,0.004488
deserv,0.008696
desir,0.004620
determin,0.010228
develop,0.027010
development,0.013823
devis,0.006735
diagnos,0.007952
dialogu,0.006854
dictionari,0.005952
did,0.007289
differ,0.007808
difficulti,0.005302
digniti,0.017547
direct,0.003260
disabl,0.014300
disagr,0.006981
discount,0.014177
discov,0.008647
discrimin,0.006818
discuss,0.008012
disord,0.018987
display,0.005580
distinct,0.015125
document,0.004740
doe,0.003322
dog,0.029399
doih,0.012179
doiscienc,0.010561
domin,0.008080
drawn,0.005794
dualism,0.008542
dummi,0.010732
dure,0.005652
dynam,0.009206
e,0.003978
earli,0.023652
earlier,0.004367
earliest,0.004940
eclect,0.009524
eclips,0.007921
edit,0.023132
edmund,0.007520
educ,0.011297
edward,0.005377
effect,0.017229
effort,0.004093
element,0.003759
emerg,0.007576
emit,0.007399
emot,0.006072
emphas,0.005187
empir,0.016498
empiric,0.016005
encourag,0.004858
encyclopedia,0.010181
end,0.003231
endors,0.006996
englewood,0.009819
english,0.004116
entir,0.007668
environ,0.011755
environment,0.009504
equival,0.004761
especi,0.006864
essay,0.005728
essenti,0.004109
establish,0.006309
europ,0.004008
evalu,0.010243
event,0.023080
eventsinclud,0.015089
everyth,0.005886
evid,0.004030
evidenc,0.008323
evolut,0.009598
evolv,0.004852
examin,0.009253
exampl,0.015884
excel,0.006394
exist,0.002939
expand,0.004181
experi,0.014539
experiment,0.044437
explain,0.007958
explan,0.005203
explor,0.004503
exploratori,0.008982
extens,0.003991
extern,0.009245
f,0.008708
fact,0.003753
factor,0.007495
fail,0.004444
fallaci,0.008401
familiar,0.006254
fantino,0.015089
far,0.004008
fast,0.006051
feel,0.016577
feelingsshould,0.015089
ferster,0.013402
fictiti,0.009509
field,0.009684
fifth,0.006294
focu,0.013009
focus,0.012344
follow,0.010113
food,0.004549
form,0.014496
formal,0.007910
format,0.008622
foundat,0.004121
frame,0.012081
framework,0.004528
free,0.007220
freedom,0.009979
freeman,0.007909
frequent,0.013330
function,0.022653
functionshar,0.015089
gain,0.003845
game,0.005424
gather,0.005510
ge,0.009494
gener,0.006813
gentl,0.009715
georg,0.009111
gilbert,0.007560
given,0.003170
glenn,0.009338
goal,0.004347
graham,0.008054
greater,0.003981
group,0.008553
grown,0.012174
growth,0.004000
guthri,0.010732
h,0.004390
ha,0.025291
habit,0.006701
hackett,0.010645
half,0.008701
hall,0.005997
harri,0.006647
held,0.014948
help,0.003460
hempel,0.012395
henc,0.004931
herbert,0.006844
heron,0.010989
herrnstein,0.012828
heward,0.014767
hi,0.048179
highest,0.004840
highli,0.012483
histori,0.021061
hope,0.005381
howard,0.007332
howev,0.002565
hullian,0.014495
human,0.048724
hypothet,0.007107
idea,0.021285
identif,0.006226
idiom,0.010130
ignor,0.005482
ijcai,0.011986
immedi,0.004646
impact,0.004331
implement,0.004400
implic,0.005507
import,0.016175
importantli,0.007243
includ,0.015359
incompat,0.008054
inconsist,0.007345
incorpor,0.004340
increasingli,0.004659
inde,0.005374
independ,0.006492
indepth,0.009169
indic,0.003888
individu,0.019561
industri,0.003607
influenc,0.010444
influenti,0.005083
inform,0.003142
informat,0.054872
inherit,0.005861
initi,0.003434
innat,0.007776
inner,0.006354
innov,0.005475
insight,0.005863
inspir,0.005229
instanc,0.004280
institut,0.003344
instruct,0.017851
intellig,0.009863
intent,0.005319
interact,0.015774
interchang,0.007234
interdisciplinari,0.006497
intern,0.022158
internet,0.005185
interpret,0.004216
introduct,0.008380
introspect,0.019396
invent,0.005143
investig,0.008858
involv,0.015321
io,0.009649
isbn,0.011209
isi,0.009379
isol,0.005131
issu,0.003391
ivan,0.008500
j,0.007938
jaba,0.013149
jb,0.028482
jeab,0.030178
jobm,0.045267
john,0.014380
journal,0.036588
jp,0.009617
judgment,0.006698
juli,0.009130
just,0.007371
ka,0.009633
key,0.012066
klein,0.008369
knowledg,0.003975
known,0.010563
l,0.004652
laid,0.005964
languag,0.059581
languagerel,0.012828
larg,0.008355
largest,0.004364
late,0.018293
later,0.003142
lattal,0.015089
law,0.003183
lb,0.018218
lead,0.009458
learn,0.075466
learner,0.020260
leclair,0.015089
led,0.003410
left,0.004212
lent,0.008734
level,0.006319
lever,0.009494
leverpress,0.014259
light,0.013069
like,0.002822
likewis,0.006258
limit,0.003227
line,0.003782
linguist,0.006212
link,0.002297
list,0.002938
logic,0.005114
love,0.025093
ludwig,0.007255
ma,0.006674
main,0.003345
maintain,0.003684
make,0.005374
malott,0.015089
manag,0.015137
mandler,0.024790
mani,0.004776
manifesto,0.008331
marvin,0.009393
massiv,0.005622
materi,0.003702
mathematician,0.006467
mean,0.008730
meant,0.010839
measur,0.003460
mecca,0.009766
mechan,0.007804
meet,0.004275
melior,0.013865
member,0.003371
memor,0.008773
memori,0.005496
mental,0.045741
method,0.013089
methodolog,0.050337
michigan,0.007625
microeconom,0.008226
mid,0.005261
midth,0.006519
mind,0.014948
mistak,0.007272
misunderstand,0.008677
model,0.003291
modern,0.012677
modif,0.018841
modificationha,0.015089
modul,0.007134
molar,0.047471
molecul,0.005705
molecular,0.027614
moment,0.006011
mood,0.008331
motiv,0.015486
motor,0.006814
mouth,0.007491
movement,0.007287
multipl,0.004064
nation,0.002927
natur,0.011283
nd,0.004916
necessari,0.004210
need,0.006352
neg,0.013745
network,0.004417
neurosci,0.007285
new,0.018881
newel,0.009929
nineteenth,0.006609
nj,0.015507
noam,0.018010
nonhuman,0.008107
noniid,0.015089
normal,0.004211
norway,0.007426
notabl,0.020272
note,0.003046
notion,0.009998
number,0.002643
o,0.005571
object,0.010836
obm,0.043485
observ,0.020924
obsolet,0.008241
offer,0.011787
onc,0.003948
onesth,0.014495
onli,0.009729
onlin,0.013873
ontogeni,0.011705
open,0.003617
oper,0.060001
opportun,0.004990
oppos,0.013247
ordinari,0.005761
organ,0.020174
organis,0.005002
organiz,0.027688
orient,0.005505
origin,0.005856
orman,0.011604
outsid,0.004030
overlap,0.005872
overt,0.019363
p,0.004033
pa,0.008234
pacif,0.006124
paperback,0.008896
parallel,0.005475
parsimoni,0.009910
particular,0.006614
particularli,0.011116
partli,0.011362
patholog,0.007511
pattern,0.004508
pavlov,0.031604
pavlovian,0.012320
paw,0.022049
pdf,0.012231
pearson,0.016646
peer,0.007367
perceptu,0.008450
perform,0.007429
permit,0.005381
person,0.006914
perspect,0.014184
phd,0.006827
phenomena,0.005045
phenomenon,0.005441
philadelphia,0.008035
philosoph,0.027827
philosophi,0.049484
phobia,0.011291
phrase,0.006366
phylogeni,0.009494
physic,0.003457
physiolog,0.031118
pierc,0.009097
pigeon,0.019298
pioneer,0.005519
place,0.005976
play,0.003814
plenum,0.010856
plotnik,0.015089
pmid,0.008142
pn,0.009749
point,0.003064
posit,0.015657
positiv,0.008604
possibl,0.006180
posthullian,0.015089
postskinnerian,0.059069
power,0.006201
pp,0.004939
practic,0.009725
practition,0.006359
pragmat,0.007385
predic,0.008362
predict,0.008866
premis,0.007107
prentic,0.008191
prenticehal,0.009169
prepar,0.004914
presenc,0.004581
present,0.003029
press,0.017830
primarili,0.004141
principl,0.007274
print,0.005689
privat,0.013033
problem,0.003240
procedur,0.015829
process,0.040100
produc,0.012610
product,0.006315
profession,0.014728
program,0.007622
promin,0.009502
propon,0.006349
propos,0.014953
provid,0.002688
proxim,0.014006
psycholog,0.165269
psychologist,0.013885
psychotherapi,0.009109
ptsd,0.012828
public,0.006102
publish,0.003363
punish,0.019996
pure,0.009582
purpos,0.007882
pursu,0.005510
quantit,0.005629
quin,0.019974
quit,0.005120
rachlin,0.029534
radic,0.077761
rapid,0.005250
rapidli,0.010216
rat,0.056291
rate,0.022529
rd,0.010851
reach,0.003905
reaction,0.004927
read,0.003337
realli,0.006182
recent,0.009982
recognit,0.010534
reconstruct,0.006021
record,0.004050
refer,0.007686
reflect,0.004129
reflex,0.033800
reformulationsthorndik,0.015089
refut,0.007590
regard,0.011060
region,0.003441
regular,0.005264
reinforc,0.085074
reject,0.014211
relat,0.018136
reliabl,0.005745
remain,0.003178
remark,0.005893
remov,0.004436
repertoir,0.010047
repetit,0.015677
replac,0.007831
repres,0.003152
reproduct,0.006527
republish,0.009749
requir,0.003025
research,0.021821
respect,0.003654
respond,0.015547
respons,0.039995
result,0.005353
resurg,0.008219
retriev,0.011417
review,0.017222
reviv,0.006106
revolut,0.009520
reward,0.019942
rft,0.027087
rftact,0.015089
richard,0.009494
right,0.013793
rigor,0.006470
river,0.005253
rod,0.008308
role,0.006732
rote,0.011812
rudolf,0.007897
rushin,0.015089
ryle,0.023411
s,0.027253
saddl,0.009284
saliv,0.012929
schedul,0.019160
scholar,0.004880
school,0.007819
scienc,0.042014
scientif,0.003866
second,0.009461
seen,0.007540
select,0.016714
semin,0.007349
sentiment,0.007468
sequenc,0.010669
seri,0.003828
servic,0.003743
set,0.008930
shape,0.018320
shed,0.008191
shift,0.009313
sig,0.012642
signal,0.005529
sigrid,0.013865
simon,0.006425
simpl,0.008498
simpli,0.008727
sinc,0.008022
sketch,0.008577
skin,0.006782
skinner,0.294637
slow,0.005521
social,0.013608
societi,0.006701
someon,0.006247
sometim,0.006962
sought,0.005209
sound,0.011261
south,0.008376
speci,0.019673
special,0.010034
spectrum,0.006324
spent,0.005911
sr,0.008982
staat,0.013271
staddon,0.014495
standard,0.003602
standpoint,0.008517
stanford,0.006212
start,0.003385
state,0.030419
statement,0.004909
stcenturi,0.010088
stimuli,0.040919
stimulu,0.007832
stimulusrespons,0.022665
storag,0.006364
strain,0.006647
strength,0.010848
strengthen,0.006048
strong,0.007771
strongli,0.005154
structur,0.006249
student,0.009103
studi,0.019783
style,0.005510
subject,0.010206
substanc,0.005622
substanti,0.004964
subtyp,0.009801
success,0.017732
suffici,0.004944
suggest,0.011231
summar,0.013623
superfici,0.008433
systemat,0.005109
tail,0.007742
teach,0.005238
teacher,0.012257
techniqu,0.004109
technolog,0.007711
teleolog,0.008928
tent,0.008205
term,0.010108
test,0.008743
th,0.006133
theoret,0.026310
theori,0.059559
theoriz,0.007276
therapi,0.027246
therefor,0.007269
thi,0.044007
thomsonwadsworth,0.013271
thorndik,0.021911
thought,0.034111
thrive,0.007403
thu,0.009378
time,0.002366
timeout,0.013543
timothi,0.008542
titl,0.004800
today,0.003841
togeth,0.003687
tokenreinforc,0.015089
told,0.006782
tolman,0.011375
took,0.004177
tool,0.004282
trace,0.005128
tradit,0.003367
train,0.004618
treat,0.004682
treatment,0.009839
trial,0.006102
trialanderror,0.012320
ture,0.008087
turn,0.011091
tutori,0.017729
twentieth,0.006309
type,0.009645
ubiquit,0.008433
uk,0.009803
ultim,0.004625
uncommon,0.008198
unconcern,0.011332
underpin,0.015597
understand,0.032671
understood,0.010037
undesir,0.008362
unexpect,0.007809
unit,0.008092
univers,0.016619
unobserv,0.009169
upper,0.005400
use,0.030592
util,0.004838
valu,0.003427
van,0.005849
variabl,0.014666
varieti,0.012046
variou,0.006089
verbal,0.038469
veri,0.009162
verif,0.008142
version,0.023390
versu,0.006242
view,0.034276
vocabulari,0.007996
voluntari,0.007399
w,0.013461
wa,0.050433
walden,0.011332
watson,0.063770
way,0.008578
weak,0.005312
websit,0.005056
western,0.004022
whi,0.004920
widerang,0.009338
wiley,0.006544
willard,0.008875
william,0.008570
wit,0.006513
withdrawn,0.008285
wittgenstein,0.009232
wm,0.010456
work,0.028839
world,0.002711
worldwid,0.010851
wrong,0.018870
wuerzburg,0.015089
wv,0.012248
xi,0.008241
year,0.008096
york,0.020594
zuriff,0.015089
