abil,0.006307
academ,0.013732
access,0.006342
acknowledg,0.017679
acquir,0.007466
action,0.095757
actionori,0.020657
activist,0.010936
activistl,0.024116
adapt,0.080299
addit,0.009275
address,0.020710
adjust,0.008774
administr,0.012819
advanc,0.005662
advoc,0.007869
advocaci,0.012407
afford,0.009844
age,0.005741
agent,0.007816
aim,0.006546
al,0.007863
allow,0.009117
allyn,0.016967
alon,0.007839
american,0.041552
analog,0.008191
analysi,0.011052
ani,0.016160
anoth,0.004409
anthropolog,0.010393
anticip,0.010195
apa,0.028773
appli,0.019603
applic,0.005474
appreci,0.010172
articl,0.016345
aspect,0.030125
associ,0.008956
assur,0.010444
attempt,0.015687
attend,0.017494
attitud,0.018822
australian,0.019068
away,0.013966
bacon,0.012290
base,0.003994
basi,0.005710
becaus,0.004161
becom,0.004424
befor,0.009441
begin,0.010779
behaviour,0.008522
belief,0.007399
benefit,0.006707
best,0.006092
birth,0.008144
birthplac,0.014755
blog,0.012553
board,0.007974
book,0.005253
bronfenbrenn,0.038693
build,0.011698
calm,0.013004
cambridg,0.007332
care,0.013909
catalyst,0.012089
center,0.011809
centuri,0.004754
chanc,0.008912
chang,0.075130
chavi,0.068270
child,0.008891
children,0.007614
citizen,0.037882
citizenri,0.016097
client,0.010662
clinic,0.009655
close,0.004953
collabor,0.051028
colleg,0.008037
com,0.015477
commit,0.007760
commun,0.580992
communitybas,0.016735
compet,0.007634
complement,0.010917
complet,0.010227
compon,0.006376
comunit,0.022756
concept,0.015502
concern,0.005198
conduct,0.006346
confer,0.029155
connect,0.006096
conscious,0.009432
consequ,0.012592
conserv,0.007350
consid,0.012955
constraint,0.018387
construct,0.011468
consult,0.008550
context,0.019541
contrast,0.006255
contribut,0.010869
control,0.004919
core,0.007863
coresearch,0.024116
cornel,0.011710
counselor,0.015342
cours,0.006453
creat,0.009058
critic,0.016340
crosscultur,0.014782
ct,0.012819
cultur,0.011135
current,0.009480
curriculum,0.011470
cycl,0.007590
d,0.017983
dalton,0.013338
david,0.013155
deal,0.005965
decisionmak,0.010673
defin,0.010163
definit,0.017565
degre,0.018192
deinstitution,0.020426
demand,0.013221
democrat,0.007255
depart,0.012984
design,0.010877
develop,0.033329
devot,0.008752
di,0.023048
differ,0.011776
differenti,0.007497
disabl,0.010783
disciplin,0.020469
discuss,0.018126
dissemin,0.011532
distinct,0.005703
divers,0.042731
divis,0.025671
dm,0.029950
doe,0.005010
dramat,0.008362
dw,0.016627
earli,0.004458
earn,0.008379
ecolog,0.067208
ed,0.012481
edit,0.006977
educ,0.028397
ej,0.015693
ejourn,0.020015
elia,0.015033
embrac,0.020113
emerg,0.005713
emphas,0.007824
empir,0.012441
empiric,0.012069
employ,0.005913
empow,0.012553
empower,0.164727
encourag,0.007327
english,0.006208
enhanc,0.008257
entir,0.005782
environ,0.053186
environment,0.014334
equal,0.024284
erika,0.021192
et,0.007663
ethnic,0.008797
evalu,0.007724
event,0.005801
everi,0.005578
evolv,0.007317
exampl,0.015970
exist,0.008866
experi,0.010964
extern,0.006971
factor,0.011305
faculti,0.030892
fair,0.009029
famili,0.018518
field,0.034079
firstord,0.053477
fisch,0.021192
fit,0.016232
fix,0.014151
focu,0.039241
focus,0.006205
follow,0.007626
form,0.003643
format,0.006501
framework,0.020489
francisco,0.010287
function,0.004880
fund,0.006572
futur,0.005806
gain,0.017399
gather,0.008310
gender,0.010219
gener,0.003425
given,0.004781
gjccp,0.024116
global,0.012661
goal,0.006557
govern,0.004533
government,0.019953
graduat,0.017865
grant,0.007308
grantwrit,0.021861
grassroot,0.014729
greater,0.006004
grew,0.007966
ground,0.020810
group,0.025800
grow,0.006112
ha,0.025429
handbook,0.009647
harvard,0.009313
health,0.079749
histori,0.023823
holt,0.014552
home,0.006807
homeless,0.043880
hous,0.012789
human,0.018371
idealistorg,0.024116
identifi,0.005762
ii,0.006238
ill,0.027769
imagin,0.009530
impact,0.013065
implement,0.006637
implic,0.008305
import,0.008131
includ,0.023164
incorpor,0.006546
increas,0.004584
index,0.015146
individu,0.108175
individualfocus,0.020911
individualist,0.013792
inform,0.018957
initi,0.005179
innov,0.008257
instanc,0.019368
instead,0.011167
institut,0.015133
intent,0.008022
interdepend,0.023932
interdisciplinari,0.019598
interestgr,0.024116
intern,0.012532
interrel,0.011636
intervent,0.051898
interventionintervencin,0.024116
introduc,0.011184
introduct,0.012639
invit,0.009823
involv,0.046213
issu,0.040922
italian,0.008944
j,0.023946
jame,0.006723
janitor,0.019832
jg,0.016278
jh,0.016141
job,0.016464
josseybass,0.018694
journal,0.116495
justic,0.032224
kelli,0.054599
key,0.006066
knowledg,0.011990
lack,0.006077
larg,0.008400
largerscal,0.016681
learn,0.013390
level,0.014297
levin,0.013886
librari,0.007487
life,0.010246
like,0.004256
link,0.006930
list,0.008863
literatur,0.007120
live,0.005153
local,0.016193
long,0.005174
look,0.006580
lowel,0.016097
m,0.005699
ma,0.020132
major,0.008455
make,0.004052
mani,0.018009
manner,0.007690
margin,0.017466
masculin,0.014166
massachusett,0.010450
master,0.008504
masteri,0.014364
mcmillan,0.035466
mechan,0.011769
meet,0.006447
member,0.045760
mental,0.077609
mentor,0.013158
met,0.008149
metaphor,0.011207
method,0.039483
mission,0.007945
mj,0.015512
moritsugu,0.024116
movement,0.010990
mutual,0.008405
natur,0.008508
necessari,0.012701
need,0.028743
neighborhood,0.024139
new,0.024917
nich,0.012060
norm,0.018486
norton,0.012418
note,0.009189
number,0.007973
nurs,0.011595
offer,0.005925
ongo,0.017439
onli,0.003668
organ,0.034773
organiz,0.020879
orient,0.008303
origin,0.004416
outsid,0.006079
overview,0.007984
oxford,0.007487
p,0.006083
paradigm,0.019311
paradox,0.010191
parent,0.017949
particip,0.044005
participantconceptu,0.024116
participatori,0.014364
particular,0.009976
particularli,0.011177
peer,0.011111
peerreview,0.025488
peopl,0.039542
perceiv,0.008014
perform,0.005602
period,0.004734
perkin,0.029154
person,0.010428
personenviron,0.040852
perspect,0.042785
phd,0.010297
physic,0.010428
place,0.009013
plan,0.012070
planner,0.012647
point,0.004622
polici,0.017691
policymak,0.013045
polit,0.020006
popul,0.017009
posit,0.014168
possibl,0.004660
poverti,0.018801
practic,0.019556
practition,0.009590
prejudic,0.012683
prepar,0.007411
press,0.010756
prevent,0.032664
primarili,0.006246
principl,0.021941
prior,0.006902
problem,0.039097
process,0.021599
program,0.040237
progress,0.006228
project,0.011308
promot,0.013037
propos,0.005637
prospect,0.009710
provid,0.004054
psicologia,0.023350
psicosoci,0.024116
psycholog,0.553032
psychologist,0.157066
psychosoci,0.014890
psychotherapi,0.013738
public,0.023010
publish,0.015216
qualit,0.010595
qualiti,0.027234
quantit,0.008489
question,0.011476
r,0.006114
racial,0.011221
racino,0.022756
rais,0.006740
rappaport,0.092362
rd,0.008182
realworld,0.012041
recent,0.005018
refer,0.008694
reflect,0.006228
regard,0.011120
regardless,0.008761
regulalri,0.024116
rehabilt,0.024116
relat,0.027352
relationship,0.016595
religi,0.014805
replac,0.005905
report,0.005570
requir,0.004562
research,0.155152
resolut,0.008865
resourc,0.070405
respect,0.005511
rest,0.006789
restrict,0.006716
review,0.006493
riger,0.048233
rinehart,0.017576
rivista,0.018368
rural,0.009372
s,0.016441
san,0.009203
sanborn,0.019346
sarason,0.043722
sb,0.015477
school,0.011792
sci,0.015731
scienc,0.004874
scra,0.136541
secondord,0.086321
secretari,0.009468
seek,0.013006
seen,0.011372
sens,0.053669
separ,0.005294
serv,0.005768
servic,0.016939
set,0.049383
sever,0.004204
sexual,0.009523
seymour,0.014946
share,0.022589
shelter,0.011299
shift,0.007023
simpli,0.006581
situat,0.006209
skill,0.007770
social,0.087225
societi,0.055586
socioeconom,0.011652
sociolog,0.009556
sought,0.007857
space,0.006218
spanish,0.017445
special,0.005044
specialti,0.011454
specif,0.004825
sponsor,0.010111
st,0.006501
staff,0.009508
stamford,0.018472
statist,0.006617
statu,0.013472
step,0.006839
strength,0.032721
strong,0.005860
structur,0.014137
student,0.034325
studi,0.017050
subject,0.005130
succeed,0.008245
success,0.010697
suggest,0.005646
supervis,0.009644
support,0.009591
surround,0.007386
swampscott,0.048233
tailor,0.013338
taken,0.005905
talent,0.011920
task,0.007482
taxpay,0.013465
teach,0.015802
teacher,0.009243
team,0.008422
term,0.003811
th,0.004624
theori,0.028366
therefor,0.005482
thi,0.024134
topic,0.006399
train,0.006964
treat,0.007062
treatment,0.007419
trickett,0.044543
twoway,0.015183
u,0.009411
undergradu,0.010742
understand,0.038324
unintend,0.013598
uniqu,0.006877
unit,0.008136
univers,0.012532
unlik,0.006716
updat,0.009770
urban,0.008459
usag,0.008459
use,0.023069
v,0.007191
valu,0.051695
valuedriven,0.022756
variou,0.009183
veteran,0.012279
view,0.005169
voic,0.009613
wa,0.013228
wadsworth,0.016422
wandersman,0.045513
war,0.005729
watzlawick,0.043722
way,0.004312
weakland,0.024116
websit,0.007626
wellb,0.021579
whi,0.007421
wider,0.009183
winston,0.013598
work,0.035586
workplac,0.012659
world,0.004089
wrong,0.009486
york,0.018636
youtub,0.012744
zimmerman,0.016907
