abl,0.026119
abnorm,0.017154
academ,0.010323
accept,0.008653
account,0.016236
accumul,0.013223
acquir,0.011226
acquisit,0.014903
activ,0.013755
actual,0.008821
adapt,0.010975
address,0.031138
adjust,0.013193
adopt,0.009511
adult,0.013493
affect,0.018014
african,0.024162
afroarab,0.028108
aim,0.009842
alex,0.040688
alexand,0.013206
alhaytham,0.043688
alhazen,0.021666
aljahiz,0.025994
allospecif,0.033486
allow,0.020563
altern,0.008856
alway,0.009268
amber,0.021736
american,0.015619
analysi,0.016617
anecdot,0.040638
anim,0.453445
answer,0.024545
ant,0.018704
anthropologist,0.017684
anthropomorph,0.042664
apart,0.012631
ape,0.042925
approach,0.015865
arab,0.012731
area,0.013691
argu,0.009169
arrog,0.023949
articl,0.016383
ask,0.034183
associ,0.020199
assum,0.009548
attempt,0.031449
attent,0.011239
auditori,0.021917
australia,0.011980
avian,0.024138
background,0.011837
badli,0.018738
banarsidass,0.027180
base,0.024023
becam,0.007596
becaus,0.006256
becom,0.006653
began,0.024897
begun,0.013214
behav,0.014783
behavior,0.399720
behaviour,0.012814
believ,0.017192
benefit,0.010085
better,0.018744
biologist,0.015550
bird,0.028375
bite,0.021736
border,0.012243
breed,0.016666
broad,0.011163
broader,0.013857
c,0.007954
camel,0.021736
capac,0.023077
capit,0.009053
captiv,0.035656
carri,0.008973
case,0.013919
cat,0.017658
catch,0.016757
categor,0.028300
categori,0.021242
caus,0.022288
causat,0.020078
central,0.007803
centuri,0.028591
challeng,0.009943
chanc,0.013400
charact,0.011502
characterist,0.009594
charl,0.010661
chaser,0.028667
children,0.068689
chimpanze,0.065315
choic,0.010937
civic,0.018133
civil,0.009548
close,0.014897
closest,0.016850
cloth,0.014552
cognit,0.105582
colleagu,0.015047
colli,0.029818
common,0.020194
commun,0.029118
compar,0.205854
comparison,0.035021
compet,0.011478
complementari,0.016241
complet,0.007689
complex,0.016293
compon,0.009587
concept,0.015538
conclud,0.022772
condit,0.023369
confid,0.014241
contact,0.011682
contemporari,0.010890
continu,0.020237
contribut,0.032686
control,0.007397
conwi,0.033486
cooper,0.010641
corvid,0.031441
credit,0.010773
critic,0.008189
crossfost,0.062120
crossspeci,0.029818
cumminssebre,0.032334
damag,0.012014
danger,0.013077
darwin,0.046742
deal,0.008969
debat,0.010365
deepli,0.015720
defin,0.007640
definit,0.017606
delay,0.014219
demand,0.009939
demograph,0.014948
demonstr,0.050036
depend,0.007346
depriv,0.017882
desir,0.010478
develop,0.055680
development,0.031346
devic,0.012442
dewsburi,0.029560
did,0.008264
differ,0.106239
differenti,0.011273
direct,0.007393
directli,0.008945
disappear,0.014155
disciplin,0.020518
diseas,0.011662
disord,0.057408
display,0.012653
distinct,0.008574
distinctli,0.020344
divis,0.009649
dm,0.022516
doe,0.022599
doescher,0.033486
dog,0.116667
doisz,0.030391
dolphin,0.021597
domest,0.069215
domin,0.009161
donald,0.031393
dougla,0.016453
dr,0.013813
draw,0.045652
earli,0.033521
earliest,0.011203
echoloc,0.026786
ecolog,0.037894
econom,0.007335
edit,0.010491
effect,0.019535
empath,0.025994
empathi,0.021844
emphas,0.023527
encount,0.013201
end,0.014657
enforc,0.012566
engag,0.010614
enshrin,0.021954
entrench,0.020394
environment,0.021552
equal,0.009128
especi,0.007783
establish,0.007153
estim,0.009432
etholog,0.042664
ethologist,0.026663
evalu,0.023228
evolut,0.010883
evolutionari,0.039618
evolv,0.011002
exampl,0.042021
exist,0.006665
experi,0.041213
experiment,0.022392
explor,0.010212
expos,0.013426
extens,0.009051
extent,0.011029
extern,0.005241
f,0.009873
face,0.020121
fact,0.008510
factor,0.008498
faculti,0.015483
familiar,0.014182
famou,0.011073
feel,0.012530
femal,0.013457
field,0.036599
figur,0.009926
flaw,0.017087
flounder,0.026786
focu,0.029500
focus,0.027991
food,0.010315
form,0.010957
format,0.009775
fourth,0.012505
fragaszi,0.032334
freud,0.019217
friendli,0.016510
function,0.007338
fundament,0.009178
furthermor,0.012282
garden,0.016031
gardner,0.021364
gave,0.010429
gener,0.010300
genuin,0.016627
georg,0.010330
global,0.009518
gray,0.035764
great,0.008078
gua,0.056944
ha,0.033455
half,0.009866
haqu,0.030712
hard,0.011763
hardandfast,0.030095
harlow,0.023377
harri,0.015073
hasten,0.021736
health,0.019984
heavili,0.011555
hered,0.020471
hi,0.025706
higher,0.017042
histori,0.023879
hors,0.015483
hous,0.019230
howev,0.034902
human,0.172637
humananim,0.026663
huski,0.028872
hypothes,0.014252
ibn,0.031207
identifi,0.008664
imit,0.016956
import,0.024452
imprint,0.020793
improv,0.008820
inappropri,0.018891
incap,0.019313
includ,0.029853
increas,0.013784
increasingli,0.010566
inde,0.024374
indirectli,0.015446
individu,0.036965
infant,0.068890
inferior,0.017446
influenc,0.007894
influenti,0.023055
ingold,0.054360
input,0.012985
insect,0.016286
instinct,0.018961
instrument,0.011036
intellig,0.044733
intend,0.011095
intens,0.011904
interact,0.017885
intern,0.006280
interpret,0.009562
interview,0.014820
introduc,0.008407
invari,0.015848
investig,0.010043
involv,0.020845
isbn,0.008473
islam,0.011931
isnt,0.019451
issu,0.007691
ivan,0.019275
j,0.009001
jacqu,0.016627
john,0.008152
johnsonpynn,0.032334
jolymascheroni,0.033486
journal,0.027656
just,0.016714
kellogg,0.073426
kid,0.042793
kind,0.009547
know,0.010859
knowledg,0.009014
known,0.011977
label,0.012894
lack,0.009137
languag,0.027021
lead,0.007149
learn,0.090597
led,0.023201
let,0.013426
level,0.007165
lifetim,0.015344
like,0.025601
line,0.008576
linguist,0.014086
link,0.005210
literatur,0.010705
live,0.007747
livestock,0.016913
lloyd,0.018478
loeb,0.024766
long,0.023340
look,0.009893
loud,0.021563
louli,0.033486
lubbock,0.026314
major,0.012713
mammal,0.015168
mani,0.032494
matern,0.019143
matur,0.027885
maze,0.023596
mean,0.019796
mechan,0.008848
medicin,0.011423
melodi,0.024204
memori,0.012463
men,0.011110
mental,0.038896
mention,0.011600
method,0.007420
mimic,0.020078
mind,0.022598
monkey,0.019656
month,0.010586
moral,0.011986
morgan,0.017010
mostli,0.010222
motil,0.022388
motiv,0.011705
motor,0.015453
movement,0.008262
music,0.079011
muslim,0.026800
natur,0.031983
navig,0.014961
near,0.009851
necessari,0.009548
neglect,0.015673
neighborhood,0.018147
neighborli,0.031441
neuroetholog,0.027320
neurosci,0.016519
new,0.005352
niko,0.024766
nois,0.017087
nonhuman,0.055157
notabl,0.009194
note,0.013816
number,0.005994
numer,0.008876
object,0.024572
objectstoy,0.033486
observ,0.007907
occasion,0.013516
offspr,0.035955
onli,0.005515
oper,0.007558
opportun,0.011317
opposit,0.009858
optim,0.012708
order,0.006602
organ,0.013071
outsid,0.009140
overlap,0.026634
overstimul,0.031441
owner,0.027105
ownership,0.014071
pace,0.016169
parallel,0.024830
parrot,0.024766
parrotand,0.033486
parrotsespeci,0.033486
particular,0.014999
pass,0.009308
pathway,0.016091
pavlov,0.023888
pdf,0.013867
peopl,0.013212
pepperberg,0.033486
percept,0.012753
perform,0.008423
period,0.014238
persist,0.013585
person,0.007840
perspect,0.021443
perth,0.023324
pervas,0.018839
pet,0.132983
phenomenon,0.012340
philosophi,0.010201
phylogenet,0.037888
physic,0.007840
physiolog,0.028226
pigeon,0.021880
pilley,0.033486
place,0.006776
plagu,0.017257
plott,0.028872
point,0.006950
posit,0.007100
possess,0.010767
postdarwin,0.031863
practic,0.007351
pre,0.019962
prepared,0.025080
present,0.006869
primat,0.097457
principl,0.016495
problem,0.022044
process,0.019485
produc,0.007148
product,0.007160
promin,0.010773
prone,0.018979
properti,0.008318
proven,0.014511
provid,0.006095
proxim,0.031761
psycholog,0.304497
psychologist,0.173182
psychopharmacolog,0.025697
psychosi,0.024618
puzzl,0.018294
quest,0.017303
question,0.034512
quicker,0.022185
quickli,0.011183
quot,0.014374
ran,0.015380
random,0.013106
rank,0.011600
rat,0.036470
read,0.007568
recogn,0.018686
recognis,0.026906
refer,0.008714
reflect,0.009364
reid,0.021563
reinforc,0.014839
rel,0.007812
relat,0.017625
relationship,0.016635
religion,0.011098
remain,0.007206
remark,0.013364
repeat,0.012577
report,0.008375
reproduct,0.014801
reptil,0.019161
research,0.070690
resid,0.011544
respons,0.007557
result,0.018209
retard,0.021364
retriev,0.012945
retrospect,0.019180
return,0.008818
revers,0.011996
review,0.009763
reward,0.015073
rhesu,0.026205
rise,0.008768
roman,0.023376
rudimentari,0.020549
ruin,0.017327
s,0.012360
said,0.008953
scale,0.009862
scene,0.015696
scheme,0.013114
scholar,0.033198
scholastic,0.020878
scienc,0.007328
scientif,0.008768
scientist,0.009964
score,0.015972
scrupl,0.028472
second,0.007151
seen,0.025649
select,0.009475
sens,0.017932
sensori,0.016892
separ,0.015921
set,0.027000
sever,0.018966
share,0.016982
shift,0.010559
shown,0.021016
sigmund,0.020221
sign,0.039938
signific,0.015482
similar,0.028966
simpl,0.009635
sinc,0.012128
singl,0.008115
sir,0.013688
skill,0.011682
skinner,0.020878
small,0.007420
smell,0.019806
social,0.061716
societi,0.022793
sole,0.012309
solid,0.013033
someon,0.014166
sometim,0.023683
sophist,0.013952
soul,0.015657
spald,0.027937
spatial,0.014176
speci,0.133838
special,0.007584
speciestyp,0.029089
specif,0.014511
spiritu,0.013973
spoken,0.016313
state,0.015918
stimul,0.027142
stranger,0.021268
strongli,0.011688
studi,0.173040
subject,0.030858
subsequ,0.009463
suburb,0.021054
success,0.024126
sue,0.022225
suffici,0.022422
suggest,0.008489
surgeon,0.018909
survey,0.011656
surviv,0.010459
symbol,0.011009
symptom,0.017257
systemat,0.011586
taken,0.008879
tame,0.044292
target,0.011291
task,0.033749
taught,0.013520
teach,0.011879
telephon,0.016577
term,0.017191
territori,0.010614
th,0.027814
thcenturi,0.013983
themselv,0.026986
theoret,0.009943
theori,0.021324
therefor,0.008242
thi,0.022679
thing,0.009649
thorndik,0.024842
thought,0.025784
thu,0.007089
time,0.010731
tinbergen,0.047538
tool,0.009710
topic,0.009621
toy,0.019850
trace,0.011628
treat,0.021238
treatis,0.043890
treatment,0.011155
true,0.009819
ultim,0.031466
undergo,0.014060
understand,0.049390
understimul,0.033486
understood,0.034143
unpredict,0.019087
unwant,0.040393
urg,0.016005
use,0.059462
usual,0.007297
variabl,0.011085
varieti,0.009105
variou,0.013807
vehement,0.023019
veri,0.013851
veterinari,0.020965
view,0.007772
vindic,0.022971
violenc,0.014442
visual,0.012794
vocalis,0.028472
wa,0.059668
washo,0.095590
way,0.006484
western,0.018244
whatev,0.014929
wide,0.015621
wild,0.015558
word,0.016836
work,0.065396
world,0.006148
writer,0.012446
written,0.009601
wrote,0.020664
yawn,0.029089
york,0.009340
young,0.011260
