abil,0.043003
abl,0.007178
abstract,0.004999
academ,0.004255
accept,0.010701
accid,0.006850
accord,0.008523
accur,0.004840
achiev,0.010723
acknowledg,0.005478
act,0.012989
action,0.006982
activ,0.011340
ad,0.003626
adapt,0.027147
addit,0.002874
address,0.008557
adequ,0.035764
adher,0.005747
adjust,0.010877
adult,0.011124
advanc,0.003509
affect,0.018564
agenc,0.004469
aggress,0.050650
aim,0.008114
alcohol,0.006523
alreadi,0.004139
alway,0.003820
amelior,0.009212
american,0.009657
anal,0.050303
analysi,0.006850
analyst,0.019344
andor,0.014916
anger,0.007416
angri,0.008931
anna,0.048669
annafreudian,0.014947
anticip,0.006319
anxieti,0.052791
anyth,0.005615
apex,0.008847
appear,0.006582
appli,0.003037
approach,0.006540
appropri,0.018218
approv,0.009762
architect,0.007553
area,0.002822
argu,0.011339
arriv,0.004573
articul,0.006862
aspect,0.003734
associ,0.008326
assum,0.007872
assumpt,0.004840
attach,0.005379
attempt,0.009723
attent,0.018533
attentiondeficit,0.012292
attribut,0.004416
attun,0.010516
author,0.003199
autonom,0.005745
autonomi,0.005937
avail,0.003473
averag,0.004244
awar,0.005140
balanc,0.004497
base,0.009903
basi,0.003539
basic,0.010340
becaus,0.005158
becom,0.010970
beethoven,0.022084
befor,0.002926
began,0.003421
behavior,0.028132
believ,0.014174
berzhoff,0.059790
berzoff,0.044843
best,0.007552
better,0.007727
bing,0.010407
biolog,0.012190
black,0.009247
bodili,0.007486
bold,0.008417
book,0.003256
boundari,0.009566
bowel,0.009774
brenner,0.042695
bridg,0.005660
broaden,0.007305
build,0.003625
c,0.006557
came,0.007503
capabl,0.004518
capac,0.076104
caus,0.003062
certain,0.009421
challeng,0.020495
charact,0.004741
charl,0.004394
check,0.005948
child,0.016533
chronic,0.014106
circumst,0.021085
claim,0.006966
clarifi,0.006920
classic,0.003791
clinic,0.041892
close,0.006141
closest,0.006946
cluster,0.006296
coher,0.025301
cold,0.005470
collabor,0.005271
common,0.002774
commonli,0.003811
compet,0.004731
complianc,0.007365
compon,0.007904
compromis,0.052784
concentr,0.004491
concept,0.012810
conceptu,0.011047
concern,0.006444
concis,0.006989
conclus,0.015340
condit,0.012844
confid,0.011741
conflict,0.072666
conflictfre,0.056419
conformist,0.012528
confront,0.006340
congruent,0.010032
conscienc,0.016793
consciou,0.013572
conscious,0.017538
consensu,0.011449
consequ,0.011707
consid,0.005353
consider,0.007713
consist,0.009215
constantli,0.006397
constraint,0.005698
construct,0.003553
contact,0.004815
contain,0.006584
contemporari,0.004489
content,0.004528
context,0.008074
continu,0.002780
contradict,0.006130
contradictori,0.008102
contrast,0.007753
contribut,0.003368
contributor,0.013427
control,0.030492
convers,0.009469
cooper,0.004386
coordin,0.004865
cope,0.007365
correl,0.005349
counterweight,0.010148
cours,0.012000
creat,0.005614
critic,0.006751
crucial,0.005586
cultur,0.024156
curb,0.008335
current,0.005876
david,0.016307
deal,0.003697
death,0.004019
decis,0.003869
declin,0.004357
defec,0.011148
defens,0.090673
defici,0.007279
defin,0.003149
definit,0.003628
degre,0.003758
delay,0.011723
delin,0.007883
delus,0.009081
demand,0.008194
denial,0.007922
depend,0.009084
depress,0.005702
deriv,0.006979
describ,0.008474
desir,0.004319
deterior,0.006759
determin,0.009561
develop,0.039020
development,0.019382
did,0.003406
differ,0.002433
difficulti,0.004956
dimension,0.007099
direct,0.012190
disappoint,0.007876
discharg,0.007703
disciplin,0.008458
disord,0.017748
disorgan,0.009750
displac,0.005888
disrupt,0.005913
distanc,0.004887
distinct,0.003534
distinguish,0.012223
distort,0.006480
distress,0.007617
disturb,0.006444
dodd,0.009872
domin,0.003776
doubt,0.005923
downatheel,0.014947
drastic,0.006870
draw,0.004704
dream,0.006626
drive,0.014793
drug,0.005413
dure,0.010567
e,0.007438
eager,0.016835
earli,0.008290
earlychildhood,0.014104
eat,0.012896
ecstasi,0.010338
edit,0.025948
edith,0.019848
effect,0.002684
ego,0.793836
embarrass,0.008654
emerg,0.003541
emot,0.028380
emphas,0.014548
empir,0.007711
enabl,0.004381
enact,0.006125
endeavor,0.007284
enter,0.012118
entir,0.007168
environ,0.036627
environment,0.004442
epigenet,0.017777
episod,0.006786
equal,0.003762
equilibrium,0.005774
erik,0.024917
erikson,0.041772
ernst,0.013397
establish,0.008846
european,0.006883
evalu,0.033513
event,0.010787
everyday,0.005902
exampl,0.009898
excess,0.016019
exercis,0.004747
exhilar,0.012660
expand,0.003908
expect,0.015185
experi,0.013591
explain,0.014878
explor,0.016840
express,0.028640
extend,0.003644
extern,0.019445
extrem,0.003963
face,0.004147
facilit,0.009962
factor,0.003503
fall,0.003771
fame,0.007274
famili,0.003826
far,0.003746
faulti,0.008874
fear,0.005184
featur,0.003736
feel,0.072317
final,0.003573
flanagan,0.045049
focu,0.012160
focus,0.011538
follow,0.007090
forc,0.005923
form,0.006775
formal,0.011091
format,0.024179
formid,0.008526
formul,0.014194
foth,0.014947
framework,0.004233
free,0.003374
frequent,0.008307
freud,0.245587
frustrat,0.030316
fulli,0.004454
function,0.096802
fundament,0.003783
furthermor,0.010126
gain,0.010784
gener,0.016985
genit,0.009317
georg,0.004258
gill,0.008492
given,0.002963
glee,0.013549
glove,0.010240
goal,0.004064
gratif,0.010372
gratifi,0.011384
greek,0.004184
grow,0.003788
guilt,0.008888
h,0.004104
ha,0.005910
hallucin,0.009798
hand,0.003661
hartmann,0.178637
heinz,0.027636
help,0.006469
helpless,0.009774
hertz,0.037491
hi,0.050335
hierarch,0.006778
high,0.002991
higher,0.003512
hing,0.008833
histori,0.007382
hold,0.003558
holt,0.009019
hope,0.005030
hors,0.006382
howev,0.009591
human,0.011386
hypothes,0.005875
id,0.113808
idea,0.003316
idegosuperego,0.014947
identif,0.005819
identifi,0.014286
identitythreaten,0.014947
ii,0.003866
ill,0.017211
imaginari,0.007738
immedi,0.008686
impair,0.007676
impedi,0.009178
impli,0.004593
import,0.017639
impos,0.005081
impuls,0.083300
inabl,0.007133
incis,0.009798
includ,0.020510
incoher,0.009354
inconsist,0.013732
increasingli,0.004355
individu,0.079238
infanc,0.008888
infant,0.028398
influenc,0.009763
influenti,0.009503
influx,0.007623
inher,0.005662
inhibit,0.021822
initi,0.009631
innat,0.007268
instantli,0.008833
instead,0.003460
instinct,0.031266
instinctu,0.011262
instrument,0.004549
integr,0.017827
intellectu,0.005068
intens,0.009814
interact,0.014745
interfer,0.006030
intern,0.028480
interperson,0.008345
interpret,0.007883
intervent,0.005361
intrapsych,0.013549
introduc,0.006931
introspect,0.009065
investig,0.004140
involv,0.020050
irrat,0.007610
isol,0.004797
issu,0.003170
jacobson,0.041917
jacqu,0.006854
joke,0.008917
joyless,0.014104
judgment,0.031307
kept,0.005323
key,0.007519
klein,0.007823
kleinian,0.012803
kri,0.033445
label,0.005315
lacan,0.031329
lack,0.003766
languag,0.003712
larg,0.002603
law,0.005951
lead,0.002947
learn,0.016598
led,0.003188
lessconflict,0.029895
level,0.011815
libidin,0.104633
life,0.012701
like,0.010553
limit,0.006033
line,0.003535
link,0.002147
littl,0.007561
loewenstein,0.037217
logic,0.004780
love,0.011728
m,0.003532
mahler,0.045049
maintain,0.020664
make,0.007535
manag,0.017687
mani,0.006697
manic,0.010894
manifest,0.011364
manner,0.004766
margaret,0.014434
mark,0.003965
master,0.015813
masteri,0.035611
matter,0.003715
matur,0.005747
measur,0.006470
mechan,0.014590
mediat,0.018152
meet,0.003996
member,0.003151
memori,0.015413
mental,0.026723
merton,0.009081
metapsycholog,0.012292
method,0.006118
mild,0.007623
mildli,0.009703
mind,0.027947
mirag,0.010148
mitchel,0.016553
mj,0.009614
model,0.003076
moder,0.005658
modern,0.008887
modif,0.005870
modul,0.040016
momentbymo,0.012803
money,0.004414
monitor,0.016024
monograph,0.023131
moral,0.009882
mother,0.005692
motherinf,0.013329
motiv,0.004825
motor,0.006370
mutual,0.015630
natur,0.007910
necessarili,0.004834
need,0.008907
negoti,0.005169
nephew,0.008267
neurot,0.010715
neutral,0.005406
new,0.015443
nonconflictu,0.014947
nonverb,0.009703
norm,0.017186
normal,0.015747
notic,0.005605
nourish,0.009065
obey,0.007048
object,0.020258
oblig,0.005454
observ,0.009779
occur,0.009414
oneself,0.007731
onli,0.002273
open,0.003381
oper,0.006231
oppos,0.008255
oral,0.019147
order,0.002721
organ,0.018858
origin,0.002737
outer,0.006310
outsid,0.003767
overwhelm,0.006622
p,0.003770
pain,0.018767
paralysi,0.009489
parent,0.022249
particular,0.003091
passiv,0.034029
patholog,0.007021
patient,0.030080
peopl,0.008169
perceiv,0.009934
percept,0.010514
perceptu,0.007898
perform,0.006944
perhap,0.004591
period,0.008804
person,0.006463
personalvoc,0.014947
phallic,0.011094
phase,0.004749
phenomena,0.004715
philosoph,0.004335
physic,0.012927
pivot,0.007360
place,0.002793
play,0.003566
pleasur,0.029375
pose,0.006016
posit,0.005854
possibl,0.008666
potenti,0.003666
power,0.008695
pp,0.013852
predispos,0.009658
predomin,0.006460
prepar,0.009186
presenc,0.004283
present,0.005663
press,0.020000
pressur,0.004263
prevent,0.004049
primarili,0.003871
prime,0.004550
primit,0.012534
princip,0.004424
principl,0.023799
prior,0.004277
problem,0.018174
problemat,0.006825
process,0.021420
product,0.002951
project,0.003504
promin,0.017765
promiscu,0.010272
promot,0.008080
proposit,0.013019
protect,0.007549
protg,0.010089
provid,0.005025
psychoanalysi,0.060330
psychoanalyst,0.059545
psychoanalyt,0.080908
psychodynam,0.010338
psycholog,0.144833
psychologist,0.032450
psychologywa,0.014947
psychopatholog,0.035335
psychosexu,0.047965
psychot,0.021883
publish,0.006287
pull,0.006499
pursu,0.005150
push,0.005386
qualiti,0.004219
quarterli,0.006924
r,0.007580
rage,0.008861
rang,0.003399
rapaport,0.095930
reach,0.003650
react,0.012551
reaction,0.009211
reactiv,0.006766
read,0.003119
real,0.011184
realist,0.006172
realiti,0.068404
reason,0.009671
rebellion,0.006413
reciproc,0.006747
recogn,0.003851
refer,0.003592
referenc,0.007717
refin,0.005634
reflect,0.003860
reformul,0.008129
regard,0.003446
regardless,0.005430
regress,0.007085
regul,0.025514
reject,0.004428
rel,0.006441
relat,0.016953
relationship,0.017143
reli,0.004328
relief,0.006404
rememb,0.013189
ren,0.014078
repres,0.005893
represent,0.004531
repress,0.027098
requir,0.005655
research,0.002914
resist,0.004654
resolv,0.005217
respond,0.024222
respons,0.012462
result,0.010008
revis,0.010735
reviv,0.005708
rider,0.009212
road,0.005217
robert,0.003949
robust,0.006506
role,0.006293
root,0.004537
roy,0.007365
rudolph,0.019407
rule,0.003278
s,0.015285
sa,0.007914
satisfi,0.005328
saw,0.004395
schafer,0.012292
schizophrenia,0.008960
scholar,0.004561
school,0.007309
scienc,0.003021
scope,0.005280
secur,0.003816
seek,0.004030
seen,0.010573
select,0.003905
self,0.024691
selfcontain,0.009822
selfesteem,0.028348
selfregard,0.012185
sens,0.003696
separationindividu,0.014473
seriou,0.005031
set,0.002782
settl,0.005105
sever,0.005212
sex,0.006219
sexual,0.023610
shall,0.006556
shame,0.009335
shape,0.012843
shaper,0.011817
sigmund,0.025007
signific,0.006382
singl,0.003345
sink,0.007445
situat,0.015395
social,0.025441
sociocultur,0.026501
sophist,0.005751
sourc,0.003144
speak,0.004793
specif,0.011964
speech,0.005386
sphere,0.022377
spherea,0.014947
spitz,0.051215
split,0.005137
stage,0.043656
stagespecif,0.014104
standard,0.016835
state,0.017498
statement,0.004589
steadi,0.006407
steadili,0.006594
step,0.004239
sterba,0.014947
stimul,0.011188
stimuli,0.015300
strength,0.005070
stress,0.015379
strongli,0.004818
structur,0.026287
studi,0.007925
subgroup,0.007868
subject,0.003180
subsequ,0.003901
success,0.006630
suggest,0.006999
super,0.008111
superego,0.022084
supervis,0.005977
sweep,0.007656
symbiosi,0.009178
symbol,0.004538
symptom,0.035569
synonym,0.006238
synthes,0.012993
synthesi,0.005581
synthet,0.006200
systemat,0.014328
talk,0.005379
tandem,0.009034
tantrum,0.013329
task,0.009275
techniqu,0.003841
temper,0.007541
temporari,0.011791
tend,0.004105
tenet,0.007360
tension,0.005678
term,0.002362
terribl,0.008642
test,0.016347
testabl,0.008248
themselv,0.007416
theoret,0.012297
theori,0.043953
theorya,0.013329
therapeut,0.007377
therebi,0.005174
therefor,0.003397
thi,0.026177
thing,0.003977
think,0.008670
thought,0.021257
threeway,0.011204
thu,0.002922
time,0.013271
togeth,0.003447
toler,0.012650
topograph,0.008560
tradit,0.003147
train,0.004316
tran,0.007670
transit,0.004352
transport,0.004285
traumat,0.008642
treatment,0.009197
tri,0.003934
triumph,0.007780
type,0.003005
typic,0.006707
unaccept,0.008146
unconsci,0.052324
undermin,0.006626
understand,0.016966
undevelop,0.009178
unfold,0.008219
unifi,0.005232
unit,0.005042
univers,0.015535
unten,0.009798
urg,0.006598
use,0.012256
usual,0.006016
valid,0.004773
valu,0.003204
vari,0.003685
varieti,0.003753
variou,0.005691
veri,0.002854
version,0.004372
vicissitud,0.037217
view,0.009612
vision,0.005414
vol,0.016118
wa,0.036895
want,0.004615
war,0.003551
way,0.008018
weak,0.004965
western,0.003760
white,0.009492
win,0.005621
wish,0.027637
wit,0.006088
withdraw,0.018026
work,0.009803
world,0.022810
wrote,0.004259
year,0.005045
york,0.026951
