abil,0.009829
abl,0.015040
abnorm,0.005926
abov,0.003048
academ,0.014267
academi,0.004587
accept,0.002989
access,0.003295
accid,0.005741
accordingli,0.005359
account,0.002804
accuraci,0.010329
accus,0.004775
act,0.008165
activ,0.002376
addit,0.004818
address,0.007172
adler,0.007316
administ,0.009336
advanc,0.002941
adversari,0.014127
advic,0.010365
advoc,0.008175
agenc,0.011239
aid,0.003572
allianc,0.004453
alreadi,0.003469
alway,0.006404
american,0.013491
analyz,0.004002
andor,0.004167
ani,0.016790
anoth,0.002290
appear,0.002758
appli,0.012729
applic,0.008532
appoint,0.019573
appropri,0.011452
apt,0.007749
area,0.009460
aris,0.011655
ask,0.023620
aspect,0.003129
assess,0.064901
assist,0.007101
associ,0.006979
attempt,0.002716
attend,0.004543
attorney,0.045774
author,0.002681
autonomi,0.009952
averag,0.003557
awar,0.004308
b,0.006308
bachelor,0.006201
bail,0.008339
bar,0.005383
bartol,0.022712
base,0.006225
basi,0.002966
basic,0.002888
becaus,0.008646
becom,0.006896
befor,0.002452
behavior,0.010105
behest,0.008253
believ,0.002969
best,0.003164
bia,0.005475
biolog,0.003405
blackburn,0.008212
board,0.012427
boardcertifi,0.010213
brain,0.009190
branch,0.003053
breach,0.006497
british,0.006412
broad,0.003856
brought,0.003539
busi,0.003237
c,0.002748
california,0.004405
care,0.003612
career,0.009435
case,0.052902
center,0.006134
centuri,0.002469
certain,0.005264
certif,0.016769
challeng,0.003435
charter,0.005173
chicago,0.004687
child,0.004619
chronolog,0.005734
civil,0.023093
clear,0.003579
clearli,0.004324
client,0.138470
clinic,0.075238
clinician,0.007547
close,0.002573
cognit,0.004559
collabor,0.004418
colleg,0.004175
come,0.002750
commit,0.020156
common,0.004651
compet,0.047588
complic,0.004359
comprehens,0.004236
concept,0.002684
concern,0.008101
conclud,0.003934
condit,0.002691
conduct,0.003296
confess,0.006986
confidenti,0.050222
confin,0.010329
conflict,0.003582
conjunct,0.005375
consciou,0.005687
consent,0.005903
consid,0.004486
consider,0.003232
consist,0.002574
constraint,0.004775
consult,0.044418
content,0.003795
context,0.006767
continu,0.004661
control,0.002555
correct,0.015494
cost,0.003381
counsel,0.012384
countri,0.002531
cours,0.006705
court,0.065672
courtroom,0.027392
crc,0.006928
creat,0.002352
credibl,0.023946
crime,0.009545
crimin,0.077958
criminolog,0.016116
crisi,0.003969
cullompton,0.012528
custodi,0.030393
cut,0.004083
d,0.009342
dalbi,0.011569
damag,0.004151
danger,0.004518
davi,0.005577
deal,0.012395
death,0.006737
debat,0.003581
decept,0.006762
decid,0.003748
decis,0.009729
deem,0.010411
defend,0.077469
defens,0.008443
defin,0.002639
definit,0.003041
degre,0.015750
demonstr,0.003457
depart,0.006745
department,0.008133
describ,0.002367
design,0.002825
despit,0.006523
determin,0.005342
develop,0.007695
development,0.005415
differ,0.014274
difficult,0.003354
diplom,0.010213
diploma,0.007326
direct,0.002554
disciplin,0.003544
discrimin,0.005341
discuss,0.006277
disord,0.004958
disposit,0.006551
distanc,0.004096
distinct,0.002962
distort,0.010862
divid,0.003050
divorc,0.006462
doctor,0.004590
doe,0.010410
dr,0.004772
duntley,0.010731
dure,0.002214
duti,0.018309
dynam,0.003606
ed,0.016210
educ,0.008850
educationrel,0.011821
effort,0.003207
element,0.002945
elizabeth,0.005509
emot,0.004757
empath,0.017962
empir,0.003231
employ,0.012287
employe,0.004852
encount,0.004561
encourag,0.003806
endofsent,0.012528
enforc,0.039075
engag,0.007334
entertain,0.005694
entrepreneur,0.005832
equal,0.003153
ethic,0.042623
european,0.005768
evalu,0.132419
event,0.003013
everyth,0.004611
evid,0.003158
evolutionari,0.004562
examin,0.014498
exampl,0.006222
exclud,0.004356
exclusionari,0.008981
excus,0.007678
execut,0.003508
experi,0.005695
experiment,0.007736
expert,0.105211
expertis,0.028245
express,0.003000
extern,0.003621
eyewit,0.008152
face,0.003475
facil,0.008878
fact,0.005880
factor,0.008809
factual,0.006672
fals,0.004696
famili,0.012826
famou,0.003825
feb,0.008004
feign,0.008946
field,0.007587
film,0.004696
final,0.002995
finkelman,0.011821
firm,0.004136
fit,0.004216
fix,0.003675
florida,0.006079
focu,0.003397
focus,0.003223
follow,0.003961
footnot,0.006173
forc,0.002482
ford,0.006557
forens,0.742929
forensicpsychologyonlinecom,0.012528
formul,0.003965
framework,0.003547
free,0.002828
frequent,0.017406
fulltim,0.006594
fundament,0.003171
furthermor,0.004243
futur,0.009048
g,0.003350
gener,0.010676
gh,0.008480
goal,0.003406
govern,0.002354
graduat,0.004640
grant,0.003796
grasp,0.006178
great,0.002791
greater,0.003119
greatli,0.004055
ground,0.007206
guarante,0.009085
gudjonsson,0.024260
guid,0.014005
guidelin,0.005492
ha,0.009907
handbook,0.015035
happen,0.003913
hart,0.007146
haward,0.012130
hbk,0.020795
health,0.024166
hearsay,0.010397
heavili,0.007984
help,0.010844
hendrick,0.009343
hess,0.007359
high,0.002507
hire,0.005407
hisher,0.007118
histori,0.002062
hold,0.002982
hospit,0.009766
howev,0.004019
hypothes,0.004924
ideal,0.004029
identifi,0.005987
ill,0.009616
immers,0.007136
impair,0.006434
implic,0.004314
import,0.016896
importantli,0.005674
imprison,0.005888
improv,0.003047
inadequ,0.005880
incarcer,0.008004
includ,0.017190
incompet,0.014611
increas,0.002381
indic,0.003046
individu,0.030651
inform,0.036929
injuri,0.005489
inmat,0.025830
insan,0.038190
institut,0.002620
intellectu,0.004248
intent,0.004167
interact,0.021628
interim,0.005942
intersect,0.005580
intervent,0.013479
interview,0.015361
introduc,0.002904
involuntari,0.007651
involv,0.016804
irv,0.006672
isbn,0.023419
issu,0.047831
j,0.018659
job,0.004276
john,0.002816
josseybass,0.009711
journal,0.006370
judg,0.036583
judici,0.004754
juri,0.027748
jurisdict,0.015078
juror,0.018597
justic,0.012555
juvenil,0.007274
k,0.007508
kansa,0.007316
kassin,0.012130
kept,0.004461
kind,0.006597
kingdom,0.003293
know,0.003751
knowledg,0.003114
known,0.004138
lack,0.003156
landmark,0.011658
languag,0.006223
larg,0.002181
latitud,0.006279
law,0.059858
lawyer,0.006007
legal,0.061494
level,0.002475
liabil,0.005818
licens,0.004929
like,0.008845
likelihood,0.011482
limit,0.015170
link,0.001800
lionel,0.008004
list,0.006906
litig,0.014653
loftu,0.010050
london,0.003485
lose,0.004354
loyalti,0.011997
m,0.002960
main,0.002620
make,0.008420
maling,0.044686
malpractic,0.017113
manag,0.005929
mandat,0.010316
mani,0.011226
manipul,0.004432
market,0.003098
matter,0.003114
media,0.015188
medic,0.003812
memori,0.004306
mental,0.044795
mention,0.004007
mind,0.015615
minim,0.004369
misinterpret,0.007559
mitig,0.005950
multipl,0.003184
narrowli,0.006434
natur,0.004420
nd,0.003851
necessari,0.006598
necessarili,0.004052
need,0.007465
neuropsychologist,0.009212
new,0.001849
ng,0.007824
nonclin,0.010213
normal,0.003299
noth,0.004380
nowaday,0.006264
number,0.002070
numer,0.003066
nurtur,0.006828
ny,0.005990
object,0.005659
oblig,0.004571
observ,0.002732
obstruct,0.007020
obtain,0.006435
occasion,0.004669
occur,0.005260
offend,0.020786
offens,0.034612
offic,0.003332
ogloff,0.025056
omahoni,0.012528
onc,0.003093
onli,0.001905
onlin,0.003623
open,0.008502
opinion,0.004399
opportun,0.007820
order,0.011406
organiz,0.010846
outcom,0.004232
overlap,0.004601
overview,0.004147
oxford,0.003889
p,0.009480
pace,0.005586
page,0.004058
parol,0.018597
parti,0.012796
particip,0.003265
particularli,0.002903
parttim,0.007284
past,0.003284
patricia,0.007136
pbk,0.008693
penalti,0.006192
perform,0.011640
period,0.002459
person,0.010835
personnel,0.025581
perspect,0.003704
pertain,0.011448
phd,0.010698
philosophi,0.003524
place,0.004682
point,0.007203
polic,0.027624
polici,0.003063
popul,0.002945
portfolio,0.005694
posit,0.004906
possess,0.003720
possibl,0.002421
postdoctor,0.008040
posttrauma,0.012528
practic,0.040636
practis,0.006245
practition,0.009964
predatori,0.007665
prefer,0.007270
prepar,0.007699
present,0.002373
press,0.008381
presum,0.005299
primari,0.006267
primarili,0.009734
principl,0.002849
privat,0.010211
probat,0.016961
problem,0.002538
procedur,0.008268
proceed,0.021720
profession,0.038464
profil,0.010249
program,0.002986
properti,0.002874
prosecut,0.006417
prosecutor,0.007509
prospect,0.005044
protect,0.003163
provid,0.037910
psychiatr,0.020161
psychiatri,0.013413
psycholog,0.287287
psychologist,0.407962
psyd,0.009975
public,0.002390
purpos,0.003087
qualifi,0.014975
qualiti,0.003536
question,0.026828
r,0.022235
rang,0.011398
rare,0.003906
read,0.005229
realiz,0.004209
realli,0.004843
receiv,0.002876
recommend,0.026626
recruit,0.005550
reevalu,0.007426
refer,0.003010
referr,0.007903
reformul,0.006813
regard,0.017330
regardless,0.004551
registr,0.005862
rehabilit,0.006491
relat,0.010149
relationship,0.002873
releas,0.011287
relev,0.007875
reli,0.003627
rememb,0.005527
renew,0.004402
reoffend,0.011171
report,0.008680
reput,0.005238
request,0.009151
requir,0.011849
research,0.036635
resolv,0.004373
resourc,0.009143
respons,0.015667
restor,0.008515
result,0.004194
ribner,0.012528
risk,0.014817
roesch,0.023643
role,0.018461
routin,0.005404
row,0.005821
rule,0.008244
s,0.002135
said,0.003093
salari,0.011137
saniti,0.018033
saul,0.007263
say,0.003261
schedul,0.005003
school,0.006125
scientist,0.006885
scope,0.004425
scrutini,0.006843
secondari,0.004287
select,0.013094
seminar,0.006843
sentenc,0.015440
serv,0.005993
servic,0.002933
session,0.011455
set,0.037314
settl,0.004278
sever,0.002184
sex,0.005212
shackelford,0.010397
sheet,0.005444
sign,0.010349
significantli,0.003863
situat,0.012903
skill,0.004036
social,0.018657
societi,0.007875
societynorm,0.012528
son,0.004011
sourc,0.005271
space,0.003230
special,0.007861
specif,0.007520
springer,0.005071
stage,0.003659
stalk,0.008232
stand,0.023626
standard,0.008466
state,0.036665
statut,0.006155
step,0.003552
strategi,0.003903
stress,0.004296
student,0.007132
studi,0.004428
submiss,0.006633
subspecialti,0.007779
substanti,0.007779
suffer,0.003824
suffici,0.003873
suggest,0.002933
suicid,0.006007
suit,0.009741
supervis,0.020039
suprem,0.012871
surprisingli,0.006994
t,0.007290
task,0.007773
teach,0.004104
techniqu,0.003219
televis,0.004722
test,0.010275
testifi,0.042876
testimoni,0.033706
text,0.003614
theori,0.002455
therapeut,0.030914
therapist,0.007253
therefor,0.002847
thi,0.007835
threat,0.004394
thu,0.002449
time,0.012976
topic,0.006648
tradit,0.005276
train,0.036180
translat,0.003607
trauma,0.006920
treat,0.007337
treatment,0.057814
trial,0.086058
trust,0.004580
type,0.005038
typic,0.005621
uk,0.003840
ultim,0.007247
unconsci,0.006264
undergradu,0.005580
understand,0.019908
understood,0.003932
uniqu,0.003572
unit,0.014793
univers,0.006510
unless,0.004695
unlik,0.013957
unusu,0.005079
uphold,0.006889
use,0.003424
usual,0.015128
v,0.007471
valid,0.008002
vari,0.006177
varieti,0.003145
variou,0.002385
veri,0.004785
victim,0.016890
view,0.013427
viewpoint,0.011030
violenc,0.004989
violent,0.015521
visit,0.004209
vol,0.004503
voluntari,0.017390
wa,0.001717
wainwright,0.009130
waiver,0.009298
want,0.007736
warn,0.010076
way,0.004480
weight,0.004223
weiner,0.009130
whatev,0.005158
wherea,0.003635
whomev,0.009652
wide,0.010794
wiley,0.005127
willan,0.011008
wit,0.102065
work,0.020540
workplac,0.006576
world,0.002124
wrong,0.004928
year,0.008458
york,0.003227
zapf,0.024260
