activ,0.061540
area,0.061255
becom,0.059531
common,0.060233
commun,0.065136
counsel,0.481111
counselor,0.412835
degre,0.081583
difficulti,0.107592
doctor,0.118889
especi,0.069645
health,0.089409
hold,0.077250
licens,0.127676
list,0.119239
master,0.114419
mental,0.116013
modal,0.170147
order,0.059080
outlin,0.417418
peopl,0.059109
person,0.070153
problem,0.065749
profession,0.099617
psycholog,0.104792
psychopharmacolog,0.229939
psychotherapi,0.184830
self,0.133990
sociolog,0.257141
state,0.047479
subfield,0.139687
therapeut,0.160126
thi,0.040587
topic,0.086095
unit,0.054731
