accord,0.024026
address,0.036182
administ,0.047101
analysi,0.028964
anim,0.067262
archiv,0.044223
arriv,0.038678
assess,0.040926
behavior,0.067970
bl,0.082653
boston,0.053414
case,0.024261
causal,0.054024
charl,0.037163
chosen,0.044340
cjl,0.126401
cohort,0.237306
collect,0.141536
common,0.023465
compani,0.030643
comput,0.032157
conduct,0.033262
content,0.038294
control,0.077356
correl,0.045238
crosssect,0.072292
cunningham,0.080416
data,0.185840
descript,0.035477
design,0.085518
diari,0.072583
direct,0.025771
distinct,0.029891
dp,0.080416
drawn,0.045803
ecolog,0.044032
ed,0.032710
effect,0.068098
ema,0.096818
esm,0.111073
estim,0.032880
event,0.030407
experi,0.172399
experiment,0.078057
field,0.025516
follow,0.019986
group,0.022538
ha,0.016660
handl,0.045433
hoboken,0.082857
houghton,0.076020
human,0.048144
independ,0.025662
indic,0.030736
infer,0.048016
inform,0.074519
instrument,0.038472
interview,0.051663
inventori,0.064973
john,0.028418
longitudin,0.071006
ma,0.052758
main,0.026442
mani,0.018878
mathemat,0.032835
measur,0.027357
metaanalysi,0.080076
method,0.206944
methodolog,0.088422
mifflin,0.077063
model,0.052034
momentari,0.083922
multipl,0.032125
natur,0.022298
naturalist,0.056899
neuroimag,0.080416
nj,0.061291
observ,0.027566
occur,0.026536
particip,0.032949
past,0.033134
period,0.024817
pitteng,0.119274
point,0.048455
popul,0.029717
prior,0.036175
procedur,0.041710
propos,0.059099
prospect,0.050895
psycholog,0.244950
psychophysiolog,0.097982
qualit,0.166596
quantit,0.133490
quasiexperi,0.103946
random,0.045688
rang,0.028750
rd,0.042887
recruit,0.056003
refer,0.030378
relat,0.020480
research,0.394275
result,0.021158
retrospect,0.066861
sampl,0.271595
scienc,0.051094
scientif,0.030566
selfreport,0.080943
separ,0.027750
simul,0.045933
sinc,0.021138
social,0.026892
son,0.040476
sourc,0.026590
stangor,0.126401
statist,0.138728
structur,0.024699
studi,0.245749
subject,0.134462
survey,0.081269
time,0.056112
topic,0.033541
treatment,0.038887
twin,0.062194
type,0.050832
unstructur,0.079419
use,0.034546
vari,0.093491
weathington,0.126401
wide,0.027227
wiley,0.051729
