aafia,0.049343
adamkiewicz,0.052292
adel,0.037636
adrian,0.031245
aebisch,0.052292
aghajanian,0.052292
akinori,0.052292
alan,0.021072
albert,0.040404
aldrich,0.036534
alexand,0.019044
alf,0.039399
allan,0.027396
allman,0.045950
aloi,0.040053
alrodhan,0.041949
alvaro,0.039827
alzheim,0.031825
amar,0.037790
amishi,0.052292
anatomist,0.031449
ander,0.030763
andersen,0.069437
anderson,0.025906
andrea,0.026448
andrew,0.020187
anirvan,0.052292
ann,0.023280
anokhin,0.043002
antonio,0.025886
april,0.015206
aranzi,0.045950
aristid,0.037790
armstrong,0.030672
articl,0.011813
arvid,0.044290
ashiq,0.048291
augustehenri,0.045342
axel,0.033560
axelrod,0.040053
azad,0.037790
b,0.026332
bachelard,0.041637
bachyrita,0.052292
ben,0.025633
benasich,0.052292
benzer,0.045950
berlin,0.021345
bernard,0.046688
betz,0.043828
bialik,0.049343
binder,0.036534
biochemist,0.031937
biograph,0.027219
bla,0.036052
bliss,0.033058
block,0.017854
boisreymond,0.040534
bolt,0.034363
bonni,0.037059
boulogn,0.042279
bradi,0.034811
brenda,0.037486
breuer,0.040289
broca,0.036923
brodal,0.052292
brodmann,0.043828
brownsquard,0.052292
buchwald,0.041637
buci,0.049343
c,0.068824
caesar,0.029711
cajal,0.037636
caln,0.044792
camillo,0.039399
candac,0.041949
carandini,0.052292
carew,0.043002
carla,0.039827
carlo,0.045686
carlsson,0.043400
carson,0.033485
carter,0.028346
caton,0.045342
centuri,0.010308
cerletti,0.049343
chaga,0.049343
changeux,0.048291
charcot,0.040289
charl,0.061498
charlesdouard,0.052292
choquet,0.047401
chri,0.027022
christian,0.015557
christof,0.041060
clay,0.025633
cohen,0.026426
compil,0.020713
connor,0.037790
consid,0.009363
cool,0.022491
correspond,0.014575
cotard,0.048291
covian,0.049343
creutzfeldt,0.052292
crick,0.031554
crusio,0.052292
cush,0.038812
d,0.012997
dale,0.030763
damasio,0.041637
daniel,0.039940
daniela,0.041341
david,0.114099
davidson,0.031397
dayan,0.039399
deceti,0.048291
dehaen,0.041637
deisseroth,0.050631
delong,0.039196
demi,0.041949
deth,0.049343
diamond,0.024376
dick,0.029987
donald,0.090544
dougla,0.023727
du,0.022692
duchenn,0.043400
dudai,0.049343
dyck,0.042279
e,0.065053
eagleman,0.047401
earl,0.029231
eccl,0.037790
ed,0.013532
edelman,0.038451
edgar,0.028256
edmund,0.024594
edvard,0.039196
edward,0.052754
ega,0.041060
eleanor,0.033789
elisabeth,0.033712
elizabeth,0.022997
elliott,0.031937
emil,0.054388
endel,0.044290
engel,0.029827
erasistratu,0.038451
eric,0.022961
erich,0.030027
erlang,0.036660
ernst,0.023434
euler,0.027022
eva,0.033485
evangelista,0.036052
evart,0.052292
eve,0.028286
f,0.014238
fairli,0.021895
fallon,0.045950
famou,0.015969
farwel,0.046630
faull,0.049343
fee,0.022624
feldman,0.033485
feng,0.036169
fernando,0.030027
ferrier,0.041637
field,0.010556
filho,0.043400
flatau,0.052292
flechsig,0.046630
fleischlmarxow,0.050631
flouren,0.043002
foerster,0.040053
forel,0.038812
franci,0.039589
francisco,0.022306
franz,0.054588
fred,0.053618
frey,0.037486
friston,0.050631
frith,0.040791
g,0.013983
gage,0.035826
galambo,0.043002
gall,0.033712
galvani,0.036409
gasser,0.045342
gastaut,0.052292
gazzaniga,0.043828
georg,0.074485
geraint,0.044290
gerald,0.026809
gerhard,0.030027
gerlai,0.052292
gero,0.043828
ghosh,0.040053
giacomo,0.036660
giulio,0.035398
glaser,0.039001
goldman,0.061074
golgi,0.034538
gordon,0.024107
gottfri,0.027269
gould,0.030763
graham,0.026339
granit,0.032168
graybiel,0.044290
grazia,0.045342
greenberg,0.035826
greenfield,0.039609
greengard,0.048291
grey,0.027553
guillemin,0.052292
guop,0.052292
gustaf,0.038278
h,0.071793
hachinski,0.052292
haldan,0.032227
hall,0.019611
hallett,0.039827
han,0.020657
harri,0.021738
hartlin,0.047401
harvey,0.026212
hassabi,0.048291
hassler,0.044792
heather,0.036169
hebb,0.040053
heimer,0.049343
heinrich,0.025652
heisenberg,0.030276
helen,0.029196
helmholtz,0.031295
henri,0.049980
herbert,0.044764
herman,0.027606
hermann,0.025266
hess,0.030717
hodgkin,0.034718
horsley,0.043828
houston,0.030763
howev,0.008388
hubel,0.041637
hugh,0.024255
hughl,0.044290
humberto,0.036790
hussain,0.036660
huxley,0.029338
ichiji,0.049343
iii,0.019767
import,0.008815
itti,0.045950
ivan,0.055593
izquierdo,0.052292
j,0.103846
jaak,0.044290
jackson,0.026739
jacsu,0.052292
jame,0.102046
jan,0.045431
jasper,0.035000
jean,0.042873
jeanmartin,0.041060
jeannerod,0.052292
jeanpierr,0.031994
jerom,0.028955
jerzi,0.035296
jha,0.044792
jill,0.036790
johann,0.044235
john,0.070540
jon,0.028854
jone,0.022949
josef,0.031825
joseph,0.068131
jule,0.060301
julesz,0.047401
juliu,0.078891
just,0.012052
k,0.047012
kaa,0.045950
kandel,0.040289
kanwish,0.052292
karl,0.077760
karpati,0.049343
katz,0.062795
keffer,0.047401
keho,0.041060
kelso,0.041949
ketchum,0.049343
kevin,0.027119
klliker,0.045950
koch,0.032109
koninck,0.049343
konishi,0.047401
konorski,0.052292
koob,0.045950
korbinian,0.052292
kraepelin,0.041060
kuffler,0.045342
l,0.015213
ladisla,0.050631
lar,0.033127
larri,0.028286
laurent,0.033058
lauwereyn,0.050631
lawrenc,0.046237
ledoux,0.040289
leksel,0.049343
lennart,0.040289
leo,0.025866
lettvin,0.048291
levay,0.043828
levimontalcini,0.045342
levitin,0.047401
liliana,0.052292
lilli,0.037340
lillian,0.036660
limb,0.027046
linster,0.052292
list,0.009608
llin,0.047401
lloyd,0.026648
lmo,0.047401
loewi,0.040791
logotheti,0.049343
lubinska,0.052292
luigi,0.030810
luy,0.052292
m,0.037074
macewen,0.049343
mackinnon,0.039196
maguir,0.040289
mahlon,0.052292
mahowald,0.052292
manfr,0.033485
mani,0.015620
mantegazza,0.052292
marc,0.028532
marcel,0.030493
marder,0.041637
maria,0.025539
markram,0.043828
marsden,0.035398
marshal,0.022902
marth,0.048291
martin,0.018289
masakazu,0.052292
matteo,0.035938
matteucci,0.043828
maturana,0.038812
mayim,0.052292
mcclelland,0.037636
mcconnel,0.040053
mcculloch,0.036288
mcgaugh,0.044290
meduna,0.050631
melli,0.044792
merlin,0.039001
merritt,0.038812
michael,0.031803
michal,0.041341
miesenbck,0.052292
miguel,0.059422
miller,0.024122
milner,0.039001
mircea,0.037636
misha,0.049343
mller,0.029749
moniz,0.043828
montagu,0.033412
moser,0.036534
mosh,0.036660
mountcastl,0.049343
n,0.015517
nanci,0.029267
nathaniel,0.032855
nauta,0.048291
nayef,0.040791
necessarili,0.016914
ned,0.034028
nelson,0.026108
neurologist,0.036923
neurosci,0.023823
neuroscientist,0.094192
nevil,0.033868
new,0.007718
nichol,0.034811
nicol,0.031397
niko,0.035716
nissl,0.045342
nobuo,0.045342
noma,0.041637
nottebohm,0.049343
o,0.036442
ogawa,0.045950
oitzl,0.052292
old,0.014297
oliv,0.024499
otfrid,0.052292
otto,0.024345
p,0.039570
panksepp,0.044792
paolo,0.032408
papez,0.048291
pascualleon,0.049343
pasko,0.052292
patricia,0.029788
patrick,0.025021
paul,0.105137
pavlov,0.034450
penfield,0.041637
perl,0.034193
pert,0.041060
peter,0.031512
phil,0.031554
physician,0.021796
physiologist,0.030951
pierr,0.022243
poggio,0.040053
pribram,0.046630
prusin,0.045950
psychiatrist,0.030856
purkyn,0.049343
pyotr,0.036660
r,0.026517
ragnar,0.036923
rakic,0.104584
rall,0.045950
ramachandran,0.038278
ramn,0.033868
read,0.010914
ree,0.034627
reflect,0.013504
reh,0.052292
rel,0.011266
renato,0.040534
retziu,0.043002
richard,0.139716
rioch,0.045342
rita,0.036790
rizzolatti,0.045950
robert,0.055267
roderick,0.033339
rodolfo,0.040053
roger,0.042144
rolando,0.044792
rolf,0.034811
roll,0.023447
rose,0.019069
rudolf,0.025827
rusti,0.041949
s,0.035649
sabbatini,0.052292
sack,0.026150
sakel,0.050631
salli,0.035000
sam,0.027908
samuel,0.022339
sandberg,0.039827
santiago,0.030537
sapolski,0.043828
scheller,0.052292
schiller,0.034811
schmitt,0.035938
schrger,0.050631
schwann,0.035502
scienc,0.010568
scott,0.046511
sdhof,0.049343
sebastian,0.033197
seiji,0.047401
sejnowski,0.043828
semir,0.044290
seung,0.052292
seymour,0.032408
shatz,0.045342
shepherd,0.032227
sherrington,0.041949
siddiqui,0.041949
simmon,0.035716
simon,0.021012
skolnick,0.047401
snow,0.027095
snyder,0.034538
solomon,0.026855
spencer,0.028691
sperri,0.042629
spillantini,0.052292
squir,0.039609
st,0.014098
stanisla,0.039399
stanley,0.046067
stephen,0.019427
steriad,0.052292
steven,0.044071
sue,0.032051
suga,0.052292
susan,0.026739
susumu,0.044290
swaab,0.052292
t,0.015216
tasaki,0.049343
taylor,0.022005
ted,0.028438
templ,0.023118
terj,0.047401
terrenc,0.036288
th,0.010028
theodor,0.023935
thi,0.006541
thoma,0.046931
thome,0.046630
timothi,0.027936
tomaso,0.044290
tonegawa,0.048291
tononi,0.047401
torsten,0.037340
tsien,0.044792
tulv,0.043828
turek,0.052292
turner,0.028079
ugo,0.040053
ulf,0.040534
v,0.046781
valenstein,0.052292
varela,0.036409
vernon,0.032855
victor,0.047078
vilayanur,0.044792
vladimir,0.049773
vogt,0.037636
von,0.088687
w,0.058695
wagnerjauregg,0.050631
wald,0.035938
waldeyerhartz,0.049343
wall,0.018517
walter,0.041722
warren,0.025539
warwick,0.033789
wernick,0.039196
whittak,0.036169
wiesel,0.039609
wikipedia,0.028108
wilder,0.029672
wilfrid,0.035608
wilhelm,0.022015
willi,0.029338
william,0.028027
williamson,0.031994
wim,0.039196
wojciech,0.040053
wolcott,0.047401
wolman,0.048291
y,0.018623
yadin,0.049343
yngve,0.052292
yve,0.034811
z,0.021336
zehr,0.052292
zeki,0.045950
zotterman,0.052292
zuker,0.054632
zweig,0.040053
