aaron,0.017145
ablow,0.029695
abnorm,0.014048
abraham,0.013256
abus,0.012142
accentu,0.019821
activist,0.013466
addit,0.005710
adhd,0.022492
adler,0.017341
adolesc,0.032847
adolf,0.015572
advoc,0.019379
african,0.009893
afrin,0.028020
ahm,0.016220
alcohol,0.025917
alexand,0.010814
alfr,0.011566
alienist,0.026917
aloi,0.022745
altern,0.007253
alzheim,0.036145
amen,0.015896
american,0.268610
analyt,0.010291
anatoli,0.021044
andreasen,0.027423
andrei,0.018041
andrey,0.019465
anthoni,0.013329
anthropolog,0.012797
antipsychiatri,0.022616
apa,0.017714
argentineborn,0.029695
arnold,0.028695
arthur,0.011514
articl,0.013417
aspect,0.007418
associ,0.027570
associationfrom,0.029695
asylum,0.016348
attach,0.010686
aubrey,0.020607
australian,0.058698
austrian,0.040562
austrianamerican,0.028020
author,0.069910
autism,0.037166
b,0.007476
bailey,0.018733
barcha,0.028020
basaglia,0.028752
baumann,0.023644
beck,0.017417
behaviour,0.010493
bekhterev,0.075453
best,0.007501
biobehavior,0.028752
bioethic,0.018851
biolog,0.008072
bleuler,0.079440
blower,0.048018
board,0.009819
bond,0.009721
bori,0.017028
borisovich,0.025748
born,0.326898
bradley,0.017522
brain,0.010891
braindisord,0.029695
breitbart,0.029695
british,0.182389
brockington,0.028752
bucknil,0.059390
c,0.026055
cade,0.022879
caldicott,0.029695
cameron,0.017658
canadian,0.011570
cancer,0.012536
carl,0.011381
casey,0.021550
casriel,0.029695
cazzam,0.029695
cedric,0.024888
center,0.007270
cerletti,0.028020
chair,0.025606
chairman,0.012893
charact,0.009420
charl,0.034922
chesser,0.029695
chief,0.018985
child,0.032845
children,0.009375
choic,0.008957
christin,0.017800
christoph,0.011946
chronic,0.014011
cia,0.013544
civil,0.007819
clare,0.021044
clariti,0.016366
clark,0.013199
clinic,0.047556
clinician,0.017888
coauthor,0.015631
cognit,0.021616
colleg,0.079169
columbia,0.012679
columnist,0.019875
combat,0.011966
commentari,0.013142
commun,0.005961
comprehens,0.010042
concept,0.006362
conolli,0.028020
constitut,0.007199
control,0.006057
convent,0.008828
cooper,0.008714
cornel,0.043258
corpor,0.008945
cours,0.007946
craplet,0.029695
creator,0.013665
creutzfeldtjakob,0.022492
critic,0.013413
cunningham,0.018891
current,0.005837
cut,0.009679
d,0.029524
dame,0.017829
daniel,0.068042
david,0.032396
dax,0.023644
deaf,0.019465
dean,0.044584
deisseroth,0.028752
depart,0.015988
departur,0.014002
depattern,0.029695
descendend,0.029695
describ,0.011223
desmond,0.020282
desper,0.016114
detour,0.023316
develop,0.004559
development,0.012835
devichy,0.029695
diagnost,0.014600
dictionari,0.011054
director,0.021925
diseas,0.028652
disord,0.047013
district,0.011028
divis,0.007902
dmitrievich,0.026480
doctor,0.032643
donald,0.012854
drive,0.009796
dsm,0.021123
dsmiii,0.024888
dublin,0.033788
duri,0.025151
e,0.014776
earli,0.016470
edinburgh,0.014933
editor,0.023370
educ,0.013986
effect,0.005332
egyptian,0.012372
eisenberg,0.023018
eleanora,0.029695
electroconvuls,0.049291
emil,0.015442
english,0.007645
epidemiolog,0.031086
epidemiologist,0.022745
eric,0.026078
erickson,0.022745
ernst,0.013307
establish,0.005858
estela,0.028020
eugen,0.026840
eustac,0.023164
euthanasia,0.019513
evan,0.015345
eve,0.016063
ewen,0.024888
exchestnut,0.029695
existenti,0.029746
experi,0.006750
f,0.008085
fals,0.011132
famili,0.015201
famou,0.009068
father,0.028952
femal,0.011021
fenton,0.023018
ferdinando,0.021204
fiction,0.023415
figur,0.016258
fiona,0.023476
fleuri,0.024208
forens,0.047168
formerli,0.010995
founder,0.061728
franco,0.016764
frankl,0.021287
freedman,0.020473
freeman,0.014688
french,0.015798
freud,0.015738
friedman,0.015171
friedrich,0.012005
friston,0.028752
fuller,0.017193
fund,0.008093
g,0.007940
galbraith,0.020607
gannushkin,0.026094
gender,0.012583
gener,0.004217
genet,0.009969
gerald,0.015224
geriatr,0.019986
german,0.082895
gillberg,0.028752
glasser,0.024009
gluzman,0.029695
gordon,0.041070
green,0.010094
group,0.005294
grow,0.007526
growth,0.007429
gurevich,0.025436
guze,0.028752
h,0.040769
hack,0.018301
halbert,0.023644
han,0.011730
harold,0.014085
head,0.022733
health,0.040914
heath,0.019323
henri,0.009460
herb,0.016916
hermann,0.014347
hi,0.005262
hippocampu,0.020408
hopkin,0.014461
horney,0.021737
hospit,0.057874
howel,0.021642
human,0.011310
humphri,0.018695
hurd,0.023822
hypnosi,0.020408
ian,0.028985
ident,0.016809
ill,0.022794
imag,0.009038
includ,0.004074
individu,0.012108
infant,0.028208
influenc,0.006465
influenti,0.009440
inkblot,0.026480
institut,0.012422
insulin,0.017392
intern,0.010287
introduc,0.020656
invent,0.009550
inventor,0.014524
iowa,0.018136
iraniangerman,0.029695
ireland,0.012268
irish,0.027843
irvin,0.019417
isaa,0.026917
isay,0.029695
issi,0.028020
italian,0.033041
j,0.014742
jack,0.013877
jacob,0.013234
jasper,0.019875
jay,0.015722
jill,0.020892
john,0.046734
johnston,0.017948
jolyon,0.026480
journal,0.007549
jung,0.018168
k,0.008899
kandel,0.022879
kandinski,0.024888
kandinskyclrambault,0.029695
kanner,0.025436
karen,0.016807
karl,0.044157
keith,0.014768
kendel,0.029695
kernberg,0.025748
kerri,0.020967
keti,0.027423
khrisanfovich,0.029695
known,0.024521
korsakoff,0.027423
koryagin,0.029695
kraepelin,0.023316
krauthamm,0.029695
kretschmer,0.028020
kupfer,0.029695
kurt,0.015456
kutzinski,0.029695
l,0.008639
la,0.009796
lar,0.018811
lead,0.017565
leo,0.029377
leon,0.014600
leonhard,0.017771
leucotomist,0.029695
levin,0.017098
lewi,0.012317
lichko,0.026094
lifton,0.026917
list,0.070935
lithium,0.017098
lobotomi,0.023316
lodg,0.016660
logotherapi,0.023018
loui,0.011072
love,0.011649
low,0.007520
lpez,0.018301
lunat,0.021936
m,0.014035
manag,0.007027
manfr,0.038031
manifest,0.011288
manual,0.024788
manuel,0.015692
mason,0.016983
matern,0.015676
maudsley,0.027423
mcglashan,0.028020
mcgorri,0.029695
medal,0.014409
medic,0.081325
medicin,0.037421
medico,0.029695
meggendorf,0.029695
melancholia,0.023822
member,0.006260
memori,0.030621
mental,0.063707
metaphys,0.012554
mexican,0.015631
meyer,0.016559
michael,0.027090
michel,0.026901
mikhail,0.015456
militari,0.007937
milton,0.014567
mind,0.009253
model,0.006112
modern,0.011771
mood,0.015471
motherchild,0.026480
n,0.008811
na,0.014838
nanci,0.016619
nation,0.010874
neofreudian,0.024645
neurodevelopment,0.024645
neurolog,0.014849
neurologist,0.167740
neuropsychiatri,0.024208
neuros,0.023644
neurosci,0.013528
neuroscientist,0.035659
neurotransmitt,0.017145
new,0.013148
nobel,0.011422
norman,0.013825
nosolog,0.066120
nossrat,0.029695
notabl,0.007529
note,0.011314
notion,0.009283
o,0.010347
observ,0.006476
offic,0.007898
okasha,0.025748
optogenet,0.022258
osmond,0.028020
oswald,0.018510
otto,0.013825
outspoken,0.018168
p,0.007490
paranoia,0.021460
paranorm,0.019465
pard,0.025748
parent,0.011050
parker,0.017443
particular,0.006141
past,0.007784
patricia,0.016916
patrick,0.014209
peck,0.020220
peopl,0.010819
person,0.006420
personalityori,0.029695
peseschkian,0.029695
peter,0.017894
petrovich,0.023822
philipp,0.015692
philosoph,0.008612
physician,0.024755
physiolog,0.011557
pilowski,0.029695
pinel,0.024208
pioneer,0.030750
pittsburgh,0.018136
pivolt,0.029695
pole,0.013592
polit,0.018475
pond,0.017341
posit,0.005815
posttraumat,0.042745
presbyterian,0.018772
presid,0.048822
princip,0.008789
prize,0.010493
problem,0.006017
process,0.005319
prof,0.017193
professor,0.050280
progress,0.007668
protg,0.020043
pseudohallucin,0.029695
psychedel,0.020344
psychiatr,0.143362
psychiatri,0.445104
psychiatrist,0.315407
psychic,0.017469
psychoanalysi,0.034243
psychoanalyst,0.059147
psychoanalyt,0.035718
psycholog,0.057545
psychologist,0.051572
psycholyt,0.029695
psychoneurolog,0.029695
psychopathi,0.044747
psychopatholog,0.035098
psychopharmacolog,0.021044
psychosi,0.040321
psychotherapi,0.118413
psychotherapist,0.040564
pulitzerwin,0.028020
punit,0.018932
pyotr,0.020818
q,0.012601
quantit,0.010453
r,0.015058
radic,0.010314
rawl,0.019232
rct,0.024208
realiti,0.009706
recipi,0.013773
recoveri,0.023759
ree,0.019664
refer,0.003568
reflex,0.015692
reform,0.026186
relationship,0.006811
research,0.081047
retreat,0.013782
richard,0.026446
richmond,0.018811
right,0.012807
river,0.009756
rm,0.016960
robert,0.039230
role,0.006251
ronald,0.012747
rorschach,0.050302
royal,0.028246
russel,0.012507
russian,0.114920
rutter,0.022879
rvasarski,0.029695
s,0.010122
saintpetersburg,0.029695
sakel,0.028752
samuel,0.012685
sargant,0.029695
saul,0.017217
schechter,0.024888
schizoid,0.049291
schizophrenia,0.124604
schneider,0.018474
school,0.014520
scienc,0.018005
scientif,0.007180
scientist,0.016319
scott,0.013206
scottish,0.054793
secur,0.007581
semyon,0.026094
serbski,0.029695
sergei,0.018733
sergeievich,0.029695
servic,0.006952
seymour,0.018404
shaffer,0.024208
sharp,0.012060
shepherd,0.018301
shock,0.024399
sigmund,0.016559
sigusch,0.028020
simon,0.011932
sir,0.022419
skumin,0.049291
sleep,0.014132
sloankett,0.025436
sluggishli,0.028752
snezhnevski,0.028020
snyder,0.019613
social,0.006317
societi,0.006222
solomon,0.015250
son,0.009508
south,0.007777
soviet,0.043027
specialis,0.043165
specialist,0.024645
spiritu,0.011443
spitzer,0.021936
stanford,0.011536
statist,0.008147
steiner,0.018620
stern,0.016960
stress,0.030552
studi,0.015745
suicid,0.014238
sula,0.023644
sulkowicz,0.029695
susan,0.015184
swanton,0.025436
swedish,0.013544
swiss,0.085023
syndrom,0.060531
szasz,0.023644
t,0.017281
technolog,0.007160
teenag,0.035543
telepsychiatrist,0.029695
televis,0.011194
term,0.014078
test,0.008118
textbook,0.022388
theoretician,0.018733
theori,0.005821
theorist,0.023149
therapi,0.101194
thi,0.007429
thoma,0.017767
thought,0.007038
time,0.004394
tobincoop,0.029695
torrey,0.022147
treatment,0.009135
tuke,0.052960
turkishcypriot,0.025748
turnbul,0.022616
typolog,0.017145
u,0.011587
ugo,0.022745
ukrainian,0.017217
union,0.014759
univers,0.036005
v,0.026565
vamk,0.029695
vice,0.011497
victor,0.026734
viennes,0.021642
viktor,0.018695
vladimir,0.028265
vladimirovich,0.024419
vm,0.021835
volkan,0.028752
volkmar,0.027423
w,0.016665
walter,0.011846
wayn,0.017631
weill,0.076308
welldon,0.028020
wess,0.026094
west,0.008527
whistl,0.040441
whybrow,0.029695
william,0.023873
wolff,0.017948
work,0.004868
world,0.005035
wpa,0.023316
writer,0.010192
wrote,0.008461
x,0.017586
y,0.010575
yale,0.013576
yalom,0.024009
year,0.005012
yevgenyevich,0.028020
york,0.015297
z,0.012116
zealand,0.011808
zeanah,0.029695
