abil,0.016518
abl,0.034120
abnorm,0.007469
absolut,0.005090
accept,0.011304
access,0.004152
accord,0.009003
account,0.003534
accur,0.020454
acknowledg,0.011575
acquaint,0.008784
acquir,0.004888
act,0.010290
action,0.022126
activ,0.005989
actual,0.015365
acut,0.015754
adapt,0.009558
add,0.005723
addit,0.003036
adult,0.017627
advanc,0.003706
affect,0.011766
agent,0.030704
aim,0.004285
al,0.010296
aliv,0.007499
allegi,0.024037
allow,0.026862
allstar,0.013524
alreadi,0.004372
alsoedit,0.009449
alter,0.005383
alway,0.004036
ambit,0.031313
amnesia,0.011610
analysi,0.007236
analysisedit,0.014312
andor,0.005252
ani,0.015870
anoth,0.017320
anyon,0.006543
appar,0.005123
appear,0.013905
apprais,0.018012
approach,0.003454
appropri,0.004811
archetyp,0.017589
area,0.005961
argu,0.007985
arguabl,0.007314
argument,0.005042
aris,0.014689
arrest,0.013192
aspect,0.007889
assess,0.010224
associ,0.008795
assum,0.004157
athlet,0.017345
atmospher,0.005879
attack,0.004839
attempt,0.010270
attend,0.005726
attent,0.004894
attribut,0.013997
author,0.003379
autism,0.009881
autist,0.012094
autobiograph,0.020549
automat,0.012254
autonom,0.006069
autonomi,0.006271
avoid,0.004483
awar,0.005430
bad,0.018470
base,0.013076
basi,0.003738
becaus,0.005448
becom,0.008691
behavior,0.046697
behaviour,0.005579
belief,0.038756
believ,0.011229
belong,0.005113
benefici,0.013282
bern,0.041001
besid,0.006191
best,0.007977
better,0.016324
bia,0.006900
bias,0.007499
biolog,0.004292
biotechnologist,0.013104
bipolar,0.009861
blame,0.014378
bodi,0.010894
book,0.003439
borrow,0.006006
bought,0.006915
bowlwin,0.015789
brain,0.011582
breath,0.007780
brown,0.006140
buy,0.011450
capabl,0.004773
capit,0.007884
caregiv,0.021194
caretak,0.009842
carri,0.003907
case,0.006061
categori,0.009249
caus,0.003235
center,0.023195
centr,0.004983
central,0.006795
certain,0.009952
chang,0.030059
charg,0.004677
child,0.081500
childhood,0.007745
children,0.004985
choic,0.023813
choos,0.005214
christ,0.007734
chronic,0.037251
circl,0.017522
circular,0.007064
classroom,0.008815
clear,0.013534
clinic,0.012643
clinician,0.019023
close,0.003243
closer,0.023991
cognit,0.017240
coher,0.013363
color,0.006038
combin,0.013826
come,0.010400
command,0.010171
common,0.002931
commun,0.006339
compar,0.021512
comparison,0.025416
compet,0.004998
complementari,0.007072
complet,0.006696
complex,0.007094
compli,0.007992
compos,0.009198
compromis,0.006969
conceiv,0.006365
concept,0.010149
conceptedit,0.014899
conceptu,0.017504
conclud,0.004958
conclus,0.005401
condit,0.010176
conduct,0.004154
confid,0.024805
confus,0.016369
connect,0.007982
consciou,0.014336
conscious,0.018526
consequ,0.004122
consid,0.008481
consist,0.022712
constant,0.009639
constantli,0.006758
constitut,0.011483
constraint,0.006019
construct,0.011262
contact,0.005087
contain,0.017389
continu,0.011749
continuum,0.007235
contrari,0.012678
contrast,0.004095
contribut,0.007116
control,0.019325
conway,0.019723
coupl,0.005609
courtesi,0.010428
cramp,0.011776
creat,0.002965
creativ,0.012528
crimin,0.006140
critic,0.014264
critiqu,0.006159
cross,0.005291
crystal,0.006801
cultur,0.003645
cuneiform,0.010023
cur,0.011069
cure,0.007435
current,0.012414
dataprocess,0.014581
daughter,0.013307
decis,0.008174
defens,0.005321
deficit,0.013458
defin,0.016635
definit,0.003833
dei,0.009695
demand,0.004328
demonstr,0.004357
depend,0.009596
depress,0.012046
depth,0.006365
deriv,0.003686
describ,0.008951
design,0.007121
desir,0.031938
determin,0.003366
develop,0.009698
development,0.006824
did,0.010796
differ,0.010280
difficult,0.008456
direct,0.003219
disappoint,0.016639
discourag,0.014638
discov,0.012807
discuss,0.003955
display,0.011019
dissoci,0.008948
distinct,0.003733
distinguish,0.012912
diverg,0.013104
divid,0.011532
divin,0.012896
doctor,0.011571
doe,0.009840
donald,0.006834
dougla,0.007164
downward,0.007780
drawn,0.005721
dream,0.020997
durat,0.006904
dynam,0.009090
e,0.003928
earli,0.002919
earlier,0.004312
earliest,0.004878
eat,0.013622
edward,0.005309
ego,0.167707
element,0.007424
els,0.006010
emerg,0.014963
emot,0.071949
empathi,0.028535
employ,0.011614
enabl,0.013886
end,0.009573
endless,0.008936
endur,0.007123
engag,0.004622
enhanc,0.005406
entail,0.013622
enterpris,0.005493
entir,0.003785
environ,0.003869
environment,0.004692
episod,0.043010
equilibrium,0.006100
eric,0.006933
establish,0.006229
et,0.010034
evalu,0.005057
event,0.011394
eventspecif,0.015789
everi,0.003652
everyth,0.011623
evolutionari,0.005750
exampl,0.026140
excess,0.005640
execut,0.004421
exhibitionist,0.015789
exist,0.005804
expans,0.004924
expect,0.032081
experi,0.075373
experienc,0.010479
experiencedist,0.015789
experiencenear,0.015789
experienti,0.009419
explain,0.011787
exploit,0.005433
explor,0.004447
expos,0.005846
express,0.011345
extens,0.003941
extern,0.004564
fabric,0.007301
face,0.004380
facet,0.008663
facetofac,0.010455
facilit,0.005261
fact,0.018529
factor,0.011102
fail,0.008776
failur,0.005078
fairli,0.006611
fall,0.003984
fals,0.076954
fantasi,0.016529
featur,0.007894
feedback,0.028350
feel,0.060020
fewer,0.006189
figur,0.008645
final,0.003775
fit,0.005313
focu,0.004281
follow,0.002496
food,0.008983
footbal,0.023430
forfeit,0.010957
form,0.019085
formul,0.004998
formulationedit,0.014581
foster,0.006672
foucault,0.009030
frank,0.006111
free,0.010694
friendli,0.007189
frustrat,0.024017
fun,0.009981
function,0.012781
futur,0.003801
gain,0.018985
gather,0.016322
gave,0.004541
gener,0.013456
gestur,0.008634
given,0.003130
glass,0.006879
glorifi,0.010539
goal,0.008585
good,0.020819
govern,0.002967
grade,0.007279
grandios,0.059482
grasp,0.007786
gratifi,0.012025
greater,0.007862
ground,0.013624
group,0.002815
grow,0.004002
grownup,0.013524
guid,0.004412
guidelin,0.006922
guntrip,0.015789
ha,0.022892
happen,0.004932
hard,0.005122
harm,0.006017
harri,0.006563
harshli,0.010066
health,0.008702
healthi,0.013629
healthier,0.010568
heart,0.005728
heavili,0.005031
heinz,0.009730
help,0.013667
hi,0.022387
hidden,0.006872
hide,0.014776
high,0.018961
higher,0.007420
highli,0.004108
hint,0.008496
hold,0.003759
home,0.004456
homeless,0.009576
hope,0.005313
howev,0.022796
human,0.021048
hypothesi,0.005436
idea,0.010508
ideal,0.040626
ident,0.031282
identif,0.018443
identifi,0.007545
illus,0.023118
imag,0.009611
imagin,0.006239
imago,0.022917
imbal,0.008094
imperson,0.009643
implicit,0.021931
import,0.007985
imposs,0.005277
improv,0.003840
inaccur,0.008461
includ,0.006499
incorpor,0.004285
incorrect,0.007430
independ,0.003205
individu,0.032192
inevit,0.006876
infant,0.007499
infer,0.011995
inform,0.018617
initi,0.003391
injuri,0.020756
inner,0.025096
insight,0.011578
instanc,0.004226
instil,0.009785
integr,0.011299
intellig,0.004869
intens,0.005183
interact,0.015576
interaction,0.010851
interconnect,0.007545
interfac,0.006794
interperson,0.044078
intim,0.015620
introspect,0.038305
invalid,0.007834
invent,0.015235
invok,0.022483
involv,0.006051
inward,0.008902
john,0.003549
jonathon,0.014079
judg,0.023053
judgment,0.006614
jump,0.007206
jung,0.028981
jungian,0.034830
just,0.014556
kenrick,0.013524
kind,0.016628
knew,0.022053
know,0.052015
knower,0.011410
knowledg,0.023551
known,0.013038
kohut,0.198506
lack,0.007957
later,0.006206
learn,0.021916
leav,0.004418
led,0.006735
length,0.005176
level,0.012480
life,0.033541
like,0.019509
limit,0.003186
linguist,0.012267
link,0.002268
linksedit,0.009527
littl,0.007986
live,0.006747
lock,0.006758
long,0.003387
longterm,0.010981
look,0.012924
lookingglass,0.038953
lot,0.006426
love,0.012388
low,0.011996
lower,0.003855
main,0.006606
maintain,0.003638
major,0.008304
make,0.026531
manag,0.007473
mandala,0.011148
mani,0.009432
manifest,0.006002
manner,0.010070
match,0.005548
maxim,0.005933
mean,0.002873
mechan,0.003852
meet,0.008442
member,0.003328
memor,0.008663
memori,0.070554
mental,0.028228
mere,0.005132
merger,0.007560
messag,0.006483
method,0.009693
mind,0.014760
mirror,0.007044
mobil,0.011083
model,0.003249
modern,0.006258
modifi,0.010181
moham,0.008487
moment,0.011871
mother,0.012025
motiv,0.040776
multipli,0.006725
muscl,0.007235
narcissist,0.071012
narr,0.013731
nation,0.002891
natur,0.011141
necessari,0.012473
need,0.003136
neg,0.022621
neglect,0.006824
network,0.004361
neural,0.007010
neutral,0.005710
new,0.002330
nikola,0.010156
nisbett,0.013691
norm,0.012103
normal,0.004158
normalfunct,0.015288
note,0.003008
notion,0.019744
nowak,0.012572
number,0.002610
nurtur,0.025817
object,0.014266
objectenact,0.015789
observ,0.024104
obtain,0.008110
occas,0.006489
occur,0.016573
old,0.004316
olymp,0.007877
omnipot,0.009842
oneself,0.032666
onli,0.004803
oper,0.003291
opposit,0.004292
optim,0.005533
optimist,0.008794
order,0.023000
organ,0.005691
organis,0.004939
origin,0.002891
otherinself,0.015789
othersbut,0.015789
otherwis,0.004962
ourselv,0.058987
oust,0.008152
outsid,0.003980
outwardli,0.011776
overal,0.009550
overestim,0.009749
ownership,0.006127
p,0.003982
page,0.005114
pain,0.085906
painedit,0.015789
parent,0.070508
parti,0.008063
partial,0.004799
particular,0.016328
partner,0.005703
past,0.016555
pathway,0.007006
patient,0.025419
patientto,0.015789
peak,0.005725
peakend,0.014899
penetr,0.006969
peopl,0.117937
perceiv,0.031480
percept,0.016660
perfect,0.011658
perform,0.007335
perman,0.005056
person,0.211665
personalityinclud,0.015789
personhood,0.011031
personif,0.010993
pessimist,0.009695
phenomena,0.004981
phenomenaedit,0.015789
phenomenolog,0.007889
phenomenon,0.010746
philosoph,0.004579
place,0.002950
planet,0.005919
play,0.011300
player,0.020484
pole,0.036136
polit,0.006549
portray,0.013582
posit,0.024736
possibl,0.006102
postur,0.009129
power,0.003061
practic,0.003200
preconceiv,0.034830
predisposit,0.010324
prefer,0.004581
prehistori,0.007514
prejud,0.012165
prematur,0.008513
preoccup,0.009823
present,0.005982
preserv,0.020170
prevent,0.004277
previou,0.018046
previous,0.004560
pride,0.008233
primit,0.019860
prior,0.004518
privat,0.008579
probabl,0.004292
process,0.014141
product,0.009354
progress,0.004077
prone,0.008264
properti,0.003622
propos,0.040603
protect,0.015949
prove,0.004617
provid,0.002654
provok,0.007656
psych,0.009345
psychic,0.009288
psycholog,0.056095
psychologist,0.020566
psychologyedit,0.014079
psychotherapi,0.008994
public,0.012052
qualiti,0.017830
question,0.003757
quiet,0.017526
quit,0.005056
racial,0.007346
rare,0.004923
rate,0.014830
reaction,0.004865
read,0.003295
readjust,0.012239
real,0.011814
realism,0.014804
realist,0.013041
realiti,0.005161
realiz,0.005305
rearrang,0.008130
reason,0.006810
rebel,0.006893
rebelli,0.019390
recal,0.036687
receiv,0.010875
recognit,0.005200
recollect,0.057070
recov,0.005840
recoveri,0.006316
refer,0.009486
referencesedit,0.009345
reflect,0.004077
regard,0.021841
reific,0.011719
reinforc,0.012923
reject,0.004677
relat,0.012791
relationship,0.014487
reli,0.009143
remain,0.012552
replac,0.003866
repres,0.009337
represent,0.004786
reput,0.006602
requir,0.002986
research,0.009234
resembl,0.005985
resid,0.020107
resili,0.008702
respect,0.003608
respond,0.015352
respons,0.006581
result,0.005286
right,0.006809
risk,0.004668
role,0.023267
romant,0.008073
root,0.009586
rose,0.011515
rosenburg,0.015789
ross,0.015526
royal,0.005006
rule,0.006927
run,0.004169
sampson,0.011507
sanskrit,0.007858
saw,0.009286
scenario,0.013745
school,0.007720
script,0.007479
search,0.004856
seek,0.008515
seen,0.018614
segment,0.006500
self,0.762906
selfaccept,0.014312
selfawar,0.073135
selfconcept,0.064905
selfconceptsedit,0.015789
selfconfid,0.011319
selfcontain,0.010375
selfcontrol,0.010066
selfdecept,0.046655
selfedit,0.063157
selfefficaci,0.011069
selfenhanc,0.063157
selfesteem,0.119781
selfexplan,0.014899
selfexploit,0.015789
selfformationth,0.015789
selfhelp,0.010921
selfhood,0.037717
selfident,0.011410
selfimag,0.010885
selfinoth,0.015789
selfknowledg,0.078924
selfknowledgeedit,0.015789
selfmemori,0.031578
selfobject,0.044697
selfpercept,0.036282
selfpresent,0.012666
selfprotect,0.012766
selfreferenti,0.011719
selfserv,0.011108
selv,0.063066
selvesedit,0.015789
semant,0.021100
sens,0.031233
serv,0.003776
set,0.002939
sever,0.008258
sexual,0.006234
shame,0.009861
shape,0.004522
shelley,0.010023
shorter,0.013509
shown,0.004575
signifi,0.007656
sinc,0.002640
sing,0.026228
situat,0.044722
skill,0.010174
sm,0.009592
smart,0.016591
smooth,0.007003
social,0.083981
societi,0.006616
sociocultur,0.009331
soft,0.006741
sole,0.005360
someth,0.010154
sometim,0.006875
sourc,0.003321
space,0.004071
speak,0.005063
specif,0.003159
spiritu,0.006084
spite,0.007607
spontan,0.006824
stabil,0.009849
stage,0.009223
stand,0.004962
state,0.057763
step,0.004477
stigmat,0.010597
stock,0.005094
stone,0.005897
storylik,0.015789
straight,0.007323
strategi,0.014757
stress,0.010830
strive,0.030283
strong,0.003836
structur,0.003085
stuck,0.009207
studi,0.016744
subject,0.013437
success,0.014007
suffer,0.004819
suggest,0.022180
suit,0.006138
super,0.008568
support,0.006279
surviv,0.004554
symbol,0.023970
talk,0.005682
task,0.004898
taylor,0.006644
techniqu,0.004058
technolog,0.003807
temper,0.007966
tend,0.004336
term,0.004990
terribl,0.009129
themself,0.040574
themselv,0.035252
theori,0.046428
theorist,0.006154
therapeut,0.015584
therapist,0.018283
therefor,0.010767
thi,0.047403
thing,0.004201
think,0.036635
thought,0.029939
thu,0.009260
time,0.014018
titl,0.004739
toddler,0.011719
tone,0.008012
took,0.004125
total,0.003684
touch,0.006969
track,0.005842
trait,0.018770
transact,0.034114
transfer,0.045187
transit,0.004597
transitori,0.010299
tri,0.004156
trick,0.008826
true,0.034204
truli,0.006617
truth,0.011236
twinship,0.014079
twostep,0.011896
typic,0.003542
unactualis,0.015789
unconsci,0.023687
uncov,0.007509
understand,0.017922
understandingsedit,0.015789
understood,0.004955
undervalu,0.009961
unhealthi,0.009767
unifi,0.005527
uniqu,0.004502
uniti,0.005804
unless,0.005917
unlik,0.004397
unlimit,0.007902
unrealist,0.008643
untemp,0.015789
unwritten,0.011031
uptight,0.014899
upward,0.007351
use,0.010788
util,0.004777
valuabl,0.006199
vari,0.003892
variou,0.009018
veri,0.009047
verifi,0.006675
view,0.043998
visibl,0.005836
visual,0.005571
wa,0.019486
want,0.004875
way,0.028234
websit,0.004993
wellb,0.007064
went,0.004843
western,0.003972
wherea,0.022911
whi,0.009717
whilst,0.006821
wholli,0.007683
wife,0.006807
wilson,0.006596
win,0.005937
winnicott,0.087380
wise,0.016498
wish,0.011677
wolf,0.008087
womanman,0.015789
word,0.003665
work,0.018121
world,0.013386
worri,0.015561
wors,0.021785
year,0.007995
