abil,0.014419
abl,0.006618
abov,0.006708
academ,0.007848
academi,0.010094
accept,0.006578
accur,0.008927
achiev,0.006591
action,0.012876
activ,0.005228
actor,0.048316
actual,0.013412
adapt,0.041720
addit,0.005301
address,0.007890
adjust,0.010029
advisor,0.026848
affect,0.006847
aid,0.015721
al,0.026963
allevi,0.013988
allostat,0.027565
allow,0.010421
ambit,0.013666
america,0.007343
american,0.011873
amo,0.016578
angel,0.025131
ani,0.004618
anoth,0.035279
ap,0.015829
apa,0.032889
appear,0.012138
appli,0.016805
architect,0.013930
area,0.015612
arrest,0.011516
articl,0.012455
ascrib,0.013840
ask,0.008662
assert,0.009001
assess,0.008925
associ,0.015356
assumpt,0.008927
attend,0.019996
attenu,0.016633
attitud,0.032271
attribut,0.024436
august,0.007962
author,0.005899
award,0.055426
away,0.007981
base,0.004565
basi,0.006526
becam,0.028876
becaus,0.014268
becom,0.005057
befor,0.005396
befriend,0.073600
began,0.025236
behavior,0.014823
belief,0.016915
bem,0.020880
best,0.006963
bias,0.026185
big,0.009566
biolog,0.044961
blood,0.010289
bodi,0.012680
bok,0.021644
bond,0.018048
book,0.036029
boost,0.012387
border,0.009307
born,0.017850
brain,0.020221
breakthrough,0.013483
breast,0.046513
briefli,0.011720
brodmann,0.023104
brown,0.021441
bruce,0.012981
built,0.007876
california,0.019385
cambridg,0.008380
came,0.006918
campu,0.014991
cancer,0.069827
cardiovascular,0.015682
care,0.007949
career,0.020761
caregiv,0.018501
carol,0.015682
carri,0.006821
caus,0.005648
causal,0.023563
center,0.006749
chang,0.009541
chappaqua,0.055131
chapter,0.009862
charact,0.008744
characterist,0.007293
check,0.010970
child,0.020326
children,0.026109
chosen,0.009669
christin,0.016524
chronic,0.013007
circumst,0.019442
cite,0.026552
citi,0.007308
class,0.014037
classmat,0.019840
clear,0.007876
clearli,0.009515
clinic,0.011036
clinician,0.016606
club,0.012272
coauthor,0.014510
cognit,0.120397
collabor,0.009721
colleagu,0.057195
colleg,0.018373
comment,0.030410
comparison,0.008874
concept,0.005906
condit,0.005922
conduct,0.021761
confer,0.008331
connect,0.006968
connecticut,0.031244
consider,0.007112
consist,0.005664
contact,0.008881
continu,0.005128
contradictori,0.014943
contrast,0.007149
contribut,0.018636
control,0.005623
cope,0.013583
cortisol,0.020880
cours,0.014753
critic,0.006225
crucial,0.010303
cultur,0.012727
cumul,0.013433
cut,0.008985
dacc,0.027565
daniel,0.010527
daryl,0.020769
daughter,0.011616
david,0.022555
deal,0.006818
decid,0.024745
deficit,0.011747
defin,0.005808
degre,0.006931
demonstr,0.007607
depart,0.007421
derek,0.016896
describ,0.005209
develop,0.038096
did,0.043980
differ,0.013460
difficult,0.007382
disciplin,0.007799
discuss,0.013812
diseas,0.026598
dissert,0.028830
distinguish,0.022543
doctor,0.010100
doe,0.005726
dollar,0.009889
dr,0.084009
drew,0.023330
dunkelschett,0.027565
dure,0.009744
dweck,0.024223
earli,0.005096
edit,0.007975
effect,0.009900
eisenberg,0.064104
elain,0.018660
elev,0.022738
elicit,0.015210
elizabeth,0.012123
ellen,0.015523
emerg,0.006530
emot,0.010467
empathet,0.022114
encount,0.020072
endorphin,0.022878
engulf,0.018025
enrol,0.014012
entitl,0.021039
environ,0.027019
eritrea,0.016690
especi,0.005917
et,0.026277
evalu,0.008829
event,0.033156
eventu,0.014485
evid,0.006948
evolutionari,0.020079
evolutionarili,0.018400
evolv,0.025092
examin,0.015951
exampl,0.018254
experi,0.025064
explor,0.015528
exposur,0.011324
extern,0.007969
face,0.022944
faculti,0.023540
fals,0.010334
famili,0.028223
famou,0.016836
far,0.006909
father,0.017917
feedback,0.012374
feel,0.009526
fellow,0.011521
femal,0.020461
fernand,0.016835
field,0.027823
fight,0.047806
fightorflight,0.023612
figur,0.015093
fisk,0.100453
flat,0.011654
flee,0.026133
flight,0.033490
fmri,0.018025
focu,0.007475
focus,0.014186
foe,0.017691
follow,0.004358
form,0.004164
formerli,0.010207
friedman,0.014083
friend,0.032467
function,0.005578
fund,0.007512
futur,0.026546
gabl,0.023902
gain,0.006629
gender,0.023362
gener,0.003915
given,0.005465
goethal,0.024987
gonzaga,0.024987
good,0.006058
graduat,0.030631
grant,0.008353
greatli,0.008923
greeley,0.023612
grew,0.009105
group,0.019660
grow,0.006987
gurung,0.024223
ha,0.039966
harder,0.013543
harm,0.021009
harvard,0.095812
haven,0.013796
head,0.014068
health,0.129136
heart,0.010001
heavili,0.017569
held,0.006442
help,0.011930
henri,0.008782
heurist,0.013942
hi,0.004885
high,0.016552
highli,0.007173
hillmert,0.027565
histori,0.027230
historian,0.009181
hold,0.006563
home,0.007780
honor,0.011271
horac,0.016316
hormon,0.014120
hospit,0.010745
hour,0.009575
howard,0.012640
howev,0.022110
human,0.005249
husband,0.042583
hypothalamicpituitaryadren,0.022878
hypothes,0.043339
ident,0.007802
ii,0.007131
illus,0.174896
illusori,0.017613
imag,0.008390
impact,0.007467
import,0.013941
includ,0.015130
incorrectli,0.014741
indic,0.006703
induct,0.012066
inelig,0.019259
infant,0.039278
infer,0.031414
influenc,0.024006
influenti,0.017526
inform,0.016251
insight,0.010107
instead,0.012764
instinct,0.028830
institut,0.005765
instructor,0.016366
instrument,0.016780
intens,0.009049
interview,0.056334
introductori,0.012990
involv,0.010564
jame,0.015369
jazz,0.018715
john,0.018592
join,0.016209
jonathan,0.012739
journal,0.014016
judgment,0.011547
judi,0.018945
kahneman,0.018350
kenneth,0.012226
kensington,0.020995
kid,0.016266
kiesler,0.026011
kisco,0.026011
known,0.004552
kraut,0.023902
lab,0.011903
laboratori,0.018490
langer,0.018660
later,0.005417
lead,0.021741
leader,0.031863
lean,0.014879
learn,0.015305
leav,0.015429
led,0.005879
lehman,0.018302
lesser,0.011168
level,0.010894
levin,0.015872
liber,0.008213
libeskind,0.050913
lieberman,0.058392
life,0.029279
lifetim,0.011665
like,0.024328
link,0.011883
list,0.005065
live,0.005889
livesi,0.027565
lo,0.024986
load,0.012500
long,0.005914
longer,0.007512
look,0.015042
lose,0.009580
lot,0.044877
lower,0.006730
macarthur,0.017355
magnet,0.010693
main,0.005766
major,0.009665
make,0.009264
maladjust,0.026690
man,0.016118
mani,0.008234
mark,0.007313
match,0.009686
matthew,0.013208
mayman,0.027565
mcconahay,0.027565
mcewen,0.021949
mean,0.010032
mechan,0.013453
medic,0.016776
medicin,0.008684
member,0.011623
men,0.050678
mental,0.039426
mere,0.008960
mervyn,0.021368
met,0.009314
method,0.005641
mette,0.055131
michael,0.008382
mid,0.009070
mix,0.017522
model,0.034043
month,0.008047
mori,0.017020
mortal,0.012174
mostli,0.015543
mother,0.010497
movement,0.012562
mt,0.016551
naomi,0.018885
nascent,0.015281
nation,0.010094
near,0.007489
nesbitt,0.024223
network,0.007614
neural,0.012239
neuroendocrin,0.022114
neurosci,0.025117
new,0.016274
newli,0.009583
north,0.007232
note,0.005251
nurs,0.013254
object,0.012453
observ,0.012023
offspr,0.041000
older,0.009558
onc,0.006806
onli,0.012578
open,0.006235
oppos,0.015224
organ,0.009936
origin,0.010095
outcom,0.018624
overcom,0.011186
overli,0.014581
oxytocin,0.043898
pain,0.011536
pair,0.009706
paper,0.022547
particip,0.007185
particular,0.011402
partner,0.009957
pass,0.007076
patient,0.011094
peopl,0.060264
perceiv,0.009160
percept,0.009695
perform,0.006403
person,0.053642
perspect,0.040753
persuas,0.014348
pg,0.017285
phd,0.011770
phenomena,0.017393
pianist,0.020363
piano,0.018025
plasma,0.013347
point,0.005283
polici,0.006740
polio,0.019325
polymorph,0.015662
pop,0.015622
popular,0.006516
posit,0.070177
poverti,0.010745
predict,0.007642
preexist,0.014219
prepar,0.008471
present,0.005222
presid,0.007553
pressur,0.007862
previou,0.007876
primari,0.006894
process,0.019751
profession,0.008463
professor,0.009335
program,0.013140
prolif,0.014895
promot,0.007450
protect,0.013922
protein,0.010610
protest,0.009706
provid,0.004634
psychiatr,0.014787
psychiatrist,0.016266
psycholog,0.267096
psychologist,0.047874
psychosoci,0.034040
public,0.005260
publish,0.017392
pursu,0.018998
rate,0.012945
readjust,0.021368
realiz,0.009262
recal,0.025620
receiv,0.044301
recoveri,0.011027
refer,0.003312
regan,0.022114
regard,0.012710
regul,0.007842
regulatori,0.011464
relat,0.013399
relationship,0.012646
rena,0.026690
repetti,0.082697
report,0.006366
reproduct,0.011252
research,0.075236
reson,0.012677
resourc,0.006706
respond,0.008934
respons,0.028727
rid,0.015983
riski,0.028095
robert,0.007283
rochest,0.016747
rodin,0.022287
roedig,0.025456
role,0.011605
run,0.014559
s,0.014094
said,0.006806
salienc,0.082238
salient,0.049333
saphirebernstein,0.027565
sara,0.017613
satisfi,0.009826
saxb,0.027565
say,0.014353
schizophren,0.020559
scholarli,0.011725
school,0.053916
scienc,0.011142
scientif,0.013331
scientist,0.007574
scope,0.009738
sear,0.018350
second,0.005436
seek,0.007433
seeman,0.078034
seen,0.019499
select,0.007203
self,0.011383
selfesteem,0.017426
selfpercept,0.021114
sequel,0.016266
serotonin,0.018945
servic,0.012908
sever,0.004806
shedler,0.027565
shelley,0.052500
signific,0.005885
simpl,0.007325
sitin,0.022668
situat,0.021294
situationimagin,0.027565
skin,0.011692
slope,0.013309
smadar,0.027565
small,0.005641
snap,0.018160
social,0.181807
societi,0.005776
socioeconom,0.026638
solitari,0.016926
someon,0.010769
son,0.008827
sort,0.009669
specialti,0.013092
spend,0.019139
standpoint,0.014682
startup,0.016028
state,0.016135
statu,0.015399
stereotyp,0.030283
storm,0.025830
stress,0.113448
stressor,0.034639
stronger,0.011099
student,0.023540
studi,0.014616
style,0.009499
subfield,0.011867
subsequ,0.007194
summer,0.021330
support,0.021925
susan,0.042287
symptom,0.013119
talk,0.009920
task,0.017104
taught,0.020557
taylor,0.661216
teach,0.009031
teacher,0.042260
tear,0.014787
tend,0.052994
tendandbefriend,0.027565
tenur,0.013977
teresa,0.018945
terribl,0.015938
test,0.007536
themselv,0.020515
theori,0.027019
thi,0.027586
thing,0.014671
thought,0.013067
threat,0.009669
threaten,0.010482
tight,0.014071
time,0.040790
titl,0.008275
token,0.031047
tool,0.007382
topic,0.007314
tradit,0.005805
train,0.007960
transport,0.007903
true,0.007464
truli,0.011552
turn,0.012747
tverski,0.019193
typic,0.024739
ucla,0.084788
undergradu,0.012279
undermin,0.012219
understand,0.012515
unhealthi,0.017052
unit,0.004649
univers,0.028649
unrealist,0.015090
use,0.011301
usual,0.005547
vasopressin,0.022668
veri,0.031589
view,0.017726
viewer,0.016168
villag,0.010534
violenc,0.010979
visual,0.009726
volunt,0.025417
vulner,0.011725
wa,0.117181
walster,0.027565
want,0.017023
war,0.006549
way,0.004929
wear,0.012493
wellb,0.012333
wellknown,0.010822
went,0.016911
william,0.007387
winner,0.012693
withdraw,0.011081
woman,0.023021
women,0.157931
work,0.076833
world,0.009348
wrote,0.007854
yale,0.151233
year,0.009305
york,0.021301
youd,0.022287
young,0.008560
zanna,0.025456
