abov,0.003370
abraham,0.008243
absorb,0.001754
abstract,0.001544
academ,0.022345
academia,0.002263
accept,0.001101
accommod,0.002037
accord,0.033346
account,0.002067
accredit,0.002222
achiev,0.001103
achterberg,0.004616
acid,0.001768
action,0.001078
activ,0.001751
adam,0.007123
adapt,0.005589
addict,0.005448
addit,0.004439
address,0.007929
adeney,0.004356
admit,0.001850
admitt,0.003379
adopt,0.001211
adult,0.001717
adulthood,0.002745
advanc,0.001083
advoc,0.001506
aesthet,0.002128
affect,0.001146
affili,0.002007
age,0.007693
agephilosophi,0.004616
agoni,0.003496
agreement,0.001339
aid,0.001316
albani,0.002990
albert,0.001783
alexand,0.003362
ali,0.004351
align,0.001895
alllevel,0.004616
allow,0.000872
allquadr,0.004616
alreadi,0.002556
alter,0.004722
altern,0.006765
alway,0.001180
alyc,0.009233
america,0.001229
american,0.010937
analysi,0.002115
analyt,0.003199
ancient,0.001271
andor,0.001535
andr,0.002290
anecdot,0.002587
announc,0.005894
anoth,0.004220
answer,0.003125
anthoni,0.004144
anthropolog,0.005968
antipsychiatri,0.003516
apa,0.016524
appear,0.004065
appli,0.000938
applic,0.001048
approach,0.020199
appropri,0.002813
approv,0.003015
approxim,0.001195
area,0.009587
argu,0.003502
argument,0.001474
arrest,0.001928
arriv,0.001412
art,0.016110
arthur,0.001790
articl,0.005214
arupa,0.004356
arupyadhatu,0.004616
ascent,0.002799
asian,0.001671
ask,0.001450
aspect,0.012687
assagioli,0.008712
assist,0.001308
associ,0.029147
assort,0.005423
assumpt,0.002990
atlant,0.001859
atman,0.006325
atp,0.002619
attach,0.001661
attempt,0.003003
attent,0.011448
attract,0.002824
attribut,0.001364
author,0.017785
authoritarian,0.002251
avail,0.001072
awaken,0.004968
awar,0.001587
away,0.001336
b,0.003487
banner,0.002574
barbara,0.002323
barri,0.002323
barrier,0.001785
base,0.003823
basi,0.001093
basic,0.003193
bateson,0.002924
battista,0.012196
becaus,0.000796
becom,0.003388
befor,0.000903
begin,0.004127
behavior,0.003723
behaviour,0.001631
belief,0.004249
believ,0.002188
belong,0.001495
besid,0.001810
beyondego,0.004616
bibliographi,0.003077
bidwel,0.004056
biograph,0.007209
biolog,0.002509
biologist,0.001979
birth,0.003118
birthrel,0.004616
blackwel,0.002212
board,0.001526
bodi,0.005309
bodycent,0.003796
bodyheartsoul,0.004616
bokor,0.004356
bondag,0.003153
book,0.012068
boucovola,0.018466
branch,0.002250
brant,0.007909
breathwork,0.008712
breccia,0.008712
bri,0.003796
brief,0.001677
bring,0.002630
bristol,0.002776
british,0.003544
broad,0.002842
broader,0.001764
brought,0.002608
brown,0.001795
buddhism,0.006464
buddhist,0.002128
burlington,0.006428
busi,0.002385
bypass,0.002454
c,0.002025
california,0.016232
canadian,0.001798
capac,0.001469
caplan,0.007032
capril,0.009233
carl,0.005308
carri,0.003427
cartesian,0.002432
cartographi,0.002680
case,0.000886
categori,0.036511
caus,0.002837
centaur,0.003460
center,0.002260
central,0.006954
certain,0.001939
cessat,0.002790
cg,0.006022
chain,0.001583
challeng,0.001265
chang,0.005593
chapter,0.003303
character,0.001344
charl,0.001357
child,0.001702
chinen,0.013849
choos,0.001524
christian,0.002746
christina,0.006082
chronicl,0.002232
cite,0.001482
claim,0.002151
classifi,0.001433
classroom,0.007732
clear,0.002638
client,0.002041
climat,0.001513
clinic,0.033270
clinician,0.002781
close,0.004741
closer,0.001753
coast,0.001617
coauthor,0.004860
cocr,0.004184
code,0.001371
coexsystem,0.004616
cofound,0.002434
cognit,0.001680
coin,0.001467
collabor,0.001628
colleagu,0.001915
collect,0.001033
colleg,0.007692
columbia,0.001971
combin,0.001010
come,0.005068
comment,0.047535
commit,0.001485
committe,0.001520
common,0.000857
commun,0.002780
compil,0.003657
complet,0.000978
complic,0.001606
concept,0.011870
conceptu,0.006824
concern,0.006965
conclud,0.001449
condit,0.007934
conduct,0.001214
confirm,0.001528
conflict,0.001320
confront,0.001958
confus,0.003190
connect,0.001167
conscienti,0.002894
conscious,0.046946
consequ,0.002410
consid,0.010746
consist,0.002846
construct,0.002195
contact,0.002974
contain,0.001016
contemporari,0.006932
context,0.007481
continu,0.001717
continuum,0.002115
contrast,0.002394
contribut,0.017686
contributor,0.004147
control,0.000941
controversi,0.008380
convent,0.004117
convers,0.002924
convey,0.002140
cooper,0.001354
correl,0.001652
correspond,0.006433
cortright,0.027699
cosmo,0.002398
council,0.003877
counsel,0.004563
countercultur,0.003065
counterpart,0.001900
cowley,0.003578
creativ,0.001831
credit,0.002743
crise,0.002186
crisi,0.007313
criteria,0.003550
critic,0.039621
criticis,0.002086
critiqu,0.001800
cult,0.004632
cultur,0.006394
cunningham,0.005874
curriculum,0.006587
d,0.002295
dabrowski,0.004616
dame,0.002771
daniel,0.003526
dark,0.001832
darshana,0.004116
data,0.001131
databas,0.001658
date,0.001184
davi,0.006166
david,0.002518
dealt,0.002124
death,0.001241
debat,0.001319
decad,0.005154
deconstruct,0.002629
decrepitud,0.004616
deep,0.001578
deepest,0.002684
defens,0.001555
defi,0.002680
defin,0.005836
definit,0.013449
deifi,0.003259
demarc,0.002476
demis,0.002505
denomin,0.002111
depart,0.002485
departur,0.004353
depend,0.000935
depth,0.003722
derezot,0.004616
describ,0.010469
design,0.001041
develop,0.031901
development,0.011972
devot,0.001675
dharmata,0.004356
diagnosi,0.006452
diagnost,0.013619
dialogu,0.003957
did,0.004208
die,0.001358
diethylamid,0.003910
differ,0.010520
differenti,0.008611
difficulti,0.003061
dimens,0.021202
dipropyltryptamin,0.004616
direct,0.001882
disciplin,0.018286
disclos,0.002476
discours,0.001940
discuss,0.006939
diseas,0.001484
disord,0.009136
disput,0.001425
disrupt,0.003653
dissoci,0.002616
dissolv,0.001760
distanc,0.004528
distinct,0.006550
distinguish,0.002516
divers,0.002726
divid,0.001124
divis,0.011056
division,0.003203
doctrin,0.001699
doe,0.000959
domain,0.002768
domin,0.002332
donald,0.001998
dpt,0.003624
dr,0.001758
draw,0.007265
drug,0.001671
dsm,0.003284
dsmiv,0.021607
dsmivnot,0.004616
dsmivtr,0.007820
dsmmanual,0.004616
dsmpropos,0.004616
dsmsystem,0.004616
dualiti,0.004865
dure,0.002447
dw,0.003182
dwight,0.002785
dynam,0.011960
dynamicdialect,0.004616
dzogchen,0.007157
e,0.002297
earli,0.012803
earliest,0.002852
east,0.001312
eastern,0.001416
eastwest,0.005543
ecolog,0.003216
ed,0.001194
edit,0.002671
editor,0.001816
educ,0.002174
effect,0.002487
ego,0.024517
egoic,0.013068
ela,0.003496
elabor,0.001775
elev,0.001904
elkin,0.003703
elli,0.010335
elmer,0.005966
emancip,0.004883
embodi,0.003946
emerg,0.014218
emergencynot,0.004616
emot,0.001753
emphas,0.002995
emphasi,0.003095
empir,0.002381
empiric,0.009241
empiricist,0.002754
employ,0.001131
encompass,0.003195
encyclopedia,0.001469
end,0.000933
energi,0.001194
engag,0.001351
england,0.001480
engler,0.003649
enhanc,0.001580
enrich,0.002233
ensoul,0.003796
entail,0.001991
enter,0.001247
entheogen,0.003394
entitl,0.003523
entranc,0.002403
environ,0.001131
episod,0.004191
epistemolog,0.004056
equat,0.001419
equival,0.001374
era,0.001348
esalen,0.003910
esp,0.002969
essay,0.001653
essenti,0.001186
establish,0.007286
etpa,0.004616
eugen,0.002086
europ,0.001157
european,0.004251
event,0.003331
evid,0.001163
evidentiari,0.004263
evil,0.002075
evolut,0.002771
exampl,0.001528
execut,0.001292
exist,0.004243
existenti,0.004624
expand,0.007243
expens,0.001524
experi,0.035680
experienc,0.001532
experient,0.004616
explain,0.001148
explan,0.001502
explor,0.001300
express,0.008845
extend,0.002251
extens,0.001152
extern,0.000667
extrem,0.001224
f,0.006285
face,0.001280
facilit,0.001538
factor,0.001082
fade,0.002437
fadiman,0.011730
fail,0.003849
fair,0.001728
faith,0.003412
fallaci,0.007276
fantasi,0.002416
farther,0.004767
favor,0.004228
favour,0.005034
featur,0.002308
ferrer,0.049505
fewer,0.001809
field,0.083876
figur,0.005055
figureground,0.004184
film,0.001730
final,0.001103
focu,0.006259
focus,0.003563
folkpsycholog,0.004356
follow,0.005839
fontana,0.006180
forc,0.005487
foreground,0.003296
form,0.004185
formal,0.001141
formerli,0.003418
formul,0.001461
forth,0.001855
forti,0.002278
forward,0.001619
foster,0.001950
foulk,0.003954
foundat,0.002379
founder,0.001599
fourth,0.004776
fourthforc,0.004616
frager,0.015818
frame,0.003487
framework,0.011766
franc,0.001306
franci,0.001747
francisco,0.001969
freeman,0.004567
french,0.001228
freud,0.002446
friedman,0.014152
fringemov,0.004616
fringestatu,0.004616
fulli,0.001375
function,0.002802
futur,0.002222
g,0.002469
ganesan,0.004356
gari,0.002276
gener,0.001967
genesi,0.002295
genuin,0.006350
georgia,0.002181
german,0.002577
goal,0.001255
goleman,0.007527
good,0.001014
govern,0.002603
grabovac,0.004616
gradual,0.002933
graduat,0.010259
gray,0.002276
great,0.004113
greater,0.001149
green,0.003138
greenwood,0.002556
grew,0.001524
greyson,0.004116
grof,0.071181
ground,0.011950
group,0.004938
grown,0.003514
growth,0.004620
guid,0.002580
guilt,0.002745
gzhi,0.004116
ha,0.037726
half,0.001256
hame,0.003763
hand,0.003392
handbook,0.009234
happen,0.001442
harteliu,0.004616
harvard,0.001782
hast,0.002829
heal,0.002236
healer,0.003011
health,0.002544
healthcompromis,0.004616
healthpromot,0.003831
held,0.001078
help,0.000999
hermeneut,0.002785
hesit,0.002736
hi,0.022910
hierarch,0.002093
hierarchi,0.003719
hierarchicalholarch,0.004616
higher,0.002169
highest,0.001397
hilgard,0.003703
hindubuddhist,0.003831
hinduism,0.002194
histor,0.003075
histori,0.000760
historian,0.001537
holarchi,0.013849
hold,0.001099
holism,0.005690
holist,0.004689
holon,0.011027
holotrop,0.004263
home,0.001303
honor,0.001887
howev,0.008887
human,0.029013
humanist,0.057633
humankind,0.002530
idea,0.010242
ident,0.002613
identifi,0.001103
ignor,0.001582
ill,0.005315
imageri,0.002454
impact,0.001250
impli,0.001418
implicit,0.002137
import,0.007004
improv,0.004491
inappropri,0.002405
incept,0.002375
includ,0.027239
inclus,0.001879
incompat,0.002325
increas,0.001755
indetermin,0.002736
indic,0.001122
individu,0.008471
influenc,0.002010
influenti,0.004402
inform,0.004536
ingrid,0.003426
inher,0.001748
initi,0.004957
inner,0.007337
inquiri,0.003640
insight,0.013541
inspir,0.001509
instead,0.001068
institut,0.015450
integr,0.026429
integrativeholist,0.004616
intellectu,0.001565
intens,0.003031
intensif,0.003065
intensifi,0.002236
intern,0.004798
interpret,0.001217
intertwin,0.002559
intervent,0.003311
interview,0.001886
intim,0.002283
intrasubject,0.004616
introduc,0.007493
introduct,0.001209
introspect,0.005599
involv,0.002653
isol,0.001481
issu,0.012729
j,0.002292
jaenk,0.004616
jame,0.011583
jean,0.001892
jeann,0.003426
jfk,0.003869
john,0.010379
join,0.002714
jorg,0.010831
journal,0.015258
judi,0.003172
jue,0.004184
jung,0.022596
jungian,0.010183
just,0.001064
kabbalah,0.003143
kaplan,0.002924
karma,0.005482
ken,0.025329
kennedi,0.007283
key,0.002322
kind,0.004862
kirk,0.005849
know,0.001382
knowledg,0.003443
krippner,0.004056
kun,0.003556
kundalini,0.018982
la,0.001522
label,0.004925
labour,0.001544
lack,0.005816
lajoi,0.004356
landscap,0.003804
languag,0.001146
larg,0.001608
larger,0.002408
late,0.001056
later,0.012702
latest,0.002037
launch,0.001536
lead,0.010013
leav,0.001291
lectur,0.004976
led,0.002953
leed,0.002969
lefebvr,0.003350
legaci,0.001918
legitimaci,0.002334
lev,0.002703
level,0.028281
liber,0.001375
librari,0.001433
lie,0.001494
life,0.004903
lifenot,0.004616
light,0.001257
like,0.000814
limit,0.000931
line,0.002183
linear,0.001623
link,0.000663
list,0.002544
literatur,0.004089
littl,0.004670
live,0.000986
liverpool,0.002877
locat,0.001121
locu,0.002479
loka,0.003703
london,0.001284
loss,0.001334
lower,0.001127
loyal,0.002325
lsd,0.010050
lu,0.015949
lukoff,0.027699
lyserg,0.003910
macdonald,0.005562
main,0.001931
mainli,0.001266
mainstream,0.011108
major,0.011330
make,0.002327
manag,0.001092
mandat,0.001900
mandatori,0.002344
mani,0.006205
mania,0.003090
manual,0.005780
mark,0.007348
martin,0.001614
maslow,0.021940
matriceswhich,0.004616
matter,0.001147
matthew,0.002212
matur,0.007100
mda,0.003649
mean,0.003360
media,0.001399
medic,0.002809
medit,0.013907
member,0.000973
membership,0.003360
memori,0.001586
menning,0.003954
mental,0.013205
mention,0.013292
mescalin,0.004184
met,0.001560
metaphor,0.002145
metaphys,0.003903
metatransperson,0.004616
method,0.006613
methodolog,0.001614
methylenedioxyamphetamin,0.004616
metropolitan,0.002317
michael,0.007019
mid,0.003038
midnineti,0.004616
midst,0.002626
milstein,0.004184
mind,0.002877
misdiagnosi,0.003954
mishmash,0.004616
mode,0.003434
model,0.019004
moder,0.003495
modern,0.002745
moor,0.002058
moss,0.002720
motiv,0.001490
movement,0.012623
multidimension,0.002574
multipl,0.003519
music,0.001676
mystic,0.015749
naiv,0.002513
namur,0.003578
naropa,0.008113
narr,0.002007
narrow,0.001722
nativ,0.003153
natur,0.006515
naturalist,0.002078
neardeath,0.033594
necess,0.001911
necessari,0.002431
necessarili,0.002986
need,0.001834
neg,0.002645
neglect,0.003990
nest,0.004725
network,0.001275
neurotheolog,0.003624
neutral,0.001669
new,0.019079
nineti,0.002767
nirodhah,0.009233
nirvana,0.005952
nirvikalpa,0.004116
nonil,0.004356
nonrationalemot,0.004616
nonreduct,0.003624
nonscientif,0.003057
nonsectarian,0.003496
northamerican,0.003954
northampton,0.003426
notabl,0.001170
note,0.019349
notr,0.002983
number,0.004578
ny,0.002207
object,0.005214
objectrel,0.003732
observ,0.005034
obviou,0.001926
occup,0.003179
occur,0.000969
ocean,0.003139
offens,0.002125
offer,0.004537
offici,0.001158
onli,0.001404
ontolog,0.002089
onward,0.001933
open,0.003133
oper,0.000962
operation,0.003134
opinion,0.001621
order,0.004203
ordinarili,0.002669
organ,0.006656
organiz,0.003996
orient,0.009537
origin,0.003381
orinda,0.008712
otto,0.002149
outcom,0.001559
outlin,0.005939
outsid,0.002327
overarch,0.002580
overlap,0.001695
overview,0.001528
oxford,0.001433
p,0.002329
pacifica,0.004184
pain,0.001932
paper,0.001258
paradigm,0.001848
paranorm,0.003026
parapsycholog,0.013238
participatori,0.021997
particular,0.001909
past,0.002420
pastor,0.009638
patajali,0.003601
patent,0.002035
path,0.003093
patholog,0.006505
paulson,0.003624
pave,0.002157
peak,0.003347
peek,0.003831
peopl,0.001682
perceiv,0.004602
perenni,0.015697
perinat,0.022581
period,0.002719
permit,0.001553
perri,0.002829
person,0.013974
perspect,0.016380
petit,0.011282
pgi,0.004263
phd,0.001971
phenomena,0.014565
phenomenolog,0.002306
philosoph,0.004016
philosophi,0.015585
phrase,0.001838
physic,0.002994
physicist,0.001805
piaget,0.009101
pioneer,0.001593
place,0.004313
plural,0.005885
pluralist,0.002612
point,0.000884
posit,0.000904
possibl,0.004461
postaurobindonian,0.004616
postfreudian,0.004116
postul,0.001882
potenti,0.004530
poular,0.004616
power,0.003580
practic,0.007487
preced,0.001657
preegoic,0.009233
preoccupi,0.002889
prepar,0.001418
preperson,0.032316
prerat,0.004356
present,0.015743
presid,0.001265
press,0.003088
prestag,0.004056
presupposit,0.008684
pretran,0.013849
previou,0.001319
primari,0.001154
principl,0.006300
privat,0.001254
problem,0.016839
problemat,0.004216
process,0.007442
produc,0.001820
profess,0.001827
profession,0.004252
profil,0.009442
program,0.013204
progress,0.003576
prohibit,0.003569
project,0.003247
promin,0.001371
promot,0.003743
proper,0.001569
properli,0.001839
propos,0.011871
provid,0.004656
psilocybin,0.003763
psych,0.008197
psychedel,0.018977
psychiatr,0.022288
psychiatri,0.032128
psychiatrist,0.002724
psychic,0.005431
psychoanalysi,0.013309
psychoanalyt,0.002776
psychodynam,0.015966
psycholog,0.341454
psychologist,0.016035
psychopatholog,0.002728
psychopharmacolog,0.003271
psychoreligi,0.008712
psychosi,0.003134
psychospiritu,0.013410
psychosynthesi,0.004184
psychotherapi,0.055228
public,0.010571
publish,0.007767
pursuit,0.001972
quadrant,0.006067
qualit,0.002028
qualiti,0.002606
quantif,0.002499
quantit,0.006500
question,0.008788
quit,0.002956
radic,0.001603
rais,0.001290
rang,0.003150
rank,0.002953
rapidli,0.001474
rardin,0.004056
rare,0.001439
ration,0.001507
reach,0.003382
read,0.000963
realiti,0.003018
realiz,0.003102
realm,0.012267
recent,0.003842
recept,0.006587
recogn,0.004758
recognit,0.010644
refer,0.002773
reflect,0.004768
reform,0.001357
reformul,0.005021
refut,0.002191
regard,0.011708
regress,0.013130
regression,0.004616
reintegr,0.002937
reject,0.001367
rel,0.000994
relat,0.009724
relationship,0.004235
relev,0.001451
relianc,0.002224
relief,0.001977
religi,0.021256
religion,0.019781
religiousspiritualtransperson,0.004616
reliv,0.003954
remain,0.001835
remark,0.006806
repeatedli,0.001974
repercuss,0.003011
report,0.002132
repres,0.014560
repress,0.002092
requir,0.000873
research,0.012600
reserv,0.002950
resid,0.004409
resist,0.001437
respond,0.001496
respons,0.003848
result,0.002318
retrospect,0.002441
return,0.001122
revel,0.002224
review,0.012430
revis,0.009947
revisionari,0.003910
rigor,0.001868
robert,0.006099
roberto,0.005619
robin,0.002387
roger,0.001860
rollo,0.003284
ronald,0.001981
root,0.001401
routledg,0.001976
rowan,0.012814
runehov,0.004616
ruzek,0.004616
s,0.014949
sacr,0.002124
sacramento,0.003236
said,0.003419
samadhi,0.007032
samapatti,0.004616
samm,0.004184
samsara,0.006114
san,0.001761
saniti,0.003322
saw,0.002715
saybrook,0.009233
schneider,0.005744
scholarship,0.001983
school,0.010158
scienc,0.005598
scientif,0.010047
second,0.001821
section,0.005498
seek,0.001244
self,0.009532
selfcritic,0.003336
selfdevelop,0.007072
selfsystem,0.004616
semest,0.003090
semin,0.002121
sens,0.002283
sensit,0.003573
sensori,0.002150
separ,0.004054
septemb,0.001337
sequenc,0.001540
sequenti,0.002403
seri,0.007736
seriou,0.003108
serv,0.001104
servic,0.003242
session,0.004221
set,0.004296
sever,0.010463
sex,0.001920
shaman,0.011069
shape,0.002644
shapiro,0.002829
shift,0.002688
shore,0.004218
sigmund,0.002574
signific,0.002956
similar,0.003687
simpl,0.001226
simultan,0.001618
sinc,0.001544
situat,0.002377
skeptic,0.014234
slack,0.003125
smaller,0.001312
smart,0.004851
smith,0.001635
social,0.005893
societi,0.003869
sofia,0.015021
someon,0.001803
sometim,0.002010
soon,0.002831
sort,0.001619
soteriolog,0.003259
soul,0.003986
sourc,0.001942
sourcebook,0.008811
sovatski,0.050782
span,0.001783
special,0.000965
spectrum,0.014606
spectrummodel,0.004616
spiral,0.002362
spiraldynam,0.004616
spirit,0.001744
spiritu,0.179680
spread,0.001364
stabil,0.002879
stage,0.017528
stagelik,0.004616
standard,0.002079
standpoint,0.002458
stanislav,0.028129
stanley,0.002033
start,0.001954
state,0.010809
statist,0.001266
statu,0.005158
steadi,0.001978
steadili,0.002036
step,0.001309
steve,0.002373
stop,0.001525
strength,0.003131
stress,0.001583
strong,0.002243
strongli,0.001488
structur,0.000902
structuralhierarch,0.004616
struggl,0.001618
stuart,0.008565
studi,0.027742
subfield,0.001987
subject,0.002946
subjectobject,0.007351
sublim,0.002695
submit,0.001933
subsequ,0.002409
substanc,0.006493
subtl,0.002283
suggest,0.015132
suit,0.001794
sum,0.001540
suni,0.009034
sunyseriesnot,0.004616
superfici,0.002434
support,0.001836
suprem,0.001581
surround,0.004241
survey,0.001484
surviv,0.001331
sutich,0.012009
symposium,0.002471
symptom,0.002197
synthesi,0.003447
t,0.001343
takenup,0.004356
taoism,0.002640
target,0.001437
tart,0.003703
task,0.007161
taught,0.001721
taylor,0.009713
teach,0.001512
teacher,0.003538
tempor,0.002034
tendenc,0.003467
tenet,0.002273
tenth,0.002366
term,0.005836
termin,0.003618
territori,0.001351
text,0.001331
textbook,0.008701
textrevis,0.004616
theme,0.008549
themselv,0.001145
theolog,0.001882
theoret,0.006329
theoretician,0.002912
theori,0.031675
theorist,0.010797
theoryladen,0.003703
therapeut,0.004556
therapi,0.027531
therapist,0.002673
therebi,0.001598
thesi,0.001910
thi,0.019057
thing,0.001228
think,0.001338
thinker,0.001866
thoemm,0.003954
thorough,0.002316
thought,0.001094
tie,0.001506
time,0.006148
timeless,0.003049
titl,0.002771
today,0.002218
took,0.001206
tool,0.001236
topic,0.006125
tpig,0.004616
tq,0.004116
tradit,0.006805
train,0.005333
tran,0.002368
tranc,0.003193
transcend,0.028392
transcendent,0.004932
transego,0.013849
transform,0.007583
transhumanist,0.003336
transit,0.002688
translat,0.001329
transperson,0.857677
transpersonalintegr,0.004616
treaci,0.004616
treatment,0.002840
trend,0.002949
tri,0.001215
true,0.001250
truth,0.001642
turiya,0.004116
turn,0.004269
turner,0.004958
twist,0.002532
type,0.000928
uk,0.005660
ultim,0.001335
umbrella,0.002299
unclear,0.002028
unconsci,0.009234
uncov,0.002195
underdevelop,0.002580
understand,0.011528
understood,0.004347
undervalu,0.002912
undevelop,0.002834
unfold,0.005077
unifi,0.001616
uniqu,0.001316
unit,0.000778
uniti,0.001697
univers,0.019192
unresolv,0.002623
unscientif,0.002839
unsolv,0.002441
unsuit,0.002745
untransl,0.003601
unusu,0.001871
updat,0.003740
upper,0.001559
usa,0.005171
usag,0.003238
use,0.003785
uturn,0.003763
v,0.004130
valid,0.004423
variabl,0.001411
varieti,0.001159
vaughan,0.016127
ventur,0.002033
vermont,0.003018
version,0.004051
vich,0.004184
view,0.012864
viewpoint,0.002032
vision,0.006689
visionari,0.002918
volum,0.001322
vote,0.002928
vulner,0.003927
wa,0.027854
walach,0.013849
walsh,0.018390
wasburn,0.004616
washburn,0.056911
way,0.000825
weak,0.004601
weaken,0.001933
welwood,0.004616
west,0.003977
western,0.008129
wherebi,0.001744
whitney,0.002872
wide,0.004972
wider,0.005274
widest,0.002930
wilber,0.134106
wiley,0.001889
wileyblackwel,0.008535
william,0.004948
win,0.003472
winnicott,0.003649
wisdom,0.002044
withdrawn,0.002392
work,0.011353
world,0.003913
worldview,0.004737
wouldnt,0.002997
wound,0.002118
write,0.007243
writer,0.011092
year,0.001558
yoga,0.016917
yogic,0.007157
york,0.002378
youth,0.001947
zdenek,0.004616
