aberdeen,0.014915
abil,0.003795
abl,0.015682
abnorm,0.017166
absenc,0.002536
acceler,0.002653
access,0.001908
accumul,0.005292
acid,0.002779
acronym,0.004178
action,0.005084
activ,0.081211
actual,0.005296
acut,0.003620
ad,0.001760
adaptor,0.006471
addit,0.006977
adenoviru,0.012046
adp,0.005202
adult,0.002700
advantag,0.002141
aerob,0.004597
affect,0.001802
agar,0.004956
age,0.001727
agent,0.004704
agonist,0.004941
aid,0.006208
aif,0.018439
aim,0.003939
akt,0.019414
alastair,0.005202
allow,0.005487
alon,0.002359
alphainterferon,0.006701
alreadi,0.002009
alter,0.002474
altern,0.001772
amino,0.003570
amphibian,0.012214
amplifi,0.003787
analysi,0.006651
analyz,0.002318
anatomist,0.004364
anchor,0.003753
ancient,0.001998
andor,0.002414
andrew,0.002801
ani,0.002431
anim,0.003861
anoth,0.001326
antagon,0.004225
antiapoptop,0.007257
antiapoptot,0.040210
antibodi,0.004023
apaf,0.054782
apart,0.002527
apo,0.005867
apoptosi,0.635866
apoptosisinduc,0.021771
apoptosom,0.014053
apoptot,0.161622
appear,0.004793
appropri,0.004422
approxim,0.001879
aptohsi,0.007257
aquat,0.003717
arboviru,0.006701
aris,0.002250
arrest,0.009095
articl,0.006557
articul,0.003331
aspartatespecif,0.007257
assay,0.004315
associ,0.002695
atp,0.004117
atrophi,0.005003
attack,0.002224
autoimmun,0.009611
avail,0.001686
averag,0.004120
avoid,0.002060
awar,0.002495
award,0.002431
b,0.001827
ba,0.007340
babi,0.007212
bad,0.002829
bak,0.023113
balanc,0.010916
base,0.001201
basi,0.001718
bax,0.031462
bcl,0.098233
bclxl,0.014514
becaus,0.008764
becom,0.003994
befor,0.004261
begin,0.004865
begun,0.005289
believ,0.001720
bestunderstood,0.006292
betainterferon,0.007257
bhonli,0.007257
bhrf,0.007257
bibliographi,0.002419
bid,0.007088
bifida,0.006023
billion,0.007087
bind,0.048829
biochem,0.020518
biochemistri,0.003306
biolog,0.005918
biologist,0.003112
bite,0.004350
bleb,0.020105
block,0.007433
blood,0.002708
blot,0.004844
bodi,0.013352
bone,0.012479
boston,0.003066
bound,0.002488
brain,0.013308
break,0.006878
breakdown,0.003424
brenner,0.005182
bring,0.002067
british,0.001857
brought,0.002050
bud,0.004178
bunyavirida,0.014514
button,0.004424
bystand,0.005143
c,0.014326
calcium,0.010984
calciumdepend,0.006847
calpain,0.013695
cancer,0.039829
canin,0.019429
capabl,0.002193
cardiac,0.004302
carnivor,0.004401
carri,0.003591
cascad,0.016017
case,0.001392
casp,0.013403
caspas,0.404055
caspaseindepend,0.028106
caus,0.035686
cd,0.038349
cdv,0.057392
ceas,0.002814
ced,0.006578
cell,0.416888
cellapoptosi,0.007257
celldeath,0.006847
celldivis,0.007257
cellsurfac,0.005916
cellular,0.030825
central,0.003123
certain,0.001524
cervic,0.004870
chain,0.002488
chang,0.007535
channel,0.005499
character,0.010564
characterist,0.005760
chemotherapeut,0.006023
chemotherapi,0.009662
child,0.002675
chou,0.005821
chromatin,0.014003
chromosom,0.003620
ciap,0.007257
cite,0.002330
classifi,0.002253
clearli,0.002504
cleav,0.009137
cleavag,0.013792
clip,0.004178
close,0.002981
closur,0.003597
cluster,0.003056
cmyc,0.006146
combin,0.001588
come,0.001593
common,0.002694
commonli,0.001850
compact,0.003287
complement,0.003285
complex,0.008152
compon,0.009594
composit,0.002309
compromis,0.003203
concentr,0.004360
concept,0.003109
condens,0.006447
condit,0.003118
confer,0.002193
confus,0.002507
consequ,0.005684
conserv,0.004423
conson,0.004831
contain,0.004795
content,0.002198
continu,0.004050
contrast,0.001882
control,0.008882
converg,0.002935
cord,0.003977
cormack,0.023286
correct,0.002243
count,0.005082
coupl,0.005156
cowpox,0.006216
cr,0.004350
creat,0.005451
credit,0.002156
crelox,0.006847
crma,0.007257
cross,0.002431
culicoid,0.007257
cultiv,0.002845
cultur,0.001675
curat,0.004541
curri,0.018165
cycl,0.018273
cycleregul,0.007257
cystein,0.005070
cysteinedepend,0.007257
cytochrom,0.036136
cytokeratin,0.006847
cytokin,0.005289
cytometri,0.005439
cytoplasm,0.004046
cytoskeleton,0.005036
cytosol,0.009561
cytotox,0.016008
damag,0.019236
darmstaedt,0.007257
databas,0.007820
day,0.005044
deactiv,0.009467
dead,0.008380
death,0.080012
deathbas,0.007257
deathinduc,0.014514
debat,0.002074
decay,0.006127
decreas,0.013165
defect,0.019734
defici,0.007068
deform,0.003637
degener,0.003900
degrad,0.025572
deliv,0.002626
demonstr,0.004005
denot,0.002718
dens,0.003171
depart,0.001953
depend,0.004410
deplet,0.006954
depriv,0.003578
deriv,0.003388
describ,0.006857
descript,0.004073
despit,0.005668
destruct,0.002637
detect,0.002446
determin,0.003094
develop,0.012258
dictionarylist,0.007257
die,0.027754
differ,0.007087
differenti,0.004512
difficult,0.001943
digit,0.002488
diptera,0.006146
direct,0.005918
directli,0.008951
disastr,0.003896
disc,0.008113
discontinu,0.003382
discov,0.003924
discoveri,0.002086
discret,0.002628
discuss,0.001818
diseas,0.049015
disord,0.002872
displac,0.002859
display,0.005064
disrupt,0.014356
dissip,0.003964
dissoci,0.004112
distemp,0.011735
distinct,0.003432
distinguish,0.007912
divid,0.001766
divis,0.001931
dna,0.025881
doe,0.004523
dog,0.003335
domain,0.006528
doubt,0.002875
droop,0.006146
drop,0.004891
drug,0.005256
dure,0.003847
dysregul,0.005660
e,0.012639
earli,0.002683
eb,0.005003
ebk,0.006847
ectop,0.005821
effect,0.003909
effector,0.035614
efferocytosi,0.007026
effort,0.001857
ehrlich,0.004780
electron,0.004489
electrophoresi,0.009175
elegan,0.009444
elicit,0.004004
embryo,0.007434
embryon,0.012291
encod,0.013066
endonucleas,0.005558
english,0.001868
engulf,0.009490
enhanc,0.002484
envelop,0.011727
enzym,0.016306
epsteinbarr,0.006471
er,0.004237
especi,0.001557
essenti,0.003729
establish,0.001431
etymolog,0.002855
european,0.001670
event,0.003491
eventu,0.001906
everi,0.003357
evid,0.001829
evolut,0.002178
exampl,0.009611
excess,0.015554
exclud,0.002523
execut,0.002032
execution,0.017465
exhibit,0.005064
exist,0.002667
exon,0.010489
experi,0.001649
expert,0.002649
explan,0.002361
export,0.002460
exposur,0.005962
express,0.013904
extend,0.001769
extens,0.001811
extern,0.002097
extracellular,0.017129
extrins,0.040954
eyelid,0.005386
fa,0.034002
fact,0.005109
factor,0.015308
fadd,0.028106
fail,0.002016
failur,0.002334
fall,0.010986
famili,0.018575
fasassoci,0.007257
fasdisc,0.007257
fasfa,0.007257
fasl,0.013695
fasmedi,0.007257
faulti,0.004308
favour,0.005275
featur,0.003628
febril,0.005916
feedback,0.003257
fever,0.007647
field,0.001464
fin,0.004275
final,0.006940
finger,0.003896
flem,0.005496
flip,0.004295
flow,0.006337
flower,0.003257
fluid,0.002827
fluorocytometri,0.014514
follow,0.006884
footnot,0.007152
forebrain,0.006023
form,0.009868
format,0.015652
foxton,0.007257
fragment,0.025392
frequent,0.002016
frog,0.008173
fulli,0.002162
function,0.013217
fundament,0.001836
furthermor,0.002458
fusion,0.003343
g,0.001940
galen,0.004112
gel,0.009029
gene,0.044533
gener,0.006184
german,0.002025
gill,0.004123
given,0.001438
gleevec,0.006471
global,0.003809
glucocorticoid,0.005660
glycoprotein,0.005003
gm,0.004647
graduat,0.002688
grate,0.004768
greek,0.018281
gross,0.002804
group,0.001293
grow,0.001839
growth,0.001815
h,0.003985
ha,0.010521
half,0.001974
hallmark,0.004386
hamster,0.005558
hand,0.001777
hbx,0.007257
healthi,0.003132
heart,0.002632
heat,0.002529
hela,0.048247
helicopt,0.003900
help,0.003140
helper,0.004768
hematolog,0.004941
hepat,0.004523
herceptin,0.006847
hi,0.001286
highli,0.009442
hippocr,0.004161
hiv,0.041672
hivposit,0.006376
hmgb,0.006847
homodim,0.012432
homolog,0.011075
homologu,0.005244
horvitz,0.017903
host,0.005246
howev,0.011641
hpv,0.024329
human,0.013820
hyperact,0.005143
hypoxia,0.005386
iap,0.029838
ideal,0.002334
identif,0.002825
identifi,0.008670
igg,0.005698
igm,0.005821
ii,0.001877
ikk,0.006146
ill,0.002785
immedi,0.002108
immort,0.003798
immun,0.015699
immunodefici,0.005036
impair,0.011181
implic,0.007498
import,0.004893
impract,0.004139
improv,0.001765
inabl,0.003463
inact,0.011220
inactiv,0.004818
includ,0.004978
incomplet,0.003125
increas,0.020691
indic,0.001764
indirectli,0.006182
indiscrimin,0.004647
individu,0.001479
induc,0.056809
induct,0.006353
inevit,0.003160
infect,0.055348
inflammatori,0.013821
info,0.004472
inform,0.001426
inher,0.002749
inhibit,0.074161
inhibitor,0.026935
inhibitori,0.022891
initi,0.028054
injuri,0.003179
inner,0.005767
insect,0.003259
insid,0.004811
instanc,0.001942
instead,0.003360
insuffici,0.003252
intact,0.003676
integr,0.001731
interact,0.007159
interdigit,0.006578
interferon,0.005698
intermedi,0.002819
intermembran,0.005967
intern,0.003771
interphas,0.005266
interpret,0.001913
intracellular,0.030208
intragen,0.006701
intrins,0.024297
introduc,0.003365
introduct,0.001901
invit,0.002956
involv,0.015296
iodin,0.004371
iressa,0.007257
irradi,0.013442
irregular,0.003355
ischem,0.005698
jame,0.004046
john,0.003263
join,0.002133
journal,0.001845
k,0.002174
karl,0.002697
karyorrhexi,0.014514
kerr,0.029064
kidney,0.003925
kill,0.014207
killer,0.004322
kimbal,0.005124
kinas,0.009611
kinet,0.003246
knockout,0.042301
know,0.002173
known,0.011985
ko,0.018714
la,0.002394
lack,0.001828
ladder,0.008312
laevi,0.006216
languag,0.003605
larval,0.005036
later,0.001426
lead,0.027187
leader,0.002097
leaflet,0.005223
leak,0.004023
leav,0.008123
lectur,0.002607
lepidoptera,0.005289
lethal,0.008268
level,0.005736
librari,0.002253
life,0.001541
lifecycl,0.004275
ligand,0.012769
ligandmedi,0.007257
like,0.002561
likelihood,0.003325
limit,0.001464
line,0.003432
link,0.005213
linkag,0.003780
live,0.004651
local,0.003248
locat,0.003526
longer,0.001977
loop,0.003302
loss,0.002097
lost,0.002083
ludwig,0.003292
lung,0.003750
lymphocyt,0.020649
lymphoid,0.005467
lymphoma,0.021065
mac,0.012518
machineri,0.002957
macmompp,0.007257
macrophag,0.010140
magazin,0.002776
main,0.003036
mainli,0.001990
maintain,0.001672
major,0.002544
make,0.003658
malform,0.004971
malign,0.004472
mammal,0.003035
mammalian,0.007809
mani,0.009754
manner,0.006942
mapanim,0.019734
march,0.003977
mark,0.003850
marker,0.025822
marrow,0.013821
mass,0.001966
matur,0.008371
mcl,0.006216
mean,0.003961
measur,0.001570
mechan,0.024792
mediat,0.011750
medic,0.004416
medicin,0.002286
member,0.007650
membran,0.057727
metamorphosi,0.005202
method,0.008910
mhc,0.005625
mice,0.023405
microscopi,0.011321
midg,0.006471
mimet,0.005289
minicop,0.007257
mitochondia,0.007257
mitochondri,0.042822
mitochondria,0.047774
mitochondriaderiv,0.007257
mitochondrion,0.005412
mode,0.002699
model,0.005974
modif,0.002850
modifi,0.004679
molecul,0.010357
molecular,0.002506
morpholog,0.022996
motor,0.003092
mous,0.007876
mrna,0.013273
mt,0.004357
multicellular,0.007901
multipathway,0.007257
multipl,0.001844
multistep,0.005558
multitud,0.003784
mutat,0.009988
myxoma,0.007257
natur,0.003840
ncih,0.007257
nearbi,0.002951
necessari,0.005733
necessarili,0.002347
necroptot,0.021771
necrosi,0.027956
necrot,0.023470
need,0.002883
neg,0.002079
neighbor,0.005410
nematod,0.004514
nervou,0.006566
neural,0.006444
neurodegen,0.005052
neuron,0.007007
new,0.001071
news,0.002617
nfb,0.018439
nitric,0.009233
nl,0.004884
nobel,0.002791
nonapoptot,0.007026
nonhodgkin,0.006023
normal,0.021025
notabl,0.001840
nuclear,0.014701
nucleosom,0.005496
nucleotid,0.003838
nucleu,0.006353
number,0.007197
nutrient,0.003402
obscur,0.003321
observ,0.003165
occur,0.010664
oligomer,0.006082
oligonucleosom,0.007257
onc,0.007167
oncolyt,0.013156
oncoprotein,0.007257
onli,0.001103
onset,0.003688
open,0.001641
opinion,0.002548
oppos,0.002003
order,0.007928
orderli,0.004201
organ,0.010463
organel,0.012552
origin,0.003986
oropouch,0.021771
orov,0.043542
outer,0.006127
outermembran,0.007026
overexpress,0.016319
overli,0.003838
oxid,0.006363
p,0.034780
pack,0.003499
page,0.002350
paper,0.003957
papillomaviru,0.006082
paraensi,0.007257
parallel,0.002484
partial,0.002205
particl,0.002577
particular,0.003001
pass,0.001862
past,0.001902
patch,0.003917
path,0.004862
pathway,0.141699
patient,0.005841
paul,0.002084
penultim,0.005439
perform,0.003371
perinuclear,0.006471
peripher,0.003691
permeabil,0.014514
permeabl,0.026363
persist,0.002718
petal,0.005289
phagocyt,0.022365
phagocytos,0.006146
phagocytosi,0.005162
phagocytot,0.007257
phenomenon,0.007409
phenotyp,0.007390
phosphatidylserin,0.025507
phosphoryl,0.004689
piec,0.002648
pinch,0.004844
pkr,0.006471
place,0.002712
plant,0.004163
plasma,0.003513
play,0.005194
pmdm,0.007257
poli,0.004514
polymeras,0.004195
popul,0.003412
pore,0.013071
portal,0.003458
portion,0.002409
possess,0.002154
possibl,0.002805
potenti,0.001780
pptoss,0.007257
preced,0.005210
precipit,0.003162
precis,0.002265
predict,0.006035
presenc,0.004158
present,0.002749
prevent,0.007863
primari,0.001815
primarili,0.003759
prime,0.002209
principl,0.001650
prize,0.007693
proapoptot,0.084319
procaspas,0.021079
proceed,0.002516
process,0.020798
produc,0.004292
product,0.004299
professor,0.007372
progeni,0.004616
program,0.017297
programm,0.002643
progress,0.009370
prolifer,0.010155
promis,0.002583
promot,0.005884
prompt,0.003010
pronounc,0.006643
pronunci,0.010939
proper,0.002466
properti,0.003329
proport,0.002273
propos,0.001696
proteas,0.030973
protect,0.001832
protein,0.181574
proteinac,0.006292
proteolysi,0.016158
proteolyt,0.023286
protocol,0.003109
provid,0.001220
pseudo,0.005244
pt,0.004097
pterodactyl,0.007257
ptolemi,0.003740
ptosi,0.006847
ptoss,0.007257
public,0.002769
publish,0.001526
pyknosi,0.007257
qualiti,0.002048
queensland,0.004489
quickli,0.008952
r,0.003680
ra,0.003955
radiat,0.005507
rang,0.001650
rapid,0.004766
rapidli,0.002318
rate,0.001704
ratio,0.002479
receiv,0.006664
recent,0.003020
receptor,0.044569
receptorassoci,0.007257
recognit,0.002390
red,0.002417
redistribut,0.003626
refer,0.003488
regard,0.001673
regener,0.003880
region,0.001561
regul,0.022710
regular,0.002389
regularli,0.002968
regulatori,0.006036
reintroduc,0.004023
relat,0.001175
releas,0.032692
remain,0.001442
remark,0.002674
remov,0.016107
render,0.002860
repair,0.006209
replenish,0.004371
replic,0.015390
requir,0.002745
research,0.004244
resembl,0.002750
resist,0.006779
respir,0.003938
respons,0.018150
restor,0.002466
restrict,0.002021
result,0.015791
resurrect,0.003869
retinoblastoma,0.013403
ribos,0.005625
robert,0.003834
role,0.006110
root,0.002202
ross,0.003568
round,0.002762
ruptur,0.004379
s,0.001236
scab,0.006578
scaffold,0.004578
scientist,0.001994
scramblas,0.006847
second,0.005725
secondari,0.002483
seen,0.005133
select,0.001896
selfdestruct,0.005289
semin,0.003335
sens,0.001794
sensit,0.005617
separ,0.001593
sequenc,0.004842
sequenti,0.003777
seri,0.001737
serv,0.003471
sever,0.011387
share,0.001699
sheep,0.003513
short,0.003718
shortli,0.002714
shown,0.004206
shrinkag,0.010072
signal,0.057712
signalingrel,0.007257
silent,0.010844
similar,0.002898
simpl,0.001928
sinc,0.003640
singl,0.001624
size,0.001890
smac,0.029028
space,0.003742
specif,0.005808
spectacular,0.004225
spill,0.004288
spina,0.005737
spinal,0.004231
spiral,0.003714
spread,0.002145
spring,0.002737
srbc,0.007257
stage,0.004239
start,0.001536
step,0.002058
stimul,0.013580
stimuli,0.025998
stimulu,0.003554
stop,0.009591
strategi,0.002260
stress,0.012444
structur,0.002836
student,0.002065
studi,0.008978
subcellular,0.015158
subg,0.007257
subsequ,0.003788
substanc,0.002551
substanti,0.002253
sudden,0.003474
suggest,0.010194
suicid,0.003479
sulston,0.006082
supernat,0.007257
suppress,0.008338
surfac,0.017580
surround,0.004445
surviv,0.010466
suscept,0.003499
swell,0.004009
sydney,0.003802
syllabl,0.004657
synthes,0.003154
t,0.010558
tadpol,0.005916
tail,0.003513
target,0.009039
techniqu,0.003730
technolog,0.001749
term,0.009174
terrestri,0.003304
test,0.003968
thelper,0.014514
theori,0.001422
therebi,0.002512
therefor,0.006598
thi,0.020879
thing,0.001931
thought,0.001720
thousand,0.002140
threshold,0.003380
thu,0.002837
thyroxin,0.006082
tightli,0.007604
time,0.002147
timelaps,0.005698
tissu,0.014664
tnf,0.082900
tnfalpha,0.033508
tnfinduc,0.007257
tnfr,0.050799
toe,0.004541
topic,0.001925
toxic,0.003355
toxin,0.004161
tradd,0.007257
traf,0.007026
trail,0.003981
transactiv,0.006701
transcript,0.010752
transduc,0.004941
transduct,0.004393
transform,0.003973
translat,0.002089
transloc,0.004711
transmembran,0.005162
transmiss,0.002998
transmit,0.002973
trap,0.006359
traumat,0.008391
treat,0.004250
treatment,0.017861
tree,0.005000
trigger,0.014761
trio,0.005036
tube,0.003353
tubular,0.005105
tumor,0.031174
tumorsuppress,0.014053
tumorsuppressor,0.007026
turn,0.003355
type,0.014591
typic,0.003256
unclear,0.003188
uncoat,0.006471
uncontrol,0.008439
undergo,0.019698
understood,0.004555
unit,0.001224
univers,0.005028
unknown,0.002512
unlik,0.002021
unregul,0.004288
upper,0.002450
upset,0.004102
upstream,0.004432
usag,0.002545
use,0.016859
usebyd,0.007257
util,0.002195
uv,0.004128
vacuol,0.004844
vari,0.001789
varieti,0.001822
variou,0.006908
vegetarian,0.004700
veri,0.004158
vero,0.006701
versu,0.005665
vesicl,0.004523
video,0.005342
viral,0.055744
virion,0.006023
virtual,0.002400
viru,0.048077
virus,0.036290
visual,0.002560
vitro,0.004195
vivo,0.004343
vogt,0.005223
vowel,0.004793
wa,0.018907
wall,0.002569
walther,0.004514
wang,0.003929
warrant,0.003743
way,0.002595
web,0.002631
wehi,0.007257
western,0.001825
wherea,0.002106
wherebi,0.002742
whi,0.002233
whilst,0.003135
wide,0.001563
wikipathway,0.007257
word,0.005054
work,0.004759
wylli,0.020543
xenopu,0.005625
xiaodong,0.007257
xiap,0.014514
xlink,0.005821
year,0.002449
youtub,0.003834
zoonot,0.005916
