abil,0.008407
abl,0.007718
aboard,0.008973
abov,0.007822
abraham,0.021525
academ,0.004576
accept,0.023014
access,0.004227
accord,0.003055
account,0.014393
accur,0.005205
activ,0.006097
actual,0.003910
adam,0.006200
adapt,0.029190
adjunct,0.010058
adna,0.013613
advanc,0.003773
advent,0.006681
advoc,0.005244
affect,0.007984
affili,0.013978
africa,0.009923
african,0.048194
afroamerican,0.025075
age,0.003826
ago,0.017760
agre,0.004606
agricultur,0.009082
aha,0.060238
alfr,0.006260
alik,0.008233
allow,0.015191
alon,0.005224
alpin,0.019922
alway,0.004108
amateur,0.016686
america,0.004281
american,0.038077
analys,0.005973
analysi,0.011048
analyt,0.005570
andor,0.016039
ani,0.010770
anim,0.004276
annal,0.024593
annual,0.009386
anoth,0.026446
answer,0.005439
anteced,0.008741
anthropologist,0.007838
antiqu,0.006322
appli,0.003266
applic,0.003648
approach,0.003516
appropri,0.004897
april,0.018696
aptitud,0.010409
area,0.027309
argu,0.008128
arno,0.010459
array,0.006666
articl,0.007262
artifact,0.057913
asid,0.020903
ask,0.015151
aspect,0.040154
assassin,0.007231
assert,0.010496
assess,0.005203
associ,0.011938
assumpt,0.005205
atlant,0.006474
attribut,0.009498
august,0.004642
authent,0.015477
author,0.003439
away,0.004653
b,0.004046
background,0.005247
band,0.006643
baptist,0.008920
base,0.007986
basi,0.007611
basic,0.007412
becaus,0.022185
befor,0.006292
began,0.022071
begin,0.010776
begun,0.005857
behav,0.006552
behavior,0.008642
belief,0.014794
believ,0.003810
benefit,0.004470
better,0.016617
biocultur,0.024622
biohistor,0.257162
biohistori,0.778114
biohistorian,0.112508
biolog,0.113598
biologist,0.006892
biospher,0.015360
birth,0.005428
black,0.009943
bloodi,0.008648
boa,0.010247
bog,0.010671
bone,0.013819
book,0.017506
boston,0.006791
boy,0.007259
boyden,0.131124
branch,0.031341
braudel,0.011308
breast,0.009039
broad,0.009896
broader,0.006142
broke,0.006317
brown,0.006250
brueger,0.016072
buenger,0.048218
burial,0.008373
busi,0.004152
came,0.008068
carl,0.006160
case,0.003084
caus,0.006586
cemeteri,0.009051
center,0.007870
centuri,0.009504
certain,0.020262
certainti,0.007787
ch,0.015746
challeng,0.004407
chang,0.016690
characterist,0.008505
charl,0.009451
chart,0.007028
check,0.006396
chicago,0.024053
child,0.035555
chss,0.015166
church,0.005574
circul,0.006455
circumstancehav,0.016072
citi,0.004261
civil,0.033860
cj,0.010912
claim,0.022472
clarendon,0.008973
classifi,0.004991
clean,0.007222
clergi,0.008404
click,0.009572
climat,0.021073
cloak,0.021456
close,0.003301
club,0.007155
clue,0.009180
code,0.004774
coexist,0.007799
coher,0.006801
coin,0.005109
collabor,0.022672
collect,0.014397
collier,0.010535
colombian,0.010409
combin,0.010555
come,0.003529
comment,0.005910
commerci,0.004727
common,0.005967
commonli,0.004097
commonplac,0.008808
commun,0.006453
compani,0.007793
compel,0.007711
complex,0.003610
concept,0.006887
concern,0.013858
conclud,0.005047
conclus,0.005498
condit,0.013811
conduct,0.021147
confer,0.014572
confidenti,0.009204
connect,0.004063
connot,0.008156
consent,0.007574
consequ,0.012588
consid,0.020145
consider,0.016588
constant,0.004906
constantli,0.006879
constitut,0.003896
contact,0.005178
contemporari,0.004827
contest,0.012985
contin,0.006359
continu,0.008970
contribut,0.007244
contributor,0.007218
control,0.003278
correct,0.004969
correl,0.011504
counterpart,0.006617
cranial,0.010361
creat,0.003018
critic,0.003630
critiqu,0.043887
crosbi,0.011081
cultur,0.048237
current,0.012637
d,0.003995
damag,0.005325
darwin,0.013812
darwinian,0.028240
data,0.015753
day,0.003723
dead,0.006186
deal,0.003975
debat,0.004594
debilit,0.010385
decad,0.004485
deceas,0.008760
decemb,0.004528
declin,0.004685
deem,0.006678
deep,0.005493
defam,0.023136
defin,0.013546
definit,0.003902
degler,0.014842
dental,0.009427
describ,0.006074
design,0.003624
desir,0.009289
destruct,0.017522
determin,0.010281
detriment,0.008109
develop,0.007404
diamond,0.007492
diaspora,0.008941
dichotomi,0.008879
did,0.007326
differ,0.026161
dimens,0.005678
directli,0.003965
dirt,0.010182
disciplin,0.018189
discov,0.004345
discoveri,0.004622
diseas,0.005169
dismiss,0.006574
disproven,0.010880
disput,0.004963
disrupt,0.006359
dissert,0.008404
distinct,0.015203
divid,0.003913
dna,0.050952
doe,0.010017
donald,0.006957
draw,0.005058
drawnwhat,0.016072
drive,0.005302
driven,0.005745
dubo,0.013102
dure,0.008522
dynam,0.004626
earli,0.020801
earth,0.009328
eastern,0.004931
ecodevi,0.016072
ecolog,0.022395
econom,0.009754
economi,0.004057
ecosystem,0.006738
edgar,0.017369
edward,0.005404
effect,0.005772
element,0.003778
elimin,0.015414
ellsworth,0.034566
emancip,0.008501
emerg,0.007615
empir,0.004145
encompass,0.011124
end,0.003248
energi,0.016637
england,0.005155
enslav,0.017003
enter,0.004343
envi,0.019998
environ,0.035445
environment,0.033436
equal,0.004046
eric,0.007057
especi,0.010350
ethic,0.038277
eugenicist,0.012620
europ,0.008057
european,0.011101
evalu,0.005148
eve,0.008694
event,0.015465
eventu,0.004222
evid,0.016206
evolut,0.024119
evolutionari,0.046829
evolv,0.004876
examin,0.009300
exampl,0.010643
exchang,0.004199
exclud,0.005589
exclus,0.005075
exemplifi,0.007569
exert,0.006817
exist,0.017726
expand,0.004202
experi,0.003653
explain,0.011998
extens,0.004012
extern,0.002323
extract,0.005719
fact,0.015089
factor,0.018835
fail,0.004467
fals,0.006025
famili,0.004114
familiar,0.012572
farm,0.029639
fate,0.007501
fatimah,0.013102
fault,0.007981
favor,0.004907
featur,0.004018
februari,0.014481
febvr,0.012383
felt,0.006272
fernand,0.009816
ferret,0.012893
field,0.012978
fifth,0.006327
figur,0.004400
focu,0.008717
focus,0.012407
follow,0.002541
food,0.004572
forc,0.009553
form,0.012142
forth,0.006458
foundat,0.004142
founder,0.011137
fragil,0.017036
framework,0.013655
franci,0.006084
frankfurt,0.008779
franz,0.008389
free,0.007257
fulli,0.009579
fundament,0.008136
futur,0.007739
gain,0.011595
gave,0.004622
gender,0.006810
gener,0.015980
genet,0.037773
geograph,0.010333
geographi,0.017544
germ,0.008569
given,0.006372
glacken,0.015166
gland,0.008941
goe,0.005717
goodwin,0.011117
grant,0.014611
great,0.007161
greater,0.004001
grigg,0.013767
grime,0.012109
grit,0.013102
group,0.011463
grown,0.006118
growth,0.004021
guidelin,0.007046
gun,0.007459
ha,0.029658
habit,0.006735
happen,0.005021
harm,0.006124
health,0.004429
healthier,0.010757
heathen,0.011818
heather,0.022234
held,0.003756
hi,0.034183
high,0.006433
highenergi,0.009180
highest,0.004865
highli,0.004182
histor,0.067807
histori,0.089969
historian,0.117778
historiograph,0.009905
historiographi,0.008063
hold,0.003826
homo,0.008328
hope,0.005409
horrif,0.011929
howev,0.012892
human,0.128557
humankind,0.008808
hundr,0.004827
huntergath,0.025990
huntergather,0.008868
huntington,0.048095
hypothes,0.012634
hypothesi,0.005533
idea,0.024960
ident,0.013647
identif,0.012515
identifi,0.019202
ideolog,0.012002
ignor,0.005510
illumin,0.014928
impact,0.008707
imperi,0.006189
implic,0.011070
import,0.008128
impos,0.005463
inaccur,0.008612
inappropri,0.016747
incept,0.008268
includ,0.037492
inconsist,0.007383
increas,0.003055
individu,0.016385
industri,0.007252
influenc,0.003499
inform,0.012634
inherit,0.011782
initi,0.003451
innat,0.015631
insight,0.011786
instead,0.003721
insuffici,0.007202
integr,0.003833
intellectu,0.010900
interact,0.011891
interplay,0.008789
interpret,0.008477
invalid,0.007974
investig,0.008903
involv,0.006159
issu,0.003409
item,0.017483
jackson,0.008218
januari,0.004533
jare,0.010078
jefferson,0.009073
jh,0.010757
jr,0.006748
juli,0.013766
june,0.004628
just,0.007408
justif,0.007423
karlen,0.015562
keita,0.013217
kind,0.004231
king,0.005060
kingdom,0.004225
kittl,0.015166
know,0.004813
knowledg,0.011987
known,0.005308
label,0.005715
lack,0.004050
land,0.008040
larg,0.008397
largest,0.004387
late,0.011032
lead,0.006338
learn,0.004461
leav,0.008996
led,0.010284
legitim,0.006597
length,0.005269
lesley,0.024622
letter,0.005243
lewi,0.013333
life,0.010242
lifestyl,0.007564
like,0.008511
limit,0.006487
lincoln,0.054106
linda,0.008760
line,0.007602
lineth,0.015166
link,0.002309
list,0.005906
littl,0.012195
live,0.020605
long,0.010345
longer,0.004380
longest,0.030455
look,0.004385
lose,0.005586
lost,0.004615
lucien,0.010643
luckili,0.012893
m,0.007596
machin,0.005128
madison,0.018939
main,0.006724
mainli,0.004409
major,0.005635
make,0.013503
male,0.011914
man,0.014097
mani,0.040809
manner,0.005125
march,0.004404
marfan,0.013936
mari,0.006135
masculinefeminin,0.015166
match,0.005648
materi,0.003721
mcelvain,0.112508
mcneill,0.011664
mean,0.002924
measur,0.003478
mediat,0.006506
medic,0.009781
mediterranean,0.013894
member,0.003388
men,0.024623
method,0.023024
methodolog,0.005621
michigan,0.007664
microbiologist,0.010699
microscop,0.006856
middl,0.004378
misidentifi,0.012241
mislead,0.008031
mitochondri,0.009484
model,0.003308
modern,0.003185
molecular,0.005551
momentum,0.006982
morpholog,0.007276
motiv,0.005188
movement,0.007324
msnbc,0.013471
museum,0.006404
n,0.004769
nanci,0.026986
napoleon,0.007243
natur,0.031188
nearuniform,0.016072
necess,0.013310
necessarili,0.010397
need,0.012770
neg,0.013816
neomarxist,0.012383
new,0.023722
nineteenth,0.013286
nordic,0.018336
norm,0.006160
normal,0.004233
norton,0.008276
note,0.009186
notion,0.015074
notorieti,0.011308
novemb,0.009526
numer,0.003934
nurs,0.007727
o,0.011201
object,0.003630
occident,0.011664
occur,0.003374
octob,0.004592
offer,0.003949
old,0.004394
omit,0.008298
onc,0.007936
onli,0.009778
open,0.003635
opinion,0.005644
opposit,0.004369
order,0.008780
organ,0.008690
origin,0.002943
otherwis,0.005051
outlin,0.005169
packag,0.006732
paramount,0.008910
parr,0.025787
parri,0.011191
partak,0.010459
particular,0.003324
pass,0.004125
passag,0.006327
past,0.004213
patern,0.019026
pathologist,0.010671
pattern,0.009062
paulson,0.012620
peac,0.005121
peni,0.010269
pennsylvania,0.007956
peopl,0.014640
perceiv,0.021363
percent,0.005333
percept,0.005653
perhap,0.004936
period,0.028400
permit,0.005409
person,0.003475
perspect,0.019009
petit,0.007855
phase,0.102143
phenomena,0.010141
philadelphia,0.016152
physiolog,0.006255
play,0.003834
point,0.009242
polit,0.013333
politician,0.006371
popul,0.030229
popular,0.007599
posit,0.009442
possibl,0.009318
potenti,0.019714
power,0.009349
practic,0.006516
prais,0.007121
preced,0.005769
predisposit,0.042039
pregnanc,0.008848
prehistori,0.015298
present,0.012180
presid,0.017616
press,0.003584
preval,0.006705
previou,0.004592
primari,0.004020
principl,0.014622
prison,0.006463
problem,0.006514
procedur,0.005303
process,0.008637
procliv,0.023230
product,0.006348
profession,0.009869
professor,0.005442
progress,0.008301
project,0.003768
promin,0.004775
promis,0.005722
promot,0.008688
proof,0.006209
propos,0.015029
proven,0.006432
provid,0.005404
proxim,0.007039
psychologist,0.006978
public,0.003067
publish,0.006760
pursu,0.005538
quantiti,0.004960
quarterli,0.007446
quest,0.007669
question,0.007648
quot,0.006371
race,0.059831
racial,0.029913
rankinhil,0.048218
rare,0.010023
rate,0.007548
reader,0.006586
readjust,0.012458
realiti,0.005253
reason,0.006932
recogn,0.008282
reduc,0.003658
reevalu,0.009528
refer,0.009657
reflect,0.008301
regard,0.003705
region,0.003458
regress,0.007618
rel,0.010389
relat,0.013020
relationship,0.018433
relev,0.005051
reli,0.013961
reliabl,0.005775
remain,0.015971
rememb,0.007090
remov,0.004459
ren,0.007569
repetit,0.007878
replac,0.003935
repres,0.003168
repudi,0.009513
requir,0.003040
research,0.081468
resolut,0.005908
resourc,0.003910
respect,0.003673
respons,0.006700
rest,0.004525
result,0.005380
resurg,0.008261
reveal,0.005080
review,0.012983
revolut,0.009569
rick,0.010409
rise,0.003886
robert,0.021233
role,0.003383
room,0.006265
root,0.009758
roughli,0.010835
russel,0.013539
ryan,0.009887
s,0.013696
sampl,0.023023
sand,0.007974
sapien,0.009204
say,0.016738
scholar,0.093195
scholarship,0.006906
school,0.039295
scienc,0.009745
scientif,0.042753
scientist,0.026499
scope,0.022712
sea,0.004928
search,0.004943
season,0.006241
sedentari,0.009698
seed,0.006853
seek,0.004334
seemingli,0.007578
seen,0.003789
sensit,0.006220
separ,0.003528
septemb,0.009315
sequenc,0.005362
seri,0.003847
session,0.007348
set,0.008975
sever,0.011209
sex,0.020062
shape,0.004603
share,0.003763
shift,0.004680
shortest,0.009498
sibl,0.009180
sidney,0.009306
sight,0.007167
signific,0.003431
significantli,0.004957
similar,0.009629
sinc,0.005375
skeptic,0.007079
slave,0.006351
small,0.006578
social,0.030775
societ,0.030237
societi,0.037046
sociobiolog,0.019563
sociobiologist,0.013102
sociologist,0.007628
solv,0.004947
soon,0.009858
sort,0.005638
sourc,0.003381
speak,0.005154
speci,0.014831
specif,0.006432
specimen,0.008335
specul,0.022369
speech,0.005791
spent,0.005941
sponsor,0.006738
spread,0.004751
stain,0.008858
standard,0.021722
start,0.006805
state,0.044687
statement,0.004934
statist,0.004409
statu,0.004489
stay,0.005883
steel,0.006732
stephen,0.023884
stir,0.009513
stronger,0.006471
structur,0.009421
struggl,0.005634
student,0.004575
studi,0.173286
subject,0.003419
subordin,0.014837
success,0.003564
suffer,0.004906
suggest,0.003763
superior,0.011966
support,0.006392
surviv,0.009272
sustain,0.005257
symbol,0.004880
syndrom,0.008190
techniqu,0.004130
teeth,0.025382
tendenc,0.006036
tenet,0.007914
term,0.002540
test,0.043943
th,0.012328
theori,0.015753
thi,0.082433
thing,0.004277
think,0.009323
thinker,0.006498
thoma,0.004808
thought,0.011428
thousand,0.004740
thrive,0.007441
time,0.028539
timelin,0.018981
tissu,0.006495
titan,0.009372
took,0.008398
tool,0.004304
topic,0.008529
total,0.007501
trade,0.003888
trait,0.006369
transatlant,0.009513
transport,0.004608
trend,0.015402
tri,0.004231
true,0.008704
trump,0.010225
truth,0.005719
turn,0.003716
twentythre,0.011987
type,0.009695
typic,0.007212
understand,0.029189
undertak,0.007297
uniqu,0.013750
unit,0.010844
unknown,0.005565
unreli,0.008612
unsustain,0.008899
unusu,0.006517
urban,0.011276
use,0.039535
util,0.014588
valid,0.025665
valu,0.010335
vari,0.003962
variat,0.010077
varieti,0.004036
variou,0.030601
vast,0.005397
ventur,0.007079
veri,0.003069
vicker,0.022458
view,0.003445
visibl,0.005941
visual,0.005671
w,0.013530
wa,0.028652
want,0.004962
war,0.015273
way,0.002874
weaker,0.007654
weaponri,0.009216
wellnot,0.015166
went,0.004930
west,0.004615
western,0.008086
white,0.005103
wide,0.013848
wife,0.006929
william,0.004307
wilson,0.006714
wish,0.005943
woman,0.006711
womb,0.010292
women,0.040926
work,0.021081
world,0.005450
worster,0.015166
write,0.008405
written,0.004255
wrong,0.006322
wrote,0.009159
wynn,0.011873
y,0.005724
year,0.018989
york,0.004140
young,0.004991
