abnorm,0.039362
abund,0.016037
add,0.015079
addison,0.025545
adjunct,0.026034
adult,0.015481
advanc,0.009767
agent,0.026966
agranulocyt,0.039255
alfr,0.016203
alongsid,0.016446
alter,0.014184
analyz,0.013292
andral,0.041601
antoni,0.023457
applic,0.009444
approxim,0.010776
arm,0.012609
autom,0.035391
avail,0.009666
averag,0.023623
basic,0.009592
believ,0.009862
beta,0.019503
bleed,0.050998
blockag,0.029823
blood,0.543483
bodi,0.038273
bone,0.035768
british,0.010646
carbon,0.031129
carri,0.010295
categori,0.012185
caus,0.008523
cbc,0.058538
cell,0.425777
centrifug,0.025061
chemotact,0.037097
circul,0.016709
clear,0.011887
clot,0.112646
collect,0.009316
commonli,0.010607
complet,0.026464
compon,0.021999
compos,0.012117
concentr,0.012499
connect,0.010516
contain,0.009163
corpuscl,0.028869
count,0.087406
cytometri,0.031183
day,0.028916
decad,0.011611
decreas,0.012578
defend,0.014291
deposit,0.015122
deriv,0.019424
destroy,0.013357
diamet,0.020870
differenti,0.012933
dioxid,0.037538
discov,0.022497
discoveri,0.023926
diseas,0.053521
disord,0.016465
divers,0.012285
dna,0.016485
doctor,0.015243
donn,0.029593
draw,0.013094
dutch,0.031375
ehrlich,0.027407
embolismor,0.041601
endotheli,0.032665
epiderm,0.032052
erythrocyt,0.064904
establish,0.008207
event,0.010007
examin,0.012036
excess,0.014861
exist,0.007647
extern,0.006013
extracellular,0.024548
extrem,0.011031
facilit,0.013864
factor,0.097506
femal,0.015439
fiber,0.019974
fibroblast,0.030453
field,0.008398
film,0.015596
flow,0.012110
follow,0.006578
foreign,0.010704
form,0.031428
format,0.011215
fragment,0.032347
french,0.022133
function,0.008419
gabriel,0.020754
gener,0.011817
granulocyt,0.073113
growth,0.093678
ha,0.005483
haematopoiet,0.036556
haemoglobin,0.065779
heal,0.020157
healingassoci,0.041601
health,0.011464
healthi,0.017954
hematocrit,0.035235
hematocyt,0.041601
hematolog,0.028328
hematopoiesi,0.036072
hematopoiet,0.032247
hemocyt,0.038418
hemostasi,0.035235
henc,0.012830
heparininduc,0.041601
hi,0.014746
high,0.016653
hit,0.017025
howev,0.006673
human,0.007922
illustr,0.014023
immun,0.017999
includ,0.017125
increas,0.015815
indic,0.010116
infarct,0.030064
infecti,0.022026
inform,0.008175
instead,0.009631
insulinlik,0.033636
involv,0.015943
ironcontain,0.040280
irregularli,0.027477
jan,0.018071
job,0.014200
just,0.009588
kind,0.010953
knowledg,0.010342
known,0.006870
lab,0.017963
lead,0.008202
leeuwenhoek,0.027407
leg,0.020408
leukocyt,0.155917
lifespan,0.045298
lifetim,0.017604
link,0.005977
liquid,0.014736
live,0.008888
local,0.009311
low,0.031607
lung,0.042996
lymphat,0.028414
m,0.009831
main,0.017405
mainli,0.011412
male,0.015419
mammal,0.017403
mani,0.006213
manual,0.034727
marrow,0.052820
materi,0.009633
matrix,0.017255
measur,0.009003
medic,0.025318
medicin,0.039319
megakaryocyt,0.038418
men,0.012747
method,0.008513
microscop,0.035492
microscopist,0.031183
morpholog,0.018833
multipot,0.034867
multitud,0.021694
myocardi,0.031511
natur,0.007338
naturalist,0.018726
neutrophil,0.032052
new,0.006140
normal,0.010957
nucleu,0.018210
number,0.034384
observ,0.018145
obstruct,0.023312
occur,0.008733
onli,0.006327
overview,0.013773
oxygen,0.033474
panel,0.020259
past,0.010905
patient,0.066975
paul,0.011949
pdgf,0.038418
percentag,0.015318
perform,0.028991
person,0.008995
physician,0.034681
plasma,0.040286
platelet,0.487249
plateletderiv,0.075421
plateletrich,0.041601
play,0.009925
potent,0.024739
precursor,0.017172
prepar,0.012784
presenc,0.011920
primarili,0.010775
process,0.014903
produc,0.024605
profession,0.025545
professor,0.014088
protect,0.010505
protein,0.016013
provid,0.013987
prp,0.033125
publish,0.008749
pulmonari,0.026245
purpura,0.036556
rbc,0.030319
red,0.124711
reduc,0.009470
refer,0.004999
regener,0.022247
releas,0.024988
remain,0.008268
repair,0.017797
request,0.045584
result,0.013927
role,0.008757
sampl,0.029795
scientist,0.011431
sever,0.007253
shape,0.011915
shown,0.012055
signific,0.008881
simultan,0.014580
slide,0.021714
small,0.008513
sourc,0.008751
spleen,0.027922
stage,0.012150
stain,0.045858
statu,0.011620
stem,0.031278
stimul,0.015570
stroke,0.022225
swammerdam,0.031027
technician,0.022247
techniqu,0.010692
test,0.034122
tgf,0.037710
thi,0.005204
threadlik,0.033914
thrombasthenia,0.041601
thrombocyt,0.078511
thrombocytopathi,0.041601
thrombocytopen,0.037097
thrombocytopenia,0.083203
thrombocytosi,0.040280
thrombos,0.041601
thrombosi,0.032452
thrombot,0.039255
tissu,0.084063
today,0.009995
togeth,0.009594
total,0.019415
transport,0.011927
ttp,0.036072
type,0.016729
typic,0.009334
unipot,0.035635
use,0.017055
van,0.015219
vascular,0.022929
veri,0.007945
vessel,0.033878
view,0.008917
volum,0.047671
wa,0.022818
wbc,0.038418
white,0.079257
william,0.011148
wound,0.019087
year,0.007021
yellow,0.019541
