abil,0.003481
abl,0.001597
aborigin,0.003796
abov,0.003239
absorb,0.002529
absorptiometri,0.005934
accomplish,0.002542
accord,0.002530
account,0.002980
accumul,0.002426
acellular,0.005381
acid,0.007646
acidbas,0.004518
acromion,0.006280
act,0.011567
action,0.001554
activ,0.012623
adapt,0.002014
addit,0.005119
adopt,0.001745
adult,0.012383
advanc,0.001562
advic,0.002753
advis,0.005114
affect,0.011572
age,0.007921
aid,0.003795
al,0.004339
alcohol,0.002904
align,0.002733
alkalin,0.011988
allow,0.001258
alreadi,0.001843
alter,0.004538
altern,0.001625
american,0.001433
anatom,0.010123
anatomi,0.008913
anatomist,0.008005
ancient,0.001832
andor,0.002213
androgen,0.005158
aneurysm,0.005191
angl,0.005711
ani,0.001114
anim,0.015936
ankl,0.009267
ankylos,0.006032
anthoni,0.005975
anthropolog,0.002868
anthropologist,0.003245
antiqu,0.002617
antler,0.009364
appear,0.007326
appli,0.001352
approxim,0.001724
archeolog,0.003672
archeologist,0.004618
area,0.003769
aris,0.004127
arrang,0.008249
arriv,0.002036
art,0.001935
arthriti,0.008641
arthur,0.002580
articul,0.006110
articular,0.005261
artifici,0.004272
artist,0.002655
ash,0.003417
aspir,0.003180
assist,0.001886
associ,0.002471
atla,0.002966
attach,0.002395
australian,0.002631
autoimmun,0.004407
averag,0.001889
away,0.001927
b,0.001675
bacteri,0.003304
bad,0.002595
balanc,0.004004
balanceth,0.006655
barbara,0.003349
base,0.002204
basic,0.001534
bat,0.003743
bead,0.003933
beak,0.004518
becaus,0.004593
becom,0.008547
begin,0.005949
benign,0.004109
benjamin,0.002892
berlin,0.002716
billion,0.004333
bind,0.007902
biolog,0.001809
biomechan,0.003864
bird,0.010415
birth,0.006743
bisphosphon,0.006146
black,0.004117
bleed,0.004079
blood,0.052167
bloodstream,0.004320
bobbin,0.005261
bodi,0.022960
boil,0.003412
bone,0.884077
bonederiv,0.006655
boneform,0.006655
boni,0.008329
boost,0.002990
border,0.002247
boundari,0.002129
brain,0.002441
break,0.006308
breakdown,0.003140
breast,0.003743
brian,0.003120
brittl,0.004198
britton,0.005225
broken,0.002543
broth,0.005225
bruis,0.005381
bryan,0.004029
buffer,0.003577
button,0.004057
c,0.001459
calcif,0.010523
calcifi,0.010678
calcin,0.005934
calcitonin,0.011541
calcium,0.057082
calcul,0.001946
campaign,0.002293
canal,0.012121
cancel,0.026046
cancer,0.078673
capooh,0.006655
carbon,0.002490
care,0.001919
carpal,0.009977
carri,0.001646
cartilag,0.066818
cartilagin,0.004790
carv,0.003385
case,0.001277
categori,0.001949
caus,0.009545
caviti,0.014775
ceas,0.002580
cell,0.114257
center,0.008147
centr,0.002100
central,0.001432
certain,0.002796
ch,0.003260
chang,0.005759
channel,0.005043
char,0.009433
character,0.003875
chemic,0.005836
chemotherapi,0.004430
chest,0.003842
chiefli,0.003312
child,0.002453
children,0.002101
china,0.005888
chip,0.003430
chondrocyt,0.018840
chondroitin,0.005934
chronic,0.003140
churchil,0.007582
circul,0.013366
classif,0.002254
classifi,0.002066
clavicl,0.011401
cleav,0.004190
clinic,0.002664
closer,0.002528
closest,0.003092
closur,0.003299
collagen,0.093759
colledg,0.006280
colleg,0.002217
colonystimul,0.006655
colour,0.002916
column,0.023222
come,0.002922
common,0.006177
commonli,0.001696
commun,0.001336
compact,0.018087
compar,0.001511
compart,0.003989
complex,0.002990
complic,0.006947
compon,0.008798
compos,0.011631
composit,0.008473
compound,0.004605
compress,0.009464
comput,0.001693
concentr,0.005998
condit,0.002859
conduct,0.001751
condyl,0.006280
connect,0.008411
consid,0.001191
consist,0.010941
constantli,0.005697
constitut,0.001613
consumpt,0.002383
contain,0.004397
contribut,0.002999
control,0.005430
convers,0.002108
convert,0.002083
coracoid,0.006280
cord,0.003647
cortex,0.003715
cortic,0.032997
count,0.002330
cover,0.005047
crack,0.003400
craft,0.003073
cranial,0.004290
creat,0.012499
creation,0.003720
creativ,0.002640
crest,0.004243
crosssect,0.003806
crustacean,0.004057
crystal,0.008600
ct,0.007075
cubeshap,0.005934
cultur,0.006145
cum,0.004124
current,0.001308
curv,0.002514
custom,0.004132
customarili,0.004198
cyst,0.004809
cytokin,0.009701
d,0.003308
damag,0.002205
davidson,0.003996
day,0.004626
deakin,0.005014
decreas,0.004024
deer,0.003880
defect,0.003016
defin,0.001402
deform,0.003336
degre,0.001673
dens,0.005817
densiti,0.009863
depend,0.005393
deposit,0.019353
der,0.002674
deriv,0.006214
derrickson,0.006655
describ,0.007546
destroy,0.008547
destruct,0.002418
determin,0.007095
detoxif,0.005041
develop,0.013285
deviat,0.002899
dexa,0.013310
diaphys,0.012560
diaphysi,0.019331
dice,0.004271
die,0.001957
diet,0.003021
differ,0.002166
differenti,0.008276
direct,0.001356
directli,0.001641
discret,0.002410
diseas,0.019264
disord,0.005268
dissecan,0.006655
dissolv,0.002538
distort,0.002885
distract,0.003668
divid,0.003240
divin,0.002717
doctor,0.009754
doe,0.001382
draw,0.002094
dri,0.002676
dual,0.002880
dunkleosteu,0.006032
dure,0.008234
e,0.001655
ear,0.006529
eat,0.002870
ed,0.006889
edg,0.002684
edinburgh,0.006693
edit,0.005776
editor,0.002618
educ,0.001567
effect,0.002390
elain,0.004505
elast,0.006162
electr,0.002034
element,0.003129
embed,0.005722
embol,0.004963
emin,0.003500
enabl,0.001951
enchondroma,0.006655
end,0.004035
endochondr,0.026621
endocrin,0.003933
endosteum,0.025120
energi,0.001722
enlarg,0.006284
enter,0.001798
entrap,0.009542
enzym,0.008972
epiphys,0.043022
epiphysi,0.006032
equip,0.002199
erythroblast,0.006443
especi,0.001428
essenti,0.005130
establish,0.001312
estrogen,0.004771
et,0.004229
ethmoid,0.006443
evapor,0.003445
eventu,0.001748
everi,0.001539
everyday,0.002628
evid,0.001677
exact,0.002347
exam,0.003527
exampl,0.008814
excess,0.007132
exclus,0.002101
excret,0.003970
exercis,0.004227
exist,0.001223
exoskeleton,0.004771
expos,0.002464
extern,0.002885
extinct,0.002796
extracellular,0.011781
extrem,0.001764
factor,0.024958
factorbeta,0.006443
famili,0.001703
farthest,0.004492
fashion,0.002589
fat,0.013475
fatti,0.007553
fauci,0.006032
feed,0.002824
felt,0.002597
femur,0.010082
fertil,0.002578
fetal,0.012570
fetu,0.008031
fgf,0.005578
fiber,0.028759
fibr,0.003945
fibril,0.005068
fibroblast,0.009743
fibrou,0.014257
filter,0.003066
filtrat,0.004330
finger,0.003573
fish,0.002295
fit,0.002239
fix,0.003905
fixat,0.003796
flail,0.005425
flat,0.016882
flatten,0.007927
flesh,0.003668
flight,0.005390
fluid,0.005186
fluorid,0.004466
fluorosi,0.012560
flurosi,0.006655
foci,0.004734
focus,0.001712
fogelman,0.006655
follow,0.004209
foot,0.005716
footnot,0.003279
foramen,0.005700
forc,0.003955
foreign,0.001712
forens,0.003523
form,0.017094
format,0.025119
fowl,0.004442
fractur,0.111341
fragil,0.003527
frame,0.002514
francisco,0.002839
frequent,0.001849
fulli,0.001983
function,0.010775
fuse,0.006477
gelatin,0.004603
gener,0.003781
genr,0.003106
gerard,0.003875
giant,0.002876
given,0.001319
gland,0.003702
globular,0.004531
glucocorticoid,0.005191
glucos,0.003680
glue,0.013291
gnanasegaran,0.006655
good,0.001462
gopinath,0.006032
gradual,0.004229
graft,0.004280
granular,0.004573
granulocyt,0.005848
greek,0.001862
ground,0.011485
group,0.001186
grow,0.003373
growth,0.031638
guyton,0.005770
h,0.003654
ha,0.010526
hall,0.002495
han,0.002629
handl,0.002392
haphazard,0.004893
hard,0.012954
harden,0.004036
harrison,0.011271
haversian,0.006655
head,0.006793
heal,0.006449
health,0.009169
healthi,0.002872
hear,0.002774
heart,0.002414
heavi,0.002273
help,0.001440
hematopoiesi,0.005770
hematopoiet,0.015476
henc,0.002052
herbivor,0.003897
high,0.002664
highenergi,0.003801
highli,0.001731
hip,0.004164
histolog,0.008233
histor,0.001477
histori,0.002191
hoehn,0.006280
hold,0.003169
hole,0.002994
hollow,0.003776
homeostasi,0.008086
homo,0.006896
homogen,0.002962
honeycomblik,0.006146
hormon,0.034090
hormonerel,0.006655
howship,0.006655
human,0.010139
hyalin,0.006146
hyaluron,0.005578
hybrid,0.002748
hydroxyapatit,0.025120
hydroxylapatit,0.005770
hypertrophi,0.011541
hypothes,0.002615
ichthyosaur,0.005636
idea,0.001476
identifi,0.001590
ignac,0.006032
ii,0.001721
illustr,0.002243
imag,0.010128
immedi,0.001933
immobil,0.004243
immobilis,0.011273
immunosuppress,0.004850
immunotherapi,0.005014
imperfecta,0.006443
impli,0.002045
import,0.005609
improv,0.001618
inact,0.003430
includ,0.025570
incorpor,0.001806
increas,0.017710
individu,0.002713
induc,0.005209
infant,0.003161
infect,0.005971
inflamm,0.004064
ingredi,0.003454
inhibit,0.016193
initi,0.002858
injuri,0.002916
inner,0.002644
inorgan,0.012302
inscript,0.003551
insect,0.002989
insid,0.002206
insulin,0.003897
insulinlik,0.010762
insulinproduc,0.006032
interact,0.001641
interior,0.005163
interleukin,0.005381
intern,0.006916
interpret,0.001755
interspers,0.004430
intramembran,0.018438
invad,0.002631
investig,0.007373
involv,0.012753
irregular,0.024620
isbn,0.010886
isol,0.002135
j,0.003304
jaw,0.003909
john,0.001496
join,0.001956
joint,0.011581
katja,0.005770
keratin,0.004665
kgfcm,0.006032
kidney,0.007200
kini,0.005770
kneecap,0.006443
known,0.010991
kurdaitcha,0.006655
lack,0.001677
lacuna,0.045095
laid,0.002482
lamella,0.011869
lamellar,0.043783
larg,0.002318
largest,0.001816
later,0.002616
latin,0.006201
law,0.001324
lay,0.002474
layer,0.030380
lead,0.002624
leav,0.001862
lesser,0.002696
leukemia,0.004300
level,0.001315
leverag,0.003394
life,0.001413
ligament,0.004545
lighter,0.003451
lightweight,0.012757
like,0.003524
likelihood,0.006099
limb,0.006884
limit,0.001343
line,0.003148
lineag,0.003255
link,0.001912
liquid,0.002357
littl,0.005049
live,0.001422
livingstoneelsevi,0.011696
load,0.003018
local,0.002979
locat,0.017787
long,0.019991
longbon,0.006655
longer,0.001813
longitudin,0.007477
low,0.001685
lower,0.003250
luck,0.003921
lung,0.006878
lytic,0.005636
m,0.001572
macer,0.005523
macrophag,0.013949
macroscop,0.003150
magnesium,0.003762
mainli,0.005477
mainstream,0.002668
major,0.002333
make,0.007828
mammal,0.008352
manag,0.006300
mandibl,0.009787
mani,0.011928
manipul,0.002354
manufactur,0.002097
marieb,0.005934
marin,0.007552
marker,0.003383
marrow,0.118301
mass,0.009017
materi,0.007705
matrix,0.063492
matur,0.007677
maxilla,0.005578
maximis,0.003927
maximum,0.002391
mcgrawhil,0.003178
mean,0.001211
measur,0.002880
meatu,0.006032
mechan,0.009744
medial,0.004682
medic,0.010126
medicin,0.010483
medullari,0.005578
meet,0.001779
megakaryocyt,0.006146
men,0.002039
menopaus,0.005127
mesenchym,0.005225
mesozo,0.004682
metabol,0.014573
metal,0.002288
metastas,0.005636
metastasis,0.006443
metastat,0.005381
microdamag,0.006655
microscop,0.005678
middl,0.003626
migrat,0.004699
miner,0.055999
mineralis,0.021524
miss,0.002774
mitosi,0.008203
mixtur,0.002749
mobil,0.002335
model,0.002739
modern,0.001319
modifi,0.004291
monocyt,0.010851
mononucl,0.006655
morphogenet,0.010851
mostli,0.011257
mpa,0.014257
mri,0.007622
multipl,0.008457
multipli,0.002834
muscl,0.009149
musculoskelet,0.004373
myeloid,0.005127
myeloma,0.005700
n,0.001974
nandeesh,0.006655
narrow,0.002483
nation,0.001218
natur,0.001174
neanderthalensi,0.005225
nearli,0.001915
neck,0.003607
nerv,0.003383
network,0.005515
new,0.002946
newborn,0.003864
newli,0.002313
nicki,0.005700
nicpon,0.006655
noncollagen,0.006443
normal,0.003505
notabl,0.001687
nuclei,0.003163
number,0.009901
numer,0.003258
nut,0.003796
nutrit,0.006317
occupi,0.002204
occur,0.013971
onc,0.003286
ongo,0.002406
onli,0.005061
open,0.001505
opposit,0.001809
oracl,0.003880
order,0.002423
orderli,0.003853
organ,0.019192
orient,0.002291
origin,0.003656
ornament,0.003680
orthoped,0.004545
os,0.004015
ossein,0.013310
osseou,0.026621
ossicl,0.005848
ossif,0.083671
ossifi,0.005381
osteo,0.006655
osteoblast,0.160238
osteoblastoma,0.006655
osteocalcin,0.019965
osteochondr,0.006655
osteochondroma,0.006655
osteoclast,0.119717
osteocyt,0.070883
osteogenesi,0.011869
osteoid,0.057995
osteolog,0.010598
osteoma,0.013310
osteomyel,0.006655
osteon,0.030164
osteopath,0.009267
osteopathi,0.011401
osteophagi,0.006655
osteopontin,0.006655
osteoporosi,0.070576
osteoprogenitor,0.006655
osteoprotegerin,0.026621
otherwis,0.002091
outer,0.011239
outsid,0.001677
overal,0.004025
overlap,0.002444
overview,0.002203
paget,0.010082
pain,0.013926
palli,0.004505
paracrin,0.005934
parafollicular,0.006443
parallel,0.011393
parathyroid,0.016734
particular,0.002753
particularli,0.004626
pass,0.001708
patella,0.005578
pathologist,0.004418
patient,0.002678
pdf,0.002545
peak,0.002413
pelvi,0.004734
pelvic,0.004454
penetr,0.002937
peopl,0.003637
peptid,0.003680
percent,0.002208
periosteum,0.018438
perman,0.002131
person,0.001438
ph,0.003483
phagocyticlik,0.006655
philadelphia,0.003344
philip,0.002703
phosphat,0.037403
phosphatas,0.014681
phosphoru,0.007246
phosphorusnitrogen,0.006655
photomicrograph,0.005523
physician,0.002774
physiolog,0.010361
pickup,0.004963
piezoelectr,0.009927
pigment,0.007370
pisiform,0.006146
pit,0.003483
pituitari,0.004963
place,0.001243
plate,0.008566
platelet,0.024359
plateletderiv,0.006032
platelik,0.005934
play,0.004763
plywood,0.005041
point,0.006378
poker,0.004559
polymeris,0.004809
poor,0.004348
poorli,0.002911
porou,0.008346
portion,0.002209
possess,0.001976
postemenopaus,0.006655
postmenopaus,0.006655
potassium,0.003496
potenti,0.003265
pp,0.002055
practic,0.004047
practis,0.003317
precipit,0.002899
precursor,0.008241
predatori,0.004071
prefix,0.006777
prehistor,0.006096
premenopaus,0.006443
prepar,0.002045
presenc,0.003813
presum,0.002814
prevent,0.003605
previou,0.001901
previous,0.001922
primari,0.011652
primarili,0.008618
principl,0.004541
probabl,0.001809
problem,0.001348
procedur,0.002196
process,0.020266
produc,0.015745
product,0.001314
progenitor,0.012445
prognosi,0.004320
progress,0.001718
project,0.001560
projectil,0.004124
prolifer,0.006208
prolong,0.003206
promot,0.008994
prone,0.003483
prong,0.005934
properti,0.001526
proport,0.004169
prostaglandin,0.004988
prostat,0.004280
protect,0.008403
protein,0.015370
proteoglycan,0.005770
protrus,0.009743
provid,0.002237
pull,0.002894
pullingtension,0.006655
purpos,0.003280
pushingcompression,0.006655
qualiti,0.001878
quarterli,0.003083
quickli,0.002052
r,0.003374
radiographi,0.004850
radiologist,0.004871
radionuclid,0.004716
radiotherapi,0.004618
ralston,0.005127
randomli,0.003409
ranel,0.006655
rankl,0.005700
rankligand,0.006655
rapidli,0.004251
rare,0.002075
rate,0.004688
ratio,0.002274
reabsorb,0.010451
reabsorbt,0.006655
reabsorpt,0.027127
reach,0.001625
reason,0.001435
recent,0.001384
receptor,0.003406
recoveri,0.002662
red,0.024384
reduc,0.006060
refer,0.006398
refin,0.002508
region,0.002864
regul,0.005680
regular,0.002191
regularli,0.002722
rehabilit,0.006896
rel,0.005735
relat,0.002156
relationship,0.001526
releas,0.013991
relief,0.002851
remain,0.001322
remaind,0.005935
remodel,0.044304
remov,0.003693
repair,0.002847
repeat,0.004616
repetit,0.003262
replac,0.014667
replenish,0.004009
reptil,0.003516
requir,0.001259
research,0.003892
reserv,0.006381
resili,0.003668
resist,0.012434
resolut,0.002446
resorb,0.005934
resorpt,0.051307
resourc,0.001619
respons,0.002774
restor,0.002261
restrict,0.001853
result,0.008912
review,0.001791
rheumatologist,0.006280
rib,0.008661
right,0.001435
rigid,0.008927
rise,0.006437
risk,0.003935
robert,0.001758
robustli,0.004963
rod,0.003457
role,0.007005
room,0.002594
roughli,0.002243
round,0.002533
run,0.001757
ruptur,0.004015
s,0.001134
said,0.003286
salt,0.019180
salterharri,0.006655
san,0.002539
sandwich,0.003983
sapien,0.003811
saunder,0.003886
scan,0.015966
scapula,0.011047
school,0.001627
scienc,0.002690
sclerot,0.006280
scrimshaw,0.005934
script,0.003152
seam,0.008933
secondari,0.009109
secret,0.034546
sensit,0.002575
separ,0.002922
seriou,0.002240
serv,0.004776
sesamoid,0.030164
seven,0.002098
sever,0.004641
sex,0.002769
sexmatch,0.006655
shaft,0.012445
shape,0.020968
sharp,0.002703
shear,0.011271
shed,0.006818
sheet,0.005785
short,0.008526
sialoprotein,0.006655
sign,0.001832
signal,0.004602
signific,0.004262
similar,0.002658
simmer,0.004850
sinc,0.001113
sinus,0.005191
site,0.007499
sitespecif,0.005068
size,0.001733
skelet,0.027285
skeleton,0.020419
skin,0.005645
skull,0.014222
slaughter,0.003693
slowli,0.002565
small,0.005448
smaller,0.003785
smallest,0.002896
smoke,0.006614
smooth,0.002951
societi,0.002789
sodium,0.003388
solid,0.004784
someon,0.002600
someth,0.002140
soon,0.004082
sound,0.002343
sourc,0.001400
space,0.006864
special,0.004176
specialist,0.002761
specif,0.001331
sphenoid,0.005848
spinal,0.003880
spine,0.007533
spondyl,0.006032
spongi,0.028854
spread,0.001967
springer,0.002694
st,0.001794
stage,0.005831
standard,0.001499
stape,0.005636
state,0.000973
statu,0.001858
stem,0.007505
stemcel,0.005578
step,0.001887
sternum,0.005158
stick,0.003346
stimul,0.017436
stop,0.002198
storag,0.013243
store,0.011275
strand,0.012695
strength,0.018059
stress,0.020542
strong,0.003234
stronger,0.002679
strontium,0.004559
structur,0.007802
stuart,0.003087
studi,0.005881
substanc,0.009360
substitut,0.002473
substrat,0.003380
sugar,0.002712
suggest,0.006232
sulfat,0.003983
supplement,0.002755
support,0.005293
surfac,0.024184
surgeon,0.003470
surgeri,0.003138
surgic,0.003371
surround,0.010191
surviv,0.001919
sutur,0.004893
symptom,0.009502
syndrom,0.003391
synergist,0.004716
synovi,0.005339
synthesis,0.004173
synthet,0.002760
taken,0.006519
tandem,0.004022
target,0.002072
tarsal,0.005770
tartrat,0.005636
task,0.002064
teeth,0.003503
temporari,0.002624
temporarili,0.003068
tendon,0.017818
tensil,0.014202
term,0.012621
terminolog,0.002620
test,0.003639
text,0.001920
textbook,0.002508
th,0.005105
themselv,0.003302
therapi,0.005669
therebi,0.002303
thi,0.020813
thicken,0.013679
thighbon,0.005934
thing,0.001771
thinner,0.004300
thought,0.001577
threedimension,0.003057
thu,0.002602
thyroid,0.013023
time,0.005908
tissu,0.080689
today,0.003198
toe,0.004164
togeth,0.010743
tool,0.003564
torsion,0.008641
tortora,0.006655
total,0.006212
tough,0.003706
tr,0.003957
trabecula,0.012292
trabecular,0.019331
trace,0.002134
tradit,0.002803
train,0.001922
transduct,0.004029
transfer,0.001904
transform,0.005465
trap,0.002916
trauma,0.007353
treat,0.005847
treatment,0.002047
trimest,0.004988
tubercl,0.005299
tuberos,0.006146
tumor,0.007147
tumour,0.013555
tunnellik,0.006655
turnov,0.003577
turtl,0.003853
type,0.020073
typic,0.002986
ultrasound,0.004050
undergo,0.002580
underli,0.002113
unfix,0.005700
uniformli,0.003627
unit,0.003367
unlik,0.001853
unusu,0.002698
upper,0.002247
use,0.024555
usha,0.005472
usual,0.001339
van,0.002434
vari,0.001640
varieti,0.010027
variou,0.005068
velvet,0.004752
veri,0.006355
version,0.003893
vertebr,0.009921
vertebra,0.004603
vesicl,0.008297
vessel,0.008129
vitamin,0.007311
volkmann,0.006280
volum,0.005719
wa,0.001825
walker,0.003506
wall,0.009427
way,0.002380
wb,0.004505
weak,0.002210
weaken,0.008363
weaker,0.003169
week,0.002339
weight,0.002243
weightbear,0.005934
wheater,0.006443
wherea,0.001931
white,0.014792
wide,0.001433
width,0.003743
wiley,0.002723
wish,0.002461
wishbon,0.006146
wolff,0.004022
women,0.006354
word,0.001545
work,0.001091
world,0.001128
woven,0.032693
wrist,0.013855
write,0.001740
xray,0.009106
year,0.003369
yellow,0.006252
yield,0.002174
york,0.003428
young,0.002066
zone,0.013803
