abil,0.003394
abov,0.003158
absorb,0.004932
abund,0.005003
acet,0.015825
acid,0.039766
acidif,0.009459
act,0.002819
addit,0.004991
adf,0.010412
adhes,0.007403
adl,0.009633
adopt,0.003404
aerosol,0.017234
afford,0.005298
agent,0.004206
agricultur,0.003667
aid,0.003701
alga,0.013651
allow,0.002453
alsoedit,0.007767
altern,0.006340
alway,0.003317
amorph,0.032361
anaerob,0.008013
angl,0.005568
anhydrooligom,0.012979
ani,0.004348
anim,0.006906
anoth,0.002372
anselm,0.008154
anthron,0.012979
applicationsedit,0.010772
approxim,0.010086
arabinos,0.011985
artifici,0.008332
ascidian,0.010878
assay,0.023154
assayedit,0.012979
atom,0.004314
bacteri,0.019334
bacteria,0.050975
bank,0.003567
base,0.004299
becaus,0.002239
becom,0.004762
bed,0.006425
began,0.002970
begin,0.002900
bind,0.005137
binder,0.009067
biobas,0.010673
biodegrad,0.009268
biofilm,0.009779
biofuel,0.017374
biolog,0.003528
biomass,0.007514
biooil,0.012247
bioscienc,0.008550
biosynthesi,0.007885
biosynthesisedit,0.012979
bond,0.025494
boric,0.010412
branch,0.006327
break,0.004100
breakdown,0.030620
britannica,0.006050
broken,0.009920
bubbl,0.006236
build,0.009444
bulk,0.005273
butanol,0.011117
c,0.022776
cadmiumethylenediamin,0.012979
cadoxen,0.012979
cake,0.008550
camphor,0.010261
carbohydr,0.007020
carbohydratebind,0.012979
carbon,0.004856
carboxymethyl,0.025133
card,0.005661
cdc,0.008486
ced,0.011765
cell,0.021425
cellodextrin,0.038937
cellophan,0.052903
cellulas,0.053860
celluloid,0.029824
cellulolysi,0.024494
cellulolysisedit,0.012979
cellulolyt,0.012566
cellulomona,0.012979
cellulos,0.932438
cellulosecontain,0.012979
centuri,0.002558
cermavcnr,0.012979
certain,0.005454
cesa,0.047943
chain,0.075671
chaplin,0.009779
char,0.009198
cheap,0.006172
chees,0.007831
chemic,0.022763
chemist,0.005726
chiral,0.008222
chlorid,0.007089
chromatographi,0.008171
clear,0.003708
cleav,0.016342
cleavag,0.008222
clostridium,0.010580
coil,0.007694
colour,0.005687
combin,0.002841
combust,0.006885
compani,0.003146
compar,0.005894
compet,0.004108
complet,0.002752
complex,0.005831
compon,0.017158
compound,0.022451
compris,0.008153
concentr,0.003899
condens,0.011531
confer,0.003922
conform,0.011000
conjug,0.006838
connect,0.003280
consist,0.013335
constitu,0.004666
consum,0.003967
contact,0.004181
contain,0.014294
content,0.007864
continu,0.002414
contrast,0.010098
convers,0.008222
convert,0.012186
cook,0.005618
correspond,0.003617
cotton,0.036555
countri,0.002622
cow,0.006872
creat,0.002437
crop,0.034488
croscarmellos,0.012979
crosslink,0.008760
crystallin,0.029574
cupriethylenediamin,0.012979
current,0.002551
decompos,0.006459
decomposit,0.006506
degre,0.006527
depend,0.002629
deriv,0.024240
derivativesedit,0.012979
describ,0.002452
descript,0.003642
desir,0.003750
detect,0.004376
deterg,0.017471
determin,0.005534
dglucos,0.025133
diamet,0.006511
diatomac,0.011254
diet,0.005892
dietari,0.014673
differ,0.006337
difficult,0.003475
digest,0.036532
dimethylacetamid,0.012247
dioxid,0.005855
discov,0.003509
disintegr,0.006516
dissolv,0.024747
dockerin,0.012979
doe,0.005392
dri,0.005219
drug,0.004700
e,0.003229
earli,0.002399
earth,0.007533
ed,0.003358
edibl,0.007742
ei,0.008711
eii,0.011985
elong,0.014865
encod,0.005842
encyclopdia,0.006223
endoact,0.012247
energi,0.023511
enrich,0.006279
environment,0.007714
enzym,0.034996
equatori,0.007195
especi,0.002785
ester,0.016149
ethanol,0.007767
ether,0.014905
exampl,0.002148
exist,0.002385
exoact,0.012979
explos,0.005318
extend,0.003164
extern,0.001876
extract,0.004618
fece,0.008785
ferment,0.007043
fiber,0.081014
fiberform,0.012979
filler,0.019558
film,0.024329
filter,0.005980
filtrat,0.016891
fireresist,0.012247
firmli,0.006271
flagel,0.009831
flap,0.008948
float,0.005681
flora,0.006485
fluoresc,0.006991
food,0.007384
form,0.015688
formul,0.004108
formula,0.008960
fraction,0.005021
french,0.003452
friendli,0.005909
fuel,0.009508
fulli,0.003867
function,0.002626
furan,0.010261
furthermor,0.004396
galactos,0.009543
gase,0.011440
gene,0.009955
given,0.002573
glucos,0.043070
glucosidas,0.012979
glucosyltransferas,0.012979
glycogen,0.008811
glycolaldehyd,0.010878
glycosid,0.048166
green,0.004412
group,0.004628
grow,0.003289
guid,0.003627
gunpowd,0.007568
gut,0.007355
h,0.003563
ha,0.008553
hazard,0.005858
heat,0.004523
help,0.005617
hemicellulos,0.062472
hemicelluloseedit,0.012979
hemp,0.017326
hermann,0.006271
hexamer,0.011765
high,0.005195
higher,0.012199
highli,0.003377
hindgut,0.022508
histor,0.002881
historyedit,0.008687
hold,0.003090
hors,0.005541
howev,0.002082
human,0.002471
hundr,0.003897
hyatt,0.010772
hydrogen,0.010627
hydrolas,0.010191
hydrolysi,0.008090
hydrophil,0.026435
hydroxid,0.008406
hydroxyl,0.024615
ident,0.003673
ii,0.010072
iii,0.004906
import,0.004376
inact,0.006689
includ,0.014247
individu,0.002646
industri,0.011713
inert,0.007255
ingredi,0.006737
initi,0.008362
insid,0.004302
insolubl,0.008188
insul,0.013967
intensifi,0.006288
intermedi,0.010084
intestin,0.007393
invent,0.004174
investig,0.003594
involv,0.002487
ionic,0.014194
irrevers,0.007081
isol,0.004165
iv,0.005568
kind,0.003417
known,0.008574
kobayashi,0.010493
kraft,0.009500
laboratori,0.004352
land,0.003246
larg,0.002260
later,0.002550
layer,0.004937
length,0.021277
levoglucosan,0.025958
light,0.007072
lignin,0.046163
like,0.006872
limit,0.002619
linear,0.004563
linen,0.008425
link,0.003729
linkag,0.013524
linksedit,0.007831
liquid,0.032182
list,0.002384
lithium,0.007473
live,0.002773
locat,0.003153
london,0.003611
longchain,0.009500
luminesc,0.009587
lyocel,0.012566
macki,0.009543
main,0.002715
mainli,0.017802
major,0.006826
make,0.006542
mammal,0.005429
mammalian,0.006983
mani,0.009692
mannos,0.010673
manufactur,0.008179
martin,0.004539
mass,0.003517
materi,0.036064
matric,0.007081
matrix,0.005383
matter,0.006452
matur,0.004990
maximum,0.004663
mechan,0.003167
media,0.003933
melt,0.018360
membran,0.012146
mesh,0.007525
metast,0.008948
method,0.010624
methyl,0.007452
microbi,0.007137
microcrystallin,0.011573
microfibril,0.034721
microorgan,0.012810
microscopi,0.006749
mid,0.004270
miner,0.004748
minor,0.003968
miscanthu,0.011765
miscellan,0.007452
mixtur,0.005362
modul,0.005790
moldabl,0.010772
molecul,0.018523
molten,0.015910
monom,0.008171
morpholog,0.005875
motif,0.007097
movi,0.005865
mpa,0.009268
multienzym,0.012247
multipl,0.003298
muscl,0.005947
n,0.003851
nanocomposit,0.010673
nanocrystallin,0.024494
natur,0.002289
nearli,0.003735
neighbor,0.004838
niosh,0.010191
nitrat,0.007442
nitric,0.008257
nitrocellulos,0.029186
nm,0.013924
nmethylmorpholin,0.012979
nonfood,0.027912
novel,0.004746
noxid,0.012566
number,0.002145
o,0.004522
obtain,0.010000
occur,0.005449
odorless,0.010124
oh,0.007536
oligothiophen,0.012979
onli,0.001974
oomycet,0.010493
organ,0.009357
outlaw,0.006885
oxygen,0.015665
packag,0.005436
paper,0.014154
paperboard,0.023971
parmesan,0.012247
partial,0.003945
particularli,0.006015
past,0.003402
payen,0.010580
pectin,0.009885
pharmaceut,0.005842
phase,0.008248
photograph,0.005902
plant,0.029787
plantderiv,0.010878
plasma,0.012568
plastic,0.005765
pocket,0.006852
polym,0.051558
polymer,0.015364
polysaccharid,0.039921
poplar,0.010673
popular,0.003068
populu,0.010992
portion,0.008619
possibl,0.002508
powder,0.014618
practic,0.002631
precipit,0.011310
precursor,0.005357
prefer,0.003765
present,0.002459
pressur,0.003701
prevent,0.003515
prez,0.008617
primari,0.009738
primer,0.014226
principl,0.002952
process,0.013949
processingedit,0.012979
produc,0.040941
product,0.015378
prolifer,0.006054
proper,0.004412
properti,0.011910
propertiesedit,0.012247
protein,0.004996
protozoa,0.008222
provid,0.004363
pulp,0.038901
pure,0.003888
pyran,0.021985
pyrolysi,0.020987
quantiti,0.004005
quit,0.004156
rang,0.002952
raw,0.005087
rayon,0.049155
react,0.016347
reaction,0.011998
reagent,0.015637
recent,0.005401
recycl,0.013273
refer,0.001559
referencesedit,0.007682
regener,0.020822
region,0.005585
rel,0.002796
relat,0.002102
remov,0.003601
renew,0.004560
repres,0.002558
requir,0.004910
residu,0.006020
resin,0.007871
resourc,0.006315
result,0.006517
retard,0.007647
rhamnos,0.012979
robot,0.005781
rodlik,0.010992
rosett,0.010878
rtc,0.043088
rumen,0.010493
rumin,0.025651
s,0.002212
salix,0.011405
sampl,0.004647
schweizer,0.010992
scienc,0.002623
second,0.007679
secondari,0.008882
secret,0.009624
semicrystallin,0.011985
separ,0.008548
serg,0.008486
set,0.002416
seven,0.004092
sever,0.006788
sheep,0.006284
shoda,0.011765
short,0.006651
shorter,0.005552
shown,0.007522
sidebysid,0.009999
significantli,0.004002
silk,0.006480
similarli,0.004112
sinc,0.002170
sitosterolbetaglucosid,0.012979
small,0.005312
smaller,0.007381
smokeless,0.009999
sodium,0.019825
solid,0.004665
solidtoliquidtovapor,0.012979
solubl,0.020822
solut,0.003713
solvent,0.020973
sometim,0.002825
sourc,0.002730
south,0.003399
speci,0.007984
spectrofluorometr,0.012979
spectrophotometr,0.011985
spin,0.006020
spong,0.007941
sprayabl,0.012979
stabil,0.004048
stabl,0.004271
starch,0.039159
stationari,0.006293
stauding,0.010191
steroid,0.008171
stiff,0.007346
stock,0.004187
stoichiometri,0.008838
stomach,0.007273
straight,0.006020
strain,0.005395
strand,0.006189
strength,0.017609
strong,0.003154
strongli,0.004183
structur,0.022825
subfamili,0.009633
substanc,0.004563
success,0.002878
suffici,0.004012
sugar,0.010578
suggest,0.003038
sulfur,0.006381
superfamili,0.008948
superior,0.004831
switchgrass,0.011765
symbiot,0.022576
synthas,0.035679
synthes,0.011281
synthesi,0.004846
synthesis,0.016276
tablet,0.006919
tast,0.006092
technologyreviewcom,0.012979
temperatur,0.017552
tensil,0.027698
term,0.002051
termin,0.005085
termit,0.016376
test,0.003548
textil,0.011737
th,0.004977
therebi,0.004492
thermal,0.005566
thermolysi,0.011765
thermolysisedit,0.012979
thermoplast,0.010124
thi,0.009741
thicken,0.008892
thousand,0.003827
tissu,0.005245
togeth,0.002993
transform,0.003553
transit,0.007558
transpar,0.005555
treat,0.011402
treatment,0.003993
triacet,0.011985
trichonympha,0.012979
true,0.003514
tu,0.008205
tunicin,0.012979
turn,0.003000
twotoseven,0.012979
typic,0.008736
udpdglucos,0.012979
udpglucos,0.023971
unbranch,0.009999
undergo,0.015098
unit,0.019704
univers,0.002248
unknown,0.004494
unlik,0.003614
updegraff,0.012979
usabl,0.006659
usda,0.008864
use,0.056756
usual,0.007836
util,0.003926
vapor,0.020342
varieti,0.006518
variou,0.004942
vascular,0.007153
veri,0.002478
viscos,0.015743
volatil,0.017325
wa,0.017797
wall,0.018384
wallpap,0.010261
wast,0.005206
water,0.026786
watersolubl,0.009131
wavelength,0.006575
wherea,0.011299
wide,0.002795
william,0.003478
willow,0.008948
wing,0.005909
wood,0.020035
xylos,0.011117
xylosan,0.012979
yield,0.004240
zebra,0.008735
