abl,0.002866
absent,0.005531
abund,0.009204
accumul,0.004353
acetabularia,0.010226
achlya,0.011939
acid,0.068588
acquir,0.003696
act,0.005187
actinobacteria,0.009374
actual,0.002904
addit,0.018367
adjac,0.010388
advoc,0.003895
aeruginosa,0.010112
agar,0.008154
agaros,0.009374
age,0.002842
aggreg,0.004799
agp,0.011939
alga,0.100461
algal,0.032143
algin,0.010822
align,0.009805
allow,0.002256
altern,0.002916
amino,0.011748
amoeba,0.017186
anchor,0.006175
andor,0.003971
angl,0.005122
anim,0.009529
anoth,0.004365
antibiot,0.012808
apart,0.004158
apex,0.007066
apoplast,0.011559
appar,0.007748
apposit,0.020224
approxim,0.003092
arabinogalactan,0.011559
archaea,0.049776
archaeal,0.050033
area,0.002254
arrang,0.003699
ascomycota,0.011559
atmospher,0.004445
author,0.002555
autotroph,0.007906
bacteri,0.059284
bacteria,0.083361
balloon,0.007055
bangia,0.011939
bark,0.014090
barrier,0.009235
basidiomycota,0.011025
basket,0.013825
becaus,0.002059
becom,0.004381
befor,0.002337
begin,0.002668
believ,0.005660
bend,0.012795
biochem,0.005626
biogen,0.008179
bond,0.015634
broadli,0.004580
broken,0.004562
brown,0.013930
budget,0.004283
build,0.005791
calcium,0.018070
carbohydr,0.019374
carbon,0.004466
carl,0.004575
carrageenan,0.022531
case,0.004583
casparian,0.010646
catalyt,0.007034
catalyz,0.006610
caus,0.002446
cell,0.638554
cellulas,0.009908
cellulos,0.141773
cellulosehemicellulos,0.011559
cellwal,0.011559
centuri,0.004706
cereal,0.006757
certain,0.002508
chain,0.012283
chang,0.004132
channel,0.004524
characterist,0.006318
charg,0.007073
chemic,0.003489
chitin,0.065236
chitosan,0.033797
choanoflagel,0.011265
ciliat,0.008949
class,0.003039
classif,0.004044
classifi,0.007415
clearli,0.004121
close,0.002452
coccolith,0.011265
coccolithophorid,0.009254
codium,0.011939
coin,0.003795
collagen,0.007645
common,0.008865
commun,0.002396
complex,0.008046
compon,0.015784
compos,0.027821
composit,0.026600
compound,0.016522
concentr,0.007174
condit,0.007694
conduct,0.003141
conjunct,0.005122
connect,0.009054
consequ,0.003117
consider,0.003080
consist,0.012267
constitu,0.004292
construct,0.002838
contain,0.044706
content,0.003617
contrast,0.003096
controversi,0.003612
corallinal,0.011939
cork,0.015652
corner,0.005914
coval,0.006507
cover,0.006036
creat,0.002242
creation,0.003336
cross,0.004000
crosslink,0.056410
crystal,0.005142
current,0.004693
cut,0.003891
cuticl,0.008819
cutin,0.040907
cycl,0.003757
cytokinesi,0.008819
cytoplasm,0.006657
damag,0.007912
damino,0.020013
dasycladal,0.011265
dasycladu,0.011939
dead,0.009191
decad,0.003332
defin,0.010062
definit,0.002898
depend,0.004837
deposit,0.008679
desulfurococcu,0.011939
develop,0.001833
development,0.005160
diatom,0.035119
dictyostelid,0.011939
differ,0.015546
diffus,0.005008
digest,0.005600
dinoflagel,0.008701
distinct,0.002823
doe,0.002480
drive,0.003938
droop,0.010112
dure,0.006330
ecm,0.009653
eduard,0.006893
embed,0.010265
embryo,0.006115
enabl,0.003500
encas,0.008285
endodermi,0.010352
endosperm,0.010006
energi,0.006179
enter,0.003226
entir,0.002862
entri,0.004268
envelop,0.006431
environ,0.002925
enzym,0.021461
epidermi,0.016740
ernst,0.005350
especi,0.002562
essenti,0.006135
esteras,0.011025
estim,0.003105
eukaryot,0.024316
evid,0.003009
evolut,0.007166
evolv,0.003622
exampl,0.001976
exclus,0.003770
excrus,0.011939
exert,0.005064
exist,0.002194
exopolysaccharid,0.011265
expansin,0.011559
explain,0.002971
explan,0.003884
extend,0.002911
extens,0.002980
extern,0.006902
extracellular,0.021135
extract,0.004248
extrud,0.017328
factor,0.002798
far,0.002992
featur,0.002984
feed,0.005066
filter,0.005500
firmicut,0.010006
fix,0.003502
flexibl,0.024430
fluid,0.004652
follow,0.001887
foraminiferan,0.009653
forc,0.002365
forgotten,0.006231
form,0.023450
format,0.006437
formerli,0.004420
fraction,0.009238
freeli,0.005132
fruit,0.004676
frustul,0.033797
fulli,0.007115
function,0.012081
fundament,0.003022
fungal,0.021200
fungi,0.074267
funoran,0.011939
furcelleran,0.011939
gain,0.002871
gc,0.015853
gelatin,0.008258
gener,0.001695
genera,0.013944
germin,0.007486
glucan,0.077179
glucos,0.013206
glucosamin,0.010006
glucuronarabinoxylan,0.011939
glue,0.007947
glycan,0.010352
glycinerich,0.011939
glycoprotein,0.049388
glycosid,0.008861
glycosyl,0.017898
golden,0.004781
govern,0.002244
gram,0.006595
gramneg,0.046273
gramposit,0.057039
grass,0.017840
green,0.008117
gritti,0.009374
group,0.021287
grow,0.015130
grown,0.004544
growth,0.014935
grp,0.009908
ha,0.007868
haemophilu,0.009506
halimeda,0.011939
halobacterium,0.032467
halococcu,0.023878
health,0.003290
held,0.005580
helicoid,0.010646
help,0.002583
hemicellulos,0.067044
hemicellulosepectin,0.011939
herbivor,0.006992
heterokont,0.010646
hexamer,0.010822
high,0.009558
higher,0.002805
highli,0.003106
histori,0.001965
hold,0.005685
hook,0.006346
howev,0.005745
howland,0.010226
hrgp,0.011939
hsio,0.011939
hugo,0.006008
human,0.002273
hydraul,0.006595
hydrogen,0.004888
hydrolas,0.009374
hydroxyprolin,0.020704
hydroxyprolinerich,0.011939
hyp,0.011559
hyperthermophil,0.010112
idea,0.002648
import,0.002012
impregn,0.008082
improv,0.002904
includ,0.011467
inclus,0.004861
increas,0.002269
independ,0.004847
industri,0.002693
ineffect,0.005970
inflat,0.013333
influenza,0.007486
innermost,0.008105
inorgan,0.005517
insid,0.011874
instanc,0.003196
instead,0.002764
interact,0.002944
interconnect,0.005705
interfac,0.005137
interior,0.004631
intern,0.004136
intracellularli,0.010226
intussuscept,0.020982
investig,0.003306
involv,0.002287
ion,0.010235
jhf,0.010491
john,0.002684
juliu,0.006004
karl,0.004438
kda,0.009506
kill,0.007791
kind,0.003143
kingdom,0.003139
known,0.015774
laboratori,0.004004
lack,0.006017
laid,0.004453
lamella,0.042585
lamin,0.008341
lamino,0.011265
land,0.005972
larg,0.008317
layer,0.086292
leaf,0.006397
leav,0.003341
led,0.002546
lform,0.010822
lignin,0.033971
like,0.008429
limit,0.002409
lineag,0.005839
link,0.008577
linkag,0.006220
linkednacetylglucosamin,0.011939
lipid,0.006214
lipopolysaccharid,0.010112
lipoprotein,0.008778
live,0.005102
longemploy,0.011939
lorica,0.011025
low,0.003023
lyse,0.009506
lysi,0.017898
lysozym,0.009374
m,0.002821
magnesium,0.006748
main,0.002497
mainli,0.006550
major,0.008372
make,0.004012
mani,0.010699
mannan,0.020704
mannoprotein,0.011939
mannos,0.009818
marin,0.004516
matrix,0.034665
maximum,0.004289
mean,0.002172
mechan,0.014566
member,0.002517
membran,0.050279
metabol,0.005228
metazoan,0.008664
methanobacterium,0.011939
methanogen,0.026713
methanomicrobium,0.011939
methanosarcina,0.010822
methanothermu,0.011939
microfibril,0.074525
microscop,0.005093
middl,0.016263
miner,0.004367
mnch,0.011939
mode,0.004441
model,0.012287
modifi,0.007698
mohl,0.010491
mold,0.026961
molecul,0.017039
molecular,0.004123
morphogenesi,0.007769
movement,0.005440
mucilag,0.011025
multicellular,0.013000
murein,0.011025
mycoplasma,0.008904
myxogastria,0.011939
nacetylmuram,0.011559
nacetyltalosaminuron,0.011939
nasturtium,0.011025
necessari,0.003143
need,0.002371
neg,0.003420
network,0.003298
neutral,0.004318
ngeli,0.010646
nonliv,0.006649
nourish,0.007241
number,0.003947
numer,0.002922
observ,0.002603
occur,0.005012
offer,0.002933
older,0.004139
onli,0.007263
oomycet,0.038612
order,0.002174
organ,0.010759
orient,0.004110
origin,0.002186
orthosilic,0.011939
osmot,0.023363
outer,0.015121
outermost,0.013786
outsid,0.009028
overal,0.010832
overexpans,0.009908
parallel,0.004087
partial,0.003629
particularli,0.002766
pass,0.003064
passiv,0.005436
pathogen,0.012692
pear,0.008205
pectat,0.011939
pectic,0.011939
pectin,0.054559
penetr,0.005270
penicillin,0.007769
peptid,0.019809
peptidoglycan,0.108521
permeabl,0.036143
permit,0.008036
peroxidas,0.009313
ph,0.006249
phenol,0.008105
phlorotannin,0.011939
photosynthet,0.007532
physic,0.002581
pit,0.006249
plant,0.106177
plasma,0.028904
plasmodesmata,0.020704
plate,0.010245
point,0.002288
polyest,0.008593
polylinkednacetylglucosamin,0.011939
polym,0.053356
polymeris,0.008628
polysaccharid,0.088134
porphyra,0.011939
porphyran,0.011939
posit,0.002338
possess,0.031906
possibl,0.004614
potenti,0.002928
precis,0.003726
prefer,0.003464
presenc,0.003420
present,0.006785
press,0.002662
pressur,0.017026
prevent,0.009702
previous,0.003448
primari,0.038820
primarili,0.003092
process,0.004277
produc,0.016476
product,0.002357
prokaryot,0.020170
prolinerich,0.011939
pronas,0.011559
properti,0.008217
propos,0.002791
protect,0.015075
protein,0.073531
protist,0.007204
protoplast,0.020453
prove,0.003491
provid,0.006021
prp,0.009506
pseudomona,0.009043
pseudomurein,0.011939
pseudopeptidoglycan,0.046239
purpos,0.002942
quantiti,0.003684
quinc,0.010822
radiolarian,0.009653
rang,0.002715
rare,0.003722
rate,0.002803
reach,0.002915
reaction,0.003678
readili,0.004909
recent,0.002484
reclassif,0.010006
red,0.011930
reduc,0.002717
refer,0.001434
region,0.002569
reinforc,0.004886
rel,0.007717
relat,0.005803
repetit,0.005852
replac,0.008771
reproduct,0.009747
requir,0.002258
resembl,0.004525
resist,0.007435
resorb,0.010646
resourc,0.002904
respect,0.005456
result,0.007993
retain,0.003772
rich,0.008228
rigid,0.069402
robert,0.003154
root,0.003624
rosett,0.010006
rudolphi,0.011025
s,0.002034
salin,0.006922
salt,0.004915
saprolegnia,0.011939
saprotroph,0.009818
save,0.004074
scientif,0.002887
sclereid,0.011265
seawe,0.008312
second,0.004709
secondari,0.053111
secret,0.004426
seed,0.010181
seen,0.002815
sensit,0.004621
separ,0.002621
sequenc,0.003983
serv,0.005711
sever,0.008326
shape,0.006839
share,0.005591
sheath,0.007806
shelllik,0.010352
short,0.003059
shown,0.003459
signific,0.002548
significantli,0.003682
silic,0.007192
silica,0.030649
silicoflagel,0.010226
similar,0.004768
simpl,0.003172
simpli,0.003258
situat,0.003074
size,0.006218
skeleton,0.012210
slayer,0.027434
slightli,0.004327
slime,0.016410
small,0.004886
sodium,0.006079
sole,0.004053
solut,0.006832
sometim,0.002599
space,0.003078
speak,0.003828
speci,0.011016
special,0.002497
specif,0.002389
sporangium,0.010226
spore,0.014583
sporopollenin,0.010112
stabil,0.003723
stabl,0.003929
stage,0.003486
stain,0.006580
stalk,0.023537
standard,0.002689
stem,0.004488
stiff,0.013514
storag,0.004751
strain,0.004963
strasburg,0.009374
strata,0.006932
stratifi,0.007145
strength,0.020248
strengthen,0.013548
stress,0.004094
strip,0.005239
strong,0.002901
structur,0.034993
suberin,0.043289
subject,0.002540
subunit,0.006706
suffici,0.003691
sugar,0.014596
suggest,0.002795
sulfat,0.007145
sulfon,0.009313
superfici,0.006296
suppli,0.003255
support,0.002374
surfac,0.003615
surfacelay,0.011559
surround,0.010969
surviv,0.003443
suscept,0.005756
symplast,0.011559
synthas,0.016410
synthes,0.015566
synthesi,0.004457
taxonomi,0.005744
teichoic,0.011025
tensil,0.025478
term,0.009433
terrestri,0.005436
test,0.006528
testat,0.010491
tether,0.016516
th,0.002289
theca,0.011265
theori,0.007021
thi,0.011947
thicker,0.007611
think,0.003462
thought,0.002829
thrive,0.005527
thu,0.007002
time,0.001766
tissu,0.009650
togeth,0.008260
tough,0.006649
toxic,0.005520
transfer,0.003416
transglycosylas,0.011939
transport,0.003423
tree,0.004113
trim,0.008082
true,0.009698
truli,0.005003
turgor,0.009653
turgordriven,0.011939
type,0.036009
typic,0.002678
ultrastructur,0.009254
unbranch,0.009198
unicellular,0.007413
uniqu,0.003404
unit,0.002013
unlik,0.009975
unstabl,0.005326
unusu,0.014523
uptak,0.007317
use,0.004894
usual,0.002402
valv,0.006828
vancomycin,0.010352
vari,0.011774
varieti,0.002998
variou,0.002273
vascular,0.006580
veri,0.004560
vessel,0.004861
volvocal,0.011939
von,0.004049
wa,0.009823
wall,0.600363
water,0.027720
waterproof,0.017328
wax,0.006783
way,0.002134
weaken,0.005001
weaker,0.005685
wherea,0.003464
wicker,0.009313
wide,0.005143
wiesner,0.009818
wilt,0.009577
withstand,0.006828
wood,0.009214
xylan,0.023119
xylem,0.017722
xyloglucan,0.021292
zygomycota,0.011559
