abil,0.005550
abnorm,0.010040
absenc,0.007416
acantharean,0.010611
accept,0.002532
access,0.011163
accompani,0.007799
accord,0.002017
acid,0.016256
act,0.004610
actin,0.014366
activ,0.028178
actual,0.002581
ad,0.002574
adaptor,0.009462
add,0.003846
addit,0.004081
aerob,0.006722
affect,0.002635
age,0.005052
aid,0.003026
al,0.003459
alberta,0.006361
aldosteron,0.008987
allow,0.018053
alon,0.003449
alphahel,0.010274
alreadi,0.002938
alter,0.003618
altern,0.002591
alway,0.002712
american,0.004570
amino,0.010442
amphibian,0.017861
ana,0.006576
analog,0.007208
ancestr,0.005273
anchor,0.010977
ancient,0.002922
andor,0.003529
angu,0.007162
ani,0.001777
anim,0.008470
annu,0.007954
anoth,0.005820
antibodi,0.029413
antinuclear,0.008037
antiparallel,0.007876
antoni,0.005983
anucl,0.039198
apoptosi,0.034954
apoptot,0.027269
appear,0.014018
approxim,0.005497
aqueou,0.005939
archaea,0.044242
archaeal,0.008894
architectur,0.003804
area,0.002003
areola,0.009799
aris,0.006581
arrang,0.013154
articl,0.009589
assay,0.006310
assembl,0.053532
assign,0.003623
assist,0.003007
associ,0.025616
attach,0.019094
august,0.003065
autoantibodi,0.010274
autoimmun,0.014053
avail,0.002465
averag,0.003012
b,0.008015
bacteri,0.005269
bacteria,0.032415
ball,0.004981
barrier,0.008208
base,0.003515
basi,0.002512
basic,0.002446
basket,0.006144
bauer,0.006889
becam,0.004446
becaus,0.003661
becom,0.001947
befor,0.010386
begin,0.007114
behaviour,0.003749
believ,0.007546
belong,0.003436
besid,0.004161
bestknown,0.010604
bind,0.046200
binucl,0.010274
biochem,0.005000
biogenesi,0.016351
biol,0.007802
biolog,0.023077
birth,0.003583
block,0.003623
blood,0.019804
bloodstream,0.006889
bodi,0.070779
bone,0.004561
border,0.003582
botanist,0.005777
bound,0.010918
boundari,0.006791
break,0.003352
breakdown,0.005007
broken,0.004055
brown,0.008254
bud,0.006110
build,0.002573
builder,0.005917
c,0.002327
cajal,0.068738
cap,0.029773
cargo,0.048920
carri,0.007878
carrier,0.009784
case,0.012220
caspas,0.018179
caspaseresist,0.010611
categor,0.004140
caus,0.004348
cb,0.045129
cdc,0.006938
cell,0.399389
cellnucleuscom,0.010611
cellula,0.018925
cellular,0.031551
center,0.007794
central,0.002283
centromer,0.015677
centrosom,0.031504
centuri,0.002091
certain,0.013377
cfim,0.010611
chang,0.014692
channel,0.008042
character,0.003089
characterist,0.002807
chloroplast,0.006458
chromatid,0.024246
chromatin,0.054605
chromosom,0.105880
chronocyt,0.010274
ciliat,0.007954
clear,0.006064
cleav,0.013361
cleavag,0.020167
clip,0.006110
close,0.010898
cluster,0.008939
code,0.006304
cohes,0.005285
coil,0.031453
coilin,0.042446
collect,0.004752
come,0.002330
commentari,0.004696
common,0.001969
compact,0.014419
compart,0.025444
compartment,0.030550
compet,0.003359
complet,0.011250
complex,0.019072
compon,0.039281
compos,0.006181
composit,0.013510
concentr,0.003188
concert,0.010986
condens,0.004714
condit,0.006839
confirm,0.003512
connect,0.002682
consequ,0.005540
consist,0.013084
constel,0.006135
constitut,0.002572
contact,0.003418
contain,0.056097
content,0.012859
continu,0.007896
contradict,0.008704
control,0.019482
controversi,0.003210
cortisol,0.008037
cotranscript,0.010013
cover,0.002682
creat,0.001992
crescent,0.006077
cross,0.003556
cycl,0.026720
cytoblast,0.031834
cytoplasm,0.136106
cytoskelet,0.008277
cytoskeleton,0.014727
cytosol,0.020972
d,0.005275
dalton,0.005868
databas,0.003811
date,0.005446
daughter,0.026830
deacetylas,0.008894
death,0.005707
decis,0.002747
defect,0.004809
defici,0.005167
defin,0.004472
degrad,0.023370
delet,0.005835
demonstr,0.005857
dens,0.023189
depart,0.002856
depend,0.015048
dephosphoryl,0.008449
deriv,0.007432
describ,0.008021
destroy,0.006814
destruct,0.003856
detect,0.003578
dev,0.015155
develop,0.013035
dfc,0.019599
diamet,0.015970
diatom,0.012485
did,0.002418
differ,0.012090
differenti,0.003299
diffus,0.013353
digit,0.003638
dimer,0.013682
dinoflagel,0.023201
diphosph,0.008082
directli,0.007853
dirk,0.007204
disappear,0.004142
disassembl,0.049718
discov,0.008607
discret,0.011528
discuss,0.002658
diseas,0.013652
diseaserel,0.009462
disintegr,0.005327
dismantl,0.005710
disord,0.004200
dispens,0.005669
disrupt,0.004198
dissoci,0.006013
distinct,0.002509
distinguish,0.002892
distribut,0.005376
divid,0.007750
divis,0.016943
dk,0.007064
dna,0.100920
dnaprotein,0.009201
document,0.003145
doe,0.006613
doiannurevcellbio,0.010611
doigad,0.010611
doiscienc,0.014017
domain,0.031821
doubl,0.003607
doublestrand,0.006990
downregul,0.007668
draw,0.003340
dri,0.004267
drosophila,0.006403
dure,0.031884
dynam,0.015273
dysfunct,0.005828
e,0.005280
earli,0.011771
earn,0.003686
earnshaw,0.016899
ed,0.002746
eduard,0.006126
egg,0.004745
eightfoldsymmetr,0.010611
elabor,0.004081
electron,0.016412
element,0.002494
embryo,0.005435
embryon,0.005990
emerin,0.010611
enclos,0.021311
encod,0.019107
end,0.004289
endoplasm,0.007083
endosymbiot,0.014244
energi,0.005492
enrich,0.005134
enter,0.020073
entir,0.002544
entri,0.003794
envelop,0.131467
enzym,0.014306
epigenet,0.006310
equival,0.003159
ernst,0.004755
erythematosu,0.017301
erythroblast,0.010274
erythrocyt,0.033111
erythropoiesi,0.009324
et,0.003371
euchromat,0.009462
euchromatin,0.009089
eukarya,0.015990
eukaryogenesi,0.020026
eukaryot,0.086450
eukaryotelik,0.010611
event,0.005105
eventu,0.005576
evergrow,0.007700
evid,0.005349
evolut,0.009554
evolutionari,0.007729
evolv,0.016099
exact,0.003742
examin,0.003070
exampl,0.008783
excis,0.006252
exclud,0.003690
exist,0.011703
exit,0.030872
exomembran,0.010611
exon,0.023006
expel,0.004729
explain,0.013203
export,0.021590
exportin,0.060079
express,0.027957
expressionth,0.010013
extend,0.002587
extens,0.002648
exterior,0.005796
extern,0.001533
extranuclear,0.010611
face,0.011776
facilit,0.010609
fact,0.002490
factor,0.024871
facult,0.007162
famili,0.005432
familiar,0.004150
faulti,0.006300
fc,0.019767
fcdfc,0.010611
featur,0.007958
ferri,0.005975
fertil,0.008223
fibril,0.016164
fibrillar,0.020026
filament,0.048880
flaw,0.005000
flower,0.009526
fluoresc,0.005715
fluorescencemicroscop,0.010611
foci,0.007548
focus,0.002730
form,0.038479
format,0.002860
fox,0.005403
fraction,0.004105
franz,0.011077
free,0.002395
freeli,0.009123
frequent,0.002948
fructosephosph,0.010013
fulli,0.003162
function,0.045098
fungi,0.010155
fuse,0.010327
fusion,0.004889
g,0.005675
gall,0.006841
galleri,0.005394
gap,0.004083
gc,0.014090
gdp,0.003944
gem,0.052514
gemini,0.024527
gene,0.109889
geneexpress,0.010013
gener,0.015072
genet,0.024939
genom,0.004763
genu,0.005298
germ,0.005657
giant,0.004586
giardia,0.008726
glucos,0.011737
glucosephosph,0.017301
glycolysi,0.021810
goldman,0.006196
granul,0.014540
granular,0.007292
grlich,0.010611
group,0.003784
grow,0.002689
gruenbaum,0.010274
gtp,0.008389
gtpase,0.018649
guanosin,0.017788
ha,0.008391
haeckel,0.006576
hela,0.007838
helicas,0.008650
help,0.002296
henc,0.003272
hered,0.017972
herpesviru,0.009324
hertwig,0.017159
heterochromatin,0.033798
heterogen,0.005273
hexokinas,0.018649
hi,0.001880
high,0.002123
higher,0.002493
histon,0.042052
histori,0.001747
hnrnp,0.010611
hormon,0.005435
howev,0.008511
httpnpdhgumrcacukuserpagecompart,0.010611
human,0.010104
hundr,0.003186
hydrolyz,0.007700
hypothes,0.012512
hypothesi,0.007307
idea,0.002354
igc,0.018925
igg,0.008332
ii,0.005490
illdefin,0.007026
illustr,0.003577
imag,0.009689
immatur,0.006922
immedi,0.003083
immun,0.004591
immunoglobulin,0.007767
imperm,0.007465
implic,0.003654
import,0.008944
importin,0.078397
inactiv,0.007045
inappropri,0.011057
incap,0.005652
includ,0.017473
incomplet,0.009141
incorpor,0.005760
increas,0.002017
increasingli,0.003092
indic,0.002580
indistinguish,0.005931
individu,0.004327
induc,0.016614
infect,0.009521
inflamm,0.006481
inflammatori,0.006736
inform,0.006255
infrequ,0.006330
inhibit,0.010327
initi,0.006837
inner,0.016866
innermost,0.007204
insid,0.021107
instead,0.009827
intact,0.010752
integr,0.005062
interact,0.005234
intercellular,0.007668
interchromatin,0.042446
interior,0.012348
intermedi,0.008244
intermingl,0.007492
intern,0.003676
interphas,0.038504
intestin,0.006045
intracellular,0.006310
intranuclear,0.017614
introduc,0.002460
intron,0.021948
invad,0.004195
involv,0.016267
ion,0.004548
irregular,0.009814
irregularli,0.007008
isbn,0.002479
isol,0.003405
j,0.002634
join,0.003119
joseph,0.003456
karyolymph,0.010611
karyopherin,0.042446
karyosom,0.021223
karyotyp,0.008037
kernel,0.006110
key,0.008007
kinas,0.021080
known,0.035050
kremer,0.008389
kutay,0.010611
laboratori,0.003558
lack,0.005348
lamin,0.126034
lamina,0.076376
laminopathi,0.021223
lamond,0.009619
landmark,0.004937
larg,0.014785
larger,0.008304
largest,0.005792
later,0.010427
latin,0.003296
layer,0.004036
lead,0.004184
leeuwenhoek,0.006990
lem,0.007995
length,0.003479
leukaemia,0.017975
leukemia,0.006856
level,0.008387
librari,0.006589
lifetim,0.004490
ligand,0.012448
like,0.007492
likewis,0.004153
limit,0.002141
line,0.002509
lineag,0.005190
linear,0.011193
link,0.003049
linnean,0.007668
lipidsolubl,0.009324
liquid,0.003758
littl,0.002683
live,0.004534
local,0.004750
localis,0.006736
locat,0.030939
london,0.002952
long,0.002276
lose,0.003688
low,0.002687
lumen,0.014585
lung,0.005483
lupu,0.015040
m,0.010031
machineri,0.004324
macromolecul,0.011996
macrophag,0.007413
main,0.008879
mainli,0.002911
maintain,0.002445
mainten,0.004206
major,0.009301
make,0.003566
malform,0.007270
mammalian,0.039970
mani,0.012679
manifest,0.004033
manner,0.003384
mark,0.002815
marrow,0.006736
mass,0.002875
materi,0.012285
matern,0.005602
matrix,0.008803
matthia,0.006504
matur,0.024481
maxim,0.003987
mbinfo,0.009201
mcintosh,0.008512
mean,0.003862
measur,0.004593
mechan,0.015536
mediat,0.025773
melanogast,0.006856
membran,0.119170
membranebound,0.014366
membraneenclos,0.009201
mendelian,0.006516
meshwork,0.009324
messeng,0.011119
metabol,0.004647
meter,0.004719
methanogen,0.007914
meyen,0.010013
mice,0.005704
micrograph,0.008807
micrometr,0.007270
micronucl,0.010611
microscop,0.022633
microscopi,0.022073
microscopist,0.007954
microtubul,0.022645
migrat,0.007493
million,0.002754
misexpress,0.009201
misincorpor,0.010013
mitochondria,0.025403
mitosi,0.058859
mitot,0.007339
mixtur,0.004384
model,0.015289
modern,0.008412
modif,0.029174
modifi,0.003421
moir,0.010013
molecul,0.094655
molecular,0.003665
mollusc,0.006414
monerula,0.010611
monocyt,0.008650
monom,0.013361
mostli,0.002991
motil,0.006552
motor,0.004522
movement,0.009671
mrna,0.090574
mucu,0.007465
multicellular,0.005777
multinucl,0.063627
multipl,0.016181
multipli,0.004520
muscl,0.004862
mutagen,0.007637
mutant,0.012806
mutat,0.009737
mycorrhiza,0.008512
myocyt,0.008650
myofibril,0.008987
myopathi,0.009324
myxobacteria,0.018179
nanometr,0.007914
natur,0.001871
nd,0.003262
near,0.002883
necess,0.004393
necessari,0.005588
need,0.006323
neg,0.006081
nemalin,0.010274
nesprin,0.010274
network,0.011725
neuroanatomi,0.007292
neuron,0.005123
new,0.006265
newli,0.007378
nfb,0.017975
nfbcontrol,0.010611
nm,0.017076
nonfunct,0.007465
nonmembranedelin,0.010611
normal,0.008384
notabl,0.002690
novo,0.006640
nuclear,0.272298
nucleat,0.014451
nuclei,0.090783
nucleic,0.005758
nucleolar,0.048095
nucleolu,0.109062
nucleoplasm,0.071152
nucleoporin,0.010274
nucleosom,0.008037
nucleu,0.478444
nucleuscontain,0.010611
nuculeu,0.010611
number,0.015787
observ,0.023142
obviou,0.004429
occupi,0.003515
occur,0.022277
oldest,0.003793
omni,0.007876
oncogen,0.007668
oncolog,0.006447
onli,0.009684
onlin,0.003068
oocyt,0.015990
opaqu,0.006381
open,0.004801
oppon,0.004355
opposit,0.005770
orchid,0.007102
order,0.007729
organ,0.026776
organel,0.055066
origin,0.017488
oscar,0.006110
otherwis,0.006670
outer,0.017920
outsid,0.008024
oxygen,0.004269
paper,0.005786
para,0.006552
paradigm,0.004248
parallel,0.007266
parasit,0.005190
paraspeckl,0.074281
particip,0.002766
particl,0.003769
particular,0.006584
pass,0.002724
passag,0.008354
patch,0.005728
patern,0.006280
patholog,0.004984
pathway,0.023545
pattern,0.002991
pave,0.004959
peerreview,0.005607
pennisi,0.010611
perichromatin,0.021223
perinuclear,0.009462
perinucleolar,0.021223
period,0.002083
peripheri,0.005882
phagocytos,0.008987
phagocytosi,0.007548
phenomenon,0.003611
phenotyp,0.005403
philadelphia,0.005332
phosphoryl,0.013713
phylogeni,0.006300
physic,0.002294
pika,0.009799
pl,0.006414
planctomycet,0.009462
plant,0.006088
plastid,0.007577
play,0.007594
pmid,0.021612
pml,0.099986
pnrb,0.010611
point,0.002033
pol,0.014679
pole,0.009714
pollard,0.007914
polyadenin,0.009799
polyadenyl,0.018649
polymeras,0.018406
polymorph,0.012058
pore,0.114686
posit,0.010390
possess,0.006301
possibl,0.002050
posttranscript,0.035228
postul,0.004326
potenti,0.002603
poxvirus,0.020026
precursor,0.008760
predat,0.004463
prematur,0.005721
premesseng,0.010274
premrna,0.062258
prerrna,0.010013
presenc,0.012162
present,0.004020
preserv,0.003388
prevent,0.014372
primari,0.005308
primarili,0.002748
primit,0.004449
primordi,0.005652
principl,0.002413
process,0.045619
produc,0.018828
product,0.004191
progeria,0.020549
program,0.002529
prokaryot,0.011951
prometaphas,0.008807
promot,0.008604
promyelocyt,0.028388
propag,0.004480
prophas,0.016256
propos,0.022326
proteas,0.007548
protein,0.240998
proteincod,0.007914
protist,0.006403
protoeukaryot,0.018402
protofila,0.019238
protozoa,0.006722
provid,0.014271
proxim,0.004647
psf,0.009324
psp,0.016778
ptf,0.019238
publish,0.004463
pull,0.004614
punctat,0.009619
qualitycontrol,0.009201
question,0.002524
quit,0.003398
rafa,0.017614
ran,0.004501
rangtp,0.042446
rare,0.003308
rate,0.002491
rd,0.003600
rdna,0.045448
reach,0.005183
read,0.002214
reassembl,0.014451
recent,0.002208
receptor,0.016292
recruit,0.009403
red,0.017672
rediscov,0.005554
reduc,0.002415
refer,0.005100
reform,0.006238
region,0.015984
regul,0.039245
regular,0.003493
regulatori,0.008826
relat,0.008596
relationship,0.007302
releas,0.006373
remain,0.012653
remak,0.007102
remov,0.014721
repeat,0.007361
replic,0.031507
report,0.002450
repress,0.004809
repressor,0.007700
requir,0.014052
rer,0.017452
research,0.002068
resembl,0.004022
residu,0.004922
respons,0.011058
rest,0.002987
restrict,0.002955
result,0.015986
reticulocyt,0.010274
reticulum,0.006990
reus,0.005848
rev,0.005698
review,0.011429
ribonucleoprotein,0.019599
ribosom,0.112540
richard,0.003150
ring,0.004318
ringshap,0.008579
rise,0.002566
rna,0.131326
rnaprotein,0.010013
robert,0.008411
rod,0.011026
role,0.017870
ropelik,0.010013
rough,0.005057
roughli,0.007154
rrna,0.037197
rudolf,0.005241
rule,0.002327
s,0.005425
salmon,0.006447
saunder,0.006196
scatter,0.004709
schleiden,0.007607
scienc,0.004289
sclerosi,0.007225
scottish,0.004895
sea,0.003253
second,0.004185
section,0.006319
seed,0.004524
seen,0.012510
segreg,0.011161
select,0.002772
semin,0.004877
separ,0.018637
sequenc,0.007080
seri,0.002540
serv,0.010153
set,0.003950
sever,0.005550
sex,0.004415
sf,0.006614
shape,0.012157
short,0.005437
shown,0.003075
shumak,0.010274
siev,0.007142
signal,0.029353
signific,0.002265
silenc,0.005686
similar,0.025430
similarli,0.003362
sinc,0.001774
singl,0.011875
sister,0.009796
site,0.017936
size,0.008291
skelet,0.006215
small,0.023888
smn,0.028857
snorna,0.018649
snrna,0.020026
snrnp,0.042446
snurposom,0.031834
socal,0.007161
societi,0.006670
sole,0.003602
sometim,0.006930
space,0.010944
spann,0.010611
speci,0.009791
special,0.004439
specif,0.004246
speck,0.008175
speckl,0.088072
specul,0.003692
sperm,0.011710
spheric,0.010365
spindl,0.014205
splice,0.103581
spliceosom,0.008726
sporozoan,0.010274
stage,0.009297
stain,0.005848
state,0.001552
step,0.012037
steroid,0.006680
stimul,0.003971
storag,0.004223
strand,0.005060
strasburg,0.008332
strong,0.002578
structur,0.080867
structureless,0.009799
stud,0.008082
studi,0.009377
sub,0.006261
subdomain,0.007668
subject,0.002257
subnuclear,0.054538
suborganel,0.010274
subunit,0.029805
suffer,0.003239
suggest,0.019876
sumoyl,0.009799
supercoil,0.009201
superstructur,0.007162
support,0.021100
surround,0.009750
surviv,0.003060
suspect,0.004742
symbiosi,0.006516
symbiot,0.012305
symptom,0.005050
syncytium,0.008894
synthes,0.023060
synthesi,0.003962
syntroph,0.010013
systemat,0.003390
tail,0.005138
talk,0.003818
tandem,0.006414
tangl,0.007225
target,0.003304
telomer,0.007700
telophas,0.016899
templat,0.005848
tend,0.002914
territori,0.006212
tetram,0.008894
textbook,0.004000
th,0.002034
themselv,0.002632
theori,0.010401
therefor,0.014473
thi,0.034513
thoma,0.003174
thought,0.005030
thread,0.005663
thu,0.006223
tight,0.005416
tightli,0.005559
time,0.004710
tissu,0.008577
tnf,0.009324
topoisomeras,0.009089
total,0.004952
tp,0.007492
traffick,0.005896
transcrib,0.023873
transcript,0.151990
transform,0.002905
transient,0.005752
translat,0.030552
transloc,0.013778
transport,0.051721
triphosph,0.006973
trna,0.007316
tube,0.004904
tumor,0.005698
turn,0.004907
twin,0.010442
twist,0.005822
type,0.014935
typic,0.007142
u,0.004140
ultrastructur,0.008225
unabl,0.003688
unclear,0.009323
undergo,0.012344
understand,0.002408
understood,0.003330
unicellular,0.006589
uniform,0.008229
uniqu,0.003026
univers,0.005514
unlik,0.008866
unprocess,0.007733
unresolv,0.006029
unsplic,0.010611
unwind,0.014931
urchin,0.006922
urschleim,0.010611
use,0.010150
usual,0.006407
van,0.003882
vari,0.002616
variant,0.004299
varieti,0.015988
variou,0.004040
veil,0.019512
version,0.003104
vertebr,0.010546
vessel,0.004320
video,0.011718
view,0.002274
viral,0.017466
virchow,0.007465
virtual,0.003509
viru,0.005407
virus,0.021226
viscou,0.006780
visibl,0.007845
volum,0.003039
wa,0.014551
watersolubl,0.007465
way,0.005692
wc,0.007492
websit,0.003355
weight,0.007154
weismann,0.007838
welldefin,0.005289
wherea,0.006159
wide,0.002285
widespread,0.003409
william,0.002843
wind,0.004216
work,0.001739
y,0.003779
yeast,0.011863
