abandon,0.003386
abbey,0.011669
abil,0.002494
abli,0.007650
abolitionist,0.006251
aborigin,0.005439
abov,0.002320
abstract,0.009569
absurd,0.010417
abus,0.003899
accept,0.011379
access,0.002508
accompani,0.003504
account,0.002134
achiev,0.002280
acquir,0.002952
act,0.004143
action,0.008909
actual,0.002319
ad,0.009253
adam,0.003678
adapt,0.025978
address,0.002729
adjoin,0.005866
admir,0.004295
adopt,0.002501
advanc,0.002238
advantag,0.005627
advic,0.003945
advis,0.003664
afraid,0.005735
afterlif,0.005544
age,0.004540
agnost,0.005744
agre,0.013665
aid,0.005438
aim,0.005176
alexand,0.003473
alfr,0.011143
allen,0.004185
alli,0.010044
alloc,0.003617
alreadi,0.007922
alta,0.006980
alter,0.003251
altern,0.002329
alway,0.002437
amateur,0.004950
amateurish,0.008379
amazon,0.005186
america,0.010161
american,0.008215
amus,0.005932
analog,0.003239
analysi,0.002185
anarchist,0.005337
anathema,0.007263
anatom,0.009670
anatomi,0.008514
anatomist,0.005735
ancestor,0.003896
ancestri,0.009955
anger,0.004731
angin,0.008503
angina,0.007487
anglican,0.043346
ani,0.004792
anim,0.045670
anni,0.012213
anniversari,0.009614
annot,0.004963
announc,0.009132
annoy,0.006235
annual,0.002784
anonym,0.004799
anoth,0.008717
answer,0.003227
anthropolog,0.004109
anticip,0.004031
antiqu,0.003751
antlion,0.008806
antoinett,0.007347
ape,0.033866
appeal,0.003375
appendix,0.005601
appli,0.003875
apprais,0.005439
appreci,0.004022
apprentic,0.005921
approach,0.002086
april,0.011092
archiv,0.010009
ardent,0.006106
area,0.003600
argu,0.012057
argument,0.012182
aristocrat,0.005000
armadillo,0.007263
armadillolik,0.008806
armour,0.016361
arous,0.005343
arrang,0.011820
art,0.002773
articl,0.002154
artifici,0.006122
asa,0.011798
asexu,0.005834
ashor,0.006016
ask,0.008989
assent,0.005707
assert,0.003114
assist,0.005405
associ,0.007083
astonish,0.005888
astronom,0.004081
atheist,0.009891
atol,0.023296
attach,0.003431
attack,0.011690
attempt,0.006203
attend,0.024211
attent,0.014779
attitud,0.007442
attract,0.005833
attribut,0.005635
audac,0.007710
audiobook,0.005661
august,0.005509
aunt,0.006235
australia,0.012603
author,0.010204
autobiographi,0.005475
avail,0.004431
avoid,0.005415
award,0.006391
away,0.005522
b,0.002401
babbag,0.006079
babi,0.009477
bachelor,0.004720
background,0.003113
backlog,0.007304
baden,0.007044
badli,0.004927
baha,0.007044
band,0.003941
bank,0.002621
banknot,0.005513
baptis,0.006863
baptism,0.005944
barmouth,0.008806
barnacl,0.030600
base,0.003158
basi,0.002257
basic,0.004397
bate,0.006028
beach,0.014205
beagl,0.108290
bear,0.003392
beard,0.005845
beauti,0.012459
becam,0.021977
becaus,0.001645
becom,0.015747
beetl,0.011648
befor,0.005600
began,0.019643
begin,0.002131
begun,0.003475
behaviour,0.006739
belief,0.011703
benefit,0.007957
benevol,0.010864
besid,0.003739
best,0.007227
bestsel,0.005390
better,0.004929
bibl,0.013149
bibliographi,0.003178
bicentenari,0.007710
big,0.013238
biodivers,0.004529
biographi,0.008432
biolog,0.005184
biologist,0.016358
bird,0.007462
birth,0.003220
birthday,0.005363
bishop,0.004473
black,0.008849
blackbird,0.007185
blackwel,0.004569
blanca,0.007223
board,0.015766
boarder,0.007593
boat,0.004357
bodi,0.002193
bodili,0.004776
boil,0.004889
bold,0.005370
bone,0.008199
boni,0.005967
book,0.066475
booksel,0.006493
bore,0.004906
born,0.003087
borneo,0.005932
botan,0.010674
botani,0.009973
botanist,0.015575
bout,0.012662
boy,0.004307
brain,0.003497
branch,0.006973
brazil,0.003905
break,0.003012
breed,0.030682
brief,0.003464
bring,0.002717
briskli,0.008076
britain,0.012316
britannica,0.004445
british,0.007321
broad,0.005871
brodi,0.006783
broke,0.003748
brother,0.010996
brotherinlaw,0.006235
brought,0.010777
brown,0.003708
build,0.002312
buri,0.004322
burial,0.009936
burn,0.003746
butler,0.005475
button,0.005813
c,0.004183
calm,0.010284
cambridg,0.037690
came,0.007180
campaign,0.003286
canada,0.003135
candid,0.003371
candol,0.006920
capac,0.003034
cape,0.009195
capit,0.007142
captain,0.008835
capybara,0.008076
care,0.008250
career,0.007182
caricatur,0.013026
cartoonist,0.007112
case,0.001830
cast,0.003718
catalogu,0.004991
catastroph,0.008689
caterpillar,0.006662
caught,0.004508
caus,0.009769
caution,0.010305
cautiou,0.005601
cautious,0.006617
celebr,0.015091
centenari,0.006120
centr,0.009030
centuri,0.001879
ceremoni,0.004041
chad,0.005644
challeng,0.005230
chanc,0.003524
chang,0.013203
channel,0.003613
chapel,0.005618
chapter,0.003411
charact,0.003025
characterist,0.002523
charl,0.056075
charley,0.007842
charm,0.006266
chart,0.008340
chief,0.003048
childlik,0.007112
children,0.030107
chile,0.009470
chisholm,0.005967
chose,0.004117
christ,0.014013
christian,0.005674
christma,0.005158
chronic,0.004499
church,0.019846
churchyard,0.007438
cinder,0.007438
circl,0.010582
circumst,0.003362
cirripedia,0.008806
citat,0.004359
cite,0.003061
citi,0.002528
civil,0.002511
civilis,0.019984
claim,0.008888
classif,0.003230
classifi,0.002961
classmat,0.006863
clergi,0.004986
clergyman,0.006733
clergymen,0.014608
cleric,0.010597
cliff,0.009803
climat,0.003125
climb,0.004954
close,0.011753
club,0.004245
coast,0.003341
coastlin,0.004553
coco,0.006093
collaps,0.003225
colleagu,0.007914
collect,0.038440
collector,0.005191
colleg,0.019068
coloni,0.006054
colonis,0.004959
colonist,0.005005
column,0.004159
come,0.002093
commemor,0.019607
comment,0.007013
commentari,0.004220
commit,0.003068
common,0.003540
commonli,0.002431
commun,0.001914
companion,0.004222
compar,0.002165
comparison,0.006140
compel,0.004575
compet,0.003018
complet,0.008088
complex,0.002142
compulsori,0.004630
conceiv,0.007688
concept,0.016346
concern,0.002055
conclud,0.002994
conclus,0.003262
condescendingli,0.008806
condit,0.004097
confess,0.005317
confront,0.004044
consensu,0.007304
consequ,0.002489
conservat,0.005529
consid,0.001707
consider,0.007381
constant,0.005821
constitut,0.002311
contemptu,0.007077
continu,0.023063
contradictori,0.005169
contradistinct,0.007263
contrast,0.002473
contribut,0.004298
control,0.001945
controversi,0.008655
convinc,0.007795
cooper,0.002798
copi,0.007059
copiou,0.006617
copley,0.006950
coral,0.014517
cornwal,0.006176
coronari,0.006331
correct,0.011794
correspond,0.007974
cottag,0.006533
council,0.002669
countri,0.005780
cours,0.007655
cousin,0.014445
cover,0.007231
craze,0.007185
creation,0.018656
creator,0.008776
creatur,0.013395
crise,0.004517
crisi,0.003021
critic,0.008615
crop,0.003619
cross,0.009587
cultur,0.008806
cut,0.006217
cycl,0.003001
daili,0.006848
dalton,0.005274
danger,0.006878
darwin,0.762149
darwinismu,0.008644
darwinwallac,0.007992
darwinwedgwood,0.008644
date,0.004894
daughter,0.004018
day,0.017676
dear,0.006400
death,0.010257
debas,0.006266
debat,0.013629
decad,0.002661
decemb,0.010747
decid,0.005707
decis,0.002468
declin,0.005560
decor,0.004753
defend,0.003276
definit,0.002315
degrad,0.004200
degre,0.007193
deiti,0.014055
del,0.004420
delay,0.003739
delight,0.017975
democrat,0.002868
demonstr,0.002631
deni,0.006788
depend,0.001931
deplet,0.004569
derid,0.006574
derogatori,0.006282
descend,0.014175
descent,0.050406
describ,0.010813
descript,0.005353
design,0.008602
despit,0.017379
destroy,0.003061
detest,0.006758
devast,0.004157
develop,0.010250
devot,0.006921
diagnos,0.009485
diari,0.005475
did,0.013041
die,0.019638
differ,0.013970
difficult,0.002553
difficulti,0.003162
digit,0.003269
digitis,0.006836
dignitari,0.006733
directli,0.002352
disappear,0.003722
disappoint,0.005024
discard,0.004897
discours,0.004009
discoveri,0.010969
discredit,0.005094
discuss,0.021502
diseas,0.003067
dismiss,0.015604
disput,0.008835
disreput,0.006836
dissect,0.010822
distinct,0.011275
distinguish,0.005199
distraught,0.007223
distress,0.004859
distribut,0.014495
diverg,0.003957
divers,0.005632
diversif,0.004863
diversifi,0.008868
divert,0.005142
divin,0.003894
doctor,0.010482
doe,0.001981
dog,0.008766
dogeat,0.008806
dogma,0.005005
domain,0.002859
domest,0.006067
domin,0.007228
don,0.004859
dont,0.004091
doubl,0.003241
doubt,0.015115
dr,0.003632
drew,0.012106
droll,0.008503
drwn,0.008806
dublin,0.005425
dull,0.005877
dure,0.015169
duti,0.003484
eager,0.005370
eagerli,0.013324
earli,0.010578
earlier,0.005209
earn,0.003313
earthquak,0.004465
earthworm,0.012629
eat,0.004113
eclips,0.009448
ecolog,0.003321
econom,0.001929
economi,0.004814
economist,0.003309
ed,0.004935
edinburgh,0.009591
edit,0.013795
edmond,0.005793
edmonston,0.017613
educ,0.011228
effect,0.010275
egg,0.012792
eightyearold,0.007650
elect,0.005200
elector,0.003781
elev,0.003933
emancip,0.005044
embryolog,0.005813
emerg,0.002259
emin,0.010030
emma,0.048535
emot,0.010863
emphasis,0.009500
empir,0.002459
enabl,0.002795
encourag,0.014486
encyclopdia,0.004572
end,0.005782
endang,0.004897
engin,0.002540
england,0.018353
english,0.009820
enjoy,0.003356
enquiri,0.010674
ensur,0.002896
enthusiast,0.005024
entir,0.002286
entomolog,0.006147
episod,0.004329
equal,0.002400
equival,0.002839
era,0.002785
erasmu,0.028771
ernst,0.008547
erupt,0.004401
escap,0.003539
essay,0.017080
establish,0.009406
eugen,0.030167
eugenicist,0.007487
europ,0.002390
european,0.004391
event,0.004588
eventu,0.005010
everi,0.008823
everybodi,0.005560
everywher,0.004578
evid,0.026442
evil,0.008575
evolut,0.060104
evolution,0.014526
evolutionari,0.045150
evolutionist,0.006533
evolutionrel,0.008644
evolv,0.002893
exalt,0.005955
exam,0.005054
examin,0.013795
exampl,0.001578
exce,0.004604
exchang,0.002491
excit,0.004297
exclus,0.003011
exist,0.010517
expand,0.009974
expans,0.002974
expect,0.002422
expedit,0.003987
experi,0.008670
experienc,0.003164
experiment,0.002944
expert,0.020891
expertis,0.008599
explain,0.028476
explan,0.012412
explicit,0.003849
explicitli,0.003588
explor,0.002685
express,0.013703
extend,0.002325
extens,0.007141
extent,0.002900
extern,0.001378
extinct,0.032059
face,0.002645
facil,0.003379
fact,0.008952
factor,0.002235
factori,0.003857
fail,0.002650
faith,0.003524
falkland,0.006028
fall,0.002406
falmouth,0.008268
fals,0.010725
fame,0.004640
famili,0.039054
famou,0.005824
fancier,0.008644
farmer,0.007462
fascin,0.005256
father,0.024793
favour,0.020798
fear,0.013230
feasibl,0.004283
featur,0.009535
februari,0.008591
feeblemind,0.007842
feedback,0.004280
feel,0.006590
fell,0.006809
fellow,0.011957
fertilis,0.018572
fever,0.010049
field,0.003850
fifth,0.003754
fiftieth,0.007148
figur,0.002610
final,0.011400
financi,0.002516
finch,0.032183
firmli,0.004607
firth,0.006709
fisher,0.009301
fittest,0.006266
fitzroy,0.057766
fiveyear,0.004292
fix,0.005595
fixtur,0.006553
fl,0.005356
flock,0.005824
flower,0.008561
focus,0.002453
follow,0.004523
food,0.008138
foot,0.004095
forc,0.003778
foresaw,0.006709
forest,0.003625
forestal,0.006120
form,0.011526
format,0.020567
forth,0.003831
fortnight,0.007842
fossil,0.024513
foster,0.008059
foundat,0.002458
fox,0.009711
fr,0.009308
fragment,0.003707
frame,0.007204
framework,0.002700
franci,0.018049
free,0.002153
freed,0.009719
freedom,0.002975
freemarket,0.005552
freethink,0.020127
frg,0.007650
friend,0.048671
friendli,0.004342
fted,0.008503
fuegian,0.015829
fuego,0.006920
fulli,0.005683
function,0.001929
fund,0.005198
funer,0.010316
fz,0.006617
g,0.002550
gain,0.004586
galapago,0.007044
galpago,0.027566
galton,0.017975
gap,0.011008
gaucho,0.007438
gaudi,0.008168
gave,0.008228
genealog,0.005084
gener,0.005417
genera,0.011137
genet,0.012806
gentleman,0.012352
geoffroy,0.007185
geograph,0.012262
geolog,0.075649
geologis,0.008806
geologist,0.015268
geometr,0.007752
georg,0.002716
giant,0.012365
gift,0.008509
gigant,0.006093
given,0.003781
glacier,0.004927
glen,0.006298
gloriou,0.005744
glyptodon,0.008806
god,0.023094
godlik,0.006809
goe,0.006784
goeth,0.005991
good,0.010478
goodhumour,0.008268
got,0.004252
gould,0.011220
gower,0.006836
gradual,0.003030
graduat,0.003532
graham,0.004803
grand,0.003661
grandfath,0.010808
grandson,0.005280
grant,0.020228
gray,0.023513
great,0.008497
greet,0.005544
grew,0.006300
grind,0.005716
grosbeak,0.008806
ground,0.008228
group,0.005101
grow,0.004834
grown,0.003630
growth,0.002385
guanaco,0.007774
guid,0.005330
gulli,0.007223
gutenberg,0.005049
h,0.002618
ha,0.015082
habit,0.003996
haeckel,0.011820
haldan,0.005877
halfcousin,0.008379
hall,0.007152
hand,0.002335
happen,0.002979
harbour,0.004847
harriet,0.006162
haughton,0.007914
head,0.004866
headach,0.006120
health,0.010511
hear,0.003974
heard,0.004482
heart,0.010379
heartfailur,0.008806
height,0.003758
held,0.006685
help,0.012381
henri,0.006076
henrietta,0.007223
henslow,0.059526
herbert,0.004081
hered,0.010767
hereditari,0.004511
heresi,0.005670
heritag,0.003855
hermaphrodit,0.006574
herschel,0.030466
hi,0.295773
high,0.005726
higher,0.006722
highest,0.005773
hillsid,0.006809
hint,0.010262
hippocampu,0.006553
hippopotamuss,0.008806
histori,0.015700
historian,0.003176
hm,0.020022
hobbi,0.005910
hofstadt,0.006266
holist,0.004843
home,0.013458
homolog,0.009703
honest,0.005552
honour,0.017781
hooker,0.044089
hope,0.003209
horac,0.005644
hourlong,0.007487
hous,0.007585
househunt,0.008806
howev,0.003059
huge,0.010516
hugh,0.004423
human,0.054482
humanitarian,0.004742
humblest,0.008503
humboldt,0.005370
hummingbird,0.007487
humour,0.006016
hundr,0.002863
hurri,0.006685
huxley,0.058853
hydrotherapi,0.007842
hypothesi,0.003283
ichneumon,0.007992
idea,0.055006
ideal,0.003067
identifi,0.004557
ideolog,0.003560
ii,0.002466
ill,0.047582
illtreat,0.007112
illustr,0.003214
imag,0.005805
immedi,0.008312
immens,0.004529
impact,0.002583
imperi,0.003672
impli,0.002930
implic,0.006568
import,0.008038
impract,0.005439
impress,0.003847
improv,0.009278
inaccur,0.005110
inbreed,0.006314
incapacit,0.006595
incept,0.004906
includ,0.035330
inconsist,0.004380
incorpor,0.005176
increas,0.001812
increasingli,0.008336
indel,0.007077
independ,0.001936
indic,0.002318
indirect,0.004095
individu,0.003888
induct,0.004174
industri,0.002151
inevit,0.004153
infanc,0.005670
infer,0.007245
influenc,0.002076
influenti,0.006063
inform,0.003747
infrequ,0.005688
inherit,0.013981
initi,0.004096
inn,0.006053
innov,0.006530
insect,0.004283
insectivor,0.007223
insight,0.003496
insist,0.003846
inspir,0.006237
instead,0.002207
instinct,0.004986
institut,0.003989
instrument,0.002902
intellect,0.005054
intellig,0.008823
intend,0.005836
intens,0.009391
interior,0.007398
intermarriag,0.006162
intermedi,0.003704
intern,0.001651
internet,0.003092
interpret,0.005029
interrel,0.004601
interv,0.003971
intrigu,0.010740
introduc,0.011055
introduct,0.004997
invalid,0.004731
invent,0.003067
invertebr,0.025028
invest,0.002683
investig,0.021130
involv,0.001827
isaac,0.004079
island,0.030732
issu,0.006068
jago,0.008168
jame,0.005317
jameson,0.006553
januari,0.016140
jb,0.005661
jemmi,0.008503
john,0.025728
join,0.019626
joint,0.009957
joseph,0.006212
josiah,0.022179
jot,0.007774
journal,0.021820
juli,0.013613
june,0.016477
just,0.008791
justif,0.008808
justifi,0.003790
kangaroo,0.006809
keel,0.006106
kept,0.010189
key,0.002398
kind,0.002510
kingdom,0.002507
kingsley,0.013619
knight,0.004720
knock,0.005744
known,0.006299
kropotkin,0.006574
label,0.003391
ladi,0.005019
laid,0.003557
laissezfair,0.016275
lake,0.003717
lamarck,0.018048
lamarckian,0.006980
land,0.009540
landmass,0.005813
languag,0.007106
larg,0.003321
largest,0.002602
late,0.002181
later,0.013119
law,0.017086
lawgiv,0.007650
lay,0.003546
lead,0.005640
leader,0.002755
learn,0.007942
learnt,0.006106
leav,0.005337
lectur,0.006853
led,0.008135
leech,0.006382
left,0.007536
legaci,0.003962
legend,0.004439
legendari,0.005244
leonard,0.004855
lesson,0.004423
letter,0.018665
liber,0.008523
liberti,0.004000
librari,0.011842
librivox,0.005803
life,0.018232
lifespan,0.005191
lifetim,0.008070
light,0.005196
like,0.011782
lineag,0.004664
link,0.001370
linnean,0.027566
liter,0.003623
littl,0.004823
littleknown,0.007044
live,0.014263
loam,0.008806
lobbi,0.004843
local,0.002134
lodg,0.005350
logic,0.003049
london,0.026534
long,0.008184
longcontinu,0.008806
look,0.005203
lort,0.008806
lose,0.003314
loss,0.002756
lost,0.002738
love,0.003741
lowli,0.006053
lyell,0.120323
macaw,0.007992
macrauchenia,0.008644
maer,0.026419
main,0.005984
major,0.005015
make,0.008012
male,0.003534
malthu,0.023255
malthusian,0.025259
malthuss,0.006783
malvern,0.007438
mammal,0.011967
man,0.061337
mani,0.011394
mankind,0.004547
manuscript,0.008551
manwhat,0.008806
map,0.002882
march,0.013065
mari,0.003640
marin,0.021644
mark,0.002530
maroon,0.006758
marri,0.011850
marriag,0.003983
marsupi,0.006662
martineau,0.007044
masterli,0.008168
materi,0.002208
materialist,0.005094
mathemat,0.002477
matter,0.002370
matthew,0.004569
mean,0.003470
meant,0.003232
mechan,0.009308
medal,0.013881
medic,0.011607
meet,0.010198
megatherium,0.016537
melodramat,0.007650
men,0.011687
mendelian,0.011711
mental,0.010229
mention,0.006101
mentor,0.005203
mere,0.003099
met,0.022556
mid,0.009413
middecemb,0.007148
midjuli,0.007223
midmarch,0.007347
mind,0.002971
minor,0.002916
minut,0.003761
miracl,0.009838
miracul,0.006028
mire,0.006436
miser,0.005967
mission,0.003141
missionari,0.004462
misus,0.005197
mix,0.003030
mixtur,0.003939
mockingbird,0.030600
modern,0.007560
modif,0.011236
modifi,0.003074
money,0.002816
monkey,0.005169
month,0.008352
moral,0.009457
moth,0.005944
mother,0.010894
mould,0.017441
mount,0.007346
movement,0.019555
mr,0.004236
multivolum,0.007112
murder,0.004001
murray,0.004556
museum,0.015199
musselb,0.008806
mysteri,0.008318
narr,0.012440
nation,0.001746
nativ,0.013027
natur,0.097569
naturalhistori,0.017613
naturalist,0.038634
nazi,0.004393
ne,0.005324
near,0.012954
nearbi,0.015512
need,0.005682
neg,0.002732
neglect,0.012365
neighbour,0.003849
neptun,0.005793
new,0.016890
newli,0.003315
newton,0.003978
nobl,0.008195
noblest,0.007012
nonconformist,0.007044
northern,0.002945
note,0.027251
notebook,0.011776
novel,0.003487
novemb,0.019783
novic,0.006133
number,0.003152
numer,0.004668
nurs,0.013755
obituari,0.006251
object,0.004308
observ,0.012478
obtain,0.004898
occup,0.003283
occur,0.002002
ocean,0.006485
octob,0.010899
offici,0.004784
offspr,0.009455
old,0.010429
older,0.009920
omit,0.004923
omnipot,0.005944
onc,0.004709
onli,0.008703
onlin,0.008273
open,0.004314
openli,0.009545
opinion,0.010047
opportun,0.002976
oppos,0.010533
opposit,0.002592
orangutan,0.007112
orchid,0.019148
ordain,0.005754
order,0.005209
ordinari,0.010308
organ,0.005156
organis,0.008950
origin,0.033179
ornithologist,0.006809
orthodox,0.008486
outcom,0.003221
outlin,0.006134
outset,0.005568
overal,0.002884
overcom,0.003869
overlap,0.003502
overpopul,0.005783
oversubscrib,0.008268
overthrow,0.004575
overturn,0.005169
overwork,0.007077
owen,0.047037
oxford,0.005921
oyster,0.006436
pacifist,0.006331
page,0.006178
pain,0.007982
paley,0.028177
palpit,0.014877
pamphlet,0.010648
pangenesi,0.007185
paper,0.015600
parallel,0.003265
paralys,0.006920
parasit,0.004664
parent,0.003548
parish,0.005280
parliamentari,0.003608
parodi,0.011607
parson,0.005845
parsonnaturalist,0.007774
particip,0.002485
particularli,0.004419
partli,0.003388
pass,0.002447
passion,0.009463
patagonia,0.007044
patrick,0.004563
pattern,0.002688
peacock,0.006162
pectori,0.007992
pencil,0.006066
penetr,0.004209
peopl,0.013898
percept,0.003354
perfect,0.003520
perfectli,0.004377
period,0.005616
perpetu,0.004268
person,0.002061
persuad,0.004553
peter,0.002873
petit,0.004660
philosoph,0.002765
philosophi,0.005365
photograph,0.004336
physic,0.004123
physician,0.003974
pick,0.004101
pigeon,0.005754
place,0.007128
plain,0.004117
plan,0.014318
plankton,0.006147
plant,0.038300
platypu,0.007347
play,0.002275
pleasant,0.011203
plinian,0.016337
plumag,0.007185
pluton,0.006863
point,0.003655
polaris,0.005824
polici,0.004663
polit,0.003955
politician,0.003780
pollin,0.005813
poor,0.006231
popul,0.013451
popular,0.020289
popularis,0.022275
popularli,0.004727
port,0.003560
portrait,0.005110
portray,0.004101
posit,0.005602
possibl,0.001842
post,0.003058
postal,0.004851
postgradu,0.005280
potenti,0.002339
poverti,0.003717
powel,0.005834
power,0.007396
powersman,0.008806
practic,0.005799
prais,0.016900
preacher,0.006079
preced,0.003423
predict,0.002643
prefer,0.005533
prehistori,0.009076
prejudic,0.005015
preliminari,0.004819
prematur,0.005142
prepar,0.008791
present,0.014453
preserv,0.003045
presid,0.005226
presidenti,0.003695
press,0.008506
pressur,0.005439
prime,0.002903
principl,0.010845
print,0.010179
printer,0.005610
prioriti,0.003810
privat,0.005181
problem,0.005797
procedur,0.003146
process,0.003416
produc,0.003760
product,0.003766
profession,0.002927
professor,0.006458
proglaci,0.007650
programm,0.003473
progress,0.009850
project,0.006707
prolif,0.005152
promin,0.002833
promot,0.010310
prompt,0.007911
proof,0.003684
proper,0.003241
prophet,0.004742
propon,0.003786
propos,0.011146
prospect,0.003839
prove,0.011154
provid,0.004809
psycholog,0.003079
public,0.030935
publicis,0.006533
publish,0.042116
pugnaci,0.008806
punta,0.006980
pupil,0.004713
pure,0.002857
pursu,0.003286
push,0.003436
puzzl,0.009622
qualiti,0.002692
question,0.011345
quietli,0.005813
quit,0.003053
quot,0.003780
race,0.021299
racial,0.004437
racism,0.005311
racist,0.011754
radic,0.006624
rainforest,0.005418
rais,0.007995
rambl,0.008076
rang,0.002169
rank,0.003050
rankl,0.008168
ratio,0.003258
ratkangaroo,0.008503
reach,0.006986
read,0.017912
reader,0.003907
realis,0.009241
reappear,0.005644
reason,0.002056
reassess,0.005764
reawaken,0.006783
recal,0.008863
receiv,0.006568
recent,0.005953
reconcili,0.004795
recuper,0.006950
red,0.003176
reef,0.010059
refer,0.002291
refin,0.007189
reflect,0.004925
reform,0.014015
regard,0.004397
regul,0.002712
reinforc,0.003902
reject,0.002825
rel,0.006164
relat,0.010815
relationship,0.002187
religi,0.014636
religion,0.014593
reluct,0.004671
remain,0.013266
remark,0.017574
rememb,0.008414
remov,0.005291
renam,0.003978
renew,0.003351
repeat,0.003307
repeatedli,0.012233
replac,0.002335
repli,0.004713
report,0.006607
reproduct,0.007785
repudi,0.005644
reput,0.015949
request,0.006966
research,0.020450
resembl,0.007229
reserv,0.003047
reson,0.004385
resourc,0.004639
respect,0.002179
respond,0.003090
respons,0.007950
rest,0.013424
restraint,0.005147
result,0.009577
retain,0.003013
retic,0.007438
retort,0.007304
return,0.013915
revers,0.003154
revert,0.005015
review,0.020541
revolut,0.002838
revolutionari,0.003647
revolutionis,0.006836
rewrit,0.010727
rewritten,0.005707
rhea,0.028893
richard,0.008493
ride,0.009964
rise,0.004612
river,0.003133
road,0.003328
robert,0.027716
rock,0.003588
rodentlik,0.008806
role,0.002007
ronald,0.008187
room,0.003717
rose,0.003477
roughli,0.003214
round,0.007260
roy,0.004699
royal,0.021165
run,0.005036
rural,0.003706
russel,0.012050
s,0.013002
sad,0.005568
said,0.002354
sail,0.004334
sale,0.003338
samuel,0.008147
sand,0.004731
sank,0.005697
satir,0.005324
satisfi,0.003399
savag,0.010808
save,0.003254
saw,0.030847
say,0.002482
scarlet,0.012987
scelidotherium,0.008806
school,0.013989
scienc,0.019273
scientif,0.039202
scientist,0.031445
scorn,0.006205
scotland,0.004307
scrap,0.005483
scrawl,0.008503
scrutinis,0.007842
seashel,0.028048
seasick,0.008503
seat,0.006782
seawat,0.005552
second,0.005642
secretari,0.003743
sedgwick,0.013567
seed,0.004066
seek,0.002571
seen,0.004497
seiz,0.003939
select,0.104659
self,0.003938
selfevolv,0.008503
selffund,0.014296
sell,0.003241
send,0.003583
sens,0.002357
sensat,0.004671
sent,0.019058
sentenc,0.003917
separ,0.012561
septemb,0.013817
seri,0.009131
serv,0.004562
servant,0.004417
session,0.004359
set,0.007100
settlement,0.006688
seven,0.003007
sever,0.008313
sewal,0.006436
sex,0.019839
sexual,0.026359
shall,0.004183
shape,0.002731
share,0.011165
shell,0.007714
shingl,0.007185
ship,0.013006
shipmat,0.008379
shock,0.011753
shoot,0.004859
shore,0.004357
shorelin,0.006314
short,0.002443
shown,0.005527
shrewdli,0.007914
shrewsburi,0.062193
shropshir,0.014526
sibl,0.005446
sick,0.004499
sickb,0.017613
sight,0.008505
sign,0.005251
signific,0.004071
similar,0.007617
simpli,0.007807
sinc,0.003189
singl,0.002134
situat,0.002455
sixth,0.004234
size,0.004967
skate,0.006980
skeleton,0.004876
sketch,0.015346
skull,0.005094
slave,0.011305
slaveri,0.012608
slight,0.004761
slightli,0.003456
sloth,0.007044
slowli,0.007352
smooth,0.004229
socal,0.003218
social,0.026375
socialist,0.003567
societi,0.037965
soil,0.007227
solar,0.003804
sold,0.003367
soldier,0.003628
sole,0.003237
solv,0.002935
sometim,0.002076
son,0.015268
soon,0.011698
sort,0.003345
sought,0.009320
sound,0.003357
sourc,0.002006
south,0.017483
southward,0.005337
spa,0.006418
speci,0.152524
specif,0.001908
specimen,0.029674
specul,0.019908
spell,0.004401
spencer,0.010464
spent,0.007050
spiritu,0.003674
sponsor,0.003998
spore,0.005824
spot,0.003992
spottiswood,0.008379
spread,0.005638
st,0.007712
stabil,0.002974
stabl,0.003138
staffordshir,0.007710
stage,0.002785
stamp,0.004717
stand,0.002997
stapl,0.005049
start,0.004037
starvat,0.005262
state,0.004186
static,0.004079
statist,0.002616
statistician,0.010648
statu,0.007990
stay,0.006981
step,0.005408
stephen,0.003542
steril,0.005418
steven,0.004018
stock,0.006153
stoke,0.005697
stomach,0.010687
stop,0.009452
storag,0.003795
stori,0.003232
strain,0.003964
strand,0.004547
strang,0.004731
strata,0.005537
strategi,0.002970
street,0.003639
stress,0.009811
stretch,0.004020
strong,0.004634
strongli,0.006147
struck,0.004535
structur,0.011180
struggl,0.023402
student,0.010858
studi,0.025282
subject,0.006086
subsequ,0.002488
substanti,0.002960
success,0.004230
suffer,0.011643
suggest,0.008930
suit,0.003707
suitabl,0.003540
sum,0.003181
summari,0.003838
summer,0.007379
sumner,0.006266
sunday,0.005292
supernatur,0.004633
supernumerari,0.007992
supplementari,0.005793
suppli,0.002600
support,0.015170
surgeon,0.009945
surgeri,0.004496
surpris,0.008387
surround,0.002920
survey,0.012262
surviv,0.019254
susannah,0.007842
suspicion,0.005126
swept,0.005214
swipe,0.007842
symbolis,0.006474
sympathi,0.010452
symptom,0.009076
synthesi,0.007121
systemat,0.003047
systemwith,0.008503
taken,0.004670
tale,0.004585
talk,0.006863
tanag,0.008503
tast,0.004476
taxidermi,0.016537
teleolog,0.005324
tell,0.010777
tend,0.002618
tendenc,0.003581
tenerif,0.007185
tenth,0.004889
term,0.007535
terribl,0.005513
territori,0.005583
testabl,0.005262
text,0.005502
th,0.007315
theist,0.006533
theistic,0.005877
theodici,0.007077
theolog,0.019439
theologian,0.009434
theoret,0.002615
theori,0.056082
theoris,0.035666
thi,0.029822
thing,0.002537
think,0.016594
thirteen,0.004784
thoma,0.011411
thought,0.029384
thousand,0.005625
threat,0.003345
thrombosi,0.007438
throw,0.004897
thrown,0.005311
thrust,0.005610
thu,0.001864
tide,0.004959
tie,0.003110
tierra,0.006617
till,0.004815
time,0.023988
titl,0.002862
togeth,0.002199
told,0.008089
toll,0.005084
took,0.014948
tooth,0.005813
topic,0.005060
tortois,0.024942
town,0.003275
toxodon,0.008644
trace,0.003058
tradit,0.006024
train,0.002754
trait,0.011336
transform,0.002610
translat,0.005491
transmut,0.054984
travel,0.011264
treasur,0.004945
treasuri,0.004238
treat,0.002792
treatment,0.002933
tree,0.006570
trembl,0.006474
tri,0.005020
tribal,0.004448
tripo,0.006920
triumph,0.004963
tropic,0.008139
troubl,0.004187
true,0.002582
truth,0.003393
turn,0.002204
tutor,0.005544
twelv,0.004207
twenti,0.003922
twentytwo,0.006251
twoyear,0.005186
type,0.001917
uk,0.008769
ultim,0.002758
unbridg,0.007774
uncheck,0.006662
uncl,0.010199
uncomfort,0.005967
uncommonli,0.007842
unconvent,0.005899
underli,0.003028
undermin,0.008454
understand,0.002164
unexpectedli,0.005754
unfavour,0.012295
unfinish,0.005783
unifi,0.003338
uniformitarian,0.024426
unit,0.003217
unitarian,0.034298
univers,0.011562
unknown,0.006604
unlik,0.002655
unpublish,0.005498
unqualifi,0.006733
unrealist,0.005220
unsuccess,0.004101
unten,0.006251
unthreaten,0.008503
untrammel,0.008503
unusu,0.007733
unveil,0.005439
upandcom,0.007710
urg,0.012628
use,0.013031
utopian,0.005544
valid,0.003045
valu,0.006132
variant,0.007726
variat,0.020927
varieti,0.007183
variou,0.009078
veget,0.015229
verd,0.005725
veri,0.003642
version,0.002789
vestig,0.011690
vicar,0.007185
victorian,0.005120
view,0.034749
villag,0.003644
vindic,0.006041
visit,0.022429
visitor,0.004362
volcan,0.004575
volum,0.013659
voluntari,0.004412
vomit,0.006190
von,0.003234
voyag,0.056711
wa,0.132075
wale,0.004439
walk,0.012221
wallac,0.053640
walter,0.003804
war,0.002265
warfar,0.004044
wasp,0.006066
wast,0.003825
water,0.002460
waterton,0.008644
wave,0.003216
way,0.005115
weak,0.006336
weaker,0.004541
wealthi,0.004161
weather,0.003911
wedg,0.012007
wedgwood,0.067390
wednesday,0.006220
week,0.016760
welcom,0.004401
welfar,0.003673
went,0.026327
westminst,0.010635
whenev,0.004488
whewel,0.006205
whi,0.002934
whig,0.018123
white,0.003028
wickham,0.007710
wide,0.008216
wife,0.016446
wilberforc,0.007487
wild,0.008183
wildlif,0.018178
william,0.015333
wish,0.003526
withhold,0.005475
women,0.003035
wonder,0.004620
word,0.006641
work,0.060977
worker,0.002968
workhous,0.006891
world,0.003233
worldwid,0.009706
worm,0.015074
worth,0.003611
wren,0.006493
wright,0.004731
write,0.027430
writer,0.013093
written,0.005050
wrote,0.029889
x,0.002823
year,0.019314
young,0.005922
younger,0.007925
zeal,0.006493
zealou,0.007148
zealous,0.007650
zoo,0.005773
zoolog,0.019261
zoologist,0.005577
