acceler,0.016462
acrophas,0.045027
activ,0.076864
adapt,0.013629
addit,0.008659
administr,0.011967
age,0.021438
aka,0.023331
al,0.014681
alexand,0.016399
alfr,0.017538
alga,0.023680
american,0.009697
amplitud,0.025170
anatomi,0.020101
ancient,0.012401
ani,0.007543
anim,0.071881
annual,0.013148
approxim,0.011664
arendt,0.032408
arrang,0.013953
articl,0.010172
aschoff,0.045027
aspect,0.022498
assess,0.014578
attempt,0.009763
avail,0.010462
b,0.011337
background,0.014699
bacteri,0.044717
bacteria,0.019649
bacterium,0.026219
base,0.007457
basic,0.010382
bat,0.025325
bathyphas,0.045027
beard,0.027598
behavior,0.024212
biolog,0.171363
biorhythm,0.038137
birth,0.015207
bluegreen,0.033262
botanist,0.024514
broken,0.017208
carl,0.034514
case,0.017285
cellular,0.019125
centuri,0.017752
certain,0.028382
chanc,0.016639
chizhevski,0.041582
chrno,0.042488
chronobiolog,0.364060
chronom,0.090054
chronotyp,0.040816
circa,0.023227
circadian,0.437458
circaseptan,0.045027
circular,0.020145
classic,0.011420
clock,0.173078
coin,0.014314
cold,0.016477
colin,0.047588
come,0.019773
commonli,0.011480
compar,0.010224
comparison,0.014496
complementari,0.020167
conclud,0.014139
confin,0.018562
consid,0.008062
continu,0.008376
contribut,0.010147
control,0.018370
crepuscular,0.040816
curv,0.017009
cyanobacteria,0.028525
cycl,0.269277
cyclic,0.042945
daisi,0.035598
date,0.011554
dawn,0.021880
day,0.083461
daytim,0.030661
decoursey,0.045027
deer,0.026256
defin,0.009487
describ,0.042547
descript,0.012637
design,0.020309
develop,0.013828
did,0.020525
die,0.013246
differ,0.007329
difficult,0.012058
discret,0.016305
disput,0.013906
diurnal,0.030849
dorsomedi,0.040152
dortou,0.043597
driven,0.016095
durat,0.019689
dure,0.055708
dusk,0.035355
eat,0.019423
ecolog,0.031370
effect,0.008086
elect,0.012276
emphasi,0.015097
endocrinolog,0.031044
endogen,0.050402
entrain,0.035598
especi,0.009665
essenti,0.011570
et,0.014307
european,0.010367
evolut,0.027028
ex,0.022517
examin,0.013027
exampl,0.014909
exhibit,0.015712
exogen,0.025891
explor,0.012682
express,0.010784
extern,0.013016
factor,0.010553
famili,0.011525
father,0.014633
feed,0.019107
field,0.054538
fli,0.018578
flower,0.101062
follow,0.014239
food,0.012809
foodentrain,0.090054
formal,0.011137
franz,0.023502
french,0.011978
fruit,0.017637
fuller,0.026070
function,0.009112
fund,0.012271
fungi,0.021545
gene,0.034539
genet,0.015117
geriatr,0.030306
given,0.008926
gradual,0.014307
greek,0.012603
groundwork,0.025140
growth,0.011265
ha,0.011869
halberg,0.130792
half,0.012251
hamster,0.034489
harbor,0.022272
hawk,0.023635
hawkbit,0.045027
hi,0.007980
hibern,0.031910
high,0.018024
highest,0.013629
histori,0.007413
hitoshi,0.039043
hormon,0.023064
hour,0.156403
howev,0.014446
human,0.051450
hypothalamu,0.032279
import,0.015182
includ,0.018535
increas,0.008558
indic,0.010949
influenc,0.009803
infradian,0.042488
instantan,0.023352
interact,0.011104
interdisciplinari,0.018295
invent,0.014482
investig,0.012471
involv,0.008628
issu,0.009550
j,0.011177
jeanjacqu,0.026529
josephin,0.034489
jrgen,0.025325
known,0.007436
laboratori,0.015101
laid,0.016795
latin,0.013985
lead,0.008878
leader,0.013011
leaf,0.024129
leav,0.012601
legitim,0.018482
level,0.008897
lewi,0.018676
life,0.028695
light,0.049069
limit,0.009087
linn,0.033109
linnaeu,0.026181
live,0.019241
locat,0.032821
longer,0.012271
low,0.022806
lowest,0.017698
lowlevel,0.026818
lunar,0.071040
lunarrel,0.038137
mairan,0.043597
major,0.007893
mani,0.013450
marin,0.034065
marker,0.022888
mate,0.022307
maximum,0.016179
mean,0.032776
measur,0.009745
mechan,0.021975
medic,0.027403
medicin,0.042557
melatonin,0.037028
member,0.028479
menstrual,0.033109
mice,0.048407
michel,0.020395
microbi,0.024761
migrat,0.031795
minnesota,0.023982
minut,0.017759
modul,0.020090
molecular,0.031102
moment,0.016927
month,0.013145
moonlight,0.034489
morn,0.021619
movement,0.020519
multitroph,0.041582
nadir,0.031144
nasal,0.029443
naturalist,0.020269
night,0.036499
nocturn,0.031910
nonparametr,0.030754
nucleu,0.039420
observ,0.019639
occur,0.018905
ohsu,0.043597
okamura,0.037371
open,0.030557
organ,0.081156
oscil,0.021531
parametr,0.025998
particular,0.009312
particularli,0.010434
patricia,0.025650
pattern,0.012694
peak,0.016326
peopl,0.016406
period,0.017681
person,0.009735
pertain,0.020573
phase,0.028615
phasic,0.041582
phenomena,0.028411
phenomenon,0.015323
photoperiod,0.036406
photosynth,0.039567
photosynthet,0.028406
physiolog,0.035050
pittendrigh,0.166329
plant,0.077504
plantproduc,0.045027
point,0.008630
practic,0.009128
presenc,0.012901
primarili,0.011662
process,0.040327
product,0.008892
protozoa,0.028525
pseudosci,0.026034
pursu,0.015516
quantit,0.015850
rat,0.022643
reaction,0.013874
read,0.009397
recent,0.028109
reentrain,0.045027
refer,0.005410
regener,0.024079
regul,0.051239
relat,0.014591
relev,0.014152
rem,0.031793
reproduct,0.036760
requir,0.008518
research,0.043890
reset,0.057170
resourc,0.010954
respect,0.010290
respons,0.009385
restrict,0.012540
rhythm,0.442229
roughli,0.030356
routin,0.019423
s,0.007674
scienc,0.009100
scientist,0.012373
second,0.008880
select,0.011766
sens,0.011133
set,0.008381
shorter,0.019263
shown,0.013048
siffr,0.045027
signal,0.015569
similar,0.008992
simul,0.016362
sinc,0.007530
sleep,0.042859
societi,0.018869
solar,0.017962
space,0.011610
speci,0.027699
spite,0.021695
sport,0.017884
spring,0.016985
studi,0.023875
substanti,0.013979
success,0.009986
suprachiasmat,0.074742
surrey,0.032153
swedish,0.020537
symposium,0.024104
term,0.014231
th,0.017269
theori,0.008826
therapi,0.019180
thi,0.011265
thought,0.010672
tidal,0.027125
tide,0.046832
time,0.039977
tonic,0.034489
tool,0.024116
transit,0.013110
trough,0.029895
type,0.009053
uk,0.013802
ultradian,0.039043
univers,0.015598
use,0.024612
variat,0.042348
variou,0.008572
view,0.009651
von,0.015273
vs,0.018182
wa,0.024698
want,0.013903
whitetail,0.036121
wide,0.009699
word,0.010453
work,0.007382
