accessori,0.017965
accord,0.005520
accumul,0.010590
acid,0.077860
acquir,0.008991
activ,0.027543
adapt,0.026373
addit,0.005585
adopt,0.007618
africa,0.008965
airfoil,0.022245
alata,0.026326
alcohol,0.025347
alik,0.014876
allel,0.016437
allow,0.005489
amaranthacea,0.027404
amino,0.071450
analog,0.059187
analysi,0.006654
anatom,0.014725
anatomist,0.017466
ancestor,0.035596
ancestr,0.072162
ancestri,0.030318
anchor,0.015021
andor,0.009660
angiosperm,0.020154
ani,0.004865
anim,0.046363
ant,0.014981
ape,0.017190
appear,0.012788
appl,0.028753
appli,0.005901
aquat,0.014876
arabidopsi,0.020023
argu,0.022032
aris,0.009006
arisen,0.030151
arrang,0.027000
asian,0.010517
assess,0.018806
associ,0.005392
assum,0.007647
atav,0.050365
attach,0.010451
australia,0.009595
author,0.018647
avoid,0.008245
backbon,0.015710
base,0.004810
basi,0.006876
basic,0.006696
bat,0.114343
becam,0.006084
becaus,0.005010
becom,0.005328
bee,0.015611
beetl,0.017737
befor,0.005685
benefici,0.012216
bestknown,0.014511
biochem,0.013685
biochemistri,0.013231
biolog,0.007894
bird,0.068179
bitingchew,0.029042
bitingsuck,0.029042
blind,0.027248
blood,0.010840
bloodsuck,0.026326
blue,0.047461
bodi,0.026719
bodyplan,0.029042
bodyshap,0.029042
bone,0.024970
book,0.006326
botan,0.016254
bound,0.009960
british,0.007432
broader,0.011099
brown,0.033885
brownian,0.016677
c,0.019112
camera,0.028820
cane,0.016215
canida,0.024598
capac,0.009241
carbon,0.021732
carbonfix,0.027404
carnivor,0.017614
carnivori,0.098393
carpel,0.023676
carpometacarpu,0.029042
case,0.022297
catalysi,0.018103
catalyt,0.068446
caus,0.017852
cell,0.009588
cephalopod,0.058157
cephalotu,0.029042
certain,0.006102
cetacean,0.038877
chang,0.010052
charact,0.009213
characterist,0.007684
chemic,0.025467
chenopodiacea,0.029042
chitinas,0.026326
clade,0.035289
cladist,0.092988
clash,0.026540
classic,0.007366
clearest,0.019897
clearli,0.010024
cnidaria,0.022655
color,0.011107
colour,0.038178
common,0.032349
comparison,0.009350
competit,0.008767
complet,0.012316
compon,0.007679
conclus,0.009935
condit,0.006239
confound,0.017325
confus,0.010036
consequ,0.007582
consid,0.005200
consist,0.005968
constraint,0.044285
construct,0.006905
consumpt,0.010400
contin,0.011490
continuum,0.013309
converg,0.563847
conway,0.018139
coopt,0.019660
core,0.009469
corvid,0.025182
cours,0.007771
creat,0.005454
cystein,0.040581
dawkin,0.017833
decreas,0.008781
defin,0.006119
degre,0.014605
depend,0.005883
deriv,0.013560
describ,0.010977
despit,0.015122
develop,0.013379
dicot,0.022804
dietari,0.016417
differ,0.104000
difficult,0.007777
digest,0.027248
dinosaur,0.017584
direct,0.011842
dispers,0.036715
disput,0.008969
dissimilar,0.017737
distanc,0.009495
distancebas,0.023883
distantli,0.021166
distinct,0.027471
diverg,0.036155
dna,0.011508
dolphin,0.051893
domin,0.014675
drag,0.015438
dramat,0.010070
drawback,0.017353
ear,0.014247
earless,0.026820
earlier,0.007933
east,0.008254
eaten,0.016195
echoloc,0.064362
ecolog,0.010116
edibl,0.034650
elong,0.016632
emerg,0.006880
enabl,0.008513
encount,0.010573
end,0.005869
enter,0.007848
entir,0.006963
environ,0.014233
environment,0.017262
enzym,0.117463
enzymolog,0.021454
equival,0.008647
especi,0.006234
european,0.006686
evolut,0.313799
evolutionari,0.010577
evolutionarili,0.019385
evolv,0.140996
exampl,0.057697
expect,0.007376
explicitli,0.010929
expos,0.010753
express,0.006955
extinct,0.024409
extrem,0.007701
eye,0.096592
face,0.008057
factor,0.013614
famili,0.007433
fauna,0.013694
feather,0.033491
featur,0.014520
finger,0.062380
fish,0.010016
fixat,0.033132
flea,0.019603
fleshi,0.068882
fli,0.035949
flight,0.058807
flower,0.013036
flowervisit,0.029042
fluid,0.022632
fold,0.027371
folliculari,0.029042
forc,0.011508
fore,0.018639
forearm,0.022960
forelimb,0.021660
form,0.021940
fox,0.014787
frequencybas,0.027404
frog,0.032710
fruit,0.068257
function,0.058775
fundament,0.007351
fuse,0.014133
fusiform,0.025520
gene,0.066833
genet,0.048753
genom,0.026073
genomewid,0.020433
given,0.005757
glide,0.038985
glider,0.046963
glucanas,0.029042
glycosid,0.021555
good,0.006382
gould,0.017085
grasp,0.014322
grass,0.014466
greatli,0.018802
group,0.062141
ha,0.049763
hand,0.007113
hear,0.012105
hi,0.005147
high,0.011625
higher,0.006824
highli,0.007557
hindlimb,0.024341
histidin,0.021998
histori,0.004781
homolog,0.088651
homoplasi,0.047352
homoplast,0.028120
howev,0.013977
human,0.027654
hydrolas,0.022804
hypanthium,0.029042
ichthyosaur,0.024598
ident,0.008220
identifi,0.020818
illustr,0.009790
impli,0.008924
implic,0.010002
import,0.004896
impress,0.011717
includ,0.035866
incomplet,0.012509
incorpor,0.015766
incorrect,0.013668
increas,0.005520
independ,0.082547
indic,0.007062
inevit,0.012648
infer,0.022064
insect,0.117398
instanc,0.031098
intak,0.017524
intellig,0.008957
intens,0.009534
interact,0.007162
intrins,0.012154
investig,0.008044
involv,0.005565
isol,0.018640
jay,0.015377
jellyfish,0.019282
known,0.014389
later,0.005708
latitud,0.014558
lead,0.028632
led,0.012388
leg,0.028494
lemur,0.068882
level,0.022956
life,0.024678
light,0.007912
lighten,0.069375
like,0.005126
limb,0.030042
lineag,0.113642
live,0.006205
locu,0.046785
long,0.006231
longterm,0.010099
lost,0.008340
maintain,0.006691
maiz,0.015794
major,0.005091
mammal,0.097194
mani,0.026026
marin,0.010986
marsupi,0.081162
mathemat,0.007544
mean,0.005285
measur,0.025142
mechan,0.014173
membran,0.013589
mesozo,0.020433
method,0.029717
methyl,0.050031
migrat,0.010254
million,0.007537
mind,0.009050
model,0.005977
modifi,0.009363
molecular,0.020061
monkey,0.015743
monocot,0.022960
morpholog,0.026295
morri,0.015244
mosquito,0.018639
motion,0.009683
mouthpart,0.115626
multipl,0.022143
mutat,0.013325
myrmecochori,0.028120
natur,0.005123
nepenth,0.027404
nerv,0.014762
neutral,0.010504
nich,0.014523
noncarnivor,0.029042
northern,0.008971
note,0.005532
ntermin,0.044752
nucleic,0.015760
nucleophil,0.074391
number,0.004800
numer,0.007109
object,0.006560
occupi,0.009620
occur,0.030485
octopu,0.020506
old,0.007940
onli,0.008835
oppos,0.024059
opposit,0.015792
optimum,0.015934
order,0.010576
organ,0.010469
orient,0.019999
origin,0.010636
outsid,0.007320
overlap,0.010666
overview,0.009615
owen,0.015916
panda,0.020506
parallel,0.069606
particular,0.012013
pathogenesisrel,0.029042
pattern,0.016375
patternbas,0.048208
pericarp,0.028120
phenomenon,0.009883
phenotyp,0.014787
phosphatas,0.021355
photorecept,0.027404
photosynthesi,0.030605
phylogenet,0.045519
phylogeni,0.051730
physic,0.018838
pigment,0.016081
placent,0.082329
plan,0.014535
plant,0.091649
point,0.011133
pome,0.025520
popul,0.006827
possibl,0.005612
potenti,0.014249
power,0.005631
presenc,0.008321
present,0.016507
pressur,0.008283
primat,0.093668
prior,0.008311
probabl,0.015792
problem,0.005885
probosci,0.024341
proceed,0.010070
process,0.015606
processbas,0.050365
produc,0.005725
progress,0.007500
proteas,0.103297
protein,0.067076
provid,0.004882
pterosaur,0.053640
publish,0.006107
purpurea,0.025898
quantifi,0.012365
rang,0.013211
ratio,0.009924
reason,0.012527
recent,0.006043
receptacl,0.023883
reconstruct,0.032810
recurr,0.014994
red,0.009673
reduc,0.006611
reemerg,0.016960
reenabl,0.029042
reevolv,0.026820
refer,0.003489
refin,0.010948
reflect,0.007500
relat,0.009411
related,0.018723
relev,0.009128
remain,0.011544
remnant,0.013954
repeat,0.020147
repeatedli,0.012418
residu,0.026942
respons,0.012106
restrict,0.008088
retain,0.009178
retina,0.018068
rewind,0.026326
richard,0.017243
rnase,0.023883
sarracenia,0.026326
say,0.007561
scale,0.007899
scientist,0.007980
seal,0.026176
secondari,0.009938
secret,0.010768
seed,0.037149
seek,0.007831
select,0.022767
sensori,0.013529
separ,0.038256
serin,0.041319
serv,0.006947
set,0.005406
sever,0.015190
shape,0.024955
share,0.027203
sharp,0.011795
similar,0.110199
similarli,0.009202
simon,0.011670
simpl,0.007717
simpli,0.007925
simul,0.010553
singl,0.013000
site,0.040907
skin,0.049274
skinlighten,0.029042
skull,0.015515
solut,0.016620
sometim,0.006323
sort,0.010187
sought,0.009462
space,0.007488
speci,0.080396
specialis,0.028144
specifi,0.009875
speed,0.009932
spot,0.024320
squid,0.018033
squirrel,0.040722
standpoint,0.015468
stasi,0.019085
state,0.012749
steadili,0.012812
stephen,0.010789
steric,0.020433
streamlin,0.018139
strength,0.009851
stress,0.009960
stressrespons,0.029042
stretch,0.024488
strike,0.010804
strikingli,0.019717
strongli,0.018723
structur,0.028374
studi,0.020532
stumbl,0.018322
subject,0.006178
substanti,0.009016
substitut,0.021586
substrat,0.014750
sugar,0.035506
suggest,0.006799
sunlight,0.015145
superfamili,0.060070
surfac,0.008794
surround,0.008894
swim,0.031555
switch,0.011926
tape,0.015846
taper,0.019547
tasmanian,0.022804
taxa,0.033537
tell,0.010940
tend,0.007976
term,0.009179
terrestri,0.013223
tetrapod,0.020903
thaliana,0.020433
thaumatinrel,0.029042
therefor,0.006601
thi,0.021798
thiol,0.022245
threonin,0.135076
thu,0.005677
thumb,0.067262
thylacin,0.024877
time,0.025785
tini,0.013102
tissu,0.023474
today,0.006977
tomato,0.016654
trait,0.138102
travel,0.008576
tree,0.010005
triad,0.079106
tube,0.013421
type,0.011679
ulna,0.024104
ultim,0.008401
unknown,0.010056
unlik,0.008088
unspecifi,0.017614
unus,0.017009
use,0.023812
vari,0.007160
variat,0.009104
veri,0.005546
vertebr,0.043297
vessel,0.011825
view,0.006225
vision,0.010520
vs,0.011727
vulp,0.051796
wa,0.019912
wall,0.010284
watchmak,0.021882
way,0.010386
whale,0.015131
wherea,0.008428
wide,0.012511
wing,0.119012
wire,0.014032
wolf,0.014876
wonder,0.014072
work,0.004761
world,0.004924
wrist,0.040308
year,0.004901
