abund,0.020831
accumul,0.019705
act,0.011740
adapt,0.016357
advantag,0.031889
affect,0.026846
african,0.054012
age,0.012864
al,0.070477
alaska,0.062145
albertson,0.048984
alga,0.028419
allel,0.183512
allow,0.030645
anadrom,0.048984
analysi,0.024765
analyz,0.017266
anoth,0.009879
antagonist,0.029887
apparatu,0.025564
area,0.010202
arriv,0.016535
ate,0.066008
averag,0.030686
balanc,0.016257
bay,0.023196
beak,0.110064
bear,0.019222
becaus,0.018647
becom,0.009915
bird,0.042286
bite,0.032393
black,0.016715
book,0.011771
born,0.017496
bristol,0.032499
burst,0.027900
case,0.010372
caus,0.066433
chang,0.074820
charl,0.015887
cichlid,0.122145
climat,0.017713
common,0.010031
compar,0.024542
comparison,0.017397
consequ,0.014108
contain,0.011902
coop,0.037256
correl,0.038679
cross,0.036218
darwin,0.023219
data,0.026483
date,0.027734
day,0.012520
declin,0.015753
decreas,0.016339
definit,0.013119
depart,0.014547
depth,0.021785
describ,0.010212
detect,0.018220
determin,0.011522
diet,0.024533
differ,0.070367
direct,0.220354
disrupt,0.064140
district,0.020069
divers,0.015958
diversif,0.055123
divid,0.013157
doigr,0.050991
doiscienc,0.035691
domin,0.013653
drastic,0.024838
dri,0.021731
drift,0.051163
drive,0.017827
dure,0.028653
earlier,0.029521
ecolog,0.018824
effect,0.009704
egegik,0.162115
environ,0.013241
environment,0.048178
especi,0.023198
et,0.068684
europ,0.013545
eventu,0.014197
everi,0.012499
evid,0.027243
evolut,0.048656
evolv,0.032793
examin,0.015634
exampl,0.026838
expect,0.013724
experienc,0.017933
extrem,0.057316
factor,0.012665
fast,0.020448
favor,0.049496
feed,0.045863
finch,0.109425
fish,0.111823
fisheri,0.054306
fix,0.015854
fluctuat,0.022306
forag,0.030356
form,0.008164
fossil,0.023151
frequenc,0.061239
frequencydepend,0.041157
fuelleborni,0.054038
futur,0.013009
g,0.014450
game,0.018329
generationstheir,0.054038
genet,0.072571
genom,0.048514
glacial,0.031511
great,0.012038
greater,0.013453
ha,0.007122
habitat,0.024912
happen,0.016882
higher,0.012698
howev,0.008668
human,0.030873
ice,0.023299
impact,0.029276
includ,0.014829
increas,0.030814
independ,0.010970
indic,0.013140
individu,0.011017
interglaci,0.041157
j,0.013414
jaw,0.063487
jk,0.038296
kak,0.088876
known,0.008924
labeotropheu,0.054038
larg,0.037646
later,0.010620
lead,0.021310
lineag,0.026431
loci,0.032034
long,0.011594
look,0.014744
main,0.011304
major,0.009473
mani,0.008070
map,0.016335
mean,0.009833
method,0.011058
metriaclima,0.054038
middl,0.014722
migrat,0.133555
mode,0.020102
model,0.022245
modern,0.010710
morpholog,0.073390
moth,0.033684
mouth,0.101272
natur,0.057196
need,0.010734
neg,0.015483
neutral,0.039089
new,0.007975
nonsynom,0.054038
novembr,0.054038
number,0.017865
observ,0.011784
occur,0.034034
oral,0.023073
origin,0.009895
paper,0.014733
pc,0.028987
pepper,0.031696
period,0.042438
pertain,0.024691
phenotyp,0.220120
phylogenet,0.028232
pickrel,0.054038
play,0.012892
plot,0.021884
pmc,0.033062
pmid,0.055030
pollin,0.032945
popul,0.139749
posit,0.021164
presenc,0.015483
pressur,0.030826
prevent,0.014638
primari,0.013516
principl,0.012291
prove,0.015802
provid,0.009084
qtl,0.269099
quickli,0.033332
quinn,0.036797
rang,0.012291
rapidli,0.017262
rare,0.016850
rate,0.012688
ratio,0.073864
read,0.011278
recent,0.022489
recess,0.023242
record,0.013687
refer,0.006493
rel,0.023286
reproduc,0.044061
reproduct,0.022058
research,0.010534
river,0.017754
rock,0.020335
role,0.011375
run,0.014270
sabeti,0.054038
salmon,0.131324
sampl,0.019351
scienc,0.010921
seed,0.115204
select,0.550709
set,0.010059
seven,0.017040
shift,0.031474
short,0.013845
shown,0.015660
sign,0.044640
signal,0.018684
signific,0.011536
size,0.028148
skull,0.028869
slightli,0.019587
small,0.033176
smooth,0.023967
sockey,0.187427
speci,0.049863
speciat,0.064169
stabil,0.067418
statist,0.029654
stronger,0.021758
strongli,0.017418
studi,0.019102
substitut,0.020082
subtermin,0.054038
suction,0.037500
suggest,0.025304
suppli,0.014733
surviv,0.015587
suspensorium,0.054038
sustain,0.017677
synom,0.054038
temperatur,0.018270
termin,0.021175
test,0.177293
theori,0.010593
thi,0.040558
thought,0.012808
time,0.039981
tough,0.030099
tree,0.018616
type,0.032597
typic,0.012124
ugashik,0.054038
undergo,0.020954
undergon,0.028206
use,0.014769
usual,0.010875
variat,0.016941
varieti,0.013569
vast,0.018147
veri,0.010321
wa,0.074101
water,0.027881
wet,0.026980
worldwid,0.018334
year,0.036483
zebra,0.036371
