abil,0.006041
abiot,0.041083
abund,0.008905
access,0.006075
accompani,0.008489
accord,0.013173
act,0.005018
activ,0.004381
actual,0.016860
adapt,0.062932
advantag,0.006816
affect,0.005738
african,0.007696
allow,0.008733
alter,0.031507
american,0.004975
ani,0.003870
anim,0.043024
anoli,0.037665
anoth,0.012670
antil,0.013631
approach,0.005053
associ,0.008579
ate,0.014108
attempt,0.005008
australian,0.009132
autecolog,0.019173
avail,0.026839
averag,0.006559
axe,0.012013
axiom,0.010950
base,0.003826
beaver,0.045317
becaus,0.003985
behavior,0.043477
bellshap,0.019361
biodivers,0.010972
biogeographi,0.025858
biolog,0.012559
biotic,0.063303
bird,0.018077
breadth,0.012577
breed,0.021236
british,0.005912
broad,0.007111
broader,0.017656
cactu,0.015978
california,0.016245
camouflag,0.015826
cane,0.012898
carnivor,0.014010
case,0.008868
categori,0.013533
central,0.004971
certain,0.009707
chain,0.015845
chang,0.007996
chaparr,0.018394
charl,0.006791
class,0.005882
classifi,0.007173
clear,0.006600
climat,0.007572
close,0.004745
coeffici,0.010235
coexist,0.022418
coin,0.014688
colon,0.009410
color,0.008834
come,0.005072
commun,0.013913
competit,0.062767
competitor,0.021973
complement,0.010457
compris,0.007255
concept,0.029698
conceptu,0.008536
condit,0.029777
conservat,0.013394
consider,0.005960
consist,0.009494
construct,0.016477
consum,0.014125
context,0.006239
converg,0.009343
coordin,0.015037
correspond,0.006438
creatur,0.010816
cycl,0.007271
dam,0.011969
dandelion,0.018532
defin,0.024338
definit,0.011216
densiti,0.025678
depend,0.009360
deriv,0.005393
describ,0.017462
descript,0.019451
desert,0.010086
despit,0.006014
determin,0.004925
develop,0.003547
deviat,0.010065
differ,0.048882
differenti,0.014363
dimens,0.032644
dinosaur,0.013986
directli,0.005699
discontinu,0.010768
distribut,0.035114
doe,0.004799
domain,0.006927
drive,0.007620
dynam,0.013299
eat,0.009965
ecolog,0.144850
ecologist,0.012430
ecomorph,0.020940
ecospac,0.041881
effect,0.012445
elton,0.029854
eltonian,0.065395
embodi,0.009873
emphas,0.007494
emphasi,0.007745
employ,0.005664
empti,0.010180
enabl,0.006772
enemi,0.009544
environ,0.039624
environment,0.041192
equival,0.020635
escap,0.008573
especi,0.004958
estim,0.006009
euphorbia,0.018020
evelyn,0.014793
evolut,0.006933
evolv,0.007009
exampl,0.042069
exclus,0.014590
exhibit,0.016122
exist,0.021232
exot,0.011375
explain,0.022994
extern,0.003339
extinct,0.019415
extrem,0.018376
fact,0.005421
factor,0.016243
feed,0.019606
felicit,0.017694
figur,0.006324
fit,0.007774
flightless,0.017907
flow,0.006724
focu,0.006264
focus,0.005944
follow,0.003652
food,0.032860
forag,0.012976
forc,0.004576
forest,0.008781
form,0.006980
free,0.005215
french,0.006145
frequenc,0.017453
function,0.004675
fundament,0.011695
g,0.006177
gaussian,0.012660
gaylord,0.017229
generalist,0.014604
geograph,0.022279
georg,0.006581
given,0.009159
grassland,0.039850
great,0.005146
greater,0.005751
grinnel,0.039132
grinnellian,0.043597
ground,0.006644
grounddwel,0.021333
group,0.008238
grow,0.023421
growth,0.011559
ha,0.012179
habit,0.009681
habitat,0.106501
handicap,0.014428
hardin,0.016694
help,0.004999
herbivor,0.013530
hi,0.008188
high,0.004623
highli,0.006011
hill,0.009083
histogram,0.016764
histori,0.003803
hors,0.009863
howev,0.011117
human,0.004399
hutchinson,0.084804
hutchinsonian,0.038723
hypervolum,0.043597
hypothesi,0.007953
idea,0.015375
ident,0.006538
ignor,0.015841
illustr,0.007787
impact,0.012515
import,0.003894
includ,0.003169
independ,0.004690
indic,0.005617
indigen,0.009104
individu,0.004710
inequ,0.009607
inhabit,0.007938
init,0.019787
inquir,0.013451
inspir,0.007555
instanc,0.024736
interact,0.011394
interfer,0.009320
interspecif,0.016433
introduc,0.016069
introduct,0.006053
invad,0.009132
invas,0.016653
island,0.020303
johnson,0.010434
joseph,0.007524
jump,0.021085
kestrel,0.020940
kiwi,0.019173
konik,0.021798
landscap,0.009519
latitudenich,0.021798
lead,0.009109
led,0.009854
left,0.018256
leg,0.011332
levin,0.013301
life,0.029444
light,0.006293
limit,0.004662
link,0.003319
littl,0.005842
live,0.034551
lizard,0.027518
long,0.004956
macarthur,0.014544
major,0.004049
mammallik,0.019566
mani,0.017251
mathemat,0.006000
mean,0.025223
mechan,0.005637
median,0.011884
mice,0.037252
microhabitat,0.020031
middl,0.006293
misguid,0.014728
mode,0.017187
model,0.009509
modif,0.009073
modifi,0.007448
mostli,0.006512
multidimension,0.012882
narrow,0.017239
nativ,0.007889
naturalist,0.010398
ndimension,0.014485
near,0.006276
need,0.004588
nest,0.011822
neutral,0.008355
new,0.010229
ni,0.013432
nich,0.831764
nicher,0.021798
nonindigen,0.017594
nonlimit,0.020600
nonlinear,0.010457
nonn,0.015337
nonstandard,0.013781
notion,0.007221
nt,0.014485
number,0.007637
nutrient,0.010830
oak,0.012291
occupi,0.045915
occur,0.014549
occurr,0.009873
offspr,0.011453
old,0.006315
onc,0.005703
onli,0.010541
ontolog,0.010457
open,0.005225
opportun,0.007210
order,0.004206
organ,0.058291
outcompet,0.015638
overemphasi,0.035388
overlap,0.050904
overpopul,0.014010
owl,0.028527
paleontologist,0.015297
paper,0.006298
paramet,0.017600
parasit,0.011299
particular,0.023889
particularli,0.005353
partit,0.010573
pathogen,0.012279
pattern,0.006512
persist,0.017309
perspect,0.006830
phylogenet,0.012069
physic,0.004994
place,0.008633
plain,0.009975
plant,0.019881
plot,0.009355
pollut,0.010268
popul,0.021724
popular,0.005461
posit,0.013571
possibl,0.004464
postul,0.018836
potenti,0.005667
practic,0.004683
preadapt,0.019173
predat,0.038867
premier,0.010957
presenc,0.006619
pressur,0.006588
presumpt,0.013803
prey,0.059635
primari,0.005778
principl,0.010508
probabl,0.012561
produc,0.004554
program,0.005506
project,0.005416
properti,0.005299
prove,0.006755
provid,0.003883
question,0.005496
quit,0.007397
radiat,0.008766
rang,0.021017
rare,0.007203
rate,0.005424
realiz,0.023286
recess,0.009935
refer,0.002775
regard,0.005325
region,0.004971
rel,0.009954
relat,0.011228
relationship,0.005298
repres,0.004553
represent,0.007003
reproduc,0.018836
requir,0.013110
research,0.004503
resourc,0.134881
resourceutil,0.043597
respect,0.015837
respond,0.014974
respons,0.004814
restrict,0.006433
result,0.015467
richard,0.006858
right,0.004981
river,0.007589
robert,0.006103
role,0.004863
roswel,0.020031
scarc,0.010630
segment,0.009511
segreg,0.012148
share,0.010819
short,0.005919
shrew,0.016764
shuffl,0.015032
similar,0.027680
simpli,0.006304
simpson,0.012945
singl,0.005170
size,0.012033
small,0.009455
sourc,0.004859
space,0.023826
spatial,0.009031
speci,0.319746
specialist,0.009586
speciesse,0.021798
specif,0.027735
specifi,0.007855
spot,0.009672
standard,0.010407
statist,0.012676
statu,0.006452
strategi,0.007196
strong,0.005613
structur,0.004514
subsequ,0.006029
subtl,0.011426
subtli,0.015419
succul,0.018394
suit,0.008981
sum,0.007706
surround,0.007075
surviv,0.026653
sutherland,0.015378
tarpan,0.021333
tawni,0.020299
taxonom,0.025072
term,0.014602
theori,0.009057
thi,0.026007
thrasher,0.059363
thu,0.004516
time,0.010255
topic,0.006129
trait,0.009154
trophic,0.014859
turn,0.005341
type,0.009290
uk,0.007081
underbrush,0.062821
unfil,0.017694
unifi,0.008087
unlik,0.006433
use,0.025254
usual,0.004649
util,0.006989
vacant,0.056237
vari,0.011390
variabl,0.021187
variat,0.007242
varieti,0.011601
veri,0.004412
virtu,0.009789
wa,0.019006
wall,0.008180
water,0.005959
watersh,0.012417
way,0.008261
whi,0.007108
width,0.038979
wild,0.009911
wing,0.010518
wood,0.008915
word,0.010725
work,0.003787
worm,0.012172
zealand,0.009186
zone,0.023956
zoologist,0.013510
