acceler,0.007719
accur,0.006838
act,0.013761
action,0.004931
activ,0.048059
addit,0.008120
affect,0.015734
align,0.017341
allel,0.023901
allow,0.019956
alter,0.007199
amen,0.011303
analys,0.007846
analysi,0.004838
ancestor,0.008626
andor,0.007023
ani,0.003537
anim,0.016853
ankl,0.014701
annot,0.010990
anoth,0.019301
antagonist,0.011677
anteriorposterior,0.081776
appendag,0.013521
appreci,0.008906
approach,0.013857
aris,0.006547
ase,0.047980
assay,0.012556
asymmetr,0.021961
asymmetri,0.011950
attach,0.007598
attain,0.008124
avail,0.004906
away,0.024455
axe,0.010980
axi,0.046024
backward,0.009982
basal,0.012636
base,0.006994
becom,0.007748
begin,0.004718
best,0.005334
billboard,0.015323
bind,0.066857
biolog,0.011479
black,0.006531
blast,0.011846
block,0.007209
bodi,0.004856
bound,0.036207
bp,0.036374
brain,0.015488
broad,0.006500
broken,0.008069
bud,0.012157
cancer,0.017828
caus,0.004326
cell,0.104565
cellular,0.008968
centg,0.021114
certain,0.004436
chang,0.021926
character,0.024591
characterist,0.005586
chimp,0.015993
chimpanze,0.025355
chipseq,0.019924
chromatin,0.040744
chromosom,0.031601
cisact,0.020444
cisregulatori,0.055662
class,0.005376
clone,0.011114
close,0.008674
closer,0.008020
cluster,0.008893
coactiv,0.018308
cofactor,0.013521
collect,0.004728
combin,0.018489
compar,0.014384
complet,0.008954
complex,0.023718
comput,0.021487
concentr,0.012688
conserv,0.045046
consider,0.005448
constitut,0.005118
construct,0.005020
contain,0.032556
contribut,0.009516
control,0.017229
cooper,0.006196
coordin,0.006872
cortex,0.011788
creat,0.007930
critic,0.019075
crm,0.136229
current,0.004150
dark,0.008383
data,0.010347
date,0.005418
decreas,0.006384
depend,0.004277
describ,0.003990
detect,0.007119
determin,0.009004
develop,0.055119
development,0.073012
diamet,0.010592
differ,0.024058
differenti,0.032822
diffus,0.008857
direct,0.012915
disabl,0.009441
discov,0.005709
discoveri,0.030360
distinct,0.004993
diverg,0.008762
divers,0.006235
dna,0.058569
dnabind,0.017363
dnaseseq,0.020444
doesnt,0.009693
domain,0.018995
downstream,0.037788
dramat,0.007321
drive,0.069656
driven,0.007547
drosophila,0.063705
dure,0.018659
dysregul,0.016470
earli,0.023423
easili,0.006686
effect,0.011375
element,0.014892
elementsgenet,0.021114
elev,0.008708
elsewher,0.008046
embryo,0.086525
embryon,0.011920
enabl,0.012379
encod,0.009504
endoderm,0.064326
enhanc,0.585583
enhanceosom,0.021114
environ,0.005173
environment,0.006275
epiblast,0.019924
epigenet,0.012556
epigenom,0.016938
establish,0.016661
eukaryot,0.032253
eve,0.034264
evenskip,0.021114
evid,0.010644
evodevo,0.015993
evolut,0.031686
evolutionari,0.007689
evolv,0.012813
exampl,0.013982
excis,0.012440
exist,0.003881
exon,0.015259
expans,0.006585
explor,0.005947
express,0.212399
extend,0.005148
extens,0.005270
extern,0.003052
facilit,0.007036
factor,0.074233
factorbeta,0.020444
factorbind,0.020444
fail,0.011736
falseposit,0.017071
famili,0.010809
far,0.005292
fin,0.024881
fish,0.029129
flexibl,0.008641
fli,0.043560
fluoresc,0.011373
fold,0.019900
follow,0.003338
foot,0.009068
forebrain,0.035048
fork,0.013136
forkhead,0.019924
form,0.006380
forward,0.007408
fox,0.021502
foxa,0.021114
foxdriven,0.021114
fragil,0.022381
freshwat,0.055156
fruit,0.016541
function,0.025638
furthermor,0.007152
gaddg,0.084458
gap,0.024374
gastrul,0.017883
gata,0.077996
gene,0.429212
gener,0.008997
genet,0.021267
genom,0.085304
germ,0.022515
goal,0.005740
goe,0.007510
gradient,0.009930
gray,0.010412
greater,0.005256
green,0.007177
growth,0.015848
guid,0.005901
gut,0.023932
guttifera,0.021114
ha,0.041745
hacn,0.063344
head,0.010776
high,0.004226
highli,0.010988
highoccup,0.019924
highthroughput,0.014557
hinder,0.010517
hold,0.005027
homeobox,0.016081
homolog,0.010742
howev,0.003387
human,0.044232
hundr,0.019024
hybrid,0.008719
ident,0.017928
identif,0.032884
identifi,0.020181
ii,0.010924
immun,0.018271
imprecis,0.012941
includ,0.005794
increas,0.016053
independ,0.008573
indic,0.010268
individu,0.008610
induc,0.008264
inflamm,0.051583
inform,0.004149
initi,0.009069
inject,0.010305
insect,0.018967
insert,0.009681
integr,0.020146
interact,0.020829
intermedi,0.008202
intervein,0.042229
intron,0.058230
investig,0.011696
involv,0.020230
isol,0.006776
jaspar,0.021114
journal,0.005368
key,0.010621
kilobas,0.034143
known,0.010461
lacz,0.061332
larg,0.003677
largescal,0.008130
late,0.004831
later,0.012449
layer,0.016064
left,0.005562
leftcf,0.021114
leftright,0.028265
leg,0.010358
lesser,0.008554
librari,0.013110
ligand,0.012384
lighter,0.010950
like,0.011180
likelihood,0.009676
limb,0.021842
limit,0.004261
linear,0.007424
link,0.003034
littl,0.010680
local,0.004725
locat,0.056432
long,0.004530
loss,0.012205
lost,0.006063
low,0.005347
machinelearn,0.016173
machineri,0.008604
maintain,0.004865
make,0.003548
malign,0.013012
mammal,0.008832
mani,0.012614
marin,0.015974
matern,0.022294
mbp,0.017213
measur,0.004569
mechan,0.010304
mediat,0.017094
medic,0.006425
medicin,0.006652
melanin,0.016081
melanogast,0.027287
member,0.004451
mesh,0.012242
mesoderm,0.030912
method,0.017284
mice,0.011349
million,0.005480
mimic,0.011691
model,0.004346
modif,0.008292
modul,0.009420
moreov,0.008004
morphogenesi,0.013740
morpholog,0.019117
motif,0.011546
mous,0.011458
mrna,0.012873
multipl,0.026831
mutat,0.019375
narrow,0.007878
nation,0.003866
natur,0.003724
near,0.022946
nearli,0.012153
necessari,0.005560
need,0.004194
neurogenesi,0.017213
neuron,0.010194
new,0.003116
nextgener,0.015456
nfb,0.035767
ng,0.013187
ngsbase,0.021114
nodal,0.128652
node,0.042069
noncod,0.013946
nonexpress,0.019924
normal,0.005561
novel,0.007722
nucleosomedeplet,0.021114
number,0.010471
occur,0.008865
offset,0.010145
onli,0.009634
open,0.004776
oppos,0.005830
organ,0.003805
orient,0.007269
outlook,0.010002
overlap,0.015509
p,0.005326
pair,0.022305
pairrul,0.077996
pancrea,0.014293
particular,0.008734
particularli,0.004892
patch,0.022794
pathway,0.009370
pattern,0.089292
pcbp,0.021114
pee,0.057419
pelvic,0.084795
permit,0.014212
perturb,0.010843
phenotyp,0.021502
pigment,0.093532
pitx,0.081776
plate,0.009059
plu,0.007849
point,0.008094
polymeras,0.024416
polymorph,0.011996
popul,0.014892
portion,0.007010
possibl,0.004080
posterior,0.037848
precis,0.013180
predict,0.011707
preliminari,0.010670
presenc,0.006050
primari,0.015843
primit,0.017705
process,0.011346
produc,0.024976
product,0.004169
prokaryot,0.023781
promot,0.022828
proper,0.007177
protein,0.081276
proven,0.016900
provid,0.007099
proxim,0.018494
quickli,0.006512
rais,0.005901
randomli,0.010815
read,0.004406
reason,0.004553
recent,0.013181
recruit,0.009354
redistribut,0.010550
reduct,0.007300
redund,0.011223
refer,0.010149
reflect,0.005452
region,0.049980
regul,0.048055
reli,0.006113
remodel,0.014056
remov,0.005858
repair,0.009033
repeat,0.007323
report,0.039014
repress,0.047848
repressor,0.045969
reprogram,0.014056
requir,0.003994
research,0.004116
respons,0.039608
rest,0.005944
restrict,0.017642
result,0.007068
ret,0.018086
retain,0.006672
revers,0.006985
rna,0.010452
robust,0.009190
role,0.008889
rule,0.004631
score,0.009300
second,0.004164
secondari,0.007225
segment,0.034773
select,0.005517
separ,0.009271
sequenc,0.133837
sequencespecif,0.017697
set,0.003930
sever,0.011044
shade,0.011559
shadow,0.009886
sharp,0.008575
short,0.005410
shown,0.018356
signal,0.029203
silenc,0.033944
similar,0.004216
similarli,0.013380
sinc,0.003531
singl,0.009451
site,0.071378
sitea,0.019924
situ,0.012536
sometim,0.004596
space,0.005444
spatial,0.024765
speci,0.025978
special,0.004416
specif,0.004225
specifi,0.007179
spine,0.047803
split,0.007257
spot,0.035363
stage,0.006166
stain,0.011637
standard,0.004756
start,0.008939
state,0.003089
step,0.011975
stickleback,0.087622
stomach,0.011832
streak,0.014252
stretch,0.008901
strike,0.007854
stripe,0.051492
structur,0.004125
studi,0.003731
subject,0.013476
suggest,0.004943
sum,0.007044
supercoil,0.018308
superenhanc,0.021114
superenhancerassoci,0.021114
superfamili,0.014557
supervis,0.008443
suppress,0.008086
surround,0.006466
surveil,0.011147
surviv,0.006090
tcf,0.018308
techniqu,0.005426
technolog,0.005091
temperatur,0.014277
tempor,0.009305
tetrapodspitx,0.021114
tfb,0.020444
tfbind,0.021114
tfsearch,0.021114
thalamu,0.016579
theme,0.007820
theori,0.008278
therebi,0.007309
thi,0.023771
thorough,0.010592
thousand,0.012455
thread,0.011268
threespin,0.019499
thu,0.033023
thumb,0.012225
time,0.003124
tissu,0.051199
tractabl,0.013012
tradit,0.004446
train,0.006097
transact,0.007603
transcrib,0.011875
transcript,0.239856
transform,0.005780
translat,0.012158
transposon,0.015197
trap,0.009252
true,0.005717
truli,0.008848
turn,0.014645
type,0.004245
typic,0.004737
undergon,0.011021
uniqu,0.018063
unknown,0.007311
unrel,0.010096
upstream,0.051583
use,0.008656
usual,0.008499
valid,0.006743
vastli,0.011041
vein,0.010517
ventral,0.014252
veri,0.004032
vertebr,0.020985
viscer,0.014963
visual,0.007450
vivo,0.012636
wa,0.002895
walk,0.009020
way,0.007551
wellcharacter,0.017697
wherea,0.012255
wing,0.038455
wingless,0.052573
wnt,0.037657
work,0.017309
year,0.003563
yellow,0.029753
zebrafish,0.030646
zone,0.007298
