ab,0.050084
abl,0.007214
accept,0.003585
access,0.019756
accumul,0.016435
achiev,0.003592
acid,0.011507
acquir,0.009303
act,0.019583
activ,0.028496
adapt,0.009095
addit,0.040447
advantag,0.004432
advent,0.006245
affect,0.014927
aid,0.004284
aim,0.004077
alevel,0.010170
alexey,0.011150
allel,0.093536
allevi,0.007623
allow,0.008519
alon,0.029302
alreadi,0.004160
alter,0.005122
altern,0.011008
alway,0.003840
amino,0.014784
analog,0.005102
analysi,0.013770
ani,0.017618
anoth,0.013733
antagonist,0.024927
antibiot,0.016118
appli,0.003052
aris,0.009318
arrang,0.004655
artifici,0.009645
asexu,0.009192
assay,0.053604
assum,0.007912
attempt,0.003257
avail,0.006981
averag,0.004265
b,0.007565
background,0.019618
bacterium,0.008748
bald,0.010140
becaus,0.015553
becom,0.002756
benefici,0.075832
better,0.007766
bind,0.005946
biochem,0.007079
biochemist,0.009175
biochemistri,0.013689
biolog,0.020420
block,0.005129
bond,0.004918
brain,0.011020
branch,0.003661
break,0.004746
bridg,0.005689
bypass,0.007986
carri,0.003717
case,0.008650
casecontrol,0.011379
caseonli,0.014546
catalysi,0.009364
catalyt,0.017703
caus,0.018469
cefotaxim,0.014546
centuri,0.002961
challeng,0.004119
chang,0.015601
characterist,0.003975
chemic,0.004391
chemistri,0.005054
classic,0.003810
classif,0.010178
cleav,0.009458
coadapt,0.012724
codon,0.009776
combin,0.026312
come,0.003298
commonli,0.003830
compens,0.011659
compensatori,0.010391
compet,0.004755
complement,0.020403
complex,0.020251
complic,0.010454
compon,0.027806
compos,0.004376
compromis,0.006631
comput,0.015288
concept,0.003219
concert,0.007777
condit,0.003227
confus,0.005191
connect,0.011393
consequ,0.011767
consid,0.013450
consider,0.003876
constrain,0.006706
contact,0.004840
contain,0.003309
continu,0.002794
contrast,0.007793
contribut,0.003385
converg,0.006076
convers,0.023795
cooper,0.008817
copi,0.033366
correct,0.004645
correl,0.005376
coupl,0.005337
cours,0.004020
coval,0.008188
cover,0.003797
creationist,0.010949
critic,0.003393
cross,0.005034
cycl,0.009457
cystein,0.020992
cytonuclear,0.014546
d,0.003734
data,0.003681
deceler,0.009497
decompos,0.007477
deleteri,0.130356
denot,0.005628
dens,0.006566
departur,0.007084
depend,0.015218
describ,0.005678
destabilis,0.010728
destroy,0.004823
determinist,0.007364
detriment,0.007579
develop,0.004613
development,0.006493
devis,0.006328
differ,0.039126
digit,0.005151
dimer,0.009685
diploid,0.046734
direct,0.003063
directli,0.003706
display,0.005242
distribut,0.003806
disulphid,0.013397
diverg,0.006234
domin,0.011387
doubl,0.045964
doublecystein,0.014546
drastic,0.006905
drop,0.010126
earli,0.011110
effect,0.094429
effici,0.004348
empir,0.003875
encod,0.027051
energi,0.011663
enhanc,0.025719
environ,0.018406
enzym,0.040509
epistasi,0.600368
epistasisorg,0.015023
epistat,0.139749
escap,0.005575
eventu,0.003947
evid,0.007574
evolut,0.049600
evolutionari,0.049244
evolv,0.022792
exampl,0.037308
exhibit,0.010485
exist,0.002761
expand,0.003928
expect,0.022894
experiment,0.004638
explicitli,0.005653
export,0.005094
express,0.007196
extern,0.002171
extrem,0.007967
factor,0.010563
far,0.003765
favor,0.004586
field,0.003032
fit,0.136517
fitter,0.023291
fittest,0.009872
focu,0.004074
focus,0.003865
fold,0.014159
follow,0.002375
form,0.009079
free,0.003392
frequenc,0.011350
frequent,0.012524
function,0.021283
fungu,0.009707
gateway,0.017072
gcse,0.010532
gene,0.299633
gener,0.010669
genet,0.141233
geneticinteractionsorg,0.014546
geneticist,0.018131
genom,0.026976
genomewid,0.021140
genotyp,0.051216
geometri,0.006056
given,0.002978
global,0.007887
greater,0.003740
greaterthanaddit,0.014546
growth,0.007517
gwia,0.014546
ha,0.029702
hair,0.007070
haploid,0.029329
haploinsuffici,0.012869
harder,0.007381
harm,0.005725
height,0.011842
held,0.003511
heteroallel,0.014546
heterodim,0.012724
heterozyg,0.021294
heterozygot,0.032184
high,0.006014
higher,0.003530
highli,0.011728
histori,0.007420
homodim,0.012869
howev,0.016870
hundr,0.004512
hydrophob,0.009517
hypomorph,0.027748
hypostat,0.013397
hypothesi,0.015518
idea,0.003333
identif,0.005849
implic,0.005174
implicitli,0.007871
improv,0.021926
inactiv,0.009974
includ,0.002061
increas,0.002855
increasingli,0.004377
independ,0.018300
indic,0.003653
indirect,0.006452
individu,0.015315
induc,0.005880
inevit,0.006542
influenc,0.003270
inform,0.002952
inherit,0.005506
inhibit,0.007311
interact,0.107452
interactom,0.012591
interallel,0.014546
intermedi,0.011672
intern,0.002602
interpret,0.003961
intersnp,0.014546
intim,0.007431
intragen,0.013874
introduc,0.003483
introductori,0.007079
investig,0.004161
involv,0.002878
irreduc,0.008662
just,0.003462
key,0.003778
kill,0.009804
knock,0.009050
known,0.002481
kondrashov,0.029093
lack,0.003785
lactamas,0.014176
landscap,0.092862
larg,0.013083
larger,0.003918
lead,0.014811
lethal,0.034233
level,0.008906
like,0.002651
limit,0.003032
link,0.002158
littl,0.003799
local,0.016812
locat,0.003650
loci,0.044531
locu,0.064539
long,0.003223
longer,0.012283
look,0.004099
lossoffunct,0.012469
low,0.003804
lower,0.007336
magnitud,0.030624
make,0.007573
mani,0.006731
manner,0.004791
mask,0.007871
massiv,0.005282
maxima,0.041045
maximum,0.010796
meant,0.005091
measur,0.003251
mechan,0.003666
member,0.003167
metabol,0.026319
metaphor,0.006981
method,0.003074
methodolog,0.005254
minim,0.005239
minor,0.004594
misidentifi,0.011442
model,0.015461
modifi,0.009687
molecul,0.005360
molecular,0.010377
moreov,0.005695
multicompon,0.010997
multipl,0.011454
mutagenesi,0.010857
mutant,0.145050
mutat,0.510089
natur,0.005300
nearbi,0.006109
necessari,0.003956
need,0.005968
neg,0.060267
network,0.041502
nonaddit,0.026054
noncomplement,0.014176
nonfunct,0.010570
nonlinear,0.006801
number,0.002483
observ,0.009829
occur,0.031540
onli,0.009140
opposit,0.012254
optimis,0.009159
order,0.010942
organ,0.043325
orient,0.005172
origin,0.005502
overal,0.004543
pair,0.010580
parallel,0.005143
paramet,0.005723
partial,0.004566
particular,0.006214
partit,0.006876
pass,0.003856
pathway,0.053336
peak,0.010894
penicillin,0.009776
perfectli,0.006897
perform,0.003489
phenomenon,0.005112
phenotyp,0.107095
phosphoru,0.032717
phosphoryl,0.019415
pigment,0.008318
pleiotropi,0.012147
point,0.011518
polar,0.006081
polygen,0.011507
popul,0.024724
posit,0.029420
possibl,0.005807
precari,0.009225
precis,0.004689
precursor,0.006201
predict,0.004165
presenc,0.012914
present,0.005692
priorit,0.008698
process,0.005382
produc,0.020733
product,0.002966
profound,0.012987
prohibit,0.005808
promot,0.004060
properti,0.003446
propos,0.007024
protect,0.003794
protein,0.115661
provid,0.002525
pure,0.009002
qtl,0.012469
quantifi,0.006396
quantit,0.021154
radic,0.005218
random,0.005430
rang,0.003417
rare,0.014054
rate,0.003527
reach,0.003669
real,0.003747
reciproc,0.020345
red,0.005004
reduc,0.006840
refer,0.010832
region,0.003232
regress,0.028486
rel,0.006474
relat,0.004868
remaind,0.006699
remov,0.012505
repeat,0.005211
repres,0.005923
represent,0.004554
reproduct,0.012265
requir,0.002842
residu,0.006968
resourc,0.003654
result,0.005029
ribosom,0.008851
ridg,0.007908
rna,0.014874
robust,0.013079
rug,0.047293
rule,0.003295
scale,0.004086
school,0.003673
scienc,0.006072
scientif,0.003632
second,0.014815
seen,0.003542
select,0.019629
sens,0.011144
separ,0.006596
sequenc,0.010024
set,0.008390
sever,0.010477
sex,0.012502
sexual,0.017797
shape,0.008606
shift,0.004375
shown,0.004353
sign,0.033095
signal,0.005194
signific,0.003207
similarli,0.004760
simpl,0.007984
simpli,0.004099
simul,0.005459
sinc,0.007537
singl,0.040350
singlecystein,0.014546
site,0.008464
sitedirect,0.012354
situat,0.003868
smaller,0.012817
smooth,0.019990
snp,0.010532
softwar,0.005323
sometim,0.019625
sophist,0.005780
space,0.003873
spars,0.015147
specif,0.006012
stabil,0.023429
stabilis,0.008558
start,0.006361
state,0.002198
statist,0.008244
straightforward,0.007954
strict,0.005838
strong,0.003650
structur,0.008807
stuck,0.008760
studi,0.010621
sum,0.010024
suppress,0.023015
suppressor,0.042432
surfac,0.004549
synergist,0.031941
synthes,0.013059
synthet,0.024926
talk,0.005406
teach,0.004922
tem,0.011507
tend,0.008252
term,0.018993
terminolog,0.005916
territori,0.004397
tertiari,0.007598
test,0.012322
th,0.002881
theori,0.002945
therefor,0.013660
thi,0.054501
think,0.008714
thought,0.007121
thousand,0.004431
threshold,0.006999
thu,0.005874
time,0.002223
togeth,0.024253
topolog,0.006913
total,0.003505
toxin,0.017230
tradeoff,0.008101
trait,0.047626
trajectori,0.022485
tran,0.007709
transcript,0.014840
transsplic,0.013874
transvect,0.013874
treat,0.004399
tri,0.003954
triad,0.010230
type,0.015104
uncorrel,0.010391
understand,0.006821
uniqu,0.004284
unlink,0.011645
uphil,0.032708
use,0.030795
usual,0.006047
valley,0.017431
vari,0.007408
variabl,0.009186
varianc,0.015086
variant,0.030433
variou,0.002860
veri,0.002869
versu,0.005864
viabil,0.008569
viabl,0.013827
visual,0.005301
wa,0.008240
wast,0.012054
way,0.008059
weight,0.010128
whenev,0.007070
wherea,0.008720
wherebi,0.017031
wild,0.025784
wildtyp,0.010949
world,0.002547
wrong,0.005909
