abl,0.005983
abov,0.003032
abund,0.009606
access,0.003277
accord,0.002368
accumul,0.009087
action,0.005820
add,0.004516
address,0.003566
administr,0.003311
affect,0.003095
afroarab,0.009658
aggreg,0.020035
agricultur,0.003520
al,0.008125
alga,0.019658
algorithm,0.004748
alist,0.009783
aljahiz,0.008932
alloc,0.004726
alter,0.004248
altern,0.003043
alway,0.003184
analysi,0.008565
analyt,0.004318
analyz,0.003981
ani,0.004174
anim,0.026521
anomali,0.006467
anoth,0.011390
antiherbivor,0.011757
apex,0.007375
appear,0.002743
applic,0.002828
aquat,0.076590
arctic,0.006552
area,0.009409
arithmet,0.005783
arrang,0.003861
assembl,0.003697
assimil,0.012364
associ,0.004627
assum,0.003281
atmospher,0.013919
attribut,0.011045
autotroph,0.115514
averag,0.007075
bacteria,0.016312
bacterium,0.007255
bank,0.006850
basal,0.029828
base,0.018574
basi,0.011800
basic,0.002873
bdellovibrio,0.011757
bear,0.008864
becam,0.002610
becaus,0.004299
becom,0.004572
behavior,0.003350
behaviour,0.004403
better,0.006441
binari,0.005703
biocomplex,0.009995
biofilm,0.009388
biolog,0.010161
biomass,0.129857
biominer,0.019439
block,0.004254
blue,0.005090
bodi,0.005731
book,0.005428
bottomup,0.015274
boundari,0.007974
broadli,0.014341
broken,0.004761
bruckner,0.020315
build,0.003022
bulk,0.005062
c,0.008199
cal,0.008798
calcul,0.010933
camerano,0.011506
captur,0.007854
carbohydr,0.006740
carbon,0.018647
carnivor,0.045342
carnivori,0.010553
carrion,0.009438
cascad,0.034377
case,0.002391
categori,0.010949
cattin,0.011757
caus,0.007659
ccfrac,0.011506
center,0.003050
central,0.005362
certain,0.002617
chain,0.094012
challeng,0.003416
chang,0.010782
character,0.010883
characterist,0.003296
charl,0.021980
chemic,0.018210
chemolithotroph,0.010949
chlorophyl,0.008229
choa,0.011757
classic,0.012641
classif,0.012662
classifi,0.003869
cliqu,0.008339
close,0.002559
cluster,0.005248
cn,0.007224
cohen,0.006296
cohes,0.006206
colleagu,0.005170
collect,0.005580
come,0.008207
common,0.011565
commun,0.027515
communitylevel,0.010804
compar,0.008488
compart,0.029876
complet,0.005284
complex,0.069983
complic,0.004335
compon,0.006589
composit,0.011897
compound,0.004310
comput,0.003169
concentr,0.003743
concept,0.024027
concern,0.005371
conclud,0.003912
confus,0.004305
connect,0.056696
connected,0.008618
consecut,0.006467
consid,0.002231
consist,0.005121
constraint,0.004749
consum,0.076186
consumerresourc,0.021346
consumpt,0.004462
contain,0.005489
content,0.003774
context,0.003365
continu,0.009272
contrast,0.003231
contribut,0.002807
control,0.015250
convers,0.003946
convert,0.003899
convey,0.005776
coral,0.006323
correl,0.004459
cost,0.003363
cp,0.007308
creat,0.004680
creatur,0.005834
cross,0.004175
crossboundari,0.010949
cyanobacteria,0.007893
cybernet,0.006836
cycl,0.043140
cyclic,0.005942
d,0.006194
daphnia,0.011506
dark,0.004947
darwin,0.010707
data,0.003053
day,0.002886
dead,0.009592
death,0.003350
decay,0.010520
deciph,0.007079
decompos,0.043411
decomposit,0.012491
decreas,0.011302
deer,0.021797
defens,0.004199
defin,0.013127
dens,0.005445
densiti,0.009233
depend,0.007572
depict,0.023860
deriv,0.002908
describ,0.011773
descript,0.006994
determin,0.005313
detrit,0.071725
detritivor,0.046240
detritu,0.034821
develop,0.003826
diagram,0.015788
dictat,0.005471
diet,0.033941
differ,0.034478
difficult,0.003336
difficulti,0.004131
digest,0.005845
dimens,0.004401
dioxid,0.011243
direct,0.007621
directli,0.012295
discontinu,0.005808
discoveri,0.003583
discret,0.004512
dispers,0.005250
displaystyl,0.004382
dissolv,0.004751
distanc,0.008147
distinct,0.002946
distribut,0.006313
divers,0.003679
divid,0.003033
domin,0.006296
dramat,0.004320
dri,0.010021
dual,0.005393
dung,0.008968
dure,0.002202
dynam,0.035867
e,0.006200
earlier,0.006806
earliest,0.007699
earth,0.014464
earthworm,0.024753
eat,0.053750
eaten,0.013896
ecolog,0.069447
ecologist,0.080456
ecosystem,0.109709
edg,0.005025
edibl,0.007433
educ,0.002934
effect,0.006712
effici,0.007212
eighti,0.006883
element,0.005858
elton,0.064410
emerg,0.014759
emphas,0.012127
empir,0.006427
employ,0.003055
encount,0.004536
end,0.002518
energi,0.145099
entangl,0.014177
entir,0.005975
entropi,0.006250
environ,0.009159
environment,0.007405
epr,0.008646
equal,0.006273
equilibrium,0.004813
escap,0.004624
especi,0.005349
et,0.007918
eventu,0.003273
everi,0.002882
evid,0.012563
evolutionari,0.004537
examin,0.003605
exampl,0.026816
exchang,0.003255
excret,0.014866
exhibit,0.004348
exist,0.011452
expend,0.007375
experi,0.002832
experiment,0.003847
explain,0.006201
explicitli,0.004688
extens,0.003110
extracellular,0.014705
extract,0.004433
exud,0.018876
faec,0.009921
faecal,0.011111
farther,0.006433
featur,0.003114
fece,0.008434
feed,0.063450
feedback,0.011186
fiber,0.005982
field,0.002515
fish,0.004297
flow,0.058034
flux,0.018177
focu,0.003379
follow,0.001970
food,0.432460
foodchain,0.011757
foodweb,0.031024
foothold,0.015114
forc,0.002468
forest,0.004736
form,0.018826
format,0.003359
formula,0.008601
forti,0.006149
fossil,0.005338
fraction,0.009641
framework,0.003528
frass,0.010673
free,0.002813
function,0.030259
fungi,0.005962
gain,0.002996
gase,0.005491
gener,0.015928
generalist,0.007877
geograph,0.004005
giant,0.005385
global,0.003270
gm,0.007978
gradient,0.005860
graph,0.005479
graphic,0.015892
graze,0.013831
grazer,0.019439
greater,0.006204
greenworld,0.011757
group,0.013330
grow,0.009474
grown,0.004743
growth,0.021822
guano,0.009042
gut,0.007061
ha,0.018065
half,0.003390
hardi,0.007214
heat,0.013028
help,0.005392
henc,0.003842
herbivor,0.051083
herbivori,0.009248
heterogen,0.006191
heterotroph,0.074259
heurist,0.006302
hi,0.013250
hierarchi,0.010038
high,0.007481
higher,0.002928
highest,0.003771
histor,0.008300
histori,0.004102
hold,0.002966
hot,0.010847
howev,0.007995
hub,0.006393
human,0.007118
hunt,0.009941
hydrotherm,0.007961
hypothesi,0.017160
idea,0.002764
ident,0.003526
identifi,0.014886
illustr,0.025201
imag,0.003792
impact,0.003375
import,0.006301
improv,0.003030
includ,0.027355
increas,0.014210
independ,0.002529
indigest,0.009600
indirect,0.010702
indirectli,0.010615
individu,0.002540
influenc,0.021701
inorgan,0.011516
insight,0.004568
instanc,0.003335
insurmount,0.009042
integr,0.002972
interact,0.046094
interactor,0.023515
interconnect,0.005954
intermedi,0.004840
interplay,0.006813
intertid,0.009121
intract,0.007531
introduc,0.002889
invalu,0.008051
invers,0.005200
invert,0.026626
invertebr,0.006540
investig,0.010353
involv,0.004775
isbn,0.002911
island,0.003650
isotop,0.005966
jar,0.007531
joel,0.007194
john,0.005602
just,0.002871
k,0.003734
key,0.003134
keyston,0.017181
kill,0.004065
kind,0.019683
known,0.004115
l,0.010874
laboratori,0.004178
lack,0.003139
land,0.003116
landmark,0.017392
larg,0.008680
larger,0.019501
lattic,0.006140
law,0.012402
layer,0.004739
ld,0.007844
leachat,0.011294
lead,0.004913
leaf,0.006677
leav,0.006974
led,0.002657
length,0.044938
level,0.078791
life,0.026469
lifespan,0.006783
like,0.002199
limit,0.012573
lindeman,0.039134
linear,0.004381
link,0.032227
linkag,0.025966
linkdens,0.011757
lipid,0.006485
literatur,0.003678
litter,0.007944
littl,0.003151
live,0.021298
log,0.005768
longer,0.006791
loop,0.005670
loos,0.005118
lorenzo,0.007707
loss,0.003601
lost,0.007156
lower,0.003042
ls,0.008510
lump,0.007297
m,0.005889
macrophyt,0.011757
main,0.002606
mainli,0.003418
maintain,0.011483
mainten,0.004939
major,0.002184
mani,0.031636
manur,0.008646
map,0.007533
marin,0.004713
mass,0.003376
materi,0.020196
mathemat,0.022657
matrix,0.005168
matter,0.024776
maximum,0.008954
mean,0.006802
meant,0.004222
measur,0.018877
mechan,0.003040
mediev,0.004391
mental,0.004455
meta,0.008051
metabol,0.027285
metaphor,0.005790
method,0.002549
metric,0.005529
mice,0.006697
microb,0.027997
microbi,0.006851
microcosm,0.008618
microinorgan,0.011757
microorgan,0.018448
microscop,0.005315
migrat,0.004399
miner,0.041025
mip,0.009293
mixotroph,0.010804
model,0.020517
modi,0.008968
moduleswithin,0.011757
monograph,0.006427
monophag,0.011757
movement,0.005678
mucilag,0.011506
multipl,0.003166
multipli,0.005307
multitroph,0.023013
mushroom,0.007707
mutualist,0.008127
n,0.003697
nation,0.002281
natur,0.015386
necessarili,0.008060
nectar,0.008968
need,0.004950
nest,0.031884
nested,0.022222
net,0.004328
network,0.048188
nich,0.006230
nineti,0.007469
nitrogen,0.005683
nj,0.006041
noaa,0.007893
node,0.055858
nonassimil,0.011757
noncycl,0.010157
nonetheless,0.010300
nonlinear,0.005640
nonliv,0.006940
nonrandom,0.025019
notion,0.007790
np,0.007445
number,0.043254
numer,0.003050
nutrient,0.099305
nutrit,0.005914
observ,0.005434
obsolet,0.006421
obtain,0.019201
occur,0.007847
ocean,0.004236
omiss,0.015888
omnivor,0.027243
omnivori,0.010443
onc,0.003076
ongo,0.004505
onli,0.005685
order,0.002268
organ,0.067372
origin,0.002281
otherwis,0.011748
outcom,0.004209
overal,0.003768
overemphas,0.008705
overgraz,0.009081
oxid,0.005462
p,0.006285
pain,0.005214
pair,0.004387
paleoecolog,0.008705
paper,0.010191
paramet,0.014239
parasit,0.012189
partial,0.003787
particl,0.008851
pass,0.003198
path,0.004174
pathway,0.033176
pattern,0.038641
pellet,0.008563
percent,0.016540
perfect,0.004600
periphyton,0.011506
permut,0.007276
pertain,0.005693
phenomena,0.003931
phosphoru,0.006783
photosynthesi,0.013130
phylogenet,0.006509
physic,0.005388
phytoplankton,0.025855
pierc,0.007088
pimm,0.010949
pioneer,0.008601
place,0.002328
planet,0.009342
plankton,0.008032
plant,0.071490
polar,0.010087
polym,0.012374
polyphag,0.011506
popul,0.023434
portion,0.004137
posit,0.007320
possibl,0.009632
pp,0.003849
precis,0.007778
predat,0.073374
predatori,0.007623
predatorprey,0.016969
predict,0.003454
premis,0.005538
present,0.004721
press,0.002778
prevent,0.003375
prey,0.038598
primari,0.018698
princeton,0.010424
princip,0.003688
problem,0.002524
process,0.004463
produc,0.034391
product,0.031988
prompt,0.005168
pronounc,0.005703
properti,0.020009
proport,0.003903
protein,0.004796
provid,0.002094
public,0.002377
publish,0.005240
purpos,0.003070
pyramid,0.088821
qualiti,0.010552
quantifi,0.010610
quantit,0.017545
question,0.005929
quickli,0.007685
r,0.003159
rare,0.007770
rate,0.020480
ratio,0.012773
raymond,0.018462
reaction,0.003839
read,0.002600
real,0.021754
realiz,0.012560
recent,0.010371
reconstruct,0.004692
record,0.003156
recycl,0.019114
redwood,0.009293
reef,0.006571
refer,0.007486
reflect,0.003217
refug,0.006388
region,0.002681
regul,0.017723
regular,0.004102
rel,0.010738
relat,0.016150
relationship,0.005716
releas,0.003742
remov,0.010371
repeat,0.004321
replac,0.006102
repres,0.007368
represent,0.011332
reproduc,0.015239
requir,0.002357
research,0.004858
resourc,0.021219
respir,0.020285
restrict,0.003470
result,0.002085
rich,0.017174
rise,0.003013
rival,0.004947
robert,0.006584
robin,0.006444
role,0.005246
root,0.003782
roughli,0.004200
run,0.003290
s,0.006370
saprophyt,0.011506
saprotroph,0.010246
scale,0.016945
scaveng,0.007665
scheme,0.004506
scholar,0.003802
scienc,0.007554
season,0.004838
second,0.002457
secondari,0.008527
secret,0.004619
sediment,0.006623
selffeed,0.011294
selforgan,0.007276
semiisol,0.011757
sens,0.003080
separ,0.008206
serv,0.005961
set,0.002319
sever,0.010862
shape,0.003568
share,0.002917
shelford,0.010443
shore,0.005693
shorelin,0.008251
short,0.003192
shown,0.003610
signific,0.002660
significantli,0.003842
similar,0.002488
simpl,0.003311
simplest,0.010630
simplif,0.006851
simplifi,0.024266
singl,0.008366
sink,0.012412
sir,0.004703
size,0.022716
sloppi,0.009600
slower,0.005986
small,0.012749
smaller,0.010630
social,0.002650
soil,0.009443
sole,0.004229
sometim,0.002712
sourc,0.018348
space,0.003212
spars,0.006281
speci,0.183960
special,0.002606
specialist,0.005170
specieslevel,0.010074
specif,0.002493
specifi,0.004236
sphere,0.004663
spite,0.006003
spring,0.014100
squirrel,0.008735
ss,0.006404
stabil,0.038863
stabl,0.004101
standard,0.002806
start,0.002637
statist,0.003418
stem,0.004684
step,0.007067
stimul,0.004663
stoichiometri,0.008484
store,0.008443
strength,0.016905
strong,0.012111
structur,0.038955
stuart,0.005779
studi,0.019820
subgroup,0.032795
subsequ,0.013007
subset,0.026133
subsidi,0.005804
substanc,0.004381
subweb,0.011757
sufcient,0.011757
sugar,0.005077
suggest,0.014586
sulfur,0.012252
sum,0.004156
summerhay,0.011757
sun,0.018491
suppli,0.006794
support,0.007432
suppress,0.004772
surpass,0.005883
sustain,0.004076
sway,0.006973
synonym,0.005200
synthesi,0.004652
t,0.003625
talk,0.008968
tangl,0.008484
taxa,0.021582
taxonomi,0.005995
taxonomist,0.009248
techniqu,0.003202
tend,0.006843
term,0.009845
terminolog,0.014720
terrestri,0.028366
test,0.006813
text,0.007189
theoret,0.006833
theori,0.007327
therefor,0.002832
thermodynam,0.005348
thi,0.015586
thiobacillu,0.011757
thought,0.005906
threshold,0.005804
tightli,0.006528
time,0.005531
tini,0.005621
tissu,0.015106
tl,0.008510
tlss,0.011757
tonn,0.006891
tool,0.003336
topdown,0.022371
topograph,0.007135
topolog,0.005734
total,0.005815
trace,0.011987
tradit,0.002624
transfer,0.021395
transform,0.003411
transit,0.003627
treat,0.003648
treatment,0.003833
tree,0.004292
trophic,0.408749
trophism,0.010443
tropic,0.005317
turn,0.002880
twenti,0.005125
type,0.010021
typic,0.005591
understood,0.003910
unifi,0.004361
unit,0.008407
univers,0.002158
unlimit,0.006235
upright,0.007421
use,0.027243
usual,0.010030
valu,0.002670
vari,0.006143
variabl,0.011428
variou,0.004744
vascular,0.006867
veget,0.004974
vent,0.007341
veri,0.007139
victor,0.011217
virus,0.006230
vital,0.004653
vs,0.005031
wa,0.018794
warren,0.006085
wast,0.004998
water,0.006428
way,0.006684
weak,0.008278
web,0.564735
week,0.004379
weight,0.008400
whale,0.006491
whateatswhat,0.011757
wherea,0.003616
wherebi,0.004708
wolf,0.006382
wood,0.004808
woodi,0.007927
woodward,0.008229
world,0.006338
write,0.006516
xv,0.007722
year,0.002103
yr,0.008830
yvonduroch,0.011757
zero,0.004382
zooplankton,0.027243
