abdomen,0.008146
abil,0.003363
abl,0.006175
absent,0.005957
accord,0.002444
accur,0.004164
acquir,0.003981
activ,0.012195
adapt,0.007784
adject,0.006681
adopt,0.003373
adult,0.047854
african,0.004284
afternoon,0.008198
age,0.015306
aggress,0.021787
ago,0.004736
aid,0.003667
allow,0.009723
alon,0.008360
altern,0.006281
altrici,0.011656
amphibian,0.007214
anal,0.025965
analysi,0.002946
analyz,0.008217
ancestor,0.005253
ancestri,0.006712
ancient,0.003541
andohahela,0.025718
andringitra,0.064297
androstenedion,0.012134
ani,0.002154
anim,0.071850
ankl,0.017907
ann,0.005725
anoth,0.011755
antagonist,0.014224
anthrax,0.009499
anu,0.024142
anyon,0.005329
apart,0.004479
appear,0.011325
applic,0.002919
approxim,0.003331
arbor,0.007969
archiv,0.004499
area,0.014566
arkiv,0.010891
asian,0.004656
assess,0.008327
assist,0.003644
associ,0.004775
atsinanana,0.012859
attain,0.004948
attent,0.003986
attract,0.003933
austronesian,0.017359
author,0.002752
avail,0.008964
averag,0.010953
backwardspoint,0.012451
baculum,0.010672
balanc,0.007737
bare,0.006021
basi,0.003044
bbc,0.005561
becaus,0.011093
becom,0.007078
behavior,0.006914
believ,0.003048
bennett,0.015153
biolog,0.003495
bird,0.025157
birth,0.004343
bite,0.007708
black,0.003977
blind,0.012065
bodi,0.020703
boldli,0.009968
bone,0.005528
book,0.002801
born,0.008327
borneo,0.016000
braincas,0.012451
break,0.004062
breath,0.006336
bred,0.007853
breed,0.017732
broad,0.003958
brown,0.005001
buri,0.005828
bushmeat,0.011467
calv,0.008837
canin,0.017214
canopi,0.008583
capabl,0.003887
captiv,0.069548
captur,0.004053
carnivor,0.109190
carnivoran,0.072780
carpal,0.009639
case,0.002468
cat,0.050099
cathemer,0.012859
catlik,0.022600
catzefli,0.012859
central,0.002767
certain,0.002701
characterist,0.003402
charl,0.003780
chase,0.006712
chest,0.014849
chicken,0.014032
children,0.004059
choic,0.003878
choos,0.008493
cite,0.004128
civet,0.077106
clade,0.015625
classif,0.017423
claw,0.042147
climb,0.026725
clip,0.007404
clitori,0.020632
clitoridi,0.012451
close,0.018490
cm,0.037253
coars,0.007867
colleagu,0.005336
collect,0.005759
colon,0.010476
color,0.019671
combin,0.002815
come,0.002823
commenc,0.005972
commiphora,0.012451
common,0.014323
commonli,0.003278
commun,0.005163
compact,0.005824
compar,0.008760
comparison,0.008280
compet,0.004070
complet,0.002726
composit,0.004093
compris,0.012116
conceal,0.007047
conced,0.007206
confirm,0.004256
conserv,0.003919
consid,0.004605
consist,0.013213
conspicu,0.007733
consum,0.015725
contain,0.005665
continu,0.002392
contract,0.003960
contrari,0.005163
contrast,0.003335
controversi,0.007781
cooper,0.007547
copul,0.009080
copulatori,0.009968
correct,0.003976
correl,0.004602
cougar,0.021149
countri,0.002598
cousin,0.006493
cover,0.003250
crab,0.007759
cream,0.008234
crevic,0.010891
crypto,0.011150
cryptoprocta,0.064297
cryptoproctina,0.012859
cub,0.019278
cylind,0.007344
dandringitra,0.012859
danger,0.004637
darken,0.008865
data,0.006302
date,0.003299
day,0.011918
decemb,0.007246
decidu,0.044329
declin,0.007497
decreas,0.007776
degrad,0.005664
delic,0.007759
demonstr,0.007097
den,0.028318
dens,0.005620
densiti,0.033353
dentit,0.019815
depend,0.005210
depict,0.004925
deriv,0.003002
descend,0.004779
describ,0.009720
descript,0.003609
destruct,0.009346
determin,0.002741
develop,0.007898
diet,0.064220
dietari,0.021807
differ,0.008372
difficult,0.003443
difficulti,0.004264
digest,0.012065
digitigradelik,0.012859
dihydrotestosteron,0.012859
diminish,0.005345
diminut,0.008328
dimorph,0.008923
dirti,0.007599
disappear,0.005020
distanc,0.008409
distemp,0.010397
distinct,0.006081
distinguish,0.003505
distribut,0.009773
district,0.004775
disturb,0.011089
dna,0.010191
document,0.003811
doe,0.008014
dog,0.011821
domest,0.008182
dorsal,0.008181
doubt,0.005095
dreamwork,0.010672
dri,0.046543
duisburg,0.032675
dure,0.015909
dwindl,0.007925
dynam,0.007403
ear,0.012616
earli,0.002377
easili,0.008145
east,0.003654
eastern,0.015782
eat,0.016641
eaten,0.014342
ecosystem,0.010783
edward,0.004324
effect,0.002309
elev,0.015910
emit,0.005950
encount,0.004681
encyclopedia,0.004094
end,0.002599
endang,0.006604
endem,0.033108
enforc,0.004456
english,0.006621
enlarg,0.012143
erect,0.012892
especi,0.002760
estim,0.016725
etymolog,0.010120
eupler,0.012859
euplerida,0.074706
euplerina,0.012859
evid,0.006483
eviscer,0.010891
exact,0.004534
exclud,0.004471
exclus,0.004060
exhibit,0.004487
expect,0.003266
exploit,0.004425
express,0.003079
extant,0.006289
extend,0.006270
exterior,0.007024
extern,0.005576
extinct,0.021616
extrem,0.003409
eye,0.019008
face,0.003567
facial,0.014127
factor,0.003014
fadi,0.036403
falanouc,0.012859
famili,0.029623
fauna,0.006063
fear,0.022301
featur,0.012859
feet,0.005804
felid,0.056500
felida,0.055752
femal,0.109770
feral,0.008607
ferox,0.049804
field,0.002595
fierc,0.006536
fight,0.008920
film,0.004821
finder,0.009182
flee,0.006095
flexibl,0.021050
folklor,0.007137
follow,0.004066
food,0.010975
forc,0.002547
foreleg,0.010778
forest,0.127097
forestsbut,0.012859
form,0.007771
formal,0.006361
formula,0.004438
fosa,0.051437
fossa,0.780771
fossaa,0.012859
fossaand,0.012859
fossana,0.012859
fourteen,0.006912
fourth,0.004435
fowl,0.017167
fragment,0.004999
franc,0.003638
franoi,0.006285
frequent,0.007146
fruit,0.005037
fs,0.008388
ft,0.027777
fu,0.016736
fulli,0.007664
function,0.002602
fur,0.021072
g,0.003438
gait,0.009332
galidia,0.012859
gasp,0.010316
gaylord,0.009591
gene,0.004932
gener,0.016438
genera,0.007509
genet,0.008634
genitalia,0.026952
genu,0.012841
geograph,0.008267
georg,0.003663
germani,0.003827
gestat,0.016259
glan,0.021149
gland,0.057232
goat,0.006687
gondii,0.010574
goudoti,0.012859
gradient,0.006048
gradual,0.004086
graldin,0.012859
gram,0.021311
grasp,0.012683
grave,0.006195
gray,0.019024
graybrown,0.012859
great,0.002864
greatest,0.004473
greedi,0.008923
greek,0.003599
gregori,0.006183
ground,0.022192
group,0.004585
grow,0.009778
ha,0.064407
habit,0.005389
habitat,0.059285
halfway,0.007925
harass,0.006912
hate,0.007297
head,0.009844
headbodi,0.025718
headfirst,0.012859
health,0.003543
hear,0.005360
heaviest,0.008096
held,0.003005
hellman,0.010316
help,0.008348
hemispher,0.005788
herpest,0.011656
herpestid,0.024902
herpestida,0.074706
hi,0.006837
hidden,0.016792
high,0.015443
highest,0.003892
highli,0.003346
hindfeet,0.012859
hollow,0.007297
home,0.007259
horizont,0.017585
hormon,0.006587
hour,0.022333
howev,0.010314
hue,0.008756
human,0.002448
humid,0.020307
hunt,0.056430
hybrid,0.005310
hyena,0.017968
hypothes,0.005054
iban,0.010891
identifi,0.003072
ill,0.004935
imag,0.003913
impact,0.003483
imped,0.006849
incisor,0.009907
includ,0.017645
incorpor,0.003490
increas,0.002444
inde,0.004322
independ,0.005221
indian,0.004207
indic,0.009380
indica,0.010574
individu,0.010487
infant,0.006107
influenc,0.002799
inform,0.002527
inguin,0.011300
inhal,0.007867
insect,0.011551
insectivor,0.009740
insid,0.004263
instanc,0.003442
instead,0.002977
insuffici,0.005762
interact,0.006342
intern,0.004454
interrupt,0.006322
intgral,0.010316
introduc,0.002981
intromiss,0.009591
invertebr,0.013499
island,0.022604
isol,0.004126
item,0.009325
iucn,0.008328
januari,0.003627
jaw,0.007553
juli,0.003671
jump,0.005868
juvenil,0.044799
keyston,0.008865
kg,0.033108
kill,0.008392
kilometr,0.005893
kind,0.003385
king,0.004048
kirindi,0.025718
km,0.038270
knot,0.007531
known,0.019113
lack,0.006480
languag,0.012777
larg,0.020156
larger,0.026835
largest,0.014039
late,0.011769
later,0.005054
latin,0.003994
lb,0.036627
lead,0.005071
leap,0.006762
leav,0.003598
led,0.002742
lemur,0.162665
length,0.012648
lengthi,0.006627
leucismor,0.012859
level,0.005082
lick,0.008984
life,0.002731
lifespan,0.007001
light,0.007006
lighter,0.006669
like,0.015888
limb,0.026604
link,0.003695
list,0.004725
litter,0.024596
littl,0.006504
live,0.008243
lizard,0.015318
local,0.005756
locat,0.009373
long,0.022073
longer,0.007009
longest,0.006091
longlast,0.007826
longterm,0.004471
loser,0.008290
loss,0.003716
loud,0.007647
low,0.013026
lower,0.009419
m,0.015195
madagascar,0.148291
maintain,0.002962
mainti,0.012859
make,0.010804
makira,0.011875
malagasi,0.100247
malay,0.014412
malayan,0.009147
male,0.128690
mammal,0.032276
mammalian,0.013839
mani,0.007682
march,0.003523
mark,0.006823
marker,0.006536
marolambo,0.012859
mascul,0.038578
masculin,0.007553
masoala,0.012859
mass,0.003484
massif,0.009688
mate,0.140155
matefind,0.012859
matter,0.003196
matur,0.019778
maxim,0.004832
mean,0.007020
measur,0.005566
meat,0.005896
medium,0.004844
mediums,0.015821
melan,0.010778
member,0.010844
mena,0.009639
method,0.002631
mew,0.011467
mewl,0.012859
mi,0.048219
microsatellit,0.009544
midongysud,0.012859
million,0.003337
milo,0.009332
minut,0.005072
mitochondri,0.007588
mix,0.004087
mm,0.006217
molar,0.015270
molecular,0.004441
mongoos,0.041589
mongooselik,0.012859
monophylet,0.009047
monopol,0.007394
month,0.015016
montpelli,0.009740
morn,0.006174
morpholog,0.005821
mother,0.019588
mound,0.007939
mount,0.009907
mountain,0.009143
movi,0.005811
multipl,0.003268
muscular,0.007531
mustela,0.011300
muzzl,0.009293
nation,0.011772
nativ,0.008783
natur,0.004536
naturel,0.008894
near,0.013975
nearli,0.018505
neck,0.006970
need,0.002554
new,0.001898
newborn,0.007466
nich,0.006430
night,0.020848
nippl,0.009413
nonbreed,0.011015
nonmasculin,0.012859
normal,0.003386
north,0.003373
northern,0.007944
note,0.002449
nuclear,0.004341
nudip,0.012859
number,0.006377
observ,0.016826
obtain,0.003302
occasion,0.009586
occupi,0.004259
occur,0.021597
occurr,0.005496
octob,0.003674
odor,0.008015
offcent,0.012134
offer,0.003159
old,0.007031
older,0.004459
onc,0.006350
onli,0.009779
open,0.005818
orang,0.019053
order,0.002341
origin,0.002354
os,0.007759
otherwis,0.004041
overal,0.003889
overcom,0.005218
overestim,0.015879
overgraz,0.009372
overlapbi,0.012859
oz,0.032518
pad,0.007939
pair,0.018112
park,0.024831
parti,0.003283
particular,0.005319
particularli,0.008939
past,0.003370
path,0.004308
pathogen,0.006835
pattern,0.010876
paw,0.017731
peak,0.004662
pearl,0.006558
pector,0.010097
peculiar,0.006615
peni,0.049299
penil,0.009907
peopl,0.004685
percent,0.017070
perhap,0.003949
perian,0.012134
period,0.005049
perman,0.008235
persist,0.004817
phylogenet,0.006718
physic,0.019463
piglet,0.012859
place,0.024030
plantigradelik,0.012859
plateau,0.006905
play,0.003067
pocket,0.013577
poorli,0.005626
popul,0.054418
popular,0.003040
portion,0.008539
posa,0.024268
posit,0.002518
possibl,0.004970
potenti,0.003154
pouch,0.009047
precis,0.004013
predat,0.027045
predict,0.003565
predomin,0.005558
prefer,0.007462
premolar,0.020794
prescrot,0.012859
presenc,0.007369
previou,0.003674
prey,0.099590
primari,0.003216
primarili,0.003330
primat,0.006912
pristin,0.008216
probabl,0.003496
procta,0.012859
produc,0.005070
program,0.003065
prohibit,0.004971
promin,0.003820
propithecu,0.012859
proport,0.004028
protect,0.019484
provid,0.004323
provinc,0.004504
pseudopeni,0.011656
pseudoscrotum,0.012134
public,0.002453
publish,0.005408
pup,0.009047
pupil,0.006356
pur,0.010239
pure,0.003852
pusa,0.024268
qualiti,0.003630
radiocollar,0.012859
rain,0.006187
rainforest,0.021919
rang,0.026324
ranomafana,0.025718
rapidli,0.004107
rare,0.008019
reach,0.006280
readili,0.005287
reason,0.002773
recaptur,0.007024
recent,0.005351
recept,0.006115
recogn,0.006627
record,0.003257
red,0.004283
reddish,0.019588
reddishbrown,0.010397
reduc,0.008782
refer,0.006181
reflect,0.009962
region,0.008301
rel,0.013853
relat,0.010417
relationship,0.008849
reliabl,0.004620
remain,0.010222
remaind,0.005734
remark,0.004739
repeat,0.013381
report,0.044551
reproduct,0.005249
reptil,0.013590
requir,0.007298
research,0.015041
resembl,0.019498
resolv,0.004488
rest,0.007241
retract,0.015821
retractil,0.012451
return,0.003127
reus,0.007087
rhinarium,0.011656
risk,0.003802
robust,0.005597
rock,0.009678
rodent,0.031415
rope,0.007456
roughli,0.004334
round,0.009790
rserv,0.012859
run,0.003395
rut,0.009688
s,0.002191
sac,0.008129
sampl,0.004605
scale,0.003497
scat,0.035626
scaveng,0.007910
scent,0.025351
search,0.007910
season,0.029963
secret,0.019071
seed,0.010966
seen,0.006064
segment,0.005294
select,0.003360
semiplantigrad,0.012859
semiretract,0.025718
sent,0.004283
separ,0.005646
septemb,0.003726
sequenc,0.004290
seri,0.003078
session,0.005879
set,0.002393
seven,0.004055
sever,0.017936
sex,0.021402
sexual,0.020311
shade,0.007039
shaft,0.008015
shallow,0.006536
shape,0.007366
share,0.012045
sheath,0.008408
short,0.019769
shortli,0.004809
shortterm,0.005617
shoulder,0.007214
shown,0.003726
sifaka,0.025718
sigh,0.010239
signal,0.008892
signific,0.008236
significantli,0.003966
similar,0.015408
similarli,0.008148
simpson,0.007206
sinc,0.002150
singl,0.008634
site,0.014490
size,0.020095
skin,0.010908
skull,0.020610
sleep,0.006120
slender,0.008894
slightli,0.004661
slingshot,0.011656
slit,0.017310
slow,0.004440
small,0.018421
smaller,0.018284
smell,0.007024
smooth,0.005703
snake,0.006828
snare,0.010778
socket,0.009255
sole,0.008730
solid,0.004622
solitari,0.007896
sometim,0.002799
sound,0.004528
sourc,0.002705
south,0.003367
southern,0.003991
southwest,0.006036
speci,0.083062
special,0.005379
specialist,0.005336
specimen,0.006669
specul,0.004474
spelea,0.012859
spell,0.011871
spine,0.007278
spini,0.059446
spot,0.010768
spring,0.004850
sq,0.044943
stand,0.004041
start,0.005444
stay,0.009414
stimul,0.004812
stomach,0.014412
straight,0.005964
straightlin,0.010031
strategi,0.004006
strictli,0.005072
stroke,0.006870
strong,0.009374
structur,0.002512
studi,0.022728
subfamili,0.028633
subfossil,0.010778
subsect,0.008271
subsequ,0.006712
substanc,0.009043
success,0.002852
suggest,0.018064
suit,0.004999
support,0.010228
surround,0.003938
surviv,0.007418
swing,0.007095
switch,0.005280
taboo,0.015493
tail,0.031132
taken,0.015745
taxonomi,0.006187
taxonomist,0.019088
teeth,0.006769
telfair,0.012859
tend,0.003531
tenrec,0.035626
term,0.002032
termit,0.008112
terrestri,0.011710
territori,0.003764
testosteron,0.009182
themselv,0.003190
thi,0.025737
thought,0.018288
threat,0.004510
threaten,0.014670
thu,0.002514
tie,0.008389
time,0.009514
tip,0.005998
toamasina,0.011467
tongu,0.007188
tooth,0.007840
toothless,0.021783
total,0.006001
toxoplasma,0.010397
tract,0.012264
trade,0.003111
tradit,0.002708
trait,0.025478
transfer,0.003680
transient,0.020912
transmit,0.005269
trap,0.016904
travel,0.007595
tree,0.084171
tri,0.003385
trunk,0.007708
turner,0.006905
twice,0.005125
twist,0.007055
type,0.005171
typic,0.014426
uncertain,0.005685
unclear,0.005649
underground,0.005961
underpart,0.011875
understori,0.010239
undesir,0.006724
undisturb,0.018160
union,0.003195
uniqu,0.007334
unlik,0.003581
unusu,0.015642
upper,0.004343
upsid,0.008923
use,0.017573
usual,0.015528
vagina,0.008756
vari,0.009511
variabl,0.003931
variationrel,0.012859
varieti,0.016145
variou,0.007345
ventral,0.017359
veri,0.002456
veron,0.022934
verreauxi,0.012859
vertebr,0.025561
vestig,0.007882
viabil,0.007335
viabl,0.011835
vibrissa,0.022934
vicin,0.006941
video,0.004733
villag,0.014743
visual,0.004537
viverra,0.012859
viverricula,0.012859
viverrid,0.035626
viverrida,0.037353
vocal,0.020155
vohiparara,0.012859
vulner,0.016409
wa,0.017633
waist,0.009455
walk,0.005493
wander,0.007206
watch,0.005483
water,0.009952
wean,0.018826
weasel,0.010097
week,0.013560
weigh,0.030299
weight,0.004334
west,0.003692
western,0.012940
wherebi,0.004859
whisker,0.011015
white,0.012249
wide,0.022159
widespread,0.012395
widest,0.008163
wild,0.022069
wildlif,0.006128
william,0.003446
winner,0.005921
word,0.014926
world,0.002180
year,0.030386
yelp,0.011467
yoder,0.011150
young,0.019966
zone,0.004445
zoo,0.046715
zookeep,0.011467
