act,0.005977
activ,0.010438
addit,0.005291
advantag,0.016237
advent,0.011438
affect,0.020504
aim,0.007468
allel,0.124589
allevi,0.013963
allow,0.010402
alreadi,0.007619
analysi,0.018915
analyz,0.026375
anoth,0.010061
approach,0.012039
approxim,0.007127
arabidopsi,0.018970
aris,0.008532
art,0.008001
assay,0.016362
background,0.026948
base,0.004557
basic,0.012689
becaus,0.004747
begin,0.006149
benefici,0.011573
biochem,0.025932
biolog,0.022439
c,0.006035
cage,0.016467
candid,0.058376
carri,0.027237
caus,0.005637
cdna,0.020625
cell,0.018168
cerevisia,0.018736
chemic,0.008043
christian,0.008186
chromosom,0.096091
classic,0.013958
clone,0.217267
close,0.011304
closer,0.010452
closest,0.012786
collect,0.006162
compar,0.012496
comparison,0.008858
complet,0.005834
complic,0.009574
compon,0.007275
comput,0.007000
condit,0.005911
consid,0.004926
consider,0.007099
consist,0.005654
constant,0.008399
contig,0.049884
cours,0.007363
cpg,0.021464
crossbreed,0.020731
crossspeci,0.022627
current,0.005408
cycl,0.008660
cystic,0.019358
data,0.006742
databas,0.009884
defect,0.012470
defin,0.028989
depend,0.005574
describ,0.005200
design,0.006205
determin,0.011734
devis,0.011589
differ,0.026872
direct,0.005610
directli,0.013576
discoveri,0.007912
diseas,0.053099
disrupt,0.021773
distinct,0.006506
dna,0.109035
doubl,0.009353
drosophila,0.016603
duchenn,0.022836
dure,0.004863
dystrophi,0.021464
effect,0.009882
effici,0.007964
elegan,0.017905
elucid,0.014156
embryo,0.014094
enhanc,0.084789
eric,0.012082
escap,0.010212
event,0.006619
exampl,0.004555
exhibit,0.009601
exist,0.005057
exon,0.019885
expect,0.006988
experiment,0.016991
expos,0.010188
express,0.013180
extens,0.006868
extern,0.003977
extract,0.009790
extragen,0.027515
extrem,0.007296
facilit,0.009169
faint,0.017253
famou,0.008402
fibrosi,0.018970
flank,0.017118
fli,0.022706
focu,0.007461
follow,0.004350
forward,0.048274
fragment,0.010697
frequenc,0.041576
frequent,0.015291
fruit,0.010778
function,0.033411
gene,0.401028
gener,0.015633
genesgen,0.027515
genet,0.184762
geneticist,0.033207
genom,0.098812
greater,0.006850
grown,0.010474
ha,0.007253
hand,0.006739
hartwel,0.021909
henc,0.008486
heterogen,0.013673
higher,0.012931
homolog,0.013998
howev,0.008828
human,0.005240
huntington,0.016467
hybrid,0.011363
identif,0.042853
identifi,0.105196
import,0.004638
includ,0.003775
increas,0.010460
independ,0.005586
individu,0.061710
inform,0.010814
inherit,0.010085
initi,0.005909
insert,0.012617
insight,0.010088
interact,0.006786
intergen,0.022431
intragen,0.025410
inventori,0.014143
involv,0.036908
island,0.008061
isol,0.026491
kb,0.016865
key,0.006921
known,0.054531
larger,0.007177
lead,0.010850
lee,0.012365
let,0.010188
lethal,0.015674
liabl,0.015887
librari,0.008542
link,0.007907
linkag,0.014335
locat,0.033427
locu,0.029550
low,0.006968
make,0.004623
mani,0.012328
manner,0.017549
map,0.074860
mapbas,0.024942
marker,0.027973
melanogast,0.017779
method,0.016893
miss,0.011469
model,0.005663
modern,0.010907
molecular,0.019006
muscular,0.016115
mutagen,0.099020
mutagenesi,0.019885
mutant,0.398487
mutat,0.315615
narrow,0.020534
natur,0.009707
need,0.005465
new,0.028428
normal,0.007247
nssleinvolhard,0.023858
nucleotid,0.014554
null,0.014852
number,0.004548
nurs,0.013229
onli,0.004185
open,0.006224
order,0.005010
organ,0.034715
origin,0.020154
overlap,0.010105
pair,0.009689
partial,0.008363
particular,0.017073
pathway,0.036631
pattern,0.007757
paul,0.007903
perform,0.019175
phenotyp,0.364268
physiolog,0.010709
plant,0.007893
play,0.006564
polymorph,0.078169
pomb,0.023569
popul,0.032344
portal,0.013112
posit,0.064661
possess,0.008170
potenti,0.013500
prefer,0.007983
principl,0.006258
prior,0.007874
priorit,0.015931
prioriti,0.010994
probabl,0.007481
proce,0.012693
procedur,0.018159
process,0.034501
produc,0.005424
progress,0.014211
project,0.025804
promin,0.008175
provid,0.009251
purpos,0.006781
radiat,0.010441
rais,0.015380
random,0.009945
rapid,0.009035
rare,0.008580
readymad,0.021075
recombin,0.041247
reduc,0.006264
redundantli,0.027515
refer,0.003306
region,0.047369
relat,0.004458
relationship,0.006311
requir,0.010410
research,0.010728
respect,0.012576
respons,0.011470
result,0.004605
revers,0.036412
revert,0.014470
review,0.007408
role,0.005792
s,0.009379
satur,0.029993
screen,0.390739
second,0.010853
segment,0.022657
select,0.021570
sensit,0.042599
sequenc,0.064256
set,0.005122
shift,0.008013
short,0.007050
simpl,0.007311
simpli,0.007508
simplifi,0.010717
sinc,0.009203
singl,0.012316
site,0.007751
size,0.007166
small,0.005631
snp,0.038581
speci,0.008463
specif,0.011011
start,0.017475
statist,0.007549
studi,0.004863
success,0.006102
suppress,0.042152
suppressor,0.097143
surpass,0.012991
synthet,0.011413
tag,0.014948
techniqu,0.028287
temperatur,0.083726
test,0.022568
thaliana,0.019358
therebi,0.019049
therefor,0.006254
thi,0.024094
togeth,0.006345
trait,0.054517
transform,0.007532
transposon,0.019804
trap,0.012057
type,0.022130
typic,0.006173
unbias,0.016187
uncov,0.013086
underli,0.008739
unmethyl,0.024178
unstabl,0.012276
unusu,0.022313
use,0.060162
valuabl,0.010802
variat,0.017252
varieti,0.006909
veri,0.005255
version,0.008049
viabil,0.015695
wa,0.003773
walk,0.023509
wherea,0.007985
wieschau,0.024178
wild,0.011805
work,0.004511
zero,0.009677
