abil,0.006353
abl,0.008749
access,0.006389
accident,0.005971
accord,0.002308
accumul,0.013287
accur,0.003933
acetabularia,0.010404
acid,0.074428
acquir,0.015042
act,0.005277
action,0.002836
activ,0.004607
adapt,0.003676
addit,0.004671
address,0.003476
adenin,0.007760
adject,0.006310
adopt,0.003186
advantag,0.007167
affect,0.018102
agar,0.008295
aid,0.003463
alfr,0.004730
alga,0.006387
align,0.009975
allel,0.158115
allow,0.013775
alreadi,0.006727
alter,0.004141
altern,0.002966
alway,0.003104
ambigu,0.005425
amend,0.004868
amino,0.089644
amplifi,0.031698
analyz,0.007761
ancient,0.003345
anemia,0.007942
ani,0.004069
anim,0.019389
anoth,0.008882
appear,0.005348
applic,0.002757
approach,0.002657
april,0.003532
arabidopsi,0.008374
arbitrarili,0.006375
area,0.004586
argu,0.003071
arid,0.013466
aris,0.003766
aros,0.004585
arrang,0.015056
articl,0.002743
artifici,0.003898
asexu,0.014862
aspect,0.006068
assembl,0.003604
associ,0.015787
assort,0.028539
attempt,0.002633
augustinian,0.016748
avail,0.008466
averag,0.003448
averymacleodmccarti,0.009901
avoid,0.003448
bacteria,0.063605
bacterium,0.014145
baker,0.006248
ban,0.004651
bank,0.003338
barbara,0.006113
barlow,0.008707
base,0.008047
basepair,0.017944
basesdu,0.010287
basi,0.017254
basic,0.005601
bateson,0.023083
bbc,0.005252
becam,0.002544
becaus,0.010478
becki,0.009474
becom,0.004457
befor,0.002377
began,0.005559
begin,0.002714
behavior,0.019593
belief,0.003726
bend,0.006508
benefici,0.015326
ber,0.007178
better,0.003139
bigger,0.006248
bind,0.024037
bioinformat,0.006773
biolog,0.019810
biologist,0.005208
birth,0.008204
blend,0.029179
block,0.004147
blood,0.018134
bloodstream,0.007885
blue,0.009924
blueey,0.009988
bodi,0.019555
bound,0.004165
break,0.007674
breed,0.011165
bring,0.003460
brnn,0.009901
broad,0.003739
buildup,0.006857
bypass,0.006456
c,0.005328
caenorhabd,0.008576
calcul,0.003552
cambridg,0.003692
came,0.006097
cancer,0.035894
candid,0.004294
captur,0.003828
care,0.003502
carri,0.003005
case,0.006993
cat,0.035489
caus,0.044796
celera,0.009602
cell,0.176440
cellular,0.015477
central,0.002613
centuri,0.004788
cerevisia,0.008270
certain,0.005104
chain,0.024993
chaintermin,0.019976
chang,0.033634
character,0.003536
characterist,0.009641
charl,0.003571
chart,0.015933
chemic,0.010651
children,0.003834
chines,0.004007
choos,0.004011
chosen,0.004260
chromatin,0.031250
chromosom,0.212084
circular,0.016302
classic,0.006161
clear,0.003470
clearli,0.004192
climat,0.015925
clinic,0.004862
clog,0.009058
clonal,0.008374
clone,0.031968
closer,0.004613
coat,0.005523
code,0.021648
codomin,0.009743
codon,0.007903
coil,0.007200
coin,0.003861
coldersuch,0.010673
coli,0.015293
collagen,0.007777
collect,0.002720
colleg,0.004047
colon,0.004947
color,0.032515
combin,0.021272
come,0.002666
common,0.015784
commonli,0.012387
compact,0.005501
compar,0.005516
comparison,0.007820
complementari,0.010880
complet,0.005151
complex,0.013643
compos,0.014151
comput,0.009270
concept,0.002602
concurr,0.005749
confer,0.003670
confirm,0.004020
conjug,0.006399
connect,0.003070
consid,0.010874
contact,0.007826
contain,0.026753
content,0.003679
context,0.009841
continu,0.006778
contribut,0.005474
control,0.009910
convenienceshort,0.010673
copi,0.044959
core,0.003960
corkscrew,0.009901
corn,0.017495
correspond,0.013541
cost,0.006557
cours,0.003250
creat,0.027373
creighton,0.009104
crick,0.014658
crispr,0.018949
critic,0.002743
crop,0.004610
cross,0.008140
crossbreed,0.009151
crossov,0.059995
crystallographi,0.006749
cultur,0.005608
cut,0.003959
cytolog,0.016304
cytosin,0.008022
damag,0.008049
dark,0.014467
darkhair,0.029231
darwin,0.010437
data,0.011905
daughter,0.015355
dead,0.004675
deadli,0.006733
deal,0.003004
death,0.006532
defin,0.002559
definit,0.005897
degrad,0.005350
degre,0.006108
delet,0.006679
demand,0.003329
demonstr,0.010056
denatur,0.008246
deoxyribonucl,0.008374
depart,0.003269
depend,0.002460
der,0.004880
deriv,0.008506
descent,0.005350
describ,0.011477
destabil,0.006946
detect,0.004095
determin,0.023308
detriment,0.006128
develop,0.024246
diagnos,0.006040
diagram,0.015390
did,0.005536
die,0.007146
diet,0.005514
differ,0.051402
differenti,0.003776
diploid,0.060452
directli,0.002996
disabl,0.005431
discov,0.006568
discret,0.026390
discuss,0.006085
diseas,0.042971
disord,0.009614
display,0.004238
disrupt,0.004805
distanc,0.015885
distinct,0.002872
distort,0.005265
distribut,0.009231
diverg,0.010080
divid,0.026615
divis,0.003232
dmoz,0.004939
dna,0.370605
dnaa,0.010404
doe,0.002523
dogma,0.006375
dollar,0.004357
domain,0.003642
domin,0.015344
doubl,0.008257
doublehelix,0.009602
doublestrand,0.008001
draft,0.004813
dramat,0.008423
drift,0.005749
drosophila,0.014658
drug,0.004398
duplic,0.012236
dure,0.012880
dynam,0.006992
ear,0.005958
easi,0.004559
edit,0.007028
effect,0.019630
effort,0.006218
egg,0.005431
electrophoresi,0.007678
elegan,0.007903
embryo,0.006221
encourag,0.003690
end,0.002454
endothelium,0.009537
energi,0.003143
entir,0.002912
environ,0.047620
environment,0.007219
enzym,0.021833
epigenet,0.036114
epistasi,0.008515
epistat,0.009415
epithelium,0.016802
equal,0.003057
error,0.034155
escap,0.009015
escherichia,0.017152
especi,0.013035
establish,0.004792
etymolog,0.004779
eukaryot,0.030922
event,0.002921
eventu,0.006382
everi,0.005619
everincreas,0.007586
evid,0.009185
evolut,0.025518
evolutionari,0.017694
evolv,0.003685
exampl,0.018097
exchang,0.015869
exist,0.026792
expand,0.003176
expens,0.004010
experi,0.027610
experienc,0.004030
explain,0.006045
explos,0.004977
exponenti,0.005404
express,0.029090
extern,0.003511
extracellular,0.007167
extrem,0.009662
eye,0.004488
f,0.009921
faceso,0.010673
facilit,0.008095
fact,0.005701
factor,0.022774
fail,0.003375
famili,0.003108
famou,0.003709
father,0.003947
featur,0.021255
feedback,0.005452
femal,0.004507
fertil,0.004706
festet,0.010180
fetal,0.007646
fiber,0.011663
field,0.014711
filial,0.017629
finger,0.006522
fit,0.004087
fli,0.015034
flow,0.007071
flower,0.038165
fold,0.005723
follow,0.003841
forerunn,0.006375
form,0.036703
fraction,0.009398
fragment,0.051942
franci,0.013793
franklin,0.005492
fratern,0.022099
frederick,0.016249
frequenc,0.004588
frequent,0.010125
friar,0.015590
fruit,0.009515
function,0.024580
fundament,0.006149
fuse,0.005910
g,0.006495
gain,0.005841
galton,0.007631
gamet,0.014810
gel,0.007556
genain,0.010673
gender,0.005147
gene,0.423923
gener,0.024152
genesi,0.012081
genestryptophan,0.010673
genet,0.305844
geneticist,0.021987
genetiko,0.010673
genetisch,0.010404
genitivegen,0.010673
genom,0.147211
genophor,0.010287
genotyp,0.027604
geograph,0.003904
gestz,0.010673
given,0.024079
globin,0.009988
good,0.002669
gradual,0.003859
greek,0.006799
green,0.004128
gregor,0.029517
griffith,0.014312
group,0.004331
grow,0.018471
grown,0.004623
growth,0.009116
growthinhibitori,0.010673
guanin,0.008085
gut,0.006883
ha,0.032018
hair,0.011432
hairproduc,0.021346
half,0.003304
hand,0.002974
haploid,0.055327
haploiddiploid,0.010531
harm,0.004628
harriet,0.007848
health,0.010041
healthi,0.005242
height,0.023934
helic,0.007392
helix,0.007245
hemoglobin,0.029997
hered,0.013714
hereditari,0.005746
herit,0.043901
hersheychas,0.009200
heterogen,0.006035
heterozyg,0.017215
hi,0.023679
high,0.002431
higher,0.002854
highertemperatur,0.010080
highthroughput,0.016748
histon,0.008022
histori,0.001999
hmmerl,0.010673
homolog,0.030896
homozyg,0.008246
hope,0.004087
horizont,0.011073
host,0.004390
hous,0.003220
howev,0.017536
hugo,0.006113
human,0.043948
hungarian,0.006189
hunt,0.004845
hybrid,0.020063
idea,0.002694
ident,0.024064
identifi,0.005804
ignor,0.008328
immort,0.006357
import,0.008190
improv,0.002954
imr,0.007694
inappropri,0.006328
inaugur,0.005546
includ,0.009999
incomplet,0.005231
increas,0.004617
indefinit,0.005640
independ,0.009863
indic,0.002953
individu,0.012382
induc,0.004754
infect,0.005449
influenc,0.018510
inform,0.028642
inherit,0.240411
inhibit,0.005910
inhibitori,0.007662
insert,0.005569
instead,0.008436
instruct,0.004519
integr,0.002897
intellectu,0.004118
interact,0.020968
intercellular,0.008777
interf,0.006839
intermedi,0.018874
intern,0.004207
intersect,0.005410
intracellular,0.007222
invad,0.004801
invers,0.005069
involv,0.009309
inward,0.006848
isol,0.011693
jame,0.003386
jeanbaptist,0.006508
johann,0.005137
kari,0.008198
know,0.003637
known,0.020059
kszeg,0.010673
laboratori,0.004073
lack,0.003060
ladder,0.006955
lamarck,0.015325
larg,0.006346
largest,0.003315
late,0.002779
later,0.004774
law,0.021762
lead,0.002394
led,0.007771
leg,0.005958
length,0.007964
letter,0.003962
level,0.004800
life,0.005160
lifespan,0.006612
ligat,0.017555
like,0.010719
limit,0.002451
linear,0.008541
linearli,0.014291
link,0.005235
linkag,0.044296
listen,0.005669
littl,0.003071
live,0.010380
locat,0.008853
loci,0.007200
locu,0.006522
london,0.003379
long,0.007818
longer,0.009931
look,0.006628
loss,0.003510
lost,0.003487
low,0.003076
lowcost,0.007269
lower,0.005931
lowtemperatur,0.008401
magenta,0.018716
mainli,0.003331
major,0.004258
make,0.006122
male,0.004501
mammalian,0.006535
manag,0.002874
mani,0.036281
manipul,0.008594
map,0.007343
march,0.003328
mari,0.004636
mark,0.003222
match,0.012804
mate,0.012034
materi,0.022500
mathemat,0.003155
mauric,0.005985
mcclintock,0.008673
mean,0.013262
measur,0.002628
mechan,0.008891
mediat,0.004916
medic,0.007392
medicin,0.003826
medium,0.004575
meiosi,0.014862
melanogast,0.015696
mendel,0.141654
mendelian,0.014916
mentor,0.006627
messag,0.004987
messeng,0.019090
metastasi,0.009250
method,0.024856
microrna,0.009058
midth,0.004951
migrat,0.008576
million,0.009457
mismatch,0.007257
mistaken,0.006627
mitosi,0.007485
mixtur,0.010036
model,0.015000
modern,0.009629
modif,0.004770
modifi,0.003916
molecul,0.086674
molecular,0.041949
moment,0.004566
morgan,0.005697
mous,0.006591
mrna,0.007405
mu,0.006363
mulli,0.008814
multicellular,0.026450
multigen,0.009988
multigener,0.009358
multipl,0.015434
muriel,0.009104
musculu,0.009014
mutagen,0.017484
mutat,0.144892
natur,0.034282
naturforschend,0.010673
nearli,0.003495
necessari,0.006396
need,0.009650
neg,0.003480
neighbor,0.004527
nematod,0.007556
neutral,0.013178
new,0.017927
newfound,0.007777
newnham,0.010080
nextgener,0.008891
nigeria,0.006424
nih,0.007848
nobl,0.005218
noncod,0.008022
nonmut,0.010180
nonviabl,0.009537
nora,0.009151
normal,0.015995
notabl,0.003079
notat,0.005392
noun,0.006316
nucleosom,0.009200
nucleotid,0.096370
nucleu,0.005316
number,0.008031
nurtur,0.033099
nutrient,0.005694
nutrit,0.005765
observ,0.023839
occasion,0.018110
occur,0.035698
offspr,0.072262
ohta,0.020574
old,0.003320
omphalod,0.010673
onc,0.008996
oncogen,0.008777
onli,0.012932
onslow,0.009901
opposit,0.003302
organ,0.124782
origin,0.013345
otherwis,0.003817
oxygen,0.004886
p,0.009191
pair,0.055600
pangenesi,0.018302
paper,0.003311
parallel,0.004158
paramut,0.010531
parent,0.063278
particul,0.014356
particular,0.002512
particularli,0.002814
partner,0.021937
pass,0.006235
pathway,0.005390
pattern,0.027394
pcr,0.022456
pea,0.041300
pedigre,0.017215
peopl,0.002212
percent,0.004030
perform,0.002821
person,0.002626
pflanzenhybriden,0.009901
pharmacogenet,0.009901
phenomenon,0.024800
phenotyp,0.061844
phenylalanin,0.008852
phenylketonuria,0.028807
physic,0.005252
piec,0.004432
pigment,0.013450
place,0.004539
plant,0.052266
plasmid,0.015660
plate,0.005211
play,0.008693
point,0.006984
polymer,0.007189
polymeras,0.021068
polypeptid,0.007616
popul,0.022844
popular,0.011485
possibl,0.004694
postnat,0.008891
potenti,0.002979
preced,0.004360
predat,0.005108
predict,0.006734
predisposit,0.007942
preferenti,0.006393
prehistor,0.005562
presenc,0.006960
present,0.002301
prevent,0.003290
primari,0.006075
principl,0.008287
prior,0.003476
privat,0.003299
probabl,0.009907
problem,0.007384
procedur,0.004007
process,0.047864
produc,0.021551
product,0.014391
productssuch,0.010404
progeni,0.015454
progress,0.003136
project,0.005695
promot,0.009848
prone,0.006357
proofread,0.008607
properti,0.013932
propon,0.004822
protein,0.168313
provid,0.010209
publish,0.005108
punnett,0.009014
purpl,0.021217
quadruplet,0.019205
qualiti,0.006858
quantit,0.004275
quick,0.005687
ra,0.006619
radiat,0.004609
random,0.004390
randomli,0.012443
rang,0.002762
rare,0.003787
rate,0.008556
ratio,0.004150
raw,0.004761
reaction,0.011228
read,0.005070
reced,0.007257
recess,0.005224
recombin,0.030345
reconstruct,0.004573
red,0.004045
rediscov,0.006357
rediscoveri,0.007124
reduc,0.002765
redund,0.006456
refer,0.008757
reformul,0.006605
region,0.010454
regul,0.013821
regulatori,0.010102
relat,0.005903
related,0.007830
relationship,0.002786
relativein,0.010673
releas,0.003647
remain,0.004827
remaind,0.005416
repair,0.015588
replic,0.025759
report,0.002805
repositori,0.006874
repres,0.007182
repressor,0.035258
reproduc,0.014855
reproduct,0.049580
research,0.056829
resequenc,0.010287
respons,0.025315
restor,0.004127
restrict,0.003382
result,0.016265
retain,0.007676
reviv,0.004638
ribosom,0.007156
rise,0.002937
rna,0.078164
role,0.010227
rosalind,0.007710
roughli,0.004094
routin,0.005239
rule,0.007992
rulesometim,0.010673
rung,0.008129
s,0.002070
saccharomyc,0.008428
sanger,0.015770
saunder,0.007093
schizophrenia,0.007280
scienc,0.004909
scientist,0.030038
search,0.007471
second,0.011977
section,0.007233
seed,0.005178
seek,0.006550
segment,0.005000
segreg,0.019162
seizur,0.006508
select,0.025390
semiconserv,0.009250
sens,0.003003
sensit,0.004701
separ,0.013333
sequenc,0.222862
seri,0.008723
set,0.011305
seven,0.003830
sever,0.004235
sex,0.005053
sexlink,0.009602
sexual,0.028777
shape,0.010436
share,0.005688
short,0.006224
shuffl,0.015807
siames,0.008515
sibl,0.020812
sicklecel,0.017782
sickleshap,0.010531
signal,0.020998
signific,0.002593
significantli,0.007492
similar,0.012128
simpl,0.012910
simplest,0.005181
sinc,0.002031
singl,0.029903
sixteen,0.006664
skin,0.010303
slightli,0.004402
small,0.009942
smooth,0.005387
smoothli,0.007431
socal,0.004098
societi,0.005090
somat,0.007093
someon,0.004745
sometim,0.007933
somewhat,0.004306
sourc,0.002555
span,0.004692
speci,0.037359
special,0.002540
speciat,0.007211
specif,0.019443
sperm,0.006702
split,0.004174
squar,0.004303
st,0.003274
stabl,0.003997
stabli,0.008707
stack,0.006333
stalk,0.007981
start,0.002571
state,0.001777
stay,0.004446
stem,0.004566
stick,0.006108
stillliv,0.010287
stitch,0.008374
stop,0.008026
strand,0.092675
strengthen,0.004594
stress,0.004165
stretch,0.010241
strict,0.004720
strongli,0.007830
structur,0.056960
student,0.003457
studi,0.051521
sturtev,0.009602
subfield,0.010458
subject,0.002584
subset,0.005094
suggest,0.008531
support,0.002415
suppressor,0.008576
surfac,0.003678
surround,0.003719
surviv,0.003503
switch,0.004987
symbol,0.007375
symptom,0.005780
synthesi,0.022675
t,0.007068
tail,0.005881
target,0.003782
team,0.004242
techniqu,0.003121
technolog,0.017572
temper,0.012256
temperatur,0.012319
temperaturesensit,0.009988
templat,0.013388
tend,0.006671
tendenc,0.009122
term,0.001919
test,0.003320
thaliana,0.008545
thcenturi,0.004683
themselv,0.003013
theoret,0.003330
theori,0.026191
therebi,0.004204
thi,0.053178
thing,0.003232
thoma,0.003633
thousand,0.010746
threedimension,0.011158
thu,0.007123
thymin,0.008022
time,0.014378
tissu,0.004908
today,0.002918
togeth,0.011204
tomoko,0.009743
tool,0.009757
topic,0.006446
total,0.002834
toxic,0.005616
trace,0.003895
trait,0.125139
transcrib,0.013662
transcript,0.041992
transfer,0.027808
transform,0.013300
translat,0.010491
transloc,0.007885
transmit,0.009954
transport,0.006964
tree,0.012552
tri,0.006394
trigger,0.009882
tryptophan,0.059199
tumor,0.026088
turn,0.005616
twenti,0.004996
twin,0.023905
twist,0.006664
twostrand,0.010673
type,0.007326
ultim,0.007026
unabl,0.004221
unaffect,0.007245
uncorrel,0.008401
undergo,0.004709
understand,0.013786
unidirect,0.008401
uniqu,0.003463
unit,0.006146
unknown,0.004205
unrel,0.017423
urg,0.005361
usag,0.004260
use,0.068052
usual,0.017111
util,0.003674
uv,0.006910
vari,0.002994
variabl,0.007426
variant,0.004920
variat,0.015231
variou,0.004625
verein,0.009474
veri,0.011599
verna,0.010287
version,0.007106
versu,0.004741
versuch,0.009474
vessel,0.009891
virus,0.024295
visual,0.004285
vri,0.007812
wa,0.018321
water,0.003133
watson,0.006054
way,0.017375
weakli,0.006946
wheldal,0.010673
white,0.019283
whitebut,0.010673
whiteregardless,0.010673
wide,0.007848
wilkin,0.007431
william,0.003255
word,0.014098
work,0.029871
worldwid,0.004121
wound,0.005572
wrongth,0.010531
x,0.007193
xray,0.005540
y,0.008651
year,0.004100
yeast,0.006789
yellow,0.005705
zinc,0.006399
zygot,0.007458
