abov,0.031688
absenc,0.006500
absolut,0.005997
abstract,0.012444
acceler,0.006800
account,0.008329
accumul,0.006783
accur,0.012048
acic,0.032692
actual,0.009050
ad,0.004512
addit,0.010731
adjust,0.020305
adopt,0.004879
advantag,0.005488
advent,0.007732
agenc,0.011125
air,0.005431
align,0.007638
allow,0.003516
alpha,0.016370
altern,0.009087
altitud,0.009570
alway,0.004754
american,0.008012
amsterdam,0.008994
ancient,0.005123
angl,0.079812
angular,0.009536
ani,0.009348
anoth,0.003400
anthropogen,0.011079
apertur,0.011938
appar,0.006036
appli,0.011340
applic,0.008445
approxim,0.019275
arc,0.066527
arctan,0.027613
area,0.021071
articl,0.004202
artific,0.012193
assembl,0.005520
associ,0.013816
astronom,0.039809
astronomi,0.015878
atmospher,0.013853
attach,0.013388
attempt,0.004033
auspic,0.010582
autom,0.007912
awar,0.006397
axe,0.038694
axi,0.048656
axial,0.011169
azimuth,0.066675
b,0.014050
ba,0.009408
base,0.018486
baselin,0.022487
basi,0.004404
basic,0.008578
becaus,0.009628
becom,0.006826
befor,0.003641
beginalignedssqrt,0.016346
beginalignedxsco,0.016346
bench,0.011572
best,0.004699
billionth,0.013943
bodi,0.008556
branch,0.004534
britannica,0.008671
built,0.005315
bulg,0.011859
cartesian,0.009801
cartographi,0.010800
case,0.032133
caus,0.003811
celesti,0.099575
centr,0.005871
central,0.004002
centuri,0.003666
chang,0.019316
chart,0.008134
choos,0.018428
chosen,0.006525
chosencal,0.016346
circl,0.020643
class,0.004736
classic,0.009436
clock,0.008937
clockwis,0.012784
close,0.011463
collect,0.004165
collis,0.008771
come,0.004084
committe,0.006127
common,0.003453
commonli,0.009485
commun,0.007468
competit,0.005615
complet,0.003944
complex,0.004179
complic,0.006472
compromis,0.008211
comput,0.014197
concentr,0.005589
concept,0.019928
conceptu,0.006874
concern,0.012029
conform,0.007882
connect,0.009404
consid,0.003330
consider,0.004799
consist,0.007645
constant,0.011356
construct,0.008845
contain,0.008194
continent,0.022818
continu,0.006921
control,0.011384
conveni,0.007625
convent,0.011061
conventionto,0.016346
converg,0.007523
convers,0.005892
coord,0.015297
coordin,0.242181
corner,0.009215
corot,0.014332
correct,0.005751
correspond,0.005184
count,0.006513
countri,0.015034
crust,0.009512
crustal,0.012952
current,0.010969
curv,0.007026
curvatur,0.010398
customarili,0.011735
daniel,0.007103
data,0.027349
databas,0.006682
datum,0.284945
david,0.005073
deal,0.004601
decemb,0.005241
defin,0.043116
definit,0.013548
deflect,0.021165
deform,0.018649
degre,0.014032
densifi,0.015755
densiti,0.006892
depend,0.003768
der,0.014949
describ,0.017577
descript,0.005220
design,0.004195
determin,0.035697
deviat,0.008105
didsi,0.016129
die,0.010945
differ,0.018167
differenti,0.011566
digit,0.012755
dilat,0.011114
direct,0.068268
directli,0.013767
disadvantag,0.008469
disciplin,0.005262
displaystyl,0.013085
distanc,0.048656
distribut,0.004712
divers,0.005493
divid,0.009058
divis,0.004950
document,0.005514
doe,0.003864
dover,0.009545
downward,0.009166
drop,0.006268
dynam,0.010709
earth,0.178148
easi,0.006983
east,0.005286
ecef,0.016346
econom,0.003763
ed,0.019255
edit,0.010763
effect,0.003340
ej,0.012105
electron,0.005754
electroopt,0.014167
elev,0.023015
ellipsoid,0.230850
ellipsoidi,0.016346
ellipt,0.020481
elsevi,0.009656
employ,0.009122
encyclopdia,0.008919
end,0.003759
endalign,0.012076
energi,0.004813
engin,0.019822
english,0.009578
ensembl,0.009907
entri,0.006651
episod,0.008445
epsg,0.016346
equal,0.018731
equat,0.028595
equatori,0.030936
equilibrium,0.007186
equinox,0.012555
equipotenti,0.013943
equival,0.005538
era,0.005432
erdmessung,0.016129
esp,0.011965
essenti,0.009560
establish,0.007339
estat,0.007320
etr,0.015438
european,0.008565
evalu,0.005958
everi,0.004302
exact,0.006559
exactli,0.006736
exampl,0.009238
exist,0.006838
expans,0.005801
expect,0.004724
express,0.004455
extend,0.013606
extens,0.004643
extent,0.005658
extern,0.002688
extract,0.006619
extraterrestri,0.010725
f,0.020260
fairli,0.007788
fall,0.004693
familiar,0.007275
famou,0.005680
fashion,0.007237
fault,0.009236
featur,0.004650
feder,0.005474
field,0.026286
fig,0.011262
figur,0.025462
fit,0.012520
fix,0.021831
flat,0.007864
flatten,0.044317
follow,0.005882
form,0.002810
formal,0.004601
formula,0.006421
frac,0.008228
frame,0.035134
franc,0.005263
free,0.008400
frequent,0.005169
fundament,0.004708
futur,0.004478
ga,0.006186
gaug,0.009091
gener,0.007926
geocentr,0.091884
geodaisia,0.016346
geodes,0.071791
geodesi,0.351573
geodesist,0.077954
geodet,0.342008
geodsi,0.048389
geodynam,0.052930
geog,0.016346
geograph,0.017939
geoid,0.195209
geoidal,0.016346
geolog,0.007026
geomat,0.026999
geometr,0.045368
geometri,0.007499
geophys,0.009621
geopotenti,0.030329
geospati,0.012866
germanspeak,0.011687
gi,0.010288
given,0.011063
global,0.043947
gnss,0.014510
good,0.008176
government,0.007695
gp,0.150299
gr,0.046564
gradual,0.005910
gravimet,0.109136
gravit,0.016448
graviti,0.120247
great,0.004144
greek,0.005206
greenwich,0.012105
group,0.003316
gruyter,0.012520
guidanc,0.008290
gyroscop,0.012996
h,0.015323
ha,0.009807
height,0.212607
heiskanen,0.016129
helmert,0.074613
hhere,0.016346
hheren,0.032259
hierarchi,0.014986
high,0.007446
higher,0.021856
highest,0.005630
highli,0.004840
histori,0.009187
hofmannwellenhof,0.016129
horizon,0.035850
horizont,0.033918
howev,0.002984
hundr,0.005586
hydrolog,0.009745
iag,0.015755
ideal,0.017948
ier,0.060658
igso,0.016346
ii,0.004812
iii,0.007031
imag,0.005661
implement,0.005119
import,0.003136
imposs,0.006217
includ,0.010209
indirect,0.007989
inerti,0.010624
inexpens,0.009988
inform,0.007311
ingenieurgeodsi,0.016346
insar,0.015297
instanc,0.004979
instantan,0.028942
instrument,0.011323
insur,0.007088
integr,0.004437
interferometr,0.014606
interferometri,0.024095
interior,0.007215
intern,0.035443
intersect,0.033144
introduc,0.004313
introduct,0.004874
intuit,0.007868
invalid,0.009229
invers,0.015528
invis,0.008975
involv,0.007129
irregular,0.034407
isbn,0.004346
iso,0.034324
isostat,0.014419
iugg,0.015040
iv,0.007981
j,0.004617
june,0.005356
kaula,0.014922
kilometr,0.008524
kind,0.004897
kinemat,0.020481
knowledg,0.009248
known,0.021505
krakiwski,0.016346
kronstadt,0.014015
land,0.013957
larg,0.006479
largescal,0.007163
laser,0.027458
latitud,0.027973
leipzig,0.021757
length,0.018297
lengthofday,0.015755
let,0.013775
level,0.036759
lie,0.006022
like,0.019700
line,0.021997
link,0.005345
liquid,0.006589
liter,0.007068
llr,0.015934
lnrt,0.016129
load,0.008435
local,0.054124
locat,0.018078
long,0.007982
longest,0.008811
longitud,0.010488
loui,0.013872
lunar,0.019565
m,0.026377
make,0.003125
map,0.073102
march,0.005097
mark,0.004935
mass,0.020163
mathemat,0.028992
mathematischen,0.027887
mean,0.027081
measur,0.096624
mechan,0.009078
mention,0.005950
mercat,0.012629
meridian,0.069985
meridion,0.014248
method,0.003806
metr,0.026229
metric,0.016509
meyer,0.010373
mile,0.035724
millionth,0.013741
minimis,0.011044
minu,0.009085
minut,0.029347
model,0.007657
monitor,0.019941
moritz,0.024636
mostli,0.005244
motion,0.043417
movement,0.004238
nad,0.025488
nadir,0.012866
nap,0.013678
nation,0.010217
natur,0.006562
nautic,0.045206
navd,0.049038
need,0.003695
network,0.041109
newtonian,0.009512
nga,0.014510
noaang,0.016346
normaal,0.016346
normal,0.029396
north,0.043924
northward,0.010449
note,0.007087
nowaday,0.018604
number,0.003074
numer,0.009107
nutat,0.014090
object,0.004201
observ,0.024340
observatori,0.009503
obtain,0.009555
ocean,0.006325
oil,0.006135
oldfashion,0.012555
onli,0.005658
oper,0.015510
opposit,0.005057
optic,0.007394
orbit,0.015591
order,0.010161
organ,0.006705
organis,0.005819
orient,0.012809
origin,0.013625
orthometr,0.065384
outsid,0.004689
overdetermin,0.013388
p,0.004692
page,0.024103
paramet,0.007086
peil,0.015590
perform,0.004321
period,0.003652
perman,0.005956
perpendicular,0.030722
perturb,0.009553
petroleum,0.015802
phenomena,0.011737
phenomenon,0.006330
physic,0.040220
physikalischen,0.031181
plane,0.133258
planet,0.006973
planetwid,0.014332
planopolar,0.016346
plate,0.031925
plumblin,0.063736
point,0.171142
polar,0.030120
pole,0.051087
polygon,0.011664
polyhedron,0.013183
posit,0.072856
possibl,0.003595
postglaci,0.013741
potenti,0.004563
potsdam,0.013087
pp,0.011492
ppm,0.012163
practic,0.007542
practicecontrari,0.016346
precess,0.011595
precis,0.034835
prescrib,0.008607
pressur,0.005305
previous,0.005373
primarili,0.004817
prior,0.005323
prism,0.035579
problem,0.026387
process,0.003332
produc,0.014669
project,0.013083
projectionpreserv,0.016346
pronunci,0.009347
provid,0.006254
provis,0.006865
public,0.003549
publish,0.011736
pure,0.005573
purpos,0.004584
quantiti,0.011482
quickli,0.005737
quit,0.005956
r,0.014149
radar,0.009839
radiu,0.027973
rang,0.012693
ratio,0.006356
ray,0.007635
rd,0.006311
reach,0.004542
read,0.003882
real,0.018558
realiti,0.006080
realiz,0.018751
realli,0.007191
realtim,0.009369
reason,0.008023
receiv,0.012812
record,0.004711
rectangular,0.063497
red,0.006195
reduc,0.004234
refer,0.073766
referenc,0.009604
reflect,0.004803
region,0.028020
regularli,0.007609
rel,0.012024
relat,0.003013
relationship,0.008533
relativist,0.009229
reli,0.005386
replac,0.004555
represent,0.011278
reprint,0.008596
requir,0.003518
reservoir,0.010062
resist,0.005792
respect,0.017004
result,0.009341
retain,0.005878
revers,0.006154
revolut,0.011075
robot,0.008286
roman,0.005996
rotat,0.074003
roughli,0.006270
round,0.007081
rtk,0.015590
s,0.019022
sad,0.010863
sali,0.075200
satellit,0.116990
scale,0.015178
scienc,0.015038
scientif,0.004498
sea,0.057036
second,0.014675
semimajor,0.028180
semiminor,0.016346
sensit,0.007199
separ,0.004083
septemb,0.005390
seri,0.008906
serv,0.013349
servic,0.008710
set,0.003462
seven,0.005866
sever,0.003243
shape,0.010655
shift,0.005417
shore,0.008499
shortest,0.010993
sider,0.013678
significantli,0.005737
similar,0.003714
similarli,0.005893
simpl,0.009886
simplest,0.007935
simpli,0.005076
sin,0.008847
sinc,0.003110
singl,0.004163
size,0.004844
slr,0.015297
small,0.019034
softwar,0.006591
solar,0.007420
solid,0.020058
solut,0.015967
solv,0.017176
south,0.009743
space,0.043168
spatial,0.029090
speak,0.011930
special,0.007781
specif,0.003722
specifi,0.012650
sphere,0.041772
spin,0.008628
spirit,0.007029
spread,0.005499
spring,0.007017
springerverlag,0.009664
squar,0.013182
srid,0.016346
st,0.010030
standard,0.008380
star,0.006899
state,0.002722
static,0.007958
station,0.013592
steel,0.007792
straight,0.008628
strontium,0.012744
student,0.005295
studi,0.023014
subcommitte,0.011992
suffic,0.010847
superconduct,0.021694
surfac,0.090130
survey,0.065779
surveyor,0.023930
symbol,0.005648
synthet,0.007715
tacheomet,0.049038
tag,0.010105
tape,0.020299
target,0.017377
techniqu,0.038247
technolog,0.004485
tecton,0.029547
tempor,0.024594
tempt,0.011885
term,0.011758
terminolog,0.021976
terrain,0.009272
terrestri,0.059288
teubner,0.028335
text,0.010733
th,0.003567
themselv,0.004614
theodolit,0.014606
theori,0.010939
theorieen,0.032259
therefor,0.004228
thi,0.044212
thoma,0.005565
thousand,0.005486
thousandth,0.013806
threedimension,0.034180
thu,0.007273
tide,0.038694
tie,0.018204
time,0.011010
timevari,0.011784
topocentr,0.016346
topograph,0.010653
topographi,0.010149
torg,0.015934
tower,0.009098
tradit,0.011752
transform,0.045832
translat,0.021423
transvers,0.010785
travers,0.010116
treat,0.005447
triangul,0.024152
triest,0.012705
trigonometri,0.011381
tube,0.008596
twentieth,0.007339
twentysom,0.016346
type,0.003740
typic,0.020868
und,0.018305
underground,0.008623
understand,0.004222
undul,0.026366
union,0.004622
unit,0.012551
univers,0.003222
unknown,0.012882
unless,0.006971
unlik,0.005180
unlist,0.013943
updat,0.007536
uplift,0.011132
upward,0.008660
usa,0.006945
use,0.086429
usg,0.012134
usual,0.007487
utm,0.032692
vacuum,0.008117
valid,0.011881
valu,0.007974
vanek,0.014419
vari,0.013758
variant,0.007536
variat,0.023326
varieti,0.009342
variou,0.003541
vector,0.030095
veri,0.007105
verifi,0.007864
vernal,0.014015
vertic,0.096580
viewpoint,0.008189
vincenti,0.014706
vlbi,0.031868
vol,0.040116
volcan,0.008925
volum,0.005329
w,0.010439
wa,0.010203
water,0.009597
way,0.006652
wg,0.027114
wherea,0.005398
white,0.005906
wide,0.004006
widespread,0.005977
wien,0.011507
word,0.004318
work,0.003049
world,0.003154
worldwid,0.006311
written,0.004925
x,0.038558
xaxi,0.049272
xvii,0.013678
xyalpha,0.015934
y,0.046375
yaxi,0.013041
yssin,0.016346
yxendalign,0.016346
z,0.015180
zaxi,0.013616
zenith,0.045284
zero,0.006542
zilkoski,0.016346
