abil,0.005941
abl,0.005454
absenc,0.047632
absent,0.010524
absorb,0.008632
abund,0.008757
abundantli,0.016704
access,0.005974
account,0.005085
accumul,0.008284
acr,0.011557
activ,0.030161
adapt,0.048134
advanc,0.005333
advers,0.020227
aerobiolog,0.017400
affect,0.022571
afterward,0.009511
age,0.005407
agreement,0.006591
air,0.013266
airborn,0.025781
airbreath,0.018519
alga,0.023893
alien,0.010119
allow,0.012882
alon,0.007384
alter,0.023237
altitud,0.023374
amelior,0.014000
ammonia,0.012478
amphibian,0.012745
anaerob,0.014026
anchor,0.011749
ancient,0.006256
andor,0.007556
ani,0.015222
anim,0.126929
annual,0.013266
anoth,0.008306
ant,0.023436
antarctica,0.038622
apart,0.007913
appar,0.007371
aquat,0.023272
aqueou,0.012714
archaea,0.013530
area,0.047177
array,0.009422
associ,0.025310
atmospher,0.008459
australian,0.008980
avail,0.005278
away,0.006577
backwat,0.016556
bacteria,0.039654
balanc,0.006834
bank,0.006244
bare,0.010636
bark,0.040214
barren,0.014361
base,0.007525
basi,0.005378
basidomycot,0.021436
bat,0.012777
bay,0.019503
bayou,0.019962
beach,0.011280
becaus,0.007839
becom,0.037513
bed,0.044982
bee,0.012211
beetl,0.013874
befor,0.004446
behav,0.009261
benefit,0.012637
benthic,0.035005
besid,0.017817
biennial,0.015205
bin,0.012004
biodivers,0.043159
biolog,0.006175
bioluminesc,0.016629
biom,0.013777
biomolecul,0.012924
biospher,0.010855
biotic,0.012450
biotop,0.016350
bird,0.017776
blind,0.010656
block,0.007756
blown,0.015043
blue,0.009281
bodi,0.026124
bog,0.015082
borehol,0.016485
botan,0.025428
boulder,0.013208
brackish,0.046134
branch,0.011074
brassica,0.018854
bring,0.006473
britain,0.007335
broad,0.006993
broadleaf,0.016099
bromu,0.020592
brought,0.006418
bud,0.013080
build,0.011019
bulk,0.009230
burnt,0.013384
burrow,0.041697
butterfli,0.038331
buttress,0.016099
c,0.009966
california,0.007987
canopi,0.015163
carbon,0.016998
catastroph,0.010349
caus,0.013963
cell,0.015000
centaurea,0.020257
centuri,0.008956
certain,0.004773
chain,0.015582
chalk,0.015423
challeng,0.006229
chanc,0.008394
chang,0.047180
characterist,0.006010
chemic,0.013280
chemosynthesi,0.016350
chicago,0.008499
chief,0.007262
citi,0.006022
clear,0.025964
climat,0.044678
climax,0.013487
close,0.009332
cloud,0.009975
clump,0.015982
coast,0.007959
coastal,0.028522
cockroach,0.016221
cold,0.016626
collect,0.005087
colon,0.018507
colonis,0.035441
come,0.004988
common,0.004217
commun,0.050166
compar,0.005158
competit,0.013716
complex,0.010207
compon,0.006006
concept,0.009734
condit,0.034162
conduit,0.014106
conifer,0.016943
connect,0.005742
conserv,0.013847
conservationist,0.015333
consid,0.004067
consist,0.004668
constitu,0.008167
consum,0.006945
context,0.006135
contin,0.008987
control,0.018536
convent,0.006754
convert,0.007110
cope,0.011194
corridor,0.026269
couch,0.015423
couchii,0.021436
countri,0.009180
cover,0.005742
coyot,0.033258
crack,0.011606
crawl,0.015333
creat,0.021331
creation,0.006348
creatur,0.031909
crevic,0.019240
critic,0.005130
crude,0.010953
crustacean,0.013849
cubic,0.012039
current,0.013396
cyanobacteria,0.014391
cycl,0.021450
dam,0.011770
damag,0.015054
dark,0.009019
day,0.005263
debri,0.013364
decay,0.009590
deep,0.031060
deepest,0.013208
defin,0.004786
definit,0.011030
deforest,0.025650
demers,0.018854
densiti,0.008417
depend,0.009204
depress,0.008666
depth,0.045790
deriv,0.005303
desert,0.039674
desicc,0.015516
design,0.005123
desir,0.006564
despit,0.005914
destroy,0.007293
destruct,0.008255
detect,0.007659
detritivor,0.016860
detritu,0.015871
devast,0.009903
develop,0.010465
devoid,0.013364
diapaus,0.021436
dictionari,0.008456
differ,0.033279
difficult,0.006083
dig,0.013009
digest,0.010656
direct,0.004631
disappear,0.008868
discov,0.012285
diseas,0.021919
dispers,0.028718
distanc,0.014855
distribut,0.011510
disturb,0.048973
ditch,0.014818
diver,0.014713
divers,0.040251
divid,0.005531
domin,0.034438
dormant,0.013266
downpour,0.018367
drain,0.012028
dredg,0.016040
dreissena,0.021436
dri,0.027407
drift,0.043016
drill,0.011557
drought,0.011387
dust,0.011387
dwell,0.012341
earth,0.019778
earthquak,0.021273
ecolog,0.015826
ecosystem,0.009524
ecotour,0.016285
edg,0.009161
educ,0.005349
effect,0.016318
effici,0.006575
egg,0.050790
elsewher,0.008657
emerg,0.005382
enact,0.009308
encourag,0.006902
end,0.013774
endang,0.023333
endem,0.023395
enemi,0.009385
enforc,0.007872
enorm,0.009044
environ,0.061232
environment,0.033756
ephemer,0.015247
epiphyt,0.018367
eros,0.011324
erupt,0.010485
especi,0.014628
establish,0.008963
estim,0.011818
estuari,0.028321
etymolog,0.008939
europ,0.005694
european,0.005230
evenli,0.012535
event,0.005464
everi,0.010509
evid,0.011452
exampl,0.033848
exce,0.010968
exclud,0.007899
exist,0.016703
exot,0.011186
explod,0.012354
expos,0.008411
exposur,0.009332
extant,0.011111
extens,0.005670
extent,0.013819
extern,0.003283
extinct,0.019093
extrem,0.030118
exud,0.017207
eye,0.008394
f,0.012371
face,0.018908
facilit,0.007570
factor,0.031946
fairi,0.014133
fallen,0.010203
familiar,0.008884
farm,0.008378
farmer,0.008888
fast,0.008596
fastgrow,0.031852
fat,0.011499
fauna,0.032136
favour,0.008257
featur,0.011358
feed,0.038560
fell,0.008110
fern,0.014188
final,0.005431
fish,0.023504
fixat,0.012958
flammabl,0.015764
flatworm,0.018088
flexibl,0.009296
fli,0.018746
float,0.029832
flood,0.009913
floor,0.010214
flora,0.034053
flower,0.020394
follow,0.003592
food,0.051701
forest,0.086356
form,0.020594
forth,0.009128
fox,0.011566
fragment,0.044158
freeliv,0.015982
frequenc,0.008581
frequent,0.006312
fresh,0.010086
freshwat,0.023736
frog,0.012792
fruit,0.008898
ft,0.039256
fuel,0.008321
function,0.004597
fungi,0.010870
fungu,0.029358
gap,0.008741
garbag,0.014391
gener,0.012906
generalist,0.028722
genet,0.007627
geograph,0.007302
geolog,0.008581
geomorpholog,0.013190
glacier,0.023478
glade,0.019697
glass,0.009898
global,0.005963
globe,0.020452
grade,0.010473
gradual,0.007218
grain,0.009756
grass,0.022631
grassland,0.052250
great,0.020243
greater,0.022623
greatest,0.007902
groov,0.031634
ground,0.026136
group,0.008101
grow,0.063338
growth,0.017051
gush,0.017720
ha,0.029942
habitat,0.691222
habitr,0.021436
habr,0.019240
half,0.006181
hang,0.012028
harbour,0.023094
harvest,0.009954
hatch,0.013825
heat,0.007918
hedgerow,0.019040
herbicid,0.016860
herbivor,0.013305
hibern,0.016099
high,0.013640
higher,0.016015
highli,0.005911
highway,0.011333
hold,0.005408
hole,0.010220
hollow,0.012890
home,0.019236
homerang,0.021436
host,0.057477
hostil,0.009312
hot,0.029664
hous,0.012047
howev,0.010932
human,0.012978
humid,0.023916
hundr,0.006822
hunt,0.009062
hydrilla,0.021436
hydrogen,0.027902
hydrotherm,0.029030
ice,0.029384
ichthyophaga,0.021436
illumin,0.010550
immedi,0.006600
immun,0.009828
implement,0.006251
impli,0.006981
import,0.015319
improv,0.005525
includ,0.037405
incorpor,0.006166
increas,0.021590
indic,0.005523
indigen,0.008953
individu,0.013895
inhabit,0.031225
input,0.008135
insid,0.022593
intens,0.022373
interior,0.008812
intermedi,0.008825
intern,0.007869
intertid,0.049887
introduc,0.015802
introduct,0.011905
invas,0.024564
invertebr,0.071545
involv,0.008706
island,0.013310
issu,0.004818
juvenil,0.013190
kangaroo,0.016221
kelp,0.047613
kept,0.008090
kill,0.014825
killifish,0.020257
kind,0.005981
km,0.008450
known,0.007503
lack,0.022897
lagoon,0.014216
lake,0.035419
land,0.011363
landscap,0.009361
landslid,0.012745
larg,0.019782
larva,0.042564
latin,0.007056
law,0.009045
lay,0.016896
layer,0.034566
leaf,0.036520
legisl,0.027493
level,0.013467
lice,0.016159
lichen,0.029495
life,0.048257
lifecycl,0.013384
lifeform,0.014391
light,0.030945
lightn,0.012874
like,0.004009
limit,0.009169
link,0.003264
litter,0.028967
littl,0.034473
live,0.072808
local,0.015253
locat,0.016558
locomot,0.012761
log,0.042071
long,0.004874
longlast,0.013825
loss,0.006565
low,0.005753
lower,0.005546
lurk,0.016629
m,0.021474
macroalga,0.021436
macroinvertebr,0.020978
magma,0.014106
mainli,0.006231
maintain,0.005234
mainten,0.009005
major,0.007965
make,0.003817
mammal,0.009503
man,0.013283
manag,0.005376
mani,0.010178
margin,0.008226
mariana,0.013874
marin,0.042966
marsh,0.051496
marshland,0.017400
martin,0.007945
mat,0.013573
mate,0.011254
materi,0.005260
matter,0.005646
meadow,0.015082
mean,0.004134
media,0.006885
melt,0.010712
membran,0.010629
mesophyl,0.019240
met,0.007676
metabol,0.029847
metamorphosi,0.016285
methan,0.012593
metr,0.010677
mice,0.012211
microb,0.076567
microbi,0.062461
microfauna,0.019458
microhabitat,0.118187
microorgan,0.011211
microphallu,0.021436
midocean,0.015469
migrat,0.008020
migratori,0.014818
mile,0.017450
millennia,0.010937
miner,0.008310
miniatur,0.013208
minut,0.008960
mississippi,0.013685
mite,0.014713
moder,0.008599
moist,0.027848
moistur,0.013027
molecul,0.016210
mollusc,0.013731
monopol,0.013062
monotyp,0.091837
monotypichabitat,0.042872
moss,0.026769
moth,0.014160
movement,0.005176
mud,0.013116
mudflat,0.018681
mussel,0.034414
myriad,0.012857
myrmica,0.020592
nation,0.004159
nativ,0.038793
natur,0.028051
near,0.006171
nearbi,0.009238
necessari,0.011964
necessarili,0.007348
need,0.027075
nest,0.023252
new,0.013411
nitrogen,0.010361
nonn,0.015082
north,0.005960
northern,0.007017
note,0.004327
nourish,0.013777
number,0.018776
numer,0.005561
nutrient,0.021300
object,0.010262
occur,0.023845
ocean,0.046347
oil,0.007492
old,0.006210
onc,0.005608
onli,0.006910
open,0.020555
opportun,0.007090
organ,0.114644
outsid,0.005726
overabund,0.018681
overwhelm,0.010064
oxid,0.009959
oxygen,0.045697
pan,0.012408
parasit,0.033334
park,0.008773
particular,0.032889
patch,0.024524
pattern,0.006404
pebbl,0.014891
pelag,0.016629
peregrin,0.018519
perenni,0.012874
perhap,0.006977
perman,0.007274
pest,0.039514
pesticid,0.013208
petroleum,0.009649
photic,0.018519
photosynthesi,0.023939
physic,0.014735
pieri,0.019240
piezolyt,0.021436
pigeon,0.013708
pioneer,0.007841
pit,0.011890
place,0.021225
plankton,0.014645
plant,0.136858
play,0.005419
plough,0.030245
polar,0.009195
pollen,0.012958
pollut,0.020194
polychaet,0.017301
polymorpha,0.020592
polytyp,0.020592
pond,0.053064
pool,0.049144
popul,0.032044
practic,0.004605
precipit,0.009898
predat,0.057332
presenc,0.026036
present,0.034431
pressur,0.012958
pressureresist,0.021436
prevail,0.009106
prevent,0.024615
previous,0.013123
primari,0.005681
process,0.012207
produc,0.013435
product,0.004486
profound,0.009819
prohibit,0.008782
prolifer,0.010596
protect,0.074579
protein,0.008744
provid,0.030552
provis,0.008383
quartz,0.014452
quintin,0.019962
raccoon,0.017959
radiat,0.008620
raft,0.014818
raini,0.014273
rais,0.006348
rang,0.041336
rapa,0.017609
rapid,0.022379
rat,0.022848
rate,0.005334
reaction,0.028000
reason,0.004899
recognit,0.007482
reduc,0.005171
reduct,0.007854
reef,0.023962
refer,0.005459
regard,0.005237
regim,0.007954
regimen,0.014854
rel,0.004894
relat,0.003680
reli,0.013155
reliant,0.039570
remain,0.004514
remov,0.012605
replac,0.005562
reproduc,0.009261
reproduct,0.009273
requir,0.042974
research,0.004428
reserv,0.021780
resid,0.014464
resist,0.007073
resourc,0.016579
restor,0.007720
restrict,0.006327
result,0.011407
retard,0.013384
retreat,0.010543
return,0.005524
rich,0.015656
right,0.009797
risk,0.006717
river,0.044781
roam,0.014612
rock,0.051293
rocki,0.013044
roof,0.013285
roost,0.019458
root,0.006895
rot,0.014645
rotten,0.031324
rough,0.010826
russia,0.008023
salt,0.018705
salttoler,0.020978
san,0.008669
sand,0.011271
sandi,0.013404
satur,0.024762
scaphiopu,0.021436
scarc,0.010454
scatter,0.010081
scienc,0.004591
scuba,0.014854
sea,0.055722
seab,0.107646
seagrass,0.017400
season,0.008821
seawat,0.013227
seawe,0.015817
second,0.004480
secondari,0.007773
section,0.006764
sediment,0.012075
seed,0.029058
seedl,0.015290
seep,0.031529
semiarid,0.015163
semisubmerg,0.021436
sensori,0.010583
separ,0.004987
seriou,0.015294
serv,0.005434
set,0.008457
sever,0.003960
sheet,0.019746
shelter,0.010643
shift,0.006615
shortag,0.009913
shrimp,0.042399
shrub,0.013849
similar,0.018146
similarli,0.021593
simplic,0.010991
sinc,0.003799
singl,0.015253
singular,0.010011
site,0.006399
situat,0.005849
size,0.005916
skin,0.009635
skunk,0.017116
slope,0.010968
slow,0.031374
small,0.023245
smallscal,0.011739
smooth,0.010075
snail,0.014645
snow,0.011770
snowfield,0.021436
social,0.004833
soil,0.051650
solar,0.009062
solidifi,0.012506
solstitiali,0.020592
sometim,0.019783
south,0.005949
southeastern,0.011803
space,0.005857
spadefoot,0.021436
sparrow,0.016285
spatial,0.008881
speak,0.007285
speci,0.230582
special,0.004751
speciallyadapt,0.021436
specif,0.031819
specimen,0.011781
spend,0.007886
spider,0.013384
spore,0.013874
spp,0.015290
spring,0.017139
squirrel,0.015926
stage,0.006634
stand,0.007140
starthistl,0.020592
state,0.013297
static,0.009718
stem,0.017080
step,0.006442
stepp,0.013190
storm,0.021286
stream,0.027318
street,0.008669
strike,0.008450
strip,0.019939
structur,0.008877
studi,0.012045
stump,0.016221
submarin,0.011480
submerg,0.026975
subsid,0.011271
substanc,0.007987
substrat,0.011537
subtli,0.015163
subtrop,0.013825
suffer,0.006934
sugarcan,0.012941
suit,0.008831
suitabl,0.016867
sulfid,0.025781
sunlight,0.011846
support,0.027103
surfac,0.034396
surround,0.013915
survey,0.007302
surviv,0.019657
sustain,0.007431
swallow,0.012941
swept,0.012422
swim,0.024682
symbiot,0.013171
tadpol,0.018519
taken,0.005562
tar,0.014891
tecton,0.012028
tectorum,0.020592
teem,0.033258
temper,0.011461
temperatur,0.061444
temporarili,0.010473
tend,0.012477
term,0.003590
termit,0.014331
terrestri,0.031030
territori,0.006649
thelebolu,0.021436
thi,0.031259
thirdperson,0.016943
thought,0.010769
thousand,0.006700
threat,0.007968
threaten,0.008638
thrive,0.021035
thymu,0.016417
time,0.006723
toad,0.015247
toler,0.009613
toppl,0.013551
total,0.005301
tourism,0.008838
town,0.007801
trace,0.007285
track,0.008406
tract,0.010833
transient,0.012314
travel,0.013417
treati,0.007934
tree,0.046956
trematod,0.019240
trench,0.012825
tropic,0.019390
trunk,0.013617
tsunami,0.013874
turgidu,0.021436
tussock,0.018367
twentieth,0.017927
twig,0.016781
type,0.050245
typic,0.010194
undergo,0.008808
underground,0.010530
underli,0.007215
underpass,0.021436
undersea,0.014747
underwat,0.012249
unexpect,0.011095
unhospit,0.021436
uniform,0.008808
uninhabit,0.012004
uniqu,0.019434
unit,0.011496
unsatur,0.014273
unsuit,0.013509
uplift,0.013595
upper,0.007672
urban,0.015937
urchin,0.044455
use,0.018626
valley,0.008786
vari,0.022403
variat,0.014243
varieti,0.005704
variou,0.008650
vast,0.022887
vastli,0.011879
veget,0.027209
vein,0.011315
veloc,0.009990
vent,0.040154
verg,0.013425
veri,0.013016
vernal,0.017116
vertebr,0.011289
vicin,0.012262
vigor,0.010991
violent,0.009381
virtual,0.007513
visit,0.007633
volcano,0.011237
voraci,0.017720
vulner,0.019326
wa,0.006230
wallemia,0.021436
warmer,0.013009
wasp,0.014452
water,0.076187
waterfowl,0.017028
watersh,0.012211
wave,0.007661
way,0.008124
weather,0.009316
weed,0.013731
wetland,0.013446
whillan,0.021436
white,0.007213
wide,0.014679
wikimedia,0.010589
wiktionari,0.014273
wild,0.009746
wildfir,0.048855
wildflow,0.017837
wildlif,0.054130
wing,0.010343
winter,0.009414
wood,0.035067
woodland,0.041477
word,0.005273
world,0.003851
worm,0.011969
year,0.011502
yellow,0.010670
young,0.007054
zebra,0.015290
zone,0.070673
zoolog,0.022941
