abil,0.002831
abnorm,0.005121
access,0.002847
account,0.004847
achiev,0.002588
acid,0.016585
activ,0.018481
acut,0.005401
add,0.003924
addit,0.008327
address,0.003099
adequ,0.004317
adolesc,0.005987
adult,0.016115
advers,0.004819
advis,0.004159
advoc,0.003532
affect,0.013446
africa,0.006684
age,0.046391
agent,0.003508
agerel,0.007792
ai,0.005169
aim,0.002938
air,0.006322
alcohol,0.061418
alreadi,0.002998
alter,0.003691
analysi,0.002480
andor,0.003601
aneurysm,0.016890
angina,0.008500
ani,0.005441
anklebrachi,0.010826
anoth,0.005938
antibiot,0.005807
antidiabet,0.009387
antioxid,0.007701
aorta,0.007997
aortic,0.016784
apolipoprotein,0.009513
appear,0.011918
approxim,0.011218
area,0.004087
argu,0.002737
arm,0.003281
arrhythmia,0.026055
arteri,0.115552
asian,0.003920
aspirin,0.021739
assess,0.003505
assist,0.003068
associ,0.032165
atherogen,0.010826
atherosclerosi,0.059117
attack,0.009954
attribut,0.012796
author,0.004634
averag,0.006147
avert,0.006709
avoid,0.009221
awar,0.007446
b,0.005451
bariatr,0.009998
base,0.001793
baselin,0.013087
basi,0.002563
begin,0.007258
behavior,0.002910
behaviour,0.003825
benefici,0.009107
benefit,0.036135
biomark,0.022392
biomed,0.005448
birth,0.003656
bleed,0.006635
blood,0.169723
bodi,0.012450
brain,0.003970
bring,0.003084
btype,0.009273
burden,0.009473
c,0.002374
cad,0.006932
calcif,0.008559
carbohydr,0.005856
cardiac,0.025671
cardiomegali,0.010826
cardiomyopathi,0.016682
cardiovascular,0.622091
cardiovascularheart,0.010826
cardiovascularrel,0.010826
carditi,0.010826
care,0.009366
carotid,0.008559
case,0.002078
caus,0.028837
cell,0.007148
centuri,0.002134
cerebrovascular,0.009074
certain,0.002274
cessat,0.013087
cetp,0.010826
chanc,0.004000
chang,0.013116
childhood,0.005311
children,0.003418
cholesterol,0.077683
chronic,0.005108
cigarett,0.006408
circul,0.004348
circumfer,0.006521
class,0.002756
clearcut,0.006697
clinic,0.017338
cochran,0.039673
cold,0.003961
combin,0.009480
commiss,0.003309
common,0.004019
commonli,0.005520
commonlyus,0.009387
commun,0.002173
compar,0.004916
complex,0.002432
complianc,0.010669
complic,0.011301
composit,0.003445
concentr,0.003252
concern,0.002333
conclud,0.010198
conclus,0.007407
congenit,0.013320
congest,0.006775
consid,0.001938
consist,0.004449
constitut,0.002624
consum,0.013239
consumpt,0.050401
context,0.002924
continu,0.002014
contribut,0.012198
control,0.002208
convent,0.003218
coronari,0.129384
counsel,0.005351
count,0.003791
countri,0.013125
creactiv,0.010215
critic,0.002445
current,0.008512
cut,0.003529
cvd,0.115850
daili,0.003887
damag,0.003587
dash,0.007132
data,0.002652
date,0.002778
day,0.005016
death,0.049493
debat,0.003094
decad,0.006043
declin,0.003156
decreas,0.039281
defin,0.002281
definit,0.002628
demonstr,0.002987
densiti,0.004011
dental,0.006350
depend,0.006580
depress,0.004130
descript,0.003038
despit,0.002818
determin,0.009233
develop,0.009974
diabet,0.088222
diagnosi,0.005043
diagnost,0.005322
diastol,0.009169
did,0.004935
die,0.012740
diet,0.098304
dietari,0.061198
differ,0.012335
differenti,0.003365
difficult,0.002899
digoxin,0.009169
dimens,0.003824
direct,0.006622
disadvantag,0.004929
diseas,0.459634
disput,0.006687
distinguish,0.002951
distribut,0.005485
diuret,0.008985
dmoz,0.004402
doe,0.008996
dose,0.006059
doubl,0.003680
draw,0.003407
drink,0.014788
drug,0.015682
dysfunct,0.005946
dysrhythmia,0.009813
e,0.002693
earli,0.002001
earlier,0.002957
easili,0.003428
eat,0.004670
ecg,0.017001
echocardiographi,0.009169
educ,0.010198
effect,0.036940
efficaci,0.005498
elast,0.005012
elderli,0.005604
elev,0.004465
elimin,0.003460
emot,0.004111
endocard,0.009387
endocardium,0.010215
endotheli,0.008500
environment,0.009652
epidemiolog,0.005666
episod,0.004915
equal,0.005450
equival,0.003223
establish,0.004271
estim,0.022529
estrogen,0.023283
ethnic,0.003949
europ,0.002713
european,0.002492
evalu,0.003467
event,0.036461
everi,0.010017
evid,0.046393
exampl,0.001792
exceed,0.004202
excess,0.011602
exclud,0.003764
exercis,0.024069
exercisebas,0.010826
exist,0.007960
expens,0.003574
explain,0.008082
explan,0.007045
exposur,0.035582
extern,0.001564
extrem,0.005741
fact,0.002541
factor,0.058362
failur,0.020892
famili,0.011084
far,0.002713
fat,0.098645
fatal,0.005201
fatti,0.024573
favour,0.007870
feder,0.003186
femal,0.012054
fever,0.005704
fiber,0.005198
fibrat,0.009513
fibrinogen,0.009813
field,0.002185
firm,0.003574
fish,0.007467
focu,0.002935
focus,0.002785
fold,0.005101
follow,0.005135
followup,0.006350
food,0.006159
forc,0.002144
form,0.008178
fourfold,0.007488
fourth,0.003733
framingham,0.009998
frequent,0.003008
fruit,0.021203
function,0.004382
futur,0.010425
gender,0.018351
genet,0.025443
given,0.002146
global,0.008525
glucos,0.017963
gm,0.020798
gradient,0.005091
grain,0.004649
greater,0.010781
greatest,0.007531
group,0.003860
guidelin,0.018985
ha,0.015696
half,0.005891
harm,0.016502
hdl,0.016149
health,0.023867
healthcar,0.005040
healthi,0.014017
heart,0.235679
heat,0.003773
heavi,0.003698
height,0.004266
hemostat,0.009813
high,0.049839
highenergi,0.006183
higher,0.015264
highfib,0.009813
highincom,0.013927
histori,0.012477
historygenet,0.010826
homocystein,0.009387
hope,0.003643
hormon,0.011091
hour,0.007521
hous,0.002870
howev,0.020841
hscrp,0.010826
hundr,0.003251
hypercholesterolaemia,0.010826
hyperlipidemia,0.029994
hypertens,0.065959
hypertrophi,0.009387
hypoglycemia,0.009273
hypoxem,0.010826
imag,0.003295
immut,0.006577
impact,0.002932
impli,0.003326
implic,0.003728
import,0.010951
imprecis,0.006635
improv,0.018433
inabl,0.005166
inact,0.022318
includ,0.016341
incom,0.003277
inconclus,0.006233
increas,0.065852
independ,0.002197
index,0.006799
indian,0.003542
individu,0.008829
induc,0.004237
inequ,0.009005
infarct,0.015648
infect,0.004857
inflamm,0.026448
inflammatori,0.020619
influenc,0.002357
influenza,0.013577
inform,0.002127
inhibitor,0.006697
initi,0.002325
inner,0.004301
insuffici,0.009703
insulin,0.006340
intak,0.065328
intervent,0.023297
intim,0.005355
intoxicationinduc,0.010826
involv,0.014522
irregular,0.005006
irrespect,0.006216
ischem,0.017001
ischemia,0.008685
issu,0.002296
kidney,0.011712
known,0.012516
lack,0.008184
larg,0.001885
larger,0.005648
layer,0.004118
ldl,0.008903
lead,0.012808
left,0.008555
leg,0.005311
lesion,0.006722
level,0.025672
life,0.002299
lifestyl,0.015285
lifethreaten,0.007096
like,0.007643
limit,0.010924
link,0.010889
linol,0.008985
lipid,0.045082
lipoprotein,0.015921
lipoproteina,0.010826
literatur,0.003196
littl,0.005476
long,0.002322
longer,0.002950
longterm,0.018824
loss,0.012516
low,0.046611
lower,0.021148
lowfat,0.020965
lowsalt,0.032479
lowsugar,0.010826
lung,0.005594
magnesium,0.012239
major,0.011387
make,0.001819
male,0.008025
malform,0.007417
man,0.003165
manag,0.002562
mani,0.006467
manner,0.003452
marker,0.011006
mass,0.002933
matter,0.002691
measur,0.009372
meat,0.009928
mechan,0.007925
medic,0.013177
medicinenet,0.010826
mediterranean,0.009359
meet,0.002894
mellitu,0.030923
men,0.036490
menopaus,0.025024
mental,0.007742
merit,0.005105
meta,0.006995
metaanalysi,0.006858
metabol,0.018966
middleag,0.007513
middleincom,0.022614
million,0.011239
miner,0.003960
minor,0.003310
minut,0.021350
mmhg,0.027222
moder,0.020491
modest,0.010447
modifi,0.003490
moreintens,0.010826
mortal,0.038251
multipl,0.008254
muscl,0.009922
muscular,0.006340
myocard,0.009998
myocardi,0.032802
myocardium,0.008685
natriuret,0.009654
nearli,0.003115
need,0.002150
niacin,0.017506
nih,0.006995
noncommunic,0.008685
nondiabet,0.010826
nonfat,0.009387
nonhdl,0.010826
normal,0.002851
notabl,0.005490
novel,0.003959
ntermin,0.008341
ntprobnp,0.010826
nucleotid,0.005726
number,0.001789
numer,0.002650
nut,0.006175
nutrit,0.005138
obes,0.046123
observ,0.002361
occur,0.006818
oil,0.003570
old,0.002960
older,0.015016
omega,0.017587
onc,0.002673
onli,0.006586
onset,0.005503
order,0.001971
organ,0.005853
otherwis,0.003402
outcom,0.007314
outsid,0.002729
overal,0.016371
overweight,0.007824
parent,0.004028
particip,0.005644
particl,0.003845
particul,0.006398
particular,0.002239
past,0.002837
pathobiolog,0.008500
pathophysiolog,0.007960
pattern,0.003052
pday,0.010826
peopl,0.051281
peptid,0.005987
percent,0.003592
perfus,0.008341
period,0.002125
periodont,0.009074
peripher,0.016523
person,0.002340
phosphoru,0.005894
photo,0.005536
physic,0.023408
plant,0.003105
play,0.002582
pm,0.043346
point,0.002075
polici,0.002647
pollut,0.009624
polymorph,0.006151
polysatur,0.010826
polyunsatur,0.017118
poor,0.003537
poorli,0.004736
popul,0.007635
populationbas,0.008392
pose,0.004357
possibl,0.004184
potenti,0.005311
poverti,0.004220
power,0.002099
practic,0.004389
precursor,0.004469
predict,0.003001
predictor,0.013132
predispos,0.006995
predisposit,0.021237
predomin,0.004679
prehistori,0.005152
premenopaus,0.010482
present,0.004102
pressur,0.080286
prevent,0.041058
preventivi,0.010826
previou,0.006186
primari,0.002707
primarili,0.002804
pro,0.005960
problem,0.006581
process,0.003878
produc,0.002134
product,0.002138
profil,0.004428
promot,0.002926
pronounc,0.004955
properti,0.002483
propos,0.005061
protect,0.008202
protein,0.004167
provid,0.003640
psychosoci,0.026738
publish,0.002276
pulmonari,0.013660
pulsatil,0.010826
pyogen,0.010482
qt,0.007925
qualiti,0.009169
question,0.010304
quit,0.006933
rais,0.012102
rate,0.017795
ratio,0.003699
recent,0.004505
recommend,0.049855
red,0.003606
reduc,0.044363
reduct,0.026203
refer,0.001300
regard,0.004992
regimen,0.007079
region,0.002329
rehabilit,0.005609
rel,0.009330
relat,0.001754
relationship,0.009933
relax,0.004973
remain,0.004303
remov,0.003003
renal,0.007150
replac,0.010604
report,0.002500
requir,0.004096
research,0.010553
respect,0.004948
respiratori,0.005894
respons,0.002256
rest,0.006096
result,0.016310
revers,0.003581
review,0.034981
rheumat,0.039283
rhythm,0.011814
right,0.004669
rise,0.002618
risk,0.278500
role,0.002279
routin,0.009340
rr,0.006932
s,0.001845
salt,0.026744
satur,0.047205
scientif,0.002618
score,0.028612
screen,0.014413
secondari,0.007409
secondhand,0.015026
seen,0.002552
sensit,0.008380
seriou,0.003644
serum,0.013604
servic,0.002534
seven,0.003414
sever,0.003775
sex,0.022523
sharpli,0.005118
short,0.002773
shortterm,0.004729
shown,0.006274
significantli,0.003339
similar,0.006486
simpli,0.002954
sinc,0.001810
singl,0.002423
size,0.002819
slide,0.005650
small,0.008862
smaller,0.003078
smoke,0.053800
smoker,0.007169
snp,0.007590
social,0.006910
socioeconom,0.020924
sometim,0.002357
south,0.002835
specif,0.004332
state,0.004752
statin,0.042504
statu,0.006048
stem,0.004069
stenosi,0.008500
stiff,0.006127
strategi,0.003372
streak,0.007307
strep,0.020431
streptococc,0.010482
streptococcu,0.009074
stress,0.018565
stressinduc,0.009273
stroke,0.057838
strong,0.002630
strongest,0.005253
structur,0.006346
studi,0.021048
subclass,0.006635
subcontin,0.005579
subsequ,0.008476
substitut,0.004023
suffici,0.003347
sugar,0.017647
suggest,0.012674
supplement,0.026896
suppli,0.008855
support,0.004305
surgeri,0.005105
sweet,0.005640
symptom,0.010305
syndrom,0.022068
systemat,0.003459
systol,0.008292
taken,0.002651
takotsubo,0.010826
task,0.003358
term,0.001710
test,0.011840
th,0.002076
therapeut,0.005343
therapi,0.009223
therefor,0.002461
thi,0.018960
thicken,0.007417
threat,0.003797
throat,0.013022
thromboembol,0.010482
thrombosi,0.008445
thu,0.002116
tide,0.005630
time,0.003204
tissu,0.004375
tobacco,0.045916
togeth,0.002496
tone,0.005493
torsad,0.010215
total,0.010105
toxin,0.006208
train,0.003126
tran,0.005555
transfat,0.027509
treament,0.010826
treat,0.006341
treatabl,0.007997
treatment,0.013323
trend,0.003458
trial,0.012394
tripl,0.004988
true,0.002931
type,0.010884
typic,0.002429
unabl,0.003762
uncertain,0.004786
uncertainti,0.004213
unclear,0.019025
underli,0.003438
understood,0.003398
unfavor,0.006417
unhealthi,0.006697
unit,0.005478
unnecessari,0.005347
unsatur,0.013604
untreat,0.007286
use,0.011835
usual,0.004357
vaccin,0.006008
vagal,0.010215
valu,0.002320
valv,0.012383
valvular,0.018775
vari,0.005338
variabl,0.003309
variat,0.003394
vascular,0.017901
vasoact,0.010215
veget,0.021612
venou,0.007856
ventricular,0.016230
veri,0.006203
version,0.003167
vessel,0.017632
vigor,0.005238
vitamin,0.023787
volum,0.003101
wa,0.010392
waist,0.007960
wall,0.003833
water,0.002793
wealth,0.003728
week,0.015222
weekli,0.005371
weight,0.018247
whi,0.003331
white,0.003437
wide,0.002332
woman,0.004520
women,0.044797
work,0.005325
world,0.018356
worldwid,0.018366
worsen,0.005405
x,0.006411
year,0.016445
yoga,0.006612
young,0.003361
youth,0.009132
