anatomi,0.170058
anthropolog,0.328331
area,0.071918
articl,0.086060
associ,0.070736
biolog,0.517767
bodi,0.087615
close,0.078250
divers,0.112493
ecolog,0.132699
epidemiolog,0.199391
evolut,0.114331
examin,0.110214
extern,0.055062
field,0.153799
genet,0.255791
human,0.362728
influenc,0.165871
interdisciplinari,0.154782
interplay,0.208309
link,0.054737
mani,0.056895
nutrit,0.180812
physiolog,0.148264
popul,0.089558
refer,0.045776
relat,0.061721
societi,0.079820
sociocultur,0.225128
studi,0.134657
