abbrevi,0.004957
abil,0.002800
abl,0.025711
abner,0.008729
abov,0.007817
absolut,0.010357
absorb,0.024415
absorpt,0.004954
abstract,0.010745
absurd,0.005849
acad,0.007838
acceler,0.003914
accept,0.002555
accord,0.008141
accordingli,0.004581
account,0.007192
accur,0.020807
accuraci,0.008829
act,0.006979
action,0.012505
actual,0.007815
ad,0.002597
addisonwesley,0.005780
addit,0.004118
admiss,0.005429
advanc,0.002514
afterward,0.004483
agre,0.003068
aim,0.002906
al,0.003491
albert,0.012411
algebra,0.004371
alkhalili,0.009285
allen,0.004699
allow,0.016193
alreadi,0.005930
alway,0.002737
american,0.004612
amplitud,0.017957
analog,0.010911
analogu,0.005563
andrea,0.005416
angl,0.004594
angular,0.043919
ani,0.023321
anim,0.008547
annihil,0.011548
anomal,0.006191
anoth,0.015662
answer,0.003624
antielectron,0.009069
antimatt,0.007561
anyon,0.004437
appar,0.003474
apparatu,0.020263
appear,0.011788
appletoncenturycroft,0.008111
applic,0.012154
approach,0.002342
appropri,0.003262
approxim,0.002773
arbitrari,0.017581
archibald,0.006741
argu,0.002707
argument,0.003419
arriv,0.003276
arthur,0.004152
articl,0.002419
arxivquantph,0.017774
asin,0.007019
aspect,0.002675
assign,0.003656
associ,0.003976
assum,0.011279
assumpt,0.013871
astronom,0.004583
atom,0.202879
atomsexhibit,0.010104
attempt,0.009287
augustin,0.005466
author,0.002291
avail,0.002488
avoid,0.003040
axe,0.005568
axi,0.046682
azimuth,0.030705
balmer,0.008526
band,0.004426
barrier,0.004141
base,0.001773
basic,0.004938
beam,0.061033
becam,0.004486
becaus,0.012933
becom,0.011788
befor,0.004192
began,0.002450
begin,0.007179
behav,0.017462
behaviour,0.037841
believ,0.002538
bell,0.004751
beller,0.009706
benjamin,0.004654
bernstein,0.006540
best,0.002705
bibcodeamjphb,0.009548
bibcodeejphb,0.010104
bibcodephrvf,0.009548
bibcodephtkw,0.010104
bibcodervmpw,0.009548
bibliographi,0.003569
black,0.006624
blackbodi,0.014182
blue,0.021874
bodi,0.012314
bohr,0.127439
bond,0.003505
boojum,0.009409
book,0.006998
born,0.013868
bounc,0.006587
boundari,0.003426
bradi,0.007128
braket,0.008408
breakdown,0.005052
brian,0.005020
brighter,0.007406
british,0.002740
broadli,0.004108
brodbeck,0.010104
brogli,0.043003
broke,0.004208
bronner,0.009172
brother,0.004115
bruce,0.005042
buffalo,0.006226
build,0.002597
bvgvf,0.010104
calcul,0.015660
california,0.003765
cambridg,0.006511
camera,0.005313
car,0.021718
card,0.004670
carl,0.008208
carri,0.010599
carrier,0.004936
carrol,0.006226
case,0.004110
caus,0.015358
ccd,0.015122
cell,0.007070
cellular,0.004548
central,0.002304
centripet,0.007738
centuri,0.018997
certain,0.026998
certainti,0.005188
challeng,0.002936
chang,0.022239
character,0.003117
characterist,0.022667
charg,0.028550
chemic,0.003130
chemist,0.004724
chester,0.006755
chicago,0.004006
chip,0.005518
choic,0.006459
chosen,0.007512
chpt,0.008590
christin,0.006419
chromodynam,0.007054
circl,0.003961
circumfer,0.006450
citat,0.004895
cite,0.010314
claim,0.002495
class,0.002726
classic,0.067900
clearli,0.003696
clerk,0.005664
close,0.010998
closer,0.008135
closest,0.004976
cloud,0.014106
cold,0.007837
collaps,0.018106
colleagu,0.004443
collect,0.002398
collid,0.011137
collis,0.005049
colour,0.018769
combin,0.004688
come,0.009405
comfort,0.005222
common,0.003975
commun,0.004299
compani,0.007788
compar,0.002431
compet,0.003389
complementar,0.020571
complet,0.011353
complexvalu,0.007838
complic,0.007451
compon,0.002831
compos,0.003119
comprehend,0.005823
comprehens,0.003621
compris,0.003363
compromis,0.004726
comput,0.002724
concept,0.013766
conceptu,0.003957
conclud,0.003362
concret,0.004504
condit,0.004600
confid,0.004205
confirm,0.003544
connect,0.005413
consequ,0.011182
conserv,0.003263
consid,0.005752
consist,0.006601
constant,0.026149
constraint,0.004082
construct,0.010184
contain,0.007076
contemporari,0.003215
continu,0.011952
contradict,0.004391
contrari,0.004299
contrast,0.005554
contribut,0.002413
controversi,0.003239
convent,0.003183
copenhagen,0.029213
correct,0.006621
correl,0.003832
correspond,0.008954
counterintuit,0.013376
cours,0.002865
cover,0.002706
cox,0.006045
crash,0.004889
creat,0.010055
creation,0.005985
creator,0.004927
crest,0.006827
critic,0.002418
crystal,0.004612
current,0.014734
d,0.002661
damag,0.003548
daniel,0.004089
dark,0.004251
david,0.005841
dawn,0.005203
deal,0.005297
dealt,0.004927
debat,0.006121
decad,0.002988
declar,0.003175
deepli,0.004642
defin,0.011281
definit,0.010398
deflect,0.048737
degre,0.005385
deliv,0.015501
demand,0.002935
demonstr,0.026597
denot,0.032094
dens,0.004680
depend,0.008677
depict,0.008202
describ,0.048568
descript,0.030054
design,0.002414
desir,0.006188
destroy,0.003438
detect,0.014442
detector,0.011698
determin,0.013699
develop,0.011510
deviat,0.004665
devic,0.029396
diagram,0.009045
dialogu,0.004590
diametr,0.007336
did,0.004881
didnt,0.005402
differ,0.036603
difficult,0.002867
diffract,0.029822
diffus,0.004491
dimens,0.003783
dimension,0.010172
diod,0.006872
dirac,0.054758
direct,0.019649
disagre,0.009453
disappear,0.008360
discontinu,0.004991
discov,0.017372
discoveri,0.006158
discret,0.019389
discuss,0.010731
dislodg,0.007561
dispers,0.004512
displac,0.004218
displaystyl,0.037662
disput,0.003307
distanc,0.035011
distant,0.004570
distinct,0.005064
distinguish,0.002919
distribut,0.008138
disturb,0.013851
doe,0.008898
doi,0.013058
doiphysrev,0.008657
doirevmodphi,0.008805
doubl,0.014560
doubleslit,0.031354
doublet,0.008590
dover,0.005494
downward,0.005276
drive,0.003532
dualiti,0.028211
dumbbel,0.009172
dynam,0.009247
e,0.010657
earli,0.001979
earlier,0.002924
earth,0.003107
ed,0.008313
educ,0.005043
effect,0.021153
ehf,0.008975
eigenst,0.060058
eigenvalu,0.006575
einstein,0.066816
eject,0.024091
ek,0.007109
ekhfvarphi,0.010104
electr,0.058914
electrodynam,0.041602
electromagnet,0.088755
electromechan,0.007291
electron,0.278242
electroweak,0.013903
eleg,0.005902
element,0.005035
elementari,0.008930
embarrass,0.006200
embrac,0.004465
emerg,0.002536
emeritu,0.006517
emiss,0.032879
emit,0.079276
emitt,0.014374
empir,0.008286
encount,0.003898
encyclopediacom,0.008590
end,0.017313
energi,0.169037
enhfquad,0.010104
entangl,0.030460
entir,0.002567
entiti,0.003358
ephoton,0.010104
epr,0.029724
equal,0.013478
equat,0.032921
equilibrium,0.012411
equip,0.010616
eras,0.006388
erwin,0.011957
essay,0.007671
essenti,0.013758
establish,0.002112
et,0.003402
european,0.002465
event,0.018031
eventu,0.005626
everi,0.002476
everyday,0.004228
everywher,0.005141
evid,0.008097
exact,0.003776
exactli,0.003877
exampl,0.019500
exchang,0.002798
excit,0.009651
exclus,0.020289
exert,0.009084
exhibit,0.014946
exist,0.013778
expand,0.002800
expect,0.010878
experi,0.046249
experiment,0.036370
explain,0.047964
explan,0.003484
expos,0.003965
express,0.005129
extend,0.007832
extern,0.003095
extra,0.004533
extrem,0.002839
f,0.040820
face,0.002971
fact,0.007539
fairli,0.004483
fall,0.002701
familiar,0.004188
famou,0.003270
farther,0.005528
favour,0.015570
featur,0.008031
feigl,0.008526
feynman,0.040677
field,0.079982
figur,0.002931
film,0.004014
fine,0.004231
finicki,0.010104
fix,0.009425
flash,0.005558
flow,0.003117
follow,0.006772
forc,0.016972
ford,0.005604
forev,0.005642
form,0.012943
formul,0.010168
formula,0.014785
forshaw,0.009548
forward,0.003757
foundat,0.008280
fourth,0.003693
fowler,0.006551
fraction,0.008286
franci,0.004053
freedom,0.006682
freeli,0.009206
frequenc,0.137532
fresnel,0.007588
fring,0.005664
fulli,0.003191
function,0.034673
fundament,0.005421
furthermor,0.003627
g,0.005726
ga,0.003561
gap,0.004120
gaug,0.005233
gave,0.003080
gener,0.001520
georgia,0.005059
gerald,0.005489
gerlach,0.016311
ghirardi,0.010104
giancarlo,0.008155
given,0.021229
god,0.003704
goe,0.003809
goudsmit,0.009069
govern,0.002012
gravit,0.004734
graviti,0.004614
great,0.002385
greater,0.005332
greek,0.002997
guid,0.002992
h,0.026462
ha,0.035284
hadron,0.006662
half,0.017481
halfway,0.006599
halv,0.006084
hammond,0.007248
han,0.004230
handl,0.003848
happen,0.003345
haran,0.007838
harmon,0.005145
harper,0.005452
harvard,0.004135
heat,0.011197
heinrich,0.005253
heisenberg,0.080600
helium,0.011328
help,0.004634
henc,0.003302
henri,0.006823
herbert,0.004583
hertz,0.006714
heurist,0.005416
hey,0.008465
hf,0.041612
hff,0.009706
hi,0.007591
higg,0.006728
high,0.010716
higher,0.017614
histori,0.003525
hit,0.008764
hitherto,0.006244
hlambda,0.009409
hold,0.005099
honor,0.004378
hope,0.003603
horizont,0.039050
hot,0.004661
howev,0.030921
human,0.006117
humanist,0.005141
hydrogen,0.048226
hyperphys,0.008465
hypothesi,0.007373
idea,0.009502
ideal,0.003444
ident,0.003030
identifi,0.002558
illumin,0.004973
illustr,0.007219
imag,0.003259
imagin,0.012695
impact,0.008702
impart,0.017914
impli,0.003290
import,0.005415
imposs,0.003578
improv,0.002604
inclin,0.005237
includ,0.010285
incomplet,0.004612
inconsist,0.009837
increas,0.002035
increasingli,0.003120
independ,0.002174
indetermin,0.006347
indic,0.002603
indispens,0.011817
individu,0.024016
inequ,0.004453
inerti,0.006116
infin,0.005533
infinit,0.004144
influenc,0.002331
inform,0.002104
infrar,0.021865
ingredi,0.005558
inhabit,0.007359
inhomogen,0.014109
initi,0.009199
instanc,0.008599
instant,0.005471
instantan,0.005553
instead,0.012396
instrument,0.003259
integ,0.030455
intens,0.042185
interact,0.031691
interfer,0.030243
intern,0.001854
interparticl,0.009285
interpret,0.022590
intrins,0.004481
introduc,0.004965
introduct,0.016836
introductori,0.005046
intuit,0.004529
invari,0.009360
invent,0.003444
investig,0.002965
involv,0.004103
ion,0.004590
isbn,0.052546
isnt,0.005744
ivancev,0.019413
j,0.010632
jame,0.002985
janpet,0.010104
japan,0.003500
jeff,0.006290
jeremi,0.005584
jim,0.005594
john,0.007222
joseph,0.003487
journal,0.008167
judith,0.006408
jump,0.014661
just,0.012340
k,0.003209
kamefuchi,0.010104
katherin,0.007019
kenjiro,0.010104
kenneth,0.004749
kept,0.003813
key,0.002693
kinet,0.004790
know,0.006413
knowledg,0.005324
known,0.022990
kronig,0.009548
kyushu,0.008975
l,0.046729
label,0.007616
laboratori,0.003591
lakshmibala,0.010104
lamb,0.006377
lamp,0.005964
lane,0.005411
larg,0.016785
larger,0.005586
laser,0.005268
late,0.007350
later,0.012627
law,0.010659
lay,0.003982
layer,0.004073
lccn,0.052413
ldot,0.007382
lead,0.004222
leap,0.005631
learn,0.002972
leav,0.005993
led,0.009135
left,0.008462
lenard,0.008250
length,0.010532
letter,0.017466
level,0.023276
liboff,0.008805
librari,0.003324
light,0.137117
like,0.015121
limit,0.008644
lindsay,0.007227
line,0.030391
link,0.001538
linu,0.006450
live,0.002288
lldot,0.009706
ln,0.006000
local,0.002396
locat,0.010407
longer,0.002918
look,0.005843
lose,0.003721
loss,0.003095
loui,0.003992
low,0.008135
lower,0.005229
lowest,0.004208
m,0.007592
macro,0.006165
macroscop,0.005069
magnet,0.099691
main,0.004480
major,0.003754
make,0.008996
malsbari,0.010104
mani,0.006397
manifest,0.008141
manyparticl,0.008975
mara,0.006132
margenau,0.008887
martinu,0.007270
marvin,0.006290
mass,0.011607
massenergi,0.006783
match,0.003762
mathemat,0.038943
matric,0.005842
matrix,0.008883
matter,0.034601
matterparticl,0.010104
max,0.021620
maximum,0.007695
maxwel,0.010553
mcevoy,0.018819
mean,0.011692
meant,0.003629
measur,0.083433
mechan,0.112360
memori,0.007361
men,0.003281
mental,0.007657
mention,0.003425
mermin,0.008887
met,0.003618
metal,0.022096
method,0.002191
meyn,0.009706
michael,0.003256
micro,0.005792
microscop,0.009135
mimic,0.005929
mind,0.003336
minimum,0.007719
minu,0.005229
minut,0.004223
mirror,0.004777
miss,0.004463
ml,0.019517
mlllldot,0.010104
mnemon,0.006857
model,0.059510
modern,0.014856
molecul,0.007641
molecular,0.007396
moment,0.024153
momentum,0.102337
moon,0.004607
morton,0.006701
motion,0.003570
ms,0.010634
multipl,0.002721
multipli,0.013684
mutual,0.003732
mysteri,0.014011
n,0.041309
naiv,0.005829
narrow,0.003995
natl,0.008111
natur,0.022667
nave,0.006505
nd,0.003292
nearest,0.005703
necessari,0.005639
necessarili,0.010391
need,0.002127
neg,0.012273
neglig,0.005264
neon,0.006688
new,0.009483
nicholson,0.007227
niel,0.012075
nineteenth,0.004426
nldot,0.016816
nobel,0.008237
nonetheless,0.004426
nonexist,0.005494
nonmathemat,0.007947
nonsens,0.006100
noonday,0.009409
northern,0.003307
notat,0.004754
note,0.002040
noth,0.003744
notion,0.006695
nottingham,0.007072
novel,0.003916
nuclear,0.003615
nucleu,0.070311
number,0.047793
numer,0.002621
ny,0.005120
obey,0.005049
object,0.031444
observ,0.032694
obtain,0.002750
obviou,0.004469
occupi,0.003547
occur,0.008992
oclc,0.005096
odd,0.004991
omn,0.008408
onc,0.005287
onli,0.037461
open,0.007267
oper,0.008928
oppos,0.002956
opposit,0.008734
optic,0.004256
orbit,0.201947
order,0.003899
organis,0.003350
orient,0.025808
origin,0.015687
oscar,0.012331
oscil,0.040963
otherwis,0.010097
otto,0.004985
overal,0.003238
oxid,0.004694
p,0.024309
packet,0.012945
pair,0.007541
paper,0.002919
paradigm,0.004287
paradox,0.009050
paraphras,0.006951
particl,0.159744
particlelik,0.023621
particular,0.008859
pass,0.013744
passag,0.004215
passion,0.005313
past,0.005613
patrick,0.010247
pattern,0.024151
paul,0.015378
pauli,0.051023
pdf,0.004095
peat,0.007187
penetr,0.004726
penguin,0.005321
peopl,0.005852
percent,0.003553
perfect,0.007906
perfectli,0.004916
perform,0.007462
perhap,0.006578
period,0.004204
perkin,0.006472
permit,0.014415
perplex,0.007291
pertain,0.014678
pertin,0.006328
pfrac,0.006951
phenomena,0.010135
phenomenon,0.003644
philipp,0.005658
philosoph,0.009317
philosopherscientist,0.009706
philosophi,0.006024
photoelectr,0.045944
photograph,0.004870
photon,0.258515
physic,0.094928
physicist,0.037693
pictur,0.007922
piec,0.003907
pin,0.006000
pinneddown,0.010104
place,0.004002
planck,0.069836
planet,0.012043
planetari,0.005072
podolski,0.017611
point,0.010262
polar,0.004334
pole,0.004901
poorli,0.004684
popescu,0.009069
posit,0.044037
possess,0.009538
possibl,0.031042
postimpact,0.010104
postul,0.008731
potenti,0.013134
power,0.002076
precis,0.023395
predict,0.044531
prefer,0.003107
preponder,0.006919
press,0.026268
previous,0.003093
primer,0.005868
princeton,0.013438
princip,0.006339
principl,0.053583
prior,0.003064
prize,0.007568
probabilist,0.010553
probabl,0.043671
probe,0.005046
problem,0.008679
proc,0.007072
procedur,0.007067
process,0.005754
produc,0.019000
product,0.006344
professor,0.007252
progenitor,0.006674
prometheu,0.006624
propag,0.004520
properli,0.004266
properti,0.068786
proport,0.013418
proportion,0.005978
propos,0.012516
proton,0.015736
prove,0.006262
provid,0.005400
provision,0.005141
psi,0.018522
public,0.002043
publish,0.006756
pure,0.003208
purpl,0.018705
puzzl,0.010805
qed,0.058334
qft,0.015973
qm,0.015122
qt,0.007838
qualiti,0.003023
quanta,0.006798
quantis,0.108835
quantiti,0.006609
quantiz,0.024061
quantph,0.019777
quantum,0.491081
quantumscal,0.009706
quark,0.006165
quarter,0.004220
question,0.005095
quit,0.006857
radar,0.005664
radiat,0.052825
radiu,0.005367
rais,0.002992
ralph,0.005457
random,0.015482
rang,0.004871
rare,0.006678
rayleighjean,0.009409
rd,0.003633
read,0.006704
reader,0.004387
real,0.005341
realis,0.005188
realism,0.005020
realiti,0.007000
realiz,0.003598
realli,0.004140
recal,0.004976
receiv,0.002458
recent,0.002228
recognit,0.003527
red,0.028534
refer,0.006433
reflect,0.002765
refract,0.011763
refus,0.003755
regardless,0.003890
region,0.004608
reichenbach,0.007986
rel,0.004614
relat,0.015615
relationship,0.004912
relativist,0.010626
remain,0.002128
remedi,0.005089
remov,0.008913
render,0.008440
renorm,0.021622
replac,0.005244
repres,0.010554
reproduc,0.013096
requir,0.006077
resist,0.003334
resolv,0.003737
reson,0.004924
resonancejourn,0.010104
respect,0.012235
restrict,0.002982
result,0.025094
reveal,0.006769
review,0.005766
revolut,0.009563
richard,0.022252
right,0.002309
robert,0.002829
rod,0.005563
rohrlich,0.009069
roland,0.006182
room,0.004173
rosen,0.013376
rotat,0.008520
roughli,0.003609
rubrik,0.010104
rule,0.007046
rutger,0.006674
s,0.014600
said,0.007931
sandu,0.010104
satisfi,0.003817
say,0.011151
scale,0.014562
schlipp,0.010104
schrdinger,0.074597
schumach,0.007481
sci,0.006985
scienc,0.012985
scientif,0.010357
scientist,0.005885
screen,0.033263
sean,0.006701
sear,0.007128
search,0.003293
second,0.010559
section,0.009565
seen,0.010099
selfconsist,0.006857
semiconductor,0.005615
sens,0.002647
sent,0.003566
seri,0.002563
serv,0.005123
servic,0.002507
set,0.013953
settl,0.003657
sever,0.001867
shape,0.024536
share,0.002507
sheet,0.004654
shift,0.009355
shimoni,0.017774
short,0.002743
shorter,0.004581
shortli,0.004005
shot,0.010008
shown,0.015516
signal,0.003702
signific,0.002286
silberhorn,0.010104
silver,0.004477
similar,0.004277
similarli,0.003392
simpl,0.011382
simpler,0.009550
simplest,0.004567
simpli,0.005844
simplic,0.005181
simultan,0.026271
sinc,0.003581
singl,0.023966
situat,0.008271
sixti,0.005447
skeptic,0.004716
skin,0.004542
slightli,0.003881
slit,0.064866
slow,0.003697
small,0.013148
smaller,0.003045
smallest,0.004661
sneak,0.007771
societi,0.002243
softwar,0.003794
solut,0.006128
solv,0.009887
someth,0.006886
sometim,0.004662
somewher,0.010970
sommerfeld,0.007207
son,0.003428
soon,0.003284
sought,0.003488
sourc,0.011263
space,0.011044
spacetim,0.005466
speak,0.003434
special,0.004479
spectra,0.011672
spectral,0.032996
spectrum,0.046585
speed,0.032960
sphere,0.008015
spheric,0.005229
spin,0.163910
spiral,0.005480
split,0.003680
spooki,0.026417
spot,0.004483
spun,0.006728
squar,0.011382
stabl,0.003524
stand,0.013462
standard,0.009648
star,0.003971
start,0.011334
state,0.037607
statement,0.009863
static,0.004581
stationari,0.005192
statist,0.005876
statu,0.002991
stenger,0.008250
step,0.006073
stern,0.012232
sterngerlach,0.043289
stood,0.004817
stori,0.003630
strang,0.010626
stream,0.008584
strength,0.003632
strikingli,0.007270
string,0.014271
strong,0.005204
strongli,0.006903
struck,0.005092
structur,0.006277
strunz,0.009548
studi,0.005677
subatom,0.005692
subject,0.004556
subsect,0.006887
substanti,0.003324
success,0.002374
suffici,0.009932
suggest,0.010028
sum,0.003572
sun,0.015891
sunburn,0.024606
superconductor,0.007019
superfluid,0.007227
superimpos,0.026349
superlumin,0.009069
superposit,0.018600
suppos,0.003935
surfac,0.009728
surround,0.003279
suspect,0.004785
switch,0.004397
symbol,0.003251
symmetri,0.009971
t,0.003115
tabl,0.006893
takada,0.009706
tavel,0.019097
technic,0.006370
technolog,0.007746
temperatur,0.007240
term,0.010153
test,0.002927
textwherequad,0.010104
th,0.012321
themselv,0.002656
theoret,0.005872
theori,0.104958
therefor,0.009736
thermal,0.022961
thi,0.037506
think,0.003105
thoma,0.003203
thought,0.002538
threedimension,0.004918
threshold,0.014965
thrown,0.005964
thu,0.006280
tie,0.003493
tight,0.005466
tijana,0.009706
time,0.019014
timeevolut,0.008250
timeless,0.007072
tini,0.004831
titl,0.006429
today,0.002572
tokyo,0.005675
toni,0.005548
took,0.002797
tool,0.002867
totem,0.007091
trait,0.004243
trajectori,0.005342
tran,0.005494
transform,0.002931
transistor,0.012599
transit,0.003117
trap,0.004692
travel,0.003162
treat,0.006271
treatment,0.003294
tri,0.008456
trigonometri,0.006551
trough,0.007109
true,0.002899
tudor,0.007019
tunnel,0.010814
turn,0.012379
tutori,0.005936
twentyfirst,0.006084
twin,0.015806
type,0.004306
typic,0.002402
uhlenbeck,0.008590
ultraviolet,0.016783
unansw,0.007002
uncertain,0.009468
uncertainti,0.054180
uncharacterist,0.008408
undergo,0.004152
underli,0.010202
understand,0.012154
understood,0.003360
unif,0.005092
unifi,0.003748
uniform,0.004152
unit,0.005418
univ,0.030342
univers,0.022258
unsolv,0.005664
unstabl,0.004777
upanddown,0.008975
upward,0.009971
usb,0.007507
use,0.020486
usual,0.008620
v,0.003193
vacuum,0.004672
valid,0.003419
valu,0.071155
van,0.003917
variabl,0.003273
variat,0.003357
variou,0.004077
varphi,0.007481
vast,0.007192
veloc,0.014128
veltman,0.008300
veri,0.008180
verifi,0.004527
vertic,0.037064
vibrat,0.010452
victor,0.004820
view,0.009181
violet,0.014962
violin,0.015677
virginia,0.005159
virtual,0.003541
visibl,0.011875
vital,0.003999
vladimir,0.005096
vleck,0.008887
voltag,0.011685
wa,0.061672
walter,0.004271
walther,0.006662
warm,0.009153
wasnt,0.005936
water,0.005525
wave,0.155299
waveform,0.014672
wavefunct,0.006755
wavelength,0.032550
wavelik,0.064684
wavepacket,0.009069
waveparticl,0.034362
way,0.026808
weak,0.007114
weidenfield,0.009706
went,0.003284
werner,0.011339
westmoreland,0.008887
weston,0.007533
whatev,0.008817
wheeler,0.006262
whenev,0.005039
wherebi,0.004046
whi,0.016475
white,0.006800
wieman,0.008250
wien,0.006624
wiley,0.008764
wilhelm,0.004508
wolfgang,0.005438
won,0.003625
word,0.009943
work,0.012289
world,0.016340
written,0.002835
wrong,0.004212
wrote,0.009153
year,0.007229
yellow,0.005029
yield,0.003498
young,0.003325
zarat,0.019413
zaxi,0.007838
zdirect,0.009285
zoomedin,0.010104
zoomedout,0.010104
