absenc,0.005144
absolut,0.004746
academ,0.004191
academi,0.016171
accept,0.010539
accord,0.016788
aconitum,0.013890
acquir,0.018231
acquisit,0.006050
action,0.003438
adapt,0.035647
advanc,0.006912
advoc,0.009606
affect,0.003656
air,0.004298
alchem,0.019760
alchemi,0.008464
alley,0.010728
allow,0.005565
alpheu,0.013344
alter,0.015058
amelanchi,0.014720
amien,0.010595
andr,0.014608
ani,0.014796
anim,0.019583
animaux,0.106752
ann,0.006553
annelid,0.010638
antoin,0.030706
api,0.008990
aplysiida,0.014720
appli,0.002991
appoint,0.018399
april,0.008561
arachnid,0.021551
archiv,0.005150
arcida,0.014720
argu,0.014890
aris,0.004565
aristocrat,0.007719
ark,0.009406
armi,0.014439
arous,0.008249
artilleri,0.007648
assembl,0.004368
assert,0.004807
assist,0.004172
associ,0.002733
assum,0.003876
atmospher,0.005481
attack,0.004511
attempt,0.003191
attent,0.004563
attitud,0.005744
auction,0.008058
august,0.012756
author,0.006301
avail,0.006841
award,0.009866
azolla,0.014720
bank,0.004046
baptist,0.008170
base,0.007314
basic,0.003394
basin,0.006649
battlefield,0.015793
bazentin,0.014720
becam,0.024673
becaus,0.002539
becom,0.013505
befor,0.005763
began,0.003369
begin,0.003290
behavior,0.003957
behaviour,0.005202
belief,0.022583
believ,0.024428
bergen,0.010728
bernard,0.013143
bibliographi,0.004907
billaderi,0.014720
biodivers,0.006991
biograph,0.007662
biographi,0.019524
biolog,0.040017
biologist,0.006313
bird,0.005759
birth,0.004971
blind,0.020717
bluefir,0.014720
bodi,0.013543
bogu,0.011034
bonum,0.012217
book,0.016033
border,0.009940
born,0.019065
botan,0.008239
botani,0.038490
botaniqu,0.025529
botanist,0.008014
botanyzoolog,0.014720
bought,0.006447
bowler,0.011211
boy,0.013298
braveri,0.010394
britannica,0.006862
broader,0.005625
brother,0.016974
buffon,0.019396
buri,0.013343
california,0.005176
cambridg,0.004475
came,0.003694
canal,0.006702
candol,0.010683
capac,0.004684
caractr,0.029441
cardiida,0.014720
care,0.004245
carri,0.007285
categor,0.005744
caus,0.009048
ce,0.012383
cell,0.009720
cellular,0.006252
cemeteri,0.008290
certain,0.003093
certainli,0.006450
cess,0.012609
chain,0.005048
chair,0.006347
chang,0.025477
characterist,0.023370
charl,0.012984
charlesclaud,0.014720
charlott,0.026739
chemistri,0.019811
chevali,0.021648
child,0.010855
children,0.004647
chillingli,0.013890
chisholm,0.009212
chomel,0.014720
chose,0.006356
circonst,0.014720
cite,0.004726
clam,0.010117
class,0.007496
classic,0.003733
classif,0.019946
claus,0.007527
clearli,0.005081
close,0.003023
cockl,0.013594
coher,0.006229
cohes,0.007332
coin,0.009359
colleagu,0.006108
collect,0.003296
colleg,0.004905
colonel,0.007734
combat,0.005932
command,0.009483
comment,0.005413
commiss,0.013498
common,0.010931
compani,0.007137
complex,0.023150
complexifi,0.029441
complic,0.005122
compon,0.003892
compos,0.008575
compris,0.004623
comrad,0.010215
comt,0.016771
concept,0.003154
condit,0.003162
conflict,0.004209
confus,0.005087
consequ,0.003843
consid,0.002635
consider,0.003798
considr,0.024936
consist,0.003025
constantli,0.006300
construct,0.003500
content,0.004459
context,0.003976
contin,0.011648
continu,0.008215
contribut,0.003317
controversi,0.004453
convinc,0.006016
corp,0.020004
correct,0.009103
corsi,0.013890
coulston,0.013890
countri,0.002974
courag,0.016860
creat,0.008293
creation,0.008228
creator,0.006774
crhstcnr,0.014720
croissent,0.014720
crustacean,0.017949
cs,0.006905
cultur,0.003398
curat,0.009212
current,0.005787
cuvier,0.048740
cyaneia,0.014720
dangivil,0.014720
dapr,0.012105
darwin,0.006325
databas,0.005287
date,0.003777
daughter,0.006203
david,0.004015
day,0.013643
death,0.003958
debat,0.008415
decemb,0.008295
decis,0.003810
defend,0.005057
definit,0.003573
degre,0.003701
deism,0.009447
deist,0.020714
delaport,0.014720
delic,0.008882
demonstr,0.004062
deni,0.005239
denigr,0.010638
deposit,0.005351
deprecatori,0.013890
describ,0.016692
descript,0.004131
desfontain,0.013127
deterior,0.006656
detrevil,0.014720
develop,0.024865
dhistoir,0.042212
did,0.010065
die,0.025984
differ,0.002396
differenti,0.009153
digit,0.010094
digitali,0.011721
diminish,0.006119
direct,0.003001
directli,0.003631
disappear,0.011493
disdain,0.009826
display,0.005136
distinct,0.010443
distribut,0.003729
disus,0.066433
dna,0.035000
doe,0.003058
drawn,0.005334
drew,0.006229
drive,0.009712
driver,0.006928
drove,0.014642
du,0.012776
dug,0.009512
duncan,0.008408
dure,0.010407
earli,0.002721
earth,0.012816
east,0.004183
eastern,0.004516
echinoderm,0.010249
ed,0.019047
edit,0.004259
effect,0.002643
elabor,0.005662
elder,0.013374
eldest,0.009006
element,0.006921
eleventh,0.008453
embrac,0.006138
emerg,0.003487
emin,0.007741
emphas,0.004775
employ,0.003609
en,0.006687
encount,0.005359
encyclopdi,0.029559
encyclopdia,0.007058
enemi,0.006081
engend,0.008511
engin,0.003921
enlarg,0.006950
enlighten,0.005941
enrol,0.007482
entitl,0.005617
environ,0.032464
environment,0.004374
epigenet,0.052524
epithet,0.009212
era,0.004299
erod,0.007832
especi,0.003159
essentialist,0.010979
essentiel,0.013594
et,0.018710
etch,0.010249
eulog,0.010824
eva,0.009426
everi,0.003405
everyth,0.005418
evid,0.011132
evolut,0.075109
evolutionari,0.032168
evolv,0.013400
exagger,0.007586
examin,0.004259
exampl,0.007311
exercis,0.004675
exist,0.002706
experi,0.003346
explain,0.007326
explan,0.009580
expos,0.005450
exposit,0.007457
express,0.003525
extent,0.008955
extern,0.002127
facsimil,0.029094
fairfield,0.010683
famili,0.015071
father,0.009568
favor,0.008989
fern,0.009194
fewer,0.011541
field,0.008915
file,0.006074
final,0.007039
financi,0.003884
fine,0.005817
fixiti,0.011483
flahaut,0.014720
flora,0.007355
flore,0.029559
floreal,0.027781
flow,0.008570
fluid,0.017207
follow,0.011638
forc,0.037915
foreign,0.003787
form,0.017793
format,0.007937
forum,0.005976
fought,0.006172
founder,0.005100
fourteen,0.007912
framework,0.004168
franc,0.029159
franci,0.005572
franois,0.031659
french,0.050908
frequent,0.004090
fulli,0.008774
function,0.002979
fundament,0.003726
gain,0.007080
garden,0.039049
gave,0.012702
gene,0.011292
gener,0.014636
genera,0.017193
genet,0.004942
genom,0.006608
genotyp,0.008364
genr,0.013741
genu,0.007349
geolog,0.011121
georg,0.004193
georgesloui,0.010394
germ,0.007848
germani,0.004381
germplasm,0.013594
ghiselin,0.014253
gillispi,0.013594
gland,0.008189
global,0.003864
globe,0.006626
gnral,0.010595
gnraux,0.013127
goalori,0.010926
god,0.010185
godfath,0.032623
godmoth,0.013344
gould,0.008660
gradat,0.010728
gradual,0.009355
grant,0.004460
grass,0.007332
grave,0.007092
great,0.003279
greater,0.007330
grew,0.004862
group,0.002624
grow,0.003731
gutenberg,0.007794
ha,0.015522
haig,0.012468
hall,0.011041
happen,0.004598
hare,0.008897
head,0.003756
height,0.005801
help,0.003185
henc,0.004540
henri,0.004690
herbarium,0.047237
herit,0.017736
heritag,0.011903
hi,0.120015
highest,0.008911
histoir,0.017480
histori,0.007270
historian,0.014709
home,0.004155
honeybe,0.011411
honour,0.006862
hors,0.006285
hostil,0.006034
howev,0.009446
hugh,0.006828
hydrogologi,0.037014
idea,0.019595
ii,0.003808
iii,0.005564
imaginari,0.007620
impercept,0.010874
impli,0.004523
impoverish,0.008209
impress,0.005939
includ,0.008079
incorpor,0.003995
index,0.009245
individu,0.012005
indopacif,0.011558
inflamm,0.008990
influenc,0.012819
inherit,0.064750
injur,0.007379
insect,0.019835
insist,0.005937
intend,0.004504
interact,0.003630
intern,0.005099
internet,0.004773
interposit,0.013344
interven,0.006252
introduc,0.006826
invertebr,0.046362
involv,0.002820
j,0.007308
jablonka,0.013594
jacqu,0.006750
jame,0.012311
januari,0.004152
jardin,0.041577
jay,0.007794
jean,0.006034
jeanbaptist,0.047331
jellyfish,0.009773
jesuit,0.008151
join,0.004328
juli,0.004202
juneberri,0.014720
junior,0.007669
jussieu,0.048422
just,0.006785
keeper,0.018980
kill,0.004803
king,0.004634
knowledg,0.003659
known,0.004862
la,0.024281
ladder,0.025291
lamak,0.014720
lamarck,0.863696
lamarcki,0.014720
lamarckia,0.014720
lamarckian,0.032327
lamarckiana,0.013890
lamarckii,0.088325
lamb,0.008767
languag,0.003656
larg,0.002563
late,0.003368
later,0.011572
launch,0.004899
laurent,0.009306
lavoisi,0.016860
law,0.023445
le,0.023180
lead,0.002902
leav,0.004119
leclerc,0.009994
lectur,0.010579
led,0.003139
left,0.003877
legaci,0.006116
length,0.004826
leur,0.034233
level,0.002909
lhistoir,0.010728
librari,0.013711
lieuten,0.007764
life,0.025017
lifetim,0.024917
lift,0.006494
light,0.004010
likelihood,0.006746
lillustr,0.014720
limepit,0.014720
limit,0.002970
linda,0.016046
linfluenc,0.014720
link,0.004230
littl,0.003723
live,0.009436
lmrk,0.014720
local,0.009884
loge,0.012468
long,0.003158
look,0.004016
lorganis,0.058883
loss,0.004254
lost,0.004227
loui,0.005489
louich,0.013594
lowest,0.005786
loyalti,0.007048
lymphat,0.010054
main,0.003079
maint,0.007779
major,0.007742
make,0.004947
malacolog,0.011809
male,0.005456
mallet,0.011411
mammal,0.006158
man,0.004303
mani,0.013191
manner,0.004694
manuscript,0.006600
march,0.004033
mari,0.011239
marin,0.016705
marion,0.009625
marri,0.018293
martin,0.005148
materi,0.010226
materialist,0.031457
matter,0.003659
mean,0.005357
mechan,0.014368
medic,0.004479
medicin,0.013913
meet,0.003935
mellifera,0.012609
member,0.003103
membership,0.010715
memet,0.010683
memoir,0.007848
men,0.009021
mentor,0.008032
meteorolog,0.007132
methyl,0.008453
michael,0.008953
miner,0.005385
miracul,0.018612
model,0.006060
modern,0.020423
modif,0.005781
mole,0.008740
molecular,0.010168
mollusc,0.008897
molluscan,0.012935
monaco,0.018980
monet,0.028670
montparnass,0.013890
moon,0.006334
moor,0.006564
mortui,0.014720
mosquito,0.009447
motion,0.004908
movement,0.006708
mover,0.009853
mthodiqu,0.044162
museum,0.023462
musum,0.039381
nation,0.008086
natur,0.038952
naturalist,0.013253
naturel,0.081456
nd,0.004525
nearli,0.004236
necessari,0.011629
necessarili,0.009523
neck,0.007980
neolamarckist,0.029441
nephew,0.008141
neutral,0.005324
new,0.006518
newli,0.005117
nil,0.009406
nisi,0.013594
nomin,0.005077
nongenet,0.011211
northern,0.004547
notabl,0.003732
note,0.002804
noth,0.005147
number,0.007300
object,0.003325
observ,0.006420
obtain,0.003780
occasion,0.005487
occur,0.009271
octob,0.004206
offic,0.011746
offici,0.003692
old,0.008049
onc,0.003634
ongo,0.010645
onli,0.004478
onlin,0.008514
op,0.009649
oper,0.003068
order,0.005361
orderli,0.008523
ordr,0.011902
ore,0.006968
organ,0.076944
origin,0.008087
osborn,0.009325
ou,0.029021
outlin,0.009469
overton,0.009649
oxford,0.004570
packard,0.021852
palaeontologist,0.011411
paleontolog,0.008014
paleontologist,0.009748
panckouck,0.013890
paper,0.004013
pari,0.031915
particular,0.003044
particuli,0.013890
partisan,0.008499
pass,0.007557
path,0.004931
pdf,0.005629
pelagi,0.014720
pension,0.006758
perfect,0.010869
perhap,0.004521
period,0.002890
perman,0.009427
perpetu,0.006589
persuas,0.007662
peter,0.004435
phenomenon,0.010019
phenotyp,0.014991
philosoph,0.004269
philosophi,0.016565
physic,0.019097
physiolog,0.005729
picardi,0.012338
pierr,0.012523
pietro,0.010149
place,0.002750
plant,0.038008
plasm,0.012935
play,0.007024
poiret,0.014720
pomeranian,0.024001
poor,0.004809
posit,0.008648
possibl,0.002844
post,0.014162
pouvoir,0.023804
power,0.005708
prais,0.006522
predict,0.004081
predomin,0.006362
prefer,0.004271
prelavoisi,0.014720
premier,0.006982
presenc,0.004218
present,0.005578
preserv,0.004701
press,0.003282
prevent,0.007975
primari,0.003681
primarili,0.003812
principl,0.020089
probabl,0.004002
proceed,0.005104
process,0.007910
produc,0.005804
profess,0.005828
professeur,0.013127
professor,0.024925
progress,0.015206
project,0.003451
promin,0.004373
promot,0.007957
propon,0.005844
proport,0.004611
propos,0.003441
provid,0.002474
prsentant,0.029441
prussia,0.016518
pt,0.016621
public,0.002809
publish,0.024767
puni,0.011638
pure,0.004410
pursu,0.005072
quasievolutionari,0.014253
qui,0.021023
quickli,0.004540
race,0.005479
ran,0.006244
rapid,0.004833
rare,0.004590
rd,0.004994
reach,0.003595
read,0.003072
realis,0.007132
receiv,0.006759
recherch,0.027861
reconsid,0.008571
record,0.014915
recours,0.008767
redefin,0.007825
reduc,0.006702
refer,0.008844
reflect,0.003801
refus,0.005162
regard,0.020363
regist,0.005485
reject,0.013082
rel,0.006343
relationship,0.003376
reliev,0.007402
religi,0.009037
remain,0.014628
rememb,0.019483
ren,0.013865
reproduct,0.006009
resolv,0.010276
respect,0.013456
rest,0.004144
result,0.007392
retir,0.006019
return,0.003580
reverdi,0.014720
review,0.003963
revolut,0.008764
revolutionari,0.005629
ridicul,0.008300
rise,0.003559
rode,0.010553
roger,0.005932
roi,0.020109
role,0.003098
rosali,0.012105
royal,0.028005
rudwick,0.013890
ruse,0.010979
s,0.007526
salari,0.013086
san,0.033706
saw,0.008658
say,0.003832
scholar,0.004492
school,0.003599
schoolbook,0.011809
scienc,0.017851
scientist,0.008090
sea,0.004513
search,0.009055
second,0.017420
secret,0.005458
secretari,0.005779
select,0.011540
sens,0.007280
sent,0.004903
separ,0.012927
septemb,0.008532
sequenc,0.004911
serv,0.007042
servic,0.006893
set,0.005480
settl,0.005027
seven,0.004642
seventeenyearold,0.013127
sever,0.002566
sex,0.012250
sieg,0.007332
simpl,0.019559
simpli,0.004017
sinc,0.002461
sister,0.006794
societ,0.006923
soft,0.031428
sold,0.005199
soldier,0.005601
soma,0.020714
sometim,0.006409
son,0.014141
soon,0.004514
speci,0.054334
special,0.003079
spent,0.005441
spiritu,0.005672
spontan,0.025451
spot,0.006163
st,0.007937
statur,0.009230
steadi,0.006309
steadili,0.006494
steadyst,0.018651
stephen,0.005468
strengthen,0.005568
stress,0.005048
strict,0.005720
structur,0.005753
student,0.004190
studi,0.018212
sublim,0.008596
subsequ,0.003842
subsidiari,0.007445
subspeci,0.008853
substanc,0.005176
successor,0.005530
succinct,0.010432
suggest,0.003446
supernatur,0.007153
supplement,0.012190
support,0.005854
supposedli,0.007514
sur,0.023714
surround,0.004508
sustain,0.004815
synonym,0.012288
systm,0.034450
tableau,0.010683
taxa,0.008499
taxon,0.009748
taxonomist,0.010926
teenag,0.008810
teeth,0.015498
teleolog,0.008219
temporari,0.005806
tend,0.012128
tendenc,0.011056
term,0.011631
text,0.004247
th,0.002823
theme,0.005452
themselv,0.014607
thenmor,0.014720
theoret,0.004036
theori,0.049058
theorist,0.005738
theoriz,0.006698
thi,0.022097
think,0.004269
thinker,0.005951
thirti,0.006637
thoroughgo,0.011411
thought,0.003489
thouin,0.014720
threevolum,0.020640
thu,0.017267
time,0.017426
timebut,0.013890
timescal,0.007988
tissu,0.005949
titl,0.004419
tome,0.074605
tone,0.007470
tout,0.009447
tradit,0.012400
trait,0.017500
transcript,0.007270
transform,0.004030
transformist,0.014720
transgener,0.011721
transmut,0.016975
travel,0.008694
treatment,0.009057
truli,0.012338
turn,0.003403
unalt,0.010320
unchang,0.006564
underli,0.009350
understand,0.003341
underw,0.007143
uniformitarian,0.009426
univers,0.007649
unmov,0.010874
upward,0.006853
use,0.028163
usedisus,0.014720
usual,0.002962
usuel,0.014720
vagu,0.007281
valid,0.004701
vari,0.003629
varieti,0.003696
ver,0.011150
verm,0.012338
vertbr,0.058883
vertebr,0.007315
vertic,0.006369
vie,0.018045
view,0.018932
viii,0.015681
visit,0.004946
vitalist,0.011275
vivan,0.014720
vivant,0.025219
vol,0.015873
volum,0.004217
volunt,0.006786
wa,0.109006
war,0.006994
water,0.003797
way,0.005264
weaken,0.006166
weismann,0.010874
wellknown,0.011559
west,0.004227
western,0.003703
westward,0.008453
wide,0.009512
wife,0.006347
wisdom,0.006518
wish,0.005443
withdraw,0.005917
word,0.003417
work,0.041030
world,0.007488
worm,0.007756
write,0.011548
written,0.007795
wrought,0.009106
wwwlamarckcnrsfr,0.014720
xvi,0.008699
year,0.042239
yearli,0.007298
yield,0.004809
young,0.004571
zoolog,0.022299
zoologiqu,0.049873
zoom,0.011411
