abil,0.002710
abl,0.002488
aborigin,0.002955
abov,0.008827
absolut,0.001670
abund,0.003995
academ,0.001475
accept,0.001236
acclaim,0.002971
accord,0.002954
account,0.001160
acoust,0.002751
act,0.003377
activ,0.004914
actual,0.001260
ad,0.001257
addit,0.001993
adult,0.019283
adulthood,0.006163
advanc,0.001216
advent,0.002154
advers,0.002307
advoc,0.001690
aegean,0.003249
affect,0.001287
africa,0.001599
age,0.011102
agenc,0.001549
aggreg,0.002083
aggress,0.004389
agit,0.002929
ago,0.005726
aid,0.001477
air,0.003026
akashi,0.004389
alan,0.002088
alaska,0.026817
alaskan,0.003864
alert,0.002757
aleutian,0.015876
alexand,0.001887
aliv,0.002461
allow,0.003918
alon,0.003369
alreadi,0.001435
alter,0.001766
alway,0.001324
america,0.001380
american,0.003348
analog,0.001760
analysi,0.001187
ancient,0.001427
anecdot,0.005807
angel,0.002362
ani,0.004340
anim,0.044120
announc,0.003308
annual,0.001513
anoth,0.005684
antarct,0.029796
antarctica,0.002936
antonio,0.002565
anywher,0.002411
apart,0.001805
apex,0.006134
appar,0.006726
appear,0.013691
appli,0.001053
appreci,0.002185
approach,0.002267
approxim,0.001342
aquaria,0.017755
aquat,0.002654
arabian,0.002738
arbitrarili,0.002720
archaeolog,0.002109
archaic,0.002824
archipelago,0.002500
archiv,0.001813
arctic,0.016351
area,0.011740
argentina,0.007330
art,0.001506
articl,0.001170
asesinaballena,0.005181
asian,0.001876
asid,0.002246
assess,0.005033
assist,0.001468
associ,0.002886
assum,0.001364
ate,0.003164
atlant,0.012524
atsea,0.005181
attack,0.017469
attempt,0.002247
attitud,0.004044
attract,0.003169
attribut,0.003062
au,0.002824
audiogram,0.004389
august,0.001496
australia,0.006848
author,0.002218
autumn,0.002620
avail,0.002408
averag,0.010299
avoid,0.008827
awar,0.001782
axi,0.002259
b,0.010437
baffin,0.004157
bahama,0.003187
bahia,0.003904
baird,0.003760
baja,0.003793
balcomb,0.028184
baleen,0.011775
bali,0.003550
ball,0.004865
ban,0.001984
bank,0.001424
bannikov,0.005017
bark,0.003057
base,0.003433
basic,0.001194
basin,0.007021
basqu,0.003311
bay,0.006673
bbc,0.002240
bc,0.003514
beach,0.015438
beak,0.003518
bear,0.005530
beat,0.002498
beatsmin,0.010363
becam,0.002171
becaus,0.008046
becom,0.004753
befor,0.003043
began,0.001186
begin,0.002316
begun,0.001888
behav,0.002112
behavior,0.001393
behaviour,0.025637
belief,0.003179
believ,0.008599
belong,0.003356
belt,0.002589
beluga,0.004697
beneath,0.002567
benefactor,0.003518
bere,0.003645
big,0.001798
bigg,0.015311
bioaccumul,0.004068
biolog,0.005634
biologist,0.004444
biphenyl,0.004300
biphon,0.005181
bird,0.006082
birth,0.005250
bitten,0.004438
black,0.009617
blackfish,0.008877
block,0.001769
blood,0.001934
blow,0.002516
blubber,0.012471
blue,0.006351
boat,0.018941
bodi,0.005959
bohai,0.004553
bond,0.006785
book,0.002257
boran,0.004343
bore,0.002666
born,0.003355
borrow,0.001971
bottomdwel,0.004493
boy,0.002340
brain,0.005701
branch,0.001263
brazil,0.002122
breach,0.008062
breath,0.005107
breed,0.009527
british,0.013261
bromin,0.003507
bruce,0.002440
bubbl,0.002489
build,0.001256
bulbou,0.004261
bull,0.005482
bullet,0.002936
bump,0.003449
burdin,0.005181
burial,0.002699
burst,0.002675
c,0.006820
calf,0.011330
california,0.007288
calv,0.035613
camden,0.003946
came,0.001300
campaign,0.001785
canada,0.005111
canadian,0.004038
cannib,0.003236
cape,0.007495
captiv,0.056052
captiveborn,0.005181
captur,0.009800
carcass,0.007057
care,0.001494
carousel,0.009107
carri,0.001282
carv,0.005272
carwardin,0.005181
case,0.004973
cat,0.002523
catch,0.014368
categori,0.001517
caudal,0.003946
caught,0.004899
caus,0.005308
center,0.001268
central,0.001115
centuri,0.004085
cephalopod,0.003458
certain,0.001088
cetacean,0.027747
cetologist,0.005017
chang,0.001793
character,0.003017
characteris,0.002384
characterist,0.002742
charg,0.003070
chase,0.002704
chest,0.002991
chief,0.001656
china,0.001528
chinook,0.012673
choix,0.005181
choos,0.001711
chum,0.009571
chunk,0.003170
circa,0.002673
circl,0.001916
circu,0.003672
circumglob,0.005181
claim,0.004830
clan,0.013040
clearli,0.005366
click,0.018518
close,0.007451
closest,0.002408
cm,0.002502
coast,0.041760
coastal,0.008675
coastlin,0.002474
coauthor,0.002727
cod,0.006525
codirect,0.004697
cofound,0.002733
cohes,0.005162
collagen,0.003318
collaps,0.001752
collect,0.001160
colon,0.002110
colour,0.004541
columbia,0.024339
come,0.002275
command,0.001669
commerci,0.007621
commingl,0.004096
commiss,0.001583
committe,0.001706
common,0.009620
commonli,0.002642
commun,0.011443
companion,0.002294
compar,0.004706
competit,0.003128
complet,0.003296
complex,0.010477
complic,0.001803
compos,0.004528
compress,0.002456
compris,0.001627
concentr,0.003113
concern,0.005584
confirm,0.003430
conflict,0.004445
confus,0.005372
congreg,0.002876
connot,0.002629
consensu,0.001984
conserv,0.017372
consid,0.008350
consist,0.009584
consumpt,0.001855
contact,0.001669
contain,0.004565
contamin,0.002538
content,0.003139
continu,0.000964
contrast,0.001344
contribut,0.001167
controversi,0.003135
cooler,0.003057
cooper,0.001520
copi,0.001918
cormor,0.004493
corner,0.005134
cosmopolitan,0.003137
count,0.003629
countri,0.001047
courtship,0.003528
crabeat,0.004493
creat,0.000973
creatur,0.002426
crest,0.003303
critic,0.004681
criticis,0.002341
crozet,0.019559
cryptic,0.003572
crystal,0.002232
cultur,0.009570
curios,0.005686
current,0.003055
curv,0.001957
custodian,0.003507
cycl,0.003262
cytochrom,0.003686
d,0.003864
damag,0.003434
danger,0.003737
daniel,0.001978
dark,0.008229
data,0.005079
date,0.001329
daughter,0.004367
david,0.004240
day,0.004802
daytoday,0.002714
dead,0.009973
deal,0.001281
death,0.004180
decad,0.008677
deceas,0.002824
decid,0.001550
decim,0.002654
decis,0.001341
declin,0.013596
decompress,0.003760
decoy,0.003969
decreas,0.003133
deep,0.001771
deer,0.003021
defenc,0.001936
defici,0.005047
defin,0.003275
degre,0.001302
deliber,0.004259
delphinid,0.005181
delphinida,0.004697
demonstr,0.001430
dens,0.002264
denser,0.003211
densiti,0.007680
depend,0.002099
deplet,0.009931
depth,0.002089
dermal,0.003846
descend,0.001925
describ,0.007834
descript,0.002908
design,0.002337
despit,0.002698
destroy,0.001663
detect,0.003494
deter,0.002914
determin,0.001104
develop,0.000795
devour,0.003372
dialect,0.028086
diatom,0.003048
did,0.001181
didnt,0.002614
die,0.009147
diego,0.002694
diet,0.016468
dietari,0.002929
differ,0.010965
differenti,0.001611
difficult,0.005550
difficulti,0.001718
dimorph,0.003596
direct,0.001056
directli,0.001278
director,0.001913
directori,0.002670
disabl,0.002317
disappear,0.002022
discov,0.008407
discoveri,0.002980
discret,0.001876
discrimin,0.002209
discuss,0.002596
dislodg,0.003658
display,0.007233
dissostichu,0.005181
distanc,0.001694
distant,0.002211
distinct,0.013479
distinguish,0.004237
distribut,0.002625
disturb,0.004468
diverg,0.002150
divers,0.003060
dna,0.006160
docil,0.003904
document,0.004608
dog,0.004763
doimep,0.005181
doll,0.006881
dolphin,0.046296
domest,0.001648
domin,0.001309
dorsal,0.046154
dozen,0.002225
dr,0.001974
dramat,0.007187
drill,0.002636
drive,0.001709
drop,0.001746
drown,0.006341
dump,0.003116
dure,0.004579
dwarf,0.002889
eagl,0.003030
ear,0.002542
earli,0.001916
earlier,0.001415
earth,0.001503
east,0.004418
eastern,0.004769
eat,0.017883
eaten,0.005779
echo,0.002668
echoloc,0.003827
ecojustic,0.005181
ecolog,0.005415
ecotyp,0.020948
ed,0.001341
eden,0.003230
edg,0.002089
edit,0.001499
effect,0.000930
effort,0.002653
elain,0.003507
elder,0.002353
eldest,0.003170
eleginoid,0.005181
eleph,0.005299
elli,0.008700
elong,0.002967
elsewher,0.001974
embodi,0.002214
emit,0.002397
enabl,0.003038
encount,0.003773
encourag,0.001574
encyclopedia,0.001649
end,0.002094
endang,0.015968
enemi,0.002140
energi,0.001341
enforc,0.001795
engag,0.001516
england,0.001662
englishspeak,0.002625
enlong,0.005181
enorm,0.004126
entir,0.004969
environ,0.007618
environment,0.003080
erich,0.008926
escap,0.001923
especi,0.001112
estim,0.013479
euphemist,0.004493
europ,0.001298
european,0.001193
eventu,0.002722
everi,0.002397
evid,0.002612
evidenc,0.002697
evolut,0.003110
evolutionari,0.001887
examin,0.004497
exampl,0.001715
excel,0.002072
excess,0.003702
exclud,0.001802
exclus,0.003272
exercis,0.001645
exert,0.002197
exhibit,0.001808
exist,0.001905
expand,0.001355
expect,0.003948
expedit,0.002166
expert,0.001892
explod,0.002818
expos,0.001918
express,0.003723
extant,0.007603
extend,0.003790
extens,0.001293
extent,0.001576
extern,0.000749
extraordinarili,0.003242
extrapol,0.002751
extrem,0.002748
exxon,0.003776
eye,0.009574
eyesight,0.003478
f,0.001411
face,0.002875
fact,0.001216
factor,0.002429
faculti,0.002212
fade,0.002735
fairli,0.002169
fall,0.001307
fals,0.003885
famili,0.013263
familyspecif,0.005181
far,0.002597
farallon,0.004889
farm,0.001911
faro,0.003431
fascicl,0.004389
fastest,0.002704
fatal,0.007469
fatti,0.002940
fear,0.001797
featur,0.003886
februari,0.003112
fed,0.002563
feder,0.003050
feed,0.026388
fell,0.001850
femal,0.046157
ferop,0.005181
fertil,0.004015
fiber,0.002488
figur,0.004255
film,0.007771
fin,0.045797
final,0.001238
finish,0.002204
firmli,0.002503
fish,0.032169
fisheat,0.019142
fisheri,0.010415
fishermen,0.006106
fjord,0.003230
flameretard,0.005181
flash,0.002689
flesh,0.002856
float,0.002268
floe,0.013660
fluke,0.014979
follow,0.004916
food,0.008845
footnot,0.002553
forag,0.008732
forc,0.002053
ford,0.008137
forehead,0.003440
foreign,0.001333
forelimb,0.003864
form,0.005480
forward,0.003636
foundat,0.005342
franci,0.001961
fraser,0.003153
free,0.002340
freerang,0.004493
frequenc,0.001957
frequent,0.007199
freshwat,0.002707
friday,0.002963
frigat,0.003255
ft,0.022387
fulli,0.001544
function,0.001048
fund,0.001412
fur,0.002830
futur,0.001247
g,0.002771
galleri,0.002634
game,0.001757
gap,0.001993
gather,0.001785
gene,0.001987
gener,0.005888
generalist,0.003275
genet,0.005219
genit,0.003230
genom,0.002326
genu,0.012936
geograph,0.004997
georgia,0.002448
gessner,0.004389
gestat,0.003275
gibraltar,0.003106
gil,0.003487
given,0.002054
glaciali,0.005181
global,0.001360
good,0.002277
govern,0.004870
grab,0.003356
graem,0.010824
grampu,0.014669
granni,0.003992
gray,0.017888
great,0.009235
greater,0.001290
greek,0.001450
greenland,0.008926
greenpeac,0.004042
greifswald,0.004438
grew,0.001711
grey,0.008191
grip,0.003081
ground,0.001490
group,0.027719
groupspecif,0.005017
grow,0.002626
grown,0.003945
guardian,0.002530
guinea,0.002418
guis,0.003187
gulf,0.006951
gull,0.007586
gwaii,0.005181
ha,0.013660
habit,0.002171
habitat,0.014334
haida,0.008778
half,0.001409
hammerhead,0.004389
handler,0.003864
haphazardli,0.004343
happen,0.004856
harass,0.002785
harbor,0.005126
harbour,0.010536
harimanada,0.005181
harm,0.001974
haro,0.008601
harpoon,0.007893
head,0.007934
headbut,0.004785
health,0.002855
healthi,0.002236
hear,0.004319
heard,0.002435
heart,0.001880
heavi,0.001770
heavili,0.001651
heimlich,0.005181
help,0.004485
helpless,0.003388
hemispher,0.002332
hemorrhag,0.003793
heptner,0.004697
herd,0.002733
heritag,0.004190
herring,0.005181
hewlett,0.004126
hi,0.005510
high,0.006223
higher,0.004870
highest,0.003137
highintens,0.004042
highli,0.004045
highprofil,0.003153
histor,0.001150
histori,0.000853
hoffmann,0.003380
hold,0.004935
home,0.001462
honor,0.002118
hope,0.003487
horikawa,0.004697
hour,0.005399
hous,0.002748
howev,0.007481
howstuffworkscom,0.004697
hoyt,0.012206
hudson,0.002929
human,0.021710
humpback,0.004126
hundr,0.004668
hung,0.003193
hunt,0.041345
hunter,0.007786
hydrophon,0.004553
hypothesi,0.001784
hypothesis,0.003440
ice,0.017874
iceberg,0.003550
iceland,0.018438
icon,0.002757
ident,0.001466
identif,0.002017
identifi,0.009905
ignor,0.001776
ii,0.001340
imag,0.003154
imit,0.002423
immedi,0.001505
immens,0.002461
immobl,0.008084
immun,0.002242
impact,0.002807
implic,0.001784
import,0.001747
inaccur,0.002776
inbreed,0.003431
incap,0.002760
incid,0.004053
inclin,0.002534
includ,0.009954
increas,0.003939
increasingli,0.003020
inde,0.001741
independ,0.001052
indian,0.001695
indic,0.015120
indigen,0.006126
individu,0.016904
indonesia,0.002426
induc,0.004056
industri,0.003507
infanc,0.006163
infer,0.001968
inflat,0.001929
inform,0.001018
ingrid,0.003846
inhabit,0.003561
injur,0.005195
injuri,0.002270
inland,0.002458
insensit,0.003431
insight,0.001900
instanc,0.002774
instead,0.001199
instinct,0.002709
institut,0.002167
insul,0.002788
integu,0.004343
intellig,0.007991
intens,0.003402
interact,0.002556
interbr,0.004042
intern,0.004488
interpod,0.005181
interspecif,0.003686
interven,0.002201
intervent,0.001858
introduct,0.001357
involv,0.002978
isbn,0.012108
island,0.034918
isol,0.001663
isoscel,0.004224
israel,0.002097
issn,0.002643
item,0.001878
iucn,0.006712
izu,0.010363
j,0.003859
jacob,0.002309
jame,0.001444
januari,0.001461
japan,0.011857
japanes,0.001952
jaw,0.006088
jerk,0.004016
john,0.003495
johnston,0.006264
join,0.001523
jone,0.002274
juli,0.001479
jump,0.002364
june,0.001492
just,0.001194
juvenil,0.009026
k,0.004658
kamchatka,0.004300
kanaga,0.005181
keeper,0.003340
keiko,0.009241
ken,0.002843
kenai,0.005017
kenneth,0.002298
kerguelen,0.004697
key,0.001303
kg,0.002668
kill,0.021981
killer,0.574074
kilogram,0.002893
kilomet,0.002589
kilometr,0.002374
kin,0.003076
kingdom,0.001362
kirkevold,0.005181
km,0.007710
kmh,0.003340
kn,0.003440
known,0.012837
konrad,0.003116
krai,0.004261
kuril,0.004261
kushiro,0.005181
kwakwakawakw,0.009779
label,0.003685
labrador,0.003528
land,0.002592
larg,0.012635
larger,0.010813
largescal,0.001995
largest,0.008486
late,0.002371
later,0.002036
latitud,0.010390
law,0.001031
lawrenc,0.002291
lawsuit,0.005654
layer,0.005913
lb,0.005903
lead,0.001021
learn,0.007192
leav,0.002900
lectur,0.001862
led,0.005526
leduc,0.004224
legal,0.001413
leopard,0.003372
levantin,0.004042
level,0.006144
librari,0.001608
lie,0.001677
life,0.006604
lifecycl,0.003053
lifespan,0.005642
lifestyl,0.002438
lifethreaten,0.003396
lift,0.002286
like,0.014634
likelihood,0.002374
limit,0.003137
line,0.002451
lineag,0.002534
link,0.001489
linnaeu,0.003013
lion,0.018662
liss,0.004889
list,0.004761
listen,0.004837
liter,0.001969
littl,0.003931
live,0.023251
livecaptur,0.005181
liver,0.002687
lo,0.002348
local,0.006958
locat,0.003777
lockard,0.005181
london,0.001441
long,0.012230
longer,0.001412
longlin,0.008522
longtail,0.004224
longterm,0.001802
look,0.001413
loos,0.002128
loss,0.001497
lost,0.001488
loud,0.003081
low,0.003937
lower,0.005061
luna,0.014432
m,0.011022
machinegun,0.004126
macquari,0.003776
madeira,0.003658
main,0.001084
mainland,0.002224
maintain,0.002387
major,0.001816
make,0.000870
mako,0.004300
male,0.036492
malefemal,0.003550
mammal,0.062865
mammalhunt,0.005181
mammalian,0.002788
mani,0.004643
manifest,0.003939
march,0.001419
mariana,0.003164
marin,0.049005
marineland,0.005181
maritim,0.002204
mark,0.002749
mass,0.002808
mate,0.007701
matern,0.002735
matriarch,0.003846
matrilin,0.037449
matur,0.003985
maximum,0.001862
mean,0.007544
measur,0.001121
meat,0.002376
mediterranean,0.004479
medium,0.003904
mediums,0.003187
meet,0.001385
member,0.014202
menopaus,0.003992
merciless,0.004068
mere,0.001684
mergui,0.004785
metabol,0.002269
method,0.002120
metr,0.009742
mexico,0.002136
mi,0.006477
michael,0.003151
microphon,0.003539
mid,0.005115
middl,0.001411
midth,0.002112
migrat,0.005488
mile,0.003980
million,0.002689
mingl,0.003620
minimum,0.001867
ministri,0.001841
mink,0.011594
minnesota,0.002760
minor,0.001584
minut,0.002043
misidentifi,0.003946
mislead,0.002589
miss,0.002159
mistransl,0.003700
mitochondri,0.009173
mn,0.006202
mobi,0.008877
modern,0.003081
month,0.010589
moreso,0.004785
morpholog,0.004691
mortal,0.002288
mostli,0.005843
mother,0.013813
motheroffspr,0.005181
mouth,0.004855
movement,0.001180
movi,0.002341
myth,0.002186
mytholog,0.007184
nanu,0.004620
narrow,0.001933
nasimovich,0.005181
natal,0.003458
nation,0.002846
nativ,0.001769
natur,0.002742
natura,0.003086
navi,0.010247
navig,0.002138
near,0.007039
nearli,0.007457
necessari,0.001364
need,0.003088
neg,0.001484
network,0.002862
new,0.005353
newborn,0.003008
newfoundland,0.006375
nich,0.002591
nick,0.005745
nicknam,0.002717
nmf,0.009394
nois,0.009767
nonaggress,0.003431
noncycl,0.004224
nonprofit,0.002469
north,0.021753
northeast,0.017071
northeastern,0.002645
northern,0.004802
northwest,0.025760
northwestern,0.002599
norway,0.007219
norwegian,0.015968
notabl,0.001313
note,0.001974
noth,0.003623
notic,0.001943
nova,0.002581
novemb,0.001535
nowweaken,0.005181
nuisanc,0.003561
number,0.004283
numer,0.002537
nunavut,0.004157
nuuchahnulth,0.004889
o,0.001805
obe,0.003969
object,0.003511
observ,0.010171
occasion,0.011589
occipit,0.004189
occur,0.004351
ocean,0.017620
oclc,0.002466
octob,0.002961
offer,0.001273
offic,0.001378
offshor,0.014980
offspr,0.007707
oil,0.005127
okhotsk,0.004697
old,0.007083
older,0.003593
oldest,0.001852
onc,0.005117
onli,0.011034
open,0.003516
oper,0.001080
opposit,0.001408
orang,0.002559
orca,0.182582
orcaella,0.005181
orcal,0.005181
orcinu,0.047855
orcu,0.004438
oregon,0.002914
organ,0.001867
orient,0.001784
origin,0.005693
orlando,0.003539
orphan,0.003211
otter,0.010349
outcast,0.003864
outsid,0.002612
outward,0.005272
overal,0.001567
overcom,0.002102
overlap,0.003806
overwhelm,0.004591
pacif,0.045646
pack,0.012492
paddl,0.003672
page,0.001678
pair,0.003649
pale,0.003325
papua,0.002996
parallel,0.003548
parasit,0.002534
park,0.010006
particip,0.002701
particular,0.002143
particularli,0.003602
pass,0.002660
past,0.002716
patagonian,0.003904
patch,0.033566
patholog,0.002434
pattern,0.007304
pcb,0.019521
pdf,0.003963
peak,0.001878
pector,0.008137
pelag,0.003793
pend,0.005779
penguin,0.005150
peninsula,0.004555
pennsula,0.004889
peopl,0.004720
perch,0.003744
perform,0.001203
perhap,0.001591
period,0.002034
perman,0.003318
permit,0.001743
persist,0.001941
pest,0.003004
pesticid,0.003013
phillip,0.002649
photo,0.002649
photograph,0.014140
photoidentif,0.005017
phuket,0.004620
pierc,0.002948
pilot,0.005072
pin,0.002903
ping,0.003884
pink,0.003101
pioneer,0.001788
place,0.004841
plan,0.001296
play,0.007417
plini,0.002818
plural,0.002202
pod,0.105236
podsclan,0.005181
point,0.001986
poison,0.002393
polar,0.002097
pollut,0.006909
polychlorin,0.004438
polyestr,0.005017
pool,0.002242
poor,0.001693
poorli,0.002267
popul,0.051168
popular,0.003675
porch,0.004126
porpois,0.007692
port,0.001934
portsmouth,0.003729
possibl,0.005007
potenti,0.003813
power,0.004019
pp,0.001600
practic,0.004202
predat,0.015257
prefer,0.006014
preliminari,0.002618
press,0.004622
presum,0.002191
prevent,0.001403
previous,0.002993
prey,0.093641
primarili,0.006710
primat,0.002785
primorski,0.004889
princ,0.004237
prior,0.002966
probabl,0.005635
problem,0.004200
produc,0.002043
product,0.002046
program,0.001235
progress,0.001338
project,0.002429
prompt,0.002149
propel,0.002751
propos,0.001211
protect,0.007851
public,0.005933
publish,0.003269
puget,0.021504
pull,0.002253
puls,0.002616
purpos,0.002554
push,0.001867
pygmi,0.003539
quantifi,0.002206
quest,0.002472
r,0.001313
race,0.001929
raincoast,0.005181
rais,0.001448
ram,0.005851
rang,0.012965
rapid,0.003403
rare,0.004847
rate,0.002433
ray,0.008508
reach,0.006327
read,0.001081
realli,0.002003
reason,0.003352
recent,0.007548
reclassifi,0.003528
recogn,0.005341
recogniz,0.002896
recommend,0.001835
record,0.011813
recover,0.003632
reduc,0.005898
refer,0.002490
reflect,0.002676
refut,0.002459
regard,0.004778
region,0.012266
regularli,0.004239
regurgit,0.003645
reindeer,0.003632
reintegr,0.003296
rel,0.003349
relat,0.004198
related,0.003340
relationship,0.002377
releas,0.003112
religion,0.001586
remain,0.004119
render,0.002042
repeat,0.001797
repeatedli,0.002215
repel,0.002702
repertoir,0.006511
repetit,0.002540
replac,0.001268
report,0.008378
reportedli,0.004945
repres,0.003064
reproduc,0.004225
reproduct,0.004230
reput,0.002166
requir,0.001960
research,0.020204
resembl,0.005893
resid,0.064341
residentlik,0.005181
respect,0.001184
respons,0.003240
rest,0.008753
result,0.001734
retali,0.002733
retriev,0.005550
return,0.003780
reveal,0.004913
rever,0.002779
review,0.001395
rhincodon,0.005181
richard,0.001538
risk,0.004596
risso,0.009241
river,0.006810
roam,0.003333
robert,0.001369
robin,0.002680
robust,0.004511
rocket,0.002645
roman,0.001670
roughli,0.001746
round,0.005917
rover,0.003372
ruler,0.002080
russia,0.001830
russian,0.001823
ryukyu,0.003992
s,0.019430
sacrific,0.002536
saddl,0.015044
said,0.003838
salish,0.005181
salmon,0.034631
sampl,0.001855
san,0.003955
sara,0.003311
saturna,0.005181
savag,0.005873
save,0.003536
saw,0.001523
say,0.002698
scan,0.002486
scar,0.009748
scarc,0.004769
scaveng,0.012751
school,0.001266
scienc,0.001047
scientif,0.003759
scientist,0.008543
scratch,0.003039
sea,0.052432
seal,0.046705
season,0.004024
seattl,0.003026
seaworld,0.014092
second,0.002044
secondheaviest,0.005181
section,0.001542
seen,0.002443
seldom,0.002827
select,0.001354
semiresid,0.005181
sendai,0.004300
senior,0.002063
sens,0.001281
separ,0.012514
septemb,0.001501
sequenc,0.006915
seri,0.001240
servic,0.001213
set,0.000964
seto,0.004785
seven,0.008170
sever,0.005420
sex,0.002156
sexual,0.004092
seychel,0.003333
shallow,0.002634
shapea,0.005181
share,0.002426
shark,0.038950
sharp,0.002104
sheer,0.003008
ship,0.001766
shiretoko,0.005181
shoot,0.007922
shore,0.004735
shorelin,0.003431
short,0.005310
shorter,0.008867
shortfin,0.004438
shortli,0.001938
shorttail,0.005181
shot,0.002421
shrank,0.003111
siberian,0.003311
sick,0.002445
sight,0.025419
signific,0.004425
significantli,0.004794
silent,0.005162
silverman,0.003714
similar,0.006209
simpl,0.001377
sinc,0.006066
singl,0.002319
sink,0.002581
site,0.001459
situat,0.002668
size,0.005398
skeleton,0.002649
skeptic,0.002282
skill,0.001669
skin,0.004395
skull,0.002768
slant,0.003539
slap,0.008448
slave,0.002047
sled,0.004553
slightli,0.003756
small,0.007423
smaller,0.011789
smallest,0.002255
smithsonian,0.002963
smooth,0.002298
snowbal,0.003348
snubfin,0.005181
social,0.015434
societi,0.003257
sockey,0.004493
solid,0.001862
solv,0.001594
sometim,0.005640
son,0.001659
sonar,0.020232
sophist,0.005981
soul,0.004475
sound,0.025546
sourc,0.002180
south,0.006785
southeastern,0.002692
southern,0.019301
soviet,0.005631
spanish,0.001874
speci,0.074912
special,0.005419
specialist,0.002150
specif,0.003110
specul,0.003606
speed,0.001772
sperm,0.017156
spill,0.012249
spiritu,0.001996
splash,0.004126
split,0.007124
spot,0.004339
springer,0.006293
spyhop,0.010363
squid,0.003217
st,0.001397
stabl,0.010233
staff,0.002043
stain,0.002856
stand,0.001628
star,0.001921
start,0.002194
state,0.004549
statu,0.005789
steadili,0.002286
steal,0.005718
steepli,0.003620
steller,0.004126
stereotyp,0.002846
stillwat,0.009571
stingray,0.004157
stock,0.003344
stomach,0.005807
stone,0.001935
stop,0.001712
strait,0.021760
strand,0.004942
strang,0.002571
strategi,0.001614
strength,0.001757
stress,0.005331
stretch,0.002184
strewn,0.004189
strike,0.003855
strong,0.001259
stronger,0.002086
strongli,0.001670
structur,0.011138
struggl,0.001816
studi,0.011906
stun,0.006607
su,0.002663
subantarct,0.004126
subject,0.001102
submerg,0.006153
subset,0.004347
subsist,0.002386
subspeci,0.012466
substanti,0.003217
substitut,0.001925
success,0.002298
suddenli,0.002571
suffoc,0.003884
suggest,0.003639
suitabl,0.001923
summer,0.008019
support,0.002060
surfac,0.009415
surfer,0.003864
surpris,0.002278
surround,0.007935
survey,0.004997
surviv,0.007473
survivorship,0.003714
suspect,0.002315
suzuki,0.006881
swam,0.004300
swim,0.019705
sympatr,0.008084
systema,0.003620
systemat,0.003311
tail,0.010036
tailslap,0.005181
taiwan,0.004877
taken,0.007613
tale,0.002491
tall,0.005514
tankmat,0.005181
target,0.003227
tasmania,0.003528
taxonomi,0.004986
teach,0.001697
team,0.001809
tear,0.002779
teas,0.003925
techniqu,0.007990
teeth,0.021822
tell,0.001952
temperatur,0.003504
temporarili,0.002389
tend,0.002846
term,0.003275
termin,0.002030
terra,0.003230
terrestri,0.002359
test,0.002833
th,0.003974
theatric,0.003193
theme,0.003838
themselv,0.005142
theori,0.001015
thereaft,0.002266
therefor,0.001177
thi,0.010371
thing,0.001379
thirtytwo,0.003686
thought,0.001228
thousand,0.001528
threat,0.009088
threaten,0.003941
thresher,0.004493
thrill,0.003608
throw,0.005322
thu,0.004052
tight,0.002645
tilikum,0.010363
time,0.009968
tint,0.003608
tip,0.009668
tlingit,0.004389
tobacco,0.002441
today,0.001245
togeth,0.001195
tokyo,0.002746
toll,0.002762
tom,0.004755
ton,0.018799
tonic,0.007938
tonn,0.011464
took,0.004061
tooth,0.003159
toothfish,0.004189
toss,0.003572
touch,0.002287
town,0.001779
toxic,0.002396
toxin,0.002971
track,0.001917
traffic,0.002289
train,0.002993
trainabl,0.004438
transient,0.089890
travel,0.010711
trevor,0.003348
tri,0.002728
trianglewherea,0.005181
triangular,0.006009
trick,0.002896
trigger,0.002108
trophic,0.003333
tropic,0.008846
tsushima,0.004620
turn,0.003594
turtl,0.003000
twice,0.002065
type,0.030216
typic,0.011626
typu,0.004889
ubc,0.004096
unbait,0.005181
uncertain,0.002291
uncharacterist,0.004068
unclear,0.004553
undergo,0.002009
undersea,0.003364
undersid,0.003608
understand,0.001176
understood,0.001626
underwat,0.016765
unfett,0.003497
uniformli,0.002824
union,0.003863
uniqu,0.002955
unit,0.002622
univers,0.000897
unknown,0.003588
unlik,0.008659
unthinkingli,0.004889
upper,0.001750
upsid,0.003596
upsidedown,0.003864
usa,0.001934
use,0.012038
usual,0.010429
util,0.001567
v,0.001545
vald,0.003992
valdez,0.003776
vancouv,0.009827
vari,0.002555
variabl,0.001584
variat,0.006498
varieti,0.003903
vastli,0.002709
ventur,0.002282
veri,0.006928
vessel,0.002109
vicin,0.002797
video,0.001907
vietnam,0.002348
view,0.001110
visit,0.001741
visitor,0.004741
visser,0.004189
vocal,0.032487
voic,0.002065
vol,0.001862
volcano,0.002563
volum,0.001484
voyageur,0.008686
vulner,0.002204
w,0.001454
wa,0.024870
wait,0.004699
wale,0.002412
walru,0.003946
walrus,0.004553
wareham,0.005181
warrior,0.002612
warship,0.002836
wash,0.008137
washington,0.019080
wast,0.002078
watcher,0.007620
water,0.036095
wave,0.003495
wavehunt,0.005181
weak,0.001721
wean,0.003793
wear,0.002348
weddel,0.004126
week,0.001821
weigh,0.012209
welfar,0.001996
welldevelop,0.002882
wellknown,0.002034
went,0.001589
west,0.007440
western,0.005214
whale,0.696549
whalekeep,0.005181
whaler,0.023897
whi,0.001594
whistl,0.003528
white,0.031263
whitecap,0.004889
wide,0.001116
widespread,0.001665
wikimedia,0.002415
wild,0.044467
wilder,0.002940
willi,0.005814
william,0.002777
winter,0.006442
withstand,0.002963
wolf,0.005308
wolv,0.010215
wooden,0.002782
work,0.000849
world,0.006150
worldwid,0.005274
wriggl,0.004438
written,0.001372
wrong,0.002038
wrote,0.002953
x,0.001534
year,0.023615
yearold,0.002525
yellow,0.004868
yellowish,0.008778
yellowting,0.005181
young,0.008046
younger,0.002153
youngster,0.003925
yupik,0.004157
zealand,0.006182
zhoushan,0.005181
zoo,0.003137
