abil,0.006658
abnorm,0.012045
academ,0.021747
accord,0.004839
account,0.005700
achiev,0.018265
acid,0.019502
act,0.005531
action,0.023786
activ,0.024146
actuat,0.016731
address,0.014576
advanc,0.011955
affect,0.037946
age,0.012122
agricultur,0.028774
aim,0.013822
allel,0.014410
altern,0.006218
amino,0.025055
amplifi,0.013289
analys,0.009462
analysi,0.005834
analyt,0.008823
analyz,0.016270
anatomi,0.056831
andor,0.008469
anesthesia,0.016904
anesthesiolog,0.018897
ani,0.008530
anim,0.067742
animalsand,0.021564
anoth,0.009309
antibiot,0.013657
apparatu,0.012045
appear,0.005605
appli,0.062086
applic,0.028900
approach,0.011139
archaerhodopsin,0.021564
area,0.009613
articl,0.005752
aspect,0.006360
assembl,0.007555
assess,0.008243
atmospher,0.009481
autoimmun,0.016860
base,0.004217
basic,0.017612
beer,0.013507
behavior,0.034227
behaviour,0.008997
benefit,0.007081
biliari,0.019391
biochem,0.035994
biochemistri,0.046398
biocomput,0.062268
biocontrol,0.020756
biodynam,0.020425
bioeffectormethod,0.021564
bioelectron,0.020273
bioengin,0.031500
bioethic,0.016163
bioinformat,0.042595
biolinguist,0.018556
biolog,0.318377
biomateri,0.089888
biomechan,0.044350
biomed,0.051257
biomedicin,0.034572
biomolecul,0.014485
biomonitor,0.020129
biophys,0.025884
biopolym,0.067980
biosensor,0.020273
biotechnolog,0.038136
birth,0.008598
blood,0.038013
bloodform,0.019736
bodi,0.029279
bodili,0.012752
bond,0.016670
botani,0.026628
brain,0.037354
branch,0.248240
breast,0.014320
broad,0.007838
broadli,0.009768
burden,0.011139
burgeon,0.014600
burst,0.013145
calcul,0.007446
cancer,0.010749
carbohydr,0.013772
cardiolog,0.017235
care,0.051397
case,0.009773
caus,0.015650
cell,0.075653
cellsign,0.020585
cellular,0.010814
centerpiec,0.016860
certain,0.005349
chang,0.008813
channelrhodopsin,0.019991
chemic,0.059538
chemistri,0.017133
chemometr,0.019501
children,0.008038
choic,0.007679
circulatori,0.015312
class,0.006482
classif,0.008624
classifi,0.031626
clinic,0.050968
clomeleon,0.021564
cognit,0.083402
coher,0.010774
combin,0.016721
common,0.009453
commun,0.010222
compani,0.006172
compar,0.011563
complet,0.010797
complex,0.011440
compon,0.026928
compos,0.014832
composit,0.008103
compound,0.008808
compris,0.015993
comput,0.025909
concept,0.005455
concern,0.032928
condit,0.016409
connect,0.006436
conserv,0.007759
consid,0.009118
consider,0.013139
consolid,0.010264
conspecif,0.017443
construct,0.006053
consum,0.015567
contain,0.005608
contrast,0.006603
control,0.015581
cope,0.012546
correl,0.009112
counsel,0.025169
coupl,0.009046
coval,0.013876
creat,0.004781
creation,0.007115
critic,0.005750
crop,0.009665
cross,0.008532
ct,0.013534
data,0.012477
deal,0.144846
death,0.006846
declin,0.007422
defect,0.023078
defin,0.021459
definit,0.006181
degre,0.012804
dekker,0.017443
deliveri,0.011298
depart,0.006854
depend,0.005158
deriv,0.005944
dermatolog,0.017235
descent,0.011214
describ,0.004811
design,0.017225
despit,0.006628
determin,0.005428
develop,0.039096
development,0.011005
devic,0.043684
devot,0.009240
diabet,0.013831
diagnos,0.050649
diagnosi,0.059306
diet,0.011559
digest,0.011944
disciplin,0.021610
diseas,0.163779
disord,0.040309
disposit,0.013314
distinct,0.006020
divers,0.007518
divis,0.006775
dna,0.060535
doe,0.010579
drug,0.073761
dure,0.004500
dynam,0.021987
ear,0.012490
earn,0.008846
eclect,0.015164
ecolog,0.017738
ecosystem,0.010675
ed,0.006588
effect,0.027433
efficaci,0.012931
effort,0.006518
elderli,0.013180
electr,0.015564
electrophysiolog,0.016995
element,0.017957
elicit,0.014049
elucid,0.013098
emerg,0.018096
emigr,0.011831
emot,0.019336
emphasi,0.025610
employ,0.018728
encompass,0.017622
endocrin,0.015047
endocrinolog,0.017553
endogen,0.014250
energi,0.006588
engin,0.040696
enhanc,0.008717
entir,0.018314
entomolog,0.016414
environ,0.024955
environment,0.045399
epidemiolog,0.066634
epistasi,0.017850
especi,0.016395
establish,0.005022
etholog,0.014978
evalu,0.008155
evid,0.012836
evolut,0.015283
evolutionari,0.018545
evolv,0.007725
examin,0.007366
exampl,0.008430
exercis,0.008086
exert,0.010799
exist,0.004680
expand,0.019973
experienc,0.008449
explain,0.006335
explor,0.007171
exposur,0.010460
express,0.006098
eye,0.018817
facil,0.009021
factor,0.005967
fall,0.006424
famili,0.026068
farm,0.009390
femal,0.009449
ferment,0.013816
field,0.082236
fifti,0.011928
finescal,0.020129
fit,0.008568
focu,0.041428
focus,0.013103
food,0.050703
form,0.019234
formal,0.006297
fossil,0.010908
freelymov,0.020129
function,0.092748
fungi,0.012183
gallbladd,0.019084
gastroenterolog,0.019501
gene,0.068356
gener,0.025314
genet,0.111127
genom,0.068575
geograph,0.008184
geographi,0.009264
geolog,0.009617
geriatr,0.017136
goal,0.006922
govern,0.004785
graduat,0.009430
grief,0.016529
group,0.013619
growth,0.006370
gynecolog,0.017850
ha,0.010067
haematolog,0.019391
halorhodopsin,0.019991
health,0.126291
healthcar,0.023707
heart,0.009237
help,0.033058
hematolog,0.034675
hepatolog,0.019991
hered,0.028748
heterosi,0.019736
histori,0.008383
holist,0.012931
hospic,0.017553
hospit,0.019848
howev,0.008168
human,0.048487
identif,0.009913
identifi,0.006083
iep,0.019736
ill,0.029316
imag,0.054246
immedi,0.007398
immigr,0.010015
immun,0.055079
immungenet,0.021564
immunocompromis,0.020585
immunogenet,0.040546
immunolog,0.029780
immunotherapi,0.115100
implant,0.027259
improv,0.012386
includ,0.048911
includexray,0.021564
incorpor,0.006911
increasingli,0.007419
individu,0.020764
induc,0.009965
industri,0.022977
infecti,0.026961
influenc,0.011086
inform,0.015010
injuri,0.033470
inorgan,0.011766
insect,0.022871
instanc,0.006815
instrument,0.007749
integr,0.012146
intens,0.008358
interact,0.037675
interdisciplinari,0.062071
intern,0.004410
interven,0.010814
intervent,0.018263
intragenom,0.020585
invest,0.007165
investig,0.014104
involv,0.024394
isbn,0.005949
isoelectr,0.020425
key,0.012808
kidney,0.013772
kinesiolog,0.087769
kinet,0.011391
knowledg,0.018988
known,0.016819
labonchip,0.021564
languag,0.006324
larg,0.004434
larger,0.006641
largescal,0.009804
lead,0.005020
led,0.005430
level,0.010062
life,0.097355
lightsensit,0.019084
like,0.026964
limit,0.005138
limnolog,0.015550
linear,0.008952
link,0.003658
list,0.004678
live,0.087043
liver,0.013204
livestock,0.011876
loci,0.015093
loi,0.015933
long,0.005462
longterm,0.008853
m,0.006017
macromolecul,0.014392
magner,0.021564
main,0.010652
maintain,0.011733
major,0.017854
make,0.008556
makeup,0.013441
male,0.009436
manag,0.006025
mani,0.019013
manipul,0.018016
manmad,0.013520
manufactur,0.008023
map,0.007696
marin,0.009631
materi,0.011791
mathemat,0.013227
matter,0.018985
mean,0.018533
measur,0.022042
mechan,0.037277
medic,0.178197
medicin,0.320856
membran,0.011913
mental,0.054623
mermaid,0.018808
metabol,0.033452
metabolit,0.015965
method,0.031263
micro,0.013772
microbiolog,0.039577
microorgan,0.037696
microscop,0.010861
mind,0.007933
mineralog,0.014320
mite,0.016490
model,0.005240
modern,0.005046
modif,0.009999
modifi,0.008209
molecul,0.018168
molecular,0.079142
money,0.007518
monitor,0.018196
monom,0.016029
monomer,0.037616
mood,0.013265
motion,0.016979
movement,0.011602
mri,0.014581
multidisciplinari,0.025169
muscl,0.011667
mycolog,0.017286
n,0.007555
nanobiotechnolog,0.020129
nanoelectron,0.019391
natur,0.017965
naturalsci,0.021339
necessari,0.013409
need,0.005057
nephrolog,0.019861
nervou,0.046078
network,0.014066
neural,0.022609
neurobiolog,0.014302
neuroetholog,0.038366
neurolog,0.012732
neuromodul,0.019285
neuron,0.036880
neuropsycholog,0.030186
neurosci,0.115995
new,0.030063
nonhuman,0.012909
nonliv,0.014181
normal,0.013411
nose,0.014114
nucleotid,0.013467
numer,0.006232
nurs,0.012241
nutrit,0.012085
occup,0.008766
occur,0.010690
ocean,0.008657
oceanographi,0.013892
oceanolog,0.018808
old,0.006961
oldest,0.009101
oncolog,0.015468
oper,0.010614
ophthalmolog,0.017088
optic,0.010120
optogenet,0.095424
optometri,0.037275
organ,0.123902
origin,0.009324
orthoped,0.017390
orthot,0.018808
otolaryngolog,0.019285
overlap,0.018701
packag,0.010665
paleontolog,0.013861
panel,0.012399
particular,0.005266
particularli,0.005900
patholog,0.059797
pathophysiolog,0.018721
pathway,0.045194
patient,0.061485
pediatr,0.015024
perform,0.011828
person,0.005505
pest,0.014762
pharmaceut,0.057305
pharmacogenom,0.038366
pharmacolog,0.065668
phenomena,0.008032
physic,0.055051
physiolog,0.138734
phytopatholog,0.018637
place,0.004757
plant,0.058433
pleiotropi,0.020585
point,0.004880
polym,0.050571
polymer,0.030140
polymorph,0.014466
polynucleotid,0.018989
polypeptid,0.015965
polysaccharid,0.015662
popul,0.053872
portion,0.008454
portmanteau,0.017390
possibl,0.004920
potenti,0.012491
practic,0.030969
practition,0.010124
precis,0.007946
prehistor,0.011661
prepar,0.007824
prevent,0.041382
primari,0.012736
princip,0.007536
principl,0.017373
problem,0.005159
procedur,0.016803
process,0.059288
produc,0.025098
product,0.025140
profess,0.020162
profession,0.007817
propel,0.013520
properti,0.011682
propon,0.010109
prosthet,0.016233
protein,0.049003
proteom,0.049356
provid,0.012841
psychiatr,0.027315
psychiatri,0.013629
psycholog,0.082232
psychologicalcognit,0.021564
psychologist,0.011054
psychosoci,0.031441
psychotherapi,0.029008
public,0.009717
pulmonolog,0.020129
purpos,0.012550
qualiti,0.007187
question,0.006058
radiolog,0.015338
rais,0.007115
rate,0.005978
rd,0.008638
reaction,0.007845
read,0.005313
reagent,0.030676
realtim,0.012824
reason,0.005491
recogn,0.006560
recombin,0.012722
record,0.006449
reduc,0.005796
refer,0.006119
regard,0.005870
regul,0.007243
rehabilit,0.013192
relat,0.024751
relationship,0.005840
reli,0.007372
remain,0.005060
remov,0.007064
reproduct,0.020786
requir,0.009633
research,0.049636
resourc,0.006194
respiratori,0.013861
respons,0.026533
restor,0.008652
result,0.004261
retriev,0.018179
rev,0.013671
reveal,0.008048
rheolog,0.018252
rheumat,0.018477
rheumatolog,0.018897
rna,0.012603
role,0.010719
rudolf,0.012575
scan,0.024433
scienc,0.241857
scientif,0.036941
scientist,0.013992
scope,0.008994
seek,0.006865
sensor,0.012682
sensori,0.011861
sequenc,0.025482
servic,0.005961
set,0.018958
shelflif,0.019991
short,0.006523
shortterm,0.011122
signal,0.008803
significantli,0.007852
similar,0.005084
sinc,0.004257
singl,0.022794
singlenucleotid,0.018477
size,0.006631
skill,0.008203
skin,0.010799
social,0.054168
societi,0.005334
sociobiolog,0.015495
sociolog,0.010089
softwar,0.009021
soil,0.009648
solut,0.007285
sometim,0.005543
spatiallyprecis,0.021564
speci,0.015662
special,0.010651
specif,0.030568
splanchnolog,0.021339
sport,0.050565
stabl,0.008379
standard,0.005735
state,0.003725
statist,0.006985
steadi,0.010913
steiner,0.015965
store,0.017253
strategi,0.007932
strength,0.008636
strengthen,0.009631
stress,0.017464
strong,0.006187
structur,0.059701
studi,0.306004
subdisciplin,0.023212
substanc,0.017904
substrat,0.025862
superclomeleon,0.021564
support,0.025314
suppress,0.029253
surfac,0.007710
surgeri,0.024011
surviv,0.007344
sustain,0.008328
synthesi,0.009506
synthet,0.021121
target,0.007928
techniqu,0.032718
technolog,0.030696
temporallyprecis,0.021564
term,0.008047
test,0.006961
textur,0.014978
theori,0.009982
therapeut,0.012565
therapi,0.010845
thereof,0.013087
thermal,0.010918
thi,0.015924
thing,0.006775
throat,0.015312
time,0.007535
tissu,0.030868
tissueeven,0.021564
today,0.006117
tool,0.006818
topic,0.027024
toxic,0.023547
toxicolog,0.031803
track,0.009421
tradit,0.010724
trait,0.010089
transduct,0.015415
transform,0.006970
treat,0.022368
treatment,0.054831
type,0.015358
typic,0.005712
ultim,0.007364
ultrasound,0.015495
undergo,0.009872
underli,0.008086
understand,0.023120
understood,0.007991
unifi,0.008913
unit,0.021474
unless,0.009542
urin,0.014215
urinari,0.016233
urolog,0.018808
use,0.055669
usual,0.010248
vari,0.006277
variat,0.015963
varieti,0.006393
variou,0.014542
vessel,0.010366
veterinari,0.014721
virolog,0.015901
viscer,0.018043
vision,0.018446
visual,0.008984
vital,0.019019
vitamin,0.013985
vitro,0.014721
way,0.004552
weed,0.015389
wellb,0.022782
wherea,0.007388
wine,0.011982
word,0.005910
work,0.037570
worker,0.023779
year,0.004297
york,0.006558
zoolog,0.038569
zygot,0.015634
