ab,0.008341
abl,0.021027
abnorm,0.008286
absorpt,0.008104
accept,0.004180
access,0.004606
accumul,0.044710
acid,0.127455
acidifi,0.014835
acp,0.009900
act,0.007610
action,0.008181
activ,0.036544
ad,0.004248
addit,0.010104
adjectiv,0.010273
affect,0.013052
ageingrel,0.017515
alex,0.009827
alga,0.009211
alkalin,0.010516
allow,0.003310
alphaglucosidas,0.017515
alreadi,0.004850
amantadin,0.016175
ambroxol,0.052546
amitriptylin,0.015619
anaemia,0.015003
analog,0.005949
ancient,0.004823
ani,0.002934
anim,0.023301
anoth,0.003202
antimicrobi,0.012821
antiport,0.014537
apoptosi,0.011539
apparatu,0.033145
appli,0.003559
approv,0.005719
approxim,0.004537
arduou,0.012459
argu,0.004429
articl,0.003957
associ,0.003252
autophagi,0.043211
b,0.004410
bacteria,0.007643
bag,0.010335
barrier,0.013548
base,0.017406
basic,0.004038
becam,0.003669
befor,0.003428
behavior,0.004709
belgian,0.009347
belgium,0.007880
besid,0.006868
best,0.004424
bigger,0.009011
biggest,0.007537
bind,0.006932
biologist,0.007511
biomembran,0.015391
biomolecul,0.029894
biosynthesi,0.010641
birth,0.005915
blood,0.019613
bodi,0.012085
bone,0.015059
botani,0.009159
botanist,0.009535
brain,0.012848
break,0.022135
breakdown,0.008264
bruis,0.014161
calcium,0.026511
came,0.004396
cancer,0.007394
capabl,0.005294
capac,0.005573
carbohydr,0.018949
cardiovascular,0.009964
cartilag,0.011723
case,0.006723
catabol,0.012507
cathelicidin,0.017515
cathepsin,0.016175
cathol,0.006491
caus,0.010766
cell,0.150350
cellbas,0.014537
cellular,0.029759
centrifug,0.010551
chain,0.006007
chairman,0.007604
challeng,0.004803
channel,0.006637
character,0.005099
charg,0.005188
chemistri,0.005893
chlorid,0.019134
cholera,0.010814
christian,0.010421
class,0.004459
classic,0.004442
clc,0.014051
clear,0.010009
clh,0.017515
clinic,0.021037
collect,0.003922
combin,0.003834
common,0.003251
compar,0.003977
compart,0.010499
compon,0.018524
composit,0.005574
compound,0.018179
concentr,0.021050
conclud,0.005500
conclus,0.005992
condit,0.007525
conduct,0.004609
confirm,0.005797
consequ,0.004572
consid,0.003136
consortium,0.009415
contain,0.019290
continu,0.003258
control,0.003573
controversi,0.005299
convent,0.005207
cooper,0.005140
cough,0.012075
counter,0.007271
crucial,0.019639
cure,0.008248
cytoplasm,0.019535
cytosol,0.080774
d,0.004353
damag,0.005803
day,0.012174
death,0.004710
debri,0.010304
decreas,0.005295
defect,0.015876
defici,0.017059
definit,0.008504
degrad,0.046291
deriv,0.004089
describ,0.006620
descript,0.004916
destin,0.015052
destroy,0.005623
detect,0.005905
differ,0.008553
differenti,0.005445
differentth,0.016527
diffus,0.007347
digest,0.041083
direct,0.003571
directli,0.004321
discov,0.004736
discoveri,0.020147
diseas,0.078868
disord,0.027730
dispos,0.007956
dissoci,0.009926
divers,0.005172
document,0.005192
doe,0.003638
domain,0.005252
doubt,0.006940
drain,0.009273
drug,0.038057
duve,0.116296
dynam,0.005042
easi,0.006575
editor,0.006892
effect,0.003145
electron,0.010836
elimin,0.011198
embed,0.007529
enabl,0.005134
endocytosi,0.039387
endocytot,0.017515
endoplasm,0.035074
endosom,0.086422
endosomalautophagiclysosom,0.017515
endpoint,0.011096
energi,0.004532
engulf,0.011453
enlarg,0.008270
ensur,0.005319
enter,0.004733
entri,0.018788
environ,0.021459
enzym,0.291237
enzymefil,0.017515
enzymetarget,0.017515
error,0.006156
establish,0.003455
estim,0.018224
etymolog,0.006892
evad,0.010030
eventu,0.013805
evidenc,0.009117
exampl,0.002899
exchang,0.004576
exit,0.016986
exocytosi,0.028102
expect,0.008897
experi,0.003981
explain,0.008717
extern,0.002531
extracellular,0.010335
extract,0.006232
fail,0.009736
fatigu,0.010755
fatti,0.019878
fiasma,0.017515
figur,0.004795
fluoxetin,0.014835
focus,0.004507
fold,0.008253
form,0.015878
format,0.004722
foundat,0.004514
fraction,0.033884
fresh,0.007776
fulfil,0.007001
function,0.028357
fund,0.004773
fungi,0.008381
fuse,0.034094
gaa,0.013340
gain,0.004212
gaucher,0.015877
gene,0.020153
genet,0.017641
glucocerebrosidas,0.017515
glucos,0.009687
glucosylceramid,0.017515
golgi,0.046274
gradient,0.008237
gradual,0.005565
greek,0.004902
group,0.006246
grow,0.004439
h,0.004809
ha,0.004617
halflif,0.010587
halfliv,0.012154
haloperidol,0.015619
hatpas,0.017515
hi,0.003104
hide,0.008195
high,0.007011
higher,0.008231
hijack,0.022334
hiv,0.010057
hold,0.004170
homeostasi,0.010641
hormon,0.008971
howev,0.011239
human,0.003335
hydrolas,0.041259
hydrolysi,0.021836
hydrolyt,0.071394
hydrolyz,0.012711
hypothes,0.006884
immun,0.007578
import,0.008858
improv,0.004260
inabl,0.008358
inborn,0.012237
incid,0.006850
includ,0.009613
incorpor,0.004754
increas,0.006658
indirectli,0.007461
infect,0.007858
inherit,0.006420
inhibit,0.008523
inhibitor,0.010834
initi,0.003761
innat,0.008517
insid,0.023226
instanc,0.004688
insulin,0.020517
interior,0.006794
intracellular,0.031247
involv,0.010069
ion,0.022523
isol,0.005621
key,0.008811
kidney,0.009474
kind,0.004611
known,0.005785
laboratori,0.011748
lack,0.004413
larg,0.003050
larger,0.004568
lasosom,0.017515
late,0.008015
latin,0.010880
lazzom,0.017515
lead,0.003453
leakag,0.011755
leav,0.004901
led,0.003735
leukodystrophi,0.016527
level,0.006922
levomepromazin,0.016527
life,0.003720
light,0.004771
like,0.006183
limit,0.003534
link,0.002516
lipid,0.018234
lipophil,0.041839
live,0.003742
liver,0.027251
locat,0.004255
long,0.007516
longer,0.004773
loosen,0.010876
louvain,0.013663
low,0.004435
lsd,0.038133
lsi,0.013946
lumen,0.024075
lung,0.009051
lyo,0.017515
lyosom,0.035030
lyse,0.013946
lysi,0.026258
lyso,0.017515
lysosom,0.813323
lysosomotrop,0.087576
lytic,0.014835
m,0.008278
macromolecul,0.009900
macrophag,0.012237
macropinocytosi,0.017515
maintain,0.008071
major,0.003070
malfunct,0.010755
mani,0.007848
mannos,0.057614
marrow,0.011119
materi,0.016223
mathemat,0.004549
matter,0.004353
matur,0.013469
mean,0.003187
measur,0.003790
mechan,0.004274
medic,0.005329
medicin,0.011036
membran,0.114741
membranebound,0.011856
membranelik,0.033055
mere,0.005693
metabol,0.030684
metachromat,0.015619
method,0.007169
micrograph,0.014537
microscop,0.007471
microsom,0.017515
minor,0.005356
misdiagnos,0.014537
model,0.003605
modifi,0.005647
molecul,0.012499
monomer,0.012938
mrna,0.010678
mucolyt,0.015619
mutat,0.016072
nascent,0.009709
ncatsrar,0.017515
ncbi,0.011598
nearli,0.005041
necessari,0.009224
network,0.009677
neurodegen,0.012195
neutral,0.012669
new,0.005170
nih,0.011317
nobel,0.013474
nonenzymat,0.015391
normal,0.004613
novikoff,0.033055
nuclear,0.005913
nucleic,0.009505
nucleu,0.015334
number,0.002895
obsolet,0.009027
obtain,0.004498
onli,0.010656
optim,0.012277
order,0.003189
organ,0.003156
organel,0.090892
origin,0.006414
osteoporosi,0.013267
outsid,0.008830
pack,0.008445
packag,0.007337
pancreat,0.011788
parkinson,0.010551
particip,0.004565
particl,0.006221
particularli,0.004058
pathogen,0.037242
pathogenet,0.017515
pathway,0.031091
peptid,0.038749
perform,0.008137
permeabl,0.010604
permeat,0.010415
peroxisom,0.012879
persist,0.006562
ph,0.055007
phagocyt,0.013494
phagocytosi,0.012459
phagosom,0.015187
pharmacolog,0.009035
phenomenon,0.011921
phosphat,0.044744
phosphatas,0.051517
phospholipid,0.011119
phsensit,0.016959
physiolog,0.027268
pinch,0.011691
pinocytosi,0.015619
plant,0.015074
plasma,0.033923
platelet,0.012821
play,0.008357
polym,0.017394
portion,0.005815
prefix,0.008918
presenc,0.005018
presum,0.007408
prevent,0.009489
previous,0.005059
primari,0.004380
primer,0.009599
prize,0.012379
procedur,0.005779
process,0.006274
product,0.006917
pronunci,0.008801
proper,0.005954
properli,0.006979
properti,0.020091
protect,0.008846
protein,0.047195
proton,0.034319
public,0.003342
pump,0.016694
purifi,0.018889
rang,0.003983
rarer,0.011266
rate,0.004112
reach,0.008555
react,0.007353
reader,0.007177
reason,0.003777
receiv,0.004021
receptor,0.017928
recycl,0.008956
reduc,0.003987
refer,0.004209
reflect,0.004523
refriger,0.010184
regul,0.004982
rel,0.003773
relat,0.002837
releas,0.010520
repair,0.007493
repeat,0.006075
replenish,0.010551
replic,0.014858
requir,0.003313
research,0.010243
respons,0.018253
rest,0.004931
result,0.011727
reticulum,0.034617
ribosom,0.010319
role,0.014748
rough,0.016694
s,0.002985
sac,0.011072
saclik,0.015877
safeguard,0.009027
sampl,0.006272
scienc,0.003540
scientif,0.004235
secret,0.006494
section,0.005215
seek,0.004723
seen,0.004129
selfdestruct,0.012765
separ,0.003845
serendipit,0.012879
seri,0.004193
sertralin,0.015619
sever,0.003053
signal,0.012112
signific,0.003739
similar,0.003497
similarli,0.005549
simpli,0.004779
sinc,0.005858
size,0.018247
slightli,0.006348
small,0.003584
smallest,0.007624
solubl,0.009366
soma,0.012323
sort,0.006144
sourc,0.003684
speci,0.010774
specif,0.028038
spheric,0.008554
sphingolipid,0.013946
sphingomyelinas,0.035030
spleen,0.023511
stain,0.009653
standardis,0.010499
start,0.003708
state,0.002563
steadi,0.007507
step,0.004967
stomach,0.009815
storag,0.027883
store,0.005934
strategi,0.005456
strictli,0.006908
strongli,0.005645
structur,0.023957
studi,0.006191
stutter,0.013494
substrat,0.044479
succeed,0.005988
success,0.003884
sugar,0.014275
suggest,0.004100
suicid,0.016796
surprisingli,0.009779
surround,0.005364
suspect,0.007827
sustain,0.005729
synthesi,0.006539
synthesis,0.010982
tag,0.028545
takenup,0.016527
target,0.005454
team,0.006117
term,0.011071
therefor,0.011944
thi,0.039438
thought,0.008303
time,0.005183
tissu,0.021235
tissuetoblood,0.017515
toxin,0.010044
traffick,0.009732
transcrib,0.009851
transcript,0.008650
transfer,0.005012
translat,0.005043
transloc,0.011370
transport,0.030130
trap,0.007675
treat,0.010258
treatment,0.005388
tri,0.004610
trigger,0.007125
true,0.009485
turn,0.004049
type,0.007043
typo,0.016175
ultim,0.005066
uncharg,0.013129
undergo,0.006791
undiagnos,0.015877
unit,0.002954
univers,0.009101
unthink,0.012413
unwant,0.009755
use,0.019148
vacuol,0.081840
vacuolar,0.016175
valu,0.003754
vari,0.004318
varieti,0.004398
variou,0.006669
veri,0.003345
vermont,0.011453
versatil,0.010482
vesicl,0.098263
vesicular,0.029074
viral,0.009610
virtual,0.005793
viru,0.008925
viscera,0.014403
visit,0.005885
wa,0.014411
wast,0.007026
way,0.003132
weak,0.023275
white,0.005561
won,0.005929
word,0.004066
year,0.002956
yield,0.005722
