aardvark,0.014019
abalon,0.007009
abandon,0.002938
abdomen,0.010485
abdomin,0.009971
abil,0.023809
abl,0.009935
abomasum,0.007501
abov,0.006042
absenc,0.002892
absent,0.007668
absorb,0.006289
abstract,0.002768
accept,0.003950
accident,0.004069
accompani,0.003041
accord,0.007865
account,0.001852
accumul,0.003017
accur,0.002680
achiev,0.007916
achil,0.005724
act,0.001797
action,0.003865
activ,0.004709
adapt,0.020040
addit,0.001591
adept,0.005210
adhes,0.004720
adipos,0.006058
adjac,0.003600
adopt,0.002170
adult,0.009239
advanc,0.003885
advantag,0.007325
aerial,0.004430
aestiv,0.007809
affect,0.002055
africa,0.017883
african,0.005514
afroinsectiphilia,0.008275
afrosoricida,0.007809
afrother,0.008013
afrotheria,0.023427
aggress,0.007010
ago,0.042676
agre,0.002371
agricultur,0.014029
ahead,0.003672
aid,0.009440
air,0.026582
airflow,0.012063
airtight,0.007272
al,0.002698
alarm,0.021909
albrecht,0.005242
alga,0.004352
ali,0.007799
allen,0.003632
alli,0.008716
allometr,0.014544
allotheria,0.008275
allow,0.021901
alon,0.002690
alopex,0.007809
alpaca,0.006415
alpha,0.003641
alreadi,0.004583
alter,0.002821
altungulata,0.008275
alveoli,0.006936
alway,0.006346
amazon,0.004500
ambient,0.004571
ambondro,0.008275
america,0.004409
american,0.007129
americanu,0.006936
ameridelphia,0.007809
ammonia,0.004545
amnh,0.007642
amniot,0.046748
amniota,0.008275
amphibi,0.010770
amphibian,0.009286
amphilest,0.008275
amphitherium,0.008275
anagalida,0.008275
analysi,0.007585
anatomi,0.007389
ancestor,0.043954
ancestr,0.008225
angl,0.003550
ani,0.005545
anim,0.143126
ankl,0.011524
annual,0.002416
anoth,0.006052
ant,0.008538
anteat,0.028038
anterior,0.005054
anthropogen,0.004929
antipred,0.007089
anu,0.010358
ape,0.024492
aposemat,0.007089
appar,0.008056
appear,0.029154
appendag,0.005299
appli,0.003363
approach,0.001810
approxim,0.004287
aquat,0.016956
arabia,0.003848
arbor,0.035904
archicebu,0.008275
archiv,0.005790
archonta,0.008275
archosaur,0.006805
arctic,0.030466
area,0.006249
argument,0.002643
armadillo,0.006303
aros,0.006248
arrector,0.007272
arriv,0.002532
art,0.004813
arteri,0.004648
articul,0.003799
articular,0.019628
artifici,0.005313
artiodactyl,0.015285
artist,0.003301
asia,0.010804
asian,0.002996
asioryctitheria,0.008275
aspect,0.002067
assess,0.002679
atla,0.003688
atlant,0.003333
atlantogenata,0.008275
atmospher,0.003081
atria,0.013179
atrium,0.018610
attach,0.002978
attempt,0.001794
attract,0.005062
attribut,0.004890
aunt,0.005411
auroch,0.006868
australia,0.002734
australian,0.003271
australidelphia,0.007809
australidelphian,0.007809
author,0.003542
avail,0.003846
averag,0.002349
avian,0.005509
avoid,0.007049
away,0.002396
awn,0.007272
backflow,0.007642
backward,0.007825
bacteria,0.010834
badger,0.006639
baleen,0.012537
baltimor,0.004631
bare,0.003874
bark,0.009767
barrelshap,0.007809
basal,0.024764
base,0.009595
basic,0.001908
bassam,0.006868
bat,0.088440
bayesian,0.004373
bbc,0.007157
bean,0.004407
bear,0.014719
bearsar,0.008275
beast,0.004906
beaver,0.016234
becam,0.005201
becaus,0.004283
becom,0.006073
bee,0.004448
befor,0.001620
begin,0.001849
behavior,0.008900
behaviour,0.002924
believ,0.001961
bell,0.014690
belli,0.005129
bellow,0.011913
belong,0.005360
beneath,0.004099
bengal,0.004977
best,0.002090
bet,0.004798
big,0.002872
biggest,0.007122
bile,0.010823
bilirubin,0.014544
billion,0.008082
biodivers,0.007861
biodiversitymappingorg,0.008275
biol,0.006085
biolog,0.013498
bipe,0.012911
biped,0.011913
bird,0.038856
birth,0.016770
blackandwhit,0.005909
blacksmith,0.005802
blood,0.030890
blubber,0.013278
blue,0.006762
boar,0.005843
bodi,0.038069
bodili,0.004145
bolu,0.013493
bone,0.074713
bonecrush,0.007642
boni,0.010358
bonobo,0.006085
book,0.001802
boreoeutheria,0.024827
boreoeutheriawhich,0.008275
bottleneck,0.005189
bottlenos,0.006303
bottommost,0.007176
brachiat,0.008275
brain,0.048567
branch,0.024206
break,0.013073
breast,0.004654
breath,0.012234
bred,0.005054
bredback,0.008275
breed,0.034235
breedingback,0.008275
brief,0.003006
bring,0.002358
bristl,0.006376
broad,0.002547
broader,0.003162
bronchi,0.006542
brosiu,0.007809
brown,0.012874
buffalo,0.009624
build,0.002007
bulletin,0.012795
bumblebe,0.006542
bump,0.011018
bundl,0.004217
burrow,0.020254
bushbabi,0.008013
c,0.012707
caecum,0.007501
cage,0.004952
callitrichida,0.008275
callosum,0.006805
came,0.002077
camel,0.014882
camouflag,0.022679
canin,0.011078
canter,0.007379
capabl,0.002501
cape,0.003990
capillari,0.005100
captiv,0.008138
capybara,0.007009
capzaplewski,0.008275
carbohydr,0.004476
carbonifer,0.011563
care,0.021480
carl,0.006343
carnassi,0.013737
carnassialiform,0.008275
carnivor,0.060232
carnivora,0.026358
carnivoran,0.013382
carnivori,0.007009
carri,0.006144
carrier,0.003815
case,0.007942
castorocauda,0.016551
cat,0.032242
catch,0.003824
categori,0.007272
cattl,0.018606
caus,0.008478
cave,0.003820
caviti,0.027559
cecum,0.013872
cell,0.013661
cellulas,0.006868
cellulos,0.009827
cellulyt,0.008013
cenozo,0.012344
center,0.004052
centimetr,0.005411
centuri,0.004894
cerebrum,0.006455
certain,0.001738
cervic,0.011109
cetacean,0.027696
cetartiodactyla,0.024039
chain,0.002838
challeng,0.002269
chamber,0.016855
chanc,0.003058
chang,0.010026
channel,0.006272
character,0.004819
characterist,0.006569
charl,0.002433
cheirogaleu,0.008275
chest,0.004778
chicken,0.004515
child,0.006102
chimpanze,0.009938
china,0.004881
chiroptera,0.015285
choic,0.002496
christoph,0.003329
chromosom,0.004128
churakov,0.008275
cilia,0.005843
cingulata,0.008275
circumst,0.002918
cite,0.002657
civil,0.004358
clade,0.065364
cladist,0.010599
cladogram,0.012344
claim,0.001928
class,0.008428
classif,0.061674
classifi,0.007709
claw,0.027124
clear,0.004729
clearli,0.002856
climat,0.002712
climb,0.008599
clip,0.004765
cloaca,0.039257
close,0.010200
closer,0.003143
closest,0.003845
cloth,0.006642
clutter,0.006415
cm,0.007991
coat,0.026346
cochlea,0.006455
cognit,0.006024
cohort,0.010358
coin,0.002630
coincid,0.003417
cold,0.003028
coldblood,0.006746
collar,0.005072
collect,0.009266
colleg,0.002758
colon,0.003371
coloni,0.002627
color,0.025320
colugo,0.015618
columbia,0.003533
combat,0.003335
combin,0.003623
come,0.003634
commod,0.003083
common,0.012291
commonli,0.002110
commun,0.018275
companion,0.003664
compar,0.003758
comparison,0.002664
compendium,0.004771
competit,0.002498
complement,0.003746
complet,0.007019
complex,0.011155
compon,0.013129
composit,0.002634
comprehens,0.005597
conceal,0.004535
concept,0.001773
concern,0.001783
condit,0.003555
condyl,0.007809
condylarth,0.007642
congreg,0.004593
conic,0.004993
connect,0.004184
consequ,0.002160
conserv,0.012611
consid,0.010373
consist,0.013605
consolid,0.003336
conspicu,0.009954
constant,0.005052
constantli,0.007084
constitut,0.004012
constraint,0.003154
construct,0.005903
consum,0.015180
consumpt,0.002963
contact,0.002666
contain,0.007291
contemporan,0.004733
contend,0.003662
contenti,0.004515
continu,0.012317
contract,0.010195
contrast,0.004292
contribut,0.003730
control,0.006753
controversi,0.002503
convent,0.002460
converg,0.003347
convers,0.005243
convert,0.005180
convex,0.004481
cool,0.003559
cooper,0.007285
coprolit,0.006746
coprophag,0.008275
cord,0.009071
coronari,0.005494
corpu,0.004299
correct,0.002558
cortex,0.009241
cosmopolitan,0.025054
count,0.002898
counteract,0.009767
countri,0.001672
cours,0.002214
courtship,0.005635
cover,0.006276
cranial,0.010670
crawl,0.005586
creat,0.003108
creatur,0.003874
creodont,0.008013
cretac,0.037789
cretaceouspaleogen,0.005669
crocodilian,0.006058
crocodylomorph,0.007809
crop,0.003141
cross,0.005546
crown,0.023037
crowngroup,0.008013
cubic,0.004386
cud,0.007176
cultur,0.005731
curli,0.006339
current,0.001626
cursori,0.006268
cushion,0.005724
cutoff,0.005253
cycl,0.005209
cynodont,0.032052
dagger,0.005618
dairi,0.004678
damaraland,0.007379
dark,0.003285
darker,0.010599
darwin,0.003556
dassi,0.008275
data,0.006083
date,0.019113
david,0.004514
day,0.001917
death,0.002225
debat,0.002365
declin,0.004825
decreas,0.005004
deer,0.038607
defaun,0.016551
defec,0.006172
defend,0.008529
defens,0.002789
defin,0.005231
definit,0.012055
deforest,0.004672
degener,0.013345
degre,0.012485
del,0.003836
deliber,0.006802
delic,0.004993
demand,0.002268
demonstr,0.004568
dens,0.014468
dentari,0.032052
dentarysquamos,0.008275
dentin,0.007501
dentit,0.006376
depend,0.013413
depict,0.003169
deplet,0.011896
deriv,0.005796
dermi,0.019628
dermoptera,0.007809
descend,0.009226
descent,0.003645
descript,0.002322
desert,0.003613
desmodu,0.008275
despit,0.002154
despot,0.005100
destruct,0.009022
detect,0.008371
determin,0.005293
develop,0.017791
dialect,0.003738
diamet,0.008303
diamond,0.003857
diaphragm,0.023049
dicrostonyx,0.008275
dicynodont,0.008275
dieoff,0.007809
diet,0.022543
dietari,0.004678
differ,0.025594
dig,0.009479
digest,0.042706
digitigrad,0.014759
dimetrodon,0.008275
dimorph,0.005743
dinosaur,0.035075
direct,0.005062
directli,0.004083
dirt,0.015728
disappear,0.006461
discard,0.004250
discharg,0.004265
display,0.011551
disrupt,0.003274
distinct,0.011742
distinguish,0.009023
distribut,0.004193
diverg,0.013737
divers,0.012219
diversifi,0.003848
divid,0.012089
divis,0.004404
dna,0.009838
document,0.002453
doe,0.001719
dog,0.038039
doi,0.003364
doijournalpbio,0.007009
doijtre,0.007379
doiscienc,0.005466
dolphin,0.019716
dome,0.010145
domest,0.021063
domin,0.018819
donkey,0.005242
donna,0.005586
dorsal,0.005265
douadi,0.008275
drag,0.017596
drer,0.006142
dri,0.006656
driven,0.008874
driver,0.003894
drop,0.005578
drought,0.004148
dugong,0.008013
dull,0.005100
dure,0.017552
dwarf,0.004615
e,0.002059
eagl,0.004839
ear,0.020299
eardrum,0.006691
earli,0.027542
earlier,0.006781
earliest,0.028128
earth,0.004803
easi,0.003106
easier,0.003275
easili,0.005241
eat,0.046410
echidna,0.032279
echoloc,0.024454
ecolog,0.025946
econom,0.001674
economi,0.002089
ecosystem,0.003469
ectotherm,0.006746
ed,0.006424
eduardo,0.005276
edwin,0.004036
effect,0.002972
effici,0.002395
effort,0.002118
egg,0.022203
egglay,0.012830
eizirik,0.008275
elabor,0.003183
elbow,0.011524
electr,0.002529
element,0.001945
eleph,0.046551
elicit,0.004566
elong,0.009479
elsewher,0.003153
embryo,0.008478
embryon,0.004672
emma,0.010530
employ,0.002029
empti,0.007294
enabl,0.004852
enamel,0.012170
encephalis,0.007809
enchantedlearningcom,0.008275
enclos,0.004155
encount,0.003013
encyclopedia,0.002634
end,0.010035
endang,0.008500
endotherm,0.016663
endothermi,0.028038
energi,0.017133
enlarg,0.003907
enorm,0.003294
ensur,0.002513
entangl,0.004708
enter,0.004473
entireti,0.008746
environ,0.008111
environment,0.002459
enzym,0.003719
eocen,0.005822
eomaia,0.016551
eparctocyona,0.008275
epidermi,0.017406
epipub,0.037509
epither,0.008275
epitheria,0.016551
epoch,0.008738
equal,0.002083
equip,0.002735
equival,0.002464
era,0.007251
erect,0.008297
erminea,0.007642
errat,0.005148
erythrotherium,0.008275
escap,0.003071
especi,0.015987
essenti,0.008506
establish,0.001632
estim,0.006458
estrou,0.006691
et,0.002629
euarchonta,0.008275
euarchontoglir,0.008275
eulipotyphla,0.008013
eupelycosaur,0.016551
eurasia,0.004457
eurasian,0.004690
eureka,0.012116
europaea,0.006589
european,0.001905
europeanmammalsorg,0.008275
eusoci,0.025505
eutheria,0.024827
eutherian,0.034028
eutriconodont,0.016551
eutriconodonta,0.008275
event,0.007963
evento,0.027745
evid,0.010430
evolut,0.022354
evolutionari,0.006028
evolv,0.010044
exafroplacentalia,0.008275
examin,0.002394
exampl,0.028772
excav,0.004112
exchang,0.002162
exclud,0.008633
exclus,0.005226
excret,0.004937
excretori,0.006303
exemplifi,0.003897
exercis,0.002628
exert,0.003510
exhal,0.011375
exhaust,0.003577
exhibit,0.008663
exist,0.007606
expand,0.006492
expans,0.002581
expect,0.002101
expel,0.003688
expens,0.002732
experi,0.007525
experiment,0.002555
explan,0.002692
expon,0.004339
exponenti,0.007365
extant,0.008095
extend,0.008071
extent,0.002517
extern,0.003588
extinct,0.111291
extirp,0.006455
extrem,0.004388
eye,0.015291
f,0.011267
facial,0.004545
facilit,0.002758
fact,0.003884
factor,0.003879
failur,0.002661
fall,0.002088
fals,0.003102
famili,0.010591
far,0.004148
farm,0.006104
farmer,0.003238
fast,0.003131
faster,0.006382
fastest,0.004319
fat,0.004189
fate,0.003862
fattail,0.007009
favor,0.002526
feather,0.004771
featur,0.024827
fece,0.011204
feed,0.028095
feet,0.007471
femal,0.046072
fenestra,0.006936
fera,0.013737
ferment,0.008982
fern,0.005168
ferungulata,0.008275
fetu,0.014981
fiber,0.003973
field,0.003341
fiercest,0.006936
film,0.006205
filter,0.003813
fin,0.014628
finder,0.005909
fingertip,0.018806
firm,0.002732
fish,0.008562
fission,0.004643
fissionfus,0.019917
fit,0.008355
fiveyear,0.003725
flag,0.003653
flap,0.005705
flat,0.003498
flatten,0.004929
flexibl,0.003386
fli,0.020488
flight,0.003351
flipper,0.024454
flock,0.005054
flora,0.004135
florida,0.004015
flow,0.014454
fluid,0.003224
fluke,0.005980
focus,0.002129
fold,0.015599
foliag,0.012678
folivori,0.008275
follow,0.001308
food,0.032961
foot,0.007108
forag,0.023244
foramina,0.022928
forc,0.013117
foreaft,0.008275
foreflipp,0.023427
forelimb,0.018517
forest,0.003146
forev,0.004360
form,0.011253
fort,0.004033
forward,0.011615
fossil,0.039002
fossori,0.046855
foulsmel,0.006936
fourleg,0.007009
fox,0.004213
fractur,0.004615
frequenc,0.003126
frequent,0.004599
fresh,0.003674
friction,0.016121
frugivor,0.007501
frugivori,0.007272
fruit,0.009725
ft,0.003575
fulli,0.012331
function,0.013398
fund,0.002255
fundament,0.002094
fungi,0.003960
fungu,0.005347
fur,0.072329
furthermor,0.002803
fuscata,0.008275
fusiform,0.007272
fusion,0.003813
futur,0.001992
g,0.004426
ga,0.002752
gait,0.078076
gallop,0.005909
game,0.005614
gap,0.003184
gather,0.008555
gaylord,0.012344
gazel,0.006113
gear,0.004151
gene,0.019044
genealog,0.004412
gener,0.012930
genera,0.019331
genet,0.030564
genit,0.005158
gennadi,0.007176
genu,0.012396
georg,0.007073
gestat,0.020927
giant,0.003577
gibbon,0.005028
giraff,0.022750
given,0.003281
gland,0.027624
glide,0.011109
glider,0.006691
glire,0.008013
global,0.006517
gnathostom,0.008275
gnaw,0.014178
goat,0.008607
golden,0.009944
gone,0.003630
good,0.001818
gopher,0.007009
government,0.003423
gradient,0.003892
gradual,0.007889
gram,0.004571
grandord,0.057931
granivori,0.008275
grasp,0.008162
grass,0.008244
graviport,0.008275
graviti,0.010699
gray,0.008162
graze,0.004593
great,0.005531
greater,0.010302
greek,0.002316
green,0.005626
grind,0.014882
grip,0.019685
groenlandicu,0.008275
ground,0.009521
group,0.061976
groupwid,0.007809
grow,0.004195
grown,0.003150
guard,0.013676
gum,0.005323
gummivori,0.008275
gut,0.004690
ha,0.030542
habitat,0.034338
hadrocodium,0.008275
hair,0.062318
hairbal,0.007809
hairless,0.006691
hammerhead,0.007009
hand,0.006080
hang,0.004381
happen,0.002585
haramiyida,0.008275
harbor,0.004093
hard,0.002684
hare,0.010004
harem,0.030158
harlow,0.005335
harri,0.003440
head,0.002111
heal,0.004010
hear,0.003449
heard,0.003889
heart,0.021018
heat,0.023076
heatgener,0.007501
heatlos,0.008275
heck,0.006203
hedgehog,0.012011
help,0.010745
hemoglobin,0.005109
henc,0.002552
henl,0.006542
herbivor,0.072706
herbivori,0.006142
herd,0.004364
heteros,0.008275
heterozyg,0.005865
heterozygos,0.006936
hibern,0.017595
hide,0.003872
hierarch,0.003752
hierarchi,0.010000
high,0.009938
highcrown,0.008275
higher,0.007779
highest,0.002505
highli,0.004307
hind,0.005221
hindflipp,0.015618
hindlimb,0.006936
hippo,0.004985
hippopotamus,0.007642
hiss,0.006235
histor,0.001837
histori,0.006812
hold,0.001970
hole,0.007446
holotheria,0.008275
homogen,0.003684
honestli,0.005822
honey,0.004937
honeycomb,0.006339
hook,0.004399
hop,0.005210
hopkin,0.004030
hormon,0.004239
hors,0.024736
host,0.002991
hot,0.003602
hour,0.002874
hous,0.004388
howev,0.021242
huge,0.003042
human,0.042553
humpback,0.006589
hundr,0.002485
hunt,0.026412
huntergather,0.004566
hybrid,0.061518
hyena,0.017345
hypercarnivor,0.007501
hypercarnivori,0.008275
hypocarnivor,0.008013
hypocarnivori,0.008275
hypodermi,0.022928
hypogloss,0.007009
hypothes,0.006505
hypothesi,0.002849
hypsignathu,0.008275
hyracoidea,0.008275
hyrax,0.015285
ident,0.002342
identifi,0.007910
ii,0.002140
iii,0.003128
imag,0.002518
impact,0.002241
impli,0.002543
import,0.011161
imprint,0.004745
inactiv,0.005494
inaud,0.007809
incerta,0.007009
inch,0.008815
incisor,0.012752
includ,0.048830
incomplet,0.003564
increas,0.020450
incu,0.015003
independ,0.001680
index,0.002598
indic,0.020124
indigest,0.006376
individu,0.026997
infant,0.003930
influenc,0.010810
influenti,0.002630
inform,0.004879
infraclass,0.044279
infrason,0.007176
infrasound,0.006746
ingest,0.009651
inhabit,0.002843
inherit,0.006066
initi,0.005332
insect,0.018585
insectivor,0.031343
insectivora,0.016551
insectivoran,0.008275
instanc,0.002215
instead,0.001916
insul,0.026719
intact,0.004192
integumentari,0.007009
intellig,0.022972
interact,0.006123
interbre,0.006235
interbreed,0.005762
interfer,0.003339
intergener,0.005980
intern,0.005734
interpret,0.002182
interspecif,0.005887
interven,0.003515
intestin,0.014143
intraspecif,0.012063
introduct,0.002168
introgress,0.006691
invertebr,0.004344
invest,0.002329
involv,0.003171
inward,0.004666
irrelev,0.004062
isbn,0.007735
isol,0.002655
iter,0.004093
iucn,0.021440
ivori,0.004443
j,0.012326
jaffa,0.007009
jame,0.002307
jan,0.003595
japanes,0.003117
jare,0.005189
jaw,0.072922
john,0.001860
join,0.002433
joint,0.020163
jong,0.012227
jordan,0.004122
juergen,0.013382
juramaia,0.008275
jurass,0.050568
just,0.005722
k,0.004960
kangaroo,0.011819
kemp,0.022344
kept,0.002947
khalafvon,0.008275
kidney,0.013430
kiefmann,0.008275
killer,0.009858
kilogram,0.004620
km,0.003078
knob,0.012911
knockout,0.005360
known,0.020501
knuckl,0.007809
knucklewalk,0.008275
krieg,0.006746
kselector,0.016551
kuehneotheria,0.008275
labor,0.005371
lack,0.004170
lactat,0.010695
lagomorph,0.007272
lagomorpha,0.008013
lagopu,0.008013
laminar,0.006339
land,0.012419
landform,0.005054
landseer,0.008275
larg,0.028827
larger,0.015111
larges,0.006639
largest,0.013553
larnyx,0.008275
laryng,0.014352
larynx,0.049884
lascaux,0.006498
late,0.015148
later,0.006506
latin,0.005141
laurasiatheria,0.016026
lax,0.005276
lay,0.012310
layer,0.015741
lb,0.004714
lead,0.004895
leaf,0.004434
lean,0.004467
leap,0.004352
learn,0.009189
learnanimalscom,0.008275
leather,0.009356
leatheri,0.007176
led,0.001765
left,0.008720
leg,0.024359
lek,0.013611
lem,0.006235
lemur,0.032714
length,0.021707
leptictida,0.008275
lepu,0.006936
level,0.011447
levelssubclass,0.008275
liaon,0.007009
librari,0.002569
lick,0.005781
life,0.005274
lift,0.010953
light,0.002254
like,0.016068
likewis,0.003239
limb,0.042805
line,0.003914
lineag,0.028335
lineageseuarchontoglir,0.008275
linear,0.002909
link,0.001189
linnaeu,0.009624
lion,0.017031
lipid,0.008615
lipotyphla,0.008275
liquid,0.002931
list,0.001520
literatur,0.007330
littl,0.006279
live,0.037134
livebear,0.020417
liver,0.008584
livestock,0.003860
lizard,0.014787
local,0.001852
locat,0.004021
locomot,0.023244
locomotor,0.007176
london,0.002302
long,0.008878
lookalik,0.007089
loop,0.003766
loosen,0.010277
lose,0.002876
loss,0.004783
lost,0.011882
loud,0.004921
low,0.004191
lowcrown,0.016551
lower,0.024249
lowest,0.003252
lowpitch,0.014544
loxodonta,0.007642
lump,0.004847
lung,0.051320
m,0.005867
ma,0.003454
macaca,0.008013
macaqu,0.012471
macdonald,0.004985
machairodontina,0.008275
machineri,0.003372
macroscelidea,0.007809
madsen,0.013382
magnaord,0.008275
magnord,0.033103
main,0.010387
mainli,0.009081
maintain,0.003813
major,0.017410
make,0.009734
malcolm,0.009428
male,0.055213
malleu,0.013179
mamma,0.015618
mammal,0.692413
mammalia,0.065450
mammaliaform,0.016551
mammalian,0.075704
mammaliform,0.016026
mammallik,0.014019
mammalog,0.006203
mammalogica,0.008275
mammalogist,0.006589
mammalogyorg,0.008275
mammalsafrotheria,0.008275
mammari,0.030427
mammoth,0.011339
manate,0.018806
mane,0.006085
maneuv,0.004690
mani,0.028429
manipul,0.005856
manner,0.002639
map,0.002501
marin,0.012522
mark,0.008782
marmoset,0.007089
marsupi,0.086729
marsupialia,0.007642
marsupialsappear,0.008275
marsupium,0.007501
martin,0.002894
mass,0.015698
match,0.002908
mate,0.040999
materi,0.011498
matern,0.004369
matter,0.002057
matur,0.003182
maxilla,0.006936
mckenna,0.025505
mckennabel,0.016551
mean,0.003012
meant,0.005609
measur,0.003582
meat,0.041743
mechan,0.002019
mechanis,0.005909
medicin,0.002607
mediu,0.008013
medium,0.006235
medulla,0.006235
meet,0.004425
megaconu,0.008275
megafaun,0.007089
megafauna,0.005887
megazostrodon,0.008275
melon,0.006268
member,0.006979
membership,0.003012
membran,0.015490
mental,0.002959
meridiungulata,0.008013
merkel,0.006113
mesocarnivori,0.008275
mesozo,0.017467
metabol,0.018122
metacognit,0.006303
metatheria,0.015618
metatherian,0.022928
meter,0.003680
method,0.003387
mice,0.013345
michael,0.005033
microb,0.004648
microbat,0.008275
midbrain,0.006868
middl,0.015783
midjurass,0.015618
midth,0.003374
mile,0.003178
milk,0.020195
millennia,0.003984
million,0.045107
millionyearold,0.006691
miner,0.006055
miocen,0.005909
mirord,0.024827
mirror,0.011077
mistaken,0.004515
mitochondri,0.004883
mix,0.002630
mm,0.004001
mmeli,0.008275
mobil,0.002904
model,0.001703
modern,0.022964
modif,0.006500
modifi,0.002668
moist,0.005072
molar,0.004913
mole,0.039309
molecul,0.002952
molecular,0.020008
molerat,0.020240
moment,0.012444
monito,0.007809
monkey,0.053835
monogam,0.011961
monotrem,0.106568
monotremata,0.008275
monstrosu,0.008013
mont,0.004099
month,0.002416
morpholog,0.011239
mortal,0.003655
moss,0.004876
mostli,0.006999
mother,0.009454
mothertopup,0.008275
motion,0.002759
motor,0.007053
mountain,0.002942
mous,0.008982
mouth,0.011632
movement,0.016971
multichamb,0.015618
multilob,0.007642
multipl,0.008413
multitubercul,0.024827
murid,0.007379
murphi,0.004883
muscl,0.018963
musculatur,0.006691
museum,0.006595
musk,0.005980
mustela,0.007272
mycophagi,0.008275
mytholog,0.007649
nake,0.008729
narrow,0.003088
nasal,0.016234
natur,0.010219
near,0.006745
nearli,0.009527
necessari,0.004358
necessarili,0.002676
neck,0.013458
nectar,0.005956
nectarivori,0.008275
need,0.006575
neglig,0.004069
nemestrina,0.008275
neocortex,0.011913
neogen,0.006142
neolith,0.008150
neotrop,0.006058
nerv,0.029447
nest,0.004235
network,0.004572
neuron,0.003995
new,0.013436
newborn,0.014415
nich,0.028970
nichola,0.003678
night,0.003354
nippl,0.006058
noaagov,0.008275
nocturn,0.017595
nonavian,0.012116
nongovernment,0.004373
nonhuman,0.008392
nonmammaliaform,0.008275
nonmammalian,0.043633
nonplacent,0.032052
nonresid,0.005347
nonsprawl,0.008275
nontherian,0.008275
normal,0.002179
norman,0.003853
norri,0.005865
northeastern,0.004224
nose,0.009175
notabl,0.010491
note,0.003153
nourish,0.005019
nowak,0.006589
nuclear,0.002794
nucleu,0.003622
number,0.006840
nurs,0.003979
nutrient,0.023279
nutrit,0.007856
nutriti,0.005887
object,0.001869
oblig,0.003019
obrien,0.005466
obscur,0.003788
obsolet,0.004265
obtain,0.004251
occasion,0.009254
occipit,0.006691
occlus,0.006498
occupi,0.005483
occur,0.008687
occurr,0.003537
ocean,0.005628
oclc,0.015754
oddto,0.014759
offici,0.002076
offspr,0.008206
oldest,0.002958
ole,0.017009
oliv,0.003877
omasum,0.007809
omnipres,0.005360
omnivor,0.024126
onc,0.004086
onli,0.017623
onward,0.003466
open,0.005616
oper,0.001725
opossum,0.007272
oppos,0.006855
opposit,0.002250
oral,0.010601
orangutan,0.012344
order,0.058772
organ,0.007458
orific,0.006203
origin,0.019701
otherwis,0.005202
otter,0.016527
ounc,0.016663
outcom,0.005591
outcompetit,0.007501
outdat,0.004854
outermost,0.009556
outlet,0.004369
outwit,0.006639
overal,0.002502
overhunt,0.012678
overlap,0.003039
overview,0.002740
ox,0.005724
oxygen,0.003329
oxygenrich,0.006415
pack,0.003990
pad,0.010219
paddlelik,0.007642
paenungulata,0.008013
paint,0.003473
pair,0.002914
palaeolith,0.005865
palaestina,0.007176
palat,0.005411
paleocen,0.025505
paleocenemammalsd,0.008275
paleogen,0.006303
paleogeograph,0.006746
paleolith,0.004525
paleontolog,0.004505
paleontologist,0.005480
palestin,0.004311
palestinian,0.004726
palm,0.004261
pangolin,0.021816
panther,0.005909
pap,0.005887
paper,0.002256
paraphylet,0.006339
parasagitt,0.008275
parent,0.012318
partak,0.005385
partial,0.002515
particip,0.002157
particular,0.008558
partli,0.002940
partner,0.002989
pass,0.010622
passag,0.003257
passiv,0.007536
past,0.002169
patch,0.008934
pattern,0.004666
paw,0.017117
pdf,0.003165
peccari,0.007089
peck,0.011271
peg,0.004684
pegasofera,0.008013
pelag,0.012116
pelvi,0.011774
pelvic,0.005539
pelycosaur,0.033103
penguin,0.004112
penil,0.006376
pennsylvanian,0.015285
peopl,0.001507
percentag,0.003047
perfectli,0.003799
perform,0.001922
perhap,0.002542
periaqueduct,0.007272
period,0.017873
perissodactyl,0.016026
perissodactyla,0.007809
perman,0.005300
permian,0.031343
permiantriass,0.006005
permit,0.002785
perspect,0.002447
pet,0.004335
phenotyp,0.004213
pholidota,0.007809
phonat,0.014544
phylogenet,0.012971
physic,0.001789
physiolog,0.016105
piec,0.003019
pig,0.008156
pigmentless,0.008275
pigtail,0.007809
pika,0.007642
pili,0.006268
pilosa,0.007809
pinnip,0.018427
pitch,0.014016
place,0.004639
placent,0.164222
placenta,0.016758
placentalia,0.008013
planet,0.006205
plant,0.030864
plantigrad,0.007809
platypu,0.025505
platypus,0.022928
play,0.007897
plenti,0.008599
plesiomorph,0.007089
plo,0.005179
pmc,0.005063
pmid,0.012641
poach,0.016957
pocket,0.004369
poikilotherm,0.006746
point,0.007931
polar,0.003350
pollut,0.011035
polyandr,0.007642
polyandri,0.007272
polygami,0.005865
polygyn,0.014019
polygynandri,0.008013
polygyni,0.006805
polyphag,0.007642
pool,0.010742
popul,0.013619
popular,0.005869
porcupin,0.021267
porpois,0.006142
portion,0.002747
portrait,0.004434
posit,0.001620
possess,0.017201
possibl,0.011195
possum,0.006868
posterior,0.004944
postur,0.014355
pouchlik,0.008013
power,0.006418
prairi,0.005424
pre,0.004556
preced,0.002970
precursor,0.003416
predat,0.027848
predecessor,0.003419
predict,0.002294
prefer,0.007203
pregnanc,0.009112
prehensil,0.007642
prehistor,0.007580
premaxilla,0.008013
preptotheria,0.008275
presenc,0.009485
presenceabs,0.007501
present,0.006271
presoci,0.024827
press,0.003691
pressur,0.009441
prevent,0.013451
previous,0.007171
prey,0.025637
prick,0.006868
primari,0.006209
primarili,0.010717
primat,0.075626
primit,0.006939
principl,0.003764
prism,0.005276
prismat,0.006376
privat,0.002248
probabl,0.006750
probainognathian,0.008275
proboscidea,0.008013
process,0.013341
prodigi,0.005602
produc,0.011421
product,0.014709
progress,0.006411
project,0.003880
prolong,0.007975
promot,0.002236
prompt,0.003432
propel,0.008789
propos,0.001934
protect,0.004179
protein,0.003185
protomamm,0.008275
prototheria,0.016551
protozoa,0.005242
protungulatum,0.008275
provid,0.020869
provinc,0.002898
pterosaur,0.007642
publish,0.001740
pulmonari,0.010442
puls,0.004178
pump,0.003943
pur,0.006589
purebr,0.013085
purpos,0.010198
push,0.008946
puzzl,0.004175
pyramid,0.004213
python,0.004937
quadrat,0.009102
quadrup,0.018427
qualifi,0.003297
quaternari,0.004952
quicker,0.005063
quickli,0.010209
quiet,0.004593
quotient,0.005081
r,0.002098
rabbit,0.014562
race,0.006161
radiat,0.009421
radic,0.002874
rainforest,0.004702
rais,0.006938
rang,0.013176
rank,0.010590
rare,0.007742
rarer,0.005323
rat,0.016647
rate,0.007773
ratio,0.005656
reach,0.008084
reaction,0.002550
read,0.001727
reader,0.003391
rear,0.004448
rearward,0.007809
reason,0.005354
recalibr,0.012752
receiv,0.005700
recent,0.008610
receptor,0.004235
reclassifi,0.005635
recogn,0.002132
record,0.002096
recurr,0.004272
red,0.008269
reduc,0.011304
refer,0.003977
reflect,0.010686
regard,0.003816
region,0.012466
regrow,0.006172
regul,0.002354
regular,0.002724
regurgit,0.011645
rel,0.017831
relat,0.009386
relationship,0.009491
relax,0.011404
reli,0.004792
religion,0.005065
remain,0.006579
renal,0.010932
renicul,0.008013
reorient,0.005199
replac,0.014186
repres,0.003262
reproduc,0.006748
reproduct,0.016891
reptil,0.048106
reptilesbefor,0.008275
reptilian,0.006498
reptiliomorph,0.008275
requir,0.014090
research,0.003226
resembl,0.009411
resid,0.002634
resolut,0.003042
resourc,0.004026
respect,0.003782
respiratori,0.009011
respons,0.001724
rest,0.002330
restructur,0.007856
result,0.013853
retain,0.007846
reticulum,0.016356
retropos,0.008275
retrotransposon,0.007089
return,0.004025
reveal,0.005231
revers,0.002737
revis,0.002971
revolut,0.002463
rhesu,0.005980
rhinocero,0.005743
rhinoceros,0.006746
rib,0.005385
right,0.007138
rio,0.004545
rip,0.005311
rise,0.008005
risk,0.002447
ritual,0.007417
river,0.002719
roar,0.017406
rock,0.006228
rodent,0.030327
rodentia,0.016026
rodlik,0.007009
role,0.010453
ronald,0.003552
rotat,0.003292
rotundu,0.008275
rough,0.007887
roughli,0.002789
row,0.007691
rselector,0.008275
rule,0.001815
rumbl,0.012227
rumen,0.026765
rumin,0.010904
run,0.006556
rural,0.003216
ryan,0.005091
ryder,0.005980
s,0.005642
sabershap,0.008275
sac,0.010463
saccul,0.007501
safeti,0.003205
sahara,0.004615
saliva,0.005687
sasha,0.007379
satisfi,0.002950
saunder,0.004832
sauropsid,0.015003
sauropsida,0.007809
scale,0.002250
scali,0.007501
scalli,0.008275
scandentia,0.007809
scentmark,0.015285
scheme,0.005986
schmitz,0.007009
scienc,0.005017
scientif,0.002001
scientist,0.004548
scream,0.011305
sea,0.007612
seal,0.018647
season,0.006427
secondari,0.002832
secondarili,0.005570
secret,0.003068
section,0.002464
sedi,0.007089
seed,0.007057
seek,0.002231
seemingli,0.003902
seen,0.009756
select,0.015138
selfawar,0.014375
selfrecognit,0.007176
semiaquat,0.030007
semierect,0.008275
semifossori,0.016551
semisprawl,0.016551
sens,0.004092
sensit,0.006406
sensori,0.007710
separ,0.005450
sequenc,0.005521
seri,0.001981
serv,0.005939
set,0.003081
seta,0.006542
seven,0.002609
sever,0.012986
sex,0.020660
sexual,0.013071
shade,0.004530
shale,0.005480
shape,0.004740
share,0.007751
sharp,0.003361
shed,0.004239
sheep,0.012021
sheet,0.003596
shell,0.003347
shoe,0.004593
short,0.012722
shorter,0.003540
shoulder,0.009286
shrew,0.048047
shrewlik,0.008275
siberian,0.005287
sideway,0.006203
sign,0.002278
signal,0.020030
signatori,0.004785
signific,0.005300
silicarich,0.007809
silki,0.007379
similar,0.008263
similarli,0.002622
simpl,0.006597
simpson,0.023187
sinc,0.016608
sinensi,0.006746
sing,0.004582
singl,0.003704
sink,0.004122
sinoconodon,0.008275
sinodelphi,0.015618
sirenia,0.007642
sirenian,0.013872
site,0.002331
situat,0.002131
size,0.032331
skelet,0.009694
skin,0.028082
skull,0.017685
skunk,0.006235
slash,0.005287
slip,0.004571
sloth,0.036681
slow,0.011430
slower,0.007952
slowest,0.011339
small,0.032179
smaller,0.011767
smash,0.005570
smooth,0.003670
snake,0.004394
snort,0.007272
snowsho,0.006639
social,0.019368
societa,0.005956
societi,0.013872
soft,0.017668
solar,0.009904
sole,0.008428
solenodon,0.015618
solid,0.008923
solitari,0.015245
solv,0.002547
sometim,0.007207
song,0.003670
soon,0.002538
soricomorpha,0.016551
sound,0.040798
sourc,0.006963
south,0.006502
southeast,0.010165
southern,0.002568
space,0.008535
spalacotheriid,0.008275
spearnos,0.008275
speci,0.142549
special,0.006924
speciesrich,0.018806
specif,0.003312
speed,0.016982
spend,0.002873
sperm,0.004566
sphenacodont,0.008275
sphenacodontia,0.008275
spider,0.014628
spinal,0.004825
spine,0.004684
split,0.002844
splitoff,0.006639
spongi,0.007176
sport,0.009861
spot,0.003465
spp,0.005570
sprawl,0.016710
springer,0.006700
squamos,0.016551
squeez,0.009858
squirrel,0.017406
stabil,0.007743
stabl,0.005447
stage,0.007251
stamina,0.006639
standpoint,0.008815
stanhop,0.015003
stape,0.007009
stash,0.006868
stay,0.012118
steer,0.004571
stem,0.003111
step,0.002346
stephen,0.003074
stiff,0.004684
stiffen,0.005909
stimul,0.003097
stoat,0.007272
stomach,0.023187
store,0.008412
stot,0.007379
stout,0.006172
streamlin,0.010337
strength,0.005614
strict,0.003216
stride,0.015136
stroke,0.008842
strong,0.004022
strongli,0.002667
structur,0.009702
stubb,0.006691
studi,0.010239
subarct,0.006376
subclass,0.020290
subgroup,0.004356
subject,0.001760
submiss,0.008763
subperiod,0.013493
subsequ,0.002159
subspeci,0.004977
substanc,0.002909
substrat,0.004203
subterranean,0.005724
subtyp,0.005072
success,0.003671
suck,0.005265
suffici,0.002558
sugar,0.003372
suggest,0.017439
summer,0.006404
sunris,0.005618
sunset,0.005242
supercohort,0.008275
superfici,0.004364
superior,0.003080
superlegion,0.008275
superord,0.045011
suppli,0.009025
support,0.003291
suppress,0.003169
supralaryng,0.008275
supraprim,0.008275
surfac,0.012530
surround,0.002534
surviv,0.007161
susan,0.008463
suspens,0.004299
sustain,0.002707
swallow,0.009428
swamp,0.010109
sweat,0.005010
swim,0.013487
swimmer,0.005705
swing,0.004566
symbiot,0.004798
synapomorphi,0.007009
synapsid,0.060720
synapsida,0.016026
synapsidssometim,0.008275
synonym,0.003454
systemat,0.007933
t,0.002408
taher,0.007089
tail,0.024043
taken,0.004053
talpa,0.008275
tamarin,0.007642
taper,0.005570
tapir,0.006746
target,0.002577
tarver,0.007809
task,0.005135
taught,0.003085
taxa,0.009556
teach,0.002711
tear,0.004439
teat,0.006746
teel,0.008275
teeth,0.039208
teinolopho,0.008275
temperatur,0.025182
tempor,0.003647
tend,0.004545
tenrec,0.022928
tens,0.004890
tension,0.003143
termit,0.015663
terrain,0.004125
terrestri,0.026377
terri,0.004678
territori,0.009690
test,0.009050
tetrapod,0.023826
texa,0.003907
th,0.001587
themselv,0.012318
theoret,0.002269
therapsid,0.072723
therapsida,0.008275
therefor,0.005643
theria,0.022139
therian,0.062474
theriiform,0.016551
thermoregul,0.012116
thi,0.039339
thicker,0.005276
thickest,0.014178
thing,0.002202
think,0.004800
thinner,0.005347
thorac,0.005570
thorax,0.012170
thought,0.001961
threat,0.002903
threaten,0.012588
threeto,0.008013
thrinaxodon,0.016551
throw,0.004250
thrust,0.004868
thu,0.006471
tiger,0.013946
tight,0.004224
tikitherium,0.008275
time,0.012246
timothi,0.004421
tini,0.007467
tip,0.011580
tissu,0.020067
today,0.003976
toe,0.010358
togeth,0.005725
toler,0.007004
tongu,0.004626
took,0.002162
tool,0.015513
tooth,0.035319
topmost,0.005956
torso,0.005932
touchsensit,0.008013
tough,0.009219
trace,0.005307
trachea,0.012471
track,0.003062
tract,0.023679
trade,0.002002
tradit,0.005228
trait,0.009838
transit,0.002409
translat,0.002382
transport,0.011863
transvers,0.004798
trap,0.003626
travel,0.002443
traversodontid,0.008275
tree,0.017106
treeshrew,0.015285
trend,0.007931
tri,0.002178
triangular,0.004798
triassic,0.041866
tritylodontida,0.008275
tropic,0.010596
trot,0.006376
trucidocynodon,0.008275
true,0.006723
truli,0.006936
trumpet,0.005956
trunk,0.004960
tubulidentata,0.015618
tuft,0.005411
tupinambi,0.008275
turn,0.007653
turtl,0.009583
twig,0.006113
twist,0.004540
twoto,0.008275
type,0.016640
typic,0.005570
ukhaatherium,0.008275
ultrasound,0.015110
unabl,0.002876
uncalcifi,0.008013
uncertain,0.003658
uncontrol,0.004812
underfur,0.014759
undergo,0.003209
underground,0.003836
underpin,0.004036
undersid,0.005762
underw,0.004015
undevelop,0.005081
undisput,0.005210
ungul,0.053395
ungulata,0.008275
unguligrad,0.008275
union,0.002056
uniqu,0.007080
unit,0.001396
univers,0.005734
unknown,0.002865
unlik,0.002304
unsuit,0.004921
unusu,0.003355
updat,0.003352
upholsteri,0.007642
upper,0.013975
upsidedown,0.006172
upstrok,0.007089
uptak,0.005072
upward,0.019265
urea,0.009987
ureotel,0.008013
urethra,0.013085
urin,0.009241
ursula,0.005705
usag,0.002903
use,0.046368
useless,0.004535
usual,0.009993
uterin,0.005887
v,0.002467
vagina,0.005635
vagu,0.008187
valid,0.002643
valu,0.003547
valv,0.004733
vampir,0.005323
vari,0.016323
variabl,0.002530
varieti,0.016625
variou,0.007878
vast,0.002779
vaughan,0.005781
vector,0.006694
vehicl,0.003142
vein,0.004122
velli,0.008275
veloc,0.003639
ventricl,0.022475
ventricular,0.006203
veri,0.014225
vertebr,0.020563
vertebra,0.017172
vertebratesth,0.008275
vertic,0.003580
vervet,0.006639
vessel,0.010109
vestibul,0.006805
vestigi,0.005956
vibrissa,0.022139
video,0.003046
view,0.001773
villag,0.003162
violet,0.005781
visibl,0.003059
vision,0.002997
visual,0.005840
vivipar,0.018256
vocal,0.077827
voic,0.003298
vole,0.007089
volum,0.014225
w,0.006967
wa,0.014753
wake,0.003692
walk,0.031819
walker,0.004360
wall,0.005861
ward,0.004235
warm,0.003537
warmblood,0.006142
warmer,0.004739
warn,0.006656
wast,0.003320
watch,0.003528
water,0.014945
waterproof,0.012011
way,0.005919
wear,0.003750
weasel,0.006498
weather,0.003394
web,0.003000
websit,0.002617
weigh,0.011699
weight,0.008369
welldefin,0.004125
went,0.002538
whale,0.081923
wheel,0.004168
wherea,0.007205
whine,0.006868
whisker,0.028356
white,0.005255
whitetail,0.006639
wide,0.007130
wider,0.003151
wild,0.017754
wildlif,0.015775
wildtyp,0.018094
wilfri,0.012996
william,0.002217
wilson,0.003457
wing,0.033913
winglik,0.007379
winter,0.006859
wm,0.005411
wolf,0.004239
wolv,0.010876
wool,0.013591
woolli,0.006376
word,0.001921
work,0.006784
world,0.015435
worldan,0.008275
worldwid,0.002807
worth,0.003133
wrap,0.004637
xenarthra,0.031237
xenarthran,0.016551
year,0.029333
yinotheria,0.008275
york,0.004263
young,0.038549
zebra,0.005570
zone,0.002860
zooamata,0.008275
zoopharmacognosi,0.008275
