ab,0.015206
abil,0.008351
abov,0.007770
absenc,0.005579
academ,0.013636
accept,0.003810
access,0.004199
accid,0.007316
achiev,0.003817
acryl,0.011635
acrylonitril,0.013015
ad,0.019364
adapt,0.004832
addisonwesley,0.008617
addit,0.012280
advanc,0.018741
aerospac,0.008720
affect,0.011897
age,0.019003
agenc,0.004774
agglomer,0.010517
aggreg,0.006417
alcohol,0.013934
allograft,0.012908
allow,0.006035
alloy,0.135118
alter,0.005443
alumina,0.011356
aluminium,0.017007
america,0.004253
american,0.003438
amorph,0.019903
analog,0.005422
analysi,0.014633
analyt,0.011065
ancient,0.004397
andor,0.005310
angstrom,0.012908
ani,0.008023
annual,0.004661
anoth,0.011675
anyth,0.005997
apart,0.005561
appear,0.003515
appli,0.009732
applic,0.068862
approach,0.013970
appropri,0.004864
area,0.009042
aris,0.004950
arrang,0.029685
array,0.006622
arsenid,0.012029
artifici,0.005124
ashbi,0.011686
askeland,0.014472
associ,0.002964
atmospher,0.005945
atom,0.074293
attent,0.004948
augment,0.007814
autoclav,0.013128
autograft,0.013381
automot,0.008701
avail,0.007419
avenu,0.008779
aviat,0.007983
awar,0.005490
b,0.004019
backscatt,0.012029
bag,0.009420
base,0.010577
basi,0.011340
basic,0.003681
bd,0.010491
becaus,0.008263
becom,0.002929
befor,0.006250
began,0.007307
begin,0.003568
behavior,0.030047
benign,0.009857
besid,0.006260
bg,0.010904
bibliographi,0.005321
binder,0.011154
bio,0.019332
bioactiv,0.011007
biolog,0.017359
biomateri,0.112730
biomed,0.008035
blast,0.017914
block,0.005451
boca,0.029914
bodi,0.011016
bond,0.026133
boston,0.006746
boundari,0.005108
branch,0.003891
break,0.005044
breakthrough,0.015617
brittl,0.010072
broaden,0.007803
broadli,0.006125
bronz,0.014729
build,0.011616
built,0.004561
bulk,0.025948
burn,0.006272
butadien,0.036686
butterworthheinemann,0.011116
c,0.010506
cabl,0.007977
calcium,0.008054
callist,0.013128
calorimetri,0.011042
cap,0.007465
carbid,0.057225
carbon,0.089599
carbonbas,0.010269
carboncarbon,0.011537
case,0.015321
cast,0.024901
catalyz,0.008840
catti,0.014472
caus,0.009813
cebon,0.014472
cellphon,0.011490
cement,0.008081
centuri,0.009441
ceram,0.180974
cermet,0.014029
certain,0.013417
chain,0.005475
chalk,0.010839
chamber,0.019510
chang,0.013815
character,0.013945
characterist,0.008448
cheap,0.007593
chemic,0.070001
chemist,0.014087
chemistri,0.059088
chlorid,0.017441
chloropren,0.014472
choic,0.009631
chromatographi,0.010051
chromium,0.010010
circuit,0.020743
circuitri,0.010364
citat,0.007299
clarendon,0.017827
class,0.008130
classifi,0.014873
clay,0.007826
close,0.003279
cloth,0.006407
cm,0.007708
coat,0.007260
cobalt,0.009296
combin,0.003495
come,0.003505
commerci,0.009391
commod,0.017847
common,0.008891
commonli,0.016282
commun,0.006410
compani,0.007740
compar,0.003625
compel,0.007660
complet,0.003385
complex,0.003586
compon,0.021106
compos,0.004650
composit,0.045734
compound,0.016570
compress,0.007567
compris,0.005014
comput,0.020308
concentr,0.004796
concern,0.006882
concret,0.013430
condens,0.049647
conduct,0.008402
conductor,0.008840
consid,0.014293
consist,0.006561
constitu,0.022961
constraint,0.012172
construct,0.007591
consum,0.004880
contain,0.017583
content,0.004836
control,0.003256
conver,0.014029
convert,0.014990
cool,0.006866
copper,0.013614
corn,0.007665
correl,0.005713
corros,0.009750
cost,0.004309
costbenefit,0.010157
coval,0.008701
crc,0.026489
creat,0.008995
creation,0.008923
crucial,0.005967
crystal,0.075645
crystallin,0.072758
crystallograph,0.010807
crystallographi,0.044357
culliti,0.014472
cure,0.007518
curedpyrol,0.014029
current,0.009414
d,0.007936
damag,0.005290
david,0.008708
dc,0.006787
deal,0.019744
decad,0.004455
dedic,0.005888
defect,0.028943
defin,0.020184
degre,0.004014
deliveri,0.007084
demonstr,0.004406
densiti,0.011831
dental,0.009364
depart,0.017191
depend,0.003234
deposit,0.011606
deriv,0.018636
describ,0.015085
descript,0.004480
design,0.021602
desir,0.009227
determin,0.010212
develop,0.019612
devic,0.038349
diagram,0.006743
diamet,0.008009
diamond,0.007442
dictionari,0.005943
differ,0.010394
differenti,0.004963
diffract,0.053355
diffus,0.006696
digit,0.005473
dimens,0.033841
diod,0.020492
directli,0.003938
disciplin,0.009033
discov,0.017267
discoveri,0.004591
discret,0.005781
dispers,0.013455
display,0.005571
dispos,0.014504
distinct,0.003775
divid,0.007774
dj,0.010715
dmoz,0.006492
donald,0.006911
dont,0.006850
dope,0.022085
dover,0.008192
drastic,0.014676
drive,0.005266
driven,0.011413
drug,0.011563
ductil,0.022085
dure,0.002821
dynam,0.004595
earli,0.008855
earth,0.004633
easi,0.005993
eberhart,0.013675
econom,0.003229
ed,0.045446
edg,0.006438
educ,0.003759
edward,0.005368
effect,0.002867
eissu,0.014472
elast,0.007391
electr,0.048798
electrofluoresc,0.014472
electrolyt,0.018841
electromagnet,0.006616
electron,0.054324
electrostat,0.009036
element,0.037534
emerg,0.011347
emphas,0.005179
emphasi,0.010706
employ,0.003914
enabl,0.009360
encompass,0.005525
encount,0.005812
energi,0.008263
energydispers,0.014029
engin,0.148860
enlighten,0.006444
entropi,0.008009
equilibrium,0.018503
equip,0.005276
era,0.004662
error,0.005611
essenti,0.004102
everi,0.003692
everyday,0.006304
evolv,0.014532
evolvedstart,0.014472
examin,0.013857
exampl,0.042290
exhaust,0.006900
exhibit,0.016713
expand,0.004174
experienc,0.005298
explor,0.004496
express,0.003823
extend,0.003892
extens,0.003985
extern,0.002307
extract,0.034085
eye,0.005899
eyeglass,0.011686
f,0.008694
fabric,0.007382
face,0.004429
fail,0.004437
failur,0.005134
fall,0.004028
fiber,0.030662
field,0.061235
fifti,0.007480
filament,0.009192
film,0.011970
final,0.019086
fine,0.006309
fission,0.008957
fl,0.008968
floor,0.007178
foil,0.009699
follow,0.005048
forc,0.003163
forens,0.016906
form,0.038595
formerli,0.005911
foundat,0.004115
foundri,0.011490
franci,0.006043
frequenc,0.006030
friction,0.007774
fulleren,0.022085
function,0.016155
fund,0.004351
fundament,0.020206
furfur,0.027044
furnac,0.019300
fuse,0.007769
fusion,0.007355
futur,0.003843
g,0.012807
ga,0.005309
gaa,0.024319
gagg,0.014236
gallium,0.020585
gaskel,0.013128
gener,0.013605
germanium,0.010656
giacovazzo,0.014472
gibb,0.008892
gilli,0.011967
given,0.006330
gl,0.010491
glass,0.069564
glassblow,0.012621
glazer,0.013522
glide,0.010715
gonzlezvia,0.014472
gordon,0.007360
gorilla,0.010685
govern,0.003000
grain,0.006856
graphen,0.012029
graphit,0.019606
gray,0.007873
great,0.003556
greater,0.007949
greatli,0.010335
green,0.005427
group,0.002846
growth,0.011983
ha,0.021042
hallpetch,0.014472
hannink,0.014472
hard,0.015538
harmoni,0.007360
heart,0.005792
heat,0.022258
hefib,0.014472
help,0.003454
henc,0.019695
high,0.025563
higher,0.011255
highli,0.004154
highlight,0.006497
highlow,0.012908
hip,0.019982
histor,0.003544
histori,0.007885
hl,0.022800
hope,0.005373
hot,0.006949
howev,0.002561
hugh,0.007405
human,0.003040
hybrid,0.006593
hyde,0.010517
hydroxylapatit,0.013843
ic,0.010010
ideal,0.005134
ident,0.004518
implant,0.034186
import,0.045756
imposs,0.005336
impregn,0.032422
improv,0.007766
impur,0.018360
incid,0.006244
includ,0.030669
incorpor,0.004333
increas,0.006069
increasingli,0.004652
increment,0.007971
industri,0.039622
inexpens,0.008573
influenc,0.010427
ingot,0.011079
inher,0.006047
injuri,0.006995
inorgan,0.007378
institut,0.006678
insul,0.034363
integr,0.011424
intellectu,0.005413
intend,0.009770
intens,0.005241
intent,0.005310
interact,0.007874
interconnect,0.007629
interdisciplinari,0.012974
intermedi,0.006202
intern,0.005530
intersect,0.007111
interstiti,0.011356
introduc,0.003701
introduct,0.016734
invest,0.004493
investig,0.008844
involv,0.030593
ion,0.013686
ioniccoval,0.014472
iron,0.039563
ironcarbon,0.013843
isbn,0.070881
issu,0.003386
jame,0.004450
john,0.010768
joint,0.005556
josiah,0.009283
jr,0.006703
k,0.004784
key,0.008031
kinet,0.035714
know,0.004781
knowledg,0.007938
known,0.007910
laboratori,0.010708
lamin,0.022308
larg,0.013902
largest,0.008715
late,0.003652
law,0.009535
layer,0.006073
lead,0.006295
leather,0.009024
led,0.006810
lend,0.006778
length,0.015703
level,0.012619
leverag,0.008142
lewi,0.006622
light,0.004349
lightemit,0.012300
like,0.014090
limit,0.003222
line,0.003776
link,0.006882
liquid,0.005655
list,0.002933
live,0.003411
long,0.006851
longrang,0.009509
loos,0.006558
lot,0.006497
lovesey,0.028944
low,0.008086
lower,0.003898
lowfrict,0.014472
m,0.007546
macro,0.027578
macroscop,0.030231
magnesium,0.027074
magnet,0.055737
magnif,0.011079
maintain,0.003678
major,0.008396
make,0.024144
mancini,0.014029
mani,0.023845
manner,0.005091
manufactur,0.020124
march,0.004374
mark,0.004235
mass,0.004326
massachusett,0.006917
materi,0.669135
mathew,0.010972
matrix,0.006622
matter,0.031746
mdpe,0.014472
mechan,0.031166
media,0.004838
medic,0.009716
medicin,0.005029
mediumdens,0.013843
mention,0.005107
metal,0.104324
metallurgi,0.068726
metamateri,0.012159
meter,0.007100
metersit,0.014472
method,0.049009
metrolog,0.011400
michael,0.004854
microfabr,0.011849
micrometr,0.010938
micronanostructur,0.014472
microscop,0.034052
microscopi,0.016605
microstructur,0.074005
microwav,0.008663
mid,0.005253
millimet,0.010135
millionsof,0.013381
mineola,0.011686
miner,0.005840
mineralog,0.017959
minut,0.006297
mobil,0.011207
modern,0.009493
modifi,0.010295
molecul,0.034178
molecular,0.005514
molybdenum,0.010051
monaco,0.010292
money,0.004714
monocrystallin,0.014029
monograph,0.008235
mostli,0.004501
mv,0.009913
myriad,0.018072
nake,0.008420
nanocryst,0.014029
nanomateri,0.138454
nanomet,0.010269
nanoparticl,0.022546
nanoscal,0.086972
nanostructur,0.058968
nanotechnolog,0.017110
nanotextur,0.014472
nanotub,0.022385
nasa,0.007964
nation,0.002923
natur,0.014081
nd,0.014725
necessari,0.004204
neutron,0.049907
new,0.037703
nickel,0.016922
nitrid,0.012454
nm,0.051385
noncrystallin,0.025072
nonequilibrium,0.010807
normal,0.004204
nose,0.008850
nuclear,0.005390
number,0.010556
numberfrom,0.014472
nylon,0.010839
object,0.014425
observ,0.006963
obtain,0.004100
occur,0.006703
offshoot,0.009378
okeeff,0.013128
old,0.004365
oldest,0.005706
onc,0.003941
onli,0.009713
oper,0.003328
optic,0.038078
optoelectron,0.012159
order,0.002907
organ,0.008632
orient,0.005496
origin,0.005847
outer,0.006740
overlap,0.005863
oxford,0.029740
oxid,0.013998
p,0.008054
packag,0.006687
paradigm,0.012784
particl,0.022682
particular,0.003302
partli,0.005672
pattern,0.009002
pe,0.009435
peculiar,0.008213
peek,0.013250
percentag,0.005878
perfect,0.005894
perform,0.011125
period,0.003134
permit,0.005373
person,0.003451
perspect,0.004720
pharmaceut,0.007186
phase,0.030438
phenol,0.010839
phenomena,0.010073
phenomenolog,0.007977
phone,0.007528
photon,0.007708
phrase,0.006356
phul,0.014472
physic,0.079395
physicist,0.012488
pipe,0.008829
place,0.005966
plastic,0.106387
plasticis,0.014472
play,0.007617
point,0.003060
pointtopoint,0.012375
polariz,0.012228
polycarbon,0.026501
polycrystallin,0.025243
polyest,0.011490
polyethylen,0.044930
polym,0.103060
polymer,0.009449
polypropylen,0.011907
polystyren,0.011849
polyurethan,0.012908
polyvinyl,0.025072
popular,0.003774
portion,0.005301
possess,0.004740
possibl,0.003085
powder,0.017981
power,0.003095
pr,0.008957
pradeep,0.012536
precipit,0.006956
prepar,0.009812
prerequisit,0.008749
presenc,0.004574
present,0.003024
press,0.042724
pressur,0.004553
princeton,0.013357
principl,0.003631
problem,0.003235
process,0.048616
processingstructureproperti,0.014472
produc,0.009442
product,0.028375
program,0.003805
project,0.003743
prolong,0.007692
properti,0.150170
proport,0.010003
protect,0.012095
provid,0.010736
public,0.006093
publish,0.010073
purifi,0.008608
purpos,0.003934
pvc,0.035218
pyrol,0.013843
qualiti,0.004507
quantiti,0.019709
quantum,0.012202
quench,0.010972
r,0.012144
ra,0.008701
race,0.005943
radar,0.008444
radiat,0.006058
radic,0.005545
rail,0.007613
raman,0.010715
rang,0.018156
rate,0.007497
ratio,0.010911
raton,0.030949
raw,0.006258
rawl,0.010340
rayon,0.012093
rcc,0.036686
rd,0.005416
reach,0.003898
reaction,0.004919
reactiv,0.007227
read,0.006664
realli,0.006172
reason,0.003443
receiv,0.003665
recent,0.006644
recogn,0.008227
reduc,0.003634
reentri,0.022308
refer,0.005755
reflect,0.008245
regular,0.010512
reinforc,0.019601
rel,0.010319
relat,0.023281
relationship,0.010986
releas,0.004794
replac,0.007819
requir,0.009060
research,0.043574
resin,0.038732
resist,0.029829
result,0.002672
reus,0.008799
reveal,0.010093
revolutionari,0.006105
reynold,0.009143
rietveld,0.013843
role,0.006721
roll,0.007158
rubber,0.058278
rutherford,0.009420
s,0.013605
sampl,0.005717
sand,0.007921
satellit,0.006693
satur,0.008701
sax,0.012093
sbecaus,0.014472
scale,0.021711
scatter,0.035424
school,0.003903
scienc,0.200058
sciencebas,0.011042
scientif,0.007721
scientist,0.043871
scientistsengin,0.014472
scordari,0.014472
scratch,0.009364
second,0.006297
secondari,0.005463
seen,0.007528
semiconductor,0.142329
sensit,0.006179
seri,0.007644
serv,0.003819
set,0.002971
shape,0.013718
shercliff,0.014472
shield,0.007523
shop,0.007158
shuttl,0.028010
signific,0.010225
significantli,0.009847
silica,0.030738
silicon,0.065199
simpl,0.004242
simul,0.011603
sinc,0.005339
singl,0.017866
sinter,0.024751
sio,0.012159
situat,0.004110
size,0.008316
small,0.003267
smallangl,0.013015
societi,0.006690
socket,0.011490
soft,0.006817
solid,0.022953
solidst,0.038096
son,0.010224
space,0.024699
spacecraft,0.008420
spatial,0.006241
special,0.003339
specialti,0.015166
specif,0.003194
spectroscopi,0.023951
speed,0.005460
spheric,0.007797
spintron,0.011793
squir,0.012093
st,0.008608
stabil,0.009959
stabl,0.005254
stainless,0.034201
standpoint,0.008503
state,0.011681
statist,0.008761
steadi,0.006843
steel,0.093629
steelreinforc,0.014029
stem,0.006001
stiff,0.009036
stone,0.011926
storag,0.006353
strength,0.032492
strengthtoweight,0.028058
stress,0.005475
strong,0.007759
strongli,0.005146
structur,0.102948
structureproperti,0.012454
studi,0.056435
styren,0.025424
subfield,0.006873
subject,0.006793
substanc,0.005613
substitut,0.005933
substrat,0.008108
superconduct,0.009309
superior,0.011886
support,0.003174
surfac,0.024173
surgeri,0.007528
swain,0.011586
symmetri,0.007433
syncret,0.009524
synonym,0.006663
synthes,0.020816
synthesi,0.023844
tailor,0.008829
taken,0.003909
talc,0.013128
taylor,0.006718
technic,0.004748
technolog,0.019248
televis,0.006018
temper,0.008054
temperatur,0.032386
tensil,0.011356
term,0.012615
test,0.004365
th,0.018369
themselv,0.003960
theori,0.018778
thermal,0.041080
thermion,0.012300
thermodynam,0.082240
thermoplast,0.012454
thi,0.027959
thinfilm,0.013250
thing,0.012745
think,0.004630
thomsonengin,0.014472
thu,0.031212
tile,0.009932
time,0.011812
timelin,0.006284
tissu,0.006452
titanium,0.019109
tm,0.010135
today,0.011507
togeth,0.011045
tool,0.012826
tough,0.017785
toughen,0.012712
tradeoff,0.008608
tradit,0.016811
train,0.004610
transform,0.004370
transistor,0.009392
transplant,0.008913
trash,0.011739
treat,0.004675
treatment,0.004911
trial,0.006092
troubleshoot,0.012159
tube,0.014756
tungsten,0.009857
type,0.009630
typic,0.010746
ucl,0.011537
ufp,0.027044
uhmwp,0.014236
ultrafin,0.014236
ultrahigh,0.012159
ultrahighmolecularweight,0.014472
ultrastructur,0.012375
undergo,0.006190
underground,0.007400
understand,0.043492
unifi,0.005588
union,0.003967
uniqu,0.013658
unit,0.005386
univers,0.016592
universityhost,0.014472
unknown,0.005528
unlik,0.004446
usabl,0.008192
usag,0.005600
use,0.091632
usthey,0.014472
usual,0.012852
utmost,0.010114
vacanc,0.009991
vacuum,0.013934
valu,0.013688
valv,0.009130
vapor,0.008341
vari,0.003936
variabl,0.009761
variat,0.005005
varieti,0.012027
variou,0.030396
vast,0.005361
vehicl,0.006062
veloc,0.007021
veri,0.009147
versatil,0.009554
vibrant,0.009876
viscou,0.010201
vital,0.011926
viterbo,0.013675
volum,0.009147
w,0.013440
wa,0.006567
wachtman,0.014472
wafer,0.011739
walker,0.008412
washington,0.005878
water,0.004118
way,0.017129
wear,0.014471
weight,0.010763
weld,0.009951
wellestablish,0.008968
wellknown,0.006268
wherea,0.004633
whi,0.009825
wide,0.010316
widespread,0.005129
wiley,0.013067
wileyintersci,0.011192
willard,0.008860
william,0.004278
windowpan,0.014236
wing,0.007269
withstand,0.009130
work,0.007852
world,0.008121
x,0.009455
xenograft,0.013250
xray,0.029128
year,0.002694
york,0.008224
young,0.004957
zanotti,0.014472
