abil,0.008962
act,0.007445
actinin,0.032336
activ,0.019499
actual,0.008336
adhes,0.351849
affect,0.008512
affin,0.016004
aggreg,0.013775
alan,0.013809
altern,0.008370
anatomi,0.015298
anim,0.009117
apic,0.024377
aris,0.021254
artifici,0.011000
aspect,0.008561
assembl,0.010169
associ,0.006363
autonom,0.013171
away,0.009922
axolotl,0.031646
axon,0.022874
bard,0.022874
base,0.005675
basi,0.024341
becaus,0.005912
becom,0.012575
befor,0.006708
begin,0.007658
behavior,0.009213
bind,0.081381
biochemistri,0.015612
biolog,0.055893
bistabl,0.026402
bodi,0.015763
book,0.007465
boundari,0.010965
branch,0.008352
cadherin,0.152792
caenorhabd,0.024196
cam,0.021158
cambridg,0.020837
carri,0.008480
cascad,0.056728
case,0.006577
caus,0.014042
cell,0.577004
cellcel,0.077459
celltocel,0.054573
cellular,0.101892
center,0.008390
chang,0.029654
chemic,0.040067
class,0.026176
clump,0.024110
cluster,0.014434
code,0.010179
collagen,0.021944
compon,0.009061
concentr,0.010296
consequ,0.008946
consist,0.014084
constraint,0.013063
contact,0.022081
contract,0.042218
contractil,0.146823
control,0.034953
correctli,0.015118
creat,0.012871
creation,0.009577
cultur,0.015822
cycl,0.010786
cytoplasm,0.038220
cytoskeleton,0.023780
darci,0.023130
deactiv,0.044707
decad,0.009564
describ,0.012952
descript,0.009618
determin,0.021920
develop,0.036835
development,0.074060
differ,0.050201
differenti,0.074577
diffus,0.028749
direct,0.006986
discoveri,0.009854
diseas,0.011021
distinct,0.016207
distribut,0.008681
dna,0.027158
dozen,0.014717
dramat,0.011882
drosophila,0.041357
ductal,0.031063
dure,0.036340
earliest,0.010588
ecadherin,0.061117
ecm,0.166243
elegan,0.022300
elong,0.019625
embryo,0.017553
embryogenesi,0.048393
embryon,0.096733
end,0.013852
england,0.010992
environment,0.010184
ephrin,0.032336
epitheli,0.069195
epithelialmesenchym,0.068537
epithelium,0.023702
equal,0.008626
essenti,0.008805
event,0.008243
evodevo,0.025957
evolut,0.010285
evolutionari,0.012480
exampl,0.011346
exert,0.014535
expans,0.021376
explain,0.017055
express,0.024622
extern,0.004953
extracellular,0.040442
extracellularli,0.029714
eye,0.012663
factor,0.008031
fate,0.015994
fiber,0.016454
fibronectin,0.058049
flag,0.015126
fold,0.016148
follow,0.010837
forc,0.006789
form,0.015533
format,0.018477
french,0.009116
fuller,0.019841
fundament,0.008674
furthermor,0.011608
gastrul,0.087074
gel,0.021319
gene,0.065716
gener,0.014602
genesi,0.017042
genet,0.011505
germ,0.018270
gland,0.019064
gradient,0.032234
greek,0.009592
group,0.012220
growth,0.042870
guidanc,0.015273
ha,0.004516
hedgehog,0.024869
henc,0.010569
hi,0.018220
histori,0.005641
homotyp,0.033180
hormon,0.017553
hypothesi,0.011798
idea,0.007602
ignor,0.011749
implic,0.011802
import,0.011554
includ,0.004702
induc,0.026826
inform,0.006734
initi,0.007359
insid,0.011360
instanc,0.018347
integrin,0.079691
interact,0.016903
intracellularli,0.029353
invas,0.012351
involv,0.039400
jbl,0.034268
jmw,0.028180
just,0.007898
kidney,0.018536
known,0.005659
laminin,0.064672
later,0.006735
layer,0.052144
leav,0.009590
level,0.020315
life,0.021839
liketolik,0.034268
link,0.009848
liter,0.013022
local,0.007669
locat,0.008326
maintain,0.007895
major,0.012015
malcolm,0.019521
mammari,0.025198
mani,0.005118
manner,0.010928
mass,0.009286
master,0.012084
mathemat,0.008901
matrix,0.028428
matur,0.013176
maxim,0.012878
mean,0.006236
mechan,0.041811
mesenchym,0.080723
microfila,0.026907
microfilamentbind,0.034268
microtubul,0.024377
migrat,0.036297
migratori,0.022353
mix,0.010891
model,0.035267
modul,0.015289
molecul,0.171179
molecular,0.035506
moreov,0.012990
morph,0.022092
morphogen,0.061117
morphogenesi,0.401400
morphogenet,0.055873
motil,0.021158
movement,0.007808
multicellular,0.018657
multisubunit,0.029024
muscl,0.015704
myosin,0.024566
myosindriven,0.034268
natur,0.006045
ncadherin,0.031646
network,0.009466
neural,0.015215
neurul,0.030558
new,0.015173
note,0.006528
observ,0.007473
occur,0.014388
opposit,0.009317
organ,0.055588
organel,0.039517
outsid,0.008638
oxford,0.010639
pathway,0.015207
pattern,0.048306
period,0.006728
perturb,0.017599
phyllotaxi,0.030558
physic,0.007409
place,0.006403
plant,0.009830
plate,0.014703
pollut,0.015231
polycyst,0.029714
popul,0.016113
posit,0.013421
predict,0.009500
preferenti,0.018039
press,0.007642
presumpt,0.020475
process,0.024553
produc,0.006756
product,0.006767
prolifer,0.015984
properti,0.015723
propos,0.016022
protein,0.052764
provid,0.011522
puls,0.017303
radionuclid,0.024285
rang,0.007794
rate,0.008046
reactiondiffus,0.029714
read,0.007152
receptor,0.052615
refer,0.008235
regul,0.009749
regulatori,0.042756
releas,0.010291
requir,0.006482
respond,0.011106
respons,0.014285
restrict,0.009544
result,0.005736
secondari,0.011726
secret,0.012705
seen,0.008080
separ,0.037617
serv,0.008197
set,0.006379
sever,0.011949
shape,0.058891
share,0.008024
sheet,0.014893
shell,0.013860
signal,0.047396
similar,0.006843
slack,0.023197
snail,0.022092
solubl,0.018326
sort,0.072126
spatial,0.026795
specif,0.013714
spiral,0.035076
splitter,0.055873
stage,0.010008
state,0.010029
steinberg,0.024566
stem,0.012882
stress,0.011752
strongest,0.016628
structur,0.040177
substanc,0.012049
support,0.006814
switch,0.014072
talin,0.034268
taxonom,0.018596
theori,0.006717
thi,0.012860
thompson,0.034032
tissu,0.152341
toxic,0.015846
transcript,0.033850
transduct,0.020748
transit,0.019955
transmembran,0.024377
travel,0.010119
trigger,0.027883
tumor,0.018401
ture,0.051997
turn,0.007923
type,0.041343
typic,0.015377
understand,0.007779
unicellular,0.021279
unifi,0.011996
univers,0.005935
use,0.004682
usual,0.006896
valid,0.010944
vari,0.008448
wa,0.014097
wave,0.011557
way,0.006127
wellstudi,0.022634
wentworth,0.026402
wileyblackwel,0.021119
wnt,0.030558
written,0.009073
zebrafish,0.024869
