abil,0.011137
absolut,0.013729
accid,0.019514
accord,0.024282
accumul,0.015528
acid,0.016308
act,0.018502
adapt,0.038668
addit,0.008188
advantag,0.025128
affect,0.021155
akey,0.040181
al,0.055537
alanin,0.031605
allel,0.192812
allow,0.008049
american,0.009171
amino,0.020952
ani,0.007133
anoth,0.007785
appear,0.018751
appli,0.008653
argu,0.021536
argument,0.027199
aros,0.016074
assum,0.044854
assumpt,0.013790
author,0.009113
balanc,0.012811
base,0.007053
becaus,0.014694
becom,0.023439
begun,0.015518
benefici,0.017911
biodivers,0.020225
biolog,0.023151
biologist,0.091308
case,0.008173
caus,0.008725
censu,0.019168
chang,0.044219
charact,0.013508
charl,0.012519
claim,0.019846
clock,0.040920
coalesc,0.023980
code,0.025299
codon,0.027710
coeffici,0.018866
coher,0.018019
common,0.007905
compar,0.009669
consequ,0.011117
constant,0.012998
contrari,0.017097
contribut,0.019192
control,0.008686
controversi,0.025767
copi,0.015762
darwin,0.018297
darwinian,0.024940
debat,0.036516
degener,0.022889
deleteri,0.131956
deni,0.030313
departur,0.020079
depend,0.008626
describ,0.016094
descript,0.011951
detect,0.014358
determin,0.009079
develop,0.006538
differ,0.034656
direct,0.008682
discoveri,0.012245
distinguish,0.011607
diverg,0.053012
divers,0.025150
dna,0.016874
doe,0.026540
domin,0.021518
drift,0.120951
dure,0.007526
dynam,0.012258
effect,0.030588
elimin,0.013612
emphas,0.013814
encod,0.038337
equal,0.021439
equat,0.013091
error,0.014968
essay,0.015254
essenti,0.010942
et,0.054123
evolut,0.191707
evolutionari,0.062034
exampl,0.014099
exist,0.007827
explic,0.025826
extens,0.010629
extern,0.006155
fate,0.019875
favor,0.026002
fay,0.030407
featur,0.010645
fit,0.014331
fix,0.037481
fixat,0.024289
follow,0.006733
form,0.006433
frees,0.074837
gca,0.037418
gcc,0.028198
gene,0.032664
gener,0.006048
genet,0.171561
geneticist,0.025695
genom,0.076460
given,0.008442
good,0.009358
great,0.009486
greater,0.010601
ha,0.005612
hahn,0.026864
heat,0.014842
high,0.008523
hitchhik,0.029853
hold,0.020277
howev,0.006831
httpevolutionberkeleyedu,0.044488
hugh,0.059255
human,0.008109
hypothesi,0.014661
import,0.014357
independ,0.017290
influenc,0.009270
interpret,0.011229
introduc,0.009873
jack,0.019900
japanes,0.016041
juke,0.120545
justifi,0.016927
kimura,0.223433
king,0.040218
larg,0.014832
lester,0.026441
level,0.050488
link,0.006118
linkag,0.022185
littl,0.010769
lost,0.012228
magnitud,0.017360
main,0.008908
maintain,0.009811
major,0.007465
make,0.007155
mani,0.044519
masatoshi,0.036475
mcdonaldkreitman,0.041230
mean,0.023247
method,0.017429
misconcept,0.024724
model,0.008764
molecular,0.235314
mostli,0.012005
motoo,0.097297
mutant,0.025695
mutat,0.351677
n,0.063181
natur,0.067606
nearli,0.036766
nei,0.098425
neodarwinian,0.032616
neutral,0.539045
neutralistselectionist,0.080363
new,0.006285
nonneutr,0.065617
norm,0.032640
nucleotid,0.022524
number,0.007039
obey,0.020079
occur,0.008939
occurr,0.018199
ohta,0.072133
onli,0.006477
onlook,0.031919
organ,0.015349
origin,0.015595
overview,0.014098
paradox,0.035988
particularli,0.009867
pattern,0.012005
peak,0.015440
percentag,0.015679
percept,0.014977
perindividu,0.042582
phenotyp,0.043364
polymorph,0.048389
popul,0.090101
posit,0.041695
possibl,0.008229
postul,0.017360
potenti,0.010446
precis,0.013290
predat,0.017911
predict,0.023611
present,0.008067
presum,0.018011
primaci,0.024101
probabl,0.034733
process,0.015255
proport,0.026680
propos,0.019909
protein,0.016391
provid,0.007158
publish,0.008955
purg,0.022568
purifi,0.068884
random,0.030783
rapidli,0.013602
rare,0.026557
rariti,0.028053
rate,0.039995
rational,0.022772
recent,0.008861
refer,0.005117
regard,0.009817
rel,0.018349
replic,0.018061
repres,0.016788
reproduc,0.017360
respect,0.009731
result,0.014255
revolv,0.020858
rise,0.010297
s,0.014515
sampl,0.030498
scientist,0.011701
second,0.008398
select,0.267054
sequenc,0.014206
shapiro,0.026100
signific,0.009091
silent,0.042421
singlenucleotid,0.030902
size,0.033271
slightli,0.015435
speci,0.052390
specif,0.008520
standard,0.009592
statist,0.011683
stochast,0.019764
strongest,0.020662
subdivid,0.019514
subject,0.009059
substitut,0.015825
suggest,0.019940
surviv,0.012282
synonym,0.017773
tend,0.011694
test,0.023284
theori,0.200342
therefor,0.009679
thi,0.021307
thoma,0.012739
tomoko,0.068321
treat,0.012470
turn,0.009845
type,0.008562
typic,0.009554
ubiquit,0.022459
unexpress,0.036066
unifi,0.014907
unless,0.015959
unsettl,0.028580
usual,0.008570
valu,0.009127
vari,0.010498
variat,0.066748
vast,0.014300
versu,0.016623
view,0.018255
wa,0.029196
wherea,0.012357
widespread,0.013682
write,0.022270
yoshida,0.032808
