aat,0.014124
abil,0.008520
abiogen,0.034492
abiogenesi,0.084504
abiot,0.028970
abl,0.007822
abov,0.003964
absenc,0.005692
absent,0.003773
absorb,0.009285
abstract,0.002724
abund,0.028258
accept,0.007775
acceptor,0.022119
access,0.006426
accord,0.015481
account,0.003646
accumul,0.011880
acet,0.004965
acetonitril,0.007157
acetylcoa,0.017658
acetylmethylsulphid,0.007886
acetylthiol,0.007886
achiev,0.001947
acid,0.208999
acquir,0.012608
act,0.008847
actinid,0.005365
action,0.001902
activ,0.015448
actual,0.001981
ad,0.003951
adam,0.006284
adapt,0.012327
add,0.002952
addit,0.009397
address,0.002331
adenin,0.020816
adenosin,0.016057
adequ,0.003247
adjac,0.003543
admit,0.003264
adopt,0.004273
adsorpt,0.006016
advanc,0.005736
advantag,0.019225
aerob,0.015479
affect,0.004046
affin,0.007607
aforement,0.004382
age,0.003877
agenc,0.002435
agent,0.002639
agitationth,0.007886
ago,0.018000
agreement,0.002363
aid,0.002322
aim,0.002210
air,0.002378
akilia,0.007886
al,0.007967
alabandit,0.007263
alexand,0.014831
alkalin,0.009780
allan,0.004267
allow,0.013856
alpha,0.003583
alreadi,0.002255
altern,0.015915
altitud,0.008380
aluminium,0.004338
alway,0.004163
amen,0.004360
amin,0.018784
amino,0.176333
aminooxazolin,0.023658
ammonia,0.031317
ammonium,0.005192
amorph,0.005077
amphiphil,0.030847
amplifi,0.004251
anaeob,0.007886
anaerob,0.010057
analys,0.003026
analysi,0.011198
analyt,0.002822
analyz,0.002602
ancestor,0.019965
ancestr,0.008095
ancient,0.015702
andor,0.002709
angstrom,0.006585
ani,0.016373
anion,0.005019
announc,0.002599
anomer,0.007383
anoth,0.017869
anox,0.005838
answer,0.005513
antarctica,0.004615
antenna,0.004658
antoni,0.004592
apatit,0.006485
aphid,0.006016
appar,0.002643
apparatu,0.003853
appear,0.017932
appli,0.001655
approach,0.014254
appropri,0.002481
approxim,0.002109
aqueou,0.018234
archaea,0.029106
archaeaeukaryot,0.007685
archean,0.018050
archebiosi,0.007886
archibald,0.005127
area,0.001537
argu,0.010298
argument,0.007803
aris,0.015154
aristotl,0.006383
arlington,0.005730
armen,0.012550
armid,0.007521
aromat,0.009418
aromaticaliphat,0.006533
aros,0.018447
arrang,0.007572
array,0.003378
arriv,0.009969
artifici,0.002614
asexu,0.004983
ash,0.008366
aspect,0.004069
assembl,0.007250
assert,0.005319
assign,0.002780
associ,0.007562
assum,0.002144
assumpt,0.002637
asteroid,0.013421
astrobiolog,0.005239
astronom,0.003486
asymmetr,0.016942
atmospher,0.084923
atom,0.005414
atp,0.023108
attach,0.002931
attack,0.004992
attempt,0.007064
attract,0.002491
attribut,0.002406
augment,0.011960
august,0.002352
australia,0.010764
austrian,0.007417
author,0.003486
autocatalysi,0.029052
autocatalyst,0.022565
autocatalyt,0.037220
autotroph,0.005393
avail,0.011355
avin,0.007886
avoid,0.004625
award,0.002729
away,0.002358
b,0.004101
ba,0.004119
backbon,0.004405
bacteri,0.008088
bacteria,0.042652
bake,0.005422
balanc,0.002450
band,0.003366
bang,0.008344
bar,0.003499
bart,0.005546
basal,0.014623
base,0.040471
basic,0.022537
bastian,0.031767
bath,0.004346
beach,0.016177
bear,0.005794
becam,0.003412
becaus,0.008431
becom,0.010461
bee,0.004378
befor,0.015944
beg,0.004882
began,0.009320
begin,0.007281
begot,0.007886
begun,0.014841
behav,0.006641
behaviour,0.005756
belief,0.012495
belt,0.008139
beneath,0.004035
benign,0.005028
bergson,0.005513
bernal,0.066497
besid,0.003194
best,0.004115
beta,0.003818
better,0.004210
bi,0.004378
bia,0.010679
bibliographi,0.002715
bicarbon,0.011978
bifurc,0.005436
big,0.005653
bilay,0.010575
billion,0.029168
billionyearold,0.011924
binari,0.003728
bind,0.012895
bio,0.004931
biochem,0.015352
biochemistri,0.014842
biochemistryeg,0.007886
bioenerget,0.012033
biogen,0.011160
biogenesi,0.062753
bioinformat,0.004542
biolog,0.033211
biologist,0.006985
biopoesi,0.007062
biopoiesi,0.035785
biospher,0.003892
biosynthesi,0.009896
biotic,0.004463
blair,0.005019
block,0.025028
blood,0.003040
blow,0.003955
bodi,0.009366
boil,0.008351
bolid,0.007886
boltzmann,0.018863
bombard,0.016574
bond,0.013332
book,0.008871
boost,0.003660
boron,0.004890
bottomupapproach,0.007886
bound,0.008380
boundari,0.005212
branch,0.001985
brazier,0.006826
break,0.002573
bring,0.006962
british,0.006253
broad,0.002507
broken,0.003112
brought,0.002301
brown,0.009503
bruce,0.003835
buckybal,0.006136
build,0.013828
buildup,0.004598
built,0.004654
builtin,0.005057
bulk,0.003309
byopoeesi,0.007886
bypass,0.004329
c,0.012506
cairnssmith,0.007886
calam,0.005352
calcium,0.020546
calvin,0.004658
cambrian,0.005127
came,0.014309
canada,0.002678
canwith,0.007886
capabl,0.019697
capac,0.018142
capita,0.003393
capsul,0.010319
captur,0.002567
carbohydr,0.013217
carbon,0.103609
carbonhydrogen,0.013953
carbonrich,0.006353
carboxyl,0.010255
care,0.004697
cargo,0.004172
carl,0.003121
carri,0.002015
cascad,0.004494
case,0.010943
catalysi,0.005077
catalyst,0.032662
catalyt,0.023994
catalyz,0.067649
catastroph,0.007421
caus,0.013350
cavaliersmith,0.006976
cc,0.004558
cell,0.110250
cellular,0.013838
cellulos,0.004835
celsiu,0.005117
centr,0.010283
central,0.007010
centuri,0.006422
certain,0.011979
ch,0.015958
chain,0.019553
chalcopyrit,0.007383
champion,0.003881
chanc,0.009029
chang,0.011277
channel,0.003086
chao,0.003618
character,0.002371
characterist,0.008620
charg,0.004825
charl,0.004789
charlton,0.005936
chemic,0.128563
chemiosmosi,0.013797
chemiosmot,0.006976
chemistri,0.030144
chemosynthesi,0.005862
chen,0.004569
chiral,0.061917
chloroflexi,0.007886
chlorophyl,0.005379
choh,0.006585
christian,0.002423
cinder,0.012707
circular,0.003644
circularli,0.006533
circumlocut,0.007062
circumst,0.002872
circumstellar,0.006275
cite,0.002615
citric,0.021574
clade,0.014845
claim,0.007592
clarifi,0.003771
clark,0.003620
class,0.004147
classic,0.008263
clay,0.039926
cleav,0.005127
close,0.003346
closer,0.003094
closest,0.007569
clostridia,0.007157
cloud,0.028611
clump,0.005730
cluster,0.013722
coacerv,0.007886
coauthor,0.004287
code,0.019356
codomin,0.006533
coenzym,0.005730
coexist,0.007904
cofactor,0.010431
coin,0.005178
cold,0.005961
colin,0.004304
colleagu,0.016899
collect,0.005472
collid,0.004235
collis,0.003840
colngarca,0.015772
combin,0.019613
come,0.007153
comet,0.053154
cometari,0.006697
commenc,0.011347
comment,0.002995
common,0.019656
commonli,0.006230
compar,0.003699
compart,0.019529
compartment,0.005862
compat,0.010762
compel,0.011724
competit,0.012294
complementari,0.003648
complet,0.008635
complex,0.056725
complic,0.002834
compon,0.023689
compos,0.016607
composit,0.012962
compound,0.098624
compoundsmethan,0.007886
compris,0.007674
comput,0.012432
conceiv,0.003283
concentr,0.036707
concept,0.003490
conceptu,0.003009
concern,0.003511
conclud,0.010230
conclus,0.005572
condens,0.021710
condensationdehydr,0.007886
condit,0.050743
conduc,0.009431
cone,0.008830
configur,0.003454
confirm,0.005391
confus,0.005629
connect,0.002058
consensu,0.006238
consequ,0.002126
consid,0.013125
consider,0.002101
consist,0.010042
constitu,0.008785
constitut,0.005923
consum,0.004980
contain,0.023322
contamin,0.003989
contemporari,0.004892
content,0.007402
contin,0.003222
continent,0.006660
continu,0.006060
contrari,0.003270
contrast,0.004224
contribut,0.003670
control,0.001661
conundrum,0.011632
convect,0.014012
conveni,0.003338
convent,0.004843
convers,0.005160
convinc,0.003329
cool,0.007006
cooper,0.002390
copi,0.006029
core,0.007967
correct,0.005036
corrin,0.006697
cosmic,0.007651
cosmolog,0.003656
counterpart,0.006706
counti,0.003721
coupl,0.005787
cours,0.002179
coval,0.004439
cover,0.002058
cox,0.004598
craig,0.008868
creat,0.022944
createdmolecul,0.007886
creation,0.004552
creator,0.003748
creatur,0.003813
credenc,0.010575
credit,0.002420
crocodil,0.005497
crosslink,0.010995
crowd,0.007794
crucibl,0.005690
crust,0.024989
crystal,0.052624
crystallographi,0.004525
cufe,0.007521
current,0.017610
cyanamid,0.007157
cyanid,0.038941
cyanoacetylen,0.015371
cyanobacteria,0.005159
cyanosulfid,0.007886
cycl,0.030763
cyclic,0.007768
cytidin,0.014766
cytosin,0.021518
czech,0.004007
d,0.008098
dalton,0.004504
damer,0.007886
dark,0.003233
darwin,0.020998
darwinian,0.014311
data,0.001995
databas,0.002925
date,0.010450
daughter,0.024025
david,0.004442
dawkin,0.010002
day,0.003774
deal,0.002014
deamer,0.007886
debat,0.002328
decad,0.002273
decay,0.006877
decemb,0.004589
deconstruct,0.004639
decreas,0.004925
deep,0.019488
deeper,0.003736
deephot,0.007886
deepocean,0.007685
deepsea,0.005529
definit,0.005932
degass,0.006976
degrad,0.003587
degre,0.004095
dehydrogenaseacetylcoa,0.007886
deliv,0.008843
demiurg,0.006313
demonstr,0.031469
dens,0.003559
densiti,0.003017
departur,0.003840
depend,0.013200
depict,0.006238
deplet,0.003902
deposit,0.008882
depth,0.006567
deriv,0.015211
derivedb,0.007886
descend,0.006053
describ,0.010774
design,0.003673
desmond,0.005563
despit,0.004241
detect,0.024716
determin,0.010420
devast,0.003550
develop,0.010005
devour,0.005300
dew,0.005730
diamet,0.008172
dicarboxyl,0.007157
did,0.011138
didnt,0.004109
differ,0.022537
differenti,0.007596
difficult,0.004362
difficulti,0.008102
diffus,0.010249
dilut,0.004360
diminish,0.003385
dioxid,0.047770
dioxiderich,0.007886
dipeptid,0.013395
direct,0.009963
directli,0.004018
dirti,0.004813
disadvantag,0.003708
discern,0.004109
discharg,0.012593
discov,0.011011
discoveri,0.016395
discuss,0.006121
disequilibrium,0.005287
disk,0.021478
disproven,0.005513
dissip,0.084530
dissipat,0.007886
dissolv,0.003106
distant,0.003476
distinct,0.007704
distinguish,0.004440
distribut,0.006190
divers,0.004810
diversifi,0.003787
divis,0.004334
dna,0.048412
doctrin,0.002999
doctrinethat,0.007886
doe,0.003384
domain,0.014654
dominion,0.008542
donor,0.011764
doubl,0.002768
doubt,0.003227
draw,0.005127
drawn,0.005902
drench,0.006533
drew,0.003446
dri,0.013102
drive,0.008060
driven,0.011645
droplet,0.022185
dsseldorf,0.006275
duplic,0.008205
dure,0.018714
dust,0.024496
duve,0.006759
dyson,0.010478
e,0.002026
earli,0.054212
earlier,0.008899
earliest,0.020132
earth,0.179643
eas,0.003466
easier,0.003223
easili,0.002579
ebaodnss,0.007886
ecosystem,0.003414
ed,0.004215
effect,0.004388
effici,0.007072
effort,0.002085
egg,0.007284
eigen,0.018826
eject,0.009162
elabor,0.003132
electr,0.022405
electrochem,0.009597
electron,0.007558
electrostat,0.009219
electroweak,0.005287
eleg,0.004489
element,0.011489
elementari,0.003396
elev,0.003359
els,0.003100
elsewher,0.003103
emerg,0.027015
emiss,0.003572
emphas,0.002642
enantiom,0.012338
enantiomer,0.020930
enantiopur,0.007886
encapsul,0.009471
enclos,0.004089
encod,0.010999
encourag,0.002474
encrust,0.006353
end,0.003292
endow,0.003813
energ,0.005671
energi,0.075878
engin,0.002169
england,0.002612
english,0.002096
enorm,0.003242
enquiri,0.004558
enrich,0.003940
enter,0.006603
entir,0.005858
entiti,0.010218
entitl,0.003108
entropi,0.032688
envelop,0.004387
environ,0.043907
environment,0.002420
envisag,0.009671
enzym,0.025621
enzymeless,0.007886
eoarchean,0.013395
eon,0.020596
epidemica,0.006759
epoch,0.004299
equilibrium,0.009440
equip,0.002691
equival,0.002425
era,0.007136
erron,0.008625
error,0.005725
errorpron,0.005910
erwin,0.004547
especi,0.001748
essenti,0.012557
establish,0.006427
ester,0.020269
estim,0.006356
et,0.007764
etern,0.003806
ethologist,0.005989
etymolog,0.003205
eugen,0.003680
eukaryot,0.004147
eukaryota,0.006203
eutect,0.006826
evapor,0.004216
event,0.017634
eventu,0.006419
everett,0.005497
everi,0.003768
evid,0.032849
evidenti,0.005793
evolut,0.068447
evolutionari,0.014831
evolv,0.042013
ex,0.004073
examin,0.007069
exampl,0.012135
exceed,0.003161
excess,0.011638
exchang,0.004256
excit,0.003670
exclud,0.002832
exergon,0.006485
exhal,0.005597
exhibit,0.011368
exist,0.037429
exoplanet,0.005936
exotherm,0.005546
expand,0.002129
expans,0.002540
expect,0.004137
experi,0.051841
experiment,0.020119
explain,0.010134
explan,0.023853
explicitli,0.003065
explor,0.009176
explos,0.003337
expos,0.006031
exposur,0.003346
express,0.007803
extant,0.003983
extens,0.002033
extern,0.007063
extinct,0.010268
extract,0.002898
extrapol,0.004325
extraterrestri,0.042266
extrem,0.004319
extremophil,0.005838
f,0.008871
fact,0.005734
factor,0.007636
factori,0.003294
faith,0.003009
fall,0.002055
fals,0.006107
famili,0.004169
far,0.016332
fashion,0.003168
fatti,0.013865
favor,0.002486
favour,0.023685
fe,0.014108
feasibl,0.003658
featur,0.002036
februari,0.002446
fed,0.004028
feedback,0.003656
felt,0.003178
ferment,0.008839
ferredoxin,0.006759
ferri,0.004586
fesf,0.007521
fewer,0.006385
fidel,0.004564
field,0.004932
final,0.001947
finit,0.003113
firmicut,0.006826
fission,0.004569
fit,0.002741
fix,0.007169
fixat,0.013937
flea,0.005497
fli,0.006721
floor,0.007324
flow,0.002371
flower,0.003656
fluctuat,0.006724
fluid,0.019041
flux,0.007921
focu,0.004417
focus,0.002095
fold,0.026867
follow,0.009015
food,0.009268
forc,0.011295
form,0.097218
formal,0.006043
formamid,0.029052
format,0.061484
formic,0.006074
formos,0.007521
forward,0.008573
fossil,0.020937
foundat,0.002099
fourth,0.002809
fox,0.012441
fraction,0.003151
fragment,0.003166
framework,0.004613
francesco,0.004729
free,0.016550
freeliv,0.011460
freeman,0.004028
freez,0.012516
freezer,0.006533
freezethaw,0.006395
frequent,0.006789
freshwat,0.004255
frog,0.004586
fuel,0.002983
fulleren,0.011267
function,0.021428
fundament,0.012370
fungi,0.003897
furthermor,0.011035
fusion,0.003752
ga,0.016252
gabon,0.005149
galaxi,0.012022
galena,0.006585
gaold,0.007886
gase,0.017947
gaseou,0.009051
gave,0.004685
gene,0.018743
genelik,0.007521
gener,0.035863
genesi,0.004050
genet,0.019141
geneticsfirst,0.007886
genom,0.014624
geochem,0.019435
geochemist,0.006313
geoffrey,0.004208
geolog,0.006153
geometr,0.003310
geophys,0.012638
geotherm,0.037754
germani,0.002424
germin,0.005107
geyser,0.006585
giant,0.007040
gigant,0.005204
gilbert,0.003850
given,0.003229
glasgow,0.009458
glass,0.003548
global,0.002138
globul,0.006439
glyceraldehyd,0.013519
glyceraldehydephosph,0.007062
glycin,0.022684
glycolaldehyd,0.027306
glycolysi,0.005580
gna,0.006898
gnter,0.005838
goal,0.002214
goe,0.002897
gold,0.011198
grab,0.005275
gradient,0.026815
gradiental,0.007886
gradientc,0.007886
gradual,0.010352
graham,0.004102
grain,0.013992
graphit,0.005001
gravit,0.003600
graviti,0.003510
great,0.005443
greater,0.004055
greatli,0.002636
greek,0.002279
greenland,0.009354
greenston,0.006353
group,0.010165
grow,0.008257
guanin,0.010844
gun,0.003780
gypt,0.007886
h,0.006709
ha,0.046161
habit,0.003413
hadean,0.062033
haldan,0.035137
halflif,0.009846
halfway,0.005019
hall,0.003054
hallmark,0.009846
hand,0.001994
handed,0.006826
happen,0.002544
harbour,0.008280
harm,0.003103
harold,0.003863
hatcheri,0.014314
hawaii,0.004283
hay,0.004494
hazard,0.003676
hcn,0.019919
hdepend,0.015772
heat,0.028389
heavi,0.011130
heavier,0.004066
heavili,0.002595
hedg,0.004019
height,0.006420
held,0.003807
helium,0.008616
help,0.001762
henceforward,0.006585
henri,0.007784
hered,0.004598
herit,0.009813
heterogen,0.004047
heterogenesi,0.007886
hh,0.005597
hi,0.023096
high,0.013041
highenergi,0.004652
higher,0.003827
highli,0.014836
highlight,0.003314
highwat,0.005989
hill,0.003202
histori,0.009386
hiv,0.004677
ho,0.004129
hoffmann,0.015938
hold,0.001939
holli,0.005597
homochir,0.029532
hong,0.003764
hook,0.008659
hooker,0.010759
host,0.005887
hot,0.049634
hotspr,0.007886
hour,0.005658
hous,0.004319
howev,0.011759
hs,0.010234
huge,0.002994
hundr,0.002446
hurrican,0.004299
huxley,0.018278
hydrocarbon,0.020824
hydrocyan,0.007062
hydrogen,0.073363
hydrogenrich,0.007685
hydrolysi,0.005077
hydrophob,0.005159
hydrospher,0.009671
hydrotherm,0.130105
hydroxyl,0.005149
hypercycl,0.045130
hyperthermophil,0.013797
hypothes,0.019208
hypothesi,0.081325
hypothet,0.007240
ice,0.014047
idea,0.019876
ideal,0.005239
identifi,0.015569
iethioacet,0.007886
ignat,0.006898
ignatov,0.006898
ilya,0.005352
imag,0.002479
immedi,0.002366
impact,0.013238
impactor,0.006976
imper,0.004355
imperfect,0.019817
implaus,0.005263
impli,0.002502
implic,0.002805
import,0.015104
impos,0.005537
imposs,0.005444
improb,0.005325
impur,0.009366
incarn,0.004709
inch,0.004338
incipi,0.005365
includ,0.027940
incorpor,0.004421
incorrect,0.003833
increas,0.010837
increasingli,0.002373
incub,0.005038
independ,0.006614
indic,0.005941
individu,0.004981
induc,0.003188
induct,0.003565
inert,0.004553
inevit,0.003547
inexor,0.005652
infer,0.003094
infinit,0.006304
inflat,0.003031
inform,0.036813
ingredi,0.008455
inhabit,0.005597
inherit,0.005970
initi,0.015743
inland,0.007726
inner,0.009709
innoc,0.004255
inorgan,0.030112
insect,0.003658
insert,0.003734
insid,0.002700
insight,0.005972
insolubl,0.005138
instabl,0.003481
instanc,0.004360
instant,0.004161
instantan,0.004224
instantli,0.004813
instead,0.003771
institut,0.005110
insuffici,0.003650
integr,0.001942
intend,0.002492
intens,0.005347
interact,0.016069
interfac,0.003504
interior,0.003159
intermedi,0.009492
intern,0.002821
interpret,0.002147
interstellar,0.042036
intrins,0.003408
introduc,0.013219
introduct,0.002134
invas,0.002935
invers,0.003399
investig,0.002255
invok,0.003865
involv,0.006243
ion,0.038403
ionic,0.013361
ioniz,0.008518
ir,0.004499
ira,0.004851
iren,0.005772
iron,0.023067
ironiicontain,0.007886
ironrich,0.006898
ironsulfur,0.063954
irradi,0.015086
irrevers,0.022220
island,0.007158
isol,0.002613
isotop,0.015600
issu,0.003455
isua,0.007263
j,0.010109
jack,0.019031
jame,0.002270
jan,0.003538
je,0.005028
jeewanu,0.015772
jeremi,0.004247
joan,0.004378
john,0.007324
join,0.011973
joseph,0.002652
jr,0.003419
jrgensen,0.012477
juli,0.002325
juliu,0.004095
just,0.011263
k,0.004881
kahr,0.015772
karl,0.003027
karo,0.007062
kauffman,0.005671
key,0.012292
kill,0.002657
kilometr,0.014930
kinet,0.003644
kna,0.007521
known,0.017486
kong,0.003796
koonin,0.006826
kreb,0.005513
kwok,0.006697
l,0.004739
lab,0.003517
laboratori,0.016389
lack,0.006157
laid,0.003038
lake,0.003174
lalanin,0.007521
land,0.002037
languag,0.002023
lar,0.005159
larg,0.017022
larrald,0.007886
late,0.013045
later,0.012806
latin,0.002529
lava,0.014719
law,0.003242
lay,0.003028
layer,0.006196
lazzaro,0.006697
leach,0.005263
lead,0.006423
leak,0.004515
led,0.008685
leeuwenhoek,0.010731
left,0.010728
lefthand,0.010385
lend,0.006915
length,0.002670
lesli,0.004547
let,0.003015
letter,0.002657
level,0.003219
lglutam,0.007383
librari,0.002528
lice,0.005793
life,0.249152
lifeinduc,0.007886
lifeorigin,0.015772
lifesuit,0.007886
lifeth,0.006826
light,0.031066
lightn,0.013847
like,0.028753
likelihood,0.003732
likewis,0.003188
limit,0.001643
line,0.003852
lineag,0.011951
link,0.002340
linkag,0.004243
lipid,0.072072
lipidlik,0.007886
liquid,0.008655
list,0.001496
littl,0.006179
live,0.050468
local,0.003645
locat,0.005936
log,0.003771
logic,0.002604
long,0.003495
longchain,0.005962
longer,0.002219
loos,0.003346
lose,0.002830
loss,0.004708
lost,0.004677
loui,0.012148
low,0.004125
lower,0.003977
lowest,0.003201
luca,0.047345
ludwig,0.003695
lump,0.004770
lymph,0.005580
m,0.001924
ma,0.006799
macallum,0.007886
machineri,0.003319
mackinawit,0.007886
macromolecul,0.009208
macroscop,0.003855
maggot,0.006275
main,0.003407
mainli,0.002234
maintain,0.003753
mainten,0.003228
major,0.002855
make,0.002737
makeup,0.004299
malori,0.007263
manfr,0.010431
mani,0.024329
manner,0.002597
mantl,0.013659
mar,0.011049
march,0.004463
marcia,0.005886
marin,0.009243
mark,0.002160
marker,0.004140
martian,0.005339
martin,0.008546
mass,0.004414
massiv,0.002863
mat,0.004866
materi,0.037720
mathemat,0.008463
matter,0.028343
matterth,0.007521
matur,0.003131
maxim,0.003060
md,0.003983
mean,0.016304
meaningviz,0.007886
meant,0.002760
meanwhil,0.003254
measur,0.001762
meat,0.007469
mechan,0.021862
mechanist,0.004489
media,0.002468
mediat,0.003297
medium,0.006136
melvin,0.005563
member,0.001717
membran,0.091468
membraneenclos,0.007062
mention,0.005211
mercuri,0.003963
mere,0.005295
mesh,0.004722
metabol,0.074910
metabolismfirst,0.013653
metabolismlik,0.007886
metabolit,0.005107
metal,0.016807
metalsulphidewal,0.007886
metamorphos,0.005580
metaphys,0.006886
metasedimentari,0.006045
meteor,0.004696
meteorit,0.070275
meteoroid,0.012273
methan,0.022576
methanogen,0.006074
methanol,0.005671
methionin,0.005690
method,0.005000
methyl,0.004677
methylidyn,0.007383
methylsulphid,0.007886
metr,0.003828
mi,0.003393
mice,0.008756
micel,0.012970
michael,0.009907
michaelian,0.031544
microb,0.018301
microbi,0.008957
microencapsul,0.007157
microfossil,0.011872
microorgan,0.024118
micropor,0.007886
microscop,0.013897
microspher,0.027907
middl,0.002219
migrat,0.002875
mild,0.004154
milieu,0.005010
miller,0.030057
millerurey,0.048597
million,0.010569
mimic,0.004509
miner,0.068532
mineralog,0.004581
minim,0.002840
minimum,0.011742
minor,0.002490
minut,0.003212
mirror,0.003634
miss,0.003394
mit,0.003270
mix,0.012943
mixtur,0.037015
mm,0.003938
mn,0.019497
mode,0.003029
model,0.030176
moder,0.003083
modern,0.022600
modic,0.007886
molecul,0.278986
molecular,0.045008
molten,0.009984
molybdenum,0.005127
molybdopterin,0.007886
monazit,0.006898
monom,0.061534
monophosph,0.006585
monophylet,0.005730
monosaccharid,0.005886
monosulphid,0.007886
monoxid,0.030062
monster,0.004806
montana,0.005513
month,0.004755
montmorillonit,0.021789
moon,0.007009
mortal,0.003597
mosin,0.007886
mostli,0.004592
mother,0.006203
motiv,0.005258
mound,0.005028
mount,0.003137
movement,0.001855
mud,0.004702
mulkidjanian,0.031544
multipl,0.006210
multistep,0.006238
multivers,0.005466
murchison,0.012149
mutat,0.007473
mutual,0.002838
mwo,0.007886
n,0.002416
nakedgen,0.007886
narryer,0.007263
nasa,0.028443
nation,0.002982
natur,0.028736
near,0.017702
nebula,0.018810
necessari,0.021448
need,0.012943
needless,0.006275
network,0.006749
neutral,0.008837
new,0.012021
nh,0.008927
ni,0.004735
nickelironsulfur,0.007886
nitrogen,0.033435
nm,0.004369
nobel,0.003132
nonequilibrium,0.011027
nonetheless,0.003366
nonlinear,0.003687
nonliv,0.018146
nonorgan,0.006016
nonracem,0.007685
nonsuperimpos,0.007886
northern,0.002516
notabl,0.004130
note,0.006206
noteworthi,0.004547
notion,0.010185
nowfam,0.006585
nuclear,0.002750
nucleat,0.011092
nucleic,0.039779
nucleobas,0.024181
nucleosid,0.012406
nucleosynthesi,0.005436
nucleotid,0.056007
nucleu,0.003565
number,0.008078
numer,0.001993
nutrientrich,0.006697
nuvvuagittuq,0.006759
nxing,0.007886
nylu,0.007886
o,0.005676
object,0.003679
observ,0.017762
occur,0.025648
ocean,0.055390
octob,0.002327
offer,0.002001
oklo,0.006976
old,0.006680
oldest,0.002911
oleg,0.005910
olivin,0.006136
omn,0.006395
onc,0.004022
onli,0.017344
onsag,0.006105
oparin,0.074359
oparinhaldan,0.007685
open,0.005527
oper,0.003395
opportun,0.005084
oppos,0.004498
opposit,0.004429
optim,0.005709
orbit,0.003413
order,0.004449
ordinari,0.002934
ore,0.003855
organ,0.124780
organicsa,0.007886
organometal,0.005001
orgel,0.020695
origin,0.096947
osnabrck,0.006313
outcompet,0.005513
outdoor,0.004851
outer,0.027509
outgass,0.005886
output,0.005618
outsid,0.002053
oven,0.005181
overwhelm,0.003608
ovo,0.007062
oxal,0.006169
oxid,0.003570
oxygen,0.039322
oxygenless,0.007886
ozon,0.014167
p,0.002054
pah,0.088662
pair,0.005736
palasek,0.007886
paleontolog,0.004434
panspermia,0.038372
paper,0.002220
paradox,0.003441
park,0.003145
parnel,0.006898
partial,0.002475
particl,0.014464
particular,0.003369
particularli,0.005662
pass,0.002090
passag,0.003206
passiv,0.003708
pasteur,0.023322
path,0.002728
pathway,0.050602
pb,0.004458
peculiar,0.008380
penetr,0.003595
pentafluorophenyl,0.007521
pentos,0.012033
peopl,0.001483
peptid,0.058561
perform,0.005675
period,0.009594
permeat,0.004843
perspect,0.002408
peter,0.004908
ph,0.034105
phenotyp,0.004147
philosophi,0.002291
phosphat,0.058258
phosphodiest,0.006976
phospholipid,0.020682
phosphor,0.011380
phosphoru,0.008868
phosphoryl,0.005263
photoanomer,0.007886
photochem,0.005436
photon,0.027528
photosanit,0.007886
photost,0.007383
photosynthesi,0.008583
photosynthet,0.005138
phthalat,0.007263
phylogen,0.022565
phylogenet,0.004255
phylogeni,0.004835
phylogenom,0.007157
phylum,0.010454
physic,0.012327
physicalchem,0.006275
physicist,0.009556
physicochem,0.005300
piec,0.002972
pigment,0.027059
pilbara,0.013067
pilcher,0.007263
pioneer,0.002811
pittendrigh,0.007521
place,0.010654
planet,0.058017
planetesim,0.006533
planetoid,0.007062
plant,0.004673
plate,0.010483
platelet,0.005962
plausibl,0.024136
play,0.007772
pmf,0.006898
pna,0.005838
po,0.009748
pocket,0.004299
pockmark,0.007886
point,0.009366
poison,0.007523
polar,0.006594
polyatom,0.005751
polycycl,0.011502
polym,0.032355
polymer,0.043388
polynucleotid,0.006074
polypeptid,0.015321
polyphosph,0.026559
polysaccharid,0.005010
polytechn,0.004931
pond,0.019025
pool,0.021143
poor,0.002661
popper,0.004410
popul,0.005744
popular,0.001925
pore,0.004890
porou,0.010214
porphyrin,0.005962
posit,0.011165
possibl,0.033056
postul,0.029885
potassium,0.008558
potenti,0.027972
prebiot,0.094573
preced,0.005847
precellular,0.006976
precipit,0.021293
precis,0.002542
precursor,0.050431
predat,0.010277
predecessor,0.003365
predominantli,0.006851
preexist,0.021007
prefac,0.004429
prelif,0.007886
preliminari,0.004116
prerequisit,0.004463
prerna,0.007263
presenc,0.014002
present,0.020060
preserv,0.002601
presid,0.002231
pressur,0.004646
presum,0.010335
prevail,0.006529
preval,0.006796
prevent,0.006619
previou,0.002327
prigogin,0.023643
primari,0.004074
primarili,0.002109
primev,0.017967
primit,0.030734
primordi,0.052058
princip,0.002410
principl,0.001852
prior,0.002330
prize,0.002878
probabl,0.013287
probe,0.003838
problem,0.004951
problemat,0.003719
proceed,0.002824
process,0.046686
produc,0.041749
product,0.035386
progeni,0.005181
progress,0.002103
prohibit,0.003148
project,0.001909
prokaryot,0.013760
prolifer,0.015196
prolong,0.003924
promot,0.006604
prone,0.004263
proofofprincipl,0.007383
propag,0.003438
proper,0.002768
properti,0.016817
propos,0.039985
protein,0.084650
proteinlik,0.007886
proteinoid,0.045130
protocel,0.077824
protocontin,0.007886
protoeukaryot,0.007062
proton,0.019948
protoplanetari,0.024066
protostellar,0.006585
protozoa,0.005159
proven,0.003259
provid,0.030124
proxim,0.003567
pseudodoxia,0.006759
pseudopanspermia,0.007886
publicli,0.003302
publish,0.005138
puddl,0.012338
pure,0.002440
purif,0.004509
purin,0.017071
purpos,0.002007
putrefact,0.006238
putrid,0.006313
pyrimidin,0.034896
pyrimidinecycl,0.007886
pyrit,0.028652
pyritebear,0.007886
pyruv,0.005671
quantiti,0.007541
quantum,0.003112
quartz,0.005181
quartzit,0.007157
quasisimultan,0.007521
quasispeci,0.007685
quebec,0.009062
question,0.013566
quickli,0.005024
quit,0.005216
r,0.002065
racem,0.024954
radiat,0.024725
radic,0.005658
radioact,0.030298
rain,0.015675
rainwat,0.005671
random,0.002943
rang,0.009262
rapid,0.002674
rapidli,0.007805
rare,0.005079
rasmussen,0.005962
rate,0.005737
ratio,0.005566
raw,0.006385
reach,0.005967
react,0.013678
reactant,0.004828
reaction,0.100390
reactiv,0.003687
readi,0.003597
readili,0.006698
realiz,0.002736
realli,0.003148
reanalysi,0.006439
reason,0.010539
rebek,0.007521
recapitul,0.006016
receiv,0.001869
recent,0.008474
recogn,0.006296
reconstruct,0.015336
record,0.002063
recov,0.006025
red,0.002712
redi,0.005910
redox,0.019725
reduc,0.020396
reduct,0.011265
refer,0.008808
reflect,0.004206
refut,0.007731
regard,0.011266
region,0.010516
regret,0.005077
regular,0.005362
reject,0.002412
rel,0.014039
relat,0.009237
releas,0.012230
relev,0.002560
reli,0.002358
relic,0.004874
remain,0.009712
remak,0.005451
remark,0.006004
reminisc,0.004709
remov,0.002259
renounc,0.008793
renssela,0.005690
repeat,0.002825
repeatedli,0.003482
repertoir,0.005117
replac,0.001994
replet,0.006169
replic,0.079459
replicas,0.014124
report,0.022574
repres,0.001605
reproduc,0.006641
reproduct,0.026598
requir,0.021571
research,0.025405
resembl,0.012350
resolut,0.005988
resort,0.003632
resourc,0.003962
respect,0.005584
respir,0.004419
respons,0.001697
rest,0.002293
restructur,0.003865
result,0.019087
resurrect,0.004342
retain,0.002573
retriev,0.008723
retrovirus,0.006353
return,0.001980
reveal,0.002574
ribonucl,0.005936
ribonucleosid,0.007383
ribonucleotid,0.027306
ribos,0.031568
ribosa,0.015772
ribosom,0.019195
ribosym,0.007886
ribozym,0.035033
rich,0.016840
richard,0.002417
right,0.005269
righthand,0.010076
rigid,0.003642
ring,0.003314
rise,0.005908
rna,0.258045
rnabas,0.020093
rnalik,0.007886
robert,0.004304
rock,0.021455
rocki,0.014031
rockwat,0.007886
role,0.013716
root,0.009889
rose,0.002970
ross,0.004004
rot,0.005250
rotat,0.003240
round,0.003100
rout,0.005893
rubbish,0.006169
rudimentari,0.004615
russel,0.013722
s,0.018046
sadenosyl,0.007521
sadenosylmethioninedepend,0.007886
safe,0.003200
said,0.012066
salient,0.004858
salt,0.006706
salti,0.005615
saltier,0.006976
sand,0.004041
sandgrain,0.007886
sandston,0.010787
save,0.005558
say,0.002120
scant,0.005497
scenario,0.010635
scholarship,0.003499
schrdinger,0.004364
schuster,0.004722
scienc,0.003292
scientif,0.005908
scientist,0.022381
scotland,0.003678
scrutini,0.004448
sea,0.019978
seal,0.003670
seam,0.005466
seawat,0.028456
second,0.003212
secondari,0.005574
sedimentari,0.004874
seed,0.003472
seen,0.001920
seepag,0.006639
seepagesit,0.007886
segment,0.003353
select,0.034053
selenium,0.005325
selfassembl,0.027815
selfenclos,0.007521
selford,0.015043
selforgan,0.028538
selfrepl,0.068578
selfreproduc,0.006639
selfreproduct,0.007263
selfsustain,0.010526
semiperm,0.006275
sens,0.004027
sentiment,0.003803
separ,0.003576
septemb,0.002360
sequenc,0.024454
seri,0.001949
serpentin,0.006639
serv,0.001948
set,0.016678
seven,0.002568
sever,0.009940
sexual,0.003216
shall,0.007145
shallow,0.004140
shape,0.004665
shapiro,0.004992
share,0.001907
shield,0.003838
shift,0.002371
shock,0.010038
shorelin,0.005393
short,0.006260
shortli,0.006092
shown,0.021243
sidney,0.004715
signatur,0.003986
signific,0.005216
silic,0.009813
similar,0.017892
similarli,0.002580
simpl,0.028136
simplest,0.003474
simplifi,0.003172
simplist,0.004866
simul,0.008879
simultan,0.002854
sinc,0.008172
singl,0.005468
sink,0.004057
sir,0.003074
site,0.013766
sitecompound,0.007886
size,0.004242
slightli,0.002952
slime,0.005597
slow,0.002812
slowli,0.003139
small,0.020002
smaller,0.016213
smoke,0.004047
soai,0.007886
socal,0.002748
sol,0.005451
solar,0.022744
solid,0.005855
solidifi,0.008968
solubl,0.017422
solut,0.025635
somewhat,0.002887
somewher,0.004172
soon,0.004995
sort,0.005714
soup,0.054076
sourc,0.034268
southwestern,0.008502
space,0.029402
spacecraft,0.004295
spallanzani,0.006533
spark,0.010814
speak,0.002611
speci,0.005010
special,0.001703
specif,0.004889
specifi,0.002769
spectral,0.008366
spectroscop,0.004742
spectrum,0.006442
specul,0.002834
sped,0.005652
speed,0.002785
sphalerit,0.007383
sphere,0.003048
spheric,0.003978
spiegelman,0.029532
spiritu,0.003138
spitzer,0.006016
split,0.002799
spontan,0.098573
spot,0.003410
spread,0.002407
spring,0.003072
spur,0.003825
stabil,0.002540
stabl,0.005361
stage,0.028545
stan,0.005339
standard,0.001834
stanley,0.007175
star,0.036250
stardust,0.006275
starform,0.006697
start,0.020691
state,0.007151
statist,0.002234
stay,0.002981
steam,0.008114
steen,0.005862
stellar,0.013709
step,0.009239
stephen,0.003025
steppingston,0.006169
stepwis,0.005816
stereochemistri,0.005300
steril,0.027766
sticki,0.004948
storag,0.009724
store,0.016558
straightforward,0.004312
stream,0.003264
strelley,0.007886
strengthen,0.003081
striazin,0.007886
stromatolit,0.018508
strong,0.001979
struck,0.003873
structur,0.030239
struggl,0.002855
stuart,0.003777
studi,0.037428
subject,0.008664
submarin,0.004116
submicroscop,0.006639
subsequ,0.006377
subsist,0.003750
substanc,0.017183
substrat,0.016546
subtitl,0.005339
success,0.009032
suffici,0.007554
sugar,0.036510
sugawara,0.007263
suggest,0.093442
suitabl,0.012095
sulfid,0.050839
sulfur,0.012013
sulphid,0.012878
sulphiderich,0.007886
summar,0.010408
sun,0.027196
sunlight,0.012742
supernova,0.009583
superorgan,0.005886
suppli,0.004441
support,0.024293
suppos,0.008979
supracrust,0.007886
surfac,0.056729
surfacecatalyt,0.007886
surround,0.009978
surviv,0.011746
suspens,0.004231
sustain,0.005328
sutherland,0.010844
swarm,0.005010
synthas,0.022390
synthes,0.046019
synthesi,0.091235
szostak,0.024066
t,0.004740
tadashi,0.007157
taken,0.007978
tale,0.003916
tarlik,0.007685
tauri,0.011544
team,0.008533
technolog,0.001963
tecton,0.012937
telescop,0.004186
temperatur,0.019276
templat,0.013467
tend,0.006710
tenet,0.004010
term,0.014158
termin,0.006383
terrestri,0.018542
terroa,0.007886
test,0.011134
testament,0.004267
th,0.006247
thank,0.003745
thcenturi,0.006281
themselv,0.004041
theolog,0.003320
theoret,0.011167
theori,0.060673
therefor,0.012960
thermal,0.017464
thermoacidophil,0.007383
thermodynam,0.066430
thermophil,0.013067
thermosynthesi,0.045130
thesi,0.003370
thi,0.061131
thing,0.006502
think,0.011811
thioester,0.019919
thiolat,0.007263
thoma,0.012183
thought,0.021235
thousand,0.004804
threadlik,0.006639
threedimension,0.007482
thu,0.012738
thymin,0.005379
tidal,0.004906
time,0.025309
tini,0.003674
tna,0.006898
today,0.019568
togeth,0.011270
tokyo,0.004316
ton,0.003693
took,0.008511
topdown,0.004874
topic,0.004322
total,0.003801
toxic,0.003766
trace,0.007835
track,0.003013
tradit,0.003430
transfer,0.006992
transform,0.006689
transient,0.004415
transit,0.004742
translat,0.011725
transmiss,0.003365
transport,0.004670
trap,0.003569
treat,0.004770
tree,0.022447
tri,0.002144
triacid,0.007886
trickl,0.005652
trigger,0.003313
tripeptid,0.007521
triphosph,0.005352
triplet,0.005127
true,0.006616
truth,0.005796
tubular,0.005730
turbul,0.008448
turn,0.009415
twice,0.003246
tyndal,0.005838
type,0.013101
typic,0.005482
ubiquit,0.012887
ultim,0.007068
ultrafast,0.006105
ultramaf,0.006275
ultraviolet,0.029786
unabl,0.002830
uncov,0.007747
undergo,0.006316
underli,0.002586
underpin,0.003972
understand,0.003698
undisput,0.005127
unfavour,0.010501
unfold,0.004478
unintend,0.004592
uniqu,0.004645
unit,0.008243
univers,0.042324
unknown,0.002820
unpublish,0.009392
unreach,0.006275
unscientif,0.005010
unusu,0.003302
upper,0.005501
uracil,0.029311
uranium,0.008510
urea,0.004914
urey,0.019186
uridin,0.007062
usag,0.002857
use,0.026712
usual,0.001639
uv,0.037070
uvc,0.047319
va,0.004735
valu,0.001745
van,0.005959
vapor,0.004255
vapour,0.021200
vapourand,0.007886
vapourdomin,0.007886
variabl,0.002490
variant,0.006599
variat,0.012767
varieti,0.002045
variou,0.013956
vent,0.119972
venter,0.012406
venu,0.004122
veri,0.010889
version,0.002382
versu,0.003179
vesicl,0.045693
vial,0.006485
view,0.003491
viorea,0.007886
viral,0.013406
virocel,0.007886
virtual,0.008081
viru,0.008301
virus,0.012219
visibl,0.006021
vivum,0.007263
vm,0.005989
volcan,0.031264
volcano,0.004028
volcanogen,0.007886
voltag,0.004444
vulgar,0.005250
w,0.013713
wa,0.082649
wall,0.008652
walter,0.003249
ward,0.008336
warm,0.017405
wash,0.004263
washington,0.002999
water,0.073543
wavelength,0.004126
way,0.010195
wchtershus,0.047317
weakli,0.004658
week,0.002862
went,0.002498
western,0.010245
wet,0.004066
wettingdri,0.007886
wherea,0.004727
wholli,0.003963
wide,0.001754
widespread,0.002617
wild,0.003494
william,0.004365
wind,0.003236
window,0.007656
wish,0.006023
woes,0.006136
woodljungdahl,0.007886
word,0.013235
work,0.012018
world,0.037287
write,0.002129
written,0.002156
wrote,0.002320
xanthin,0.006697
xray,0.003715
y,0.005801
year,0.030244
yellowston,0.006439
yield,0.018627
young,0.005058
zachari,0.006275
zinc,0.004291
zircon,0.012627
zn,0.033277
znworld,0.031544
zonal,0.006074
zone,0.002815
