absenc,0.004504
absolut,0.004156
absorpt,0.005964
abund,0.014908
accept,0.003076
accord,0.002450
accuraci,0.005314
acoust,0.006845
action,0.012043
activ,0.004890
address,0.003690
advanc,0.003026
advers,0.005739
affair,0.004051
affect,0.006404
age,0.003068
agent,0.008356
agricultur,0.003642
agrochemistri,0.009355
agroecosystem,0.009316
agrophys,0.018957
air,0.003764
algorithm,0.004912
allembrac,0.017609
alloy,0.006818
alreadi,0.003569
analysi,0.011815
analyt,0.008934
ancient,0.003550
andor,0.004288
ani,0.002159
anim,0.003429
anoth,0.002356
appar,0.004183
appli,0.015717
applic,0.026338
approach,0.002820
approxim,0.003339
aqueou,0.007214
aquif,0.008652
arbitrari,0.010582
area,0.009735
arrang,0.003994
articl,0.002912
artifici,0.008276
aspect,0.009661
assembl,0.003825
assist,0.003653
associ,0.002393
assum,0.006789
asteroid,0.028323
astrochemistri,0.008628
astrodynam,0.009170
astrolog,0.014177
astrometri,0.009478
astronom,0.022070
astronomi,0.060519
astrophys,0.006980
atmospher,0.110408
atmosphericterrestrialaquat,0.009395
atom,0.055702
averag,0.003660
background,0.012625
ballist,0.007690
bang,0.006603
base,0.002135
basic,0.014862
batch,0.007845
becaus,0.002224
behavesbranch,0.010699
behavior,0.024261
behaviour,0.004555
beverag,0.007041
big,0.004473
biochem,0.012149
biochemistri,0.035237
biogeographi,0.007214
bioinorgan,0.009037
biolog,0.084103
biomechan,0.007484
bioorgan,0.009170
biophys,0.019658
biospher,0.012320
block,0.004401
bodi,0.026684
bond,0.012660
brackish,0.008726
branch,0.163392
breakag,0.008628
broad,0.003968
broadli,0.004946
broken,0.004926
build,0.006253
burgeon,0.007392
burst,0.006655
c,0.002827
carbon,0.004823
carbonbas,0.008291
cartographi,0.007484
caus,0.002641
cave,0.005950
cavitationrel,0.009614
celesti,0.050185
cell,0.004255
centr,0.008138
centuri,0.002541
certain,0.002708
chang,0.020079
character,0.003753
characterist,0.013643
charg,0.003818
chemic,0.192175
cheminformat,0.009662
chemist,0.005687
chemistri,0.355661
chemoinformat,0.009135
chiefli,0.006416
classic,0.003269
classif,0.004366
climat,0.016902
climatolog,0.022391
cloud,0.011320
cluster,0.005429
coast,0.004516
coastal,0.010790
combin,0.002822
comet,0.028042
common,0.002393
commonli,0.006573
complex,0.002896
compon,0.013634
compos,0.003754
composit,0.041031
compound,0.040138
comput,0.019677
concentr,0.003873
concept,0.013810
concern,0.041680
condens,0.017180
condit,0.002769
conduct,0.006784
conductor,0.014276
configur,0.005467
confin,0.005314
confus,0.004454
consequ,0.003365
conserv,0.007857
consid,0.002308
constant,0.011804
constitu,0.004634
construct,0.006129
contain,0.002839
content,0.003905
continu,0.004796
continuum,0.005907
contrast,0.006686
control,0.002629
convect,0.007392
convers,0.004083
convert,0.004034
coordin,0.004195
copernicu,0.007392
copper,0.005496
correl,0.004613
cosmic,0.018165
cosmochemistri,0.008581
cosmolog,0.011573
coupl,0.004580
cover,0.003258
crack,0.006586
creat,0.007263
criteria,0.004956
critic,0.002911
crude,0.006215
crust,0.006591
cryogen,0.017117
crystal,0.011105
crystallographi,0.007163
cultur,0.002976
current,0.002533
curricula,0.007402
cycl,0.008115
dataset,0.007277
deal,0.044640
decay,0.005442
defin,0.002716
definit,0.003129
degrad,0.011356
deriv,0.003009
describ,0.012181
design,0.008721
desir,0.003725
destini,0.007049
detect,0.004346
develop,0.011877
differ,0.010491
disciplin,0.025530
discoveri,0.003707
discret,0.009336
displac,0.005078
distinct,0.006096
distribut,0.019595
draw,0.004057
drug,0.023341
dynam,0.033397
earth,0.164609
earthquak,0.012071
ecolog,0.004490
econom,0.005215
econophys,0.008887
ecospher,0.009436
ecosystem,0.010809
effect,0.018520
elast,0.005968
electr,0.007880
electroanalyt,0.010122
electrochemistri,0.016166
electrod,0.007241
electrolyt,0.015213
electromagnet,0.016027
electron,0.015950
element,0.021214
embrac,0.005375
empir,0.003325
energi,0.056711
engag,0.003773
engin,0.017170
ensur,0.003914
enterpris,0.004485
entir,0.003090
entiti,0.004043
environ,0.018952
environment,0.057466
equilibrium,0.004980
eros,0.006426
especi,0.005534
essenti,0.003312
evapor,0.006673
event,0.003101
evid,0.003249
evolut,0.011607
evolv,0.003911
examin,0.003729
exampl,0.006402
exchang,0.003368
exclus,0.008141
exist,0.004739
experi,0.002930
explain,0.006415
explan,0.004194
explor,0.003630
explos,0.005282
extern,0.001863
extragalact,0.008945
extrem,0.003418
f,0.003510
featur,0.009668
femtochemistri,0.018632
femtosecond,0.009241
fertil,0.009990
field,0.033830
flavor,0.014555
flow,0.015010
fluctuat,0.005321
fluid,0.010045
flux,0.006268
focu,0.003495
focus,0.006634
fog,0.008273
follow,0.010191
food,0.003667
forc,0.030648
forecast,0.005614
form,0.019477
formal,0.003188
format,0.017377
formul,0.004080
fossil,0.005522
freshwat,0.020204
function,0.007826
fundament,0.009789
ga,0.008574
galact,0.007561
galaxi,0.038057
gamma,0.006291
gase,0.005681
gener,0.010986
geocentr,0.007959
geochem,0.007690
geochemistri,0.038828
geodesi,0.007859
geograph,0.004144
geographi,0.028142
geoinformat,0.009522
geolog,0.073044
geomorpholog,0.022454
geophys,0.026670
geoscienc,0.007539
geostatist,0.009037
glacier,0.006661
glaciolog,0.008450
globe,0.005802
govern,0.004846
grade,0.005943
grapeharvest,0.009614
gravit,0.005699
graviti,0.011110
ground,0.003707
groundwat,0.008020
group,0.004597
grow,0.003267
ha,0.006796
heat,0.031452
heliocentr,0.015100
henc,0.003975
histori,0.623975
host,0.004659
howev,0.004136
human,0.009819
humid,0.006785
hurrican,0.006805
hydrocarbon,0.006591
hydrogeolog,0.017951
hydrolog,0.020261
hydrospher,0.015307
hypothes,0.005066
ice,0.011116
idea,0.002859
identif,0.005019
identifi,0.003080
ignor,0.004419
immun,0.005577
immunochemistri,0.009316
impact,0.003492
implement,0.003547
import,0.002173
imposs,0.004308
inact,0.006643
includ,0.037146
incorpor,0.003499
individu,0.002628
inevit,0.011228
influenc,0.008419
inform,0.005066
infrastructur,0.004314
inhabit,0.004429
inland,0.006114
inorgan,0.023830
instrument,0.007847
integr,0.003075
interact,0.047689
interconvers,0.009205
interdisciplinari,0.020951
interfac,0.038830
intermolecular,0.008291
interrel,0.006219
interrelationship,0.007412
intersect,0.005742
investig,0.003570
involv,0.029642
ionic,0.007049
ioniz,0.006741
isotop,0.030863
k,0.007726
kinemat,0.007097
kinet,0.023070
knowledg,0.003204
land,0.006448
landform,0.007873
largestscal,0.009614
lava,0.007765
law,0.023097
lead,0.002541
led,0.002749
life,0.019169
lifebear,0.009764
light,0.017560
like,0.004550
limit,0.002601
limnolog,0.015746
link,0.001852
liquid,0.004566
liquidga,0.009278
list,0.009475
lithospher,0.015531
live,0.019280
load,0.005845
longterm,0.004482
loss,0.003725
low,0.003264
machin,0.004113
macromolecul,0.007287
macroscop,0.006102
magma,0.008004
magnet,0.005000
main,0.002696
major,0.011299
make,0.002166
manag,0.003050
mani,0.009626
manipul,0.009121
manner,0.004111
map,0.007793
marin,0.014629
market,0.003188
mass,0.010480
materi,0.035820
mathemat,0.026789
matter,0.073697
mean,0.004691
measur,0.011160
mechan,0.075496
mechanochemistri,0.009436
medic,0.003922
medicin,0.016245
mercuri,0.006273
metal,0.013300
metallurgi,0.006936
meteor,0.007432
meteorit,0.007944
meteorolog,0.031231
method,0.026381
microbiolog,0.006679
microwav,0.006995
milki,0.015260
millennium,0.005316
miner,0.004716
mineralog,0.007250
mixtur,0.005325
model,0.015920
modern,0.002555
molecul,0.041396
molecular,0.048975
momentum,0.005599
monitor,0.004606
monom,0.008116
moon,0.033283
motion,0.047281
mountain,0.004582
movement,0.008811
multidisciplinari,0.019115
nanotechnolog,0.006908
natur,0.063673
nebula,0.014886
necessarili,0.004169
nervou,0.005832
neuroact,0.009395
neurochem,0.009170
neurochemistri,0.008628
neuron,0.006224
neurophys,0.009278
neurotransmitt,0.007443
new,0.001902
newton,0.005378
newtonian,0.006591
nicolau,0.007653
nonliv,0.014360
nonmolecular,0.009478
nonradioact,0.008887
notabl,0.003268
note,0.004911
novel,0.004714
nuclear,0.026115
nuclei,0.006126
nucleu,0.005642
number,0.002130
numer,0.003155
obey,0.006078
object,0.023295
observ,0.005622
occur,0.010825
ocean,0.026300
oceanographi,0.035168
oenolog,0.009316
oil,0.004251
onli,0.001960
oper,0.002687
optic,0.015373
order,0.009389
organ,0.053439
organometal,0.007915
origin,0.018885
outlin,0.029023
outsid,0.012998
oxidationreduct,0.009567
paleoclimatolog,0.008701
paleontolog,0.007018
parasit,0.006305
parasitolog,0.017256
particl,0.032051
particul,0.007618
particular,0.002666
particularli,0.002987
pedogenesi,0.009205
pedospher,0.008558
peer,0.005939
peopl,0.002348
percept,0.004533
period,0.002530
petrochemistri,0.009278
petroleum,0.005475
petrolog,0.009006
pharmaceut,0.017408
pharmacolog,0.019949
phase,0.024577
phenomena,0.073207
photochem,0.008604
photochemistri,0.008831
physic,0.284303
physicist,0.010083
phytochem,0.009069
phytochemistri,0.009205
place,0.007226
planck,0.012934
planet,0.067661
planetari,0.024426
planetlik,0.009316
plant,0.003698
plasma,0.006241
point,0.004941
polym,0.044808
polymeris,0.009316
popul,0.009092
portion,0.004280
posit,0.010097
practic,0.007840
precipit,0.005616
precis,0.004023
predict,0.007147
prehistor,0.005904
prepar,0.007922
presentday,0.005486
pressur,0.003676
primari,0.003224
princip,0.003815
principl,0.038117
problem,0.020898
proceed,0.004470
process,0.041564
produc,0.005082
product,0.015274
promin,0.003830
propag,0.005442
properti,0.068021
psychophys,0.008004
purpos,0.006354
pursuit,0.005507
qualiti,0.007278
quantif,0.006980
quantifi,0.005488
quantit,0.022690
quantum,0.029559
question,0.003067
quit,0.004127
radiat,0.034242
radioact,0.029971
radiochemistri,0.018075
rang,0.002932
rapidli,0.004117
rate,0.003026
raw,0.015160
ray,0.005291
reaction,0.079444
reactiv,0.005835
realm,0.004893
recogn,0.003321
redox,0.007805
refer,0.009294
reflect,0.003329
regard,0.002972
region,0.002774
rel,0.011110
relat,0.020886
relationship,0.008870
remedi,0.006126
repeat,0.004471
represent,0.003908
research,0.010052
resourc,0.006272
respect,0.002946
review,0.003471
rigid,0.005764
rock,0.014553
rocket,0.006580
role,0.005427
roughli,0.004345
rule,0.002827
run,0.003404
russian,0.004535
saw,0.003790
scale,0.010518
school,0.003151
scienc,0.218855
scientif,0.052993
scientist,0.010627
second,0.002542
seismolog,0.016402
semiconductor,0.006760
sens,0.003187
sensat,0.006314
separ,0.005660
set,0.002399
shape,0.011076
share,0.003018
shear,0.007277
shock,0.005296
short,0.003303
shortterm,0.005631
similar,0.002574
sinc,0.004311
size,0.003357
sky,0.006131
social,0.005485
sociolog,0.005108
soil,0.058619
solar,0.030856
solid,0.027801
solidga,0.009355
solidliquid,0.009278
solidst,0.015380
solidvacuum,0.009478
solut,0.007377
solv,0.015871
someon,0.005036
someth,0.004145
somewhat,0.009141
sonic,0.008236
sonochemistri,0.018556
sonoluminesc,0.009395
sound,0.009078
sourc,0.008135
space,0.023267
spacecraft,0.006799
spacetim,0.006580
span,0.004980
spatial,0.015120
spatiotempor,0.008536
speci,0.007930
special,0.002696
specialti,0.006122
specif,0.002579
spectroscopi,0.012893
spectrum,0.005098
speleolog,0.010509
spheric,0.012592
stabl,0.004242
star,0.023906
state,0.009432
static,0.011029
statist,0.007074
stellar,0.007232
stereochemistri,0.008388
stimuli,0.006597
storm,0.006039
strain,0.005358
stream,0.005167
stress,0.008842
stresscorros,0.009614
strict,0.005009
structur,0.040303
studi,0.250627
subatom,0.013704
subbranch,0.008273
subfield,0.016649
subject,0.002742
subsequ,0.003364
substanc,0.027195
subsystem,0.007528
subunit,0.007241
sulfur,0.006338
sun,0.004782
supernova,0.007583
supramolecular,0.008471
surfac,0.019518
sustain,0.004217
synthesi,0.024066
synthet,0.010694
systemat,0.004118
taken,0.003156
techniqu,0.006626
technolog,0.003108
tecton,0.006825
temperatur,0.013075
term,0.012223
testabl,0.007113
th,0.002472
theoret,0.003535
theori,0.022743
thermochemistri,0.008604
thermodynam,0.033202
thermomet,0.007791
thi,0.003225
threedimension,0.005921
thunderstorm,0.008804
time,0.011445
timescal,0.006995
timevari,0.008166
togeth,0.005945
tool,0.003452
topic,0.006841
topographi,0.007033
tornado,0.008652
torquemo,0.010122
toxicolog,0.008051
transfer,0.011067
transform,0.010587
transit,0.003753
transpir,0.007989
tri,0.003393
tribolog,0.009205
turn,0.005961
umbrella,0.006421
understand,0.002926
understood,0.004046
unintend,0.014537
univers,0.020096
universea,0.010055
use,0.033470
user,0.004782
usual,0.007783
valid,0.004116
valuabl,0.005061
vari,0.003178
variabl,0.003941
variat,0.004041
variou,0.009817
vehicl,0.014685
veloc,0.005669
veri,0.002462
verifi,0.005449
vibrat,0.006291
view,0.005526
vinegrow,0.009614
viticultur,0.009170
volcano,0.012753
volcanolog,0.017556
wa,0.001767
water,0.016628
watersh,0.013858
wave,0.026086
way,0.009220
weather,0.026434
weight,0.004345
wet,0.006436
wind,0.005122
wine,0.006066
winemak,0.008831
word,0.002992
work,0.010567
