age,0.030190
ago,0.046712
aid,0.036164
aim,0.034423
analysi,0.029060
anim,0.067485
associ,0.023549
avail,0.029468
basi,0.030027
becaus,0.021881
biodivers,0.060235
build,0.030759
burial,0.066072
chang,0.021948
choic,0.038253
clarifi,0.058716
close,0.026050
commun,0.050919
complex,0.056984
concentr,0.038104
conserv,0.077302
consider,0.032722
current,0.024928
cycl,0.039916
d,0.031522
data,0.062151
death,0.034103
decisionmak,0.056128
deeper,0.058186
degre,0.031888
diagenesi,0.098306
difficult,0.033961
dig,0.072628
distort,0.054980
divers,0.074902
dynam,0.036506
earthscienc,0.109965
ecolog,0.132533
ecosystem,0.159519
enclos,0.063673
environ,0.155379
environment,0.075378
epoch,0.133904
evolut,0.076125
extern,0.018331
factor,0.059448
field,0.025601
focus,0.032633
food,0.036078
fossil,0.326004
fox,0.064573
glacial,0.073952
glaciat,0.080007
ha,0.016715
hard,0.041143
help,0.054887
histor,0.028159
holocen,0.078598
ice,0.054680
identifi,0.030303
illumin,0.058897
import,0.021380
inde,0.042624
inform,0.024921
interact,0.062554
interpret,0.100330
involv,0.024301
journal,0.032242
known,0.020944
life,0.053880
link,0.036446
live,0.054195
lost,0.036418
ma,0.052933
make,0.021310
mani,0.037882
manner,0.040443
marin,0.047973
measur,0.027447
million,0.032915
model,0.026103
natur,0.022371
nich,0.063419
normal,0.033402
numer,0.031045
occupi,0.042010
older,0.043975
organ,0.045715
origin,0.023223
palaeoclimatolog,0.097710
palaeoecolog,0.413545
palaeogeographi,0.185669
paleoecolog,0.265809
paleoecologist,0.114958
paleoenviron,0.107413
paleontolog,0.069045
paleostatist,0.114958
past,0.066487
pd,0.082527
peerreview,0.067017
period,0.024899
pleistocen,0.076526
point,0.024307
polici,0.031011
pollen,0.072339
possibl,0.024509
postmortem,0.088603
practic,0.025709
preindustri,0.079052
previous,0.036632
process,0.045433
public,0.024200
quantit,0.044644
quaternari,0.151796
reconstruct,0.238789
record,0.032123
refer,0.015239
relationship,0.029090
remain,0.025204
repres,0.024999
research,0.024723
review,0.034147
sediment,0.067413
seed,0.054073
shell,0.051294
solar,0.050592
spelt,0.097710
stage,0.037039
state,0.018558
statist,0.034796
studi,0.134488
subfossil,0.106293
substrat,0.064410
suppli,0.034576
tackl,0.065303
taphonomi,0.097139
taxonom,0.068821
taylor,0.053368
teeth,0.066758
temperatur,0.042877
therefor,0.028828
thi,0.015864
timelin,0.049924
today,0.030469
tri,0.033384
understand,0.057580
use,0.051991
vertebr,0.063022
wilson,0.052980
wisconsinweichseldevensianwrm,0.114958
woosteredu,0.122792
year,0.064215
