absenc,0.013783
absorpt,0.018250
addit,0.007584
adenoma,0.035171
advanc,0.009260
affect,0.048986
afflict,0.023309
age,0.046946
agerel,0.085164
allel,0.513450
alway,0.010081
appar,0.012799
aris,0.012231
ascertain,0.064776
aspect,0.009853
assess,0.012770
associ,0.051268
attribut,0.046619
autosom,0.081579
becaus,0.006805
behavior,0.010604
bia,0.068954
biolog,0.010721
blood,0.014722
brca,0.092910
breast,0.088735
cancer,0.083258
carri,0.029282
case,0.015140
caus,0.040407
challeng,0.010815
character,0.011484
chromosom,0.019677
cirrhosi,0.030040
clinic,0.063165
clinician,0.023760
codomin,0.031641
cofactor,0.025257
common,0.007322
commonli,0.010056
commun,0.007918
complet,0.033454
concentr,0.011850
concept,0.008450
condit,0.059313
consensu,0.015105
constitut,0.009561
controversi,0.011933
cumul,0.019221
cy,0.029274
cya,0.039441
deem,0.016389
definit,0.009575
degre,0.029752
demonstr,0.010885
determin,0.033640
develop,0.024226
die,0.011603
diet,0.017906
differ,0.012840
difficult,0.021124
dilemma,0.020549
direct,0.008041
diseas,0.114171
diseasecaus,0.086616
disord,0.031222
distinguish,0.010751
domin,0.039862
easier,0.015611
easili,0.012491
elev,0.032534
endocrin,0.023309
environment,0.082051
epigenet,0.117274
essenti,0.010135
evalu,0.012633
everi,0.009123
evid,0.009942
examin,0.011411
exampl,0.039178
excess,0.014090
exhibit,0.013763
exist,0.007250
express,0.066126
extern,0.005701
face,0.010943
factor,0.036978
fairli,0.016514
famili,0.010095
favor,0.012042
feed,0.016737
femal,0.014638
form,0.005959
forth,0.015848
frequenc,0.029798
gene,0.151275
gener,0.005602
genet,0.105938
geneticist,0.023800
genom,0.035410
genotyp,0.022410
given,0.007819
ha,0.015595
height,0.015544
hemochromatosi,0.035171
hereditari,0.055978
herit,0.047520
hfe,0.035753
high,0.007894
highli,0.061581
histori,0.006493
homozygot,0.087006
human,0.015022
hyperplasia,0.033406
illustr,0.013295
imprint,0.022618
incomplet,0.067957
individu,0.064333
infer,0.014982
influenc,0.025761
inherit,0.014457
intellig,0.012164
intestin,0.022468
investig,0.010924
iron,0.041889
isletcel,0.037218
known,0.006513
latemiddl,0.039441
lethal,0.022468
level,0.007794
lifetim,0.016690
like,0.013923
link,0.005667
liver,0.020455
loci,0.023381
low,0.039955
mani,0.029454
manner,0.012578
matern,0.020822
measur,0.017072
medic,0.024004
men,0.024170
mendelian,0.024219
menin,0.036424
modifi,0.050867
multifactori,0.032735
multipl,0.010024
mutat,0.199062
nearli,0.011351
neoplasia,0.035753
neurofibromatosi,0.035171
notic,0.014792
nutrit,0.018721
occasion,0.014702
onli,0.017997
onset,0.020049
organ,0.007108
ovarian,0.030573
pancreat,0.026547
parathyroid,0.033057
particular,0.016315
particularli,0.009139
patern,0.023345
patient,0.015874
penetr,0.626762
person,0.017056
phenotyp,0.060248
physiolog,0.015351
pituitari,0.029417
polygen,0.090632
polymorph,0.044820
possibl,0.007622
pregnanc,0.021714
presenc,0.045206
present,0.014945
principl,0.008971
produc,0.015551
proport,0.037069
q,0.016737
quantit,0.013884
reason,0.008506
recess,0.016964
reduc,0.017958
refer,0.004739
regul,0.033662
relat,0.006390
reliabl,0.014172
respons,0.008220
result,0.006602
risk,0.081635
said,0.019476
seek,0.021271
sever,0.020630
shown,0.011430
simpl,0.010481
simpli,0.010763
singl,0.008827
smoke,0.039200
statist,0.010822
studi,0.027884
subject,0.008391
symptom,0.150170
therefor,0.008965
thi,0.019735
total,0.009203
track,0.014594
trait,0.109406
treatment,0.012134
tutori,0.021865
type,0.015861
typic,0.008849
use,0.005389
variant,0.031958
wa,0.005408
women,0.012554
year,0.006657
