abil,0.008809
abund,0.012985
acid,0.019351
agent,0.005458
ago,0.006203
alfalfa,0.013511
alga,0.203724
algal,0.011336
allow,0.003183
amyloplast,0.030038
andor,0.005602
angiosperm,0.023375
ani,0.002821
anim,0.004481
annu,0.025249
anoth,0.006158
antiparasit,0.015019
apicomplexa,0.016307
apicomplexan,0.015553
apicoplast,0.016307
apparatu,0.007968
appear,0.007416
approxim,0.004363
argu,0.004259
associ,0.003127
b,0.004240
believ,0.003992
bhattacharya,0.025655
billion,0.005483
binari,0.007709
biocontain,0.016842
biol,0.024769
biolog,0.004578
biosynthesi,0.010232
biosynthet,0.012122
biparent,0.015019
birki,0.016842
block,0.005750
bodi,0.003873
bound,0.005776
brassica,0.013978
build,0.004085
capabl,0.005091
capac,0.010719
carri,0.008336
case,0.003232
caus,0.006901
cell,0.088969
centr,0.005316
chain,0.005776
chan,0.009923
chang,0.005829
chapter,0.006025
chemic,0.004923
chlorarachniophyt,0.015553
chlorophyl,0.011124
chloroplast,0.164008
chromoplast,0.030534
circular,0.015070
close,0.003459
coexist,0.008172
coextra,0.016307
color,0.006441
colour,0.007380
colourless,0.013138
common,0.003126
commonli,0.004294
compar,0.003824
complet,0.007142
complex,0.018919
compon,0.004453
composit,0.005360
compound,0.005826
conclus,0.005761
confin,0.006943
contain,0.051938
continu,0.003133
contrast,0.004368
control,0.003435
controversi,0.005095
convert,0.005271
coordin,0.005481
copi,0.018703
coregul,0.014427
creat,0.003163
cross,0.005644
cryptomonad,0.014265
cryptosporidiosi,0.016842
cryptosporidium,0.015553
cultur,0.003888
cuticl,0.012441
cw,0.012222
cx,0.012275
cyanobacteri,0.013730
cyanobacteria,0.021339
cytosol,0.022191
d,0.008372
depend,0.006824
depth,0.006789
deriv,0.007864
detect,0.005679
determin,0.003591
develop,0.015517
differ,0.013707
differenti,0.026181
digest,0.015802
dinoflagel,0.024550
diseas,0.005417
dismantl,0.009062
diversif,0.008590
divid,0.008201
divis,0.004482
dna,0.033370
doiannurevgenet,0.016842
doijxx,0.014800
doublemembran,0.015019
doublestrand,0.011095
drug,0.006099
dure,0.005953
easi,0.006323
ed,0.004358
educ,0.003966
elaioplast,0.015553
ellerstrm,0.016842
elysia,0.016307
emerg,0.003990
enabl,0.004937
encod,0.015163
endosymbios,0.015267
endosymbiosi,0.023699
endosymbiot,0.033913
energi,0.004358
engulf,0.022026
entir,0.004038
envelop,0.018144
epicuticular,0.015892
epiderm,0.012976
errat,0.010478
essenti,0.004328
etioplast,0.032615
euglenid,0.015267
eukaryot,0.042879
evid,0.004245
evolut,0.005055
evolutionari,0.012268
evolv,0.005110
exampl,0.005576
exist,0.003096
express,0.008067
extend,0.008213
extens,0.004204
extern,0.002434
ezcurra,0.015892
f,0.004586
fat,0.008525
fate,0.007861
father,0.005473
fatti,0.009557
femal,0.006250
fewer,0.006602
fission,0.009449
fixat,0.009607
floridean,0.015553
flower,0.015121
fluoresc,0.009072
follow,0.002663
food,0.004791
form,0.012723
fraction,0.006516
function,0.013634
gamet,0.010268
gene,0.051678
gener,0.004784
genet,0.005654
genom,0.022681
genu,0.016818
gerontoplast,0.016307
gi,0.009315
given,0.003339
glaucocystophycean,0.016842
glaucocystophyt,0.016842
glaucophyt,0.030038
gm,0.010785
gondii,0.013850
gould,0.009908
grana,0.015019
granul,0.011539
graviti,0.007258
greek,0.009428
green,0.034352
gymnosperm,0.011936
ha,0.004439
haptophyt,0.015019
harbor,0.008331
harvest,0.007380
heme,0.013055
heterokont,0.015019
homologu,0.012171
hornwort,0.013224
howev,0.008105
human,0.003207
hybrid,0.013911
hybridis,0.023615
imag,0.005126
import,0.002839
includ,0.009244
inherit,0.061735
inner,0.013385
instead,0.003899
interconnect,0.008048
intern,0.002917
interspecif,0.023962
intraspecif,0.012275
involv,0.003227
isbn,0.003935
j,0.008361
keel,0.010785
kilobas,0.013617
klept,0.015553
kleptoplasti,0.016307
known,0.002781
l,0.004899
lagasca,0.016842
larg,0.008800
law,0.003353
layer,0.006407
leav,0.004713
leucoplast,0.065231
life,0.003577
light,0.004588
like,0.005945
lineag,0.008238
link,0.002420
local,0.003769
locat,0.008184
lond,0.013850
long,0.007227
longer,0.004590
loss,0.009736
lost,0.014509
m,0.007960
main,0.003523
mainli,0.004620
maintain,0.003880
major,0.005905
malaria,0.009953
male,0.006242
mani,0.012577
manufactur,0.005307
materi,0.003900
matern,0.008891
matur,0.012952
mcfadden,0.013511
mechan,0.004109
medicago,0.015553
membran,0.039405
meristemat,0.013730
mesophyl,0.014265
metabol,0.007376
miss,0.007020
mitochondria,0.010079
mitochondrion,0.012561
model,0.003466
modif,0.006615
modifi,0.005430
mold,0.009508
molecul,0.018028
monoterpen,0.016842
morpholog,0.015249
multipl,0.004280
muroplast,0.032615
napu,0.016307
natur,0.002971
necessari,0.008870
new,0.002485
nongm,0.016842
nonphotosynthet,0.042349
normal,0.013308
novel,0.006159
nuclear,0.011373
nucleoid,0.090305
number,0.005568
numer,0.004123
oblig,0.006145
occur,0.007071
octob,0.004812
onli,0.010247
organ,0.006071
organel,0.038844
origin,0.018505
outsid,0.004245
oxygen,0.006776
p,0.008496
palisad,0.012624
palmit,0.014604
parasit,0.016476
parent,0.018802
particl,0.005982
particular,0.006967
particularli,0.003902
parvum,0.016842
pathway,0.007474
pdf,0.006441
pend,0.009392
peptidoglycan,0.012757
peripheri,0.018673
philo,0.011153
photosynthesi,0.070996
photosynthesis,0.014116
photosynthet,0.021251
phycobilisom,0.015892
phylum,0.010809
pigment,0.037304
plant,0.096636
plantspecif,0.016307
plasmodium,0.012827
plast,0.015892
plastid,0.889994
plastom,0.047678
play,0.004018
plural,0.007157
pmid,0.017151
pollen,0.009607
polyphenol,0.013224
polytomella,0.033685
possess,0.010002
possibl,0.003255
predecessor,0.006958
present,0.006381
presum,0.007123
primari,0.008425
process,0.003016
produc,0.006641
product,0.003326
profit,0.005513
project,0.003948
prokaryot,0.018969
promis,0.005996
proper,0.005725
proplastid,0.077769
protein,0.045382
proteindna,0.014427
proteinoplast,0.016842
protozoa,0.010669
protuber,0.013978
pyrenoid,0.015892
quit,0.005393
r,0.004270
rafflesia,0.032615
rang,0.003830
rapidli,0.005380
rask,0.015892
raw,0.006602
read,0.007030
red,0.039270
redifferenti,0.016307
reduc,0.003834
refer,0.002023
region,0.003624
rel,0.003628
relat,0.005457
remain,0.003347
remodel,0.011212
report,0.003890
repres,0.003320
research,0.003283
respons,0.003510
result,0.008457
retain,0.005322
rev,0.018088
rhodophyt,0.015892
rhodoplast,0.081538
ribonucl,0.012275
ribosom,0.009923
rise,0.004072
rr,0.010785
rrna,0.011807
sativa,0.013850
sb,0.010809
sci,0.010986
scientist,0.004628
sea,0.005164
search,0.005180
secondari,0.011526
senesc,0.011981
setup,0.009473
sever,0.005873
similar,0.006727
sinc,0.005633
singl,0.003769
sitbon,0.016842
site,0.004744
size,0.004386
slug,0.011727
small,0.003446
smaller,0.004789
soc,0.011242
sometim,0.007333
sourc,0.003543
speci,0.005180
special,0.003522
spp,0.011336
springerverlagwein,0.016842
starch,0.040652
start,0.003565
storag,0.020109
store,0.028533
strictli,0.006643
stroma,0.013850
stromul,0.063571
structur,0.009873
suppli,0.004592
surround,0.015475
symbiosi,0.010342
synthes,0.036600
synthesi,0.018866
synthesis,0.010561
tannin,0.013224
tannosom,0.016842
target,0.005244
term,0.002661
terpen,0.013315
thi,0.008427
thief,0.011687
thought,0.003992
thu,0.003292
thylakoid,0.013224
tightli,0.008824
tissu,0.006806
tobacco,0.007936
total,0.003930
toxoplasma,0.013617
toxoplasmosi,0.014265
traceabl,0.011503
tran,0.008642
transcript,0.008318
transfer,0.004820
transgen,0.011013
translat,0.004849
transplastom,0.016307
tree,0.005802
trna,0.011612
type,0.010159
typic,0.003778
ultrastructur,0.013055
undifferenti,0.011013
uniparent,0.014604
unlik,0.004690
unpig,0.015892
use,0.009206
variabl,0.005149
variant,0.006823
variou,0.003206
vast,0.005656
veri,0.003216
view,0.003610
wa,0.002309
wall,0.011928
waller,0.012561
wax,0.009569
wernersson,0.016842
wherea,0.004887
wycliff,0.012384
year,0.002842
yield,0.005502
york,0.004338
young,0.005230
