aberr,0.008627
abl,0.003466
abnorm,0.013661
accompani,0.005306
accord,0.002744
accumul,0.005265
accur,0.004676
acipens,0.014438
actual,0.003512
adapt,0.004370
addit,0.005553
adren,0.010434
aegilop,0.040001
affect,0.003586
age,0.003437
ago,0.005318
agricultur,0.012238
aid,0.004117
aka,0.007481
albertin,0.025039
alga,0.015186
allel,0.008172
allomyc,0.014438
allopolyploid,0.193129
allopolyploidi,0.055920
allotetraploid,0.072192
allotriploid,0.014438
altern,0.003526
alveolata,0.013624
amphibian,0.024302
analysi,0.006616
ancestor,0.023595
ancestr,0.014350
ancestri,0.007536
ancient,0.015906
andean,0.008898
andor,0.009605
aneuploid,0.026667
aneuploidi,0.035021
angiosperm,0.030058
anglica,0.013624
ani,0.002418
anim,0.034574
anneal,0.009586
anoth,0.005279
apomict,0.012367
appar,0.004685
appear,0.009536
appl,0.028589
appli,0.002934
applic,0.003277
aquat,0.014791
arabidopsi,0.009954
archaea,0.008599
archaeon,0.011983
argentea,0.014438
argentina,0.006808
aris,0.017910
aros,0.005450
artifici,0.009269
asexu,0.017668
associ,0.008043
asymmetr,0.007508
attempt,0.003130
autopolyploid,0.120004
autopolyploidi,0.043315
autotetraploid,0.013980
autotriploidi,0.028876
avail,0.003354
award,0.004838
azotobact,0.013088
b,0.025447
bacteria,0.006300
bacterium,0.016814
baker,0.007428
bakeri,0.010478
banana,0.014962
barrera,0.025750
basi,0.003418
basidiomycota,0.013333
becam,0.003024
becaus,0.014947
becom,0.010596
bee,0.007761
befor,0.002826
behav,0.005886
benefici,0.006073
benefit,0.004015
besid,0.005662
best,0.003647
betula,0.012875
bibliographi,0.004813
bind,0.005714
biolog,0.003924
biomedicallyimport,0.014438
birch,0.009488
birth,0.009752
bival,0.032149
block,0.004929
bodi,0.003320
bone,0.012414
brassica,0.023966
brassicac,0.014438
bread,0.023235
break,0.004561
breed,0.013272
bridg,0.005467
brigg,0.009536
brine,0.010053
british,0.003695
brought,0.004079
brown,0.005615
bruxellensi,0.014438
bud,0.008313
cane,0.016122
canola,0.012519
canolarapese,0.014438
care,0.004163
carinata,0.014438
carp,0.010878
case,0.024941
caus,0.008875
cell,0.119171
celosia,0.014438
cereal,0.008172
cerevisia,0.019663
certain,0.006067
chang,0.012494
characterist,0.007640
chemic,0.008440
chimer,0.010665
chinchilla,0.011673
chromalveolata,0.013624
chromosom,0.439396
chromosomeson,0.014438
chrysanthemum,0.011983
citru,0.009071
clear,0.004125
clinic,0.005780
clone,0.007600
close,0.002965
closest,0.006709
coast,0.005058
coincid,0.005962
colchicin,0.035950
cold,0.005283
coldshock,0.013980
combin,0.006321
common,0.042887
commonli,0.033132
communityedit,0.013980
compar,0.006557
complement,0.006536
complet,0.012246
complex,0.006487
concept,0.003093
condit,0.003101
confirm,0.009558
conif,0.009718
consequ,0.007539
consid,0.002585
constitut,0.003500
construct,0.003432
contain,0.028622
content,0.013122
context,0.007799
contribut,0.013015
copi,0.042755
cotton,0.027110
counterpart,0.005944
cress,0.011770
criterion,0.006656
crop,0.065771
cross,0.004838
cultiv,0.005662
cultivar,0.011192
cultur,0.013333
cyathu,0.014438
cycl,0.004544
cyprinid,0.013333
cytogenet,0.022526
cytolog,0.019381
d,0.010766
dahlia,0.026176
daylili,0.013624
death,0.003882
decaploid,0.013980
decreas,0.004365
defin,0.003042
degre,0.003630
deinococcu,0.012101
dekkera,0.014438
depend,0.002925
deriv,0.033707
describ,0.016371
desert,0.006304
desicc,0.019723
desir,0.004172
despit,0.003759
detect,0.009736
develop,0.008868
diagnos,0.014361
diagnosi,0.006726
diagnost,0.007098
diandri,0.057753
diatom,0.008494
die,0.004247
differ,0.002350
differenti,0.008977
difficult,0.003866
digyni,0.072192
diploid,0.251517
diploidtetraploid,0.013980
disom,0.041940
disperm,0.014438
display,0.020153
disrupt,0.005712
distinct,0.006828
distinguish,0.003935
diverg,0.023966
divers,0.004263
diversif,0.007364
divis,0.015369
dna,0.040050
dodecaploid,0.041940
domest,0.004593
domesticu,0.013088
dosag,0.009586
dot,0.007164
doubl,0.019632
doublestrand,0.009512
dubiu,0.014438
duplic,0.087273
dure,0.030623
durum,0.050078
e,0.021554
earli,0.010678
econich,0.014438
educ,0.003400
effect,0.010371
egg,0.051650
embryo,0.029583
employ,0.003540
end,0.002918
endopolyploidi,0.013333
endosperm,0.012101
entir,0.003461
epigenet,0.008586
epulopiscium,0.013088
error,0.005075
erythranth,0.028876
especi,0.012396
establish,0.008545
estim,0.003755
eukaryot,0.044110
event,0.020840
evid,0.003639
evidenc,0.007515
evolut,0.008666
evolutionari,0.042068
exampl,0.052587
exchang,0.003772
exist,0.005308
expect,0.003667
experienc,0.009583
explain,0.003592
exploit,0.004968
explos,0.005916
exposur,0.011863
express,0.003458
extend,0.010561
extens,0.003604
extern,0.002087
extra,0.018338
extrem,0.003828
extrud,0.010478
f,0.007862
fact,0.003388
fail,0.004012
failur,0.013931
faith,0.005335
famili,0.003695
farm,0.005325
fast,0.005463
fate,0.006739
father,0.004692
favor,0.004408
femal,0.010717
fern,0.018035
fertil,0.033567
fetal,0.009090
fetu,0.008712
fetus,0.011192
fetusesinf,0.014438
fish,0.024898
fishelsoni,0.013088
fit,0.004859
fix,0.004236
flatworm,0.011496
flower,0.012962
fold,0.006803
follow,0.009132
form,0.013089
format,0.007785
formerli,0.005346
fragment,0.016839
frequent,0.004012
frog,0.016261
fruit,0.005655
fucal,0.014438
fuel,0.005288
function,0.005844
fungal,0.034184
fungi,0.027635
fuse,0.007026
fusion,0.026609
gamet,0.105633
gametogenesi,0.013088
gametophyt,0.010822
gene,0.044301
gener,0.010254
genet,0.024237
genom,0.110182
genu,0.050462
germplasm,0.013333
gestat,0.009127
ginger,0.010232
goldfish,0.012101
good,0.003173
gossypium,0.012687
gradual,0.009175
graft,0.009287
grass,0.007191
greek,0.004041
group,0.002574
grow,0.003659
grown,0.010992
guinea,0.006739
gurdon,0.025375
guttata,0.013333
ha,0.013321
hail,0.007667
haldan,0.008898
halobacterium,0.013088
haploid,0.056374
haploiddiploid,0.012519
haplotyp,0.010350
har,0.007957
harmless,0.009017
harsh,0.006790
heart,0.010477
heat,0.005032
hemeroc,0.014438
henc,0.004453
heptaploid,0.013980
heterot,0.011873
heterozygos,0.024203
hexaploid,0.050078
hibiscu,0.012367
hierarchi,0.005815
high,0.011559
highli,0.026300
hirsutum,0.014438
histori,0.011885
homeolog,0.013980
homoeallel,0.014438
homoeolog,0.144384
homolog,0.088146
homologu,0.010434
homoploid,0.013333
howev,0.018530
huge,0.005307
human,0.027496
hundr,0.004336
hybrid,0.107328
hydatidiform,0.013624
hymenoptera,0.011414
hypoplasia,0.013624
impair,0.007415
implant,0.007729
import,0.002434
imprint,0.008279
inact,0.007441
includ,0.015849
incorpor,0.003919
increas,0.002744
inde,0.004852
induc,0.033908
induct,0.006320
infer,0.005484
inform,0.002837
inherit,0.031754
inhibitor,0.008931
initi,0.003100
instanc,0.007730
intact,0.007314
interbre,0.010878
intergenom,0.012875
interploidi,0.014438
interspeci,0.021757
introduc,0.003347
introgress,0.011673
invas,0.005204
involv,0.002766
irradi,0.017829
island,0.004230
isol,0.009267
j,0.003584
john,0.003246
jointli,0.006885
juncea,0.014438
karotyp,0.014438
karyotyp,0.032809
kenai,0.013980
kenaica,0.014438
kimbal,0.010194
kin,0.008572
king,0.004545
kingdom,0.003796
kinnow,0.028876
kiwifruit,0.026176
kleptogenesi,0.014438
klerokinesi,0.013980
known,0.011922
label,0.005134
lager,0.012519
laminarial,0.014438
larg,0.007544
later,0.002837
lead,0.019928
leech,0.009664
leek,0.011673
letter,0.004710
level,0.005706
life,0.006134
like,0.007645
lili,0.009802
lineag,0.021186
link,0.002074
live,0.006170
liver,0.022464
lizard,0.008599
local,0.003231
lomatia,0.014438
long,0.003097
longer,0.003935
loss,0.004173
lutea,0.013333
macaroni,0.024203
macromolecul,0.008161
mainland,0.006197
major,0.007593
make,0.004852
male,0.021406
malu,0.011263
mammal,0.006040
mammalian,0.007769
mani,0.025877
mark,0.003830
marrow,0.018332
marullo,0.028876
mate,0.007152
materi,0.003343
matur,0.011103
mean,0.005255
mechan,0.017616
media,0.004376
medic,0.004393
meiosi,0.097174
meiotic,0.042663
member,0.003044
metaphas,0.010936
method,0.002954
microbotryum,0.014438
millennia,0.006951
mimax,0.014438
mimulu,0.014438
minim,0.005035
miru,0.013333
miscarriag,0.051551
miscellu,0.014438
mitosi,0.035593
mitot,0.029960
mix,0.004589
mixoploidi,0.027960
model,0.002971
modif,0.017012
mole,0.017145
monocotyledon,0.012687
monoploid,0.027248
morpholog,0.006536
mosaic,0.007948
mostli,0.008141
mother,0.005498
multicellular,0.015721
multipl,0.007339
multival,0.023165
muscl,0.019850
mustard,0.010569
mutat,0.019873
n,0.055699
napu,0.013980
natur,0.012735
naturalis,0.010822
near,0.003922
nearli,0.004155
neopolyploid,0.028876
new,0.004262
newli,0.005019
nigra,0.011414
nobel,0.005553
nondisjunct,0.012367
nonstem,0.013333
nontru,0.014438
nonvertebr,0.014438
normal,0.015211
novel,0.015841
nuclei,0.020587
nucleu,0.006320
number,0.016707
numer,0.014138
oat,0.009245
observ,0.018892
obviou,0.006026
oca,0.011770
occur,0.048498
octaploid,0.027960
octodontid,0.014438
octomi,0.014438
octomyslik,0.014438
octoploid,0.013980
offspr,0.035792
oleracea,0.014438
ongo,0.005220
onli,0.010980
oocyt,0.021757
oogenesi,0.011873
oomycet,0.011673
opposit,0.003925
organ,0.015614
origin,0.013219
orkney,0.010616
oryza,0.024203
oryzalin,0.028876
otherwis,0.004538
outcom,0.004877
overcom,0.005859
overlap,0.005302
overrepres,0.010122
oxali,0.013624
page,0.004677
paint,0.006059
pair,0.076263
paleopolyploid,0.043315
paleopolyploidi,0.043315
pansi,0.012229
papyrifera,0.013624
paralog,0.024458
paramecium,0.011770
parenchyma,0.011192
parent,0.059103
parentoforigin,0.013980
parthenogenesi,0.011337
partial,0.008777
particular,0.005972
particularli,0.003345
past,0.015139
pastorianu,0.027960
patern,0.008546
path,0.004837
pathogen,0.007675
pathway,0.012814
pattern,0.004070
peanut,0.009225
pelargonium,0.014438
pentaploid,0.013980
peregrina,0.057753
peregrinu,0.011263
period,0.002834
persist,0.005409
pervas,0.007501
phenomenon,0.004913
phenotyp,0.014703
phylum,0.009266
phytophthora,0.012101
pig,0.007114
place,0.002698
placent,0.010232
placenta,0.019491
plain,0.006234
plant,0.091126
ploidal,0.014438
ploidi,0.037103
pluripot,0.010822
point,0.002767
polar,0.005844
polyploid,0.387075
polyploidi,0.268612
polysom,0.013980
polysomi,0.014438
polyspermi,0.014438
poorli,0.006317
popul,0.013577
porrifoliu,0.014438
portal,0.006880
portion,0.004794
possess,0.004287
possibl,0.002790
potato,0.014533
potenti,0.003541
pratensi,0.013333
predomin,0.012481
prefer,0.004189
pregnanc,0.015897
preimplant,0.011337
prenat,0.020106
prepar,0.004437
present,0.008206
preval,0.012047
primarili,0.003739
prize,0.005102
probabl,0.007851
process,0.010345
produc,0.025618
product,0.008554
progeni,0.009185
progenitor,0.009000
progress,0.003728
project,0.003385
prokaryot,0.008130
propag,0.012191
proport,0.004523
protein,0.005557
protoplast,0.012367
provid,0.004854
pseudogen,0.012687
punctual,0.012229
quickli,0.004453
quit,0.009246
radioduran,0.048406
random,0.005218
rang,0.003284
rapa,0.011192
rapid,0.009482
rare,0.036018
rat,0.014521
rate,0.010171
read,0.003013
rearrang,0.014869
recamedi,0.014438
recent,0.012018
recombin,0.028858
reduc,0.006573
redupl,0.013333
redwood,0.010768
refer,0.012145
reflect,0.007457
regener,0.007721
region,0.003107
regulatori,0.006004
rel,0.006221
relat,0.004678
relationship,0.019871
remark,0.005321
remodel,0.009611
repair,0.006176
replic,0.012248
report,0.006669
repres,0.002846
reproduc,0.011772
reproduct,0.023575
reprogram,0.009611
research,0.002814
resist,0.008992
respect,0.003299
restor,0.024534
result,0.033836
reticul,0.011263
reunion,0.009718
review,0.007775
rhizopu,0.013624
rice,0.006543
robertsii,0.028876
rodent,0.017636
rosasinensi,0.013980
roughli,0.004867
round,0.005496
rule,0.003167
ruwenzoriensi,0.014438
rye,0.009395
s,0.004921
saccharomyc,0.050098
said,0.007129
salamand,0.019547
salinarium,0.014438
salmon,0.017544
salmonid,0.013980
salmonida,0.014438
sativa,0.011873
scientist,0.003967
scottish,0.006660
sdsa,0.013980
secal,0.013624
seed,0.012312
seedless,0.047493
seen,0.003404
segment,0.011889
select,0.015091
semperviren,0.013980
septaploid,0.013980
sequenc,0.009633
sequoia,0.012101
set,0.083320
seven,0.004553
sever,0.010069
share,0.003381
shatter,0.017484
shinya,0.012367
shock,0.005931
short,0.003699
shortli,0.005400
shown,0.004184
shrimp,0.008982
shrub,0.008802
signific,0.003082
similar,0.014417
simpli,0.007880
singl,0.009694
singlestrand,0.010087
situat,0.003717
size,0.007520
small,0.002954
somat,0.033726
sometim,0.006286
soughtaft,0.010616
spartina,0.012687
speci,0.119907
speciat,0.077153
specif,0.002889
spell,0.006664
speltoid,0.043315
sperm,0.047802
spermatophor,0.012367
spoilag,0.010768
spontan,0.018722
spore,0.008818
sporophyt,0.011337
sport,0.005734
stabil,0.009006
stabl,0.009504
stage,0.008433
standard,0.003252
start,0.003056
steal,0.007967
stercoreu,0.014438
steril,0.073832
strain,0.012004
strand,0.006885
strawberri,0.020701
strikingli,0.009802
structur,0.005642
studi,0.007655
sturgeon,0.010310
subgenom,0.027960
subsequ,0.007536
success,0.006404
suffer,0.004407
sugar,0.011767
suggest,0.003380
surmis,0.010087
surviv,0.012494
swarup,0.012519
sympatr,0.011263
sympatri,0.013333
synthesisdepend,0.014438
synthet,0.005988
t,0.025208
tadpol,0.011770
tardigrada,0.013624
tasmanian,0.011337
tasmanica,0.014438
taxa,0.058355
taxon,0.009561
techniqu,0.007421
teleost,0.012101
tend,0.003965
term,0.015972
terminolog,0.005686
tetraploid,0.146748
tetraploidi,0.055920
tetrasom,0.014438
tetraurelia,0.014438
thaliana,0.010158
theoret,0.003959
therefor,0.009846
thi,0.028898
thu,0.008468
time,0.008546
tissu,0.023340
tobacco,0.006803
togeth,0.003329
tragopogon,0.014438
trait,0.011442
transcript,0.007131
transcriptom,0.010936
translat,0.004157
transplant,0.008061
transposon,0.010391
treat,0.004228
treatment,0.008884
triangl,0.007142
trigger,0.005874
triploid,0.203717
triploidi,0.069900
tritical,0.050750
triticum,0.050750
trout,0.010665
true,0.003909
truli,0.006051
tuberosa,0.013333
tulip,0.010434
turgidum,0.014438
twelv,0.006369
twice,0.005755
tympanoctomi,0.013980
type,0.008709
typic,0.009718
u,0.005634
unabl,0.005018
unclear,0.006343
underw,0.007006
unequ,0.007501
unexpect,0.007051
unit,0.002435
unknown,0.004999
unlik,0.008042
unreduc,0.103002
unto,0.008697
urartu,0.032990
use,0.027623
usual,0.011623
util,0.004368
var,0.009488
variabl,0.004414
variat,0.022632
varieti,0.007251
variou,0.005497
vast,0.004848
veget,0.005764
veri,0.005515
vertebr,0.014350
viabil,0.008235
vinelandii,0.014438
violaceum,0.013980
virtu,0.006118
viscacha,0.013980
viscacharat,0.014438
vitro,0.008348
vivo,0.008641
wa,0.007919
watermelon,0.031997
weedthal,0.014438
week,0.005075
wheat,0.075536
wherea,0.008380
wholegenom,0.023746
widespread,0.004639
wild,0.012389
wine,0.006795
word,0.006703
work,0.009469
x,0.059857
xenopu,0.044768
xray,0.013171
xxx,0.009611
xxxx,0.010716
yamanaka,0.024203
yeast,0.032284
zygot,0.008865
