abov,0.005671
accident,0.011457
act,0.005062
actin,0.015775
adapt,0.035269
addit,0.022407
age,0.005547
agent,0.007552
aggreg,0.028103
ago,0.017167
al,0.007598
albeit,0.011196
anatomi,0.010403
ancestor,0.019041
ani,0.003904
anim,0.006200
anoth,0.025563
antarctica,0.013206
antibiot,0.012500
anyth,0.008754
appear,0.030784
approxim,0.012073
archaea,0.152677
archaebacteria,0.017849
archaeon,0.038682
archeabacteria,0.023303
argu,0.011785
aros,0.052781
arrang,0.014443
articl,0.005264
asexu,0.014258
aspect,0.005821
assembl,0.006915
associ,0.004327
attach,0.008386
author,0.004987
averag,0.006616
b,0.005867
bacilli,0.018841
bacillu,0.015868
background,0.007607
bacteri,0.231431
bacteria,0.172881
bacteriophag,0.030704
bacteriophagemedi,0.023303
bacterium,0.040708
base,0.003859
basic,0.010746
becaus,0.008041
befor,0.004561
behavior,0.012531
besid,0.009138
billion,0.030347
binari,0.010666
bind,0.009223
biofilm,0.087790
biofilmha,0.023303
biolog,0.012669
biologist,0.009993
biominewiki,0.021124
bodi,0.005359
bridg,0.008824
broad,0.007174
buildingblock,0.017380
carbohydrateenclos,0.023303
carboxysom,0.020477
carl,0.008931
case,0.004472
cell,0.207729
celltocel,0.018555
cellular,0.049492
challeng,0.012780
chang,0.004033
channel,0.008830
chemolithotrophi,0.020206
chemotaxi,0.017748
chloroplast,0.042548
chromosom,0.069755
circular,0.010426
circulatori,0.014015
classif,0.007893
clearli,0.008043
close,0.004786
cocci,0.019737
cold,0.008528
coli,0.014671
collect,0.005218
colon,0.009492
coloni,0.022193
come,0.005116
commashap,0.021520
common,0.008652
commun,0.014035
compact,0.010555
compart,0.013969
compartment,0.016772
compet,0.022129
complex,0.026177
complexitycombin,0.023303
compon,0.006161
compound,0.016124
concern,0.005023
conclus,0.007972
condit,0.010012
conjug,0.073673
consensu,0.008925
consequ,0.006084
consid,0.008345
consider,0.006012
constitut,0.005649
contact,0.007508
contain,0.041064
contemporan,0.013327
continu,0.004335
contrast,0.012088
control,0.009507
controversi,0.007050
cooper,0.013677
cooperationsuch,0.023303
copi,0.017251
critic,0.005263
crust,0.011916
cryobiolog,0.017467
current,0.013741
cyanobacteria,0.014762
cycl,0.007334
cyclic,0.011113
cytoplasm,0.025990
cytoskelet,0.018178
cytoskeleton,0.032343
cytosol,0.015352
damag,0.015443
deal,0.005764
death,0.006266
debat,0.006661
defin,0.004910
depend,0.004721
descend,0.017320
descent,0.010264
develop,0.003578
devot,0.008457
dichotom,0.016772
dichotomi,0.012873
differ,0.015172
differenti,0.014489
diffus,0.009775
direct,0.009502
discret,0.008438
diseas,0.007495
dispers,0.009820
distinct,0.038575
distribut,0.005903
diversifi,0.010836
divid,0.011347
divis,0.012402
dna,0.193922
dnaprotein,0.020206
document,0.006907
domain,0.034940
domeshap,0.020477
donor,0.011220
doublestrand,0.015352
dure,0.012356
e,0.005798
earli,0.008617
earth,0.020288
eas,0.009917
easili,0.007380
elsewher,0.008880
enabl,0.006831
encas,0.016171
enclos,0.023400
endosymbiosi,0.032790
endosymbiot,0.031281
energi,0.012061
enhanc,0.007978
entail,0.020105
enter,0.006297
envelop,0.012552
environ,0.022841
equal,0.005866
error,0.008191
et,0.007404
eubacteria,0.036128
eukarya,0.017558
eukaryot,0.355968
eukaryota,0.035497
eukaryoteprokaryot,0.023303
event,0.016817
evid,0.017622
evolut,0.041965
evolv,0.021212
exampl,0.007716
exchang,0.006089
exist,0.017134
explan,0.007582
exposur,0.009573
express,0.016744
extern,0.003368
extrem,0.012358
extremophil,0.050117
far,0.011682
fission,0.013074
fit,0.015685
flagellin,0.019961
flagellum,0.035303
flat,0.009852
flow,0.006783
focus,0.005996
form,0.028167
format,0.006282
fossil,0.039936
founder,0.008073
freeliv,0.032790
frol,0.022563
ftsz,0.021124
ga,0.007749
gene,0.107254
gener,0.009929
genet,0.023471
genitalium,0.019737
genom,0.010460
greater,0.005801
greatli,0.007543
greek,0.006522
group,0.020775
grow,0.011813
growth,0.005830
ha,0.009214
habitat,0.010743
halobacterium,0.021124
halophil,0.021124
haloquadratum,0.022563
hamilton,0.011432
harsh,0.021920
held,0.005446
helic,0.014182
henc,0.007187
heterogen,0.011580
high,0.013992
higher,0.010952
highli,0.018192
histori,0.003836
hold,0.005548
homolog,0.011855
homologu,0.016841
horizont,0.010622
host,0.042115
hot,0.020287
howev,0.029907
human,0.008875
hydrogen,0.009540
hydrotherm,0.014889
implic,0.008025
import,0.007857
imposs,0.007788
includ,0.012790
inclus,0.009488
incorpor,0.012650
increas,0.004429
individu,0.004751
induc,0.009121
infrequ,0.013901
inhospit,0.015729
inorgan,0.010769
insight,0.008544
instanc,0.006238
instead,0.005395
integr,0.005558
interact,0.005747
interconnect,0.011135
interfac,0.020055
intern,0.004036
interrelationship,0.013399
interven,0.009898
intracellular,0.055431
investig,0.006454
involv,0.008931
issu,0.004942
join,0.006851
karyon,0.045127
kernel,0.013418
known,0.023091
lack,0.017616
laid,0.008692
landbas,0.015352
larg,0.008117
larger,0.006078
later,0.009160
layer,0.008864
lead,0.009189
led,0.004970
length,0.007640
level,0.004605
life,0.019801
like,0.004113
limit,0.004703
line,0.005511
linear,0.008193
link,0.003348
liquidair,0.021989
liquidliquid,0.018997
live,0.024896
locat,0.005662
long,0.005000
m,0.022029
mainli,0.006392
major,0.004085
makeup,0.012302
mani,0.024363
mar,0.010537
mass,0.006315
materi,0.005396
matrix,0.019332
mean,0.004240
mediat,0.009433
medic,0.007091
medicin,0.007341
medium,0.026336
member,0.019652
membran,0.076330
membranebound,0.063100
metabol,0.030618
metabolit,0.014612
methanogen,0.017380
microcoloni,0.064561
microcompart,0.042248
mitochondria,0.069732
mode,0.008669
model,0.009593
molecul,0.008314
molecular,0.008048
morpholog,0.010549
movement,0.005309
mreb,0.021989
multicellular,0.050749
multipl,0.011845
mycoplasma,0.017380
mytholog,0.010769
myxobacteria,0.019961
namibiensi,0.021520
natur,0.012332
ncbi,0.015431
nearli,0.013413
network,0.006437
nuclear,0.007868
nucleat,0.015868
nuclei,0.011075
nucleoid,0.035699
nucleu,0.061205
number,0.003852
numer,0.005704
nut,0.013292
observ,0.005082
obtain,0.005985
occasion,0.008686
occur,0.014676
ocean,0.007924
old,0.006371
oldest,0.016659
onc,0.005753
onli,0.014178
opinion,0.008184
order,0.004243
organ,0.050401
organel,0.094055
origin,0.021336
outlin,0.007495
overal,0.007047
oxid,0.010216
oxygen,0.009375
page,0.007548
partial,0.007083
particl,0.008277
pathogen,0.012387
pattern,0.006569
perform,0.005413
permit,0.007842
ph,0.012197
phagocytosi,0.016577
phenomenon,0.007930
phenotyp,0.011865
phosphoryl,0.015058
photosynthesi,0.036836
phylogeni,0.013836
physiolog,0.027209
piec,0.008503
place,0.013064
planctomycet,0.041561
plankton,0.015023
plant,0.006685
plasmid,0.075118
plasmidmedi,0.021520
point,0.008933
polym,0.011571
pool,0.010082
posit,0.009127
possess,0.013839
possibl,0.004503
potenti,0.005716
present,0.013245
primari,0.005828
primer,0.012771
primit,0.039082
pro,0.012829
process,0.029219
produc,0.004594
product,0.004602
profession,0.007154
program,0.005554
prokaryot,0.669288
prokaryoteeukaryot,0.046607
promot,0.006298
properti,0.005346
propos,0.005447
protein,0.035881
proteinbas,0.020780
protocel,0.018555
prove,0.006814
provid,0.011753
public,0.004446
question,0.005544
quiz,0.016984
quorum,0.015775
quorumsensingmedi,0.023303
radiat,0.008843
rank,0.007455
rate,0.010943
ratio,0.007963
recombin,0.034932
record,0.005902
refer,0.005600
reflect,0.012036
related,0.015023
relationship,0.005345
remain,0.004631
remov,0.006465
repair,0.009969
replac,0.005706
replic,0.009884
repres,0.004593
reproduc,0.009500
reproduct,0.019025
requir,0.004408
research,0.009086
resist,0.007256
respons,0.004857
result,0.007801
reveal,0.007366
review,0.006274
ribosom,0.041190
rnaprotein,0.021989
rodshap,0.019737
role,0.004905
rule,0.010223
s,0.003971
salin,0.013511
scale,0.006338
scheme,0.008428
scienc,0.004709
seek,0.006283
seen,0.005494
seldom,0.012715
selfish,0.013123
sens,0.005762
separ,0.020464
seriou,0.007844
set,0.008676
shape,0.013349
shell,0.009425
shorter,0.009969
signal,0.016115
signific,0.004975
similar,0.009307
simpli,0.006359
simplif,0.012814
simultan,0.016334
sinc,0.003897
singl,0.020862
size,0.018207
skeptic,0.010264
slime,0.016015
smaller,0.013253
snow,0.012074
social,0.009915
solfataricu,0.045127
solid,0.008376
space,0.006008
span,0.009003
speci,0.035838
special,0.009748
specif,0.004663
spectrum,0.009216
specul,0.008108
spheric,0.011381
spiralshap,0.021124
spirochaet,0.020780
spring,0.008790
squareshap,0.020780
stabil,0.007268
stabl,0.015339
stage,0.006806
start,0.004933
state,0.003410
store,0.007895
strictli,0.009191
structur,0.050089
studi,0.012356
subject,0.004957
subsequ,0.006082
substratum,0.016225
subtili,0.037111
suggest,0.021824
sulfid,0.013223
sulfolobu,0.021520
summar,0.019853
surfac,0.021170
surfaceareatovolum,0.022563
symbiot,0.040534
taxonom,0.012646
temperatur,0.015757
themselv,0.011562
theoret,0.006390
theori,0.004568
therefor,0.005297
thermophil,0.018694
thi,0.037896
thiomargarita,0.021124
thought,0.016570
threedomain,0.016984
thrive,0.021578
thu,0.004555
time,0.010344
today,0.005598
togeth,0.010748
tolweb,0.023303
took,0.006088
tradit,0.004907
transduct,0.042328
transfer,0.100039
transform,0.038278
treat,0.006824
true,0.006310
tubulin,0.017849
twoempir,0.023303
type,0.014057
ubiquit,0.012290
undersea,0.015128
unicel,0.023303
unicellular,0.028940
univers,0.004036
unlik,0.006490
use,0.006369
usual,0.014070
vacuol,0.031110
vari,0.017236
variou,0.004436
vent,0.013730
veri,0.004450
versu,0.009097
vibrio,0.018298
view,0.009990
viru,0.023751
void,0.012475
volcanii,0.022563
wa,0.003195
water,0.006011
watersolubl,0.016395
way,0.012501
wellstudi,0.015391
wherea,0.006762
woes,0.017558
word,0.010819
year,0.015733
