aaaaaarnr,0.015196
aberr,0.018160
abov,0.007396
absenc,0.005310
abund,0.011716
achiev,0.003634
acquir,0.004705
actacanntccc,0.015196
activ,0.023059
actual,0.011091
ad,0.003686
addit,0.005844
address,0.004349
adjac,0.013222
advantag,0.004483
affect,0.003774
affin,0.007097
aim,0.004124
algorithm,0.005791
allan,0.007961
allow,0.008617
alon,0.004939
alreadi,0.004208
alter,0.015544
analysi,0.003482
analyz,0.004855
ani,0.005091
annot,0.007910
anoth,0.005556
anyth,0.005708
appear,0.003345
approxim,0.007873
arrang,0.004709
artifici,0.004878
assay,0.009036
associ,0.028218
asthma,0.010545
attach,0.010937
attribut,0.004490
author,0.003252
averag,0.008629
away,0.004400
awwwwwttttt,0.015196
b,0.003826
bacteri,0.007545
bacteria,0.013263
base,0.025170
basic,0.007008
becom,0.005576
befor,0.002974
begin,0.006792
believ,0.003602
bend,0.008143
besid,0.005959
beta,0.007124
bhlh,0.014713
bia,0.006641
bidirect,0.219324
bind,0.114281
biochem,0.007161
biolog,0.004131
biologist,0.006517
bmalclock,0.015196
bound,0.015635
boundari,0.004862
box,0.052238
bp,0.008726
brain,0.005573
bre,0.025742
brought,0.004293
c,0.003333
cacgtg,0.015196
cancer,0.076988
canon,0.025337
capabl,0.009187
carcinogen,0.010545
cascad,0.008385
case,0.014584
categori,0.004451
caus,0.021795
ccaat,0.014713
cell,0.045154
cellular,0.019364
center,0.007441
certain,0.009578
cg,0.009912
chang,0.031561
chaperon,0.011574
character,0.008849
characterist,0.012062
checkpoint,0.010143
chimer,0.011225
chromatin,0.029324
chromosom,0.030325
circumst,0.005359
clarifi,0.007035
class,0.007738
close,0.003121
closer,0.005772
cmyc,0.025742
coactiv,0.013176
code,0.018057
coexpress,0.052068
combin,0.003326
common,0.011284
competit,0.004587
complet,0.003222
complex,0.017070
complic,0.005287
concert,0.007867
condit,0.009794
configur,0.006445
conform,0.019319
consensu,0.069841
conserv,0.009262
constitut,0.011052
contain,0.033472
content,0.004603
control,0.006200
core,0.009909
coregul,0.026034
correspond,0.004235
count,0.005321
counterexampl,0.010116
cpg,0.225233
creation,0.004247
critic,0.003432
crucial,0.005679
cs,0.007128
ctdsplbc,0.015196
cut,0.004953
cytosin,0.020074
databas,0.016376
databaseassign,0.015196
date,0.003899
decreas,0.004594
defect,0.006887
defin,0.006404
degre,0.003821
demethyl,0.012736
depend,0.003078
design,0.003427
desir,0.004391
detect,0.010248
determin,0.003240
develop,0.002333
diabet,0.033022
differ,0.017314
difficult,0.004069
direct,0.015491
direction,0.011225
directli,0.007498
disciplin,0.004299
diseas,0.053764
distal,0.030514
distant,0.006485
distribut,0.003849
diverg,0.012612
divers,0.004487
divid,0.003699
dna,0.180656
doe,0.006314
domin,0.003839
downregul,0.021964
downstream,0.009065
drive,0.005013
dure,0.002685
ebox,0.015196
edg,0.006128
effect,0.002729
element,0.064308
elementsinsul,0.015196
elong,0.008702
enabl,0.004454
encod,0.027362
end,0.006142
endocrin,0.008980
energet,0.007611
engin,0.004048
enhanc,0.015609
enter,0.004106
environ,0.003723
environment,0.009032
enzym,0.006829
ercc,0.028679
especi,0.003261
eukaryot,0.054164
evid,0.007661
evolut,0.004560
evolutionari,0.022138
exact,0.010718
exampl,0.015095
exhibit,0.005302
explor,0.004280
express,0.036396
extern,0.002196
extracellular,0.008967
extract,0.005407
facilit,0.005064
fact,0.003566
factor,0.071236
famili,0.003889
far,0.003809
favor,0.009279
featur,0.007598
follow,0.004805
form,0.004592
format,0.008194
fortyf,0.011279
frame,0.005740
frequenc,0.005740
frequent,0.016891
fulli,0.004528
function,0.018452
furthermor,0.005147
g,0.008127
gabpa,0.015196
gather,0.005236
gene,0.472107
gener,0.012950
genet,0.010204
genom,0.020464
genomewid,0.010691
given,0.015063
gquadruplex,0.013551
great,0.003385
group,0.002709
gs,0.010257
guanin,0.010116
gwa,0.012871
ha,0.014020
half,0.004134
halt,0.006844
helixloophelix,0.014713
heterogen,0.007551
heterolog,0.014033
high,0.003041
higher,0.007142
holoenzym,0.055101
housekeep,0.010691
howev,0.007313
human,0.026046
hundr,0.009127
hyperact,0.010769
hyperhypomethyl,0.030393
hypermethyl,0.013775
hypothes,0.005973
ident,0.004301
identif,0.005916
identifi,0.007262
ii,0.011793
iii,0.005744
immedi,0.008831
impact,0.004116
impli,0.004669
implic,0.010467
import,0.010247
importantli,0.006883
includ,0.008340
incorpor,0.004124
increas,0.005777
independ,0.003085
indic,0.014781
induc,0.017844
influenc,0.009925
inform,0.002986
initi,0.026110
insid,0.005037
intact,0.015397
integr,0.003624
intergen,0.012388
intervent,0.005450
intracellular,0.009036
involv,0.011648
iptg,0.030393
island,0.053426
islandcontain,0.015196
journal,0.003863
kb,0.009314
kbp,0.013775
kcnkbf,0.015196
key,0.007644
kilobas,0.012286
kind,0.004001
known,0.002509
lac,0.042615
lack,0.007658
larg,0.002646
later,0.002986
lead,0.005992
level,0.009009
like,0.013411
lineag,0.007432
linear,0.005343
link,0.002183
list,0.005584
locat,0.044307
long,0.006521
lower,0.003710
luciferas,0.013775
major,0.005328
malfunct,0.009331
mammalian,0.016354
mani,0.015887
mean,0.008296
mechan,0.014833
messeng,0.007961
metabol,0.006655
method,0.003109
methyl,0.087263
methylcytosin,0.014033
microarray,0.009961
microrna,0.068004
midpoint,0.010511
minim,0.005299
minipromot,0.015196
mismatch,0.009080
misunderstand,0.008246
mitochondri,0.008967
modif,0.023874
modifi,0.004899
molecul,0.005422
molecular,0.010497
motif,0.016620
mrna,0.009264
mrnaencod,0.030393
multipl,0.011586
multiprotein,0.013176
multistep,0.011639
mutat,0.034862
mybioinfoinfo,0.015196
n,0.004509
natur,0.010723
near,0.012386
nearbi,0.006179
necessari,0.004001
necessarili,0.004915
neg,0.004354
neighbor,0.005664
noncanc,0.014339
noncod,0.020074
nonexpress,0.014339
nonproduct,0.012100
nonspecif,0.009731
note,0.002895
notic,0.005699
nrf,0.014339
ntp,0.014339
nuclear,0.005130
nucleosid,0.011574
nucleosom,0.011510
nucleotid,0.048229
nucleu,0.019956
number,0.007536
observ,0.006628
occur,0.022332
occurr,0.006495
omim,0.013551
onc,0.003752
oncogen,0.010982
onli,0.011557
onlin,0.004394
ontolog,0.006879
open,0.003437
oper,0.012671
opposit,0.004131
optim,0.005326
oreganno,0.015196
orient,0.010464
origin,0.002782
output,0.005241
overrepresent,0.011854
overview,0.005031
owe,0.006111
pair,0.085618
partial,0.004619
particular,0.006286
partner,0.005489
patholog,0.014276
pattern,0.017137
percent,0.005043
perfect,0.005610
pharmacogenom,0.011449
pharmacolog,0.007839
phenotyp,0.015475
phylogenet,0.007939
physiolog,0.005914
place,0.005679
placement,0.007881
play,0.003625
pleiad,0.012388
polymeras,0.149369
polymerasepromot,0.014713
popul,0.003572
portion,0.005045
posit,0.011903
positionalorient,0.015196
possess,0.009024
possibl,0.002936
potenti,0.014911
predict,0.008426
preferenti,0.007999
presenc,0.004354
present,0.008637
pressur,0.008668
prevail,0.006091
pribnow,0.014033
primari,0.007601
primat,0.008168
probabl,0.004131
problemat,0.006939
process,0.016332
product,0.006002
progress,0.011773
project,0.007125
promot,0.460042
promoterbound,0.015196
promotor,0.013551
properli,0.006055
proport,0.004760
propos,0.003552
protein,0.081894
protooncogen,0.013176
provid,0.002554
proxim,0.026622
ptac,0.015196
pyrimidin,0.010851
question,0.007231
r,0.003853
random,0.005492
rate,0.003568
reason,0.003277
receiv,0.003488
recent,0.012649
recogn,0.019578
recognit,0.005005
recruit,0.020198
refer,0.009130
reflect,0.003924
region,0.065403
regul,0.038909
regulatori,0.069521
rel,0.009822
relat,0.004924
relationship,0.003485
remov,0.004216
repair,0.032506
repres,0.005991
repressor,0.011028
requir,0.005749
research,0.005925
residu,0.007048
resourc,0.003697
respond,0.004925
respons,0.015837
result,0.007631
revers,0.005027
ribosom,0.017907
ring,0.006185
rna,0.210637
rnapolymeraseiidepend,0.015196
role,0.003199
rubinsteintaybi,0.015196
s,0.010360
search,0.009348
secur,0.003879
select,0.011912
sens,0.007515
separ,0.003336
sequenc,0.217998
sequenti,0.007910
set,0.002828
seven,0.004792
sever,0.007948
share,0.010675
shift,0.004425
short,0.007787
shown,0.013211
sigma,0.031328
signal,0.015763
significantli,0.009373
silenc,0.089577
singl,0.003401
site,0.102744
small,0.006219
somat,0.008874
sophist,0.005847
space,0.003918
spatial,0.005941
speci,0.014022
specif,0.036489
specifi,0.005167
stabl,0.010003
stabli,0.010894
start,0.028954
state,0.002223
stimuli,0.007777
stimulu,0.007443
strand,0.021740
strategi,0.004734
strong,0.003692
strongli,0.004898
structur,0.011877
studi,0.010743
subgenom,0.029427
subject,0.003233
subsit,0.015196
suggest,0.014232
superposit,0.008798
suppress,0.005820
suscept,0.007327
switchdb,0.015196
symmetri,0.007075
symptom,0.007232
syndrom,0.007744
synthes,0.006604
synthesi,0.005674
t,0.026531
tac,0.036572
tacpromot,0.015196
target,0.009464
tata,0.084936
tataaa,0.015196
tataat,0.014713
tatabind,0.014339
tbp,0.012612
tend,0.004173
term,0.007204
territori,0.004448
tfiib,0.014339
thalassemia,0.012388
themselv,0.003769
therapeut,0.007499
thi,0.020910
thread,0.008110
thu,0.002970
time,0.008994
timepoint,0.014713
tinker,0.011449
transcrib,0.042736
transcript,0.322739
transcriptioninclud,0.015196
transfer,0.004349
transloc,0.009865
treat,0.004450
treatment,0.009350
triphosph,0.009986
ts,0.009454
tss,0.013551
tsss,0.015196
ttgaca,0.015196
tumor,0.008160
turn,0.003513
tutori,0.008424
twice,0.006057
typic,0.020457
understand,0.003449
unidirect,0.042044
unrel,0.007266
upregul,0.021460
upstream,0.120657
usag,0.005330
use,0.006230
usual,0.003058
variat,0.014292
varieti,0.007632
video,0.005593
viru,0.007744
vs,0.006136
w,0.004264
way,0.002717
weaker,0.007237
wide,0.003273
wildtyp,0.022151
wilson,0.006348
wntacd,0.015196
work,0.002491
written,0.004023
xxxxxxxppppppxxxxxxppppppxxxxgggggggggggggggggggggggggggggggggggggggggggggggggggggxxxx,0.015196
youtub,0.008030
yy,0.011510
