abortionantiabort,0.024225
abstract,0.008103
accept,0.005781
access,0.006371
accompani,0.008902
achiev,0.005793
action,0.101845
activ,0.087302
actor,0.010615
actual,0.005893
actup,0.022859
ad,0.005876
advanc,0.005687
advertis,0.010820
aesthet,0.022336
affect,0.006017
africa,0.014956
african,0.008071
aid,0.006908
air,0.014147
alli,0.008505
allow,0.004579
alon,0.007874
alway,0.006192
america,0.006453
american,0.005217
anarchist,0.013558
andor,0.024175
ani,0.012175
anim,0.006445
anniversari,0.024424
announc,0.023198
annual,0.007073
anoth,0.013287
anticonscript,0.021287
antiglob,0.035311
antinuclear,0.018349
antiwar,0.016546
apartheidera,0.020750
appear,0.005333
appli,0.004922
applic,0.005499
arab,0.025516
area,0.009147
argu,0.006125
armor,0.013764
art,0.014089
articl,0.010945
artist,0.009664
ascertain,0.013261
aspect,0.006052
assault,0.011805
assum,0.006379
attack,0.037122
attain,0.009321
attempt,0.036768
attent,0.015018
australian,0.009577
author,0.015554
auto,0.014006
avail,0.005629
averag,0.006878
avoid,0.006878
awar,0.008331
bandag,0.017895
banner,0.054037
barricad,0.036699
bathroom,0.018555
bear,0.008617
becam,0.010150
becaus,0.008359
becom,0.004444
begin,0.005414
behalf,0.010241
belief,0.007432
better,0.006261
bike,0.017435
birth,0.008181
birthday,0.013625
black,0.014987
blackwhit,0.021959
block,0.008271
blockad,0.012715
blog,0.012609
bloodi,0.013035
board,0.008010
bodi,0.011143
bomb,0.010512
book,0.005277
boundari,0.015503
boycott,0.027353
break,0.007653
brief,0.008800
broad,0.007457
build,0.005875
bulli,0.016351
burn,0.019036
buy,0.008783
cairo,0.013948
camp,0.030185
campaign,0.050087
candlelight,0.043204
captur,0.007635
cargo,0.012408
carri,0.017984
case,0.013949
categori,0.028383
caus,0.019854
celebr,0.038338
censor,0.014718
censorship,0.013558
centuri,0.004775
ceremoni,0.010265
certain,0.005089
chain,0.008308
chang,0.016770
chant,0.028460
chanukah,0.022859
character,0.007053
characterist,0.006409
cheerlead,0.084022
choos,0.007999
chosen,0.008497
circl,0.017922
circular,0.010838
circumst,0.017086
citi,0.025690
civil,0.082931
clash,0.022137
classif,0.008205
climat,0.007940
code,0.007196
collect,0.048826
color,0.009264
combin,0.005303
come,0.005319
commemor,0.012452
commiss,0.007404
commit,0.007795
common,0.004497
compani,0.011745
compost,0.017655
condon,0.016170
confer,0.029286
conflat,0.028503
conflict,0.027709
confront,0.020550
congreg,0.013445
conscienti,0.015190
consid,0.004337
consider,0.006250
constitut,0.011745
consum,0.014812
contenti,0.013217
context,0.006543
continu,0.004506
control,0.004941
convent,0.007202
correctli,0.010687
counterprotest,0.042574
court,0.007054
cover,0.012247
coverag,0.011188
crech,0.024225
crime,0.009228
criteria,0.009314
critic,0.032827
cross,0.040591
cultur,0.016778
cyclist,0.018664
dakota,0.016496
damag,0.008026
danc,0.023857
data,0.005936
databas,0.017403
date,0.006216
dead,0.018649
death,0.006514
decisionmak,0.010721
dedic,0.008934
defin,0.010209
definit,0.011762
degre,0.012182
democrat,0.007288
demonstr,0.073543
depend,0.009815
deploy,0.010066
describ,0.018312
descript,0.006799
desecr,0.017580
design,0.010926
desir,0.007000
despit,0.006307
destruct,0.017606
devis,0.010203
diein,0.048450
differ,0.011829
difficult,0.006487
direct,0.019756
directli,0.017929
disclosur,0.013382
discrimin,0.010329
disobedi,0.126725
display,0.025360
dissent,0.012668
dissuad,0.017168
distanc,0.007920
distinct,0.011457
distinguish,0.006603
distribut,0.012274
divers,0.007153
document,0.007181
dragon,0.013746
dramaturg,0.040211
draw,0.007624
drive,0.007991
dure,0.012844
durkheimian,0.019433
dynam,0.027894
earli,0.008957
easier,0.009588
easter,0.014230
econom,0.014702
editor,0.009532
educ,0.005704
effect,0.017401
effort,0.006201
egyptian,0.010093
elect,0.006604
elector,0.009607
emancip,0.012814
emigr,0.011257
empir,0.006248
employ,0.011879
employe,0.018766
enact,0.009926
end,0.009792
energi,0.006269
environment,0.007199
equip,0.008006
equival,0.007213
especi,0.005199
ethnic,0.008836
euromaidan,0.021602
europ,0.006072
event,0.093242
everi,0.011207
evid,0.012213
exampl,0.012031
exchang,0.006330
execut,0.006783
exhibit,0.008453
explicit,0.009778
exposur,0.009952
express,0.017406
ezin,0.022859
fact,0.005685
failur,0.007791
famou,0.007397
far,0.006072
feb,0.030957
feel,0.008371
fell,0.008648
femin,0.013367
feminist,0.011738
flag,0.010693
flower,0.010874
focu,0.013139
follow,0.003830
foot,0.010404
forc,0.014398
form,0.058563
formal,0.005992
format,0.026124
franc,0.006855
freedom,0.007559
french,0.006444
fur,0.013232
game,0.008217
gather,0.016695
gaybash,0.024225
gene,0.009291
gener,0.003440
genoa,0.014848
geograph,0.007787
gezi,0.023455
given,0.004802
global,0.019077
gna,0.020518
goal,0.006586
govern,0.018214
government,0.010021
graffiti,0.035626
graphic,0.010299
gravit,0.010710
grievanc,0.014618
ground,0.006967
group,0.021597
grow,0.006140
ha,0.006385
hall,0.009085
handmad,0.019289
haymarket,0.020518
heard,0.011386
held,0.005661
help,0.005242
high,0.004848
highli,0.012607
histor,0.016137
histori,0.007976
hit,0.009914
hold,0.017303
homosexu,0.013854
hour,0.008414
howev,0.003886
hunger,0.013174
hungerfast,0.024225
idea,0.005374
ident,0.006856
identifi,0.011577
ideolog,0.018090
imag,0.014746
impact,0.019686
impair,0.012441
import,0.004084
incarcer,0.015478
includ,0.019944
increas,0.004604
indec,0.017507
indic,0.005890
individu,0.014817
inequ,0.010075
inflat,0.009017
influenc,0.010548
inform,0.028563
injustic,0.013929
insist,0.009770
instanc,0.006485
instig,0.052305
institut,0.015201
institution,0.012656
insurg,0.012398
integr,0.005778
interact,0.005974
internet,0.007855
interpret,0.006388
intifada,0.035311
intrigu,0.013642
involv,0.013926
iranian,0.012076
iraq,0.010715
iron,0.008576
issu,0.015415
item,0.008783
jallikattu,0.024225
jam,0.015959
job,0.016538
jr,0.010171
judici,0.009192
juli,0.013832
june,0.006976
justif,0.011188
key,0.012186
kind,0.006378
king,0.015253
korean,0.011114
labor,0.023583
largescal,0.009328
largest,0.006612
late,0.005542
laud,0.015379
law,0.009645
lawsuit,0.026435
lead,0.009553
leaflet,0.034871
led,0.005166
leftw,0.013203
legal,0.013212
letter,0.055318
letterwrit,0.021005
lie,0.007843
like,0.008552
line,0.028647
list,0.004451
liter,0.009205
literatur,0.007152
littl,0.006126
live,0.005176
lobbi,0.024607
local,0.005421
locat,0.023544
lock,0.010368
lockdown,0.024225
lockon,0.024225
lockout,0.019586
logist,0.011552
london,0.013481
look,0.006609
lori,0.017733
luther,0.027859
lynch,0.014521
magazin,0.009267
major,0.004246
make,0.012212
male,0.008978
manag,0.005733
maneuv,0.013728
mani,0.018090
march,0.046467
marin,0.009163
martin,0.016946
mass,0.045953
materi,0.011219
matrix,0.010048
matter,0.006021
maxim,0.009103
media,0.044054
medit,0.024325
meet,0.012953
mele,0.017980
memori,0.008326
menorah,0.021602
merchant,0.009507
mere,0.007874
met,0.008185
method,0.004957
mexico,0.009986
militar,0.028252
militari,0.025902
ministeri,0.013336
mistreat,0.016126
mob,0.014545
modal,0.012703
moment,0.009107
monopoli,0.010256
monthli,0.021822
moral,0.016016
motiv,0.007820
motorcad,0.020518
movement,0.071757
music,0.008797
nation,0.004435
natur,0.004273
negoti,0.008378
network,0.020076
new,0.021453
news,0.008737
newspap,0.009909
nonconfront,0.019921
nondestruct,0.017298
nongend,0.021602
nonlabor,0.020518
nonviol,0.110401
normal,0.006380
north,0.006355
northern,0.007483
note,0.009230
notif,0.016083
notion,0.007573
notoneonon,0.024225
nov,0.015190
nuditi,0.037329
object,0.027360
objector,0.019586
oblig,0.008839
observ,0.005283
occup,0.016681
occupi,0.008024
occur,0.010171
occurr,0.010353
onetenth,0.016701
onli,0.003684
onlook,0.018158
open,0.005480
oper,0.005049
opinion,0.017015
oppos,0.006689
order,0.004411
ordinarili,0.014006
organ,0.039296
origin,0.008872
orthodoxi,0.013413
outsid,0.006106
overlap,0.008896
overwhelm,0.010733
pa,0.012474
paint,0.010166
palestinian,0.013836
parad,0.015160
paragraph,0.013659
park,0.009355
parti,0.006186
particip,0.025259
particular,0.010020
particularli,0.005613
pass,0.006218
peac,0.015439
peopl,0.026480
perceiv,0.016100
percent,0.008039
perform,0.005627
period,0.004756
permit,0.016305
person,0.010475
personnel,0.009893
persuas,0.012609
peta,0.018450
petit,0.035521
philippin,0.011483
phone,0.011423
photograph,0.011017
phrase,0.009645
physic,0.005237
picket,0.235041
pipelin,0.013090
placard,0.061554
place,0.013580
plan,0.006062
platform,0.009802
play,0.005779
polic,0.080123
polici,0.023694
polit,0.035167
politicalprotest,0.024225
port,0.009045
posit,0.004744
postur,0.014006
potenti,0.005942
power,0.014092
practic,0.009822
pragu,0.014451
prayer,0.012095
preach,0.013104
predomin,0.010470
presenc,0.006941
present,0.004589
press,0.016207
pressur,0.006909
pretend,0.014209
prevent,0.006562
price,0.013590
primari,0.006059
print,0.008620
problem,0.004909
process,0.008678
procession,0.045718
product,0.004784
prohibit,0.009365
project,0.022718
promot,0.006547
properli,0.009652
properti,0.011115
protest,0.759206
protestor,0.017980
protestsparad,0.024225
provid,0.004072
public,0.041604
publicli,0.019645
publish,0.005094
pulpit,0.019021
punch,0.014593
pure,0.007258
push,0.008728
quiet,0.013445
raasta,0.024225
racial,0.011271
radic,0.016829
ralli,0.048342
rang,0.005510
rape,0.013625
rare,0.022662
ratliff,0.019289
reach,0.005916
reaction,0.007464
realism,0.022714
reappropri,0.018897
reason,0.005224
receiv,0.005561
reclaim,0.013591
recus,0.024225
reenlist,0.024225
refer,0.020377
referenc,0.012507
reform,0.007120
refus,0.008495
regard,0.011170
regist,0.009027
registr,0.011335
regular,0.007975
rel,0.005219
relat,0.003925
religi,0.029744
remonstr,0.038867
remov,0.006721
rent,0.022418
repertoir,0.045662
report,0.005595
requir,0.004582
research,0.009445
resid,0.007712
resist,0.060348
respond,0.007851
respons,0.010098
restrict,0.020241
result,0.008110
reveal,0.007657
review,0.006522
revolt,0.010598
revolut,0.028846
ride,0.025312
right,0.010447
riot,0.081421
rise,0.005858
roko,0.024225
rotat,0.009637
rout,0.008764
rule,0.015941
s,0.012386
sacr,0.033444
safeti,0.009383
samizdat,0.021287
sandwich,0.014498
save,0.008266
say,0.006307
scene,0.010486
season,0.018815
seattl,0.014146
second,0.004777
selfexpress,0.018349
selfimmol,0.020304
sensori,0.011285
separ,0.005318
serv,0.005794
servic,0.022687
sever,0.004223
sharp,0.009839
shipment,0.026734
shirtwaist,0.022859
shove,0.019289
sickin,0.024225
sign,0.053364
silenc,0.012981
silent,0.060333
simplest,0.010334
simpli,0.006611
simul,0.017606
sing,0.013413
sitin,0.059764
situat,0.006237
slave,0.009573
sleep,0.011529
sleepin,0.024225
slow,0.008364
sniper,0.017895
soapbox,0.024225
social,0.046385
societi,0.010152
solemn,0.035014
sometim,0.052741
son,0.007757
song,0.042978
sound,0.017060
south,0.019033
southern,0.007519
space,0.006246
spatiotempor,0.016041
speaker,0.010404
specif,0.014542
speech,0.017457
speechmak,0.024225
spill,0.014316
spiritu,0.009335
spontan,0.010470
sport,0.028866
spring,0.027415
squar,0.008583
stage,0.007075
stanc,0.011168
stand,0.022842
state,0.003544
statement,0.007437
statu,0.013533
stereotyp,0.013306
stock,0.015632
stonewal,0.019433
stop,0.008004
strateg,0.008842
street,0.036979
strike,0.090119
structur,0.009467
studi,0.012844
stunt,0.015802
subject,0.010307
subtl,0.011983
succe,0.015690
suffrag,0.011910
suicid,0.011615
support,0.004817
surprisingli,0.013525
surveil,0.012789
symbol,0.036777
systemat,0.007740
tabl,0.007797
tactic,0.064641
tactil,0.015726
target,0.007543
tax,0.007614
tea,0.012955
teachin,0.045718
technic,0.007205
tehran,0.015478
tenant,0.014085
tent,0.012430
th,0.004645
thai,0.014521
theater,0.013090
themselv,0.012019
thi,0.027273
thoma,0.007247
thousand,0.014289
threat,0.033991
throw,0.012441
thwart,0.014360
tiananmen,0.018778
tie,0.007902
time,0.010754
togeth,0.005586
tool,0.006487
topfre,0.024225
toyitoyi,0.024225
trade,0.011721
traffic,0.021409
transgend,0.017043
transit,0.014106
treatment,0.007452
tree,0.008345
tri,0.006377
turkey,0.010566
typolog,0.027974
uk,0.007426
ukrain,0.012104
unaddress,0.020105
underestim,0.013525
undertak,0.010998
urban,0.008497
use,0.049657
user,0.008987
usual,0.043879
valid,0.007736
valu,0.005192
vari,0.005972
variou,0.013836
vehicl,0.009199
verbal,0.023311
verifi,0.010241
victim,0.010886
vietnam,0.010979
view,0.010385
vigil,0.141878
violenc,0.057893
violent,0.030012
viral,0.013291
visibl,0.008955
vocalauditori,0.024225
volum,0.006939
voter,0.010868
wa,0.006643
walk,0.041395
walkout,0.019021
wall,0.008578
war,0.028776
washington,0.008920
way,0.021659
western,0.006094
widen,0.012609
wildcat,0.036504
wit,0.029603
withhold,0.013910
women,0.007710
word,0.011247
work,0.011915
worktorul,0.024225
world,0.004107
worship,0.010979
wound,0.011114
wreath,0.018897
write,0.012669
written,0.012829
wto,0.012752
york,0.024959
yorker,0.016398
zimbabw,0.013247
zine,0.019289
