abl,0.022045
absenc,0.016042
ac,0.023765
acceptor,0.031167
accid,0.021037
accord,0.008725
acet,0.027988
act,0.009973
actinid,0.060486
action,0.053610
activ,0.060951
addit,0.017656
age,0.010928
agenc,0.013727
aim,0.012460
air,0.040214
al,0.014968
alkyl,0.029462
allow,0.008677
alpha,0.100998
aluminium,0.024451
analysi,0.042076
andor,0.015270
anoth,0.008393
anyon,0.019024
applic,0.020843
appreci,0.019363
approach,0.010042
arsen,0.024779
atom,0.106811
avail,0.010667
avoid,0.013034
b,0.011558
background,0.014986
bacteri,0.022795
bacteria,0.140233
bariumbas,0.041613
base,0.007603
basi,0.010869
bear,0.016330
becom,0.008423
befor,0.017972
behaviour,0.032445
beta,0.086087
bind,0.018169
biolog,0.024958
bomb,0.019921
bq,0.299393
build,0.022269
c,0.010069
capac,0.014608
career,0.017287
cation,0.053695
centimetr,0.030018
chargeless,0.040339
chemic,0.080512
chemistri,0.077228
chernobyl,0.031963
chromiumvi,0.039805
cinchii,0.039322
cloud,0.020157
cobalamin,0.076952
cobaloxim,0.041613
cobalt,0.080193
cobaltiii,0.040936
coexist,0.022275
colleg,0.015298
colloid,0.094354
combin,0.010049
common,0.008522
commun,0.009216
complex,0.010313
complic,0.015973
compound,0.063528
concret,0.019309
condit,0.009862
contain,0.040446
contamin,0.022487
content,0.013907
control,0.009364
convert,0.043104
cool,0.019744
cooper,0.013471
coordin,0.044825
correct,0.014193
cosmic,0.021563
crack,0.023454
creat,0.017243
critic,0.010368
cs,0.021535
cultur,0.010598
cut,0.014964
d,0.011410
deal,0.011354
decad,0.025625
decay,0.116286
decreas,0.041641
dedic,0.016931
describ,0.008675
design,0.010352
despit,0.011952
did,0.020926
differ,0.059778
diffus,0.019256
dimethyl,0.032655
dioxid,0.020711
disproportion,0.049200
dissolv,0.017506
distinguish,0.012513
dna,0.018191
domin,0.011598
donor,0.022103
downwind,0.035369
drink,0.020902
dure,0.008113
earth,0.013322
easili,0.014538
educ,0.043243
effect,0.024732
effort,0.023504
electromagnet,0.019024
electron,0.085202
element,0.097134
elementsundergo,0.041613
emiss,0.040273
emit,0.063724
enabl,0.013457
energi,0.047519
enter,0.024811
environ,0.022497
environment,0.027285
equival,0.013669
et,0.014587
europ,0.011506
european,0.010569
everywher,0.022042
exaf,0.041613
examin,0.013281
exampl,0.022800
exclus,0.014497
exist,0.008438
expand,0.012004
expans,0.014318
experi,0.031306
experiment,0.014174
expert,0.016762
explain,0.011423
extern,0.006635
extract,0.016334
fact,0.010774
feco,0.036046
feo,0.033314
field,0.018534
final,0.010976
fix,0.026938
follow,0.021776
forest,0.017450
form,0.048552
format,0.037129
framework,0.013000
franci,0.017377
fund,0.012511
futur,0.011052
ga,0.015266
gamma,0.112023
gap,0.017664
gener,0.006520
geobact,0.040339
glucos,0.025389
grass,0.022866
grow,0.011635
h,0.012605
ha,0.048405
hair,0.021604
halflif,0.083243
happen,0.014341
harmon,0.022057
head,0.011714
heavi,0.015683
helium,0.024282
high,0.009188
human,0.008742
hydrogen,0.018795
hypothet,0.020404
ident,0.012993
identif,0.017873
import,0.007739
inact,0.023659
includ,0.018897
increas,0.008725
induc,0.017968
industri,0.020714
influenc,0.009994
inform,0.009021
initi,0.009859
inorgan,0.021215
insolubl,0.028961
instanc,0.012289
intens,0.015070
intern,0.007951
ironiii,0.037116
irradi,0.028344
isol,0.029464
isotop,0.131889
just,0.010580
k,0.013757
kept,0.016349
key,0.011546
kilogram,0.025631
label,0.016325
lactat,0.029663
layer,0.017463
lead,0.018103
level,0.027214
link,0.006596
littl,0.011610
live,0.009808
liven,0.038881
lot,0.018684
low,0.011626
magnetit,0.033911
main,0.009603
make,0.015428
manag,0.010864
manchest,0.023808
manganeseiv,0.040936
mani,0.013712
manmad,0.024378
mass,0.012440
massless,0.029945
master,0.016189
materi,0.021260
matric,0.025048
matrix,0.076166
measur,0.039742
medicin,0.014462
metabol,0.020105
metal,0.063153
method,0.018789
methyl,0.026361
methylcobalamin,0.077763
microorgan,0.045312
migrat,0.016208
millimetr,0.029143
min,0.026769
mnco,0.040339
mobil,0.016112
mode,0.017077
molecul,0.016379
mostli,0.012942
movement,0.020920
na,0.022938
napoleon,0.020688
natur,0.016196
need,0.018237
neptunium,0.033604
neutron,0.143503
nonradioact,0.031650
normal,0.024182
note,0.008745
np,0.027429
npo,0.037751
nrc,0.127855
nuclear,0.139498
nucleu,0.080380
nucwik,0.078645
number,0.030354
object,0.020739
observ,0.020023
occur,0.028912
onc,0.011334
onthejob,0.034072
opt,0.023597
ordinari,0.016541
organ,0.008274
oxid,0.060378
p,0.023159
paper,0.012516
parent,0.017083
particl,0.081527
past,0.024067
penetr,0.040527
phddegre,0.039322
phosphoru,0.049986
photon,0.022165
piec,0.016751
plant,0.013169
plutonium,0.090501
po,0.027473
polonium,0.158251
possibl,0.017744
potenti,0.011261
power,0.017803
predomin,0.019842
prepar,0.028214
present,0.008697
prevent,0.012435
primarili,0.011890
process,0.008223
program,0.010941
project,0.032289
properti,0.021063
protect,0.011593
proton,0.044974
provid,0.007717
puls,0.023180
pyruv,0.031963
quit,0.014700
r,0.011639
ra,0.050041
radiat,0.139362
radiationth,0.121019
radioact,0.405582
radiochemistri,0.257473
radioelectrochemistri,0.044448
radioisotop,0.205326
rang,0.052207
ratio,0.015687
ray,0.037687
reaction,0.028291
reason,0.019801
reduc,0.052254
refer,0.005516
rel,0.009891
relat,0.014876
releas,0.041361
replac,0.011241
requir,0.017368
research,0.008949
respons,0.009568
result,0.023053
retir,0.018771
rhodochrosit,0.041613
rn,0.026808
rock,0.017275
s,0.007824
sampl,0.049318
seen,0.010824
selenium,0.030018
seri,0.021979
set,0.008545
sheet,0.019952
shield,0.021632
short,0.011762
shown,0.066517
siderit,0.038476
significantli,0.014158
simpl,0.012198
sinc,0.015354
societi,0.009619
sodium,0.023374
soil,0.121771
soilrock,0.041613
solut,0.026270
special,0.009602
specif,0.009185
spectrum,0.018155
stabl,0.045328
start,0.009718
state,0.013435
steril,0.026083
stop,0.015167
student,0.026135
studi,0.056796
subject,0.009766
substanc,0.016141
substanti,0.014252
succin,0.035162
suggest,0.010748
sulfur,0.045141
sulfurreducen,0.041613
support,0.009128
surfac,0.013901
suscept,0.022134
taught,0.017117
teach,0.015040
teacher,0.017594
tellurium,0.032655
test,0.012551
th,0.017607
thermal,0.019687
thermoanaerobact,0.041613
thi,0.074653
thought,0.010881
threat,0.016103
thu,0.008974
time,0.013585
topic,0.012181
train,0.026515
transmut,0.026469
type,0.018461
typic,0.051500
u,0.035828
undergo,0.035601
unit,0.007743
univers,0.015903
unstabl,0.020482
uo,0.182766
uraninit,0.039805
uranium,0.095935
uraniumvi,0.039805
uranyl,0.037116
use,0.075280
usual,0.027717
vast,0.015416
veri,0.017535
vitamin,0.025216
volatil,0.061280
wa,0.044065
want,0.014174
wast,0.018416
water,0.035529
way,0.016418
welcom,0.021189
whi,0.014126
wiki,0.025662
work,0.060213
workforc,0.021591
worri,0.022621
xane,0.041613
xylos,0.039322
yr,0.032533
zone,0.015868
