aberr,0.008537
abil,0.007473
abl,0.003430
abolit,0.007134
acaclon,0.014288
act,0.006208
action,0.003337
activ,0.027101
activitythey,0.014288
ad,0.003466
addit,0.005495
adenin,0.009129
adenosin,0.009389
adenosyl,0.014288
adomet,0.085730
adopt,0.003748
allel,0.024261
alloster,0.011296
allow,0.010803
alreadi,0.003956
alter,0.009743
analys,0.005310
analysi,0.016370
analyz,0.004565
ancestor,0.005837
ani,0.002393
announc,0.004561
anoth,0.007837
antivir,0.010605
appear,0.009437
appli,0.002903
applic,0.019462
arber,0.037667
archaea,0.008510
archiv,0.004999
argonaut,0.011377
array,0.017780
articl,0.003228
artifici,0.032106
assist,0.008099
asymmetr,0.029722
atp,0.040539
avail,0.006640
avoid,0.004056
award,0.004788
away,0.008274
b,0.003597
backbon,0.007729
backward,0.027021
bacteri,0.014190
bacteria,0.024941
bacteriophag,0.018826
bacterium,0.016640
band,0.017717
bank,0.003927
base,0.035499
bcgi,0.014288
becam,0.002993
becom,0.005243
belong,0.004627
bertani,0.014288
betasubfamili,0.014288
bglii,0.014288
bikandi,0.014288
bind,0.028277
bioinformat,0.007968
biolab,0.014288
biolog,0.007768
biophp,0.014288
block,0.004878
blot,0.009537
blunt,0.018423
box,0.006139
bp,0.057434
bpli,0.014288
bplong,0.014288
bpui,0.014288
bsli,0.014288
c,0.006268
ca,0.006023
canada,0.004697
capabl,0.008638
carri,0.003535
casgrna,0.014288
catalyt,0.008418
catatg,0.014288
categor,0.005575
caus,0.002927
ccr,0.012389
cell,0.004717
certain,0.003002
chanc,0.005280
chang,0.002472
character,0.012480
characteris,0.006575
characterist,0.007561
choic,0.004309
class,0.003638
classic,0.007248
classifi,0.008874
cleav,0.125941
cleavag,0.135777
clinic,0.005720
clone,0.067694
cluster,0.006018
code,0.004244
cofactor,0.064048
coli,0.053974
commerci,0.004202
common,0.005305
commonli,0.014572
complement,0.006468
complementari,0.012799
complex,0.006420
compon,0.003778
compos,0.012485
composit,0.009095
contain,0.022030
copi,0.015866
coreceptor,0.012555
correct,0.004417
creat,0.002683
creativ,0.005668
crispr,0.033438
crisprca,0.011975
criteria,0.005494
cross,0.004788
cut,0.074522
d,0.007103
daniel,0.010913
danna,0.013195
data,0.003501
databas,0.010265
defens,0.009630
defenserol,0.014288
defin,0.006021
denot,0.005353
depend,0.002894
deriv,0.003335
desir,0.004128
determin,0.003046
develop,0.004388
deviat,0.006225
devis,0.006018
diabet,0.007762
did,0.003256
differ,0.034886
digest,0.053623
dimer,0.018423
discov,0.003863
discoveri,0.012326
distanc,0.018687
distinguish,0.003894
divid,0.003478
dna,0.424652
dnabind,0.011750
domain,0.025708
doubl,0.004857
doublestrand,0.018826
downstream,0.008523
dpni,0.013834
drop,0.004815
ds,0.008537
dure,0.002525
e,0.017775
earli,0.005283
eas,0.006080
ec,0.040182
ecoi,0.014288
ecop,0.014288
ecori,0.036306
edit,0.012402
effector,0.020034
effici,0.004135
electrophoresi,0.027098
element,0.003359
end,0.017327
endjoin,0.013195
endonucleas,0.142277
endonucleolyt,0.014288
engin,0.019032
england,0.004583
enhanc,0.009784
enzym,0.577903
enzymat,0.017611
equival,0.004254
ercc,0.013482
ermk,0.014288
escherichia,0.010089
establish,0.002818
everi,0.003305
evid,0.003601
evolv,0.008671
exampl,0.021289
excis,0.008418
exemplifi,0.006728
exist,0.002626
exonucleas,0.012389
expens,0.004717
experi,0.003248
extern,0.002065
famili,0.010971
finder,0.010203
finger,0.030690
fingerprint,0.009051
firman,0.012239
flexibl,0.011695
foki,0.057153
follow,0.009037
foreign,0.007353
form,0.004317
forward,0.020054
fragment,0.038884
free,0.006452
freewar,0.011296
function,0.011566
furiosu,0.013195
fuse,0.006953
futur,0.003439
fxgxg,0.014288
g,0.003820
garaizar,0.014288
gate,0.006837
gel,0.035557
gene,0.087683
gener,0.018265
genet,0.014391
genom,0.057725
genotyp,0.008118
genu,0.007134
giusepp,0.008496
given,0.002832
glu,0.009590
glucosylhydroxymethyl,0.014288
goal,0.003884
golden,0.005723
goodsel,0.013482
great,0.003183
greater,0.003557
group,0.007643
grow,0.007243
grown,0.005439
gtaatg,0.014288
gtatac,0.028576
guid,0.011980
ha,0.005649
haemophilu,0.011377
hamilton,0.014019
har,0.007875
head,0.003646
helix,0.008523
heterooligomer,0.013834
highrisk,0.009320
hindii,0.014288
hindiii,0.014288
histori,0.002352
hiv,0.016409
home,0.008066
homodim,0.012239
horizont,0.006513
host,0.025823
hostcontrol,0.014288
howev,0.004584
hpv,0.011975
hsd,0.025483
hsdm,0.028576
hsdr,0.028576
hsv,0.014288
human,0.013605
humaninfect,0.014288
hydrolys,0.010656
hydrolyz,0.010369
hydroxymethyl,0.013834
identifi,0.017070
ii,0.036963
iib,0.010765
iie,0.025904
iif,0.012952
iig,0.013482
iii,0.037808
iim,0.013482
iit,0.011648
illinoi,0.006913
import,0.004817
improv,0.003475
inactiv,0.009486
incis,0.009366
includ,0.007842
inde,0.004802
independ,0.002900
indic,0.003474
individu,0.002913
induc,0.005592
influenc,0.003110
influenza,0.008959
inform,0.002807
innat,0.006948
insert,0.019655
insid,0.004736
insilicoehu,0.014288
insitu,0.010369
insulin,0.008368
intent,0.004753
interact,0.007047
interestingli,0.009149
interspac,0.012741
invad,0.016946
invers,0.011927
invert,0.015266
invitro,0.011462
involv,0.002738
ion,0.006124
isol,0.013756
isoschizom,0.028576
iv,0.030653
j,0.014187
k,0.017127
kathleen,0.009032
kelli,0.008087
kent,0.008470
key,0.003593
known,0.014158
l,0.008313
laboratori,0.023960
larg,0.007465
later,0.002808
lead,0.002817
leav,0.003998
length,0.023424
letter,0.004661
librari,0.004436
ligas,0.010605
like,0.005044
link,0.004106
list,0.005251
local,0.003198
locat,0.003471
luria,0.010284
m,0.010130
mace,0.010555
magnesium,0.016153
magnitud,0.005825
make,0.009603
mani,0.010670
manipul,0.010110
manner,0.004556
map,0.012958
marker,0.007263
matthew,0.006846
mc,0.008296
mcrbc,0.014288
mean,0.002600
meanwhil,0.005709
mechan,0.010460
mediat,0.005784
medic,0.004347
medicin,0.009003
meselson,0.023951
mesh,0.008284
methionin,0.009982
method,0.002924
methyl,0.065639
methylas,0.041504
methyltransferas,0.063707
mg,0.025909
milln,0.014288
mimic,0.007911
mirrorlik,0.022925
mod,0.018299
model,0.002941
modif,0.044895
modifi,0.018427
molecul,0.005098
molecular,0.019739
month,0.004171
motif,0.023440
motor,0.006089
mount,0.005504
mrr,0.014288
multifunct,0.030492
multim,0.012952
multipl,0.003631
mutagenesi,0.010326
mutat,0.013111
n,0.012720
naei,0.014288
nathan,0.016862
nation,0.002616
natur,0.010082
near,0.003882
nebcutt,0.014288
necessari,0.007525
need,0.002838
neoschizom,0.014288
new,0.008435
newli,0.004967
ngomiv,0.014288
nhej,0.012555
nobel,0.005496
nomenclatur,0.013405
nonhomolog,0.011552
nonpalindrom,0.042865
nonspecif,0.009149
nucleas,0.033026
nucleotid,0.045347
nucleotidessepar,0.014288
number,0.002361
o,0.009957
occur,0.011998
onc,0.007055
onli,0.010866
onlin,0.012396
ontario,0.007762
optim,0.005007
order,0.002601
ordinari,0.005148
organ,0.005150
orient,0.014758
origin,0.007849
overhang,0.010413
pair,0.025157
palindrom,0.107782
palmer,0.008977
paralogu,0.014288
pattern,0.004028
pdraw,0.013834
perform,0.003319
pfago,0.014288
phage,0.048504
phase,0.004540
phenomenon,0.009725
phosphat,0.007300
php,0.010126
physiolog,0.005561
plasmid,0.036846
plasmiddna,0.014288
plot,0.005786
pocket,0.007543
polyacrylamid,0.011219
polylink,0.013834
polymorph,0.024355
popul,0.003359
portionson,0.014288
portsmouth,0.010284
posfai,0.028576
posit,0.011192
possess,0.004242
possibl,0.005522
power,0.002770
pp,0.004413
precis,0.004459
presenc,0.004094
present,0.005414
prime,0.004349
prize,0.005049
process,0.007678
produc,0.014084
product,0.005643
prokaryot,0.032186
promis,0.005087
propos,0.003340
protect,0.010825
protein,0.038500
protrus,0.010459
provid,0.007206
pyrococcu,0.012952
quarterli,0.006619
quickli,0.004406
r,0.003622
random,0.010329
randomli,0.007319
rcsb,0.013195
reaction,0.004402
read,0.011928
reas,0.014288
rebas,0.012555
recent,0.002973
recogn,0.040499
recognis,0.010602
recognit,0.127073
recombin,0.007139
reduc,0.003252
refer,0.001717
region,0.003074
regularli,0.005845
rel,0.006157
rementeria,0.014288
remnant,0.006865
remot,0.005813
repair,0.018338
repeat,0.014868
replic,0.006060
requir,0.037842
research,0.005571
residu,0.006627
respect,0.003265
restrict,0.389996
restrictionmodif,0.028576
retriev,0.051012
retroel,0.013195
retrovir,0.012555
rflp,0.011219
rich,0.004923
rj,0.018508
rm,0.016322
rmsystem,0.014288
rna,0.014146
robert,0.007550
role,0.003007
routin,0.006163
s,0.014611
sadenosyl,0.013195
sadenosyllmethionin,0.028576
safe,0.005614
salvador,0.007911
sampl,0.010233
san,0.005452
scale,0.003886
scan,0.006855
scienc,0.002887
scientif,0.003455
scissor,0.011075
sdn,0.012239
secko,0.014288
select,0.003733
selfgain,0.014288
selfish,0.008046
separ,0.012547
sequenc,0.162071
serv,0.003417
sever,0.002491
short,0.025627
shown,0.008281
significantli,0.004406
silenc,0.007656
silent,0.007117
simian,0.011377
similar,0.008560
similarli,0.004527
simmer,0.010413
sinc,0.007168
singl,0.019188
singlestrand,0.009982
site,0.144906
size,0.007442
smai,0.014288
smith,0.010125
snp,0.020034
snprflp,0.014288
softwar,0.020251
sourc,0.003005
southern,0.004435
spacer,0.022754
speci,0.004394
specif,0.042886
speed,0.004886
standard,0.003218
star,0.005299
statu,0.003991
sticki,0.008680
stickyend,0.014288
stimul,0.005347
strain,0.035639
strand,0.040883
structur,0.002792
studi,0.007576
subcategori,0.008171
subfamili,0.010605
subgroup,0.007521
subject,0.003039
substrat,0.007256
subunit,0.072238
suffici,0.004417
suffix,0.008161
sugarphosph,0.011648
suitabl,0.005304
summaris,0.008523
sv,0.009700
t,0.016630
taken,0.003498
tal,0.011296
target,0.040044
techniqu,0.007344
technolog,0.006890
templat,0.007875
term,0.004516
termin,0.005599
text,0.004122
theoret,0.003918
theori,0.002801
therapi,0.006086
therefor,0.003248
thi,0.019661
thoma,0.004274
thu,0.002793
time,0.002114
togeth,0.006590
tool,0.022958
transfer,0.004089
transloc,0.009276
trex,0.012741
trial,0.005452
triphosph,0.009389
tropism,0.012102
type,0.120667
typic,0.012823
ultim,0.004133
undertaken,0.006157
undivid,0.010413
univers,0.004949
unmethyl,0.012555
use,0.048814
usual,0.008627
util,0.004323
v,0.017043
vaccin,0.007930
variabl,0.004368
variat,0.004479
variou,0.002720
vector,0.017337
vincz,0.028576
viral,0.007839
viru,0.014563
virus,0.021435
visibl,0.005281
vital,0.005336
w,0.004009
wa,0.019593
want,0.004411
watcut,0.014288
waterloo,0.009413
way,0.002555
weight,0.004816
werner,0.015130
wherea,0.004146
wide,0.003077
widespread,0.004591
wilcox,0.010369
work,0.011713
yf,0.012102
yield,0.009336
zfa,0.014288
zfn,0.077712
zinc,0.030115
