abil,0.008875
abl,0.002715
account,0.002532
accur,0.003663
achiev,0.002704
acid,0.082311
act,0.004914
activ,0.006436
ada,0.007023
add,0.004100
addit,0.008701
adenosin,0.007433
admit,0.004534
affect,0.005619
affin,0.010565
alanin,0.008395
albert,0.004370
allow,0.006414
amino,0.100181
aminoacyltrna,0.038756
ancient,0.009345
anoth,0.004136
antibiot,0.030338
anticodon,0.009145
anywher,0.005263
ap,0.006495
apart,0.003940
apparatu,0.005351
appear,0.007471
append,0.007571
appropri,0.010339
archaea,0.013474
archaeon,0.009388
architectur,0.004055
arrang,0.003505
articl,0.002555
assembl,0.013426
associ,0.010502
atom,0.011279
attach,0.008141
aug,0.014486
award,0.011371
axi,0.004931
b,0.002848
bacteri,0.039317
bacteria,0.029617
bacterium,0.006586
bank,0.003109
bankemdb,0.010446
base,0.001873
becaus,0.007806
becom,0.002075
befor,0.002214
began,0.002588
begin,0.005056
believ,0.002681
bind,0.053725
biogenesi,0.008715
biolog,0.003074
biologist,0.004850
biosynthesi,0.006872
bo,0.007037
bond,0.014812
bound,0.023276
box,0.004860
brought,0.003195
c,0.002481
capac,0.003599
carri,0.008397
cat,0.005508
catalysi,0.014101
catalyt,0.039987
caus,0.002317
cell,0.048548
cellular,0.009609
center,0.002769
centrifug,0.006814
cerevisia,0.007702
chain,0.034914
chang,0.005873
channel,0.004286
chemic,0.003306
chemist,0.004990
chemistri,0.007611
child,0.004170
chloroplast,0.006884
christian,0.003365
classic,0.002869
classifi,0.007025
claud,0.005625
close,0.004647
coaxial,0.009480
code,0.010080
codon,0.051525
coli,0.014243
collabor,0.003989
collatz,0.009689
collect,0.002533
common,0.002099
complementari,0.005066
complet,0.004797
complex,0.020330
compon,0.008972
compos,0.016474
composit,0.003600
compris,0.003552
comput,0.002877
concentr,0.003398
condit,0.002430
conform,0.014380
conserv,0.003447
consist,0.013946
construct,0.002689
contain,0.017440
continu,0.002104
control,0.004614
coordin,0.007363
copi,0.016748
core,0.014752
correct,0.013989
correspond,0.003152
creat,0.002124
cryoelectron,0.008881
crystallograph,0.007657
crystallographi,0.018856
cterminu,0.009301
current,0.004446
cystein,0.007902
cytoplasm,0.018923
cytosol,0.037260
czernilofski,0.022622
d,0.005623
damag,0.003748
data,0.005543
degre,0.002844
deinococcu,0.009480
demonstr,0.003121
dens,0.004943
depend,0.002291
depict,0.004332
descend,0.004203
describ,0.006413
design,0.002550
despit,0.002944
destin,0.004860
destroy,0.003631
determin,0.014471
develop,0.001736
diamet,0.017024
dictat,0.004966
differ,0.014729
direct,0.002306
directli,0.005581
discoveri,0.006505
disrupt,0.004475
distinct,0.008024
distribut,0.002865
disulfid,0.008077
divid,0.002754
dna,0.004482
document,0.003353
doe,0.002349
domain,0.003392
donor,0.005446
doubl,0.003845
dozen,0.004858
drive,0.003731
dure,0.009996
duve,0.009388
e,0.014071
earli,0.004182
easili,0.003582
edelman,0.008317
effici,0.003274
eif,0.020507
electron,0.006997
element,0.002659
elong,0.019433
em,0.006654
emerg,0.002679
emil,0.011764
encod,0.005091
encyclopedia,0.003601
end,0.011430
endoplasm,0.022651
endosymbiot,0.007592
enhanc,0.003872
enter,0.003056
entir,0.008136
environ,0.002771
er,0.019816
ertarget,0.011311
escherichia,0.007986
eukaryot,0.086392
eukaryotespecif,0.011311
evid,0.008553
evolut,0.003394
evolutionari,0.004119
evolv,0.003432
exact,0.003989
exampl,0.003745
exchang,0.002955
exclud,0.003933
exhibit,0.003947
exist,0.002079
exit,0.005484
exocytosi,0.009074
expasi,0.010086
expel,0.005041
explain,0.002814
exploit,0.003892
extend,0.002758
extern,0.001635
extra,0.004788
factor,0.002651
famili,0.002895
fast,0.004280
featur,0.002827
figur,0.009290
filter,0.005211
finish,0.004811
fit,0.003806
float,0.004951
fold,0.010660
forc,0.002241
form,0.013672
format,0.003049
fragment,0.004397
free,0.022985
function,0.016024
gene,0.013015
gener,0.003213
georg,0.006444
gerald,0.005799
glutathion,0.009006
gradual,0.003594
granul,0.007749
group,0.002016
gwen,0.008942
ha,0.011927
haloarcula,0.010952
happen,0.003533
harm,0.004310
heterogen,0.005621
high,0.004528
highli,0.005886
highresolut,0.007510
human,0.002154
hydroxyl,0.007150
hypothesi,0.003894
ident,0.003201
identif,0.004404
identifi,0.005405
implic,0.003895
includ,0.003104
incorpor,0.006140
increas,0.004300
independ,0.002296
individu,0.002306
infect,0.010149
inform,0.002222
inhibit,0.005504
initi,0.004858
insert,0.010373
interact,0.013948
intracellular,0.006726
involv,0.008670
join,0.003325
jointli,0.005394
kill,0.003690
known,0.007472
kozak,0.009689
l,0.039489
lab,0.004884
label,0.012067
larg,0.027580
larger,0.008851
late,0.002588
later,0.004446
leav,0.003165
like,0.003993
link,0.006501
live,0.002416
liver,0.005866
locat,0.005496
long,0.004854
longer,0.003082
loop,0.005147
machin,0.014436
major,0.001983
make,0.009503
mani,0.005068
marismortui,0.011311
match,0.007949
materi,0.002619
mauro,0.008522
measur,0.004896
mechan,0.008280
medicin,0.003563
membran,0.021171
membranebound,0.045942
messeng,0.029631
methionin,0.007902
microscop,0.004825
microscopi,0.011764
mid,0.003722
mitochondri,0.013349
mitochondria,0.027078
model,0.004656
modifi,0.003647
molecul,0.048431
molecular,0.007813
month,0.003302
motif,0.006185
motion,0.003771
mrna,0.124133
mrnaindepend,0.011311
multipl,0.005749
ncbi,0.007490
near,0.006146
need,0.008987
new,0.001669
newli,0.007864
nm,0.012135
nobel,0.013052
nonequ,0.010673
nonmembran,0.010446
novemb,0.003352
nucleic,0.006138
nucleolu,0.008942
nucleotid,0.047866
nucleu,0.009902
number,0.001869
observ,0.002466
obtain,0.002905
occur,0.002374
onc,0.002792
onli,0.003441
operon,0.008317
order,0.004119
organ,0.002038
organel,0.052176
origin,0.008285
overview,0.003745
oxid,0.004959
p,0.011412
pair,0.003983
palad,0.030760
paper,0.006168
parallel,0.003872
particip,0.002948
particl,0.012053
particul,0.006684
pass,0.002903
pathway,0.005019
pattern,0.003189
peptid,0.025024
peptidyl,0.020173
peptidyltransferas,0.011311
peptidyltrna,0.011311
perform,0.002627
person,0.002445
pharmaceut,0.005091
phospholipid,0.007180
physiolog,0.004402
piec,0.004127
place,0.002113
plasma,0.005477
point,0.002168
polypeptid,0.035464
polyribosom,0.010446
polysom,0.010952
popul,0.002659
possess,0.003358
prebiot,0.008208
presenc,0.006482
pressur,0.003226
primer,0.006199
prize,0.011991
process,0.010130
produc,0.015610
prokaryot,0.038219
proofread,0.008016
propos,0.007933
protein,0.248185
proteinconduct,0.011311
proteopedia,0.010253
proton,0.005540
prove,0.003307
provid,0.001901
pseudoknot,0.010446
psite,0.011311
public,0.002158
publish,0.011894
purpos,0.002787
qualiti,0.003193
quit,0.007244
rabsom,0.011311
radioduran,0.009480
ramakrishnan,0.009580
random,0.004088
rang,0.002572
rat,0.005688
rate,0.002656
ratio,0.007730
rcsb,0.010446
reaction,0.003485
read,0.007082
reason,0.002439
recognit,0.003725
reconstruct,0.004259
recruit,0.005011
reduc,0.002575
refer,0.002718
reflect,0.002921
region,0.004868
regulatori,0.004704
releas,0.003397
remark,0.004169
remnant,0.005434
repair,0.004839
research,0.004410
resembl,0.008575
resid,0.003601
residu,0.005246
resolut,0.024949
restrict,0.003150
result,0.001893
reticulum,0.022356
reveal,0.003575
ribonucleoprotein,0.010446
ribosom,0.839742
ribozym,0.024326
richard,0.003358
rna,0.212781
robert,0.002988
role,0.002381
romanian,0.006577
rough,0.010781
rqc,0.022622
rrna,0.087232
rrnatoprotein,0.011311
s,0.065547
saccharomyc,0.007849
scaffold,0.007136
scienc,0.002286
scientist,0.003108
secretori,0.008077
sediment,0.006012
select,0.005911
selfrepl,0.043956
sequenc,0.049057
seri,0.002707
serv,0.002705
sever,0.005916
share,0.002648
shinedalgarno,0.019879
shown,0.009834
shuttl,0.006615
signal,0.003911
similar,0.009035
similarli,0.003583
simul,0.004110
simultan,0.003964
sinc,0.005675
singl,0.005063
site,0.038238
size,0.014730
slightli,0.008200
small,0.018519
smaller,0.009650
sole,0.003839
solv,0.003481
sometim,0.004925
soon,0.003469
spatial,0.004422
speci,0.003479
special,0.007097
specif,0.004526
specifi,0.003846
split,0.003888
stabil,0.003528
stack,0.005898
stall,0.006292
start,0.009578
state,0.001655
steitz,0.009939
step,0.003207
strand,0.010788
strongli,0.003646
structur,0.064098
studi,0.003998
subcellular,0.007875
subunit,0.209688
suggest,0.007945
surfac,0.003425
surround,0.003464
svedberg,0.009145
synthes,0.049162
synthesi,0.038011
t,0.003291
tail,0.005477
templat,0.006234
term,0.003575
tertiari,0.005721
tetrahymena,0.019879
theori,0.002217
therefor,0.005142
thermophila,0.021904
thermophilu,0.032856
thermu,0.021904
thi,0.012734
thoma,0.003383
thought,0.002681
threedimension,0.005196
threedomain,0.008244
threonin,0.008768
thu,0.002211
time,0.005021
togeth,0.013043
transcript,0.005586
transfer,0.006474
transferas,0.018013
translat,0.035824
translationindepend,0.022622
transloc,0.007343
transport,0.003243
travers,0.006151
triplet,0.028486
trna,0.077986
trnabind,0.011311
typic,0.002537
unaffect,0.006747
undertak,0.005135
unit,0.003816
univers,0.001959
use,0.018549
usual,0.004553
util,0.003422
v,0.003373
vacant,0.006884
vari,0.002788
varieti,0.002840
variou,0.004307
vectori,0.009006
venkatraman,0.010086
veri,0.002160
vincent,0.005994
visual,0.003991
vivo,0.006769
vulner,0.004811
wa,0.012408
week,0.003976
whi,0.003480
work,0.005563
workplac,0.005937
world,0.005753
xray,0.010318
yeast,0.006323
yonath,0.009689
