acid,0.191950
adna,0.056599
adopt,0.008764
al,0.010894
alpha,0.014702
altern,0.008161
amid,0.016844
amino,0.032880
aminotermin,0.031528
analog,0.011349
analys,0.012417
analysi,0.045937
analyz,0.021352
angl,0.028672
ani,0.011195
appli,0.006789
approach,0.007309
approxim,0.008655
aris,0.010361
arrang,0.010354
assess,0.021636
assign,0.022816
atom,0.055529
atomicresolut,0.057944
attempt,0.007244
backbon,0.036147
bacterialori,0.031528
bank,0.009184
base,0.038739
basepair,0.049364
bdna,0.058721
bdnaus,0.030856
bessel,0.045642
beta,0.015664
bind,0.013224
biochem,0.015745
bioinformat,0.037265
biolog,0.036331
biologist,0.014329
biomolecul,0.057027
biomolecular,0.133457
biopolym,0.111514
biotechnolog,0.016682
block,0.011408
bond,0.131261
box,0.014357
build,0.008104
bulg,0.021302
c,0.007329
calcul,0.009772
calf,0.024351
carboxyl,0.021036
carboxyltermin,0.031528
case,0.006413
casp,0.030856
cd,0.017656
cell,0.022062
characterist,0.008840
chemic,0.019533
chemistri,0.011242
chromatin,0.021492
classifi,0.010375
cloverleaf,0.029360
combin,0.007314
common,0.018608
comparison,0.010757
complex,0.022520
compos,0.019465
composit,0.010634
compris,0.010494
comput,0.008500
concept,0.014318
condit,0.007178
conform,0.014159
connect,0.008446
consensu,0.012796
consequ,0.008723
conserv,0.010183
consid,0.023931
contrast,0.008666
convent,0.009934
coordin,0.010875
correct,0.010330
correl,0.011958
correspond,0.018626
covari,0.037679
critic,0.007546
crystallographi,0.018566
current,0.006567
curv,0.012621
curvatur,0.018677
data,0.016374
decompos,0.016630
decomposit,0.016748
defin,0.035202
definit,0.024335
degre,0.008401
describ,0.006314
design,0.067817
desir,0.009655
determin,0.071244
develop,0.005130
differ,0.005438
differenti,0.010387
diffract,0.055831
diffractionscatt,0.030856
dihedr,0.050617
direct,0.006812
disord,0.013224
dissimilar,0.020406
distinct,0.007901
divers,0.019734
dna,0.105922
dnaconform,0.031528
doe,0.006941
domain,0.020039
drug,0.012099
dssp,0.029360
element,0.023566
encod,0.015040
end,0.027012
energi,0.025939
engin,0.008901
entir,0.008011
enzym,0.015015
equival,0.009948
et,0.010617
everi,0.007728
evolut,0.010028
exact,0.023566
exampl,0.027658
exist,0.006141
experi,0.007595
experiment,0.020633
exponenti,0.014867
express,0.008002
eye,0.012347
famili,0.008552
famou,0.010203
featur,0.016706
fiber,0.032086
file,0.013786
final,0.007988
fold,0.031490
form,0.020193
formal,0.024793
fourier,0.017235
free,0.022632
function,0.054095
fundament,0.008457
fuzzi,0.019212
gene,0.012815
gener,0.023729
geometri,0.013470
given,0.019872
global,0.008770
goal,0.009084
group,0.005957
ha,0.017615
haca,0.031528
hairpin,0.027015
head,0.008526
helic,0.020335
helix,0.039864
hi,0.005921
high,0.020062
higherlevel,0.021302
higherord,0.020128
histon,0.022068
homolog,0.016998
howev,0.010720
hydrat,0.043180
hydrogen,0.150478
hydroxyl,0.021122
iii,0.012630
import,0.028164
includ,0.027508
increas,0.006351
indic,0.008124
individu,0.013624
industri,0.007538
infer,0.012692
inform,0.006566
inlin,0.025045
interact,0.057683
interfer,0.013481
intern,0.005787
intracellular,0.019869
intramolecular,0.024247
intric,0.018374
introduc,0.007747
invers,0.027892
involv,0.006402
irrelev,0.016403
isol,0.010722
kaj,0.026804
known,0.005518
kozak,0.028620
lane,0.016885
larg,0.011638
lead,0.006588
lectur,0.012005
length,0.021910
level,0.026410
limit,0.006743
linderstrmlang,0.029360
lipid,0.017391
list,0.012279
live,0.007139
local,0.014956
longer,0.009106
loop,0.045613
lowest,0.013133
lsm,0.028620
macromolecul,0.018887
magnet,0.012961
mainten,0.013245
mani,0.014971
map,0.010100
medic,0.010167
medicin,0.010526
method,0.041027
minor,0.010217
mistakenli,0.019009
model,0.006877
molecul,0.238434
molecular,0.069240
monomer,0.024682
motif,0.054813
multipl,0.016983
multiscal,0.023592
multisubunit,0.028299
n,0.009915
naim,0.028004
nearestneighbor,0.027731
new,0.004931
nitrogen,0.015240
noncod,0.022068
novel,0.012219
npcomplet,0.024048
nuclear,0.011281
nucleic,0.235716
nucleobas,0.024799
nucleotid,0.088369
number,0.016569
observ,0.007286
occur,0.007014
onli,0.020328
organ,0.012044
orient,0.011504
pair,0.035296
paracryst,0.030856
parallel,0.011440
pattern,0.056519
patternsand,0.030856
patterson,0.022012
pdb,0.026604
peptid,0.018479
perform,0.007761
plot,0.013531
polymeras,0.019318
polyphenol,0.026235
polysaccharid,0.020554
posit,0.013086
possibl,0.019372
predict,0.129687
presenc,0.009573
present,0.006330
primari,0.108642
probe,0.078726
problem,0.020312
process,0.005985
propos,0.015622
protein,0.231508
provid,0.011234
pseudoknot,0.061712
publish,0.007027
pursu,0.011513
quaternari,0.079986
radic,0.011605
ramachandran,0.024458
rang,0.007599
ration,0.010910
recogniz,0.037355
record,0.008463
recur,0.017144
refer,0.020075
regardless,0.012138
region,0.007190
relat,0.005413
relationship,0.007664
reli,0.009674
report,0.023151
requir,0.006320
research,0.026055
residu,0.030996
reson,0.015366
result,0.005593
rhoindepend,0.030856
ribosom,0.019686
rise,0.008079
rna,0.281185
routin,0.014413
scaffold,0.021079
scale,0.018175
scatter,0.014827
secondari,0.217241
secondarystructur,0.030856
segment,0.027513
separ,0.014671
sequenc,0.189496
serv,0.007992
set,0.018659
sever,0.011651
shape,0.009570
sheet,0.014521
shinedalgarno,0.029360
shown,0.019365
sidechainmainchain,0.031528
sidechainsidechain,0.031528
signific,0.014266
simul,0.012141
site,0.028237
small,0.006837
smaller,0.009501
snorna,0.029360
softwar,0.035517
solv,0.010284
sometim,0.014548
space,0.008615
speci,0.010277
specif,0.013371
specifi,0.011361
spectroscopi,0.016708
sperm,0.018437
spliceosom,0.054953
squar,0.011839
stabil,0.010421
stack,0.017424
standard,0.015052
stanford,0.012980
start,0.007073
stem,0.012560
stemloop,0.057241
stereochemistri,0.021743
straightforward,0.017691
strong,0.008119
structur,0.515785
subunit,0.037539
sum,0.011146
techniqu,0.008587
term,0.026401
termin,0.026186
tertiari,0.152095
tetraloop,0.029360
theoret,0.009162
thi,0.020898
threedimension,0.107439
thu,0.006532
thymu,0.024146
torsion,0.021691
tractabl,0.020592
transfer,0.009562
transform,0.018294
trna,0.023036
trout,0.024682
typic,0.014993
u,0.091270
ulrik,0.026415
unbranch,0.025743
uncrosslink,0.031528
understand,0.007585
uniqu,0.009528
unit,0.005636
univers,0.005787
use,0.041094
usual,0.006724
varieti,0.008390
variou,0.006361
vast,0.011221
wa,0.004581
way,0.005974
welldefin,0.016656
wherea,0.009696
wide,0.014394
wilkin,0.020443
word,0.007756
work,0.005478
xray,0.076200
year,0.005639
zdna,0.029795
