abl,0.005474
abov,0.005548
academi,0.008348
access,0.005996
accompani,0.008378
accumul,0.016627
adapt,0.027604
addit,0.004384
adult,0.008484
advantag,0.020180
aggreg,0.018329
ago,0.008397
ajon,0.022074
al,0.007433
align,0.009362
allow,0.004309
altern,0.011137
amber,0.013666
amphibian,0.012791
angiosperm,0.015821
ani,0.003819
anim,0.048527
anoth,0.004168
anther,0.019309
antherida,0.045597
antheridia,0.042108
apart,0.007941
appear,0.010039
appendag,0.014599
approach,0.004987
archaea,0.040737
archaeal,0.019108
archegonia,0.100169
asexu,0.069745
associ,0.012700
attach,0.008204
august,0.006585
averag,0.006473
away,0.013203
bacteri,0.181134
bacteria,0.039796
bacterium,0.013275
basic,0.021028
bear,0.008110
becaus,0.007867
becom,0.008366
befor,0.013388
behavior,0.006129
benefici,0.009589
benefit,0.006341
better,0.011785
billion,0.007422
bind,0.009023
biolog,0.018592
biologist,0.019554
bird,0.008920
birth,0.046198
bodi,0.015731
bodili,0.011419
book,0.004966
born,0.022145
breed,0.010479
bryophyt,0.053018
burst,0.011770
capac,0.007254
capsul,0.043329
carpel,0.037171
carri,0.016925
caus,0.004671
cell,0.158066
cellular,0.019368
certain,0.004790
certif,0.010172
chang,0.007891
characterist,0.012065
chemic,0.006664
child,0.008405
choic,0.006876
chorion,0.018024
chosen,0.007997
chromosom,0.136488
classifi,0.007079
color,0.008719
column,0.009944
combat,0.009187
come,0.005006
common,0.008464
commonli,0.005812
compet,0.021650
competit,0.006882
complet,0.004834
complex,0.010244
concept,0.004884
condit,0.009795
conjug,0.060064
connect,0.005763
consider,0.005882
contain,0.020087
contribut,0.005137
control,0.004650
controversi,0.006897
copi,0.008439
copul,0.016098
cost,0.018463
cover,0.005763
creat,0.008563
creation,0.006371
cretac,0.014871
cross,0.015280
crosspollin,0.018922
current,0.004481
cycl,0.007175
cytoplasm,0.012713
daili,0.008187
damag,0.015108
date,0.005850
daughter,0.009607
deal,0.005639
definit,0.005535
degre,0.005732
deleteri,0.028259
depend,0.009237
deposit,0.024862
describ,0.004308
determin,0.004861
develop,0.045511
dew,0.016040
die,0.006707
differ,0.007421
dimorph,0.063284
diploid,0.042551
direct,0.004648
directli,0.005624
disadvantag,0.010380
dispers,0.009607
display,0.015911
dispos,0.010356
distinct,0.010782
distinguish,0.006214
divers,0.006732
divid,0.005550
divis,0.024268
dna,0.117446
doe,0.014209
domin,0.011520
doubl,0.007750
drift,0.010792
dure,0.024177
earli,0.008430
ed,0.005899
effect,0.004094
effort,0.005836
egg,0.244670
embryo,0.035034
employ,0.011180
encas,0.015821
encod,0.010262
endosperm,0.038217
english,0.005869
enhanc,0.007805
enter,0.006161
entir,0.005466
environ,0.011173
equilibrium,0.008808
equisetum,0.021054
ero,0.016616
essenti,0.005858
estrou,0.018433
et,0.007244
eukaryot,0.046434
eusoci,0.017565
everi,0.005273
evid,0.011493
evolut,0.041055
evolutionari,0.008303
evolv,0.006917
examin,0.006596
exchang,0.023830
exhibit,0.007955
exist,0.004190
exogen,0.013109
expect,0.005790
explain,0.005673
explan,0.007418
exposur,0.009366
extant,0.022302
extend,0.005558
extern,0.006590
extrem,0.012090
facilit,0.007597
fact,0.005350
facult,0.015388
featur,0.011399
februari,0.006847
feedback,0.010234
femal,0.236921
fern,0.056957
fertil,0.194347
fight,0.007907
film,0.025642
fish,0.094356
fisher,0.022237
fisherian,0.017784
fit,0.007672
flagella,0.016098
flower,0.061404
follow,0.010814
forc,0.004516
foreign,0.005866
form,0.031002
format,0.006146
formosa,0.034355
fossil,0.009767
frequenc,0.008612
fruit,0.008930
function,0.009227
fungi,0.032727
fuse,0.044378
gamet,0.138997
gametophyt,0.170893
gene,0.052465
gener,0.016191
genet,0.084198
germin,0.028591
grain,0.029374
grandchildren,0.014664
green,0.007750
group,0.004065
grow,0.052008
growth,0.005704
guppi,0.019108
gynogenesi,0.022798
ha,0.024039
half,0.012406
hand,0.011167
haploid,0.059344
hatch,0.013875
heart,0.008271
heat,0.007946
hermaphrodit,0.062874
high,0.004563
hold,0.005428
homolog,0.034796
hong,0.010536
hornwort,0.017901
host,0.016481
howev,0.003657
human,0.013025
hyperthermophil,0.019309
hypothes,0.008961
idea,0.010115
ident,0.006452
imag,0.006939
immedi,0.006624
impli,0.014012
inclement,0.021054
includ,0.021898
incorpor,0.012376
increas,0.004333
individu,0.013945
induc,0.008923
inform,0.004480
infrequ,0.013600
inhabit,0.007834
initi,0.009793
insect,0.061439
insid,0.007558
instanc,0.006103
institut,0.004768
integr,0.005438
interact,0.005622
intern,0.023694
intrins,0.009541
involv,0.017475
isbn,0.010654
join,0.006703
journal,0.005796
juvenil,0.013237
k,0.006832
karyogami,0.041332
khan,0.011729
kind,0.006002
known,0.011295
kong,0.010627
land,0.005702
larg,0.007941
larger,0.005947
later,0.004480
lay,0.016956
lead,0.017981
leaflik,0.022074
leav,0.012760
lectur,0.008192
level,0.004505
levin,0.013127
like,0.016096
link,0.003275
live,0.024356
livebear,0.018748
liverwort,0.033090
locat,0.011078
look,0.006220
lycopodium,0.022798
mainli,0.006254
maintain,0.010506
mainten,0.009037
major,0.011990
make,0.007662
male,0.185905
maleproduc,0.022798
mammal,0.057224
mani,0.006810
marker,0.011588
marsupi,0.015928
mask,0.011944
massachusett,0.009878
master,0.008039
mate,0.079063
materi,0.021116
matur,0.017532
mean,0.008297
meet,0.006095
meiosi,0.111592
method,0.009331
michod,0.044149
microscop,0.009725
migrat,0.008049
million,0.011834
mitosi,0.028101
mitot,0.015769
mode,0.008481
model,0.009385
moist,0.013974
molli,0.016841
mollusk,0.015433
monotrem,0.017269
month,0.006655
morpholog,0.020642
moss,0.040298
mostli,0.006427
motil,0.042230
multicellular,0.037237
mutat,0.031381
natur,0.020109
nearli,0.006561
need,0.009057
new,0.016825
newborn,0.026475
nonflow,0.022798
normal,0.012009
nourish,0.013827
nuclei,0.032507
number,0.015075
numer,0.005581
obtain,0.005855
occur,0.033504
offspr,0.090427
oldest,0.008149
onli,0.017338
open,0.005157
order,0.008302
organ,0.045200
origin,0.004174
ornament,0.012609
outcom,0.007701
outcompet,0.015433
outlin,0.014665
outreproduc,0.022798
outsid,0.005746
ova,0.050292
ovari,0.029463
ovovivipar,0.018153
ovul,0.048294
ovum,0.017089
pair,0.016056
pang,0.017364
parent,0.042420
parthenogenesi,0.017901
parthenogenet,0.020033
particular,0.004715
partner,0.008235
pass,0.005852
penetr,0.010063
period,0.013428
perseu,0.014443
phase,0.036222
phenotyp,0.011608
philosophi,0.006413
photosynthes,0.017089
physic,0.004929
physiolog,0.008873
pilu,0.019528
placent,0.032314
plant,0.130809
plasmid,0.073490
plasmogami,0.042108
plu,0.008475
poecilia,0.068396
point,0.004369
pollen,0.091032
pollin,0.013899
popul,0.032159
posit,0.004464
pouch,0.016040
power,0.004420
present,0.012958
prevent,0.006175
primari,0.005702
primit,0.009559
principl,0.005185
process,0.028586
produc,0.107874
product,0.004502
prokaryot,0.025677
promot,0.006162
propos,0.005329
prospect,0.009179
psilotum,0.020330
puzzl,0.011502
quickli,0.007031
rain,0.010969
rapidli,0.007282
rare,0.007109
rate,0.005353
ratio,0.031163
read,0.004758
readi,0.020137
reason,0.009834
recent,0.004744
recept,0.010843
recombin,0.068352
refer,0.005479
regard,0.005256
releas,0.041082
remain,0.004531
repair,0.029260
replic,0.009670
reproduc,0.083652
reproduct,0.335035
reptil,0.012047
research,0.004444
respond,0.014778
rest,0.006418
result,0.007632
rhizom,0.017672
ripe,0.032314
rise,0.005513
rock,0.008579
ronald,0.009786
root,0.006920
round,0.008678
runaway,0.014324
say,0.005935
scatter,0.010117
scienc,0.004607
seahors,0.020666
secondari,0.007801
secur,0.005820
seed,0.019441
selaginella,0.020666
select,0.035745
selffertil,0.055757
selfpollin,0.018922
sensor,0.011356
separ,0.010010
sequenc,0.007605
serial,0.012412
seta,0.018024
sever,0.015899
sex,0.170749
sexual,0.333100
shape,0.006530
short,0.005841
similar,0.022765
simpli,0.006221
sinauer,0.018024
singl,0.005102
singlecel,0.029008
sink,0.011356
size,0.023751
slowli,0.008788
small,0.009331
smaller,0.012966
speci,0.147261
special,0.014306
speciesspecif,0.037171
specif,0.004562
sperm,0.188703
spermatophor,0.019528
spermatozoa,0.016098
splash,0.018153
sporangium,0.039057
spore,0.167091
sporephyt,0.022798
sporophyt,0.107409
spread,0.020219
start,0.009652
state,0.003336
statistician,0.012729
stenian,0.022798
sticki,0.013851
stigma,0.029263
stimul,0.008532
store,0.007724
strategi,0.014205
strength,0.007733
structur,0.017819
studi,0.004029
style,0.007856
subsequ,0.005950
substitut,0.008472
substrat,0.011579
succeed,0.007795
suggest,0.010675
sulfolobu,0.042108
sunderland,0.017672
suppli,0.006215
support,0.004533
suppos,0.008378
surround,0.013965
surviv,0.013152
swim,0.024771
tend,0.006261
tendenc,0.008561
term,0.003602
thallu,0.060991
theori,0.004469
therefor,0.020730
thi,0.028519
thu,0.008914
time,0.010120
tissu,0.018427
togeth,0.010515
trait,0.018068
transduct,0.013803
transfer,0.052198
transform,0.043690
triploid,0.018922
tube,0.021072
twofold,0.014076
twothird,0.010447
type,0.013752
typic,0.020461
ultim,0.006594
understand,0.005175
unfertil,0.019108
unisex,0.021054
use,0.021808
vari,0.016862
variat,0.007147
vast,0.015312
veget,0.009102
veri,0.004354
video,0.008392
vivipar,0.016764
wa,0.006252
wasp,0.014504
water,0.029408
weizmann,0.017462
wellstudi,0.015058
whi,0.028062
work,0.003737
year,0.015392
young,0.035399
zygot,0.083996
