abandon,0.002630
abil,0.009687
abl,0.005336
absenc,0.005177
absolut,0.002388
abund,0.002855
accept,0.001767
access,0.001948
accid,0.003394
achiev,0.001771
acquir,0.002293
activ,0.012646
actual,0.001802
adam,0.002857
adapt,0.004484
add,0.002685
admiss,0.011268
adult,0.005513
adultadult,0.007408
adulthood,0.004405
advanc,0.001739
affect,0.007360
affection,0.005193
affili,0.003221
african,0.004936
age,0.022926
aggress,0.043929
ago,0.002728
agonist,0.015133
agreeabl,0.004775
aid,0.002112
air,0.002163
allow,0.008402
alon,0.007224
alpha,0.003259
altern,0.003618
amen,0.007931
america,0.001973
american,0.001595
anal,0.004986
ancestr,0.003681
ancestri,0.003866
angri,0.004426
ani,0.004964
anim,0.013797
annual,0.002163
anoth,0.021670
answer,0.002507
antagonist,0.004097
anthropomorph,0.004358
anticipatori,0.005742
anxieti,0.041113
anxiou,0.004600
appear,0.003262
appli,0.003010
approach,0.008103
appropri,0.004514
approxim,0.001919
area,0.004195
arm,0.002245
arous,0.004151
articl,0.003347
artifici,0.002378
ascertain,0.004055
ask,0.002327
aspca,0.006509
assess,0.007195
assist,0.002099
associ,0.011004
assum,0.001950
attach,0.002666
attack,0.020433
attempt,0.001606
attent,0.011481
attribut,0.004378
attun,0.005212
australia,0.002447
australian,0.002928
author,0.001585
autism,0.004635
automat,0.002874
avail,0.005164
averag,0.006310
avoid,0.014723
away,0.004290
ball,0.003477
bark,0.021857
barometr,0.005331
base,0.003681
basenji,0.014345
basi,0.001754
basic,0.001708
batteri,0.003814
battl,0.002659
bear,0.005270
becam,0.001552
becom,0.008155
befor,0.004350
begin,0.008278
behav,0.003020
behavior,0.075687
behaviour,0.044504
believ,0.001756
betweensubject,0.006715
biolog,0.002013
bird,0.002898
birth,0.002501
bitch,0.049187
bite,0.026644
biterel,0.007408
bitten,0.019036
bleed,0.004540
blind,0.006950
blood,0.002765
boar,0.005230
bodi,0.015334
bond,0.007275
bone,0.003184
border,0.010005
born,0.004797
boundari,0.002370
bout,0.009837
bowl,0.004313
branch,0.001805
breed,0.034050
brian,0.003473
brief,0.002691
bring,0.002110
broad,0.004561
bulbpeduncl,0.007408
calm,0.003994
calv,0.005091
came,0.001859
cani,0.016926
canid,0.047796
canin,0.049584
capabl,0.002239
capac,0.007072
cape,0.003571
captiv,0.007284
carcass,0.005044
care,0.017091
caretak,0.004617
carib,0.004591
carri,0.001833
case,0.004265
catecholamin,0.005742
cattl,0.003331
caudat,0.031728
caus,0.003035
certain,0.003113
challeng,0.002031
chang,0.003846
charact,0.002350
character,0.008627
chase,0.030933
chasepron,0.007408
chaser,0.005856
chemic,0.004330
chew,0.004713
choic,0.002234
circl,0.002740
claim,0.003452
classifi,0.002300
clear,0.004233
clearli,0.002557
clinic,0.002965
clomipramin,0.006606
close,0.001521
closer,0.005628
coevolut,0.009426
cognit,0.018874
colli,0.006092
come,0.004879
comfort,0.003612
command,0.011930
commenc,0.003440
comment,0.002724
common,0.005501
commonli,0.001888
commun,0.014872
compani,0.001795
companion,0.006560
companionship,0.005611
compar,0.016822
comparison,0.002385
competit,0.002236
competitor,0.003523
complet,0.001570
complex,0.006657
compos,0.004315
concentr,0.002225
concept,0.001587
concern,0.003193
conclud,0.002326
condemn,0.003203
condit,0.004774
conduct,0.001949
confid,0.008728
conscienti,0.004645
consequ,0.005802
consist,0.009134
constant,0.004522
consumpt,0.002652
contact,0.016707
contagion,0.005075
contain,0.001631
contemporari,0.002224
contest,0.002992
context,0.006002
contextu,0.008343
continu,0.002756
contrast,0.021135
control,0.007556
cooper,0.002173
coopt,0.010029
cooptabl,0.007408
coordin,0.004822
copulatori,0.005742
core,0.004830
correct,0.002290
correctli,0.003268
correl,0.005302
cortisol,0.028056
cost,0.001999
cousin,0.003740
coyot,0.005422
crash,0.006765
creat,0.002782
cri,0.008396
criteria,0.002848
critic,0.008365
crouch,0.005611
crowd,0.003544
curiosityfearless,0.007408
current,0.001456
cycl,0.009326
daili,0.002660
day,0.008582
deaf,0.004856
deal,0.001832
death,0.003984
decept,0.003998
decreas,0.004479
deeper,0.003398
deer,0.008639
default,0.003470
defec,0.011050
defend,0.007634
defin,0.004682
definit,0.001798
degre,0.007450
demonstr,0.004089
den,0.012235
densiti,0.002744
depend,0.003001
deposit,0.002692
deriv,0.001729
descript,0.002079
despit,0.007714
destruct,0.002692
detect,0.004995
determin,0.003159
develop,0.006825
diabet,0.004024
did,0.003376
differ,0.021704
differenti,0.002303
difficult,0.001983
dimens,0.013085
dingo,0.012296
direct,0.001510
disabl,0.003312
disciplin,0.002095
discrimin,0.003158
dismount,0.006274
disord,0.005864
dispers,0.003121
displac,0.002918
display,0.010340
disput,0.002287
dissimilar,0.004524
dissolv,0.002825
distinct,0.003503
distinguish,0.002019
diverg,0.003074
document,0.002196
doe,0.004617
dog,0.902337
dogbit,0.007408
dogdog,0.007408
doghuman,0.007408
domest,0.054206
domin,0.022461
dominantsubmiss,0.007408
dosag,0.009837
drug,0.002682
dump,0.004455
dung,0.005331
durat,0.003239
dure,0.011784
dyad,0.010944
earli,0.005478
earlier,0.002023
earth,0.002149
eat,0.006391
ecolog,0.002580
effect,0.005321
ejacul,0.005472
elbow,0.005158
elev,0.003055
elimin,0.002368
emot,0.008439
empath,0.005310
empathi,0.008925
employ,0.001816
enabl,0.004343
encount,0.013485
end,0.001497
endocrin,0.004378
energi,0.003834
engag,0.010842
england,0.002376
enlarg,0.003497
enter,0.004003
entir,0.001776
environ,0.007261
environment,0.004403
epilepsi,0.004693
equal,0.001864
erect,0.007426
escal,0.007094
escap,0.002749
estim,0.001927
estrou,0.023958
estru,0.045939
etholog,0.004358
ethologist,0.005447
europ,0.001856
evalu,0.004745
everi,0.003427
evid,0.007469
evolut,0.006670
exact,0.005224
exampl,0.004905
exchang,0.001935
exclus,0.004678
exercis,0.002352
exhibit,0.005170
exist,0.002723
expect,0.003763
experi,0.003367
experiment,0.002287
expert,0.002704
explor,0.008346
explos,0.003035
exposur,0.003043
express,0.005322
extend,0.001806
extens,0.001849
extern,0.002141
extinct,0.003113
extravers,0.005816
eye,0.002737
face,0.006166
facepaw,0.007408
facial,0.020345
factor,0.013890
faecal,0.006606
fallen,0.003327
famili,0.003792
familiar,0.020282
familiari,0.013019
farther,0.003824
fatal,0.007118
father,0.004815
favor,0.002261
fear,0.015417
fecal,0.005742
fed,0.003664
femal,0.019246
feral,0.143794
feroc,0.005552
fetch,0.004986
field,0.001495
fight,0.007708
fightorflight,0.006345
firework,0.005158
fix,0.002173
flag,0.003270
flirt,0.006148
fluctuat,0.003058
fluid,0.002886
focu,0.002008
follow,0.003514
food,0.033720
foot,0.003181
forc,0.002935
form,0.003357
format,0.001997
foster,0.009391
framework,0.002097
free,0.001672
freerang,0.012847
freeroam,0.007408
frequenc,0.002798
frequent,0.002058
fresh,0.003289
friendli,0.003373
frighten,0.004540
fullon,0.006715
function,0.001499
fur,0.004046
furless,0.006990
furthermor,0.002509
game,0.010051
garbag,0.004693
gaze,0.004958
gene,0.014206
gener,0.007365
geniu,0.003986
genom,0.003325
genu,0.007397
gestur,0.004051
given,0.005874
gland,0.004121
good,0.001628
gray,0.007306
great,0.001650
greater,0.012910
ground,0.002130
group,0.018492
grow,0.003755
growl,0.017336
guarante,0.002686
guard,0.012242
guid,0.002070
guinea,0.003457
gunshot,0.005250
gustatori,0.005942
ha,0.012693
habitat,0.006830
half,0.002015
hand,0.009072
handler,0.011050
hare,0.004477
health,0.002041
hear,0.006175
heat,0.005164
hectar,0.004313
height,0.002919
held,0.001731
help,0.004809
henc,0.002284
high,0.005930
higher,0.012185
highli,0.005783
highrank,0.004574
home,0.018819
hormon,0.007589
hospit,0.005775
hour,0.012866
hous,0.001964
household,0.008738
howev,0.014261
hum,0.005856
human,0.098756
humancanin,0.007408
humandog,0.006990
humanguid,0.013682
humanlik,0.009328
hunger,0.004028
hunt,0.014776
hunter,0.007421
hypersaliv,0.007408
hypothes,0.002911
idea,0.003287
identif,0.002884
identifi,0.008850
illeg,0.002950
immedi,0.004305
impli,0.002276
import,0.008742
importantli,0.003355
impos,0.002518
includ,0.008132
increas,0.011265
independ,0.004512
indic,0.019815
indirectli,0.003155
individu,0.019635
infer,0.008442
influenc,0.016128
inform,0.002911
inherit,0.002715
inhibit,0.003605
initi,0.012728
injuri,0.003246
insid,0.004911
insolubl,0.004673
insolv,0.004645
inspir,0.002422
instanc,0.005949
instead,0.005145
intact,0.003753
intellig,0.006854
intens,0.002432
intent,0.004928
interact,0.010962
interchang,0.003351
interestr,0.005212
intern,0.002566
interv,0.003085
intrigu,0.004171
intromiss,0.005525
intrud,0.004493
invit,0.003017
involuntari,0.004524
involv,0.005678
item,0.010744
join,0.002178
jump,0.003380
juvenil,0.004301
kept,0.002638
kick,0.004557
kill,0.002417
kilomet,0.011105
knee,0.004477
knew,0.003449
knowledg,0.001841
known,0.001223
label,0.002634
lack,0.001866
lactat,0.004786
landmark,0.003446
languag,0.001840
larg,0.002580
larger,0.003864
largest,0.002022
later,0.005823
latitud,0.003713
lead,0.001460
leadership,0.002656
learn,0.014396
leav,0.002073
left,0.003903
level,0.007319
lick,0.010351
lickyawn,0.007408
life,0.011015
lifelong,0.004289
lifestyl,0.003486
lifetim,0.003134
like,0.006538
likelihood,0.003394
limb,0.003831
limit,0.001495
line,0.001752
link,0.002128
literatur,0.002187
litter,0.028339
littl,0.009368
live,0.007914
locat,0.003599
lock,0.003170
longer,0.006057
longterm,0.002576
look,0.008085
loos,0.003043
lose,0.002574
loser,0.004775
lost,0.002127
lot,0.006030
loud,0.013216
lower,0.005426
lupu,0.005250
magnet,0.002873
magnitud,0.003020
main,0.003099
maintain,0.010241
major,0.002597
make,0.001244
male,0.032949
mani,0.003319
manipul,0.005242
manner,0.002362
mark,0.009827
markedov,0.007408
marker,0.003765
master,0.002612
mate,0.025690
matern,0.003910
matter,0.001841
matur,0.011394
maxim,0.008352
maximum,0.002661
mean,0.002696
meaningless,0.004121
measur,0.001603
medic,0.004508
meet,0.005941
melbourn,0.004398
member,0.012494
memori,0.005092
messag,0.003042
metaanalysi,0.004693
mgkg,0.006715
mglb,0.007408
miklosi,0.007408
militari,0.003960
milk,0.007231
millennia,0.003566
million,0.003845
mimic,0.004101
mimicri,0.014834
mind,0.002308
minut,0.008765
misconcept,0.004301
mock,0.004600
model,0.006099
monestru,0.007408
monogam,0.021414
month,0.017302
monthsofag,0.007408
moos,0.005707
moreov,0.002808
morpholog,0.003353
mortal,0.009815
mostli,0.002088
mother,0.022568
motionless,0.005059
motiv,0.014348
mount,0.011414
mouth,0.003470
movement,0.003375
mri,0.004242
multipl,0.003765
multipleown,0.007408
nation,0.001356
natur,0.003920
nearbi,0.003012
necessarili,0.002396
need,0.001471
neophillia,0.007408
neurotic,0.005376
neuter,0.010539
new,0.005467
nip,0.005642
nois,0.013963
noiserel,0.007408
nonerect,0.006990
nonhuman,0.003756
nonseason,0.006423
north,0.001943
note,0.001411
novel,0.016255
novelti,0.012997
nuzzl,0.006990
obedi,0.004265
object,0.003346
observ,0.019387
obtain,0.001902
occur,0.004665
offic,0.001970
old,0.002025
older,0.005137
olfactori,0.010089
onc,0.005487
onli,0.012394
onset,0.003765
open,0.001675
openmouth,0.007408
oper,0.006177
oppon,0.006081
opportun,0.006936
oppos,0.002045
opposit,0.002014
oral,0.003163
order,0.001348
orient,0.002550
origin,0.001356
os,0.004470
outcom,0.012513
outperform,0.004265
overcom,0.003006
overexcit,0.007408
overlap,0.002720
ovul,0.005230
owner,0.033226
oxford,0.002299
pack,0.032146
paid,0.002495
pain,0.003100
pair,0.013043
parent,0.013783
particular,0.003064
partner,0.002676
parturit,0.005942
patern,0.013154
patholog,0.003479
pathway,0.003287
pattern,0.006265
pay,0.004570
peer,0.003413
penguin,0.003681
peni,0.023667
peopl,0.009447
perceiv,0.004923
perform,0.003441
perhap,0.002275
perineum,0.006092
period,0.010181
person,0.033637
pet,0.034931
phase,0.002353
pheromon,0.015372
phobia,0.005230
photoperiod,0.017969
physic,0.003203
physiolog,0.005766
piec,0.002703
place,0.004153
plane,0.002948
play,0.060091
playbow,0.007408
plenti,0.003849
point,0.007099
polic,0.010889
polygam,0.012078
poor,0.002420
popul,0.012191
popular,0.001751
posit,0.002901
possess,0.002199
possibl,0.001431
postur,0.017133
potenti,0.005451
prais,0.003282
precipit,0.003227
predat,0.012464
predict,0.002053
predictor,0.004493
prefer,0.010747
pregnanc,0.004078
pregnant,0.004283
presenc,0.006368
present,0.009824
press,0.003304
pressur,0.004225
presum,0.003133
pretend,0.008690
prevent,0.004013
previou,0.008467
prey,0.015299
primari,0.001852
primarili,0.007674
primat,0.007964
prioriti,0.002960
problem,0.010508
problemsolv,0.004477
procept,0.007408
process,0.003980
procreat,0.005140
produc,0.004381
product,0.005851
productionrel,0.006841
proestru,0.014345
profoundli,0.004064
progress,0.001913
promot,0.002002
properli,0.002951
propos,0.003463
prosoci,0.005422
prostat,0.004765
protect,0.014966
provid,0.006227
proxim,0.003244
psycholog,0.002392
publish,0.006232
pup,0.114664
puppi,0.091380
pure,0.002219
questionnair,0.008955
quickli,0.002284
rais,0.004140
rang,0.026959
rank,0.002369
rapidli,0.002366
rare,0.004620
rate,0.017395
reach,0.007236
react,0.003110
reaction,0.004565
reactiv,0.006707
read,0.003092
readili,0.003046
rear,0.003982
rearend,0.013980
reason,0.001597
receiv,0.003401
recent,0.009249
reduc,0.001686
reduct,0.002561
refer,0.000890
reflex,0.003914
region,0.001594
regularli,0.003030
regurgit,0.020848
rehabilit,0.003838
rehom,0.006990
reinstat,0.004046
rel,0.006384
relat,0.003600
relationship,0.015293
relev,0.002328
reli,0.004290
reliant,0.004301
remain,0.007361
remov,0.002055
repeat,0.002569
report,0.005133
repres,0.001460
reproduc,0.009060
reproduct,0.018144
requir,0.008408
research,0.010109
reserv,0.002367
resort,0.003303
resourc,0.007209
respect,0.001692
respond,0.002400
respons,0.027793
result,0.006200
retain,0.002341
retriev,0.002644
reveal,0.002341
review,0.003989
reward,0.006159
rico,0.004203
ritual,0.006639
rock,0.002787
role,0.007797
roll,0.003321
roughandtumbl,0.014816
round,0.002820
run,0.003912
satiat,0.006148
scale,0.002014
scanner,0.004524
scat,0.006841
scaveng,0.018228
scent,0.063286
scienc,0.001497
scientif,0.001791
scientist,0.002035
scratch,0.004345
scrutini,0.004046
season,0.005753
second,0.002922
secret,0.002746
secur,0.001891
seen,0.006986
select,0.019358
self,0.003059
selfdomest,0.007408
selfsustain,0.004786
semifer,0.007408
send,0.002784
sens,0.012822
sensit,0.005734
separ,0.013011
sequenc,0.002471
servic,0.003468
session,0.006773
set,0.002758
settlement,0.002597
seven,0.004672
sever,0.007749
sex,0.009247
sexual,0.011701
shake,0.004493
shape,0.002121
share,0.001734
sharp,0.003008
shelter,0.006941
shift,0.002157
shown,0.012881
shynessbold,0.007408
sign,0.002039
signal,0.017930
signatur,0.007252
signifi,0.003592
signific,0.001581
significantli,0.002284
similar,0.007397
simpl,0.003937
sing,0.004101
singl,0.006632
singleown,0.007408
sit,0.003275
site,0.002086
situat,0.005722
size,0.021223
skill,0.002386
skull,0.003957
slap,0.006039
sleep,0.010577
slightli,0.002685
small,0.003032
smaller,0.002106
smallest,0.003224
smell,0.024279
snap,0.004880
snif,0.017022
sniff,0.006092
sociabl,0.015750
social,0.045706
socialcognit,0.006274
societi,0.001552
solicit,0.004462
solv,0.009120
sometim,0.008064
sourc,0.001558
space,0.005730
speak,0.002375
speci,0.011393
special,0.001549
speciestyp,0.005942
specif,0.002964
specul,0.002577
spend,0.005143
spontan,0.003202
spot,0.003101
springtim,0.012078
squar,0.007874
stabl,0.009753
stand,0.009313
stare,0.005158
start,0.012546
state,0.004336
statu,0.006207
stay,0.005423
stereotypi,0.006715
stimuli,0.011374
stimulu,0.003628
stock,0.002390
stool,0.005250
strang,0.007351
stranger,0.021726
strategi,0.004615
stray,0.018892
stress,0.002540
strong,0.001800
strongli,0.002387
structur,0.005790
studi,0.039280
subject,0.001576
submiss,0.011767
submit,0.003103
subordin,0.003419
substanc,0.002604
substitut,0.002753
succeed,0.002532
success,0.003286
sudden,0.003547
suffer,0.004522
suffici,0.002290
suggest,0.003468
supermarket,0.004508
suppli,0.002019
support,0.001473
surfac,0.002243
surround,0.004537
survey,0.002381
surviv,0.008547
susten,0.004809
swell,0.004092
symmetri,0.003449
sympatr,0.005778
symptom,0.003525
synthesi,0.002766
tail,0.021522
tailchas,0.007408
talk,0.002666
tame,0.009049
task,0.013790
tast,0.006954
taymyr,0.006990
techniqu,0.001903
tell,0.002790
tempera,0.008881
tend,0.006103
tens,0.004378
term,0.004682
terrier,0.006509
territori,0.015180
test,0.008101
theori,0.001452
therebi,0.002564
therefor,0.011787
thi,0.024094
thing,0.001971
think,0.002148
thought,0.001755
thousand,0.002184
threshold,0.003451
throw,0.003804
thrust,0.004358
thu,0.001448
thunderstorm,0.010119
tie,0.002416
time,0.016443
togeth,0.003416
took,0.001935
total,0.001728
touch,0.006540
tradit,0.003120
train,0.021394
trait,0.020549
translat,0.002132
transmit,0.003035
treat,0.002169
treatment,0.004558
tri,0.005850
trigger,0.006027
truli,0.003104
trust,0.005416
tugofwar,0.012296
tune,0.004024
turn,0.005138
twist,0.004064
type,0.008937
typic,0.001662
uk,0.002270
unattend,0.005742
uncommon,0.003797
uncondit,0.004203
uncoordin,0.005642
uncov,0.003523
undergo,0.005745
understand,0.006727
undertaken,0.003192
unfamiliar,0.004301
ungul,0.010621
uniqu,0.002112
unit,0.001249
univers,0.001283
unlik,0.008253
unrestrain,0.005140
unsed,0.007408
uphold,0.004073
urban,0.002598
urg,0.003270
urin,0.012408
urinari,0.004723
use,0.017209
usual,0.013418
vagina,0.010089
valu,0.003175
vari,0.003652
variabl,0.002264
variat,0.004644
variou,0.001410
venessa,0.007408
verbal,0.003564
veri,0.005659
version,0.004334
vertic,0.003205
vigil,0.004820
villag,0.005662
vision,0.002683
visitor,0.003388
visual,0.002614
vocal,0.015481
vocalis,0.005816
voic,0.008858
vulner,0.003151
vulva,0.011633
vulval,0.007408
wa,0.014222
wake,0.003305
walk,0.012658
way,0.002649
wean,0.005422
week,0.031248
weeksofag,0.007408
weight,0.007491
wellsoci,0.014816
wherea,0.010749
wide,0.001595
wild,0.019071
wildlif,0.007060
win,0.008357
winner,0.003411
winter,0.003070
withdraw,0.002978
wolf,0.083483
wolfbehavior,0.007408
wolflik,0.006423
wolv,0.141177
wood,0.002858
word,0.001719
work,0.008502
world,0.002512
year,0.018755
yearsofag,0.007408
yield,0.002420
young,0.016103
younger,0.003078
