abl,0.001883
abort,0.004164
acquir,0.002428
activ,0.001487
actual,0.001907
adapt,0.018991
adopt,0.002057
adult,0.011674
advanc,0.001841
advers,0.006983
affect,0.007792
afognak,0.007842
age,0.009335
ago,0.005777
akin,0.003989
alashan,0.062741
alashanicu,0.015685
alaska,0.009019
alaskan,0.011698
alc,0.032545
allow,0.002965
altai,0.049602
alter,0.002674
altitud,0.008069
america,0.035518
american,0.018580
amur,0.012583
anasazi,0.007400
anatomi,0.003501
ancestor,0.003204
angl,0.003364
ani,0.001313
anim,0.025040
annual,0.002290
antler,0.176569
antlerless,0.007842
apart,0.002732
aphrodisiac,0.006341
appalachian,0.005644
appear,0.006906
appli,0.003187
approach,0.001715
appropri,0.002389
area,0.007403
argentina,0.011094
argentinian,0.005498
arid,0.004347
arizona,0.008596
art,0.002280
artiodactyla,0.007109
artwork,0.004566
asia,0.035836
asian,0.019880
aspen,0.012583
assess,0.002539
assist,0.002222
associ,0.001456
attack,0.002403
attempt,0.003401
attent,0.002430
attract,0.007196
attribut,0.004634
auction,0.008586
august,0.002265
autumn,0.003966
avail,0.005467
averag,0.013360
away,0.004541
bachelor,0.003882
bacteri,0.007788
badg,0.005578
baikal,0.011482
ban,0.003003
bark,0.018511
base,0.002597
basin,0.003542
bear,0.011159
becaus,0.002706
beef,0.013073
began,0.005384
begin,0.005258
behavior,0.010543
believ,0.003718
bellow,0.005644
belong,0.007619
belt,0.003918
benevol,0.004467
beringia,0.012583
biolog,0.002131
biologist,0.003363
birth,0.005297
bison,0.005600
black,0.002425
blackfeet,0.007842
blanket,0.009957
blood,0.002927
boar,0.005537
bodi,0.012626
bone,0.003371
border,0.002647
born,0.005078
boy,0.003542
bpoe,0.015685
brain,0.005753
brainworm,0.007842
breakdown,0.003700
breed,0.010814
bring,0.002234
british,0.004014
bronz,0.003617
brought,0.002215
brown,0.012200
brows,0.005278
browser,0.004815
brucellosi,0.020153
buff,0.006573
bugl,0.037968
bull,0.082969
c,0.079136
calf,0.005715
california,0.002757
calv,0.048509
came,0.001968
camel,0.009402
cameloid,0.007842
canada,0.002578
canadensi,0.156409
canadian,0.003055
captiv,0.019280
carib,0.004860
carolina,0.004056
carri,0.001940
carv,0.003989
cascad,0.004327
case,0.004515
caspian,0.004879
cattl,0.017632
caus,0.003213
centimetr,0.005128
central,0.008438
centuri,0.006183
cervida,0.014800
cervu,0.097910
challeng,0.002150
chanc,0.002898
chang,0.001357
characterist,0.002075
chatter,0.005878
chicken,0.008558
chile,0.003894
chilean,0.004807
china,0.006939
chines,0.007763
cholesterol,0.005115
chose,0.003386
chronic,0.011101
claim,0.001827
classif,0.005313
clearli,0.005414
cliff,0.004031
climat,0.002570
climaticrel,0.007842
close,0.003222
cloth,0.003147
coast,0.002747
coat,0.035667
coincid,0.003238
collect,0.005269
colon,0.003194
color,0.023994
columbia,0.003348
combat,0.003160
commerci,0.004613
common,0.008735
commonli,0.001999
compet,0.007447
concept,0.001680
concern,0.003381
conclud,0.002462
condit,0.001684
conduct,0.004127
confus,0.002710
connect,0.001982
consequ,0.004095
conserv,0.002390
conservationist,0.005293
consid,0.005617
consist,0.001611
conspicu,0.004716
constant,0.002393
constantli,0.003356
consum,0.014386
contain,0.001727
contin,0.006205
continent,0.003206
continu,0.002918
contract,0.002415
contrast,0.004068
control,0.001599
cooper,0.002301
copyright,0.004255
cord,0.004298
cougar,0.006449
countri,0.003169
courag,0.004491
court,0.002283
cover,0.003965
cow,0.037372
coyot,0.011482
cree,0.013435
creutzfeldtjakob,0.005940
crossbr,0.006642
cultiv,0.003075
cultur,0.009052
current,0.001541
cycl,0.002468
daili,0.005632
dark,0.003113
darker,0.020088
day,0.007268
daytim,0.005340
dead,0.003018
death,0.006327
declar,0.002325
declin,0.004572
decor,0.003909
deer,0.192079
defend,0.005388
defens,0.005286
defin,0.001652
definit,0.001904
demonstr,0.002164
depart,0.002111
depend,0.003177
depict,0.006007
descend,0.002914
describ,0.002964
desert,0.003424
design,0.001768
detect,0.002644
deter,0.004411
determin,0.001672
develop,0.003612
dhole,0.006509
dictyocaulu,0.007842
diet,0.007121
differ,0.006382
dig,0.004491
digest,0.003679
direct,0.001599
diseas,0.042881
disorient,0.006158
distanc,0.002564
distinct,0.014836
distinguish,0.006413
distribut,0.001986
dna,0.018646
document,0.004649
doe,0.001629
domest,0.004990
domin,0.003963
dozen,0.006736
dream,0.003476
driven,0.002803
drop,0.005286
dure,0.023564
dwell,0.004260
dweller,0.005056
earli,0.013050
east,0.002228
eastern,0.019250
eat,0.010149
ecolog,0.002732
econom,0.001586
ecosystem,0.026306
ecotyp,0.006341
edg,0.003163
effect,0.002816
effort,0.002007
eimeria,0.007842
elaphu,0.044402
elch,0.007842
element,0.001843
elev,0.003234
elglg,0.007842
elgr,0.007842
elimin,0.002507
elk,0.820964
emblem,0.005373
embodi,0.003351
employ,0.001923
employe,0.003037
encroach,0.004467
encrust,0.006117
end,0.004755
endem,0.004038
engag,0.004591
english,0.002019
ensur,0.002381
enter,0.002119
environ,0.009608
erad,0.004215
escap,0.002910
escapeproof,0.007842
especi,0.003366
essenti,0.002015
establish,0.003094
estim,0.006120
estru,0.012158
etolin,0.007842
etymolog,0.003086
eurasia,0.012673
eurasian,0.008889
europ,0.001965
european,0.010834
evid,0.003953
exceed,0.003044
exist,0.004324
expect,0.001991
explor,0.002208
extent,0.002385
extern,0.001133
extinct,0.016479
factor,0.001838
fall,0.007915
famili,0.008029
familiar,0.003067
farm,0.008677
fascioloid,0.007842
fat,0.003969
fatal,0.003768
favor,0.004788
fed,0.007758
fee,0.003393
feed,0.016640
femal,0.037839
fend,0.005193
fertil,0.003038
fever,0.004132
fight,0.002720
figur,0.004294
fiordland,0.007109
fish,0.005409
flag,0.003461
fluke,0.005667
flulik,0.007400
follow,0.002480
fond,0.004958
food,0.004462
foot,0.003368
footwear,0.005234
forb,0.004194
forc,0.001553
forest,0.023850
forestadapt,0.015685
forestedg,0.007842
form,0.007109
format,0.002114
forth,0.003151
fossil,0.010080
foundat,0.002021
fourchamb,0.012400
fratern,0.009513
freeli,0.003371
frequent,0.002179
frontleg,0.007842
ft,0.016941
fulli,0.004674
furnitur,0.004593
game,0.010640
gastrointestin,0.004947
gather,0.002702
gave,0.002255
geist,0.012235
gener,0.002227
genet,0.002633
genu,0.007831
geograph,0.002521
german,0.002189
gestat,0.009916
given,0.001554
glove,0.005373
goat,0.004078
gold,0.002695
good,0.001723
gramneg,0.006079
grass,0.011719
gray,0.007735
graze,0.004352
grazer,0.006117
great,0.005241
greater,0.009762
groceri,0.005091
ground,0.002255
group,0.012585
grove,0.004497
grow,0.009939
grunt,0.005940
guarante,0.002843
guid,0.002191
gulf,0.003506
guttur,0.007400
ha,0.015505
habitat,0.018078
hair,0.018454
half,0.002133
han,0.003098
hanglu,0.007842
harem,0.040011
harsh,0.003688
harvest,0.003436
head,0.004002
heard,0.003686
heavi,0.005358
held,0.001832
help,0.003394
henc,0.002418
herbivor,0.004593
herd,0.037227
hi,0.002779
hide,0.011009
higher,0.007371
highli,0.006122
hind,0.004947
histor,0.003482
histori,0.001291
hold,0.003734
hole,0.003528
hors,0.006697
host,0.005669
hour,0.002724
howev,0.006290
howl,0.006244
hue,0.005340
huemul,0.007842
human,0.005974
hundr,0.002355
hunt,0.021900
hunter,0.003928
hunterconserv,0.007842
hybrid,0.003238
idaho,0.005356
ident,0.002219
identifi,0.003747
ill,0.003010
imag,0.004774
impact,0.014871
import,0.003966
inadvert,0.009529
includ,0.011837
increas,0.001490
indic,0.003814
indigen,0.003090
individu,0.004797
infect,0.010555
infecti,0.008305
infertil,0.005033
inhabit,0.008085
injuri,0.003436
instead,0.001815
institut,0.001640
insul,0.004220
interbr,0.006117
intermedi,0.003046
interpret,0.002068
introduc,0.007274
introduct,0.004110
invad,0.003100
invas,0.005653
investig,0.002172
involv,0.001502
irish,0.003676
iron,0.002776
island,0.002297
isol,0.007550
item,0.005687
iucn,0.010159
ivori,0.004211
jackson,0.004010
jewel,0.004693
join,0.002305
kansu,0.015685
kansuensi,0.007842
kashmir,0.009777
kazakhstan,0.004479
kentucki,0.004773
kept,0.002793
key,0.001972
kg,0.024230
kick,0.009649
kilogram,0.030651
known,0.015542
kootenai,0.007400
korea,0.006257
korean,0.003598
kyrgyzstan,0.005207
lake,0.006114
lakota,0.025797
land,0.001961
larg,0.013659
larger,0.012274
largest,0.017125
late,0.005383
later,0.001541
latin,0.002436
layer,0.002983
lb,0.058079
lead,0.006185
leaner,0.006993
leav,0.006584
led,0.001672
leg,0.007694
length,0.002571
leopard,0.010207
lethal,0.004467
level,0.004649
life,0.001666
lifecycl,0.004620
lifestyl,0.003690
lighter,0.012202
lightest,0.005220
like,0.009690
limit,0.001582
link,0.001126
listless,0.006800
littl,0.001983
live,0.010054
liver,0.004067
livestock,0.007316
local,0.003510
long,0.005048
longer,0.002137
longest,0.003715
longterm,0.002727
lose,0.008177
loss,0.002266
loud,0.009327
loudest,0.006393
lower,0.003830
lynx,0.005878
m,0.007413
macneil,0.015685
macneilli,0.007842
mad,0.004224
magna,0.004958
main,0.001640
mainli,0.002151
majest,0.005600
major,0.001374
make,0.002635
male,0.049416
mammal,0.009842
manag,0.003712
manchurian,0.081182
mane,0.011533
mani,0.005856
manitoban,0.023528
manitobensi,0.015685
maral,0.023528
market,0.001939
mate,0.019426
matur,0.012062
meadow,0.005207
mean,0.002854
measur,0.003394
meat,0.025173
medicin,0.004941
megalocero,0.007242
member,0.011574
men,0.002403
mening,0.005424
merriam,0.011757
merriami,0.015685
metr,0.003686
michigan,0.007480
middl,0.002136
migrat,0.024921
migratori,0.005115
mile,0.003012
milk,0.003827
million,0.006106
minor,0.002398
miocen,0.005600
misfold,0.006449
missouri,0.004593
mitochondri,0.013883
mix,0.002492
modern,0.003108
mongolia,0.008994
mongolian,0.005180
monitor,0.002802
montana,0.005309
month,0.009158
moos,0.066467
morn,0.003765
morpholog,0.003550
mortal,0.003463
mostli,0.004422
mother,0.002986
mount,0.003021
mountain,0.033457
movement,0.001787
mule,0.010112
mythic,0.008635
namesak,0.005278
nannod,0.023528
nation,0.010051
nativ,0.016071
natur,0.001383
near,0.002130
neck,0.008502
necropsi,0.007842
need,0.001557
neg,0.002247
neighbor,0.002923
nelsoni,0.015685
nematod,0.009758
neolith,0.003861
nevetheless,0.007842
new,0.008102
newborn,0.004553
nonmigratori,0.007842
normal,0.002065
nors,0.004869
north,0.053498
northern,0.004845
nose,0.004347
novelti,0.004586
number,0.012964
numer,0.005759
nurseri,0.005103
object,0.001771
observ,0.001710
occasion,0.002923
ocean,0.002666
offer,0.001927
offici,0.001967
offspr,0.019441
ojibwa,0.006800
old,0.006432
older,0.005438
oligocen,0.005741
onc,0.007745
oncom,0.006393
ongo,0.008506
onli,0.008350
ontario,0.004260
open,0.001774
oppon,0.003219
opposit,0.002132
orang,0.007747
orangebrown,0.007842
order,0.004284
oregon,0.004411
organ,0.001413
ostertagia,0.007842
outsid,0.003953
pack,0.007562
palat,0.005128
palerhu,0.007842
parallel,0.002685
parasit,0.026852
parelaphostrongylu,0.007842
park,0.009086
parkland,0.006393
particular,0.004866
particularli,0.001817
partli,0.002786
patch,0.016933
pawne,0.007400
pay,0.002419
peak,0.005687
pellet,0.005389
peni,0.005011
pennsylvania,0.007764
peopl,0.004286
percent,0.005205
perform,0.001821
period,0.006159
peripheri,0.004347
perman,0.002511
petroglyph,0.011818
phenotyp,0.003993
pheromon,0.005424
phosphoru,0.004269
physic,0.001695
pictogram,0.006291
place,0.002931
plant,0.011249
play,0.003742
pleistocen,0.009464
pneumonia,0.005128
point,0.001503
polit,0.001626
poor,0.002562
popul,0.018438
pork,0.004833
pose,0.003156
possess,0.004657
possibl,0.001515
postur,0.009069
potenc,0.005442
potenti,0.001923
predat,0.032988
presenc,0.002247
pressur,0.002236
preval,0.003271
previou,0.002240
previous,0.002265
prey,0.012147
primari,0.001961
primarili,0.012187
prime,0.002387
prion,0.010307
prior,0.002244
prize,0.002771
proce,0.003617
produc,0.009277
product,0.004646
promot,0.002119
protect,0.007922
protein,0.009056
protist,0.004732
proven,0.003138
provid,0.002636
provinc,0.005494
provok,0.003802
prowess,0.015100
pure,0.004699
purpos,0.001932
race,0.005838
rais,0.002191
ranch,0.009957
rang,0.012486
rare,0.007336
rate,0.001841
rebirth,0.004378
recent,0.006527
recogn,0.002020
record,0.005959
red,0.049633
reddish,0.017919
reddishbrown,0.006341
reduc,0.001785
refer,0.004712
refug,0.012062
regener,0.004194
region,0.016876
reintroduc,0.017390
reintroduct,0.005407
rel,0.003379
relat,0.002541
releas,0.002355
remain,0.006234
remov,0.004351
replac,0.001920
represent,0.004755
reproduct,0.009604
research,0.003057
resembl,0.002972
resid,0.002496
resourc,0.003815
respect,0.001792
rest,0.004416
restaur,0.004185
restrict,0.002184
result,0.001312
retain,0.007435
retent,0.004384
retreat,0.003640
return,0.001907
reveal,0.002479
rever,0.004207
right,0.001691
rigor,0.003173
rise,0.003793
risk,0.002318
riski,0.003996
ritual,0.003514
rival,0.006227
robe,0.005166
robust,0.003413
rock,0.002951
rocki,0.036028
role,0.003301
roll,0.003516
roosevelt,0.029479
roosevelti,0.023528
rot,0.005056
rout,0.002837
rub,0.004833
rumin,0.010333
rump,0.027303
rusa,0.006509
rut,0.035454
s,0.001336
sambar,0.007400
sampl,0.002808
savanna,0.004773
sayan,0.006642
scale,0.002133
scandinavian,0.004427
scout,0.009758
scream,0.005356
seal,0.003534
season,0.018273
second,0.001546
section,0.002335
secur,0.002002
seek,0.002114
seen,0.003698
seldom,0.004279
semidesert,0.006341
seri,0.003755
seriou,0.002640
servic,0.001836
sex,0.006526
sexual,0.009290
shan,0.016553
shape,0.002246
shawne,0.006800
shed,0.028121
shelter,0.007348
shoe,0.004352
shoot,0.003996
short,0.004018
shoulder,0.008800
siberia,0.004497
siberian,0.035078
sibiricu,0.031370
sign,0.002159
signific,0.005023
sika,0.006717
similar,0.007831
sinc,0.006557
singlesex,0.007109
size,0.010212
skin,0.006653
slope,0.003786
slug,0.005460
small,0.001605
smaller,0.006690
smallest,0.006827
smallestbodi,0.007842
smell,0.004283
smithsonian,0.004485
snail,0.005056
snow,0.008127
soak,0.005249
societi,0.001643
soft,0.003348
sold,0.002769
solitari,0.009631
sometim,0.010244
somewhat,0.002780
somewher,0.004017
songaricu,0.015685
sound,0.005523
sourc,0.003299
south,0.006162
southern,0.007303
southward,0.004389
southwestern,0.004093
sp,0.008041
spar,0.005909
speci,0.072368
specialti,0.003725
spend,0.002722
spinal,0.004573
spiritu,0.009066
spot,0.019702
spray,0.004937
spread,0.002318
spring,0.011834
sprout,0.010884
ssp,0.006393
stag,0.016736
stage,0.002290
stand,0.007395
start,0.001660
state,0.008033
stay,0.002870
stepp,0.004553
stomach,0.008789
store,0.002657
strength,0.005320
strong,0.003811
strongli,0.002528
studi,0.008316
subspeci,0.146218
success,0.008697
suffer,0.002393
suggest,0.001836
summer,0.036412
supplement,0.003247
surround,0.002401
survey,0.005042
surviv,0.006786
suscept,0.003781
sustain,0.002565
susten,0.005091
symbol,0.002381
symptom,0.003732
tactic,0.003487
tail,0.015189
tast,0.003681
taxonomi,0.003773
taxonomist,0.005820
teacher,0.003005
teeth,0.004128
tend,0.008615
tendenc,0.002945
tennesse,0.004701
tenui,0.007593
tepe,0.005973
testosteron,0.011200
testosteronedriven,0.007842
th,0.004511
themselv,0.001945
therefor,0.003565
thi,0.008829
thicker,0.005000
thorold,0.006993
thought,0.001858
thousand,0.004626
threat,0.002751
threaten,0.002982
tian,0.017003
tianshan,0.015685
tibetan,0.009146
tiger,0.008811
time,0.003481
tine,0.013600
tissu,0.006339
today,0.001884
toe,0.004907
tooth,0.004781
town,0.002693
tradit,0.001651
transform,0.002147
transmit,0.016068
travel,0.002316
treat,0.002296
tree,0.013509
tri,0.002064
tribe,0.003228
true,0.004247
tule,0.029601
tundra,0.005180
tungus,0.006393
turkic,0.004781
twice,0.003126
type,0.003153
typic,0.001759
uncommon,0.004020
undul,0.005558
ungul,0.011244
unicolor,0.007842
unit,0.001322
unlik,0.004368
upward,0.003651
urethra,0.006200
urin,0.013136
use,0.012860
usual,0.004735
utah,0.004748
vaccin,0.013058
valeriu,0.006158
valley,0.003033
vari,0.003867
variabl,0.002397
variant,0.003177
variat,0.002458
variou,0.002986
vascularis,0.006509
veget,0.006262
velvet,0.061603
venison,0.007400
veri,0.001497
virginia,0.007557
viviparu,0.007842
vocal,0.012292
wa,0.007528
waapiti,0.007842
walk,0.003350
wallichi,0.007842
wallichii,0.007842
wapiti,0.244216
washington,0.002887
wast,0.009438
water,0.002023
wean,0.005741
week,0.002756
weigh,0.029566
weight,0.005287
west,0.009008
white,0.004980
whitetail,0.018874
wider,0.005973
widespread,0.002519
wild,0.026919
wildlif,0.007475
wind,0.003116
winter,0.042252
winterweaken,0.007842
wisconsin,0.004347
wolf,0.012051
wood,0.003026
word,0.003641
work,0.001285
world,0.003989
worm,0.004132
worst,0.003617
wrestl,0.009916
written,0.002076
wyom,0.016800
xanthopygu,0.023528
xinjiang,0.005558
year,0.019855
yearround,0.005220
yellowbrown,0.006642
yellowston,0.049602
young,0.007306
zealand,0.021831
zinc,0.004132
