abrupt,0.046806
age,0.019108
angiosperm,0.055701
anim,0.021356
appendag,0.051400
axi,0.034992
becaus,0.013849
botani,0.125923
bracken,0.066618
bud,0.231087
cell,0.079500
chang,0.013891
chew,0.051065
come,0.017624
complet,0.017020
compon,0.021223
conif,0.108050
consist,0.016494
develop,0.036976
differ,0.013065
digest,0.037654
distinct,0.037962
easier,0.031769
eaten,0.044761
everyday,0.031695
fibr,0.047583
flower,0.180156
form,0.012127
fruit,0.094324
genera,0.046874
germin,0.050331
ginkgo,0.064392
ground,0.023087
grow,0.081380
growth,0.180746
hard,0.026040
herbac,0.057771
heteroblasti,0.077718
heterophylli,0.080267
includ,0.022028
ined,0.066007
integr,0.019146
involv,0.030762
lamma,0.151482
later,0.047326
leaf,0.086026
leav,0.089853
long,0.034444
major,0.014071
make,0.026975
mani,0.011988
matur,0.030863
mistaken,0.043796
mostli,0.022629
new,0.047389
occur,0.016851
palat,0.052486
pattern,0.045259
peg,0.045430
perenni,0.045488
phenomenon,0.027316
picea,0.070533
plant,0.161189
previou,0.022935
prickl,0.074125
produc,0.047474
provid,0.013494
refer,0.009645
relat,0.013005
season,0.062341
secondari,0.054934
seed,0.034224
shoot,0.736286
short,0.082265
similar,0.016029
small,0.016426
softer,0.054658
speech,0.028922
spine,0.045430
spring,0.090837
spur,0.075406
stem,0.150875
sterigma,0.080267
structur,0.015684
synonym,0.033502
thorn,0.096389
tough,0.044708
toxin,0.046029
true,0.021735
type,0.016139
upward,0.037370
visibl,0.029672
wall,0.056848
wherea,0.023294
woodi,0.204262
young,0.049851
