abov,0.010041
absorb,0.015679
acoust,0.043822
act,0.008964
activ,0.007826
adiabat,0.026786
adjac,0.017951
affect,0.010249
agit,0.023323
aid,0.011766
air,0.084339
airport,0.017276
alter,0.014068
altern,0.010078
altitud,0.021227
ani,0.006912
antarct,0.023725
appear,0.009084
appli,0.008384
approach,0.018053
arctic,0.021699
area,0.007789
artifici,0.013244
atmospher,0.076824
avail,0.009587
bar,0.017729
barrier,0.031916
bathroom,0.031604
bathythermograph,0.041261
becaus,0.014238
becom,0.007570
begin,0.018443
behavior,0.011093
blanket,0.026194
bloom,0.023443
bodi,0.037960
boundari,0.039609
bring,0.011756
buoyanc,0.027617
c,0.027152
calm,0.066746
caus,0.033816
celsiu,0.025924
centimet,0.026723
chang,0.028564
channel,0.015635
character,0.024027
circul,0.033146
climat,0.013525
cold,0.090598
colder,0.095032
coldest,0.029818
column,0.035993
condit,0.008864
contain,0.009088
continu,0.007676
contribut,0.009298
cool,0.070986
corpor,0.012429
creat,0.007749
current,0.024331
cycl,0.012987
day,0.019120
daynight,0.066721
decreas,0.012475
deep,0.056415
deeper,0.037862
deepest,0.023991
degre,0.020749
dens,0.090168
denser,0.025572
densest,0.029134
densiti,0.045864
depend,0.016718
deplet,0.019770
depth,0.116438
desert,0.018015
design,0.009305
destroy,0.026496
develop,0.012671
differ,0.006716
discontinu,0.019234
display,0.014398
distinct,0.019514
distribut,0.010453
dive,0.022954
divid,0.010046
doe,0.025716
domin,0.010425
drop,0.055620
dure,0.043756
earth,0.011974
effect,0.014819
energi,0.032032
enrich,0.019964
environment,0.012262
epilimnion,0.041261
establish,0.008139
exampl,0.013661
exist,0.015169
expos,0.015278
extern,0.005964
factor,0.009670
far,0.010342
featur,0.010315
field,0.008329
flow,0.024022
fluid,0.016077
form,0.012468
freez,0.063406
ft,0.017825
glass,0.017978
gradient,0.019406
gradual,0.013111
graviti,0.017781
greater,0.010272
ground,0.035603
heat,0.071908
heatingcool,0.038934
height,0.032523
higher,0.009696
highway,0.020584
hot,0.017960
howev,0.006619
hundr,0.012391
hypolimnion,0.041261
ice,0.053371
imped,0.021976
import,0.006956
includ,0.005661
increas,0.023528
index,0.012956
induc,0.016150
influenc,0.008983
insul,0.022202
invers,0.086109
lake,0.064333
lakeocean,0.041261
larg,0.014372
latitud,0.041366
layer,0.188352
lead,0.008135
link,0.005928
littl,0.010435
local,0.009234
locat,0.010025
lost,0.011848
low,0.010449
lower,0.010074
m,0.009751
make,0.013866
measur,0.008930
melt,0.019456
metalimnion,0.041261
meter,0.018349
michigan,0.019676
mirag,0.028013
mix,0.065570
near,0.011210
neg,0.023645
new,0.012180
night,0.033446
nightli,0.031984
nighttim,0.087724
nois,0.058331
nonexist,0.021172
normal,0.010867
nutrient,0.038687
obscur,0.018886
observ,0.035993
occur,0.060635
ocean,0.098211
onc,0.010187
onli,0.006276
open,0.009333
organ,0.007436
origin,0.007555
oscil,0.039460
overturn,0.022367
oxygen,0.049800
particularli,0.009561
phenomena,0.013017
phenomenon,0.028083
phytoplankton,0.028539
point,0.015817
polar,0.016702
pollut,0.018340
posit,0.008080
pressur,0.011768
process,0.014781
produc,0.024403
product,0.008148
profil,0.033757
quit,0.026425
radi,0.026250
radiat,0.015657
rais,0.011531
rapidli,0.013180
reach,0.020153
refer,0.004958
reflect,0.010655
refract,0.022664
region,0.026637
rel,0.017780
remain,0.008200
research,0.008043
respons,0.008600
result,0.006906
rise,0.039910
road,0.014402
run,0.010896
s,0.007032
salin,0.023923
schlieren,0.038934
scuba,0.026980
sea,0.012651
season,0.032046
seich,0.037402
semiperman,0.062507
separ,0.009058
shallow,0.020973
signal,0.014266
singl,0.009234
sink,0.020552
sit,0.018242
sometim,0.017966
sonar,0.026850
soon,0.012654
sound,0.029058
southern,0.012807
space,0.010639
speed,0.014111
spring,0.015564
stabil,0.038608
stabl,0.027160
stem,0.015511
stratif,0.073494
stratospher,0.026850
strength,0.013995
studi,0.007292
submarin,0.020851
sudden,0.019757
suddenli,0.020472
summer,0.047892
sun,0.030617
sunlight,0.021516
sunris,0.028013
surfac,0.212414
tarmac,0.034245
technic,0.012272
temper,0.020817
temperatur,0.195302
temporarili,0.019022
thermal,0.017694
thermoclin,0.652635
thermohalin,0.029134
thi,0.056776
tide,0.021457
time,0.012211
transfer,0.011808
transit,0.012013
tropic,0.017609
tropopaus,0.030071
tropospher,0.055234
turbul,0.042798
turnov,0.022179
typic,0.009257
uniform,0.015999
univers,0.014294
upper,0.027870
upwel,0.059887
urban,0.014473
use,0.005638
usual,0.024912
vari,0.020345
variabl,0.012614
variat,0.012935
veri,0.007880
wa,0.005658
warfar,0.017501
warm,0.141080
warmer,0.047259
water,0.404495
wave,0.069581
wear,0.018700
weather,0.033844
wind,0.032790
window,0.019393
winter,0.017099
wrinkl,0.029463
zero,0.014512
