actual,0.014776
alter,0.020710
ani,0.010175
anim,0.016160
area,0.045869
bacteri,0.030160
bilay,0.039432
bulliform,0.060739
burst,0.031359
caus,0.037335
cell,0.681809
chang,0.031536
circumst,0.021419
compar,0.013792
concentr,0.072998
continu,0.011299
contractil,0.043372
contrast,0.015753
depend,0.012305
diffus,0.025478
elast,0.028121
enlarg,0.028678
equal,0.015290
equilibrium,0.023466
eventu,0.015958
expans,0.018944
experi,0.013807
extens,0.015162
flaccid,0.057314
flow,0.141452
forc,0.012034
fungal,0.035951
growth,0.015197
ha,0.008005
healthi,0.026214
high,0.024314
higher,0.014273
howev,0.009743
hyperton,0.052667
hypoton,0.052028
increas,0.034636
irrevers,0.033141
isoton,0.099032
key,0.015277
known,0.010031
larger,0.015844
lead,0.011976
leaf,0.032548
lipid,0.031616
live,0.012978
loss,0.017555
low,0.046148
lower,0.014831
maintain,0.013995
make,0.010206
mani,0.009071
mechan,0.014821
membran,0.170529
normal,0.015997
observ,0.013246
osmosi,0.042733
osmot,0.079241
outsid,0.015310
permit,0.020441
phenomenon,0.041341
physic,0.013133
place,0.022700
plant,0.139399
plasma,0.029410
plasmolysi,0.055058
plastic,0.026983
play,0.014490
point,0.011642
pressur,0.173243
prevent,0.016453
protist,0.036651
pulvinu,0.060739
pump,0.028946
push,0.065658
rate,0.014262
ratio,0.020756
reced,0.036292
reduc,0.013827
refer,0.007298
reli,0.017587
respons,0.012659
restrict,0.016916
result,0.020334
rigid,0.081480
role,0.012786
rush,0.031882
said,0.029994
sensor,0.030254
small,0.012430
solut,0.208556
stiff,0.034378
stronger,0.024456
strongli,0.019578
structur,0.011868
surround,0.037205
thi,0.030392
turgid,0.260142
turgor,0.343768
undergo,0.023552
upright,0.036176
vacuol,0.121630
volum,0.069602
wall,0.215093
water,0.172366
wilt,0.097453
