abov,0.023786
academi,0.035792
africa,0.090520
ago,0.072004
allopatr,0.071550
altern,0.023874
america,0.026038
anoth,0.017870
arisen,0.101476
atlant,0.078744
australia,0.064590
author,0.020919
barrier,0.151214
becom,0.017934
befor,0.019133
begin,0.021844
biogeographi,0.054705
biolog,0.053141
biota,0.118160
biotic,0.107137
breakup,0.053811
broken,0.037354
chain,0.033522
chang,0.016916
concept,0.020942
contigu,0.056280
contin,0.116015
continent,0.079934
continu,0.018183
contrast,0.076053
cs,0.045853
cupressacea,0.097743
debat,0.027939
deriv,0.022818
differ,0.031819
discontinu,0.045563
disjunct,0.064558
dispers,0.164757
distinct,0.023114
distribut,0.074287
doipna,0.068288
drift,0.092543
ecolog,0.068098
ecosystem,0.040982
eros,0.048725
establish,0.019282
event,0.023513
evolut,0.029336
exampl,0.064727
exchang,0.025541
explain,0.048646
factor,0.022909
flow,0.056907
follow,0.015455
form,0.014768
format,0.052703
fragment,0.076000
gemin,0.083725
gene,0.074977
genera,0.057079
genet,0.032816
genu,0.097603
geodispers,0.081123
geograph,0.062843
geophys,0.050555
gondwanan,0.079682
ha,0.038649
histor,0.021703
import,0.016478
independ,0.019844
individu,0.019928
initi,0.020992
isol,0.031368
isthmu,0.064231
j,0.024263
k,0.029291
known,0.016142
l,0.028436
largescal,0.037638
latin,0.030360
lead,0.019272
link,0.014044
list,0.017960
littl,0.024721
liu,0.056435
live,0.020884
long,0.020972
longdist,0.056672
maint,0.051651
mani,0.014598
mao,0.059080
marin,0.036974
mean,0.017787
million,0.050737
miln,0.071237
mountain,0.034748
multipl,0.049683
nation,0.017896
newli,0.033980
occur,0.020520
occurr,0.041775
onc,0.048267
origin,0.017898
p,0.024655
pacif,0.037434
pair,0.034418
panama,0.052705
pangea,0.074867
pattern,0.027556
peng,0.070350
physic,0.042267
plant,0.028040
popul,0.114897
precursor,0.040347
proceed,0.033893
process,0.035016
r,0.074349
rang,0.044463
realm,0.037103
refer,0.011745
reflect,0.025242
rel,0.021060
relat,0.031674
renner,0.090265
result,0.016361
s,0.033317
scienc,0.019754
seed,0.041675
separ,0.064377
south,0.051198
speci,0.090192
speciat,0.058033
split,0.067194
stead,0.071237
subject,0.020795
subsequ,0.025510
taxa,0.056435
taxon,0.194177
thi,0.012227
thoma,0.029241
thu,0.019109
uplift,0.058496
vicari,0.711983
vicariu,0.097743
vici,0.092232
wa,0.053613
way,0.017478
welldocu,0.066760
wide,0.021054
widespread,0.031406
y,0.034811
year,0.032995
younger,0.040614
zhang,0.055464
