abil,0.006496
access,0.006533
acm,0.027805
adapt,0.015037
addit,0.004776
address,0.007110
adhoc,0.017295
ajax,0.019254
aka,0.012870
analysi,0.005691
appli,0.005047
applic,0.214283
approach,0.005434
apriljun,0.020250
architectur,0.008906
area,0.009379
argument,0.007933
articl,0.005611
aspnet,0.022516
attribut,0.007340
austria,0.010924
author,0.010632
autom,0.010566
basi,0.005881
bb,0.014866
becom,0.004557
behaviour,0.008778
benefit,0.006909
birgit,0.021277
bodi,0.005713
bongio,0.046878
book,0.010822
brambilla,0.046878
branch,0.006054
build,0.006024
busi,0.006418
c,0.005448
case,0.004767
casteleyn,0.023439
categori,0.007275
centric,0.018265
ceri,0.045033
certain,0.010438
chapter,0.017774
characterist,0.013145
clone,0.013075
cm,0.011993
code,0.014757
collabor,0.008759
colleg,0.008278
comai,0.046878
commun,0.004986
compar,0.011281
complet,0.005267
complex,0.011161
comput,0.012638
conallen,0.023439
conceptu,0.009179
confer,0.052551
consider,0.012818
consortium,0.013352
content,0.015050
contentrel,0.023439
continu,0.009242
contribut,0.011195
controversi,0.007515
cost,0.013410
cunha,0.017476
cutt,0.022516
cutter,0.053421
daniel,0.018972
data,0.006086
dataintens,0.041638
david,0.006774
debat,0.007100
dec,0.030079
deliveri,0.022046
demand,0.013618
deploy,0.010321
design,0.050417
develop,0.061029
devic,0.008523
devop,0.022150
differ,0.012129
diploma,0.014527
disciplin,0.091361
distinguish,0.006771
divers,0.007335
document,0.007363
dolog,0.023439
domain,0.007448
dominiqu,0.016580
earli,0.004592
ebusi,0.019254
edit,0.057494
educ,0.011699
emilia,0.039854
encompass,0.017192
encyclopedia,0.007908
engin,0.291164
enterpris,0.008643
environ,0.006086
especi,0.005331
establish,0.009800
estim,0.012923
ev,0.015039
evalu,0.015912
evolut,0.022365
evolv,0.007537
ex,0.012421
exhibit,0.008668
factori,0.010046
field,0.005014
florian,0.017951
focus,0.006391
follow,0.003927
foron,0.023439
foundat,0.006402
fraternali,0.046878
function,0.005027
g,0.006642
gener,0.003528
germani,0.007393
gerti,0.019026
glass,0.010823
global,0.006520
goran,0.020616
graphic,0.010561
group,0.004429
grow,0.012592
guid,0.006942
guidelin,0.010890
gustavo,0.017071
ha,0.013096
hall,0.009315
hci,0.019778
histor,0.005515
howev,0.007969
httpcsdlcomputerorgpersagendlpublicationjsppubtypemacronymmu,0.023439
httplinkspringercomjourn,0.023439
httptoitacmorg,0.023439
httpwwwacmorgsigweb,0.023439
httpwwwicseconferencesorg,0.023439
httpwwwicweorg,0.093757
httpwwwindersciencecombrowseindexphpjournalid,0.023439
httpwwwisweevd,0.023439
httpwwwiwcorg,0.023439
httpwwwrintonpresscomjournalsjw,0.023439
httpwwwrspacom,0.023439
httpwwwspringercomcomputerdatabasemanagementinformationretrievalbook,0.023439
httpwwwspringercomeasthomegenericsearchresultssgwid,0.070317
httpwwwwebcodeorg,0.023439
httpwwwwebengineeringorg,0.023439
httpwwwwebistorg,0.023439
httpwwwwebsiteevolutionorg,0.023439
httpwwwwisesocietyorg,0.046878
httpwwwworg,0.023439
humancomput,0.015703
hypermedia,0.019254
hypermediahypertext,0.023439
icw,0.135100
idea,0.005510
ieee,0.053520
igi,0.039008
implement,0.013672
includ,0.003408
independ,0.010086
index,0.007800
inform,0.043932
inher,0.009409
integr,0.005925
interact,0.012252
interfac,0.021378
intern,0.030118
internation,0.015638
internet,0.024163
involv,0.004759
isbn,0.029021
issu,0.015806
iwc,0.021038
iwmc,0.023439
janmar,0.022516
januaryfebruari,0.019254
jim,0.012977
johann,0.010506
john,0.005584
jone,0.010901
journal,0.044206
juli,0.014183
kappel,0.022150
kaufmann,0.032729
kepler,0.013217
knowledg,0.006175
l,0.014453
lifecycl,0.014635
limit,0.005013
linz,0.019138
lnc,0.085109
local,0.005559
loui,0.009262
lui,0.012779
m,0.023481
main,0.005196
maintain,0.005723
major,0.013064
make,0.004174
manag,0.023514
marchapril,0.033829
maria,0.012131
maristella,0.022516
master,0.008759
matera,0.070317
mcgrawhil,0.011861
measur,0.005376
meet,0.006641
mend,0.031538
method,0.020333
methodolog,0.017376
metric,0.011023
mobil,0.008718
model,0.040902
morgan,0.023305
morvil,0.023439
mosley,0.019254
msc,0.015144
multidisciplinari,0.024555
multifacet,0.015941
multimedia,0.029226
nd,0.015273
network,0.006861
new,0.018331
nile,0.013283
nontrivi,0.014206
olsina,0.023439
oreilli,0.019254
organ,0.008954
oscar,0.014302
overview,0.008224
p,0.012531
page,0.008046
pastor,0.012965
pearson,0.012929
peopl,0.004525
perform,0.011540
person,0.005370
personalis,0.019778
perspect,0.014689
pervas,0.012906
peter,0.014968
php,0.017603
place,0.004641
platform,0.020102
portalori,0.023439
powel,0.015198
pp,0.007673
practic,0.010071
practition,0.009878
prentic,0.012723
present,0.004706
pressman,0.019927
principl,0.011299
prll,0.023439
problem,0.005033
proceed,0.008613
process,0.013348
program,0.017761
project,0.011647
propon,0.009862
prospect,0.010001
prototyp,0.012140
provid,0.004175
publish,0.020896
putnik,0.023439
qualiti,0.021037
recent,0.005168
recogn,0.006400
refer,0.002984
reich,0.014613
relat,0.004024
reliabl,0.008925
requir,0.014097
resourc,0.006043
retriev,0.008868
retschitzegg,0.023439
right,0.005356
robert,0.006563
rosenfeld,0.018526
rossi,0.017951
rs,0.014939
s,0.016934
schwabe,0.021827
scienc,0.010040
secur,0.006341
semant,0.011064
septemb,0.007198
servic,0.005815
sever,0.004330
siegfri,0.017737
sigweb,0.022516
simul,0.009026
sinc,0.016616
singl,0.005559
site,0.020992
sixth,0.011029
societi,0.015614
softwar,0.123223
son,0.007954
sophist,0.009558
sourc,0.005225
special,0.010391
specif,0.004970
springer,0.030165
springerverlag,0.012906
stage,0.007254
studi,0.008780
subset,0.010419
suh,0.019927
support,0.009878
sven,0.017951
systemat,0.007936
techniqu,0.025536
technolog,0.017968
test,0.033956
theori,0.004869
thoma,0.007431
tool,0.046564
topic,0.006591
tradit,0.015693
transact,0.017889
treat,0.007274
ubiquit,0.013101
uml,0.035756
uniqu,0.021250
univers,0.004302
usabl,0.063730
use,0.003394
user,0.009215
varieti,0.006237
vast,0.008341
verlag,0.013338
virtual,0.008215
vol,0.008928
way,0.004441
web,0.819607
webbas,0.063911
webist,0.023439
webmast,0.019254
werner,0.013152
wi,0.034475
wide,0.026752
wiley,0.010165
wise,0.025955
woojong,0.023439
workflowbas,0.023439
workshop,0.012296
world,0.021058
worth,0.009406
wse,0.021827
year,0.004192
york,0.006398
zheng,0.016815
