adapt,0.019414
alway,0.016395
amorph,0.039981
analyt,0.044456
analyz,0.020494
angl,0.110079
associ,0.011910
background,0.020939
backscatt,0.048326
barbara,0.032281
base,0.010623
beam,0.033234
bodi,0.014752
british,0.016414
california,0.022552
centr,0.020245
chemic,0.018748
classic,0.016268
clearli,0.022140
close,0.013175
composit,0.020415
concentr,0.019271
consid,0.011484
contain,0.014127
contribut,0.014454
crystal,0.110511
crystallin,0.036538
crystallograph,0.043418
crystallographi,0.213844
data,0.015716
densiti,0.023765
depend,0.012994
determin,0.027352
diffract,0.357255
displaystyl,0.022559
distinct,0.015167
dynam,0.018463
elast,0.089089
energi,0.082991
exist,0.011790
extern,0.009271
factor,0.015033
famili,0.016417
figur,0.017559
film,0.048093
function,0.012980
gener,0.018220
guinier,0.059232
ha,0.008453
hit,0.026249
howev,0.010289
icdd,0.064140
imperfect,0.031212
incid,0.025086
includ,0.008801
inelast,0.120179
inform,0.012604
intens,0.042113
intermedi,0.024917
intern,0.022220
introduct,0.016807
iucr,0.064140
ix,0.074067
larg,0.011170
larger,0.016731
layer,0.024399
learn,0.017806
link,0.009216
list,0.011785
mani,0.009579
materi,0.044556
measur,0.013881
metallurgi,0.034513
micromet,0.044967
mineralog,0.036075
monitor,0.022920
multilay,0.041738
nanomet,0.041256
nois,0.030225
nondestruct,0.045801
note,0.012219
object,0.014488
observ,0.013988
obtain,0.016473
omega,0.034732
onlin,0.018549
pattern,0.036165
phase,0.020380
phenomena,0.020235
physic,0.013868
polar,0.025964
practic,0.013002
principl,0.014588
probe,0.030225
properti,0.044144
q,0.054437
rang,0.014588
refer,0.007707
reflect,0.016564
relat,0.010392
restrict,0.017863
result,0.010736
reveal,0.020274
rough,0.030566
s,0.010931
sampl,0.022969
santa,0.030546
sax,0.048583
scale,0.017445
scatter,0.512340
scienc,0.012963
sharp,0.026050
singl,0.014355
small,0.013126
smallangl,0.052288
smathbf,0.052745
specif,0.025668
spot,0.053712
structur,0.050132
subset,0.026904
tabl,0.020644
techniqu,0.115393
text,0.018504
thi,0.008023
thu,0.012539
time,0.009491
titl,0.019254
transfer,0.055069
ultrafast,0.048077
union,0.015940
univers,0.011110
use,0.008765
wa,0.008795
wavelength,0.032494
wax,0.036443
waxd,0.064140
wideangl,0.109882
xray,0.614362
