abl,0.015131
academ,0.035013
acceler,0.037182
access,0.025352
accompani,0.018591
accomplish,0.016687
activ,0.025600
add,0.015131
addit,0.008533
address,0.029876
affect,0.009216
age,0.011671
alloc,0.015131
allow,0.009958
alreadi,0.016687
alvin,0.024506
alway,0.015131
ani,0.025600
appar,0.015131
appli,0.025600
applic,0.010772
area,0.008533
argu,0.012676
arm,0.024506
array,0.015131
articl,0.069079
artifici,0.013815
assign,0.021046
astronom,0.037182
astronomi,0.055773
atom,0.037182
attribut,0.012676
author,0.012676
award,0.016687
base,0.009958
basic,0.073731
becam,0.023342
becaus,0.021544
becom,0.027649
bell,0.024506
benefactor,0.024506
berkeley,0.024506
big,0.483556
billion,0.010772
blur,0.024506
bomb,0.024506
book,0.032316
borrow,0.013815
brahe,0.024506
brain,0.016687
budget,0.055263
budgetari,0.024506
build,0.018432
built,0.030262
bulk,0.021046
bureaucrat,0.021046
california,0.018591
came,0.013815
capo,0.024506
case,0.009958
cast,0.021046
cement,0.024506
centr,0.013815
central,0.009958
centuri,0.035013
cern,0.049012
chang,0.036865
charact,0.018591
character,0.010772
characterist,0.011671
charg,0.016687
chemic,0.010772
chemist,0.021046
chief,0.018591
church,0.021046
cite,0.016687
citi,0.015131
civil,0.012676
claim,0.010772
classifi,0.011671
cold,0.050061
collabor,0.015131
collid,0.073518
compani,0.009958
compar,0.010772
competit,0.011671
complain,0.021046
complet,0.012676
complex,0.009216
conant,0.024506
concern,0.008533
connect,0.016687
construct,0.009958
content,0.012676
contradict,0.021046
controversi,0.015131
corpor,0.015131
cost,0.025352
costeffect,0.024506
countri,0.035013
creat,0.008533
credit,0.015131
critic,0.032316
cryogen,0.024506
cultur,0.011671
cyclotron,0.049012
d,0.009958
da,0.018591
dame,0.024506
danger,0.018591
data,0.011671
defenserel,0.024506
definit,0.021544
depart,0.025352
derek,0.024506
describ,0.025600
design,0.009958
develop,0.017066
differ,0.009216
difficult,0.012676
difficulti,0.021046
director,0.016687
discours,0.016687
discoveri,0.013815
discuss,0.015131
domin,0.027631
driven,0.016687
dure,0.059753
dwight,0.024506
earli,0.010772
earlier,0.033374
earth,0.009958
effect,0.008533
effort,0.012676
eisenhow,0.049012
elit,0.018591
empir,0.009958
employ,0.023342
encourag,0.018591
end,0.025352
engin,0.009958
enlightenmentera,0.024506
enterpris,0.033374
entir,0.010772
era,0.045393
ernest,0.021046
especi,0.009958
essayist,0.021046
essenc,0.016687
establish,0.035013
evalu,0.012676
evid,0.012676
evolut,0.013815
ex,0.037182
exampl,0.046082
excess,0.018591
experi,0.029876
experiment,0.011671
expertis,0.015131
explor,0.009958
expresid,0.024506
extent,0.015131
extern,0.009216
facil,0.084184
fall,0.010772
farewel,0.024506
fat,0.021046
feder,0.027631
field,0.018432
financ,0.015131
follow,0.017066
form,0.008533
formal,0.009958
forman,0.024506
format,0.012676
fragil,0.021046
fred,0.024506
fund,0.093370
fuze,0.024506
galison,0.098024
gave,0.018591
genom,0.074365
govern,0.064633
government,0.024506
governmentsponsor,0.024506
grant,0.073518
gravitationalwav,0.024506
great,0.011671
grew,0.021046
group,0.027649
growth,0.009958
guid,0.008533
ha,0.051200
hadron,0.049012
harvard,0.018591
heavi,0.013815
heik,0.024506
hi,0.021544
highenergi,0.024506
highflux,0.024506
histor,0.025352
histori,0.027649
historian,0.069079
historiographi,0.021046
howev,0.009958
hoyl,0.024506
hubbl,0.024506
huge,0.021046
human,0.051200
ideal,0.018591
ignit,0.024506
ii,0.083435
imag,0.015131
impact,0.010772
imped,0.024506
impli,0.016687
import,0.017066
includ,0.008533
increas,0.069712
increasingli,0.013815
increment,0.021046
incurs,0.024506
individu,0.027649
industri,0.058356
inquiri,0.015131
inspir,0.016687
institut,0.009216
instrument,0.016687
intellig,0.015131
intens,0.015131
intent,0.018591
interact,0.008533
intern,0.008533
introduc,0.011671
invest,0.013815
isbn,0.021544
isi,0.024506
iss,0.024506
j,0.009216
jame,0.012676
just,0.012676
kamerlingh,0.024506
key,0.012676
knowledg,0.019917
lab,0.042092
label,0.018591
laboratori,0.099589
larg,0.073731
largescal,0.046685
laser,0.049012
lawrenc,0.042092
lazi,0.024506
lead,0.011671
learn,0.011671
lectur,0.018591
lesser,0.024506
letter,0.015131
life,0.019917
like,0.009958
limit,0.023342
line,0.013815
link,0.009216
littl,0.027631
logic,0.016687
longer,0.013815
look,0.015131
m,0.010772
machin,0.100122
main,0.009958
major,0.017066
make,0.018432
manag,0.010772
manhattan,0.049012
mani,0.051200
mark,0.010772
massachusett,0.021046
massiv,0.126277
materi,0.009216
meant,0.015131
method,0.009216
microphys,0.024506
middl,0.013815
militari,0.130139
militaryindustri,0.024506
model,0.008533
money,0.033374
monument,0.042092
nasa,0.013815
nassim,0.021046
nation,0.068267
natur,0.008533
necessari,0.013815
neg,0.011671
new,0.025600
news,0.021046
nichola,0.021046
nobel,0.015131
norbert,0.021046
notabl,0.016687
notion,0.011671
notr,0.024506
nova,0.018591
nuclear,0.015131
number,0.021544
oak,0.024506
object,0.009216
observatori,0.024506
occur,0.021544
onli,0.046082
onn,0.024506
origin,0.009216
osiri,0.024506
outlin,0.089630
overlap,0.010772
overview,0.011671
palac,0.024506
parc,0.024506
partial,0.013815
particl,0.030262
particular,0.009216
patent,0.018591
patron,0.024506
pattern,0.012676
paul,0.012676
perspect,0.009958
peter,0.035013
philanthropi,0.024506
phrase,0.018591
physic,0.046082
physicist,0.018591
pidgin,0.024506
placat,0.024506
place,0.011671
play,0.025352
pleas,0.024506
polit,0.012676
popular,0.011671
postul,0.018591
postwar,0.024506
potenti,0.012676
power,0.011671
practic,0.009216
practition,0.015131
precursor,0.018591
presid,0.024506
press,0.010772
prestig,0.042092
preval,0.016687
prevent,0.012676
price,0.015131
priest,0.024506
principl,0.009216
privat,0.027631
prize,0.013815
progress,0.023342
project,0.140039
prompt,0.024506
provid,0.008533
provok,0.024506
proxim,0.024506
public,0.017066
publish,0.021544
pure,0.018591
purpos,0.011671
pyramid,0.018591
qualit,0.015131
quest,0.021046
question,0.019917
race,0.030262
radar,0.024506
radiat,0.015131
rais,0.012676
rapid,0.016687
reactorssymbol,0.024506
read,0.009958
reason,0.009216
refer,0.017066
relat,0.008533
relev,0.009958
reli,0.030262
religi,0.018591
request,0.024506
requir,0.046082
research,0.119813
respons,0.009958
result,0.017066
ridg,0.024506
robot,0.018591
rocket,0.024506
role,0.019917
said,0.015131
sap,0.024506
scale,0.046685
scholar,0.012676
scienc,0.534552
scienceth,0.024506
scientif,0.139424
scientist,0.079671
scientometr,0.024506
second,0.009958
secret,0.021046
sequenc,0.013815
seri,0.038029
sever,0.019917
shadow,0.021046
share,0.019917
shift,0.013815
shiva,0.024506
shuttl,0.024506
signific,0.010772
similarli,0.015131
sinc,0.009958
small,0.027649
social,0.009216
sociolinguist,0.024506
sociolog,0.027631
solla,0.024506
soon,0.016687
soviet,0.021046
space,0.039835
specif,0.009958
staff,0.063138
standard,0.010772
state,0.008533
stimul,0.018591
strategi,0.010772
strong,0.011671
studi,0.017066
subvert,0.024506
success,0.011671
suggest,0.011671
sure,0.024506
symbol,0.015131
tabletop,0.024506
taleb,0.021046
technician,0.024506
technolog,0.046082
telescop,0.021046
term,0.025600
th,0.029876
thcenturi,0.016687
theme,0.027631
theoret,0.009958
thi,0.034133
thousand,0.021046
time,0.017066
today,0.027631
took,0.016687
tool,0.018432
topic,0.025600
trade,0.011671
transit,0.013815
truth,0.037182
tycho,0.024506
undermin,0.018591
underw,0.024506
union,0.013815
uniqu,0.030262
unit,0.009216
univers,0.036865
unpreced,0.049012
uraniborg,0.024506
use,0.076800
usher,0.018591
usual,0.029876
valu,0.010772
veri,0.021544
verif,0.021046
verifi,0.021046
vernacular,0.021046
versail,0.024506
wa,0.053861
war,0.126764
warfar,0.021046
warn,0.018591
way,0.008533
weapon,0.037182
weinberg,0.098024
wholli,0.024506
widespread,0.016687
wiener,0.021046
wish,0.021046
wonder,0.021046
world,0.055298
written,0.016687
year,0.009216
zone,0.021046
