academi,0.014975
accept,0.009759
access,0.010755
ad,0.009920
addit,0.007864
advanc,0.028803
air,0.011941
ak,0.023744
al,0.013333
algebra,0.050080
algorithm,0.077920
america,0.010894
analysi,0.046853
andor,0.013603
announc,0.013054
anoth,0.007476
appli,0.041551
applic,0.055702
approach,0.017892
appropri,0.012460
archiv,0.014307
area,0.023162
aspect,0.020433
asset,0.014370
automobil,0.019475
bachelor,0.060732
barn,0.023265
base,0.006773
becaus,0.007055
becom,0.007503
behaviour,0.014451
biolog,0.033350
bla,0.028194
bodi,0.009405
bordeianu,0.036467
c,0.008970
calcul,0.035883
capabl,0.012362
case,0.007849
cc,0.022888
center,0.010012
chang,0.007077
chapman,0.022617
chemistri,0.027518
claerbout,0.036467
close,0.008400
code,0.024296
collect,0.009158
colombia,0.021405
commonli,0.031280
commun,0.008209
comparison,0.013165
complement,0.018513
complex,0.018375
compon,0.010812
comput,0.759485
condit,0.008785
connect,0.010337
consid,0.007322
constraint,0.015589
contain,0.009007
content,0.012389
correspond,0.011398
crash,0.018674
creat,0.007680
criterion,0.018853
cse,0.031146
current,0.016076
data,0.030062
dedic,0.030165
defin,0.008617
degre,0.010282
demand,0.011210
depend,0.008284
describ,0.023185
descript,0.011477
develop,0.025118
development,0.017676
devic,0.014033
devot,0.014841
differ,0.019969
direct,0.008337
disast,0.017345
disciplin,0.023140
discoveri,0.011760
distinct,0.009670
distort,0.017729
distribut,0.010360
document,0.012122
doe,0.008495
domain,0.012263
e,0.010174
earn,0.014208
earthquak,0.019147
econom,0.008272
educ,0.019261
effici,0.011836
effort,0.010469
element,0.009614
elev,0.016866
elsevi,0.021228
enabl,0.011988
engin,0.141626
entitl,0.015606
equat,0.025145
essenc,0.017076
establish,0.016135
et,0.012994
event,0.009837
exampl,0.006770
excess,0.014609
execut,0.011451
experi,0.009296
experimentationobserv,0.036467
explor,0.011518
explos,0.033514
extens,0.010208
extern,0.005911
fact,0.009598
field,0.024766
fit,0.013763
floatingpoint,0.032110
flow,0.011904
follow,0.006466
form,0.012357
fortran,0.054302
frontend,0.030070
fuse,0.019900
futur,0.009845
g,0.021871
gain,0.009834
galaxi,0.020121
gallopoulo,0.035459
gap,0.015735
geophys,0.021151
germani,0.012171
github,0.033940
gnu,0.027447
graph,0.017984
grow,0.010365
guid,0.011429
ha,0.021560
hager,0.035459
hall,0.015336
hamilton,0.020061
hardi,0.047355
hardwar,0.018910
hartmann,0.027151
haskel,0.027151
high,0.008185
highperform,0.026425
histor,0.009080
howev,0.006560
human,0.007787
humid,0.021527
ieee,0.022028
impact,0.011077
implement,0.022508
import,0.006894
includ,0.022445
increasingli,0.023833
individu,0.008337
inform,0.024109
infrastructur,0.013686
initi,0.008782
input,0.014644
institut,0.017107
intens,0.013425
interconnect,0.019541
introduct,0.010716
introductori,0.019271
item,0.029655
john,0.009194
jon,0.022565
jose,0.023916
journal,0.093572
juelich,0.036467
julia,0.024168
kauppinen,0.034636
kilomet,0.020434
known,0.013507
laboratori,0.054861
lack,0.010305
land,0.010228
landau,0.024395
languag,0.020316
lapack,0.035459
launch,0.013610
learn,0.011352
level,0.008081
librari,0.038089
like,0.014436
linguist,0.015886
link,0.011752
list,0.022543
logic,0.013079
m,0.009664
machin,0.013047
magazin,0.015645
mainli,0.011218
manag,0.009678
mani,0.006107
manifesto,0.021305
manufactur,0.012886
mapl,0.027847
massiv,0.014379
master,0.028843
materi,0.009469
mathemat,0.063738
mathematica,0.021405
mathematician,0.016540
matlab,0.026675
matur,0.015724
mcmaster,0.028875
medellin,0.035459
medicin,0.012883
meet,0.010933
memori,0.014056
mesh,0.023711
method,0.041845
minor,0.012505
mode,0.015213
model,0.101008
molecular,0.014124
motion,0.013635
multidisciplinari,0.020213
nation,0.022463
natur,0.014428
need,0.008123
network,0.022593
neumanninstitut,0.036467
new,0.018107
nic,0.030653
nick,0.022670
nonnumer,0.030976
novelti,0.023916
numer,0.070077
oak,0.021759
object,0.009237
observ,0.008918
obtain,0.010503
octav,0.027297
offer,0.010048
oil,0.013487
onli,0.006220
open,0.055505
openaccess,0.028981
oper,0.008524
optim,0.071663
organ,0.007370
outsid,0.010308
packag,0.017130
paez,0.036467
paper,0.033449
paramet,0.015578
particl,0.014525
pdl,0.033629
perform,0.009499
perl,0.026740
person,0.008842
phd,0.034923
physic,0.053053
plane,0.016275
platform,0.016547
point,0.007838
polish,0.018256
popular,0.009667
practic,0.016580
predict,0.011337
press,0.009119
pressur,0.011664
primordi,0.021781
princeton,0.017107
principl,0.009301
probabl,0.011118
problem,0.058009
process,0.014650
product,0.008075
program,0.126715
promin,0.012150
propos,0.009560
public,0.007803
publish,0.017201
python,0.024395
qualiti,0.011545
r,0.010368
rapidli,0.013063
raw,0.016030
realiti,0.013367
realworld,0.020418
reason,0.008819
reconstruct,0.015400
refer,0.004914
reflect,0.010560
relat,0.006625
relev,0.012853
remain,0.008127
repeat,0.014184
replic,0.017345
reproduc,0.066689
requir,0.023208
research,0.055807
respect,0.009345
result,0.020536
rh,0.025250
ridg,0.021527
run,0.010799
sameh,0.036467
sc,0.024802
scenario,0.017800
school,0.009998
scienc,0.289282
sciencescientif,0.036467
scientif,0.187891
scientist,0.044949
scilab,0.033629
scipi,0.034636
set,0.007612
simul,0.133746
singl,0.009152
situat,0.010530
skill,0.013175
social,0.008700
softwar,0.159394
solut,0.011701
solv,0.088108
solver,0.025906
someon,0.015976
sourc,0.008602
south,0.010710
space,0.021089
special,0.008553
squar,0.014490
standard,0.009211
star,0.015167
start,0.008657
state,0.017952
stateoftheart,0.026740
statist,0.011220
steeb,0.035935
step,0.011597
stoop,0.032330
studi,0.021683
subatom,0.021738
subject,0.008700
submiss,0.021652
substanti,0.012696
supercomput,0.024434
support,0.008131
survey,0.013146
task,0.012687
technic,0.012163
techniqu,0.010510
technolog,0.009860
temperatur,0.013826
term,0.006462
theoret,0.011214
theori,0.024050
thi,0.010231
thirdparti,0.050786
threat,0.014345
time,0.006051
timelin,0.016098
tk,0.027683
today,0.009825
tomi,0.033629
tradit,0.008612
transdisciplinari,0.025694
transpar,0.017503
tsunami,0.024976
tune,0.022216
typic,0.009175
undergradu,0.018216
underpin,0.019944
understand,0.027851
univers,0.021250
unobserv,0.023451
use,0.055884
usual,0.032921
valid,0.013060
vari,0.020164
variat,0.012820
variou,0.015572
von,0.013871
wa,0.011215
way,0.007312
weather,0.050315
websit,0.012932
wellein,0.036467
wind,0.016249
world,0.006933
xsc,0.036467
