abbrevi,0.004233
abl,0.008781
academ,0.007810
academi,0.003348
academicsonli,0.008628
acceler,0.006685
acclaim,0.005243
accord,0.001738
account,0.002047
accur,0.011845
achiev,0.008746
acm,0.010235
acquir,0.005662
activ,0.005202
actual,0.002224
ad,0.004436
addisonwesley,0.009871
adjust,0.003326
adob,0.032521
adopt,0.009594
advanc,0.030054
advantag,0.002697
advertis,0.008168
aesthet,0.004215
affect,0.002271
age,0.002176
agenc,0.002734
air,0.002669
aircraft,0.007720
ak,0.005309
akin,0.009303
algorithm,0.024391
alias,0.030355
allow,0.015555
alon,0.002972
alreadi,0.002532
alter,0.006235
alumni,0.006137
alvi,0.008034
alway,0.002337
amd,0.027703
amiga,0.016576
ammera,0.008628
analog,0.003105
analysi,0.002095
andri,0.013509
ani,0.009190
anim,0.090014
annual,0.002669
anoth,0.005015
antialias,0.031329
apart,0.006370
appear,0.006039
appel,0.005229
appl,0.009052
appli,0.007432
applic,0.022833
approach,0.006000
april,0.002659
arbitrari,0.003753
arcad,0.038462
architectur,0.003278
area,0.018989
arena,0.004804
arm,0.002771
arpa,0.007003
arrang,0.002833
array,0.003792
art,0.047862
arthur,0.003545
articl,0.004131
artifact,0.020591
artist,0.025533
ascend,0.004554
asia,0.002984
assassin,0.004113
assist,0.002591
associ,0.005093
assort,0.005371
atari,0.007132
ati,0.007588
attempt,0.001982
attent,0.002834
attitud,0.007136
attract,0.002796
attribut,0.010807
audienc,0.015692
author,0.001956
auto,0.005286
autodesk,0.014670
autom,0.003889
automat,0.003548
automobil,0.004354
avail,0.010623
aviat,0.004572
award,0.006128
away,0.002647
b,0.002302
baer,0.006410
baker,0.004704
bandwidth,0.005745
bar,0.003928
barski,0.008034
bartlett,0.006054
base,0.006057
basi,0.004329
basic,0.002108
battl,0.003282
bay,0.003925
beaten,0.005347
becam,0.032566
becaus,0.006310
becom,0.010066
befor,0.003579
began,0.016741
begin,0.006130
behavior,0.002458
bela,0.007335
bell,0.008115
bellnorthern,0.008628
benayoun,0.008288
bendix,0.008153
benot,0.006103
berkeley,0.008186
best,0.004619
bidirect,0.006284
bioinformat,0.005099
biolog,0.007456
bioshock,0.007588
birth,0.003088
bit,0.004262
bitcoin,0.006581
bitmap,0.038318
bitslic,0.017256
blinn,0.034512
blinnphong,0.008628
block,0.003122
blue,0.003735
bluescreen,0.008628
blur,0.004879
board,0.009070
bob,0.004875
bodi,0.004206
boe,0.033937
bone,0.003930
book,0.001991
boost,0.004109
boundari,0.005851
box,0.023573
boxoffic,0.007928
braun,0.006023
breaker,0.006925
breakthrough,0.004472
bresenham,0.008034
brian,0.004286
broad,0.002814
brochur,0.006723
brookhaven,0.006889
brother,0.003514
bte,0.007663
btl,0.016069
bui,0.016069
build,0.002217
built,0.002612
bump,0.030434
busi,0.002362
bzier,0.030077
c,0.004011
cabinet,0.003526
cad,0.005855
calcul,0.013372
came,0.002294
camera,0.013610
capabl,0.008292
captur,0.005764
car,0.014836
card,0.007976
carmack,0.024865
cartoon,0.017099
cast,0.003565
casteljau,0.016307
categor,0.003568
cathod,0.005842
catmul,0.072313
caus,0.001873
cell,0.006037
center,0.006716
central,0.001967
centuri,0.001802
certain,0.001921
cg,0.005964
cgi,0.118459
cgiheavi,0.008628
challeng,0.002507
chang,0.004747
channel,0.003464
chap,0.006529
charact,0.020304
charl,0.008065
chip,0.004712
chipset,0.007832
chroma,0.007392
chrysantho,0.008628
cinema,0.014137
cinemat,0.006345
circuitri,0.011872
clariti,0.005039
clark,0.004064
class,0.004656
close,0.005634
closer,0.003473
coin,0.005813
color,0.006993
colour,0.004006
combin,0.006005
come,0.006023
comment,0.003362
commerci,0.018826
commodor,0.006103
common,0.005092
commonli,0.002331
commun,0.001835
compani,0.011083
compar,0.004152
compet,0.002894
complementari,0.004095
complet,0.003877
complex,0.008217
compon,0.004835
compris,0.002871
comput,0.369868
computeraid,0.011355
computerbas,0.005688
computergener,0.049517
concept,0.001959
conceptu,0.003378
concern,0.001970
confer,0.005526
confin,0.003769
consid,0.006549
consider,0.007077
consist,0.003758
consol,0.016753
consolid,0.003686
constraint,0.003485
construct,0.004348
consult,0.003241
consum,0.005590
contain,0.014098
content,0.008310
continu,0.020412
contribut,0.004121
control,0.011191
conveni,0.003748
cook,0.003958
coordin,0.005952
copi,0.006769
core,0.008943
corpor,0.005508
correspond,0.002548
cost,0.004936
countless,0.005215
coupl,0.003248
cpu,0.017065
creat,0.072123
creation,0.010221
creed,0.005412
critic,0.006195
cross,0.003064
crow,0.005555
crowd,0.004375
crt,0.013928
crucial,0.003417
csuri,0.025884
ct,0.004860
cultur,0.002110
current,0.007189
cursor,0.007832
curv,0.020724
curvemodel,0.008628
custom,0.008516
d,0.195457
dam,0.009475
damocl,0.008288
daniel,0.006983
dark,0.007260
darker,0.017565
data,0.035848
date,0.004692
david,0.012469
day,0.002118
dcapabl,0.008628
dd,0.005804
dec,0.016608
decad,0.035728
decadeslong,0.007003
decis,0.002367
declin,0.002665
dedic,0.003372
defin,0.005780
definit,0.002219
deform,0.004583
degre,0.004598
deliber,0.003758
demoscen,0.008288
dens,0.007992
depart,0.007384
depend,0.001852
depict,0.007003
depth,0.007372
describ,0.005184
descript,0.005132
design,0.032993
desktop,0.005536
despit,0.002380
determin,0.003899
develop,0.039314
devic,0.018825
dgraphic,0.008444
diagnost,0.004495
did,0.006252
differ,0.007441
differenti,0.002842
digit,0.050160
dimens,0.003230
dimension,0.030400
dire,0.005722
direct,0.003728
directli,0.004511
director,0.010126
directx,0.043140
disciplin,0.015521
discov,0.002472
discret,0.006622
disney,0.011736
display,0.070195
distanc,0.002989
distinct,0.004324
divis,0.007299
dma,0.007280
doe,0.001899
dollar,0.003280
domin,0.009241
donald,0.011874
doom,0.005699
dot,0.004536
dougla,0.008297
dozen,0.003926
dr,0.003483
draft,0.003623
draw,0.046047
drawn,0.003313
dreher,0.008034
drew,0.003869
drug,0.003311
duopoli,0.006226
dure,0.011312
dynam,0.002632
e,0.004549
earli,0.021977
earliest,0.005650
earnest,0.005331
earth,0.002653
easi,0.003432
easier,0.003619
easili,0.002895
ed,0.002366
edg,0.011063
edit,0.018518
educ,0.002153
edwin,0.013377
effect,0.019704
effici,0.007939
electr,0.005589
electron,0.025455
element,0.017197
elliot,0.005908
emerg,0.008665
emit,0.004230
emphasi,0.003065
employ,0.004483
en,0.004153
encod,0.004116
encompass,0.006328
end,0.009240
engin,0.026794
enjoy,0.003217
enter,0.002471
entertain,0.004156
entir,0.004384
entiti,0.014339
environ,0.006721
equat,0.008433
era,0.013352
erron,0.004841
especi,0.003925
establish,0.001803
evalu,0.002928
evan,0.023625
eventu,0.007207
everi,0.004230
everyth,0.003365
exactli,0.003311
exampl,0.009082
exhibit,0.009572
exist,0.003361
expand,0.002390
expens,0.003018
experi,0.006235
expert,0.003338
expos,0.006771
exposit,0.004632
express,0.004379
expressionbas,0.008628
extern,0.001321
eye,0.010136
f,0.002489
fabl,0.005499
face,0.005073
facet,0.005016
facial,0.005022
fairli,0.003828
familiar,0.003576
fan,0.004755
fantasi,0.009572
fantm,0.008628
far,0.002291
farther,0.004720
faster,0.003526
father,0.002971
fear,0.003171
featur,0.020572
featurelength,0.007003
feiner,0.008034
fell,0.003264
fetter,0.026324
fiction,0.003605
field,0.038762
fight,0.006343
fighter,0.004590
file,0.022636
film,0.071988
filter,0.004212
final,0.008744
fine,0.003613
finger,0.004909
firstgener,0.006554
firstperson,0.006086
flat,0.003865
flexibl,0.003742
flier,0.007588
flow,0.007985
fluid,0.003562
focus,0.004705
foley,0.014175
follow,0.004337
forc,0.005434
form,0.009670
formal,0.002261
format,0.009860
formul,0.002894
forth,0.003674
foundat,0.011784
founder,0.006335
frame,0.003454
framework,0.005178
franc,0.002587
franchis,0.004879
franci,0.003461
francisco,0.003900
frank,0.007078
franoi,0.004469
fred,0.009375
frieder,0.008288
frustrat,0.004636
fuch,0.006324
fujitsu,0.015327
fulli,0.013624
fundament,0.002314
futur,0.002201
gain,0.002198
galleri,0.004647
game,0.080639
gamecub,0.008628
gamer,0.007132
gdc,0.007832
geforc,0.016307
gener,0.020779
geometr,0.018584
geometri,0.011058
georg,0.002604
given,0.007251
global,0.002400
gloss,0.006264
glossari,0.004405
glsl,0.017256
goal,0.002486
golden,0.003662
gomtriqu,0.008153
got,0.008154
goto,0.006456
gouraud,0.024104
gpgpu,0.007832
gpu,0.063665
gradual,0.002905
grand,0.003510
graph,0.012063
graphic,0.676434
graviti,0.003940
great,0.004074
greater,0.004552
greatli,0.008879
green,0.006216
greenberg,0.025057
grid,0.013728
group,0.009782
grow,0.004635
grown,0.003480
guff,0.008628
gui,0.006410
gun,0.012731
ha,0.018077
half,0.004975
hall,0.003429
hand,0.002239
handl,0.003286
hardwar,0.042282
harvard,0.003531
hatch,0.005564
hd,0.005677
hdtv,0.007335
headmount,0.007832
hearn,0.007392
heart,0.003317
heaven,0.004328
heavili,0.002913
height,0.003603
held,0.002136
help,0.005936
henri,0.008739
hewlettpackard,0.006819
hhl,0.008628
hi,0.022687
hidden,0.003980
hiddensurfac,0.008628
hierarchi,0.003683
higginbotham,0.008153
high,0.001830
highend,0.006480
higher,0.002148
highestend,0.008628
highli,0.009517
highlight,0.003721
highresolut,0.012141
highspe,0.005363
highwat,0.006723
higinbotham,0.008628
hill,0.003595
hire,0.003946
histor,0.002030
histori,0.006021
hit,0.007484
hlsl,0.017256
hmd,0.014670
holm,0.005136
home,0.023227
hous,0.002424
howard,0.004192
howev,0.004400
hub,0.004691
hudson,0.010337
hugh,0.004241
humanlook,0.008034
hundr,0.002746
ibm,0.018591
ice,0.003942
icon,0.009730
id,0.004972
ident,0.002587
ii,0.004730
illumin,0.008492
illus,0.008925
illustr,0.015411
imag,0.139151
imageri,0.029162
imagesmostli,0.008628
immedi,0.002656
immel,0.008628
impact,0.002476
implement,0.010065
implicit,0.004233
import,0.015415
impress,0.007378
impression,0.006786
improv,0.011120
includ,0.012546
incorpor,0.002481
increas,0.003476
increasingli,0.007993
independ,0.005569
industri,0.018566
inevit,0.003982
inexpens,0.004909
influenti,0.002906
infograph,0.006925
inform,0.017968
initi,0.003927
innov,0.021914
input,0.006548
instal,0.003566
instanc,0.004895
instant,0.004671
integr,0.010905
intel,0.005829
intellig,0.008460
intend,0.002797
intens,0.003001
interact,0.013530
interfac,0.023608
intern,0.001583
interpret,0.002411
intrins,0.003826
introduc,0.012720
introduct,0.002396
invad,0.003614
invent,0.014704
investig,0.002532
isbn,0.004273
isosurfac,0.007832
issu,0.001939
iv,0.003923
ivan,0.019441
j,0.004539
jack,0.004273
jaggi,0.008288
jame,0.007647
japan,0.005977
java,0.004576
jeffrey,0.004695
jim,0.028662
john,0.014390
johnwiley,0.008288
join,0.002688
jone,0.004012
julesz,0.008288
just,0.008429
k,0.005480
kajiya,0.016069
ken,0.005016
key,0.004599
keyfram,0.017256
khrono,0.007832
kind,0.009629
kingdom,0.002404
knight,0.004526
knowlton,0.007832
known,0.007550
krishnamurti,0.007519
l,0.005320
la,0.003016
lab,0.003948
laboratori,0.021466
lack,0.002304
laid,0.003410
lanc,0.005517
languag,0.009085
larg,0.007962
larger,0.004770
late,0.008368
later,0.023362
law,0.001820
lawrenc,0.004042
layer,0.003478
layout,0.005062
le,0.003599
lead,0.009014
leader,0.002642
learn,0.002538
led,0.005850
legend,0.004257
lens,0.005142
level,0.005420
levoy,0.017256
lewel,0.008153
licens,0.003598
light,0.047331
lighter,0.014226
lign,0.007663
like,0.020981
likewis,0.003578
limit,0.007381
lincoln,0.005130
line,0.012975
link,0.006569
liquidcryst,0.008034
locat,0.013329
lockheedgeorgia,0.008628
logic,0.002924
long,0.001961
look,0.007484
loop,0.004160
love,0.003587
low,0.002315
lowend,0.007179
lowpric,0.007335
lucasfilm,0.015177
lumier,0.007928
lumin,0.005745
lytl,0.008288
m,0.004321
mac,0.010515
machin,0.011669
machinerysiggraph,0.008628
macintosh,0.020079
madagascar,0.005272
magic,0.012638
magnavox,0.008153
magnenat,0.008628
magnitud,0.003727
main,0.001912
mainfram,0.011900
mainli,0.002508
mainstream,0.003666
maintain,0.002106
major,0.004808
make,0.003072
maker,0.004168
mandelbrot,0.006137
mani,0.025947
manipul,0.025880
manmachin,0.006964
manner,0.002915
manual,0.011449
map,0.074630
marc,0.004989
mario,0.005236
mark,0.002425
market,0.006785
marque,0.008288
martin,0.003198
mass,0.007433
massiv,0.006430
match,0.003213
materi,0.002117
mathemat,0.011876
matrix,0.003792
matt,0.005555
matur,0.010547
mauric,0.004505
max,0.003692
mb,0.005699
mcconnel,0.007003
mcgrawhil,0.004366
mean,0.004991
meaning,0.003926
media,0.011085
medic,0.005564
medium,0.003444
memori,0.003142
mentor,0.004989
mere,0.002972
mesh,0.010603
meteorolog,0.004430
method,0.029939
methodolog,0.009594
michael,0.005561
microprocessor,0.017305
microscop,0.003900
microsoft,0.023930
mid,0.003008
migrat,0.003228
militari,0.004888
millimet,0.005804
million,0.002373
millionssel,0.008628
minicomput,0.006925
mipmap,0.008628
mirror,0.008159
mirrorlik,0.007335
mit,0.022027
mobil,0.003209
mode,0.003401
model,0.073399
modern,0.010873
molecular,0.003158
moma,0.008153
moment,0.003437
money,0.002700
mostli,0.005155
motion,0.015244
motorola,0.006754
movement,0.006250
movi,0.024793
mri,0.005236
msdosbas,0.008628
multimedia,0.010758
multipl,0.004647
multistag,0.006529
multitextur,0.008628
museum,0.003643
music,0.003320
nadia,0.007335
nake,0.004822
namco,0.008288
nasa,0.004561
nation,0.001674
natur,0.001612
nearfullycgi,0.008628
nearli,0.010526
necess,0.007572
necessari,0.002407
nee,0.007335
need,0.003632
nelson,0.004565
nemo,0.007132
new,0.013495
newel,0.005677
newspap,0.003740
newton,0.003814
ninefigur,0.008628
nineti,0.005481
nintendo,0.030077
noll,0.033772
nongraph,0.008628
normal,0.012041
nostrand,0.006207
note,0.001741
noth,0.003197
nsf,0.006723
number,0.007557
numer,0.002238
nurb,0.023496
nvidia,0.028915
object,0.024784
obtain,0.002348
ocarina,0.008628
occasion,0.006816
occur,0.001919
odyssey,0.005324
offer,0.008986
offic,0.002431
old,0.004999
onc,0.002257
onli,0.002781
open,0.002068
opengl,0.025884
opensourc,0.005574
oper,0.003812
opportun,0.002853
optic,0.010904
optim,0.003204
orbit,0.003832
orca,0.014007
orcatech,0.008628
order,0.001664
organ,0.004944
orient,0.003148
origin,0.008371
osaka,0.006456
oscilloscop,0.014175
ottawa,0.005555
outlast,0.007132
outlin,0.002940
output,0.009460
outsid,0.002304
overal,0.005530
overcom,0.003710
overlay,0.005964
overview,0.003027
overwhelm,0.004051
owner,0.003417
p,0.004612
pace,0.004077
page,0.002962
panel,0.004452
paper,0.007478
parallel,0.006261
paramet,0.003483
parameter,0.005908
park,0.007062
parslow,0.008628
particl,0.003247
particularli,0.004237
partli,0.003248
pass,0.007041
past,0.002396
patch,0.004935
path,0.003063
pattern,0.015467
paul,0.005252
paulin,0.006154
pavilion,0.006819
pbr,0.007663
pc,0.014714
pdp,0.019299
pearson,0.004759
pen,0.024206
peopl,0.003331
perel,0.008153
perfect,0.010126
perfectli,0.004197
perform,0.008496
perhap,0.002808
period,0.003590
permit,0.003077
perpendicular,0.005033
person,0.005931
perspect,0.002703
peter,0.005510
phd,0.003904
phenomena,0.008654
phone,0.004311
phong,0.015664
photo,0.004675
photoelectr,0.005604
photograph,0.008316
photographi,0.004967
photon,0.004414
photor,0.044357
photorealist,0.022557
photoshop,0.008034
phrase,0.007280
physic,0.013839
pick,0.003932
pictur,0.020294
piec,0.003336
pierr,0.007778
pinpoint,0.005710
pioneer,0.034718
pipelin,0.004940
pixar,0.044357
pixel,0.093478
pixelbas,0.008628
place,0.006834
placement,0.004742
plain,0.003948
plan,0.002288
planar,0.005604
plane,0.007278
planetariumlik,0.008628
plastic,0.004062
platform,0.007399
player,0.003954
playstat,0.021398
pleas,0.004576
plugin,0.006581
point,0.008762
polar,0.003701
polygon,0.051601
pong,0.006853
popular,0.023777
portray,0.003932
posit,0.001790
possibl,0.001767
poster,0.005624
postscript,0.006529
postworld,0.005215
power,0.008865
practic,0.007414
preantialias,0.008628
precursor,0.011323
predecessor,0.003777
predict,0.005070
prefer,0.002653
prentic,0.004683
prenticehal,0.005243
prepar,0.002809
prequel,0.006607
prerend,0.017256
presenc,0.005239
present,0.008661
previou,0.002612
previous,0.005282
primari,0.004573
primarili,0.004736
primit,0.015335
principl,0.004159
print,0.009760
prior,0.002616
problem,0.005558
procedur,0.015086
process,0.040946
processor,0.004889
produc,0.010816
product,0.005417
professor,0.006192
program,0.026152
programm,0.006660
programmat,0.006925
progress,0.007083
project,0.019293
prolifer,0.012795
promin,0.005433
propag,0.003860
provid,0.009223
prows,0.008628
public,0.005234
publicli,0.003707
publish,0.005769
puls,0.009234
pure,0.005479
purpos,0.006760
pursu,0.003150
pursuit,0.003906
push,0.003294
quak,0.006925
qualiti,0.005162
quarx,0.008628
quick,0.004281
quickli,0.011280
quit,0.002927
quot,0.003624
r,0.004636
race,0.010211
radar,0.004836
radiat,0.003469
ralph,0.004659
rand,0.005123
random,0.003304
randomdot,0.008628
rapidli,0.002920
raster,0.067234
ration,0.002985
ray,0.026272
reach,0.004466
read,0.001908
real,0.004561
realism,0.004286
realist,0.033984
realiti,0.005977
realiz,0.003072
realtim,0.041451
realworld,0.004565
recal,0.004249
receiv,0.004198
recent,0.003805
recogn,0.002356
recogniz,0.005111
recruit,0.008102
rectifi,0.005855
red,0.003045
rediscov,0.004786
refer,0.007691
reflect,0.007083
regular,0.015051
reinhold,0.005756
rel,0.005910
relat,0.001481
relationship,0.002097
releas,0.013730
relev,0.005747
reli,0.005295
remain,0.005451
renault,0.019992
render,0.169372
replac,0.002239
report,0.004223
repres,0.003604
represent,0.027719
reput,0.003823
requir,0.006918
research,0.028521
resolut,0.006722
resolutionindepend,0.016576
respond,0.005926
respons,0.001905
rest,0.002574
result,0.012244
resurfac,0.005804
return,0.002223
revenu,0.003205
revolut,0.005444
revolution,0.009226
revolutionari,0.003496
richard,0.002714
right,0.003943
rise,0.008844
road,0.003191
robert,0.002415
rocketri,0.006889
roger,0.003684
ross,0.008991
rudimentari,0.005181
run,0.007244
russel,0.007702
s,0.040518
sage,0.012994
said,0.002257
sale,0.003200
sampl,0.013097
san,0.003489
sander,0.004989
sandin,0.007928
satellit,0.003833
save,0.006240
saw,0.008066
scale,0.004973
scanlin,0.008034
scanner,0.005584
scatter,0.004057
scene,0.035622
schuiten,0.008288
scienc,0.018480
scientif,0.011055
scientist,0.005025
scope,0.006460
screen,0.064922
scroll,0.005403
sculpt,0.006137
second,0.003606
secondari,0.003128
secondgener,0.006366
sector,0.002880
seen,0.002155
sega,0.030977
select,0.002389
semant,0.004073
semin,0.004202
semistandalon,0.008628
sens,0.002260
sentenc,0.003756
separ,0.012044
seri,0.008755
seriou,0.006156
serv,0.002187
set,0.010212
setupclip,0.008628
sever,0.004782
sgi,0.007179
shade,0.060067
shader,0.071356
shadow,0.004281
shape,0.007856
sharewar,0.008034
sherlock,0.006529
shift,0.002662
shifter,0.007663
shine,0.005188
ship,0.003117
shirley,0.006103
shock,0.003756
shooter,0.006554
short,0.002342
siggraph,0.052178
signific,0.005856
significantli,0.002820
silicon,0.023338
similar,0.009130
simpl,0.002429
simpli,0.004990
simplist,0.005463
simul,0.046518
sinc,0.003058
sinden,0.016069
singl,0.004093
site,0.002575
size,0.007144
skelet,0.005355
sketch,0.004904
sketchpad,0.022557
skill,0.002945
slater,0.006054
slice,0.010807
slightli,0.003314
small,0.005613
smith,0.003239
smithsonian,0.005229
smooth,0.008110
societi,0.001915
softwar,0.061558
sold,0.003229
solid,0.003286
solut,0.002616
solv,0.005628
sometim,0.007962
somewhat,0.003241
son,0.002927
song,0.004055
soni,0.018212
sophist,0.007036
sought,0.005958
sound,0.003219
sourc,0.007694
southern,0.002838
space,0.007073
spacewar,0.024461
speak,0.002932
special,0.019125
specif,0.007318
specifi,0.006218
specular,0.014908
speed,0.009381
sperri,0.007454
spinoff,0.005666
spirit,0.003455
spread,0.002703
springer,0.003701
sprite,0.085053
spritebas,0.008628
sproull,0.008288
spun,0.005745
squar,0.009719
stainedglass,0.008288
standalon,0.005412
standard,0.012358
stanford,0.003552
star,0.006782
start,0.017421
state,0.002676
statement,0.002807
statist,0.002508
steed,0.007744
step,0.002593
stereoscop,0.006819
steve,0.009400
steven,0.003853
stockham,0.008628
store,0.012392
stori,0.003099
strait,0.004799
stretch,0.003854
strictli,0.003606
strong,0.002221
structur,0.001786
student,0.007808
studi,0.011312
studio,0.036854
style,0.003150
stylist,0.005463
subdivis,0.004492
subfield,0.015746
subject,0.001945
subsequ,0.002386
subsurfac,0.005722
success,0.010139
suggest,0.002140
suitabl,0.003394
super,0.004961
supercomput,0.005463
superimpos,0.005624
supersampl,0.008628
supervis,0.003656
support,0.005454
surfac,0.035996
surgic,0.004632
surround,0.002800
survey,0.002939
sutherland,0.073043
sword,0.005011
symbol,0.002776
synthes,0.011922
t,0.005321
taito,0.007928
talent,0.004519
target,0.008541
task,0.002836
teacher,0.003504
technic,0.005439
techniqu,0.051700
technolog,0.022048
tekken,0.008628
telephon,0.008360
telescop,0.004700
televis,0.017234
tenni,0.016783
term,0.010114
termin,0.007166
tessel,0.006723
text,0.007913
textur,0.134481
texturerel,0.008628
thalmann,0.016307
theft,0.005105
theori,0.001792
thereaft,0.003998
therefor,0.002078
thesi,0.003784
thi,0.037745
thing,0.002433
thoma,0.002735
thousand,0.002696
threedimension,0.016801
thu,0.001787
tie,0.002982
time,0.023001
tip,0.004265
tire,0.010774
titl,0.005489
today,0.010984
togeth,0.004217
tom,0.004195
took,0.004777
tool,0.017140
topic,0.002426
topnotch,0.008034
toshinden,0.008628
toy,0.005005
trace,0.017593
tradeoff,0.004930
tradit,0.003851
trail,0.005016
train,0.002640
transform,0.015019
triangl,0.009045
trilog,0.010726
truli,0.003832
trw,0.008034
tsukuba,0.007335
tube,0.008451
tuong,0.016576
turn,0.004228
tv,0.004228
twenti,0.003761
twentieth,0.003607
twodimension,0.034476
twogiro,0.008628
tx,0.012078
type,0.007354
typic,0.016412
typographi,0.020892
u,0.003568
ubiquit,0.009645
uc,0.005446
ultra,0.005829
ultrahighresolut,0.008628
uncanni,0.019231
uncommon,0.004687
underli,0.005808
understand,0.004151
uneven,0.005149
unit,0.010796
univers,0.011086
unix,0.006723
unknown,0.006332
unlik,0.002546
unrel,0.004372
untrain,0.012776
use,0.069973
user,0.020354
userdefin,0.007744
usual,0.011041
utah,0.027680
utilitarian,0.004846
uu,0.028718
uv,0.005201
valley,0.014145
valu,0.009799
van,0.010035
vari,0.006763
variabl,0.002795
varieti,0.004592
variou,0.006963
vast,0.003070
vector,0.029586
veri,0.008731
vern,0.013008
versu,0.003569
vertic,0.007912
viabl,0.004207
vibrat,0.004462
video,0.084143
videogam,0.026773
vie,0.005604
view,0.003919
viewer,0.016089
viewpoint,0.008050
virtua,0.017256
virtual,0.024193
viscou,0.005842
vision,0.006624
visit,0.003072
visitor,0.004182
visual,0.054849
volum,0.013097
volumetr,0.006388
voxel,0.014265
w,0.002565
wa,0.058930
want,0.008469
war,0.008689
warnock,0.015488
wave,0.003083
way,0.001635
wayn,0.005428
wealth,0.003149
weather,0.003750
web,0.006630
wellconstruct,0.007132
went,0.005609
whenev,0.004303
whirlwind,0.022557
white,0.002903
wichita,0.007519
wide,0.005908
wider,0.003482
widespread,0.008813
wien,0.005656
wife,0.003942
wii,0.007588
william,0.012252
window,0.012893
wirefram,0.016307
wise,0.004777
wolfenstein,0.008034
wolfgang,0.004643
won,0.006191
word,0.004245
work,0.017989
workstat,0.044565
world,0.012402
worri,0.004505
written,0.002421
wrote,0.002605
xbox,0.013328
xna,0.007928
y,0.003256
year,0.007716
york,0.002355
young,0.005678
z,0.003730
za,0.006433
zajac,0.016069
zelda,0.007928
zhang,0.005188
zilog,0.008628
