abstract,0.003865
academ,0.006580
accept,0.002758
access,0.003039
accompani,0.004247
achiev,0.002763
acquaintanceship,0.010475
act,0.002510
actor,0.005064
acycl,0.007672
addisonwesley,0.006238
address,0.003308
adjac,0.035195
affect,0.002870
alan,0.004657
algebra,0.018870
algorithm,0.035232
ambigu,0.005162
analog,0.003925
analysi,0.007944
analyt,0.004005
andor,0.003844
ani,0.009680
annot,0.006015
anoth,0.023242
appel,0.006609
appli,0.002348
applic,0.023612
approach,0.007584
arbitrari,0.004743
arbor,0.007162
arc,0.017713
archiv,0.004043
area,0.008727
argument,0.007381
aris,0.007167
aros,0.004362
array,0.004793
arrow,0.005640
ascertain,0.006326
assign,0.003945
associ,0.012875
asymptot,0.006437
atom,0.011524
attribut,0.003414
author,0.002473
automat,0.004484
autonom,0.004442
avoid,0.003281
bangjensen,0.010475
basic,0.005329
becaus,0.001994
becom,0.004240
began,0.002645
begin,0.002582
behavior,0.003107
behzad,0.009899
belong,0.007485
berg,0.006788
best,0.002919
better,0.002987
bigg,0.008537
biolog,0.009424
bipartit,0.016204
bla,0.007967
bollob,0.010155
bond,0.003783
bondi,0.008459
book,0.005035
border,0.003902
born,0.003741
bornholdt,0.010475
brain,0.008477
branch,0.008450
breed,0.005311
bridg,0.013128
bruijn,0.009788
bucharest,0.007846
calcul,0.006760
calculu,0.004951
cambridg,0.007027
came,0.002900
carri,0.002859
case,0.004436
cauchi,0.007467
cayley,0.031384
cell,0.003815
centuri,0.004556
certain,0.012140
chang,0.002000
channel,0.008758
character,0.006729
chartrand,0.010155
check,0.004599
chemic,0.006756
chemicograph,0.010475
chemist,0.005098
chemistri,0.015553
chines,0.007627
chip,0.005956
circl,0.004274
circuit,0.010010
class,0.029426
claud,0.005747
cliqu,0.015470
close,0.004747
cognit,0.004206
cohen,0.005840
coincid,0.004772
collabor,0.004075
collect,0.005176
color,0.075136
column,0.015122
combin,0.005060
combinatori,0.006251
come,0.002537
common,0.010727
commonli,0.005893
commun,0.002320
compar,0.002624
complementari,0.005176
complet,0.019604
complex,0.005192
complic,0.004021
composit,0.011035
composition,0.009503
compris,0.007259
comput,0.044102
computeraid,0.007176
concept,0.004952
concern,0.007473
concis,0.005404
concret,0.004861
condens,0.005134
condit,0.002482
configur,0.009803
confus,0.003993
conjectur,0.044830
connect,0.035057
conserv,0.003522
consid,0.008277
consist,0.002374
constrain,0.005159
constraint,0.008811
construct,0.002747
consum,0.003533
contain,0.030546
contemporari,0.006941
context,0.003121
contract,0.003559
convex,0.006258
cost,0.006239
count,0.008093
covari,0.019548
cover,0.017528
cross,0.011618
current,0.002271
cut,0.003767
cycl,0.014550
data,0.011327
databas,0.012454
deal,0.002858
decid,0.006916
decompos,0.023008
decomposit,0.040551
defin,0.009740
definit,0.016834
degre,0.008717
depend,0.004682
describ,0.006552
design,0.002606
determin,0.002464
develop,0.007098
devic,0.003965
diagram,0.009762
diestel,0.010672
differ,0.011286
differenti,0.003592
difficult,0.003094
digraph,0.009074
direct,0.018850
discharg,0.005956
discret,0.012555
discuss,0.002895
diseas,0.003717
distanc,0.007557
distinct,0.005465
distinguish,0.003150
dne,0.009788
doe,0.002400
domain,0.003465
donat,0.005315
dot,0.005734
doubl,0.003928
dover,0.011860
draw,0.047287
drawn,0.004187
dunod,0.009344
dynam,0.003326
e,0.017252
easier,0.009148
ed,0.008972
edg,0.167793
edgar,0.006244
edgeless,0.010305
edit,0.006687
editor,0.004547
effici,0.006690
effort,0.002958
elabor,0.004445
electr,0.007064
element,0.002717
embed,0.004968
emphas,0.003749
enabl,0.003387
encompass,0.003999
encyclopedia,0.003679
end,0.004671
engin,0.006157
english,0.005950
enum,0.008619
enumer,0.030870
erd,0.007485
erdsfaberlovsz,0.009899
especi,0.009922
et,0.003672
euler,0.017916
evalu,0.003701
everi,0.008019
exact,0.004075
exactli,0.004185
exampl,0.022959
exist,0.006373
explor,0.003255
express,0.005535
extend,0.002817
extent,0.003515
extern,0.001670
extrem,0.003064
face,0.003206
factor,0.008126
fail,0.003211
famili,0.008874
famou,0.007058
faster,0.004456
featur,0.002889
februari,0.003470
fertil,0.004478
field,0.002332
final,0.002763
finit,0.004418
finitest,0.017916
fix,0.013563
flight,0.004680
flow,0.013456
focus,0.002973
follow,0.005482
forbidden,0.005648
forest,0.004393
form,0.006984
formal,0.002858
formula,0.003989
fourcolor,0.010155
framework,0.003272
franci,0.004374
frank,0.013419
friendship,0.005673
fruit,0.004526
fulli,0.006888
function,0.007016
fund,0.003149
fundament,0.005850
fusion,0.005324
g,0.003090
galleri,0.005874
gari,0.005699
gather,0.003982
gave,0.003324
gear,0.005797
gener,0.016414
genu,0.005770
geometr,0.004697
geometri,0.004659
gibbon,0.007021
given,0.020620
glossari,0.005568
golumb,0.010475
gpss,0.009899
grammar,0.005682
graph,0.894528
graphic,0.009827
graphstructur,0.010305
graphswhich,0.010475
graphtheoret,0.036808
greater,0.002877
gregori,0.005556
group,0.002060
guard,0.004774
gustav,0.005845
guthri,0.007756
gutin,0.010305
ha,0.016755
hadwig,0.018842
haken,0.009136
hamilton,0.005669
hamiltonian,0.013254
hand,0.002830
handbook,0.004623
handl,0.004153
harari,0.047106
hartmann,0.007672
havlin,0.009271
hazewinkel,0.006905
headdriven,0.010155
heawood,0.009899
heesch,0.020611
heinrich,0.005669
hereditari,0.016402
hg,0.007045
hi,0.004096
hierarch,0.005240
histori,0.003805
homeomorph,0.008317
huge,0.004248
ide,0.008074
idea,0.002563
ident,0.003270
ii,0.002989
imag,0.003517
implement,0.003180
impli,0.003551
implic,0.003980
import,0.007793
incid,0.018080
includ,0.011100
incorpor,0.003136
incorrect,0.005438
inde,0.003884
independ,0.007038
index,0.007258
indic,0.008430
induc,0.027140
infinit,0.008946
influenc,0.005032
influenti,0.003674
inform,0.009084
informationar,0.010475
inhabit,0.003971
initi,0.002482
inmemori,0.009344
input,0.004138
inspect,0.005707
instanc,0.012374
interact,0.005700
intersect,0.005147
introduc,0.008039
introduct,0.009085
introductori,0.005445
invari,0.010102
involv,0.004429
isbn,0.008101
isomorph,0.013236
ital,0.007058
ja,0.006788
jordan,0.005756
jorgen,0.009503
k,0.017316
kekulan,0.010475
kelmansseymour,0.010475
kemp,0.007800
kenneth,0.005125
kind,0.006085
kirchhoff,0.023018
kn,0.007672
knig,0.017704
knight,0.005720
knigsberg,0.024306
knot,0.006768
know,0.003461
known,0.005725
kuratowski,0.018030
languag,0.008612
laplacian,0.008577
larg,0.002012
largest,0.006308
later,0.002271
lattic,0.005694
law,0.002300
layout,0.012798
learn,0.003208
led,0.004929
leibniz,0.005699
lend,0.004906
length,0.007578
leonhard,0.006916
letter,0.003770
lexic,0.007275
lhuillier,0.010305
librari,0.014351
lie,0.003741
life,0.002455
like,0.004079
likewis,0.004523
line,0.005466
linear,0.004063
linguist,0.017958
link,0.009963
list,0.025483
literatur,0.003412
lloyd,0.005889
local,0.002586
look,0.003153
loop,0.005258
m,0.002731
ma,0.004823
machin,0.003687
mahadev,0.009899
mainli,0.003170
major,0.002026
make,0.003883
mani,0.025891
manipul,0.008177
map,0.003493
mark,0.003066
martin,0.004042
match,0.004061
mathemat,0.033022
mathematician,0.004674
mathmatiqu,0.007672
matrix,0.047936
matter,0.005745
max,0.004666
maxim,0.008686
mean,0.014721
measur,0.002501
media,0.007005
meet,0.003089
member,0.007309
membership,0.004206
memori,0.007944
method,0.011825
methuen,0.007652
mexico,0.004764
michiel,0.006768
microscal,0.008074
migrat,0.004080
min,0.006739
minimum,0.008331
minor,0.024737
model,0.023787
modern,0.002290
modifi,0.003726
molecul,0.008246
molecular,0.007982
monetari,0.004093
morgan,0.005421
morpholog,0.010463
moscow,0.005470
movement,0.005266
movi,0.005222
multigraph,0.009899
multipl,0.002937
multiset,0.009202
murti,0.009015
museum,0.004604
n,0.013717
natur,0.008154
necessari,0.003043
necessarili,0.003738
neighbor,0.004307
net,0.004014
network,0.035117
neurosci,0.005265
new,0.006823
newman,0.007058
node,0.017269
nonadjac,0.009503
nontechn,0.007384
nonvisu,0.009899
northholland,0.007189
notabl,0.002930
notat,0.005131
note,0.002201
notion,0.014451
npcomplet,0.033271
nphard,0.008537
number,0.017193
numer,0.005658
nvr,0.010475
ny,0.005526
object,0.013052
obtain,0.011872
om,0.007942
onli,0.007031
onlin,0.006684
oper,0.002409
optim,0.008100
order,0.008417
organ,0.004165
origin,0.004232
oxford,0.007175
page,0.007487
pair,0.016278
pairwis,0.015188
palmer,0.014522
paper,0.018905
parasit,0.005652
pari,0.004175
partial,0.003512
particular,0.011951
particularli,0.005356
partit,0.010579
path,0.015487
pattern,0.003258
pele,0.008904
peopl,0.008421
perfect,0.008533
persist,0.004329
petersen,0.008252
phase,0.003672
phonolog,0.007290
phrase,0.004601
physic,0.012493
physicist,0.004520
pioneer,0.003989
planar,0.035417
plane,0.013798
plya,0.017325
point,0.004430
pointdelet,0.010475
polyhedron,0.008190
pore,0.013878
porou,0.007246
pose,0.004651
possibl,0.006700
postman,0.008577
power,0.002240
practic,0.004685
precis,0.007214
prefer,0.003353
press,0.015463
prestig,0.005788
previou,0.003302
prime,0.003518
principl,0.002628
print,0.004112
prize,0.004084
probabilist,0.005694
probabl,0.003142
problem,0.119438
process,0.008280
produc,0.002278
product,0.002282
program,0.002754
project,0.002709
proof,0.017859
properti,0.029164
propos,0.002701
prove,0.003379
proven,0.004625
provid,0.001942
pseudograph,0.010305
publish,0.017013
quantic,0.009788
quantit,0.004068
queri,0.006476
question,0.008249
r,0.002930
ramsey,0.014935
random,0.008354
rang,0.002628
read,0.002412
realworld,0.005770
reason,0.002492
reconstruct,0.004352
record,0.002927
refer,0.004166
reformul,0.006285
regard,0.002664
region,0.009947
regular,0.007609
reinhard,0.008102
relat,0.020597
relationship,0.005301
remain,0.002296
repres,0.054675
represent,0.003503
requir,0.004372
research,0.002253
resourc,0.005623
respect,0.005282
restrict,0.003218
result,0.015476
reuven,0.009271
rewrit,0.006500
riordan,0.008753
rise,0.005589
rnyi,0.008662
road,0.008067
robertson,0.006574
robust,0.005030
roc,0.007384
roumanian,0.010475
rout,0.008362
router,0.008497
row,0.016111
royalti,0.006333
rule,0.002535
rulebas,0.007467
rumor,0.006861
russian,0.004065
s,0.005909
said,0.002853
salesman,0.007735
sander,0.006305
satisfi,0.004119
scalefre,0.009136
schuster,0.006700
scienc,0.004671
scientist,0.003175
se,0.005774
search,0.007109
searchabl,0.007290
second,0.002279
section,0.003441
semant,0.015443
sens,0.005715
separ,0.005074
set,0.019361
seven,0.007288
sever,0.004029
seymour,0.007162
shanghai,0.006997
shlomo,0.008160
shorter,0.004944
shortest,0.013659
similar,0.009231
similarli,0.003661
simpl,0.003071
simpler,0.005153
simul,0.004199
sinc,0.001932
situ,0.006861
size,0.003009
small,0.002365
smaller,0.006572
social,0.014752
sociolog,0.004579
softwar,0.008189
solv,0.003557
sometim,0.002516
somewhat,0.004097
sourc,0.002431
span,0.008929
spanish,0.004179
spars,0.005826
speci,0.010664
special,0.002417
specif,0.009250
specifi,0.011789
spread,0.006832
springer,0.009356
st,0.003115
standard,0.002603
state,0.003382
statist,0.006341
steiner,0.007246
stem,0.004344
stimul,0.004325
store,0.007831
strictli,0.004558
strong,0.002808
structur,0.056455
studi,0.028596
subcontract,0.008619
subdivid,0.005296
subdivis,0.039745
subgraph,0.155323
subgraphfind,0.010475
subject,0.004917
subset,0.004847
substructur,0.007672
subsum,0.006460
subsumpt,0.016261
suffici,0.003573
suit,0.004492
surfac,0.006999
sylvest,0.008102
syntax,0.012238
t,0.003362
tait,0.016380
taken,0.005660
talk,0.004159
teach,0.003786
techniqu,0.005940
tend,0.003173
term,0.009131
terminolog,0.004551
textbook,0.013069
textgraph,0.010475
theorem,0.034661
theoret,0.006338
theori,0.095151
theorist,0.004504
therefor,0.005254
thereof,0.005940
thi,0.015902
thoma,0.003457
thori,0.007556
threecottag,0.020310
threedimension,0.005308
threshold,0.005383
thu,0.004518
time,0.005130
togeth,0.010660
tool,0.003094
topic,0.003066
topolog,0.031909
total,0.002696
track,0.004276
tradit,0.002433
transactionsaf,0.010475
transduc,0.007869
transform,0.006327
transit,0.003364
travel,0.010238
travelplan,0.010475
tree,0.023887
treebas,0.009686
true,0.006258
turn,0.002672
tutori,0.006406
tutt,0.008958
twenti,0.004754
twice,0.009213
type,0.013942
typic,0.002593
umbrella,0.005756
understand,0.002623
understood,0.003627
undirect,0.016261
unfortun,0.005572
unif,0.027482
univers,0.008007
universitair,0.008619
unord,0.019798
unsolv,0.030565
uri,0.007823
use,0.044220
usr,0.010475
usual,0.004651
v,0.020677
valenc,0.006729
valu,0.002477
vandermond,0.009202
vari,0.002849
variant,0.004682
variat,0.007246
varieti,0.002902
variou,0.017602
vch,0.009591
verbnet,0.010475
veri,0.002207
vertex,0.074005
vertexconnect,0.010155
vertic,0.130005
visibl,0.004272
visual,0.004077
voltag,0.006305
w,0.003243
wa,0.017432
wagner,0.007109
way,0.014466
wayback,0.007261
web,0.004190
websit,0.003654
weight,0.023374
weigt,0.010305
weinheim,0.009788
wellknown,0.009074
whitney,0.007189
wide,0.004978
wiley,0.009459
wilson,0.004828
wolfgang,0.005869
word,0.008048
wordnet,0.008422
work,0.011368
world,0.001959
written,0.012240
x,0.003422
xy,0.006829
y,0.004115
year,0.003901
york,0.008930
zero,0.004064
