abil,0.014239
accept,0.004331
access,0.004773
accumulo,0.036298
accur,0.005877
acid,0.041705
activespac,0.018149
actual,0.004415
addisonwesley,0.009796
addit,0.013960
address,0.005195
adhoc,0.012636
adopt,0.004760
advanc,0.004260
aerospik,0.034251
alchemi,0.010435
allegrograph,0.036298
allow,0.003430
altogeth,0.008552
amazon,0.029610
amazoncom,0.012594
analog,0.012329
analysi,0.004158
analyt,0.006289
andor,0.006037
ann,0.008080
anoth,0.003318
apach,0.089067
api,0.011084
appear,0.003995
appengin,0.018149
applic,0.012360
approach,0.019851
appropri,0.011060
arangodb,0.108894
array,0.007528
articl,0.004100
arxiv,0.012285
assess,0.005876
associ,0.003370
assum,0.004779
atom,0.006032
attempt,0.007870
avail,0.008434
avoid,0.005153
azur,0.030126
b,0.004569
barrier,0.007019
base,0.012024
basic,0.004184
becaus,0.003131
ben,0.008896
benchmark,0.009464
berkeley,0.008124
better,0.004690
big,0.012597
bigger,0.009337
bigtabl,0.017572
bigtablemapreduc,0.018149
binari,0.008307
blog,0.028340
brief,0.006593
bson,0.018149
bushik,0.018149
cach,0.046285
cap,0.016974
capabl,0.005486
carlo,0.007928
cassandra,0.041023
categori,0.010632
central,0.007811
centuri,0.003577
challeng,0.004976
chang,0.009423
characterist,0.009604
choos,0.005993
christof,0.014250
christoph,0.007301
circa,0.009362
citeseerx,0.013285
claim,0.004229
classif,0.024591
classifi,0.005635
clone,0.009553
cloud,0.007969
cloudant,0.018149
cluster,0.007644
clusterpoint,0.032903
collect,0.024386
column,0.015832
columnbas,0.018149
comment,0.020022
common,0.013477
compani,0.004399
compar,0.004121
comparison,0.029215
complet,0.003848
compromis,0.008011
comput,0.004617
concept,0.015554
consid,0.003249
consist,0.026107
consolid,0.007316
constraint,0.006918
contain,0.003997
content,0.005498
contrari,0.007286
control,0.003702
correl,0.012990
cortexdb,0.018149
cost,0.004899
couchbas,0.065806
couchdb,0.033520
ctreeac,0.036298
current,0.007134
d,0.004511
dadbhawala,0.018149
dan,0.009026
data,0.146758
databas,0.469395
datastax,0.018149
datastor,0.018149
db,0.011674
dbm,0.014559
dbo,0.017125
default,0.008503
defin,0.003824
definit,0.004406
degre,0.009127
degruyteroldenbourg,0.018149
depart,0.004885
depend,0.003676
der,0.007292
design,0.016371
desir,0.005244
develop,0.002786
dharmesh,0.018149
dictionari,0.006756
did,0.012409
differ,0.026587
difficult,0.004860
directori,0.009353
discret,0.006572
discuss,0.004546
disk,0.009572
distil,0.009980
distinct,0.004291
distribut,0.027587
document,0.086079
documentdb,0.036298
documentori,0.032368
domino,0.013010
drive,0.005987
druid,0.013536
durabl,0.009387
dynamo,0.025359
dynamodb,0.018149
earli,0.010066
easi,0.006813
edlich,0.018149
effici,0.005253
element,0.004266
emerg,0.008599
emphas,0.005888
employ,0.004450
encapsul,0.010552
encod,0.024509
engin,0.004834
era,0.005300
esent,0.018149
evalu,0.005813
event,0.004365
eventu,0.014305
everi,0.004198
exampl,0.018027
excess,0.006483
exhibit,0.006333
exist,0.006672
expos,0.006720
extend,0.004425
extens,0.013591
extern,0.002623
facebook,0.010508
facet,0.009957
faircom,0.036298
faster,0.013997
favor,0.005541
field,0.007327
finer,0.010709
finit,0.006938
flexibl,0.007427
follow,0.008609
foreign,0.009340
form,0.005484
format,0.004893
fortun,0.008137
foundationdb,0.051377
fowler,0.011104
framework,0.005139
freebas,0.016451
fulli,0.005408
fundament,0.004594
ganesh,0.015546
gemston,0.012321
gener,0.007733
gigaspac,0.018149
giraph,0.018149
given,0.003598
googl,0.034503
graph,0.047890
greater,0.004518
group,0.003236
guarante,0.006580
guid,0.010144
ha,0.002392
hana,0.014157
handl,0.013046
hardwar,0.008392
hbase,0.049354
hi,0.006433
hierarchi,0.007310
histori,0.002988
hochschul,0.014068
horizont,0.008273
hossain,0.014250
host,0.006560
howev,0.002911
huge,0.006671
hyperdex,0.036298
hypert,0.018149
ibm,0.009225
id,0.009870
immedi,0.005273
implement,0.019978
includ,0.014942
increas,0.003449
increasingli,0.005288
infinitegraph,0.018149
infinitydb,0.072596
inform,0.010699
instanc,0.004858
instead,0.021009
integr,0.004329
interconnect,0.008672
interfac,0.015619
intersystem,0.029849
invest,0.005107
isbn,0.012722
isol,0.005824
jade,0.012181
jbase,0.017125
jena,0.013227
johan,0.010435
join,0.037352
json,0.014795
kai,0.011987
kelli,0.010272
key,0.031955
keyvalu,0.141633
kind,0.004778
kirit,0.018149
known,0.005994
krishnan,0.014250
kulkarni,0.016451
kv,0.013536
label,0.006454
lack,0.018293
languag,0.022541
lastfm,0.017125
late,0.004152
layer,0.013808
leader,0.005244
left,0.004780
lena,0.014924
lexicograph,0.013674
lightweight,0.011596
like,0.006407
link,0.005215
list,0.003334
lmdb,0.018149
log,0.008402
lookup,0.025273
loss,0.010491
lost,0.005211
lowlevel,0.010809
machin,0.005790
main,0.003796
maintain,0.012545
make,0.009149
manag,0.012885
mani,0.005421
manner,0.005787
map,0.010972
mark,0.004815
market,0.004489
marklog,0.117323
martin,0.006347
mccreari,0.017125
mean,0.003302
mechan,0.004428
medien,0.018149
meet,0.004852
memcachedb,0.018149
memori,0.006238
metadata,0.011838
method,0.003714
microsoft,0.018999
millisecond,0.011335
mnesia,0.018149
model,0.044827
modelindepend,0.017125
mongodb,0.083802
monik,0.013983
moniruzzaman,0.018149
motiv,0.005858
movement,0.004135
multimodel,0.049354
multipl,0.009225
multivalu,0.028136
mump,0.013674
necessari,0.004779
need,0.018025
neoj,0.036298
nest,0.009288
network,0.005013
networkworld,0.018149
neubauer,0.017125
new,0.002678
newsql,0.016451
node,0.009040
non,0.025929
nonnorm,0.013062
nonrel,0.013536
nontrivi,0.010379
nonvis,0.015371
norel,0.017125
northgat,0.018149
nosql,0.699577
notion,0.005673
number,0.012000
object,0.012298
objectdatabas,0.018149
objectdb,0.017125
objectivitydb,0.017125
objectrel,0.014674
objectstor,0.017125
obtain,0.004661
odaba,0.017125
odbmsorg,0.018961
offer,0.013378
onc,0.004481
onli,0.008281
ontotextowlim,0.018149
open,0.008211
openinsight,0.018149
openlink,0.072596
openqm,0.018149
opensourc,0.011065
oper,0.003783
oracl,0.031749
order,0.009914
orend,0.018149
organ,0.006542
orientdb,0.102754
origin,0.006646
oskarsson,0.016760
overlap,0.006665
pair,0.006390
paper,0.004948
particular,0.003753
partit,0.008307
pdf,0.013881
perform,0.016863
persist,0.013599
perst,0.017125
peter,0.005468
pick,0.015612
pickmv,0.018149
place,0.003391
polyglot,0.015371
popular,0.012871
possibl,0.003507
post,0.005820
power,0.003519
practic,0.003679
pramod,0.016451
present,0.003438
prevail,0.007275
previou,0.005185
problem,0.011033
process,0.006501
propag,0.007662
provid,0.012204
public,0.003463
qizx,0.018149
queri,0.142382
ram,0.010246
rang,0.008256
rank,0.005806
rate,0.004261
rdbm,0.015371
rdf,0.013674
read,0.015151
reader,0.007436
realiti,0.005932
realtim,0.009141
record,0.009194
redi,0.039512
refer,0.006542
referenti,0.013062
reintroduc,0.010061
relat,0.061753
replac,0.004444
replic,0.007698
report,0.004191
repres,0.010732
requir,0.003433
rest,0.005109
result,0.003037
rethinkdb,0.018149
retriev,0.032397
return,0.004413
revel,0.008744
revenu,0.006362
riak,0.032903
richer,0.010421
river,0.005962
road,0.006335
roberto,0.011045
rocket,0.009264
rotat,0.007220
rowbas,0.018149
s,0.006186
sadalag,0.018149
sap,0.011144
sarang,0.017125
scalabl,0.012049
scale,0.004936
schema,0.010725
schemaagnost,0.018149
scofield,0.014795
search,0.005582
select,0.004742
sens,0.008975
sequenc,0.006054
sergey,0.012147
serializ,0.015948
server,0.010311
sever,0.003164
share,0.004249
similar,0.003624
simpledb,0.018149
simpler,0.008093
simplest,0.007742
simplic,0.008781
sinc,0.006070
singl,0.008124
smaller,0.005161
social,0.003861
softwar,0.012861
solidst,0.010826
solut,0.005193
solv,0.005586
sometim,0.011853
sourc,0.007635
span,0.007011
spanner,0.015948
specif,0.007263
speed,0.006207
sql,0.107255
sqllike,0.018149
stale,0.013604
standard,0.016352
stardog,0.036298
stefan,0.010393
stephen,0.006742
storag,0.036115
store,0.098391
strauch,0.031896
strozzi,0.054447
structur,0.014185
stuttgart,0.012147
subcategori,0.010379
suggest,0.004249
suitabl,0.006738
support,0.028871
surg,0.009370
syma,0.018149
tabl,0.035049
tabular,0.026941
tag,0.009859
tarantool,0.018149
task,0.005630
technic,0.005398
techniqu,0.004664
term,0.005736
theorem,0.013608
therefor,0.004125
thi,0.018162
thu,0.010644
tibco,0.018149
toler,0.007680
topolog,0.008352
tradit,0.003822
transact,0.026142
transport,0.005203
trigger,0.007383
triplequad,0.018149
triplestor,0.016760
true,0.004914
tupl,0.012768
twentyfirst,0.010311
type,0.007298
typic,0.004072
u,0.007082
uniqu,0.005175
univers,0.003143
updat,0.007352
use,0.027281
user,0.013467
usernam,0.046638
v,0.005412
valu,0.003890
valuebas,0.013822
variou,0.006910
vendorindepend,0.018149
versant,0.016451
version,0.005309
vertica,0.016184
view,0.003890
virtuoso,0.088773
wa,0.004977
way,0.003245
web,0.013161
whitepap,0.015737
wide,0.003909
wies,0.015948
work,0.002975
world,0.003077
write,0.009491
writeahead,0.018149
xa,0.013536
xml,0.012321
xopen,0.018149
yaml,0.018149
ycsb,0.018149
yen,0.011546
zicari,0.018149
zodb,0.017125
