aaron,0.013546
abcd,0.017970
abl,0.011266
abov,0.005709
abramowitz,0.019126
accept,0.005599
account,0.005252
accur,0.037991
accuraci,0.009672
achiev,0.011220
actuari,0.013781
addison,0.014406
addit,0.004511
administr,0.006235
adopt,0.006154
advanc,0.005508
advent,0.009753
affect,0.005827
ago,0.008641
airlin,0.011351
airplan,0.013083
algebra,0.047885
algorithm,0.143050
alreadi,0.012994
alsoedit,0.014041
altern,0.011461
amsterdam,0.011343
analysi,0.198913
andor,0.007804
ani,0.011791
anoth,0.012868
answer,0.023822
anthoni,0.010531
appear,0.005165
appli,0.004767
applic,0.010652
approach,0.015397
approxim,0.091165
arbitrari,0.009630
archiv,0.016416
area,0.004429
argument,0.007492
aris,0.014551
arithmet,0.054445
art,0.013645
ask,0.014744
assign,0.008010
assum,0.006178
astronomi,0.010013
attempt,0.005087
autar,0.020343
avail,0.010903
b,0.011814
babylonian,0.072743
barrowgreen,0.021267
base,0.007771
becaus,0.012144
becom,0.004304
befor,0.004592
beginalignedatfxxleftsqrt,0.021267
beginalignedatgfrac,0.021267
benefit,0.006525
better,0.006064
biolog,0.006377
bisect,0.017026
book,0.010221
bound,0.008046
bring,0.006685
broken,0.008966
c,0.015439
calcul,0.082345
california,0.008249
cambridg,0.007132
cancel,0.010201
canon,0.009779
car,0.019033
carlo,0.030746
carpentri,0.017868
case,0.009006
catastroph,0.010688
caus,0.009614
celesti,0.011417
cell,0.007745
centuri,0.018499
certain,0.004929
chain,0.008046
chang,0.008121
charl,0.006897
choic,0.007076
choleski,0.018548
choos,0.007747
clarendon,0.013099
coeffici,0.010394
coincid,0.009688
collect,0.010508
colleg,0.007818
combin,0.005136
commerci,0.006900
commit,0.007549
common,0.004355
commonli,0.011963
compani,0.011375
companion,0.010389
compar,0.005327
complic,0.008163
compon,0.006203
compress,0.011121
comput,0.196969
concern,0.010114
conclud,0.007367
congress,0.008071
conjug,0.024724
conquer,0.009753
consist,0.004821
constraint,0.035775
construct,0.005578
contain,0.005167
continu,0.021823
continuum,0.010751
contrari,0.009419
contrast,0.006085
control,0.004786
converg,0.037957
correspond,0.006539
cours,0.018834
crash,0.021427
creat,0.004406
crew,0.011327
csep,0.021267
d,0.017494
dalziel,0.020096
data,0.034493
dcjoyc,0.021267
deal,0.005803
decid,0.014040
decim,0.024035
decomposit,0.082323
definit,0.005695
denni,0.012350
depart,0.006316
depend,0.014259
deriv,0.010954
design,0.005291
desir,0.006779
determin,0.005002
deturck,0.021267
develop,0.014410
diagon,0.013472
differ,0.011456
differenti,0.123998
digit,0.024132
dimens,0.016576
direct,0.028700
discret,0.067969
discretizationedit,0.021267
displaystyl,0.074265
distinguish,0.012790
diverg,0.009735
divid,0.005712
doe,0.024370
domain,0.014070
download,0.012718
dure,0.004146
e,0.005837
earliest,0.007249
ed,0.018214
edit,0.020363
editor,0.009232
educ,0.005525
effect,0.004213
effici,0.006790
effort,0.012012
eigenvalu,0.043219
electron,0.007257
element,0.022063
elimin,0.022500
encyclopedia,0.007469
endalignedat,0.020616
energi,0.006071
engin,0.031250
english,0.006040
equat,0.151474
equationsedit,0.042534
equival,0.013971
error,0.115456
erroranalysi,0.021267
erroredit,0.021267
errorsedit,0.021267
essenti,0.018086
estim,0.012205
euler,0.012123
evalu,0.015029
evolv,0.007118
exact,0.041368
exactli,0.016992
exampl,0.027188
expect,0.005958
expens,0.007745
extern,0.003391
extrapol,0.024917
extrem,0.012442
f,0.031941
facilit,0.007818
factor,0.005498
famou,0.014329
fast,0.008878
feasibl,0.010537
fenton,0.018186
field,0.042625
finit,0.107632
finitedimension,0.015160
fleftsqrt,0.021267
float,0.010269
florida,0.011384
follow,0.011129
form,0.014179
formula,0.056689
fortran,0.015576
frac,0.020756
free,0.015891
freemat,0.020616
fuel,0.008594
fullerton,0.017970
function,0.118701
functionsedit,0.021267
fund,0.012788
fundament,0.005938
furthermor,0.007947
fxxleftsqrt,0.021267
g,0.018821
galaxi,0.011543
gaussian,0.051432
gaussseidel,0.020343
gene,0.008998
gener,0.029991
german,0.006549
given,0.051164
gmre,0.020096
gnu,0.031493
goal,0.006378
golub,0.018681
good,0.010311
gower,0.016818
gradient,0.022068
great,0.005226
grid,0.011741
grow,0.011893
guess,0.078036
gxfrac,0.020096
h,0.019326
ha,0.012369
hand,0.017238
handi,0.016073
happen,0.007329
hard,0.007611
harder,0.011526
haverkort,0.021267
hazewinkel,0.014018
hedg,0.011578
henc,0.021707
henrik,0.015023
herbert,0.010041
hermitian,0.016073
higham,0.017868
higher,0.005513
hildebrand,0.017586
histor,0.005209
historyedit,0.015703
hope,0.007895
hopkin,0.011425
horner,0.016886
huge,0.008624
idl,0.013546
ifip,0.020343
illcondit,0.039742
imag,0.014281
implement,0.012913
import,0.035597
imposs,0.015682
imprecis,0.014380
improv,0.011413
imsl,0.021267
includ,0.012877
induc,0.009183
industri,0.005293
inexact,0.034052
infinit,0.036322
influenc,0.005107
info,0.014459
initi,0.030233
instanc,0.062805
instead,0.010863
institut,0.004907
insur,0.008940
integr,0.033578
integralsedit,0.021267
interpol,0.086687
introduc,0.005440
introduct,0.012295
introductionedit,0.020096
invent,0.015091
invest,0.006602
involv,0.008991
isbn,0.027411
iter,0.150867
j,0.011647
jacobi,0.029192
jcturner,0.021267
jefferi,0.016391
jerusalem,0.012397
jh,0.015703
john,0.015824
journal,0.011929
june,0.006756
just,0.005407
justif,0.010835
jw,0.015976
kahan,0.017413
karlsruh,0.017331
kaw,0.019126
know,0.007026
known,0.011624
lagrang,0.027482
languag,0.005827
larg,0.040861
larger,0.006119
late,0.005368
leader,0.006779
lectur,0.016860
length,0.007692
librari,0.021851
life,0.004983
like,0.012423
limit,0.004734
linear,0.090742
linksedit,0.014157
list,0.008622
live,0.005012
ljubljana,0.016506
lloyd,0.011956
loan,0.008995
long,0.005033
longer,0.012788
look,0.012802
loop,0.010676
loss,0.013562
lu,0.013508
machin,0.022456
magnitud,0.009564
mahidol,0.020096
maintain,0.005405
major,0.004113
make,0.003942
mani,0.024528
manipul,0.008300
manner,0.007481
market,0.005803
markov,0.013212
massachusett,0.010166
materi,0.005432
mathemat,0.073134
mathematica,0.012280
mathematician,0.009489
mathematik,0.033131
mathew,0.032248
matlab,0.045912
matric,0.012801
matrix,0.058389
maxim,0.008816
mcgrawhil,0.011203
mean,0.008539
measur,0.005077
mechan,0.011450
medicin,0.007391
memori,0.008064
method,0.278478
methodsedit,0.020096
michiel,0.013741
mid,0.007719
midpoint,0.016227
minim,0.008182
modern,0.013950
modestli,0.015881
modif,0.009214
mont,0.023246
mostli,0.006614
multipl,0.005962
multipli,0.009993
n,0.006962
nag,0.016753
naiman,0.020343
natur,0.004138
nd,0.007213
necessari,0.006178
need,0.013981
netlib,0.020096
newton,0.029364
newtoncot,0.019663
nichola,0.010428
nist,0.015379
nonlinear,0.021242
nonsquar,0.021267
northholland,0.014596
note,0.004469
notesedit,0.015928
notion,0.007334
number,0.042661
numer,0.379066
numerisch,0.040686
object,0.010599
observ,0.005116
obtain,0.018077
obviou,0.009792
octav,0.015660
ohar,0.019472
onc,0.005792
onli,0.017842
onlin,0.020355
open,0.005307
oper,0.014672
oppos,0.006478
optim,0.041113
optimizationedit,0.021267
order,0.008544
ordinari,0.025361
origin,0.004296
outlin,0.007545
outsid,0.005914
overal,0.007095
overlap,0.008616
overrelax,0.020343
oxford,0.007283
pa,0.012080
page,0.022800
partial,0.028525
particip,0.006115
particularli,0.005436
past,0.006150
pennsylvania,0.011614
perform,0.010899
phrase,0.009340
physic,0.005072
physicist,0.009176
place,0.004384
planet,0.008795
plu,0.008721
plug,0.028760
point,0.062956
polynomi,0.023654
popular,0.022185
positivedefinit,0.018301
possibl,0.004534
pp,0.007247
practic,0.019024
precis,0.051258
predat,0.009868
predict,0.006504
prefer,0.006807
preoccupi,0.014682
press,0.020928
previou,0.006703
price,0.006581
princeton,0.019629
princip,0.006944
principl,0.005336
print,0.008348
privat,0.006374
problem,0.142630
problemsedit,0.042534
proc,0.015495
procedur,0.023225
process,0.008405
produc,0.004625
product,0.004633
program,0.027960
prohibit,0.009070
project,0.011001
propag,0.019809
provid,0.003944
public,0.004477
publish,0.004934
purpos,0.005782
python,0.013995
qr,0.034826
quadratur,0.034052
quasimont,0.018186
quickli,0.007235
r,0.011897
radok,0.021267
rd,0.007960
reach,0.005729
real,0.005851
realiz,0.007883
reason,0.005060
recip,0.028972
reduc,0.016023
referencesedit,0.013886
regardless,0.008522
regress,0.011121
regressionedit,0.021267
rel,0.005055
relat,0.003801
reli,0.006793
replac,0.005745
repositori,0.013279
repres,0.009249
requir,0.013314
research,0.004573
residu,0.010882
rest,0.006605
result,0.019636
rightleftright,0.021267
rjhosk,0.021267
root,0.042731
rootfind,0.018821
roughli,0.015817
roundoff,0.038944
roundoffedit,0.021267
routin,0.010120
rule,0.010292
s,0.007997
safeti,0.009087
satisfi,0.008363
say,0.006108
scalar,0.012624
scheme,0.016970
schmidt,0.013761
scienc,0.023708
scientif,0.017020
scilab,0.019293
searchabl,0.014801
section,0.006985
seek,0.006326
set,0.008734
sever,0.020452
sexagesim,0.017586
shown,0.006799
siam,0.028507
sidebar,0.018186
signific,0.020035
similar,0.018741
similarli,0.014867
simpl,0.006234
simplest,0.010008
simplex,0.030758
simpson,0.013147
simul,0.025577
sinc,0.019617
singular,0.031019
sjoe,0.021267
slowli,0.009044
small,0.014404
smaller,0.006671
societi,0.004916
softwar,0.024939
softwareedit,0.020921
solut,0.140975
solv,0.108317
solver,0.014862
sometim,0.010215
sophist,0.009027
sourc,0.004935
south,0.006144
spacecraft,0.012374
spars,0.011827
specifi,0.007977
spectral,0.012049
speed,0.008023
split,0.016128
splu,0.042534
spreadsheet,0.015125
springer,0.028491
springerlink,0.020616
sqrt,0.088649
squar,0.041565
squaresmethod,0.021267
st,0.006325
stabil,0.036588
stabl,0.030887
standard,0.005284
star,0.008701
start,0.009933
state,0.003433
statist,0.006437
stegun,0.019871
step,0.033267
stochast,0.010889
stock,0.007570
straightforward,0.012422
strategi,0.007309
stuart,0.010882
studi,0.008293
studyedit,0.019871
subdisciplin,0.010694
subfield,0.010100
subspac,0.014801
success,0.010406
suffici,0.007254
suggest,0.005493
sum,0.015653
survey,0.007542
symbol,0.007123
symbolicnumer,0.020096
symmetr,0.011173
tabl,0.030205
tablet,0.012508
taken,0.005745
techniqu,0.012059
technolog,0.016971
term,0.007415
termin,0.018387
test,0.006414
text,0.006768
th,0.004499
theme,0.008690
theorem,0.008795
theoret,0.006433
therefor,0.005333
thi,0.029348
ticket,0.013195
timedepend,0.015125
timothi,0.012533
tk,0.015881
tool,0.018848
topic,0.006225
tradit,0.004940
trajectori,0.011704
trapezoid,0.033772
trefethen,0.019663
triangl,0.011605
true,0.006353
truncat,0.059451
twentieth,0.009257
type,0.004717
unconstrain,0.017174
unit,0.003957
univers,0.044702
unknown,0.024371
unstabl,0.020935
use,0.086564
usual,0.014165
utrecht,0.014801
valu,0.080464
van,0.008583
vari,0.011568
variant,0.009505
varieti,0.011782
variou,0.004466
vector,0.009489
vehicl,0.008909
veri,0.026885
vol,0.008432
volum,0.026884
w,0.013167
wa,0.009651
want,0.014488
waterloo,0.015456
way,0.012586
weather,0.009622
wellcondit,0.063801
wellpos,0.059613
wesley,0.013436
whatev,0.009659
wherea,0.006808
wherebi,0.008865
wide,0.005053
wilf,0.019663
wilkinson,0.014133
william,0.006287
work,0.003846
write,0.006134
x,0.382104
xfrac,0.014682
xgxendalignedat,0.021267
xk,0.107213
xrightfrac,0.020616
xrighttext,0.021267
xrightxleftsqrt,0.021267
xsqrt,0.268033
xxfrac,0.057880
xxsqrt,0.021267
yale,0.010726
ybc,0.019126
year,0.003959
yield,0.007665
zegel,0.021267
zero,0.016503
