abadi,0.026922
absenc,0.021700
abstract,0.020771
academ,0.008840
academia,0.015220
accord,0.005901
acm,0.052132
action,0.007251
activ,0.011778
actor,0.027210
ad,0.007531
addit,0.005970
advanc,0.014579
affect,0.007712
al,0.010123
alan,0.012511
algol,0.021923
algollik,0.030062
algorithm,0.035496
allow,0.005869
alonzo,0.021338
alreadi,0.008598
alvin,0.018211
analysi,0.049802
anoth,0.011353
appli,0.006309
applic,0.014097
approach,0.006792
area,0.005861
art,0.009029
articl,0.007014
aspect,0.007756
assail,0.022171
award,0.010404
axiomat,0.032503
backu,0.046314
base,0.010285
becam,0.019515
behavior,0.008347
behaviour,0.010972
benjamin,0.053978
bertrand,0.015502
bhm,0.024067
birkhaus,0.024908
bobrow,0.024546
book,0.006763
boston,0.013120
branch,0.030272
broad,0.009558
broken,0.011865
c,0.068108
calculi,0.020455
calculu,0.093116
california,0.010917
cardelli,0.026023
carl,0.023799
carnegi,0.017212
categori,0.018189
celebr,0.012284
centenari,0.019926
center,0.007602
certain,0.006523
challeng,0.008514
character,0.009040
characterist,0.024646
chomski,0.034797
christoph,0.012491
church,0.021538
class,0.015811
classic,0.007875
classif,0.010517
classifi,0.019283
code,0.009223
cole,0.016587
collect,0.020859
combinatori,0.016795
committe,0.020454
common,0.005764
commun,0.018699
compar,0.014101
compil,0.049195
compon,0.008209
comput,0.150082
concept,0.013305
concurr,0.014698
confer,0.056303
consid,0.011119
consider,0.008011
construct,0.014764
continu,0.011552
contract,0.009563
coroutin,0.026922
corrado,0.022629
correspond,0.008654
cpu,0.019316
crari,0.029298
creat,0.005831
cuch,0.031048
current,0.006103
currychurch,0.031048
curryhoward,0.024722
d,0.007717
dahl,0.021546
dana,0.038938
daniel,0.011857
deal,0.007679
dedic,0.011451
deduct,0.013793
defin,0.006542
denot,0.023265
depend,0.006290
describ,0.023471
design,0.042012
determin,0.013240
develop,0.057213
dialect,0.014023
differ,0.010107
directli,0.015319
directori,0.016002
disciplin,0.017568
discov,0.016790
discoveri,0.008928
discuss,0.007778
distinguish,0.008463
document,0.009203
domain,0.009310
domainspecif,0.043237
donald,0.013440
draft,0.012303
e,0.007725
easili,0.009833
ed,0.008034
effici,0.008986
effort,0.015897
eiffel,0.023044
element,0.007299
emerg,0.007355
engin,0.016542
environ,0.015216
equival,0.009245
error,0.010913
essenti,0.007978
et,0.009865
eugenio,0.021923
event,0.007469
examin,0.008983
exampl,0.005140
execut,0.017388
express,0.014872
extern,0.004487
f,0.008454
fall,0.007834
featur,0.007762
field,0.018803
firstclass,0.021338
foreign,0.007989
form,0.028147
formal,0.023039
format,0.008370
fortran,0.041229
foundat,0.024009
function,0.056552
functionlevel,0.028673
fundament,0.007859
g,0.008302
garbag,0.019669
gener,0.035280
gill,0.017641
girard,0.023157
gordon,0.042942
grand,0.011921
great,0.006917
gregor,0.018863
gunter,0.024379
ha,0.008184
hall,0.011644
harper,0.015809
haskel,0.041229
hewitt,0.022086
hi,0.027514
hierarchi,0.012506
higherord,0.037408
highlevel,0.032412
hindley,0.026297
hindleymiln,0.055374
histori,0.015335
hoar,0.063054
hoc,0.017172
howard,0.014237
ibm,0.015782
icfp,0.028144
impact,0.008410
implement,0.034179
improv,0.007552
includ,0.021302
incorpor,0.016855
indic,0.007549
individu,0.006330
industri,0.007005
infer,0.023589
influenc,0.006759
influenti,0.019741
inform,0.006101
initi,0.006668
innov,0.010630
instruct,0.011554
intend,0.009500
interfac,0.013360
intern,0.010756
interpret,0.016375
introduc,0.071993
introduct,0.008136
intuitionist,0.019882
invent,0.009986
iswim,0.029298
j,0.023122
jeanyv,0.026297
jfp,0.031048
jim,0.016221
john,0.041884
journal,0.039468
kahn,0.020839
karl,0.011542
kay,0.018551
key,0.015619
kiczal,0.031048
kind,0.008174
kleen,0.021844
known,0.041022
knuth,0.022347
konrad,0.018673
kristen,0.023782
lambda,0.117692
landin,0.086019
languag,0.570726
later,0.006102
lazyevalu,0.031048
lead,0.006122
lectur,0.022313
led,0.026488
leon,0.015265
lexic,0.019547
lie,0.010052
linguist,0.024124
link,0.004461
lisp,0.038860
logic,0.059582
logician,0.018184
luca,0.016407
lvalu,0.029298
machin,0.019812
make,0.005217
mani,0.023186
mark,0.008237
martn,0.019587
mathemat,0.032261
mccarthi,0.018612
mean,0.011300
mellon,0.018863
metaobject,0.026595
metaprogram,0.054567
method,0.006354
methodolog,0.010859
metric,0.013778
meyer,0.017314
michael,0.009441
milner,0.046314
miranda,0.021844
mit,0.037398
mitchel,0.051576
ml,0.018863
model,0.044735
modern,0.006153
moggi,0.031048
monad,0.021272
namespac,0.026595
natur,0.010954
new,0.004582
noam,0.017485
notabl,0.007872
note,0.005915
numer,0.007600
nygaard,0.025103
object,0.028053
objectori,0.038486
observ,0.006771
ohearn,0.031048
olejohan,0.027283
onlin,0.008979
oopsla,0.027283
open,0.007023
oper,0.019417
optim,0.010882
orient,0.021380
origin,0.011371
output,0.010708
overlap,0.011402
panel,0.015120
paper,0.033861
paradigm,0.012431
parametr,0.017927
parc,0.023044
pars,0.019669
particular,0.006421
pennsylvania,0.015370
perform,0.007212
peter,0.018710
philip,0.012610
phrase,0.012361
pierc,0.070657
plankalkl,0.025769
pldi,0.027283
plotkin,0.052046
plt,0.117192
polymorph,0.035282
popl,0.048759
possibl,0.006000
practic,0.006294
predat,0.013059
prentic,0.015904
present,0.005882
press,0.013848
primari,0.007765
princip,0.009190
principl,0.007062
problem,0.018875
process,0.016684
produc,0.006121
profession,0.009532
profound,0.013420
program,0.584644
programm,0.011308
progress,0.008018
prolog,0.021406
proof,0.011995
propos,0.007258
protocol,0.013302
prove,0.009079
provid,0.005219
public,0.011849
publicli,0.012589
publish,0.052239
pure,0.009302
r,0.007872
read,0.006480
realiz,0.010432
refer,0.011193
relat,0.005030
releas,0.018649
repositori,0.017573
research,0.036318
result,0.020789
reynold,0.017781
rivier,0.028673
robert,0.016407
robin,0.032118
roger,0.012511
runtim,0.066260
rvalu,0.026023
s,0.047626
scan,0.014897
scheme,0.011229
scienc,0.037651
scientist,0.017063
scope,0.010968
scott,0.027616
secd,0.028144
seek,0.008372
select,0.008113
semant,0.165968
separ,0.006816
sequenti,0.016161
session,0.014195
set,0.017339
sever,0.005413
sigplan,0.026297
similar,0.006200
simula,0.050623
sinc,0.005192
smalltalk,0.023273
softwar,0.022003
solv,0.009556
spark,0.013741
specif,0.006212
speed,0.010618
springerverlag,0.016131
standard,0.013987
stanford,0.012062
state,0.004543
steel,0.013006
stephen,0.011534
strachey,0.023922
structur,0.012134
studi,0.016463
subdisciplin,0.014153
subset,0.013024
success,0.027545
sussman,0.023157
symbol,0.009427
symposium,0.016621
syntact,0.018184
syntax,0.016439
target,0.009668
team,0.021688
tennent,0.026922
term,0.004906
terminolog,0.012227
text,0.008957
themselv,0.007702
theoret,0.017028
theori,0.115645
thi,0.007767
thu,0.006070
timelin,0.012222
toni,0.016088
topic,0.016477
topla,0.030062
tractabl,0.019135
tradit,0.006538
transact,0.011180
transform,0.025500
translat,0.017879
tremend,0.015087
ture,0.031407
type,0.087403
typeschem,0.031048
typic,0.006966
ultim,0.008981
unifi,0.010869
univers,0.021512
use,0.012728
utrecht,0.019587
valu,0.006655
variant,0.012579
veneer,0.023044
venu,0.015716
veri,0.005930
version,0.018166
virtual,0.010269
w,0.008712
wa,0.029803
wadler,0.026595
way,0.005552
weblog,0.025311
wellrecogn,0.025769
wide,0.020063
william,0.008320
work,0.010181
world,0.005264
write,0.008119
written,0.016442
xerox,0.022438
year,0.005240
zuse,0.022532
