abil,0.011651
abov,0.003614
abran,0.013461
absent,0.006879
abstract,0.009934
academ,0.004228
academia,0.007279
accept,0.007088
accord,0.002822
account,0.003324
accredit,0.014300
achiev,0.003551
acm,0.024934
activ,0.014083
activitiesplan,0.013461
ad,0.003602
addit,0.002855
address,0.008501
adhoc,0.010340
advanc,0.003486
advantag,0.004381
advoc,0.004845
advocaci,0.007640
aerospac,0.008111
affect,0.003688
agenc,0.004440
agil,0.009257
ago,0.005469
agre,0.004256
aim,0.004031
alain,0.008931
alberta,0.008902
algol,0.010485
algorithm,0.005659
allen,0.006517
allow,0.002807
alreadi,0.004112
altern,0.003627
alway,0.003796
america,0.003956
american,0.003198
analog,0.005044
analysi,0.006805
analyst,0.012812
analyz,0.004745
andor,0.004940
ani,0.004975
anoth,0.002715
appear,0.009809
appl,0.007351
appli,0.003017
applic,0.020227
applicationsbureau,0.013461
apprenticeship,0.009349
approach,0.032488
architect,0.007504
architectur,0.021298
area,0.008411
argu,0.003755
arriv,0.009088
art,0.004318
asian,0.010755
aspect,0.018550
assert,0.009698
assess,0.004808
associ,0.008272
attend,0.005386
attitud,0.005795
attribut,0.004388
avail,0.010352
avoid,0.004216
award,0.004976
bachelor,0.022054
background,0.004848
barri,0.007474
bauer,0.009640
becaus,0.005124
becom,0.013624
began,0.003398
benefit,0.004130
bernd,0.010688
best,0.015006
bestpractic,0.011913
board,0.004910
bodi,0.027325
boehm,0.010970
book,0.016175
boston,0.006275
bother,0.009447
bourqu,0.013461
bright,0.007444
british,0.011401
broad,0.009143
broader,0.005675
bruegg,0.013461
budget,0.010655
built,0.004243
bureau,0.012876
busi,0.015348
businesscrit,0.013461
c,0.003257
came,0.003727
campu,0.016152
canada,0.019531
canadian,0.011572
capabl,0.013467
career,0.011184
careercastcom,0.013461
carnegi,0.016465
carpal,0.011131
carri,0.003675
ccse,0.013049
ceab,0.012876
ceng,0.012325
center,0.003636
centuri,0.002927
certif,0.112642
certifi,0.037191
certificatelevel,0.013461
chang,0.005140
characterist,0.003929
charter,0.018398
china,0.004379
citp,0.013242
civilian,0.005926
client,0.006565
cobol,0.010823
cocomo,0.013242
code,0.017646
codif,0.009368
codifi,0.007486
collect,0.003325
columbia,0.006341
combin,0.006502
common,0.002756
commun,0.008944
compani,0.007200
compens,0.005762
compil,0.005882
complet,0.003149
complex,0.010009
compon,0.007853
comput,0.083118
concept,0.009545
concern,0.009603
conclud,0.004663
conduct,0.003907
confer,0.017953
configur,0.025196
connot,0.007536
consid,0.007977
construct,0.010592
contemporari,0.004460
context,0.004011
continu,0.002762
contractor,0.008363
control,0.012117
controversi,0.013479
coordin,0.004833
core,0.004842
corpor,0.004473
cost,0.016035
costeffect,0.008736
count,0.005200
countri,0.009001
craft,0.006858
crafter,0.012720
craftmanship,0.013049
craftsmanship,0.031020
creat,0.002789
creation,0.004150
creativ,0.005891
crisi,0.004705
critic,0.003354
cs,0.006966
csda,0.013461
csdp,0.012720
cultur,0.003428
current,0.008757
curriculum,0.021188
cycl,0.014022
david,0.004050
day,0.006881
deal,0.011019
debat,0.004245
debug,0.010485
decid,0.004443
decis,0.003844
defin,0.025033
definit,0.018026
degre,0.026138
describ,0.005613
design,0.023443
despit,0.003866
develop,0.075253
developmentcmmidev,0.013461
dialect,0.006707
differ,0.009669
difficult,0.003976
difficulti,0.004924
digit,0.005091
dijkstra,0.021554
direct,0.003027
disciplin,0.033612
discomfort,0.009275
discontinu,0.006922
displac,0.005850
displaystyl,0.005223
disrupt,0.005875
distanc,0.019422
distinct,0.003511
distribut,0.007524
divid,0.003615
divis,0.003951
doctoratelevel,0.013461
document,0.008804
doe,0.009255
draw,0.009348
driver,0.006989
dupui,0.013049
dutoit,0.013461
earli,0.008237
econom,0.012016
ed,0.019215
edsger,0.011511
educ,0.027978
effici,0.008596
effort,0.003801
element,0.003491
elicit,0.008194
elig,0.013734
embodi,0.006347
emphas,0.004817
empir,0.007661
employ,0.010923
employe,0.005752
encount,0.005406
engin,0.522219
england,0.004763
english,0.003823
ensur,0.009020
enter,0.004013
entrylevel,0.011022
environ,0.003638
equival,0.004421
error,0.005220
escal,0.007110
establish,0.008789
ethic,0.010104
eur,0.009427
europ,0.011167
european,0.006838
evalu,0.004756
eventu,0.003901
everi,0.003435
exam,0.007870
examin,0.012889
exampl,0.002458
exceed,0.005764
expect,0.003771
experi,0.013503
expert,0.005422
extend,0.010862
extens,0.003707
extern,0.002146
eyestrain,0.013461
facilit,0.004949
fear,0.005150
feasibl,0.006670
feder,0.004370
field,0.023983
fix,0.004357
flaw,0.006998
flexibl,0.006077
follow,0.002348
followthesun,0.013461
foreign,0.003821
formal,0.014693
formerli,0.005498
fortran,0.009859
foundat,0.011483
framework,0.004205
freelanc,0.009912
fulli,0.008851
fund,0.004047
futur,0.003575
gain,0.003571
gener,0.008437
geograph,0.004774
given,0.002944
global,0.015593
glossari,0.007155
goal,0.004037
govern,0.005582
graduat,0.011001
ground,0.004271
guid,0.016601
ha,0.027403
hall,0.005569
hand,0.003637
hardwar,0.006867
harlow,0.009574
harm,0.005659
headquart,0.006504
health,0.004092
held,0.003470
help,0.003213
henc,0.009160
hi,0.010528
hide,0.006948
highlight,0.006044
histori,0.002444
hold,0.014143
holder,0.013347
hour,0.015475
howev,0.004764
human,0.011312
humphrey,0.009574
ian,0.021743
ibm,0.007548
identif,0.005782
identifi,0.003548
ieee,0.071994
impact,0.012068
implement,0.008173
import,0.002503
impos,0.005048
improv,0.014449
inappropri,0.007737
includ,0.010188
increas,0.002822
india,0.004494
individu,0.009083
industri,0.010051
inform,0.029183
ing,0.010112
initi,0.003189
injuri,0.006507
institut,0.018637
instruct,0.005526
integr,0.017712
interact,0.003662
interfac,0.006390
intern,0.007717
internship,0.018699
introduc,0.010330
investig,0.004113
isbn,0.020820
isoiec,0.022044
isp,0.022152
issu,0.006299
jalot,0.012446
jame,0.004140
januari,0.004189
java,0.007432
job,0.020276
jtc,0.012720
just,0.003422
k,0.004450
key,0.018676
keyboard,0.009663
knowledg,0.044302
known,0.002452
l,0.008640
labor,0.014457
lack,0.011226
languag,0.014755
larg,0.005172
late,0.006795
later,0.002918
law,0.002956
lead,0.002928
learn,0.004122
leav,0.008312
led,0.006334
legal,0.016198
leonard,0.007561
level,0.005869
leverag,0.007574
licens,0.058438
life,0.009464
like,0.005242
limit,0.002997
line,0.003512
link,0.002133
list,0.005457
locat,0.003608
long,0.003186
look,0.004051
low,0.003761
lower,0.003626
machin,0.009476
machinesfritz,0.013461
magazin,0.005681
main,0.003106
mainli,0.004073
maintain,0.003421
mainten,0.023548
major,0.007810
make,0.007486
manag,0.035145
mandatori,0.007542
mani,0.017744
manifesto,0.015474
manner,0.004735
manyear,0.013461
mass,0.004024
massiv,0.010443
master,0.005237
masterslevel,0.012578
mathemat,0.003857
matur,0.017130
mbc,0.013461
mcgrawhil,0.007091
meaning,0.006377
measur,0.012856
mechan,0.003623
medic,0.004519
mediev,0.005233
mellon,0.018044
member,0.006261
membership,0.005405
metaphor,0.006901
method,0.012156
microsoft,0.007773
middlewar,0.011131
migrat,0.005243
militari,0.011909
million,0.003854
misinterpret,0.017922
miss,0.006190
mitig,0.014107
model,0.015283
modern,0.005886
modular,0.008213
money,0.004385
monitor,0.005306
month,0.004335
moor,0.006622
nato,0.007420
ncee,0.012578
nearshor,0.011511
neg,0.004255
network,0.004102
neumann,0.007730
new,0.004383
nonprofit,0.007077
nons,0.013461
north,0.007792
note,0.002829
novelti,0.008685
novemb,0.004401
number,0.004909
o,0.005174
objectori,0.009203
obtain,0.015256
occup,0.005113
offer,0.010946
offshor,0.014310
ongo,0.005369
onli,0.006776
onlin,0.008589
ontario,0.032270
open,0.003359
opensdlcorg,0.013461
oper,0.015478
oppos,0.004100
order,0.005408
organ,0.013383
orient,0.005113
origin,0.005438
outsourc,0.025248
overal,0.008982
overlap,0.010907
oversight,0.007773
overtim,0.010052
pankaj,0.011511
paper,0.012146
parna,0.011441
particular,0.003071
path,0.004975
pattern,0.008373
pay,0.004581
pearson,0.015460
peng,0.042754
pennsylvania,0.007351
peo,0.025156
peopl,0.008116
perceiv,0.009869
percent,0.009856
perform,0.003449
period,0.005831
perspect,0.004391
pierr,0.006316
pittsburgh,0.009070
point,0.002846
poor,0.009703
poorli,0.006497
possess,0.004409
possibl,0.002870
ppe,0.011511
practic,0.030106
practition,0.029528
precis,0.009270
predict,0.008234
prentic,0.007607
prerequisit,0.008138
prescrib,0.006871
pressman,0.011913
preval,0.006195
prevent,0.004022
principl,0.010133
problem,0.009028
problemsolv,0.017952
process,0.037241
produc,0.002927
product,0.011730
profess,0.029400
profession,0.136786
profici,0.008873
program,0.077872
programm,0.027042
project,0.020890
promulg,0.007175
propos,0.003471
provid,0.007489
public,0.005667
publicli,0.006021
publish,0.012492
purpos,0.003660
pursu,0.010234
qualifi,0.017751
qualiti,0.012577
quantifi,0.018968
quebec,0.008261
quickli,0.004580
radic,0.005158
rang,0.003377
rank,0.004750
rare,0.009261
rate,0.003487
rd,0.010077
read,0.003099
real,0.007408
realiz,0.004989
realworld,0.014829
recogn,0.019132
recommend,0.010521
refer,0.001784
refut,0.007048
regul,0.004224
regularli,0.006074
rel,0.006399
relat,0.014437
releas,0.008920
relev,0.004667
reliabl,0.010672
repeat,0.005150
report,0.010289
reportingto,0.013461
requir,0.028093
research,0.017370
reserv,0.004746
resourc,0.010838
respect,0.003393
respons,0.003095
result,0.007457
retaken,0.010970
retriev,0.005301
rigor,0.006009
risk,0.013173
robert,0.003923
roger,0.005984
role,0.006252
run,0.003921
russia,0.005244
s,0.022779
salarycom,0.013049
sc,0.009006
school,0.003630
scienc,0.024011
scientif,0.010773
sdlc,0.012007
se,0.007420
secur,0.003791
sei,0.022152
semin,0.006825
seriou,0.004999
servic,0.010431
sever,0.007767
similar,0.002965
sixtythre,0.012212
skill,0.014353
sleep,0.007067
sloc,0.013461
small,0.003039
smartli,0.012720
societi,0.024894
softwar,0.757740
softwareiee,0.013461
softwareth,0.013461
sommervil,0.036636
sound,0.010458
sourc,0.006248
spark,0.006572
special,0.006212
specialist,0.006162
specif,0.017829
specifi,0.005049
spend,0.005155
sponsor,0.018679
spread,0.004390
springer,0.006011
stakehold,0.007982
standard,0.010035
start,0.006287
state,0.015212
statement,0.004559
statist,0.012224
statisticsiee,0.013461
statu,0.004148
step,0.004211
store,0.005031
structur,0.002901
student,0.012682
studi,0.002624
subcommitte,0.009574
subdisciplin,0.013539
subfield,0.006393
success,0.003293
successori,0.013049
support,0.005906
suscept,0.007160
swe,0.011824
swebok,0.049301
syndrom,0.007567
systemat,0.037960
systemslevel,0.012578
t,0.008642
tailor,0.008213
task,0.009214
taught,0.005537
team,0.010373
technic,0.013251
technolog,0.025066
tempor,0.006544
term,0.016428
termin,0.005819
terminolog,0.005848
test,0.024361
tester,0.011248
texa,0.007011
textbook,0.005598
th,0.005695
themselv,0.007368
theoret,0.004072
theori,0.002911
therebi,0.005140
thi,0.020434
thirti,0.006696
threat,0.005209
thu,0.002903
time,0.015382
timezon,0.012578
titl,0.013374
tkslocx,0.013461
topic,0.003940
total,0.003465
traceabl,0.010143
train,0.004288
transfer,0.004250
treat,0.004349
tremend,0.007216
tripp,0.011248
tunnel,0.007498
type,0.005972
typic,0.009996
u,0.005795
uk,0.009104
ultim,0.004295
uml,0.010688
undergradu,0.006615
understand,0.003371
understood,0.004661
unit,0.015030
univers,0.010289
unless,0.005565
updat,0.012033
urg,0.006555
usbas,0.009388
use,0.026382
usual,0.002988
v,0.004428
valid,0.014228
vari,0.003661
variou,0.005654
vast,0.004987
vendor,0.008504
veri,0.002836
verif,0.007561
version,0.008689
visa,0.008076
vocabulari,0.007426
vocat,0.008332
von,0.005037
w,0.012501
wa,0.028510
want,0.004585
war,0.003528
watt,0.007933
week,0.010440
welldefin,0.007402
whatsoev,0.008539
wide,0.003198
widespread,0.004771
wire,0.007175
wish,0.010983
work,0.036522
worker,0.009246
workflow,0.009912
world,0.010072
wrist,0.010305
wrote,0.004231
x,0.008795
year,0.007519
