aboard,0.004593
abov,0.010010
absenc,0.002875
absorb,0.006252
abund,0.009514
acceler,0.003007
accentu,0.005491
access,0.004327
accompani,0.003023
accord,0.004691
account,0.005525
accumul,0.009000
acquir,0.002547
act,0.003574
activ,0.018725
actual,0.004002
ad,0.007983
adair,0.006136
adapt,0.004980
addit,0.003164
adeli,0.007763
adli,0.014094
administr,0.002186
admir,0.003705
adopt,0.004316
adventur,0.003923
advers,0.003662
advis,0.003161
affect,0.004087
africa,0.005079
africahad,0.008227
african,0.002741
age,0.003917
agenc,0.002460
ago,0.021212
agreement,0.007161
aid,0.002346
air,0.014414
airborn,0.004668
aircraft,0.003473
alain,0.004947
alaskozet,0.008227
albatross,0.005897
alexand,0.002996
alga,0.021633
alh,0.007229
alien,0.003664
alkalin,0.004939
allow,0.007775
alpha,0.003620
altern,0.002009
alway,0.004205
ambassador,0.003837
ambigu,0.003674
america,0.006575
american,0.007087
ammonit,0.006550
amundsen,0.006895
amundsenscott,0.014672
ancient,0.002265
andesit,0.006417
ani,0.011026
anim,0.017511
anniversari,0.004147
announc,0.002626
annua,0.007133
annual,0.014414
anomal,0.004756
anoth,0.004512
ansmet,0.008227
antarct,0.458874
antarctica,0.638755
antarctican,0.016454
antarcticu,0.024681
antarctiqu,0.014672
antarctopelta,0.008227
antartica,0.007597
antartik,0.016454
antiqu,0.006472
anton,0.004534
anyon,0.003409
anywher,0.007655
apart,0.002865
aphelion,0.006550
appar,0.008009
appear,0.005434
appreci,0.003470
approach,0.001799
approxim,0.004262
april,0.002392
apuleiu,0.006266
aq,0.006198
archiv,0.002878
arctic,0.021633
area,0.023298
argentin,0.024461
argentina,0.007758
argentineuk,0.008227
argument,0.005254
aristotl,0.003223
arm,0.002493
arriv,0.005034
ash,0.004225
asia,0.002685
asid,0.003566
assert,0.002686
assign,0.005618
assist,0.002331
associ,0.003055
assum,0.002166
asteroid,0.009038
astronom,0.007042
astrophysicist,0.005268
asymmetr,0.004278
atlant,0.003313
atmospher,0.021445
attend,0.002983
attest,0.004117
attribut,0.004862
aurora,0.005070
austral,0.006166
australi,0.030680
australia,0.043492
australian,0.003252
australianew,0.006828
australisa,0.008227
australisthi,0.008227
author,0.001760
autumn,0.004161
averag,0.016351
axel,0.005280
ba,0.008322
background,0.002685
bacteria,0.007180
balanc,0.009900
balleni,0.016454
ban,0.015754
bar,0.003535
bartholomew,0.005353
base,0.014989
basein,0.008227
basi,0.001947
bass,0.005476
baudouin,0.007047
bay,0.007063
bbc,0.003557
bc,0.002789
beardmor,0.015526
becam,0.018960
becaus,0.011355
becom,0.003019
bed,0.004072
bedrock,0.005874
beech,0.006338
befor,0.006441
began,0.011297
begun,0.002998
belgian,0.008781
belgianbas,0.008227
belgica,0.006504
belgium,0.003701
belief,0.002524
believ,0.005851
bellingshausen,0.027062
belt,0.004110
beneath,0.016303
bennettit,0.008227
bert,0.005747
besid,0.003226
better,0.004252
biggest,0.003540
billion,0.002678
biodivers,0.007815
biolog,0.002236
biologist,0.007056
biota,0.004972
bird,0.012875
birth,0.002778
blast,0.004615
block,0.002809
blog,0.004282
blow,0.003994
blue,0.006722
bluegrass,0.008227
bodi,0.003784
bolster,0.004560
book,0.003584
born,0.021310
bransfield,0.015195
brazil,0.006739
break,0.005198
breakup,0.009058
breed,0.015125
bridg,0.003115
briefli,0.003497
bright,0.004124
bring,0.004688
britain,0.002656
british,0.023160
briton,0.005179
broke,0.003233
brought,0.002324
brunt,0.006049
bryophyt,0.006377
built,0.002350
byrd,0.019955
c,0.032484
california,0.005785
camacho,0.006550
cambrian,0.005179
came,0.006194
campaign,0.002835
canada,0.002705
canadian,0.003205
cap,0.003847
capabl,0.002487
cape,0.011900
captain,0.022868
captur,0.002593
carbon,0.003078
carl,0.003153
carolin,0.004947
carri,0.002035
cartograph,0.005128
caus,0.008428
ccamlr,0.006895
celesti,0.004003
cell,0.002716
censu,0.007406
center,0.006043
centr,0.007790
central,0.005311
centuri,0.016217
certain,0.005185
cetacean,0.005506
cfc,0.018318
challeng,0.002256
chang,0.012814
characteris,0.003786
charl,0.004837
chaucer,0.005506
child,0.003033
children,0.007792
chile,0.004085
chilean,0.020170
chinstrap,0.007763
chlorofluorocarbon,0.012677
christensen,0.005433
chromium,0.005158
church,0.002853
churchtrin,0.008227
circl,0.009129
circular,0.003680
circumpolar,0.006338
citizenship,0.003936
civilian,0.003283
claim,0.032592
clark,0.003656
clear,0.007052
clearer,0.005138
clearski,0.008227
climat,0.040451
climatolog,0.004763
climb,0.004274
cling,0.005268
close,0.006759
closest,0.003823
cloud,0.003612
cm,0.007944
coal,0.018414
coalit,0.003060
coast,0.020178
coastal,0.010329
coastlin,0.003928
coat,0.003741
code,0.002443
cold,0.027096
colder,0.018948
coldest,0.023782
collaps,0.013911
collect,0.005527
colobanthu,0.007965
coloni,0.002611
colonis,0.004278
coloss,0.005830
combin,0.001801
come,0.003612
comet,0.004474
coml,0.008227
command,0.002649
commerci,0.004839
committe,0.008129
common,0.006109
commonli,0.004195
commonwealth,0.003262
compar,0.003736
comparison,0.005297
complet,0.005233
compos,0.004792
compound,0.002846
comprehens,0.002782
compris,0.002584
compromis,0.003631
concentr,0.007415
concern,0.012413
condit,0.003534
condominium,0.005728
conduct,0.017319
confirm,0.008169
congreg,0.004566
congress,0.002830
conif,0.005537
conifer,0.006136
connect,0.002079
connecticut,0.004662
connot,0.004174
conserv,0.012536
consid,0.002946
consist,0.001690
constant,0.007533
constantli,0.003521
consult,0.005833
contain,0.007248
contin,0.133456
continent,0.033640
continentwid,0.006504
continu,0.004591
contribut,0.011124
control,0.001678
controversi,0.002489
convent,0.009784
converg,0.003327
conveyor,0.005897
cook,0.007122
cool,0.021231
cooler,0.004854
cooper,0.002414
copper,0.003507
core,0.002682
corr,0.006765
correspond,0.002293
cosmic,0.007728
cost,0.002220
counterpart,0.003387
countri,0.019948
cover,0.029116
cramra,0.008227
crash,0.003756
crater,0.009500
creat,0.003090
creatur,0.003852
credit,0.004888
cretac,0.021466
crew,0.007944
crimin,0.003199
cross,0.002757
cryolophosauru,0.008227
cryomyc,0.016454
cryptoendolith,0.008227
crystal,0.003543
cucumb,0.005747
currenc,0.002768
current,0.014554
cyanobacteria,0.005211
cycad,0.006895
cycl,0.002589
damag,0.002726
dark,0.006533
data,0.004031
date,0.006333
daughter,0.003466
davi,0.003662
david,0.006731
day,0.013343
dead,0.003166
decad,0.009184
decemb,0.018544
decept,0.004440
decid,0.002461
declin,0.002398
decompos,0.004094
decreas,0.007462
deep,0.008436
defin,0.005200
densiti,0.003048
depend,0.001666
deplet,0.015768
depletionenhanc,0.008227
deposit,0.011962
deriv,0.001920
deschampsia,0.006895
describ,0.004664
descript,0.002309
desert,0.021552
desicc,0.005619
design,0.005566
despit,0.004283
destroy,0.002641
destruct,0.002989
detach,0.004110
detect,0.005548
determin,0.005262
develop,0.003789
devonian,0.016962
devot,0.002985
diamond,0.007670
diatom,0.004840
did,0.005625
diego,0.004278
differ,0.006695
differenti,0.002557
dinosaur,0.009962
dioxid,0.003711
direct,0.001677
directli,0.004059
disclos,0.004413
discov,0.020020
discoveri,0.007097
disembark,0.005788
displac,0.003241
dispos,0.003737
disput,0.005081
disrupt,0.003255
distanc,0.002689
distinct,0.001945
distribut,0.004168
divers,0.002429
divid,0.002003
divis,0.002189
dmoz,0.003345
document,0.007316
doe,0.005127
dog,0.003781
dollar,0.002951
dome,0.005042
domin,0.008314
dominion,0.004314
doom,0.005128
dormant,0.004804
doubl,0.002796
dougla,0.003732
drake,0.005316
dramat,0.002852
dri,0.026468
driest,0.005970
drill,0.004185
dufek,0.008227
dumont,0.005945
dung,0.005921
dunginhabit,0.008227
dure,0.030536
durvil,0.007763
dust,0.004124
dynam,0.004736
e,0.002046
eai,0.016454
earli,0.006084
earlier,0.002247
earth,0.031038
easili,0.002605
east,0.037411
eastern,0.007572
econom,0.004992
economi,0.002076
ecosystem,0.013797
ecozon,0.005619
edg,0.006636
edgeworth,0.005303
edward,0.005533
effect,0.016251
egg,0.003678
eileen,0.006106
elabor,0.003164
elaps,0.010317
elev,0.013572
elisabeth,0.005303
elizabeth,0.007236
ellsworth,0.017693
els,0.003131
embark,0.004274
emerg,0.001949
emilio,0.005366
emiss,0.010826
emit,0.003806
emperor,0.003354
enact,0.003371
end,0.009976
endem,0.008472
enderbi,0.007336
energi,0.002129
english,0.006354
enter,0.002223
entir,0.007890
environ,0.008063
environment,0.031784
environmentalist,0.005098
enzym,0.003697
eocen,0.005788
eoceneoligocen,0.007763
epoch,0.004343
equal,0.002071
equat,0.007588
equatortopol,0.008227
equip,0.002718
era,0.014417
erebu,0.038816
eric,0.003612
ernest,0.007825
eros,0.004101
erupt,0.015189
especi,0.005297
esperanza,0.013790
establish,0.006492
estim,0.004280
etymolog,0.003237
europ,0.004124
europa,0.010067
european,0.001894
event,0.001979
eventu,0.004323
everi,0.005709
evid,0.012443
evolut,0.002469
evolv,0.002496
ex,0.008228
examin,0.002380
exampl,0.001362
exclus,0.002598
exist,0.009073
expand,0.002151
expedit,0.068801
experi,0.003740
experienc,0.002730
exploit,0.008493
explor,0.018537
explos,0.003371
extend,0.004011
extens,0.006161
extent,0.007507
extern,0.001189
extinct,0.003457
extract,0.002927
extraterrestri,0.004743
extrem,0.010907
extremophil,0.005897
eye,0.003040
eyelash,0.006765
f,0.029122
fabian,0.005537
fabl,0.004947
face,0.002282
factbook,0.003811
facto,0.007373
factor,0.001928
fairli,0.003444
falkland,0.010402
fall,0.006227
fallen,0.003695
famili,0.010529
famou,0.002512
far,0.006186
farther,0.012742
farthest,0.005553
fastestwarm,0.008227
fatal,0.003952
fault,0.004085
fauna,0.003879
feather,0.004743
featur,0.002056
februari,0.009883
feder,0.002421
feet,0.003713
feminin,0.004869
fern,0.010276
field,0.004982
fifthlargest,0.012463
film,0.003084
fimbul,0.016454
fish,0.014187
fisheri,0.012401
flight,0.006663
flightless,0.006377
flinder,0.006377
float,0.014405
floor,0.003699
flora,0.012332
flourish,0.003347
flow,0.014369
flower,0.003693
focu,0.002231
focus,0.002116
follow,0.006504
food,0.002340
foot,0.010600
forc,0.008149
foreign,0.002116
forest,0.009382
form,0.027346
formal,0.008139
format,0.011090
fortif,0.004576
fossil,0.007049
foundat,0.004241
founder,0.002850
fram,0.006599
franc,0.006984
frank,0.003184
freedom,0.002567
freeman,0.004069
freeswim,0.007336
freez,0.004214
frei,0.012835
french,0.004377
frequent,0.006858
fresh,0.007305
friction,0.004006
fridthjof,0.007763
frozen,0.012943
ft,0.028434
fund,0.002242
fungi,0.027556
fur,0.013481
ga,0.002736
gain,0.001978
gap,0.003165
gase,0.003625
gather,0.002835
gener,0.001168
genera,0.004804
gentoo,0.007336
geoffrey,0.004251
geograph,0.013223
geographi,0.002993
geolog,0.021754
geologist,0.008781
georg,0.004687
georgia,0.007774
geoscienc,0.009622
geospati,0.022762
giant,0.007112
gigatonn,0.013413
ginkgo,0.006599
girl,0.004015
given,0.003262
glacial,0.014392
glacialisauru,0.008227
glaciat,0.010380
glacier,0.034011
glaciolog,0.005392
glaciologist,0.012463
global,0.012957
globe,0.007406
glossopteri,0.007133
glow,0.005158
godsi,0.008227
godthul,0.006968
gold,0.002827
gondwana,0.058523
gottlieb,0.005303
govern,0.009278
grace,0.004286
gradual,0.005228
grass,0.004097
graviti,0.003545
greater,0.004096
greatli,0.002663
greek,0.004605
greenpeac,0.006417
greenwich,0.005353
grew,0.002717
ground,0.004732
groundlevel,0.007133
groundpenetr,0.006504
group,0.004400
grow,0.002085
growth,0.004116
grytviken,0.027581
gt,0.005636
guidelin,0.003606
guinea,0.003839
gunbjrg,0.007763
gut,0.004662
ha,0.034699
hair,0.003871
halley,0.004956
hand,0.002014
hanson,0.005672
happen,0.002570
harbour,0.012545
harsh,0.007738
health,0.004534
heavi,0.002810
heavili,0.002621
heiberg,0.006968
height,0.003242
held,0.003845
hemispher,0.018517
henri,0.002621
hi,0.013123
high,0.003293
higher,0.003866
highest,0.007470
highli,0.002140
hinder,0.004097
histori,0.006772
historian,0.002740
hit,0.003366
hm,0.008636
hole,0.025909
home,0.006966
horlick,0.007763
horsetail,0.006895
hostil,0.003372
hot,0.003581
hour,0.005715
hous,0.002181
howev,0.011878
hubert,0.005089
hudson,0.004650
huge,0.003024
hugh,0.007632
human,0.010967
hundr,0.002470
hunt,0.003282
husvik,0.006895
hydrocarbon,0.004206
hyginu,0.007457
hypothesis,0.005462
iaato,0.032908
ice,0.322799
icefish,0.006895
icepack,0.008227
icesheet,0.007763
icon,0.004377
idea,0.001825
identifi,0.001965
igneou,0.010707
ii,0.002128
illeg,0.006553
imag,0.010016
imageri,0.004373
impact,0.006685
imperi,0.003168
implement,0.002264
implic,0.002833
import,0.008321
impress,0.003319
includ,0.012417
increas,0.012510
indefinit,0.003820
independ,0.001670
indian,0.008075
indic,0.004001
indigen,0.006484
indirectli,0.003504
individu,0.001677
inflow,0.004455
influenc,0.001791
influx,0.004196
inform,0.001616
ingrid,0.006106
inhabit,0.008481
inherit,0.003015
inhibit,0.004003
inland,0.003902
instead,0.005714
instrument,0.002504
integr,0.001962
intellig,0.002537
intensifi,0.003986
intent,0.002736
interior,0.012765
intermitt,0.004650
intern,0.008550
introduct,0.006467
intrus,0.004692
invertebr,0.008636
investig,0.002278
involv,0.001576
iron,0.005825
island,0.038565
islet,0.004811
iso,0.003795
isol,0.007920
issu,0.006980
item,0.002983
j,0.002042
jacobsen,0.024198
jame,0.006880
januari,0.025528
japanes,0.003099
jean,0.003372
johan,0.004730
john,0.005549
jone,0.003610
journal,0.002091
journey,0.003779
juan,0.004003
jubile,0.005553
jule,0.004743
juli,0.007046
june,0.002369
jupit,0.004656
jurass,0.022342
jurisdict,0.003300
just,0.005688
justifi,0.003270
ka,0.004956
katabat,0.007763
kay,0.004915
keyston,0.005672
kg,0.004236
kill,0.002684
kilometr,0.011310
kilometrewid,0.007457
kind,0.002166
king,0.007770
kingdom,0.004326
klara,0.006968
km,0.039787
know,0.002463
known,0.014946
krill,0.019799
laboratori,0.002759
lack,0.008292
laid,0.009206
lake,0.041689
land,0.080252
landmass,0.010031
landsat,0.006550
landscap,0.003390
larg,0.028657
larger,0.006438
largest,0.017964
larsen,0.005970
larsenb,0.008227
larval,0.005709
late,0.005647
later,0.006467
latitud,0.016496
latitudin,0.011660
launch,0.002738
lava,0.004956
layer,0.015648
lazarev,0.014267
lb,0.004686
lead,0.003244
leader,0.002377
leadership,0.002949
leav,0.004604
led,0.021056
legal,0.004486
leith,0.006765
leopard,0.005353
level,0.024386
lewi,0.003412
librari,0.002554
lice,0.005852
lichenform,0.006895
lie,0.010655
life,0.027963
light,0.008965
like,0.002904
lima,0.005033
limeston,0.009289
limit,0.006641
lindsay,0.005553
line,0.001945
linear,0.002892
link,0.001182
list,0.003023
listen,0.007679
littl,0.004161
live,0.008789
liverwort,0.005970
local,0.003682
locat,0.011993
loi,0.005148
long,0.003530
longest,0.007794
longitudin,0.004621
look,0.002244
lose,0.002859
loss,0.004755
low,0.014584
lower,0.008035
lowgrad,0.006106
lystrosauru,0.007133
m,0.013610
ma,0.051508
mac,0.004730
madrid,0.013666
magistr,0.004270
magnet,0.006382
main,0.005163
mainland,0.007063
maintain,0.003791
major,0.004326
make,0.013824
mammallik,0.006968
man,0.004810
manag,0.011682
mani,0.011058
manoeuvr,0.011074
map,0.009948
mar,0.011160
march,0.002254
marco,0.004717
mari,0.003140
marin,0.018672
marinu,0.006338
market,0.002034
marsupi,0.005747
mass,0.017835
massif,0.006198
materi,0.001905
matter,0.002044
matthew,0.003942
maud,0.017764
mawson,0.007965
maximum,0.005912
mcmurdo,0.020904
mcsaveney,0.008227
mean,0.002994
measur,0.003561
mechanis,0.005874
medal,0.007984
medic,0.002503
medium,0.006198
meet,0.002199
melanis,0.008227
melt,0.031035
member,0.010407
men,0.002520
mercat,0.005585
meridian,0.005158
mesozo,0.011576
metabol,0.003603
metamorph,0.011273
meteorit,0.106477
meteorolog,0.003986
meteorologist,0.005506
methanerich,0.008227
metr,0.011600
meyer,0.009175
mi,0.051415
microbi,0.009048
microbiolog,0.004262
microscop,0.003509
microwav,0.004464
mid,0.002707
middl,0.002241
midg,0.007336
midlat,0.006828
mikhail,0.008564
mikkelsen,0.007763
mild,0.004196
mile,0.006319
militari,0.021992
million,0.019217
miner,0.021068
minimis,0.004884
minimum,0.002965
minor,0.002515
minteri,0.008227
mirni,0.014672
mirror,0.003670
mission,0.005421
mistak,0.003741
mite,0.010656
mm,0.015911
model,0.005080
moder,0.003114
modern,0.004891
moistur,0.004717
monitor,0.002939
montalva,0.015526
month,0.004803
montreal,0.004877
moon,0.007080
morpholog,0.003724
mosaic,0.004529
moss,0.004847
mostli,0.006958
motion,0.002743
mount,0.015845
mountain,0.046796
multicolour,0.006651
museum,0.003278
mutual,0.002867
myth,0.003471
nansen,0.006106
narrow,0.003069
nasa,0.028730
nathaniel,0.005169
nation,0.009038
nativ,0.002809
natur,0.007256
navi,0.013015
nd,0.002529
near,0.015646
nearbi,0.006691
nearli,0.011839
neck,0.004459
need,0.003268
neg,0.002357
neglect,0.003556
negoti,0.008536
nematod,0.010236
neogen,0.006106
net,0.005715
neutrino,0.005042
new,0.013357
newspap,0.003365
nickel,0.004360
night,0.003334
nimrod,0.013413
nineti,0.004931
nonlichenform,0.008227
nonn,0.010924
north,0.012950
northern,0.005082
northernmost,0.005506
norway,0.007641
norwegian,0.021126
note,0.007836
nothofagu,0.014094
novemb,0.002438
ntarktik,0.016454
ntktk,0.008227
ntrktk,0.008227
nttk,0.008227
nuclear,0.005555
number,0.005439
nzhistorynetnz,0.007457
objection,0.005874
observ,0.008971
occupi,0.002725
occur,0.012090
ocean,0.053152
oceanograph,0.005433
octob,0.004701
offic,0.004376
offici,0.006191
offset,0.007905
offshor,0.015855
ohio,0.004390
oil,0.002713
olav,0.005897
old,0.002249
olett,0.007763
onc,0.002031
oneyear,0.005042
ongo,0.002974
onli,0.013765
onlin,0.004758
onward,0.003446
onyx,0.006651
open,0.003722
oper,0.008575
opposit,0.006710
optic,0.003270
orbit,0.003447
orca,0.006301
ore,0.007789
organ,0.007414
organis,0.005147
origin,0.007532
orthodox,0.003660
otherwis,0.002585
outer,0.003473
outflow,0.034300
outsid,0.004147
overal,0.004976
overfish,0.005690
overflight,0.006895
overlap,0.003021
ozon,0.066782
pablo,0.005118
pacif,0.003150
palaeontolog,0.005654
palaeozo,0.006651
paleozo,0.005996
palma,0.005852
palmer,0.010338
pam,0.005709
parallel,0.005633
parent,0.003061
park,0.003177
parti,0.010504
partial,0.005001
particip,0.002144
particular,0.003403
particularli,0.007625
partli,0.002923
partnership,0.003421
pass,0.006335
passag,0.006477
past,0.002156
patagonian,0.006198
peac,0.007865
peak,0.002983
pearlwort,0.007965
pearson,0.004282
pelt,0.006077
penalti,0.004066
penetr,0.003631
penguin,0.044972
peninsula,0.043395
pensacola,0.007133
peopl,0.007494
perhap,0.002527
perihelion,0.005830
peril,0.004956
period,0.029075
peripher,0.004185
perman,0.007903
permian,0.012463
permit,0.002768
person,0.003557
personnel,0.006719
peru,0.004290
petrel,0.006198
phenomenon,0.002799
physician,0.003429
physicist,0.003217
phytoplankton,0.011381
piec,0.003002
pine,0.004633
place,0.006149
plane,0.003274
planet,0.003084
plant,0.021241
plasmaful,0.008227
plate,0.007059
plateau,0.008835
platform,0.003328
platinum,0.004892
play,0.001962
ple,0.007763
pleistocen,0.009928
plenti,0.004274
pliocen,0.006198
poa,0.006895
point,0.004730
pol,0.005690
polar,0.063276
pole,0.094144
polit,0.001706
pollut,0.003656
polu,0.007047
poor,0.002687
popul,0.009670
popularis,0.004804
portal,0.007841
portion,0.010926
posit,0.006444
possibl,0.006359
potenti,0.008072
ppm,0.010759
precambrian,0.005874
precipit,0.025093
prefabr,0.006504
presenc,0.002357
present,0.007793
presentday,0.003501
preserv,0.007882
pressur,0.004693
prevail,0.003297
prevent,0.006685
previous,0.004752
priest,0.003691
primari,0.004115
princ,0.006728
princess,0.004560
prior,0.002354
probabl,0.008947
problem,0.001667
produc,0.003243
product,0.001624
program,0.003921
programm,0.002996
prohibit,0.009542
project,0.003857
promin,0.004888
promot,0.002223
proport,0.002577
propos,0.001923
protect,0.018698
protest,0.002897
protista,0.006077
protocol,0.035247
provid,0.001383
provis,0.006072
pteridosperm,0.015195
ptolemi,0.004240
public,0.001569
publish,0.003460
pure,0.002464
purpos,0.006083
qanta,0.006459
qualiti,0.002322
quantiti,0.002539
quarter,0.003242
queen,0.016358
quitensi,0.007965
quota,0.004266
radar,0.008703
radiat,0.015609
rais,0.002299
rang,0.009356
rare,0.005130
ratifi,0.003972
reach,0.022101
real,0.002051
rear,0.004422
reason,0.001774
receiv,0.003777
recent,0.011983
recognis,0.009157
recommend,0.002914
record,0.033342
reduc,0.003745
refer,0.002965
reflect,0.002124
refroz,0.008227
regardless,0.002988
regim,0.002880
region,0.037178
regist,0.003065
registri,0.004931
regul,0.014043
rel,0.007090
relat,0.003999
releas,0.002470
reli,0.002382
remain,0.014715
remaind,0.003668
remark,0.003032
remot,0.006694
render,0.003242
replac,0.002014
report,0.009500
reportedli,0.003926
repres,0.001621
reproduc,0.003354
reptil,0.004347
requir,0.003112
research,0.030473
resembl,0.003118
reserv,0.010517
resid,0.007857
resili,0.004534
resist,0.002561
resolut,0.006048
resourc,0.016011
respons,0.005144
rest,0.004632
restrict,0.009165
result,0.013771
resum,0.003781
retain,0.002599
retir,0.003364
retreat,0.003818
return,0.004001
reveal,0.007801
review,0.002215
rhyolit,0.006651
richard,0.002442
ridg,0.004330
right,0.007096
rise,0.013926
risk,0.004865
river,0.005405
roald,0.006198
robertson,0.004680
rock,0.015480
rockhopp,0.006895
rocki,0.004724
role,0.003463
roman,0.002651
romanis,0.013790
rose,0.003000
ross,0.040450
rotat,0.003272
rotif,0.006651
roughli,0.005546
round,0.003131
rout,0.002976
royal,0.002608
russia,0.008716
russian,0.017366
s,0.009815
sail,0.011218
samba,0.006338
sampl,0.002946
san,0.003139
sand,0.004082
sandston,0.016343
satellit,0.017247
scarc,0.003786
scatter,0.003650
scenic,0.006651
school,0.004022
scienc,0.004988
scientif,0.013926
scientist,0.018085
scott,0.003658
scottish,0.003795
sea,0.075676
seal,0.037075
sealer,0.027872
sealevel,0.012603
search,0.005061
season,0.006389
seaward,0.007047
seawat,0.004790
second,0.001622
secretariat,0.004627
sediment,0.008746
seed,0.007015
seemingli,0.003879
seen,0.001939
select,0.002149
selfregul,0.004869
semiperman,0.006231
senior,0.003276
sens,0.004068
sent,0.002740
separ,0.003612
septemb,0.007152
seriou,0.002769
serv,0.005903
servic,0.005778
set,0.007657
settlement,0.005770
seven,0.005188
seventi,0.004627
sever,0.014344
shackleton,0.030111
shale,0.016343
shape,0.002356
share,0.001926
sheet,0.078664
shelf,0.062733
shelv,0.031014
shield,0.007753
ship,0.025246
shore,0.003759
short,0.004215
shortliv,0.003884
shown,0.004768
shrub,0.005015
sight,0.022012
sightse,0.007047
sign,0.006796
signific,0.005269
significantli,0.002537
silt,0.005636
similar,0.004929
similarli,0.002606
simpl,0.002186
sinc,0.016510
singlehand,0.008227
sir,0.003105
siriu,0.005945
site,0.004635
situat,0.006355
size,0.008570
sky,0.007825
slideshow,0.005728
slightli,0.008946
sloop,0.005970
sloopofwar,0.007336
small,0.010102
smallscal,0.008502
snail,0.005303
snow,0.034103
snowfal,0.030531
soil,0.003117
solar,0.016410
sold,0.002905
solveig,0.007763
sometim,0.003582
sound,0.005794
south,0.079724
southern,0.038304
southernmost,0.015804
southwest,0.003861
souvenir,0.005852
sovereignti,0.006636
soviet,0.008940
space,0.006364
speci,0.027835
specif,0.001646
specimen,0.004266
spectacl,0.005148
specul,0.005725
speed,0.002813
spend,0.002856
spot,0.003444
spread,0.007296
spring,0.003103
springtail,0.007457
sq,0.016430
squar,0.011660
squid,0.010217
st,0.002218
staf,0.004644
stage,0.002402
start,0.003483
state,0.012039
station,0.066129
stationi,0.008227
stationworld,0.008227
statu,0.004595
steel,0.003446
steig,0.008227
step,0.004666
stepwis,0.005874
stonington,0.008227
store,0.002787
stori,0.002789
storm,0.003854
strategi,0.002563
stratigraphi,0.005392
stratospher,0.010707
stream,0.006595
strengthen,0.003112
stricter,0.004972
strom,0.006231
strong,0.003998
strongest,0.003992
strongli,0.002651
structur,0.004822
struggl,0.002884
studi,0.020357
subcontin,0.004240
subglaci,0.020296
subject,0.003500
sublim,0.009608
subtrop,0.005007
success,0.001824
suggest,0.013483
suit,0.006396
suitabl,0.003054
summer,0.038197
summeronli,0.007763
summon,0.004825
sun,0.015261
sunburn,0.006301
sunlight,0.012870
supercontin,0.010840
support,0.004907
supposedli,0.004199
surfac,0.032388
surpris,0.003618
surround,0.012598
survey,0.010579
surviv,0.004746
suspend,0.003420
swamp,0.010049
sydney,0.004310
symmetri,0.003830
synapsid,0.006706
tabl,0.002648
tardigrad,0.012919
team,0.014366
technic,0.002447
techniqu,0.002114
technolog,0.001983
tecton,0.004356
telescop,0.004228
temper,0.008301
temperatur,0.063975
temperatureequalis,0.008227
tend,0.006778
tender,0.004587
term,0.001300
terra,0.030770
terrestri,0.011237
terri,0.004650
territori,0.009633
terror,0.007325
test,0.002249
th,0.014199
therebi,0.002847
therefor,0.001870
thi,0.038078
thickwal,0.007047
thirti,0.003709
thirtyeight,0.006338
thought,0.003900
thousand,0.002426
thread,0.004390
thu,0.006433
tickhil,0.008227
time,0.017043
tini,0.003711
tip,0.003837
titl,0.002469
today,0.001976
togeth,0.001897
ton,0.011192
tonn,0.013650
took,0.002149
toothfish,0.013303
total,0.001919
tour,0.003969
tourism,0.012803
tourist,0.011000
trade,0.001990
transantarct,0.041809
transfer,0.004709
transport,0.004717
travel,0.002429
travers,0.008948
treati,0.066087
treatis,0.003319
tree,0.002834
trend,0.005256
triassic,0.005945
tribut,0.004104
trilobit,0.006599
trip,0.003802
tropic,0.007022
tropospher,0.005506
true,0.004455
tundra,0.005433
twelv,0.007259
twice,0.003279
type,0.006617
typic,0.005537
tyre,0.005602
uk,0.005043
ultraviolet,0.008596
unclaim,0.006166
unclear,0.003614
understand,0.005603
understood,0.002582
underwat,0.004436
unfamiliar,0.004776
uniform,0.003190
unintent,0.004854
union,0.004089
uniqu,0.004692
unit,0.012490
univers,0.004275
unnam,0.005118
unpreserv,0.008227
unregul,0.004862
unterse,0.008227
unveil,0.004692
uplift,0.009847
use,0.013491
usg,0.005366
uv,0.004680
valid,0.002627
valley,0.009545
valuabl,0.003230
vapour,0.005353
vari,0.006085
variat,0.002579
varieti,0.002065
variou,0.007831
vast,0.002762
vaughan,0.005747
veget,0.006569
veri,0.007856
version,0.002406
vertebr,0.004088
vessel,0.006699
victoria,0.008090
video,0.003028
view,0.001763
vinson,0.007763
virus,0.004114
visit,0.005528
visitor,0.007527
volcan,0.015790
volcano,0.020347
volum,0.002356
von,0.005581
vortex,0.010785
vostok,0.051018
voyag,0.007527
w,0.002308
wa,0.067689
wall,0.002913
war,0.003909
warm,0.042195
warmblood,0.006106
warmer,0.004711
warmth,0.005291
wast,0.003300
water,0.027591
weapon,0.003055
weather,0.003374
websit,0.005203
weddel,0.032754
week,0.002891
wellknown,0.003230
wellpreserv,0.005874
went,0.002523
west,0.037801
westerli,0.005569
western,0.004139
whale,0.025717
whaler,0.010840
white,0.002612
wide,0.003544
wider,0.003132
widespread,0.002643
wild,0.003529
wildlif,0.007841
wilk,0.023236
wilkin,0.005033
wind,0.016345
windiest,0.008227
winter,0.040914
winterov,0.008227
wit,0.003351
women,0.005237
word,0.001909
work,0.002697
world,0.019529
write,0.002151
wrote,0.002344
year,0.040269
yearround,0.016430
york,0.002119
young,0.002554
zealand,0.019630
zero,0.002893
zeroemiss,0.007763
zone,0.008531
