abil,0.007188
abiot,0.048880
abl,0.006599
absorb,0.020889
abund,0.021190
acceler,0.010048
accret,0.017972
accumul,0.010022
activ,0.005213
actual,0.006686
adapt,0.016639
add,0.019925
addit,0.005285
aerenchyma,0.045623
affect,0.006827
aggreg,0.011048
agricultur,0.007765
air,0.008025
alfr,0.010705
alga,0.144546
allig,0.042611
alter,0.046858
america,0.007322
amphibian,0.046262
anadrom,0.024914
anaerob,0.016970
anim,0.036564
anoth,0.005025
aphot,0.023279
appear,0.006051
approxim,0.021360
aquat,0.309737
area,0.025945
array,0.011400
associ,0.005103
attenu,0.016585
autotroph,0.091003
avail,0.012773
averag,0.007803
bacteria,0.047977
base,0.022762
basi,0.006507
basic,0.006337
bay,0.011798
beaver,0.017972
becaus,0.004742
becom,0.015129
bed,0.013606
beetl,0.016786
benthic,0.042352
biggest,0.011827
biodivers,0.013054
biolog,0.022414
biom,0.016669
biomass,0.063655
biostimulatori,0.027485
biotic,0.075317
bird,0.021508
bodi,0.044251
bog,0.036497
brackish,0.018605
breed,0.012633
broadland,0.027485
brown,0.010689
bug,0.016585
build,0.006666
built,0.007853
calyptogena,0.027485
canada,0.009037
canal,0.012514
canopi,0.036692
carbon,0.010283
carri,0.006801
case,0.010551
caught,0.012994
caus,0.005631
cephalopod,0.018346
certain,0.005774
chang,0.019027
characterist,0.029090
chemic,0.024102
chemosynthet,0.048304
chlorin,0.015236
clam,0.018889
class,0.006998
climat,0.009009
close,0.005645
cm,0.013270
coast,0.009630
coastal,0.057515
combin,0.018051
come,0.012070
commerci,0.016168
common,0.005102
commun,0.011035
competit,0.008297
complet,0.005828
complic,0.009563
compos,0.008006
compound,0.028526
concentr,0.016516
concern,0.005924
consequ,0.014351
consid,0.004921
consist,0.005648
construct,0.019604
consum,0.016805
contain,0.018162
continu,0.005113
contribut,0.006193
control,0.011213
convers,0.008706
convert,0.017205
coral,0.027895
cours,0.007355
cover,0.020844
creat,0.005161
current,0.005402
dam,0.056966
damag,0.018214
danub,0.016877
dead,0.021159
debri,0.016169
decay,0.023207
declin,0.016025
deep,0.028184
degrad,0.012106
degre,0.006911
delta,0.024175
deltaic,0.025935
dens,0.012012
depend,0.016704
depth,0.033241
deriv,0.012833
determin,0.041023
detritu,0.019202
develop,0.004220
devic,0.009431
differ,0.008947
difficult,0.014720
dinoflagel,0.020031
dioxid,0.012400
dissolv,0.052407
distinct,0.006499
distinguish,0.007492
divers,0.016233
divid,0.033459
divis,0.007314
domin,0.020833
drain,0.014552
dri,0.033160
dure,0.004857
dyke,0.058880
earth,0.015953
echinoderm,0.019137
ecosystem,0.391817
effect,0.024679
energi,0.014225
england,0.008816
enrich,0.013298
enter,0.014855
entir,0.006590
environ,0.047144
environment,0.049009
eros,0.013701
especi,0.011799
estuari,0.051398
europ,0.006889
euryhalin,0.027485
eutroph,0.019202
exampl,0.045503
exceed,0.010669
excess,0.019637
exot,0.013533
experi,0.006247
exploit,0.009458
extent,0.008360
extern,0.003972
extraordinari,0.013261
extrem,0.007288
factor,0.032210
fadio,0.027485
faster,0.021198
fatal,0.013206
featur,0.006871
feed,0.034991
feedback,0.012337
fen,0.043770
figur,0.015048
film,0.010304
fish,0.123232
flat,0.011620
float,0.012031
flood,0.083960
flow,0.016002
food,0.054734
forb,0.014698
forc,0.005445
forest,0.010448
form,0.012458
founder,0.009522
freefloat,0.020400
frequent,0.015275
fresh,0.012203
freshwat,0.172315
frog,0.015478
function,0.011124
gees,0.040063
gener,0.015615
giant,0.011880
gradient,0.012926
gradual,0.008733
graze,0.015254
great,0.012246
greater,0.020528
greatli,0.008896
ground,0.007905
grow,0.020899
gulf,0.024580
gulp,0.023036
ha,0.014490
habitat,0.025342
harm,0.010474
health,0.007574
henc,0.008476
herbivor,0.016097
heron,0.018889
heterotroph,0.036401
high,0.005501
histori,0.004525
hole,0.012365
human,0.020937
hydrobiolog,0.022811
hydrogen,0.011253
hydrotherm,0.017561
hypox,0.021176
ice,0.011850
identifi,0.006567
illustr,0.027795
import,0.069504
impos,0.009343
includ,0.056571
increas,0.005224
individu,0.005603
industri,0.006201
inhabit,0.009444
inland,0.013037
inorgan,0.012702
instrument,0.008365
interact,0.006778
intergrad,0.027485
intermedi,0.010677
intertid,0.020119
intoler,0.031651
introduc,0.006373
introduct,0.007202
intrus,0.031355
inund,0.019337
invas,0.029720
invertebr,0.014427
ird,0.023543
irrig,0.013733
key,0.006913
kill,0.008968
kind,0.021709
known,0.018157
lack,0.006926
lagoon,0.017200
lake,0.139276
lakethi,0.027485
land,0.013749
landscap,0.011325
larg,0.023934
larva,0.017166
lead,0.010838
leav,0.015383
length,0.009011
lentic,0.082455
leve,0.020303
level,0.027156
life,0.017516
light,0.007488
limnet,0.023036
link,0.003949
littor,0.114824
live,0.023491
load,0.012464
log,0.025450
long,0.011794
loop,0.012507
loss,0.015888
lotic,0.054970
louisiana,0.015698
low,0.027843
lowland,0.015869
m,0.006495
magnifica,0.027485
main,0.011499
mainli,0.007539
major,0.014455
mammal,0.011497
mangrov,0.017801
mani,0.036945
marin,0.145559
marsh,0.046729
materi,0.025457
mean,0.005001
measur,0.005948
metabol,0.012037
mexico,0.022661
mire,0.018552
mostli,0.007748
mud,0.031739
multipl,0.006985
muskrat,0.023279
mutual,0.009580
natur,0.014545
near,0.007467
nearli,0.007910
nearshor,0.021305
need,0.005459
neg,0.039377
nerit,0.024914
nest,0.014066
net,0.019094
new,0.004056
nitrogen,0.012536
norfolk,0.017928
north,0.007211
note,0.005236
number,0.009086
nutrient,0.090199
observatori,0.014042
obtain,0.007059
occur,0.017310
ocean,0.018691
offshor,0.013242
onc,0.006786
onli,0.004180
open,0.031087
organ,0.094123
orlean,0.017972
otter,0.018297
overabund,0.045204
overfish,0.019010
overharvest,0.046073
oxygen,0.099520
pachyptila,0.027485
particularli,0.006369
peat,0.018447
pelag,0.040239
perform,0.006384
period,0.005396
phosphoru,0.014963
photic,0.067219
photosynthet,0.017339
physic,0.011885
planet,0.010304
plankton,0.017719
plant,0.110389
pollut,0.048867
pond,0.160507
pontchartrain,0.027485
pool,0.035675
popul,0.012923
possibl,0.005311
ppt,0.020400
predat,0.046244
presenc,0.023626
primari,0.013749
problem,0.011139
process,0.009846
produc,0.048768
product,0.043422
profund,0.021581
protect,0.013882
provid,0.013862
proxim,0.012037
purifi,0.014820
purpos,0.013548
rate,0.006453
raw,0.010774
recharg,0.019010
recreat,0.012756
recycl,0.014054
reduc,0.012514
reduct,0.009503
reef,0.014496
refer,0.003302
refugia,0.023832
region,0.011829
rel,0.023688
reservoir,0.014867
resid,0.008750
resort,0.012256
resourc,0.006686
result,0.009201
retent,0.015364
riftia,0.027485
riparian,0.040420
risk,0.008126
river,0.072240
root,0.025030
salin,0.095617
salt,0.079212
saltwat,0.019137
satur,0.029960
scienc,0.005555
seawat,0.032008
sediment,0.116882
sedimentor,0.027485
settlement,0.028916
shallow,0.041913
shape,0.007872
shark,0.031783
shore,0.050234
shorelin,0.054602
similar,0.010978
sinc,0.004596
site,0.007742
size,0.014316
slope,0.013270
slow,0.018980
slowli,0.010595
small,0.011249
snail,0.053158
sodium,0.013994
soil,0.031245
solar,0.010964
sourc,0.028910
speci,0.143717
spring,0.041473
stenohalin,0.027485
stephen,0.010211
stream,0.044070
stress,0.056558
structur,0.005370
subclass,0.016846
subsid,0.013637
substanc,0.009664
substrat,0.027919
subtl,0.013595
success,0.006095
sulfid,0.015596
sulfur,0.013513
sunlight,0.028665
support,0.016396
surfac,0.024969
surviv,0.015855
swamp,0.050359
temperatur,0.018585
term,0.004343
therebi,0.009514
therefor,0.006247
thi,0.024067
thousand,0.008106
threat,0.009641
tide,0.014293
time,0.016268
toler,0.034892
total,0.006413
tourism,0.010693
toxin,0.015761
transport,0.007880
trap,0.012043
tree,0.018937
tube,0.012702
tuna,0.016585
turbul,0.014254
turtl,0.015913
type,0.038686
typic,0.012333
unsustain,0.015219
upland,0.019337
upstream,0.016786
use,0.026291
usual,0.005531
vari,0.020329
vascular,0.030297
vast,0.009230
veget,0.021947
veloc,0.012087
vent,0.048582
veri,0.010499
vernal,0.020708
video,0.010117
volcan,0.026375
volum,0.007873
vulner,0.011691
water,0.269446
watersh,0.044322
web,0.029897
wellknown,0.010790
wetland,0.292831
whale,0.014319
wider,0.010466
width,0.015458
wild,0.011792
wildlif,0.013098
windfal,0.036692
winter,0.011390
woodi,0.017486
world,0.013980
worm,0.014482
year,0.018556
zone,0.294527
