abil,0.007590
abov,0.014125
abund,0.011187
abyss,0.060621
activ,0.005504
adapt,0.017569
addit,0.011162
affect,0.007208
aggreg,0.034999
alga,0.030525
alter,0.009895
amphipoda,0.029021
anim,0.007721
aphot,0.024580
approxim,0.007518
aquat,0.059463
archiv,0.020307
area,0.016437
assemblag,0.050697
associ,0.021556
atmospher,0.010807
attach,0.010444
attempt,0.006292
avail,0.006743
averag,0.008240
away,0.008403
bacteri,0.014410
base,0.004806
bathyal,0.029021
bay,0.012458
becaus,0.030044
becom,0.005324
begin,0.012972
benthic,0.804967
benthicpelag,0.029021
bentho,0.181157
better,0.015002
biodivers,0.027568
biolog,0.007889
biomass,0.050410
bodi,0.013349
boundari,0.009286
burrow,0.017756
canyon,0.019119
carcharhinida,0.029021
categori,0.008500
caus,0.005946
centr,0.009160
certain,0.006097
chain,0.009953
chang,0.005022
characterist,0.007679
chemosynthesi,0.020888
close,0.005961
coastal,0.012146
coldwat,0.023464
colon,0.011821
column,0.050633
commonli,0.007399
commun,0.040784
comparison,0.009343
concentr,0.008719
condit,0.006234
conduct,0.007637
consid,0.005196
contact,0.009350
continent,0.083068
contribut,0.006540
cool,0.012482
coral,0.029454
correl,0.010386
coupl,0.010311
cours,0.007766
creatur,0.013588
crustacean,0.017693
data,0.014222
day,0.006724
dead,0.022342
decay,0.012252
decreas,0.008775
deep,0.089281
deeper,0.013315
deepest,0.033749
deepsea,0.019703
deepwat,0.020073
degre,0.007297
depend,0.017638
deposit,0.010549
depth,0.070199
deriv,0.006775
descript,0.016291
determin,0.006188
detritivor,0.021540
detritu,0.060828
diatom,0.017073
differ,0.009447
dinoflagel,0.021151
direct,0.005917
disappear,0.011329
divid,0.007066
doe,0.006029
domin,0.014665
downward,0.014301
drift,0.013738
drop,0.009780
easi,0.010895
ecolog,0.060658
ecologist,0.015616
ecosystem,0.133850
edg,0.011704
effect,0.010423
elsewher,0.011059
end,0.005865
energi,0.030041
environ,0.007111
epifauna,0.029021
epipelag,0.024859
equival,0.008641
escarp,0.022496
establish,0.005725
eulittor,0.029021
european,0.006681
event,0.006981
evolutionari,0.010569
exampl,0.014414
explor,0.008174
extend,0.014152
extern,0.004194
extremophil,0.020804
fish,0.020018
flat,0.012269
floor,0.104395
flow,0.042241
flux,0.014112
food,0.066050
foraminifera,0.021340
forest,0.011032
form,0.013154
framework,0.008218
function,0.017620
gener,0.008244
gentli,0.020346
geomorph,0.022944
geomorpholog,0.016850
given,0.005753
good,0.006377
gpp,0.024324
gradient,0.013649
greatli,0.018788
gross,0.011216
ha,0.007650
habitat,0.120416
hadal,0.051004
healthi,0.012525
heterogen,0.043266
high,0.005808
higher,0.013639
histor,0.006444
home,0.008191
hotspot,0.018753
howev,0.004655
human,0.005526
impact,0.007861
import,0.014678
inch,0.030915
includ,0.035840
increas,0.016549
indic,0.007057
infauna,0.029021
influenc,0.018955
inform,0.005703
inher,0.010993
inner,0.011531
inorgan,0.013412
insignific,0.016598
integr,0.006922
intertid,0.021244
invertebr,0.030467
involv,0.005561
kelp,0.020276
known,0.019172
lake,0.033937
land,0.007258
larg,0.010109
larger,0.007570
layer,0.044160
lead,0.005722
lemon,0.018840
level,0.017204
life,0.006165
light,0.007906
line,0.013728
link,0.004170
linkag,0.030240
littor,0.020207
live,0.062010
low,0.014699
lower,0.007086
lowest,0.011407
m,0.006858
macroinvertebr,0.134005
maintain,0.013373
make,0.004876
mani,0.021672
map,0.017546
marin,0.021956
mass,0.007864
materi,0.020160
matter,0.036068
mechan,0.014163
mesopelag,0.024859
meter,0.090346
metr,0.013640
microb,0.032605
microorgan,0.014322
moder,0.010985
modern,0.011504
mud,0.016756
nativ,0.009911
need,0.005764
nutrient,0.054423
observ,0.012658
occur,0.006092
ocean,0.148025
oceanwat,0.029021
onli,0.004414
oper,0.006049
order,0.005284
organ,0.078461
outcrop,0.019533
oxygen,0.023351
pathway,0.012878
pelag,0.021244
penetr,0.012810
periphyton,0.026801
perman,0.009293
piezophil,0.029021
place,0.005423
plain,0.012531
polychaet,0.022103
pond,0.016947
poorli,0.012697
potenti,0.007119
presenc,0.008315
pressur,0.033110
prey,0.014983
primari,0.007258
produc,0.005721
product,0.005731
provid,0.004878
qualiti,0.008193
quit,0.009293
rapidli,0.009270
rare,0.009049
ratio,0.009917
reef,0.015306
refer,0.006974
region,0.043716
regul,0.016512
rel,0.012506
relationship,0.026628
relianc,0.013983
remot,0.011806
research,0.016973
resourc,0.014120
respons,0.006048
restrict,0.008082
result,0.014573
retain,0.009171
reveal,0.009173
rich,0.010000
ridg,0.015277
river,0.028604
rockfish,0.026307
rocki,0.049995
rov,0.024859
sand,0.014399
scaveng,0.017853
sea,0.026695
seab,0.019645
seafloor,0.038336
seamount,0.022229
sediment,0.015426
set,0.005402
sever,0.005059
shallow,0.059008
shallowest,0.025502
shark,0.016779
shelf,0.085113
shore,0.013260
short,0.007436
signific,0.012391
significantli,0.008950
sink,0.014455
slope,0.070063
snow,0.015037
soil,0.021994
sourc,0.024420
spatial,0.011346
speci,0.017853
specif,0.017421
spectrum,0.011477
statu,0.008106
stream,0.058167
structur,0.011341
studi,0.015388
subject,0.006174
submarin,0.043999
substrat,0.058959
subsurfac,0.018161
suit,0.011282
superfici,0.015306
surfac,0.035154
surviv,0.008371
sustain,0.009493
symbiot,0.016827
technolog,0.006998
temperatur,0.009812
term,0.009172
thi,0.018151
thrive,0.013436
toler,0.012281
transport,0.008320
trench,0.016384
trophic,0.018667
turn,0.006710
type,0.005835
uk,0.017792
understand,0.026353
underwat,0.015649
union,0.007212
untouch,0.018125
upper,0.009801
urban,0.010180
use,0.019829
usual,0.011681
vari,0.007155
vehicl,0.011020
veri,0.011085
water,0.089844
waterbodi,0.025879
watercolumn,0.029021
web,0.021045
wfd,0.029021
year,0.004898
zone,0.200639
