absent,0.016665
academ,0.020483
accept,0.008584
accord,0.013675
acknowledg,0.026371
activ,0.006823
adapt,0.032666
adjust,0.013088
agric,0.033944
al,0.035187
altern,0.026359
american,0.015495
analysi,0.008242
anim,0.009571
appli,0.021930
applic,0.016332
approach,0.023608
aquat,0.018426
architectur,0.012898
area,0.006791
artifici,0.011547
associ,0.006679
atrisk,0.027884
author,0.007699
barrett,0.067270
base,0.017874
basic,0.008294
benefit,0.040022
bergen,0.026217
bioengin,0.044505
biolog,0.029336
biotechn,0.031610
biotechnolog,0.017960
boca,0.022467
bodi,0.008273
bohemen,0.035972
book,0.015672
breadth,0.019584
broader,0.013747
bulletin,0.018539
capac,0.022894
cellular,0.015279
center,0.008807
central,0.007741
character,0.020947
chemic,0.010515
citi,0.009536
civil,0.009472
clarifi,0.016655
collabor,0.012685
combin,0.007875
commun,0.014443
complement,0.016284
complet,0.007628
concept,0.007707
concern,0.007754
confer,0.010872
confus,0.012431
connecticut,0.020386
conserv,0.043853
consid,0.006441
constraint,0.027426
construct,0.034211
continu,0.006692
control,0.014676
cooper,0.010556
cours,0.019252
crc,0.019895
creat,0.006755
creation,0.010053
curriculum,0.051326
cycl,0.011322
dairi,0.020334
decad,0.010040
decis,0.009312
defin,0.022739
definit,0.026200
degrad,0.031690
delft,0.025787
demonstr,0.009927
depth,0.014502
describ,0.006798
descript,0.010096
design,0.170364
develop,0.005523
disciplin,0.010177
distinguish,0.009805
disturb,0.031020
doctor,0.013181
doi,0.014622
drink,0.016379
earli,0.006650
ecoengin,0.035972
ecolog,0.676680
econom,0.036385
ecosystem,0.256405
ecotechnolog,0.065216
eess,0.071945
elabor,0.013836
elect,0.009807
element,0.016914
emerg,0.017044
emphas,0.011670
energi,0.037236
engin,0.450408
engineeringa,0.032078
environ,0.026444
environment,0.032072
equival,0.010711
eros,0.017932
et,0.034291
evalu,0.023043
exampl,0.005955
experi,0.008177
explor,0.010131
extern,0.005199
farm,0.013267
featur,0.008992
fertil,0.013938
field,0.043570
fish,0.012406
florida,0.034910
flower,0.016147
focus,0.009256
follow,0.005688
forest,0.013674
formul,0.011386
framework,0.010187
gener,0.005109
genet,0.012077
goal,0.029341
greenhous,0.019759
group,0.012828
guid,0.020107
guidelin,0.015771
ha,0.018965
habitat,0.016584
hd,0.022337
homepag,0.084151
horticultur,0.022380
howard,0.049485
howev,0.011541
human,0.034253
idea,0.007980
identifi,0.008595
implement,0.019799
includ,0.019744
incorpor,0.019528
increas,0.013675
input,0.012882
institut,0.007524
integr,0.060065
intend,0.011007
interfac,0.015479
intern,0.012462
introduc,0.008341
introduct,0.009426
involv,0.006893
isbn,0.016811
john,0.016175
jorgensen,0.029582
journal,0.009145
jrgensen,0.082660
k,0.010780
kanga,0.031192
key,0.018096
knowledg,0.008942
land,0.008997
landscap,0.044470
landscapeaquat,0.035972
later,0.014140
learn,0.009986
level,0.007108
lewi,0.014921
lifestyl,0.016929
lifesupport,0.026573
link,0.005168
liter,0.013669
literatur,0.021241
lockwood,0.030150
man,0.010517
manag,0.025539
mani,0.005372
manipul,0.012727
matlock,0.067888
mean,0.013092
method,0.014723
microbi,0.019781
mistak,0.016360
mitsch,0.215836
model,0.007404
monitor,0.012854
movement,0.008196
multicel,0.029582
natur,0.050766
need,0.007145
netherland,0.013852
new,0.031857
nonrenew,0.047767
note,0.006853
number,0.005946
nutrient,0.016864
odum,0.072232
offer,0.008838
oper,0.007498
opportun,0.011227
oregon,0.040465
organ,0.006483
overview,0.011910
paradigm,0.014402
pc,0.019296
permacultur,0.026699
physic,0.007777
plan,0.018003
planetari,0.017040
plant,0.020639
pollut,0.015989
potenti,0.017649
practic,0.007292
predomin,0.015548
prerequisit,0.019715
press,0.008022
principl,0.032728
problem,0.014579
proceed,0.012473
process,0.006443
product,0.007103
profession,0.011044
program,0.008574
promot,0.009723
properti,0.008252
propos,0.008409
protect,0.009084
provid,0.012095
publish,0.007565
quantit,0.012663
r,0.009121
raton,0.023244
recent,0.014971
recognit,0.011848
refer,0.004322
refin,0.027121
reforest,0.026332
rel,0.007750
reli,0.010416
resourc,0.008751
restor,0.073351
role,0.007572
rural,0.013980
s,0.006131
satisfi,0.012823
scienc,0.036352
scientif,0.008698
se,0.035949
search,0.011064
select,0.009400
selfdesign,0.055769
selforganiz,0.035972
servic,0.016844
set,0.006696
sever,0.006271
similar,0.014368
sinc,0.012031
singular,0.015853
societ,0.016918
societi,0.067838
soil,0.013631
solut,0.041172
son,0.023038
sourc,0.007567
specif,0.007198
start,0.007615
state,0.015792
station,0.013143
step,0.010201
stormwat,0.028245
structur,0.007029
student,0.020479
studi,0.006357
subject,0.007653
substanti,0.011168
suburban,0.023244
suggest,0.008422
summar,0.015323
support,0.007153
sustain,0.047070
synthes,0.015634
t,0.010467
taken,0.008809
technic,0.010699
technolog,0.017348
tempor,0.015853
term,0.017054
terrestri,0.016379
test,0.019670
theori,0.035259
thesi,0.014888
thi,0.013499
time,0.010646
todum,0.035972
tradit,0.007575
treatment,0.011067
tu,0.022741
tub,0.026573
type,0.014466
typic,0.008071
undergo,0.013948
univers,0.018693
urban,0.037856
use,0.019663
util,0.043535
valu,0.023132
valuat,0.016644
van,0.013160
wa,0.004932
wastewat,0.025047
water,0.027840
websit,0.022752
webtext,0.071945
wetland,0.106460
wiki,0.020108
wiley,0.029443
wj,0.080489
work,0.005897
world,0.006099
wrote,0.010250
york,0.018531
