abil,0.002848
abiot,0.012913
abov,0.007951
abram,0.043739
absorb,0.004138
abund,0.004198
acceler,0.007963
accentu,0.014540
accept,0.018194
accord,0.008281
accur,0.003527
accus,0.004152
achiev,0.002604
act,0.011831
action,0.002543
activ,0.016526
actual,0.007949
ad,0.002642
adapt,0.006593
add,0.003947
addit,0.002094
address,0.006235
advic,0.004505
advoc,0.007107
aerob,0.006899
affect,0.010821
age,0.002592
agenc,0.003256
agenti,0.009872
agre,0.003121
aia,0.008496
aim,0.002956
air,0.003180
aitken,0.017913
akin,0.005541
albedo,0.016328
albeit,0.005233
aldo,0.007718
alekseevich,0.009712
alexand,0.003966
alexandrovich,0.008879
alga,0.005727
algal,0.007330
alien,0.009703
align,0.004472
allow,0.002058
alon,0.003540
alpha,0.009584
alreadi,0.003016
alter,0.003713
altern,0.007980
america,0.002901
american,0.007037
amherst,0.007054
ander,0.006407
andrei,0.006617
andrew,0.008409
ani,0.005473
anim,0.002897
anoth,0.003982
antagonist,0.012047
apollo,0.006476
appear,0.004796
appreci,0.004593
approach,0.009530
approxim,0.002821
archaean,0.008123
archiv,0.003810
arena,0.005722
argon,0.006871
argu,0.019279
arguabl,0.005045
argument,0.006956
aris,0.003377
arlington,0.007662
articl,0.004921
artifici,0.003496
ascrib,0.010936
asid,0.004721
asimov,0.013770
aspect,0.005442
assert,0.010669
assess,0.003526
assist,0.003086
associ,0.006067
astronaut,0.006306
atlant,0.004387
atmospher,0.154120
attain,0.004190
attempt,0.004723
attend,0.003950
attent,0.003376
attract,0.006662
audaci,0.007777
audubon,0.008496
august,0.003146
author,0.006993
autopoiet,0.008552
avail,0.002530
avatar,0.007212
awaken,0.005860
awar,0.003745
award,0.003649
backdrop,0.006724
background,0.003555
bacteri,0.005408
bacteria,0.019011
baird,0.007904
balanc,0.009830
barrier,0.004212
basalt,0.006829
base,0.009019
basic,0.002511
bateson,0.006899
bbc,0.004710
bbcproduc,0.010891
becam,0.004563
becaus,0.005637
becom,0.007993
befor,0.004264
began,0.004985
begin,0.004868
behav,0.004440
behavior,0.011713
belief,0.003341
believ,0.002581
benefici,0.004581
berri,0.006815
best,0.002751
better,0.005630
biocentr,0.009444
biocid,0.009872
biogeochem,0.020877
biogeochemicalclim,0.010891
biogeochemistri,0.015066
biolog,0.017764
biologist,0.018683
biospher,0.031227
biota,0.046083
biotic,0.005969
bird,0.004261
black,0.006738
bloom,0.006188
bolster,0.006037
book,0.018980
booklength,0.008083
bowerchalk,0.010891
breadth,0.005929
briefli,0.004630
bring,0.006206
broad,0.003353
broadli,0.004178
brought,0.003077
budget,0.003907
built,0.003112
ca,0.004591
calcium,0.016485
california,0.007659
callicott,0.009712
cambrian,0.006857
cambrianprecambrian,0.010891
came,0.002733
campu,0.005923
canada,0.003581
cancel,0.004736
candid,0.003851
carbon,0.036675
carbonac,0.008737
carbonifer,0.007609
care,0.003140
carri,0.002695
catherin,0.005955
caus,0.006694
causal,0.004655
ce,0.004581
ceas,0.004223
cell,0.003595
centauri,0.016590
center,0.002666
central,0.004687
centuri,0.012881
cerberu,0.009329
certain,0.004576
chalk,0.007394
champion,0.010381
chang,0.024505
chapman,0.012047
chapter,0.003896
charact,0.003455
characterist,0.002881
charcoal,0.006583
charg,0.003226
cheap,0.005180
chemic,0.022285
chemist,0.004805
chief,0.003481
chiron,0.008956
chlorin,0.006037
christoph,0.004381
cid,0.017758
circul,0.013124
cl,0.006507
claim,0.020304
clanci,0.008672
clarifi,0.005042
classic,0.002762
claw,0.014279
climat,0.024991
climatologist,0.008249
clip,0.006271
close,0.004474
closur,0.005399
cloud,0.014347
coal,0.004875
coauthor,0.005733
coccolithophor,0.009712
coccolithophorid,0.016885
codevelop,0.008123
codirector,0.009224
coevolut,0.013858
coevolutionari,0.008249
coevolv,0.023613
cohen,0.005504
collabor,0.003840
collect,0.004878
coloni,0.003457
colour,0.004772
combat,0.004389
combin,0.011921
combust,0.005778
common,0.002021
commun,0.015305
compens,0.004226
competit,0.009864
complet,0.002309
complex,0.012234
compos,0.003172
composit,0.027733
compound,0.003768
compris,0.003420
comput,0.002770
concentr,0.016362
concept,0.011668
concert,0.005638
conclud,0.003420
conclus,0.003726
condens,0.004838
condit,0.023398
confer,0.036209
conflagr,0.008496
connect,0.002753
conscious,0.008519
consequ,0.005687
conserv,0.006638
consid,0.009751
consist,0.002238
consolid,0.004390
constant,0.009973
consumpt,0.003900
contain,0.007197
contemporari,0.006542
contend,0.004820
content,0.003299
context,0.002941
continu,0.006078
contradict,0.004466
contrari,0.004373
contrast,0.002824
contribut,0.004908
control,0.008887
converg,0.004405
convers,0.003450
cool,0.009369
cooper,0.003196
coordin,0.003544
copernican,0.006652
coral,0.005527
corporatemilitari,0.010891
correl,0.003897
correspond,0.003035
counterbalanc,0.015678
coupl,0.007739
cours,0.005829
cover,0.002753
creat,0.008181
creatur,0.010199
credibl,0.010409
cretac,0.014209
critic,0.029518
criticis,0.019688
critiqu,0.004248
crossfir,0.008956
crust,0.022277
cultur,0.002514
current,0.004281
cybernet,0.005975
cycl,0.010284
d,0.008121
daisi,0.094718
daisyworld,0.076241
damag,0.003608
danger,0.003928
dark,0.004324
darwin,0.009359
darwinian,0.025516
data,0.002668
david,0.008911
dawkin,0.020063
dead,0.008384
decad,0.003039
decomposit,0.005459
dedic,0.004017
defend,0.003741
defens,0.003670
defin,0.004590
dega,0.009444
degre,0.002738
demonstr,0.006011
depart,0.002932
depend,0.002206
depict,0.004171
deposit,0.015836
describ,0.002058
desicc,0.007439
design,0.004912
desir,0.003147
destabilis,0.007777
destruct,0.003957
detect,0.014689
determin,0.002322
detriment,0.010990
develop,0.005017
devic,0.003737
devonian,0.007485
did,0.004964
diego,0.005664
differ,0.008864
differenti,0.003386
difficult,0.002916
difficulti,0.003611
dimethyl,0.007747
dioxid,0.019655
direct,0.008882
dirg,0.010277
disciplin,0.003081
disciplinari,0.006180
discuss,0.002728
disequilibrium,0.007070
disprov,0.005778
dissolut,0.005039
dissolv,0.004153
distinguish,0.002968
divers,0.003216
doe,0.006788
donald,0.014144
doolittl,0.035516
dr,0.020745
drama,0.005648
dramat,0.003776
dri,0.004380
du,0.004726
dure,0.015400
dynam,0.012541
e,0.002709
earli,0.010068
earlier,0.002975
earth,0.167524
earthris,0.009872
ecolog,0.015176
econom,0.002203
ecosystem,0.022833
edg,0.008785
effect,0.009779
effort,0.002788
eighteenth,0.005145
element,0.007681
elev,0.004492
elsewher,0.004150
emerg,0.018062
emiliania,0.010891
empir,0.002809
enabl,0.006385
end,0.004402
endosymbiot,0.007310
energi,0.014092
entelechi,0.009570
entiti,0.003416
entrepreneur,0.005070
entropi,0.005464
environ,0.064052
environment,0.035605
environmentar,0.010891
epoch,0.005749
equat,0.003348
equilibrium,0.021039
equival,0.003243
eros,0.005429
erupt,0.005027
especi,0.004675
essenti,0.002798
establish,0.002148
ethic,0.007411
ethicist,0.007439
eukaryot,0.011091
europ,0.002730
evalu,0.003488
event,0.015720
eventu,0.005723
evid,0.021963
evolut,0.032689
evolutionari,0.011900
evolv,0.016523
examin,0.006302
exampl,0.012622
exceed,0.004228
exceedingli,0.006899
excess,0.003890
exist,0.008008
expans,0.006794
experi,0.007427
explain,0.013551
explan,0.007088
explor,0.003067
express,0.005217
extend,0.002655
extern,0.003148
extrem,0.005776
fact,0.017894
factor,0.002552
fall,0.002748
fals,0.004083
fantasi,0.017102
far,0.002730
farfromequilibrium,0.009712
faster,0.004200
favor,0.006650
favour,0.007918
februari,0.003271
feedback,0.063558
fellow,0.004552
fever,0.005738
fiction,0.008588
field,0.013192
film,0.024499
final,0.007812
firecaus,0.010891
firmli,0.005262
fix,0.003195
fixat,0.006212
flesh,0.006003
floor,0.009794
flourish,0.008862
flow,0.003170
fluctuat,0.004495
focu,0.002953
follow,0.005166
forc,0.006473
ford,0.011401
foresight,0.013980
forest,0.004140
form,0.019747
format,0.008809
formul,0.017238
foundat,0.008422
fourth,0.007512
framework,0.003084
frequenc,0.004114
fulli,0.003245
function,0.006612
fungi,0.005211
futur,0.002622
g,0.002912
ga,0.003622
gaia,0.756624
gaiacoeveolutionari,0.010891
gaian,0.102774
gaiasupport,0.010891
gaiathat,0.010891
game,0.033249
gamechang,0.010277
gase,0.024000
gaseou,0.006052
gather,0.003753
gave,0.006265
gayuh,0.010891
ge,0.006466
gea,0.010891
gener,0.007735
genom,0.004889
geochemist,0.008442
geochemistri,0.006561
geolog,0.028800
geophys,0.028166
geophysiolog,0.009444
georg,0.006205
geoscienc,0.006369
gerard,0.006342
giant,0.004707
giffin,0.010891
given,0.002159
global,0.034308
goal,0.005922
goddess,0.018177
gold,0.011231
gondwana,0.007747
gould,0.019222
grand,0.004181
grandmoth,0.007439
gray,0.005371
great,0.002426
greedi,0.007558
greek,0.012194
greenhous,0.011965
group,0.003884
grow,0.002760
growth,0.008175
guid,0.003043
gulf,0.009740
gyuh,0.010891
ha,0.040195
habit,0.018258
hamilton,0.005343
happen,0.003402
heavi,0.003720
heavili,0.003470
heinz,0.006712
held,0.010181
help,0.014141
henc,0.003359
hi,0.038607
high,0.002179
higher,0.002559
highli,0.002834
histori,0.005379
holist,0.011063
homeostasi,0.046320
homeostat,0.047424
hostil,0.004464
hot,0.009481
howev,0.017472
hsue,0.010891
huge,0.004003
human,0.010370
humanoid,0.006857
humboldt,0.006133
huronian,0.009224
hutton,0.006652
huxleyi,0.010891
hydrospher,0.019400
hypothes,0.012843
hypothesi,0.251253
hypothesis,0.007231
ice,0.004696
idea,0.019330
igneou,0.007087
ignor,0.003734
immedi,0.003164
impact,0.008851
implic,0.003751
import,0.003672
imposs,0.003640
imprecis,0.006675
impress,0.004394
improv,0.007947
includ,0.011956
incomplet,0.004691
increas,0.020702
indigen,0.004292
individu,0.011103
inevit,0.004743
influenc,0.028455
influenti,0.006925
influx,0.005555
initi,0.018713
inorgan,0.010066
inspir,0.003562
instanc,0.002915
integr,0.002598
intellig,0.003359
intensifi,0.005277
intent,0.007246
interact,0.010744
interlink,0.006959
intern,0.001886
internet,0.003531
interpret,0.005744
intervent,0.003906
interview,0.008903
introduc,0.002525
introduct,0.005708
invas,0.003925
invers,0.004546
investig,0.006033
involv,0.004174
iodin,0.006561
ion,0.009337
isaac,0.004659
issu,0.002310
ivanovich,0.007690
j,0.005407
jame,0.036436
jasper,0.007289
jay,0.011533
jet,0.005266
john,0.002448
join,0.003202
journal,0.005538
june,0.003136
jurass,0.007394
just,0.002510
k,0.003263
kennedi,0.005727
kenneth,0.004830
kept,0.003879
keynot,0.007583
kidney,0.017674
kingsman,0.010891
kirchner,0.058067
kleidon,0.010277
know,0.003261
knowledg,0.002707
known,0.012591
kostitzin,0.010891
kropotkin,0.007509
laboratori,0.003652
lack,0.008233
laid,0.004062
land,0.005448
languag,0.002705
lapeni,0.010891
larg,0.001896
larger,0.002841
late,0.002492
later,0.010703
layer,0.004143
lead,0.015032
leav,0.003048
led,0.004646
length,0.003571
leopold,0.006044
level,0.008609
lewi,0.004517
lichen,0.007070
lie,0.003526
life,0.099489
lifeform,0.006899
lifestream,0.039491
light,0.005934
like,0.009612
limeston,0.006148
limit,0.002198
line,0.002576
linear,0.003829
link,0.004695
liquid,0.003858
liter,0.004138
lithospher,0.006561
live,0.051198
local,0.002437
lock,0.004661
london,0.003030
long,0.009347
longer,0.002968
longstand,0.005201
longtim,0.012267
look,0.008915
loop,0.014868
loos,0.004474
lovejoy,0.008083
lovelock,0.309910
low,0.002758
lynn,0.024353
machin,0.006950
magnesium,0.006156
main,0.006835
mainstream,0.004367
maintain,0.022586
mainten,0.008635
major,0.001909
make,0.005490
mani,0.013013
manual,0.004546
manufactur,0.003432
mar,0.009850
march,0.005969
margin,0.003944
marguli,0.051315
mari,0.004157
marinoanvarang,0.010891
martin,0.007618
mason,0.006229
massachusett,0.004719
massachusettsamherst,0.010891
mathemat,0.008487
matter,0.008121
maximis,0.006426
mean,0.005946
meant,0.007382
meanwhil,0.004351
measur,0.002357
mechan,0.045181
medal,0.005284
medea,0.008672
mediterranean,0.009415
meet,0.002911
meier,0.015116
memor,0.005975
menac,0.006944
mention,0.006968
mep,0.015271
met,0.003680
metal,0.003745
metaphor,0.055675
meteorolog,0.005277
methan,0.036227
methanogen,0.016246
method,0.002228
mexico,0.004490
mg,0.006583
michael,0.006624
microb,0.006118
microbiologist,0.021751
microforc,0.010891
microorgan,0.005375
midi,0.008956
midocean,0.007416
million,0.002826
millionair,0.007558
miner,0.003984
mission,0.003588
model,0.020176
moder,0.004122
modern,0.006476
modif,0.004277
modifi,0.003511
mother,0.008295
motiv,0.003516
movement,0.009926
movi,0.009844
multipl,0.002768
mysteri,0.004750
mythic,0.005996
na,0.005442
nation,0.001994
natur,0.017292
naturalist,0.009805
navi,0.004307
nd,0.003348
near,0.005918
nearhomeostat,0.010891
nearli,0.003134
necessari,0.002868
need,0.006490
neg,0.009362
neopagan,0.007175
new,0.017683
news,0.003928
newton,0.004543
nitrogen,0.009935
nobel,0.004189
nobl,0.004679
nongaian,0.010891
nonlinear,0.004930
nonscientist,0.008206
normal,0.002868
northern,0.003364
note,0.004149
noth,0.003808
novel,0.007966
novelist,0.006204
nowaday,0.005446
nowher,0.006196
nuclei,0.005176
number,0.005401
nvrpa,0.010891
o,0.003795
obey,0.005135
object,0.002460
observ,0.007125
observatori,0.005564
occur,0.002286
ocean,0.048145
octob,0.003112
odd,0.005077
offer,0.005352
ogl,0.010277
onc,0.002689
ongo,0.003938
onli,0.013253
oper,0.004540
oppon,0.004470
opposit,0.002961
optim,0.019086
optimis,0.006640
optimum,0.005975
order,0.001983
organ,0.054965
organel,0.006279
organis,0.003407
organism,0.006700
origin,0.009972
output,0.003756
outsid,0.005490
overlap,0.004000
overlook,0.011119
overview,0.003606
oxygen,0.052582
oxygenenrich,0.010891
oxygenrich,0.008442
ozon,0.006315
page,0.003528
pandora,0.008206
paper,0.002969
parallel,0.003729
park,0.004206
particip,0.005678
particul,0.006436
particular,0.006758
pedospher,0.007231
peer,0.005018
peopl,0.001984
perceptu,0.005755
perform,0.002530
period,0.012830
permotriass,0.010058
perpetu,0.004875
persist,0.008161
personif,0.007583
personifi,0.007270
petrochem,0.006605
phanerozo,0.008496
phantom,0.007139
phase,0.003460
phenomena,0.010308
philosoph,0.006317
philosophi,0.003064
photograph,0.004953
photosynthet,0.006871
physic,0.007064
phytoplankton,0.007533
pic,0.008083
pictur,0.004028
pie,0.007289
pioneer,0.007519
piotr,0.008295
place,0.006105
plain,0.004703
plan,0.005451
planet,0.106166
planetari,0.041275
plant,0.015622
plausibl,0.005379
play,0.002598
plot,0.008821
point,0.008350
polici,0.002663
popul,0.012803
popular,0.012874
posit,0.006398
possibl,0.002104
potassium,0.005722
potenti,0.005343
power,0.002111
pragmat,0.005030
pre,0.005996
precambrian,0.007777
preced,0.003909
precipit,0.014237
predict,0.006039
prefer,0.003160
prefix,0.005545
prepar,0.003347
presenc,0.012483
present,0.010317
presid,0.002984
prevail,0.004365
previous,0.003146
primal,0.006857
primari,0.002724
primarili,0.002820
princip,0.006447
principl,0.012386
prize,0.003848
process,0.035117
produc,0.012883
product,0.004301
professor,0.003688
program,0.005192
promin,0.003236
promot,0.002943
pronounc,0.004985
proof,0.004207
properti,0.007496
propon,0.004324
propos,0.020369
propuls,0.006446
proterozo,0.008342
prove,0.003184
proven,0.004358
provid,0.007324
provok,0.005281
public,0.004156
publish,0.004581
purpos,0.005368
pursu,0.007506
qualiti,0.003074
quantiti,0.006722
quest,0.005197
question,0.007774
quip,0.007937
quit,0.003487
race,0.008108
rafail,0.010891
rainbow,0.006426
rais,0.003043
rang,0.002477
rate,0.002557
reach,0.002659
reactiv,0.004930
readili,0.004478
real,0.002716
realiti,0.003560
reason,0.002349
receiv,0.005001
recent,0.011332
recogn,0.005612
recognis,0.008081
record,0.005517
reduc,0.007438
reduction,0.006605
reef,0.005744
refer,0.007852
refin,0.004105
reflect,0.002812
regard,0.005022
region,0.002343
regul,0.030985
regular,0.003585
reject,0.009679
rel,0.004693
relat,0.001764
relationship,0.002498
relev,0.003423
reli,0.003153
reliabl,0.003913
religion,0.003333
remain,0.002164
remov,0.006043
repres,0.002146
requir,0.006181
research,0.008493
reserv,0.003480
reshap,0.006081
resist,0.003391
resourc,0.002649
respect,0.002489
respond,0.003529
respons,0.011350
rest,0.003066
result,0.014585
retain,0.003441
reveal,0.006885
review,0.002932
richard,0.006466
richmond,0.006899
ridg,0.005733
rise,0.005267
river,0.007156
rizpolozhenski,0.010891
robert,0.002877
rock,0.024592
role,0.006878
root,0.006612
roughli,0.003671
run,0.002876
russia,0.003846
russian,0.007663
s,0.007425
said,0.005378
salin,0.082095
salt,0.017936
san,0.004156
save,0.003716
scale,0.011849
schneider,0.006776
sci,0.007104
scienc,0.022012
scientif,0.044774
scientist,0.032921
screen,0.009666
sea,0.016697
search,0.006700
seawat,0.019026
second,0.004296
secret,0.004038
seek,0.002936
seen,0.002568
select,0.028460
selfawar,0.006306
selfinterest,0.011833
selforgan,0.006360
selfregul,0.058020
semisenti,0.010891
senior,0.004338
sens,0.005386
sentienc,0.007583
separ,0.002391
septemb,0.003156
seri,0.005214
servic,0.002550
session,0.004979
set,0.008109
sever,0.001898
shape,0.006239
shell,0.008810
shift,0.003171
shock,0.004474
short,0.002790
sid,0.016091
signatur,0.005331
signific,0.011626
significantli,0.003359
simearth,0.010891
similar,0.004350
similarli,0.003450
simpl,0.002894
simpli,0.005944
simul,0.007915
sinc,0.009107
singl,0.009750
sink,0.005425
situat,0.002804
skeptic,0.009595
sky,0.005180
slogan,0.006229
slowli,0.004198
small,0.004457
smog,0.008249
snowbal,0.014075
social,0.002317
societi,0.006846
sodium,0.011091
soil,0.016509
solid,0.007829
solut,0.003116
sometim,0.002371
soul,0.004703
sourc,0.006873
south,0.002852
soviet,0.003945
space,0.008425
spain,0.003870
speaker,0.014033
speci,0.010050
specif,0.008717
specul,0.003789
speech,0.003924
spell,0.005027
spinoff,0.013500
spirit,0.008231
spoke,0.005027
sponsor,0.009133
st,0.005872
stabil,0.030573
stabilis,0.006204
stabl,0.014339
staley,0.009712
start,0.009222
state,0.028688
statement,0.010032
static,0.009319
steadi,0.004668
steadili,0.004805
stephen,0.012138
stimul,0.004076
stori,0.003692
stream,0.004365
strength,0.011083
stress,0.003735
strong,0.010587
strongli,0.003510
structur,0.006384
student,0.003100
studi,0.005775
sturtian,0.010277
subsequ,0.002842
subterranean,0.007533
suffici,0.003367
suggest,0.028050
suitabl,0.004043
sulfat,0.006518
sulfid,0.006180
sulfur,0.005355
sun,0.008081
superorgan,0.007871
support,0.017326
sure,0.004991
surfac,0.029684
surround,0.003335
surviv,0.006283
suspend,0.004527
symbiosi,0.006687
symbiot,0.006315
symbol,0.006613
symposium,0.005830
synergist,0.007718
taint,0.007485
taken,0.010668
tech,0.006188
teleolog,0.024324
teleologicala,0.010891
temperatur,0.044188
temperatureeffect,0.010891
tend,0.011964
term,0.006884
terrestri,0.019836
terrorist,0.005513
test,0.005955
testabl,0.006009
th,0.002088
thank,0.005009
theme,0.008068
theoret,0.002986
theori,0.017080
thereaft,0.004762
therefor,0.012379
thermoacidophil,0.009872
thermodynam,0.004675
thermohalin,0.007690
thi,0.034061
thing,0.005796
thoma,0.009775
thought,0.002581
threshold,0.005074
tightli,0.005706
time,0.020951
titan,0.006351
tobi,0.007839
today,0.005233
todd,0.006360
toler,0.004608
tom,0.004997
tonn,0.006023
topic,0.002890
toy,0.005962
trace,0.003492
tradit,0.004587
transfer,0.003117
transplant,0.006081
transport,0.003122
troy,0.006899
true,0.002949
turn,0.007554
twentieth,0.008595
tyler,0.014314
type,0.008760
tyrrel,0.018257
uk,0.003338
ukrainian,0.006315
ultraviolet,0.005690
unambigu,0.006156
uncomfort,0.006815
unconsci,0.005446
undergo,0.004223
understand,0.017307
understood,0.003418
undertaken,0.004693
undirect,0.007662
uninhabit,0.005755
union,0.005413
unit,0.001837
univers,0.011319
unknown,0.003771
unrecogn,0.007289
unscientif,0.006700
untest,0.007609
use,0.016372
usual,0.002192
va,0.006332
valencia,0.007662
valentin,0.006871
valu,0.002334
vari,0.002685
variabl,0.006659
variat,0.003414
variou,0.008294
vasilevich,0.009039
vectori,0.008672
vent,0.006417
venu,0.005513
veri,0.004160
vernadski,0.024369
version,0.019117
video,0.016036
view,0.014007
vii,0.011082
villag,0.004162
virginia,0.005247
viru,0.005550
vision,0.007890
visionari,0.006885
vladimir,0.015550
volcan,0.005225
volk,0.016885
volum,0.006240
von,0.003694
w,0.006112
wa,0.062728
wald,0.007485
want,0.003362
warm,0.013965
water,0.005619
watson,0.016288
waveform,0.007462
way,0.009738
wayback,0.006843
weak,0.003618
weaker,0.005187
weakest,0.007121
weakli,0.006229
weather,0.008933
west,0.003127
western,0.002740
whatev,0.004484
white,0.006916
wide,0.002346
wider,0.004147
widespread,0.003499
wilder,0.006180
wildfir,0.007807
william,0.008756
wiltshir,0.008206
wollaston,0.007747
work,0.016071
world,0.014773
wright,0.005404
write,0.002848
wrong,0.008568
wrote,0.006206
year,0.003676
york,0.002805
