abl,0.007008
abod,0.019329
abound,0.018159
abov,0.007103
acacia,0.109963
academi,0.010688
accord,0.011096
accur,0.009453
acid,0.011179
activ,0.011072
ad,0.007080
addit,0.011226
advantag,0.008612
african,0.009725
aggress,0.012363
agricultur,0.016494
aid,0.008323
alga,0.015350
allomeru,0.055086
allot,0.016853
alway,0.022383
amazonian,0.020393
ammonia,0.016033
andor,0.009709
anemon,0.147662
anemonefishanemon,0.027543
angier,0.027543
anim,0.023298
annual,0.008523
anoth,0.016009
ant,0.210798
antipest,0.027543
aphid,0.043124
appear,0.006426
appli,0.005931
approach,0.006385
arbuscular,0.023242
architectur,0.010465
area,0.005510
ascaniu,0.027543
aspect,0.007292
assembl,0.008661
associ,0.021680
assum,0.015373
attack,0.017891
attent,0.009047
avail,0.006782
avoid,0.008287
axaxth,0.027543
b,0.029397
bacteria,0.050951
bamathm,0.027543
bamathmright,0.027543
barter,0.016162
bascompt,0.082630
base,0.004834
bastolla,0.027543
bean,0.015547
becaus,0.015108
becom,0.005355
bee,0.015690
begin,0.006523
beginalignedfrac,0.022919
behavior,0.007848
behaviour,0.010315
belong,0.009453
beltian,0.027543
beneden,0.024722
benefici,0.012277
benefit,0.081187
best,0.007373
beta,0.013684
biodivers,0.013864
biolog,0.039673
bird,0.045682
bodi,0.020140
boran,0.048929
born,0.009450
bottlenos,0.022231
boucher,0.045839
bovin,0.019086
branch,0.007114
brazil,0.011955
bth,0.026029
bud,0.016807
bullhorn,0.027543
burchelli,0.027543
butterflyfish,0.027543
byproduct,0.014849
c,0.032014
capac,0.037153
captur,0.009200
carbohydr,0.031578
carri,0.028893
catch,0.013489
categoris,0.016924
caviti,0.016200
cellulas,0.024226
cercopithecu,0.055086
certain,0.006132
cfrac,0.096899
chaetodontida,0.027543
chang,0.005051
choic,0.008804
classic,0.007403
clean,0.026234
clear,0.008340
client,0.012904
close,0.029979
coadapt,0.024722
cob,0.023795
coeffici,0.038797
coevolut,0.037140
coincid,0.012054
collaps,0.059228
commens,0.019702
common,0.016256
commun,0.035159
communitywid,0.024003
companion,0.012925
compet,0.009239
competit,0.035248
compon,0.023153
compound,0.020197
concept,0.006254
condit,0.050166
connochaet,0.027543
consequ,0.015241
conserv,0.008896
consid,0.005226
consist,0.005998
constraint,0.011127
consumerresourc,0.025003
context,0.007883
contin,0.011548
contrast,0.007570
contribut,0.006577
control,0.005954
convert,0.018271
cooper,0.008565
coordin,0.009500
cordia,0.026029
corn,0.028030
cornstalk,0.027543
cost,0.007879
cours,0.007811
creat,0.005481
critic,0.013184
croom,0.022919
d,0.072553
david,0.007961
declin,0.008509
decreas,0.026477
defend,0.010027
defens,0.009836
defin,0.012301
degre,0.007339
densiti,0.075707
depend,0.011827
describ,0.005516
destroy,0.009372
develop,0.013446
devil,0.015874
diagram,0.012328
die,0.008587
differ,0.028507
difficult,0.007816
digest,0.027386
disc,0.016316
discoveri,0.016788
diseas,0.009388
dispers,0.036901
display,0.010185
displaystyl,0.061598
distanc,0.009543
divers,0.008619
dmdtrmleftcfrac,0.027543
dndtnleftrcncfrac,0.027543
dndtnrcnbeta,0.027543
dndtrnleftcfrac,0.027543
doe,0.012128
dog,0.013416
doiannurev,0.025649
doiel,0.027543
doinatur,0.023416
doipna,0.020393
dolphin,0.017385
domest,0.009286
domin,0.007375
driven,0.010433
dure,0.005159
duroia,0.055086
dwell,0.015857
e,0.007262
earshot,0.027543
easi,0.010958
eat,0.025183
ecolog,0.061008
ecosystem,0.036715
ectoparasit,0.045839
editor,0.011486
effect,0.010483
effici,0.008448
elacatinu,0.026459
element,0.006862
encount,0.031882
energycontain,0.027543
engag,0.008544
enhanc,0.009994
entir,0.006998
environ,0.007152
environment,0.017349
equat,0.053844
equival,0.026074
equu,0.024464
essenc,0.012188
ethiopia,0.015264
evolut,0.026282
exact,0.010293
exactli,0.010570
examin,0.008445
exampl,0.053156
exchang,0.015254
exclus,0.009217
exist,0.016096
expens,0.019273
experi,0.013270
explain,0.014527
exploit,0.010044
expos,0.010808
fabacea,0.024464
facilit,0.029182
fact,0.013701
factor,0.013682
facult,0.019702
fall,0.007365
famili,0.022414
far,0.007316
farm,0.010765
featur,0.007297
februari,0.008766
feed,0.074320
ferrera,0.025310
fertil,0.011310
fish,0.040268
fishermen,0.017198
fit,0.019647
fix,0.017128
flee,0.013836
fleshi,0.023076
flora,0.014585
flower,0.065514
follow,0.004615
food,0.091344
foodbodi,0.027543
forag,0.016397
forc,0.005783
forest,0.033287
form,0.008820
formic,0.021770
fortuna,0.022769
foster,0.012334
frac,0.025823
framework,0.008266
free,0.006590
freeliv,0.020536
frequent,0.008111
frugivori,0.025649
fruit,0.011433
function,0.047258
fungi,0.027934
fungu,0.018861
g,0.007805
garden,0.025809
gener,0.008291
genu,0.043721
gobi,0.021879
gobiosoma,0.027543
graph,0.025674
greater,0.014534
group,0.041636
grow,0.007398
growth,0.029212
guid,0.008157
gut,0.016542
h,0.040074
ha,0.023083
habitat,0.026913
hamilton,0.014319
handl,0.062949
happen,0.009118
harsh,0.054913
head,0.007448
helm,0.019483
help,0.012633
herbivor,0.017095
hi,0.005173
higher,0.006859
hirsut,0.053911
hirtella,0.027543
histor,0.006481
holl,0.023795
homo,0.015124
honey,0.017412
honeydew,0.026029
honeyguid,0.053911
host,0.010550
hour,0.010138
howev,0.014047
human,0.038911
hungri,0.018905
ii,0.037755
immun,0.012629
import,0.009841
improv,0.014200
includ,0.020026
incorpor,0.007923
increas,0.033289
increasingli,0.017011
indefinit,0.013556
indirect,0.025072
individu,0.035707
infest,0.019379
initi,0.006269
inorgan,0.013489
insid,0.009676
instantan,0.030276
instead,0.006757
interact,0.093585
interspecif,0.041527
intervent,0.010469
intestin,0.016628
intimaci,0.019483
intraspecif,0.021273
intrins,0.024432
introduc,0.013536
invers,0.012183
involv,0.011186
isbn,0.006820
isnt,0.015657
isoclin,0.076948
item,0.042334
j,0.050721
jame,0.008137
jordano,0.027543
juli,0.008333
k,0.069979
kakamega,0.027543
keeler,0.023242
kenya,0.032102
key,0.014683
kill,0.009524
kind,0.007685
km,0.010858
known,0.009641
ladybug,0.025310
lag,0.015017
laguna,0.021664
land,0.007300
languag,0.007250
larg,0.010167
larger,0.007614
lead,0.011510
leafi,0.022231
leav,0.032675
legumin,0.025310
lethal,0.016628
letter,0.009522
lever,0.017330
lice,0.020763
like,0.005152
limit,0.005890
linear,0.010263
lipidrich,0.027543
list,0.005363
live,0.031184
local,0.019599
logist,0.027839
london,0.008121
long,0.006262
lotkavolterra,0.046153
lous,0.024003
luqu,0.025649
m,0.131068
maiz,0.015874
make,0.009809
mani,0.017438
manner,0.009308
mathemat,0.030329
mean,0.015935
measur,0.012634
mechan,0.007122
melin,0.027543
migrat,0.010305
mimicri,0.019483
minim,0.020359
miti,0.025003
mixedspeci,0.080867
mk,0.018650
mkbeta,0.027543
mkrightptfrac,0.027543
mllerian,0.024722
mode,0.010858
model,0.060080
modifi,0.018822
monkey,0.015823
mullet,0.024003
mutual,0.325567
mutualist,0.399848
mxm,0.026459
mycorrhiz,0.043124
mycorrhiza,0.023416
myrmelachista,0.027543
n,0.129927
natali,0.022489
nation,0.005344
natur,0.015447
ne,0.016297
neanderth,0.018303
nectar,0.021008
need,0.017394
neg,0.008363
neotrop,0.021367
nest,0.089633
netus,0.027543
network,0.056443
new,0.021541
nitrogen,0.039941
nkbeta,0.027543
nkrightendalign,0.027543
nontaxonom,0.027543
norm,0.011187
note,0.005560
notion,0.009125
number,0.014475
nutrient,0.013684
oblig,0.010651
occup,0.010050
occur,0.012255
olesen,0.026459
open,0.006603
order,0.005315
organ,0.015782
outsid,0.007357
overabund,0.024003
p,0.014725
parasit,0.042831
particularli,0.006764
partnership,0.012139
pascualgarca,0.027543
pass,0.014986
patch,0.015756
peculiar,0.015017
peopl,0.010635
perform,0.006780
period,0.011461
pest,0.016924
phagophil,0.027543
phenomenon,0.009933
phosphat,0.014913
physic,0.006311
pierrejoseph,0.020536
plant,0.125607
plantanim,0.026955
plantpollin,0.052918
play,0.006963
point,0.016784
pollen,0.033299
pollin,0.266939
pomacentrida,0.027543
popul,0.041174
pose,0.023496
posit,0.017148
possibl,0.005641
practic,0.005917
predat,0.061388
predatorprey,0.019876
premis,0.012974
presenc,0.008363
present,0.016590
primarili,0.007560
problem,0.005915
problemat,0.013329
proceed,0.010121
process,0.010457
produc,0.017264
proport,0.009144
propos,0.006823
protect,0.029485
provid,0.039257
proxim,0.025567
pseudomyrmex,0.025649
qualit,0.012823
quantifi,0.012427
question,0.006945
quit,0.009346
r,0.044406
rainforest,0.033169
rare,0.009102
rate,0.034270
read,0.006092
readi,0.012891
reason,0.006295
receiv,0.013403
recov,0.010797
recoveri,0.011677
reduc,0.019935
refer,0.017538
regularli,0.011940
relat,0.004729
relationship,0.140606
reli,0.008452
remain,0.005801
repres,0.011507
reproduc,0.011900
research,0.005690
resourc,0.028404
respect,0.006670
respond,0.009460
respons,0.048671
restrict,0.016259
result,0.004886
retriev,0.010421
return,0.028395
review,0.007859
rhizobia,0.024003
root,0.008860
rout,0.010560
s,0.009949
samespeci,0.055086
sap,0.017923
sapien,0.016716
satur,0.111363
scatter,0.012953
scheffer,0.024464
school,0.007136
schumanni,0.027543
scienc,0.005899
sea,0.008949
search,0.035912
second,0.005756
seed,0.049782
seedhead,0.027543
select,0.007627
separ,0.006408
serengeti,0.023600
servic,0.020502
serviceresourc,0.110173
serviceservic,0.101240
set,0.005433
shade,0.015979
share,0.006835
shatter,0.017673
sheath,0.019086
shelter,0.027351
shrink,0.015380
similar,0.034975
simpl,0.015513
simplest,0.012451
simultan,0.020460
sister,0.013473
slope,0.042280
small,0.005973
soil,0.022121
sometim,0.006354
sp,0.059859
space,0.007526
speci,0.251387
special,0.006105
specif,0.005840
spread,0.008628
stabil,0.018208
stabl,0.009607
start,0.006179
stay,0.010685
sting,0.020124
straightforward,0.015454
strategi,0.009093
strict,0.011343
strong,0.007093
structur,0.022814
studi,0.005159
substanti,0.009062
sudden,0.013976
suddenli,0.014482
sugarrich,0.026955
suggest,0.006834
suppli,0.007958
surviv,0.016839
symbiogenesi,0.024226
symbiosi,0.053770
symbiot,0.067697
systemat,0.009326
t,0.059455
tabl,0.009395
talk,0.010504
taurinu,0.026459
tend,0.008016
tentacl,0.043985
term,0.032289
terrestri,0.013290
th,0.011195
theori,0.005722
therebi,0.010104
therefor,0.013270
thi,0.040164
thorn,0.035052
thought,0.013837
threat,0.010239
thu,0.005706
thwart,0.017303
time,0.043192
tissu,0.011796
togeth,0.013463
toler,0.012351
trace,0.009360
trade,0.014123
tradit,0.012294
transvers,0.016924
travel,0.008619
treatment,0.008980
tree,0.070390
trelli,0.023795
tribesmen,0.020393
trim,0.019759
turn,0.006748
twospeci,0.027543
type,0.058692
u,0.011390
unabl,0.010144
unbound,0.017070
ungul,0.041850
unit,0.009847
unrealist,0.015979
use,0.015955
van,0.010678
variabl,0.008923
varieti,0.014659
veget,0.011653
veri,0.011149
versa,0.013854
vice,0.011301
vicin,0.015756
visual,0.030899
vital,0.010902
vs,0.023573
wa,0.008005
wast,0.011710
way,0.015659
wellknown,0.011459
whistl,0.039753
wildebeest,0.023416
wither,0.018339
wright,0.072414
x,0.043217
xaxi,0.019329
yaxi,0.020463
york,0.007518
zebra,0.019646
zoochori,0.026955
