abl,0.006376
abstract,0.017765
acceler,0.019417
acid,0.010170
act,0.017307
action,0.012404
activ,0.010073
ad,0.038651
addit,0.015320
advantag,0.023506
aerat,0.020008
age,0.006321
aiken,0.020114
allow,0.005019
alon,0.008632
alreadi,0.014707
america,0.014148
american,0.005719
amu,0.018193
analyt,0.009202
ani,0.013346
anim,0.042392
anoth,0.004855
appear,0.005846
appli,0.005396
approxim,0.006879
apr,0.051243
aquacultur,0.017494
aquat,0.081615
aqueou,0.029725
area,0.015040
aris,0.008235
aromat,0.030707
artifici,0.008524
associ,0.004931
atom,0.008826
attack,0.008138
attribut,0.015693
avail,0.006170
averag,0.007539
b,0.006686
bacteri,0.026372
bacteria,0.034765
baoshan,0.026555
basic,0.006123
becaus,0.009163
befor,0.010396
believ,0.006295
besid,0.010413
bibliographi,0.008852
bind,0.010510
bingeman,0.026555
biofact,0.019439
biofoul,0.053110
biolog,0.043312
biomass,0.030750
biomolecul,0.015107
biophysicochem,0.053110
biotic,0.029107
bob,0.028316
bodi,0.012215
bound,0.009107
break,0.025170
britannica,0.012378
broader,0.010148
broken,0.030445
buffer,0.028548
bulk,0.010790
bush,0.012554
byproduct,0.054039
c,0.011650
cabaniss,0.026555
capabl,0.008027
capac,0.008450
carbohydr,0.014364
carbon,0.089419
carbonbas,0.017081
carolina,0.013735
catalysi,0.016553
caus,0.016323
cellular,0.011279
cellulos,0.031533
chang,0.018383
character,0.015463
characteris,0.024441
characterist,0.007026
chemic,0.007762
chemistri,0.008934
chlorin,0.044164
cho,0.016651
chung,0.019271
clam,0.018250
clog,0.059417
closer,0.010087
cn,0.015397
coal,0.011887
coin,0.008442
collect,0.005946
combin,0.005813
come,0.023323
common,0.004929
comp,0.020584
compar,0.012060
complex,0.011932
compon,0.014043
compos,0.015470
composit,0.008452
compost,0.038708
compound,0.119434
compris,0.008340
concept,0.005689
consid,0.014265
consider,0.006851
contain,0.017547
content,0.008045
continu,0.004940
contribut,0.005984
control,0.005417
convers,0.008411
cours,0.007106
creat,0.029923
current,0.010439
cutin,0.022746
cycl,0.025075
d,0.006600
daili,0.009536
day,0.006152
dead,0.010221
dec,0.016078
decad,0.007411
decay,0.056056
decompos,0.079302
decomposit,0.133114
definit,0.012894
degrad,0.011697
depend,0.016139
deposit,0.009653
depth,0.010705
deriv,0.006199
describ,0.005018
despit,0.006913
detect,0.026862
deterior,0.012008
detritu,0.018552
die,0.007812
differ,0.012967
differenti,0.008255
difficult,0.014222
discov,0.007180
disinfect,0.075561
disintegr,0.026665
disregard,0.014074
dissolv,0.020253
distribut,0.006727
divid,0.006465
document,0.007871
doe,0.005516
dom,0.035646
dont,0.011393
drastic,0.012205
dri,0.010679
drink,0.012091
earli,0.004909
earth,0.015413
easili,0.008409
ecosystem,0.033402
effect,0.100146
electronaccept,0.025058
electrondon,0.022746
electrophil,0.018617
emerg,0.006291
enabl,0.007784
encyclopdia,0.012732
energi,0.006872
engin,0.007074
environ,0.065071
environment,0.039459
enzymat,0.016366
equat,0.008164
essenti,0.006823
exampl,0.008792
exclus,0.008386
excret,0.015841
exist,0.009762
explain,0.006608
extra,0.011242
exud,0.020114
facil,0.009409
fact,0.006232
factor,0.012448
fall,0.006700
fastest,0.013860
fat,0.013442
fertil,0.010289
figur,0.007269
filter,0.012235
filtrat,0.017280
floor,0.011940
fluoresc,0.014304
fom,0.100232
forc,0.005261
forest,0.020189
form,0.020061
format,0.007159
fortner,0.026555
foundat,0.006844
freeli,0.011416
fresh,0.023581
friedrich,0.010736
function,0.010748
fungal,0.031436
fungi,0.012706
futur,0.006393
gener,0.015087
geochemistri,0.015997
geolog,0.020062
georg,0.007565
given,0.005264
green,0.027081
greg,0.015867
ground,0.007638
groundwat,0.099127
grow,0.013461
grown,0.010109
growth,0.006644
ha,0.031501
harm,0.010119
help,0.011493
hemicellulos,0.021303
heterogen,0.013196
hi,0.009413
high,0.005315
higher,0.012480
hoon,0.023335
howev,0.017040
httpgawaterusgsgoveduwaterdistributionhtml,0.026555
httpwaterusgsgovogwpubsofrgaorganichtm,0.026555
httpwwwawwarforgresearchtopicsandprojectstopicsnapshotaspxtopicorgan,0.026555
httpwwwsciencedailycomreleaseshtm,0.026555
httpwwwwaterncsueduwatershedssinfonorganicshtml,0.026555
huang,0.016458
hugh,0.012317
human,0.005057
humu,0.188949
hydrogen,0.010872
hydroxyl,0.016787
hyenmi,0.026555
hyung,0.024071
idea,0.011782
immobil,0.016930
import,0.017907
includ,0.010931
incorpor,0.007208
increas,0.030285
induc,0.010394
infiltr,0.014844
infrar,0.013555
input,0.047548
instantan,0.013772
intens,0.008717
intensifi,0.012867
interact,0.006549
intervent,0.009524
involv,0.010177
ion,0.011382
ir,0.014670
iupac,0.014973
jaehong,0.026555
jerri,0.014457
jeyong,0.026555
john,0.005970
joseph,0.008649
kerogen,0.021470
kim,0.014670
known,0.004385
ksu,0.024523
lake,0.020702
larg,0.004625
larger,0.027708
laura,0.016133
lead,0.015708
leaf,0.014230
leav,0.022295
leenheer,0.026555
leff,0.022039
legum,0.017407
level,0.010495
lhni,0.026555
life,0.016923
lignin,0.037780
likewis,0.010394
limit,0.010718
lipid,0.013822
litter,0.016930
littl,0.006716
live,0.028370
longer,0.007237
longterm,0.009234
look,0.007245
lot,0.010808
madey,0.026555
magnet,0.010301
magnitud,0.010826
main,0.005555
mainstream,0.010649
maintain,0.006118
major,0.009310
mani,0.011898
manur,0.073712
marin,0.010045
mass,0.007196
materi,0.116832
materialswast,0.026555
matter,0.442243
mauric,0.013085
measur,0.011494
mechan,0.019440
member,0.005598
membran,0.012425
mere,0.008632
metal,0.009132
method,0.027172
microbi,0.014603
microbiolog,0.013759
micrometr,0.018193
microorgan,0.013105
microscop,0.011328
migrat,0.018751
million,0.006892
min,0.015485
miner,0.048574
misunderstood,0.016753
mode,0.009878
moder,0.010052
moistur,0.015228
molecul,0.056849
molecular,0.009171
monitor,0.009489
movement,0.018152
n,0.047281
nanotub,0.018617
natur,0.070267
nd,0.008164
necessarili,0.008589
need,0.005274
neg,0.015218
nematod,0.033042
neutral,0.019209
new,0.007839
newli,0.009231
nicola,0.013145
nitrogen,0.024224
nmr,0.015892
nom,0.020114
nonliv,0.014791
north,0.006967
note,0.005059
notic,0.009959
nowabandon,0.026555
nuclear,0.008966
nucleophil,0.017005
nutrient,0.112046
nutrit,0.012604
observ,0.005791
occur,0.005574
occurr,0.011349
ocean,0.009029
oh,0.015418
oil,0.008758
ola,0.021144
olapad,0.026555
onceliv,0.021144
onli,0.028274
order,0.009671
organ,0.473839
origin,0.014588
oxid,0.011642
oxygen,0.021367
ozon,0.015397
ozoneiniti,0.053110
paper,0.007240
particul,0.015693
pass,0.013633
patricia,0.015127
ph,0.027799
phase,0.016876
phenol,0.018029
phenomenon,0.027111
phosphoru,0.014457
place,0.004962
planet,0.009955
plant,0.106654
play,0.012670
pm,0.013290
point,0.005089
polymer,0.031436
pom,0.042606
pool,0.022979
poor,0.008675
pore,0.015944
posit,0.010400
possibl,0.005132
potenti,0.013028
present,0.020124
prime,0.161687
problem,0.016143
proceed,0.009208
process,0.038053
produc,0.005235
product,0.010488
propos,0.006208
protein,0.020443
provid,0.004464
puls,0.013409
purif,0.058816
purpos,0.006545
qualiti,0.007496
question,0.006318
quickli,0.016380
radic,0.027672
rain,0.012777
rate,0.031177
react,0.022298
reaction,0.040913
reactiv,0.012021
real,0.006623
reason,0.005727
recent,0.011051
recogniz,0.014844
recycl,0.027158
refer,0.012764
regard,0.006122
rehabilit,0.013759
rel,0.005721
releas,0.007975
relev,0.008346
reliabl,0.009541
remain,0.010555
repolymer,0.026555
research,0.020708
residu,0.073905
resin,0.016105
resist,0.008269
reson,0.024426
respect,0.006068
result,0.026670
retent,0.029689
reveal,0.008394
rewet,0.025058
rich,0.009150
ring,0.032424
river,0.017449
role,0.016770
root,0.016122
satur,0.014473
scienc,0.010734
sea,0.008142
secret,0.009845
sediment,0.056463
sedimentari,0.031785
seen,0.006261
senesi,0.026555
sens,0.013132
sever,0.009259
shed,0.027205
shell,0.010740
shore,0.012133
short,0.006804
shortli,0.009932
shortterm,0.011600
shut,0.013332
simpl,0.007056
size,0.020748
slower,0.012759
slowest,0.018193
snapshot,0.017239
socal,0.008961
soil,0.392452
sole,0.009014
solut,0.015196
som,0.039419
sometim,0.005781
sourc,0.016759
special,0.011108
spectrometri,0.016366
spectroscopi,0.053118
ss,0.013650
stabil,0.016565
stabl,0.017480
starch,0.016024
state,0.019429
stationari,0.012876
steril,0.015088
steve,0.013650
stick,0.013354
stochast,0.012325
stop,0.008774
strong,0.006453
structur,0.005188
studi,0.014080
subsect,0.017081
substanc,0.046685
subsurfac,0.016618
sugar,0.010821
suggest,0.012434
suitabl,0.009859
sulfur,0.013056
suppli,0.007240
surfac,0.024125
surround,0.016266
survey,0.017073
surviv,0.007659
suscept,0.012803
synthes,0.011541
synthesi,0.019830
tabl,0.008547
tannin,0.020851
technolog,0.006403
temperatur,0.008978
term,0.012589
terrestri,0.012091
therefor,0.012072
thi,0.033218
thought,0.006294
thrive,0.012294
thu,0.010383
tissu,0.010731
titl,0.007971
togeth,0.006124
topic,0.007046
total,0.012393
transform,0.007269
transport,0.007613
treat,0.007776
treatment,0.032679
tree,0.009148
trigger,0.010803
trim,0.017976
turn,0.006139
turnov,0.042823
typic,0.005958
unavail,0.014521
unc,0.019191
uncertainti,0.010335
undisput,0.016718
unfortun,0.012803
unit,0.017918
univers,0.004599
unm,0.024071
urea,0.032048
use,0.007257
usg,0.017322
usual,0.010689
uvvis,0.026555
vari,0.013094
varieti,0.006668
variou,0.005055
veri,0.030431
vital,0.019837
vol,0.019089
volum,0.007607
wa,0.021848
wast,0.031960
wastewat,0.018489
water,0.143866
waterflow,0.026555
wax,0.015088
way,0.004748
week,0.009334
weight,0.017903
wershaw,0.026555
wetzel,0.021648
whler,0.017976
wide,0.005720
withhold,0.015248
woodi,0.016894
work,0.004353
xing,0.018617
year,0.004482
yingp,0.026555
yoon,0.021303
york,0.006840
zhou,0.015791
