abil,0.007036
abl,0.006459
accomplish,0.010278
account,0.006023
accur,0.008713
activ,0.010206
actual,0.013090
adapt,0.008143
adjac,0.011705
advanc,0.018949
aggreg,0.021630
alaska,0.015470
alon,0.008745
alpha,0.035515
analysi,0.073979
ani,0.013521
anim,0.007158
anoth,0.004918
anthropogen,0.016024
apart,0.009372
applic,0.006107
appropri,0.016395
area,0.025396
aris,0.025029
arrang,0.016675
articl,0.006078
aspect,0.006721
assum,0.014169
autocorrel,0.274516
barbara,0.013540
base,0.013368
basic,0.006203
becaus,0.009284
becom,0.004936
began,0.006157
begun,0.009804
behavior,0.014467
benchmark,0.014029
bia,0.011758
biodivers,0.012778
biolog,0.007313
calcul,0.015738
california,0.009459
carbon,0.010066
caus,0.005512
center,0.006587
central,0.005789
centuri,0.010606
certain,0.016958
chanc,0.019884
chang,0.018625
chi,0.014794
choos,0.008884
clark,0.023917
climat,0.008818
close,0.016579
clump,0.018928
combin,0.005889
come,0.005907
common,0.009989
commonli,0.013719
commun,0.021604
competit,0.016244
complex,0.006044
compon,0.007113
compris,0.008450
comput,0.013689
concept,0.017293
conclus,0.009204
confin,0.011091
conif,0.018108
consequ,0.007024
conserv,0.008199
consid,0.004817
constant,0.032849
context,0.007266
continu,0.005005
coordin,0.008756
correct,0.016637
correl,0.009628
correlogram,0.026904
creat,0.010105
d,0.013374
data,0.046148
deal,0.019964
deer,0.015688
degre,0.027059
demographi,0.013890
densiti,0.049843
depend,0.010901
describ,0.005084
detect,0.009071
determin,0.034419
develop,0.012394
deviat,0.011722
devis,0.011332
differ,0.017516
direct,0.005485
disburs,0.017344
discret,0.009742
diseas,0.008653
dispers,0.011337
displaystyl,0.047313
distanc,0.114356
distant,0.011482
distribut,0.081791
disturb,0.011600
divers,0.007945
domega,0.022549
draw,0.008468
dynam,0.015489
e,0.026775
ecographi,0.022329
ecolog,0.384256
ecologist,0.028953
ecosystem,0.011280
edg,0.010850
effect,0.009663
els,0.010241
emerg,0.006374
endogen,0.015057
energi,0.006962
enhanc,0.009211
environ,0.032963
environment,0.007995
epidem,0.013805
equal,0.013545
error,0.009457
essenti,0.006913
estim,0.013997
evan,0.027806
event,0.012944
everchang,0.019286
everyth,0.019806
exampl,0.013362
exhibit,0.009388
exist,0.004945
exogen,0.015470
expand,0.007035
expect,0.027332
explain,0.006695
extent,0.024549
extern,0.007777
factor,0.006305
fairbank,0.020728
famili,0.006886
fashion,0.010467
femal,0.009985
field,0.010862
fluctuat,0.011105
follow,0.004254
forag,0.015113
form,0.008129
formul,0.008516
frac,0.011901
fragment,0.020919
freedom,0.008395
function,0.005444
fund,0.007332
fundament,0.006810
gap,0.010352
gener,0.011464
geograph,0.017297
geographi,0.009789
geostatist,0.037723
gi,0.014880
given,0.005333
global,0.014124
gradient,0.037961
greater,0.006698
ha,0.017730
habitat,0.086824
hand,0.006589
heat,0.009377
helsinki,0.016127
heterogen,0.013369
histori,0.004429
homogen,0.011977
host,0.009724
howev,0.004316
human,0.010247
hypothes,0.010574
hypothesi,0.009263
ideal,0.008653
identif,0.010475
identifi,0.006428
imageri,0.014301
impact,0.014576
import,0.013607
includ,0.003691
increas,0.010227
increasingli,0.023519
indic,0.006542
individu,0.016456
induc,0.031591
infer,0.010220
inform,0.021148
input,0.009634
insect,0.012083
instead,0.012457
intens,0.008832
interact,0.026541
interdisciplinari,0.010931
intermedi,0.010451
intern,0.004660
interpret,0.007094
introduct,0.007050
invas,0.009697
isol,0.008634
kind,0.007083
knowledg,0.006688
known,0.013329
lab,0.023234
lack,0.006779
landscap,0.022173
larg,0.004685
larger,0.007018
law,0.010712
learn,0.007468
led,0.005738
length,0.008821
let,0.009962
level,0.005316
lifestag,0.023045
like,0.009497
link,0.003865
live,0.005748
local,0.012043
locat,0.019610
longer,0.007332
loss,0.007776
magnitud,0.021937
male,0.009971
manag,0.006367
map,0.008133
marin,0.010177
mathemat,0.006988
matric,0.014679
measur,0.005822
method,0.044047
micro,0.014553
migrat,0.009499
model,0.033226
montford,0.025387
movement,0.012260
multipl,0.013675
n,0.047902
nation,0.004926
natur,0.028476
nearbi,0.010940
nearest,0.071649
neg,0.015418
neighbor,0.060172
nich,0.026908
nineteenth,0.011120
nnalpha,0.026904
nois,0.025356
normal,0.007086
null,0.014522
number,0.017789
numer,0.006586
o,0.009374
object,0.012154
observ,0.023469
occupi,0.017824
occur,0.011296
onlin,0.007780
open,0.006086
oper,0.005608
order,0.009798
organ,0.063038
overestim,0.033223
overview,0.008907
pair,0.018947
parasit,0.013159
partial,0.008177
particular,0.016693
past,0.007052
patch,0.029045
patchi,0.040758
pattern,0.144116
pcnm,0.026904
peerreview,0.014217
peridogram,0.026904
period,0.005282
phenomena,0.008488
pi,0.012778
pielou,0.053808
play,0.006418
point,0.015470
poisson,0.015875
popul,0.044276
posit,0.010537
practic,0.005454
prechosen,0.026904
predat,0.011316
predatorprey,0.018320
predict,0.007458
presenc,0.007709
present,0.010194
previous,0.007771
princip,0.007963
process,0.048192
product,0.005313
programm,0.009798
progress,0.006947
properli,0.010720
propos,0.006289
provid,0.009046
proxim,0.011783
publish,0.005658
quadratdens,0.026904
quantifi,0.011455
quarter,0.010603
queensland,0.016642
question,0.006401
r,0.034108
random,0.087521
randomli,0.013781
rang,0.006119
rapid,0.008834
rapidli,0.008594
rare,0.016779
ratio,0.018387
reaction,0.008290
recogn,0.006932
refer,0.009699
refrac,0.025387
regard,0.006202
regardless,0.009773
region,0.017368
rel,0.005796
relat,0.013077
relationship,0.012342
remot,0.021891
repeat,0.009331
report,0.006213
repres,0.010606
reproduct,0.021964
requir,0.005089
research,0.036715
resolut,0.009890
resourc,0.006545
respect,0.006148
respond,0.017439
respons,0.022430
restor,0.009143
restrict,0.007493
result,0.027021
retent,0.015039
revis,0.009661
rippleeffect,0.026904
ro,0.030455
role,0.005663
rores,0.026904
rule,0.005901
s,0.009170
said,0.013285
sampl,0.077077
santa,0.012812
scale,0.095129
sens,0.013305
separ,0.005906
sequestr,0.019138
sesqrt,0.026904
set,0.010016
sever,0.004690
sexual,0.010623
share,0.006300
shorter,0.011510
signific,0.017231
similar,0.016118
size,0.007007
small,0.005505
smaller,0.007650
softwar,0.019066
sophist,0.010352
sort,0.009437
sourc,0.011319
space,0.006937
spatial,0.736309
spatialtempor,0.020607
speci,0.115853
specif,0.016150
sqrt,0.014522
stabil,0.008391
statist,0.073819
steadi,0.011532
stress,0.009227
structur,0.026285
studi,0.009510
success,0.011934
suggest,0.006299
summar,0.011460
surfac,0.008147
survey,0.008648
synthesi,0.010045
taken,0.006588
taylor,0.011321
technolog,0.012974
tend,0.014777
territori,0.007875
test,0.058846
themselv,0.006674
theoret,0.014755
theori,0.010548
thi,0.047117
thought,0.006376
time,0.019905
tobler,0.020166
total,0.006278
tradit,0.005666
trend,0.017188
true,0.021856
trueinher,0.026904
type,0.010819
ultim,0.007782
underli,0.008544
understand,0.018323
uniform,0.031297
uniformli,0.029327
unit,0.004538
univers,0.018640
unsampl,0.026904
use,0.058825
usual,0.027073
util,0.008140
valid,0.008592
valu,0.040369
variabl,0.024675
varianc,0.013508
variat,0.025303
varieti,0.006755
variogram,0.023641
variou,0.010244
varrho,0.025387
veri,0.005138
version,0.007870
wherea,0.007807
widelystudi,0.026904
wikipedia,0.014461
wildlif,0.051286
winter,0.011149
world,0.004561
z,0.032933
zfrac,0.020728
