abdullah,0.071562
advanc,0.014447
age,0.014649
alfr,0.047937
alreadi,0.017041
american,0.013253
ancestor,0.025141
ancient,0.016948
anim,0.016373
anteat,0.052120
antonio,0.030462
apr,0.039582
archipelago,0.029691
area,0.023235
asa,0.038066
asia,0.180762
asian,0.089138
asiat,0.039319
aspect,0.015373
australasian,0.039763
australia,0.182991
australian,0.145968
bali,0.168641
barrier,0.047600
bat,0.069222
becaus,0.010617
besar,0.054875
biogeograph,0.040239
biogeographi,0.137766
biolog,0.016728
bird,0.048154
borneo,0.114854
boundari,0.039382
brachyoti,0.061537
british,0.015748
capabl,0.018602
celeb,0.052120
center,0.015066
centr,0.019423
centuri,0.012130
channel,0.023319
chapter,0.022016
characteris,0.028318
citat,0.028134
clear,0.017583
collid,0.032002
conclud,0.019323
connect,0.062224
consist,0.025291
context,0.016620
contin,0.073041
continent,0.125812
continu,0.022896
contour,0.037133
contrast,0.015960
crabeat,0.053359
craig,0.033503
cross,0.061866
cynopteru,0.061537
d,0.030591
dalton,0.034034
darwin,0.026441
dawkin,0.037786
dc,0.026163
deep,0.021034
deepwat,0.042564
demonstr,0.016983
describ,0.011629
differ,0.020033
distanc,0.020120
distribut,0.031179
divis,0.016375
domin,0.015548
drawn,0.022298
dri,0.024747
dure,0.032629
e,0.015310
earl,0.068799
earlier,0.016809
east,0.087447
eastern,0.018881
eastward,0.034829
ecozon,0.084062
edg,0.049636
emerg,0.014579
essay,0.022043
evolut,0.018469
examin,0.017804
extens,0.015361
extent,0.018717
extern,0.008894
fauna,0.058035
faunal,0.082376
ferdinand,0.030748
flora,0.061497
follow,0.009730
form,0.009297
fruit,0.024104
ft,0.026585
g,0.016455
gaylord,0.045896
gener,0.008740
geograph,0.039565
geographi,0.044781
georg,0.035062
glacial,0.035884
glide,0.041302
gordon,0.028370
gray,0.030347
grigg,0.052711
group,0.021944
guinea,0.057444
ha,0.008110
hall,0.023078
hi,0.021813
histor,0.013663
hooker,0.040644
hornbil,0.056829
huxley,0.034525
hypothesi,0.021187
ice,0.026532
includ,0.008443
indi,0.030871
indonesia,0.057626
institut,0.012871
isa,0.038138
isbn,0.014379
island,0.162259
java,0.092393
joseph,0.020044
journal,0.015645
kangaroo,0.043942
kept,0.021916
ketol,0.061537
kill,0.020079
kilometr,0.028200
known,0.010163
l,0.017902
land,0.061566
larg,0.010717
leaf,0.032976
level,0.036481
life,0.013072
likewis,0.024086
limit,0.024838
line,0.276534
link,0.017684
lombok,0.167346
london,0.017122
lower,0.015025
lucia,0.039672
lx,0.050605
lydekk,0.108149
m,0.043629
macaqu,0.046365
mactan,0.051577
magellan,0.078133
mainland,0.026416
malay,0.034483
maluku,0.049754
mammal,0.051485
mani,0.027572
map,0.037205
marin,0.023278
mark,0.016326
marni,0.053359
marsupi,0.085986
mass,0.033351
metr,0.028923
mi,0.025638
migrat,0.021727
million,0.015971
mixtur,0.025424
monkey,0.033358
moreov,0.023327
moritz,0.040750
museum,0.024520
naturalist,0.027700
new,0.018165
nicolson,0.042704
note,0.023447
notic,0.023078
observ,0.026840
ocean,0.062774
onli,0.009360
oosterze,0.061537
open,0.013920
opposit,0.016731
organ,0.022182
orient,0.021187
origin,0.045075
overal,0.018610
pacif,0.023568
pamphlet,0.034358
paper,0.033555
pattern,0.034698
penni,0.036948
phd,0.026275
philippin,0.058340
philosoph,0.017847
physic,0.039916
pigafetta,0.048319
plant,0.017653
pleistocen,0.037133
point,0.011795
ponderousbeak,0.061537
popul,0.014467
possum,0.051073
pp,0.019009
presenc,0.017632
present,0.011658
press,0.013723
prevent,0.016669
proceed,0.021338
propos,0.014386
publish,0.025884
queensland,0.038066
read,0.012843
reason,0.026544
recent,0.012805
record,0.015587
reeder,0.050166
refer,0.007394
region,0.066211
relat,0.009970
relationship,0.014115
research,0.011996
respect,0.014063
rich,0.021205
richard,0.018268
royal,0.019511
run,0.032501
russel,0.051840
s,0.010488
sahul,0.059583
sait,0.052120
sarawak,0.043295
sea,0.056604
seen,0.014509
separ,0.067551
shallow,0.031280
shelf,0.144379
shelv,0.077329
similar,0.036868
simpson,0.034483
sinc,0.020582
small,0.012593
smallest,0.026786
smithsonian,0.035194
societi,0.038683
southeast,0.050389
southeastern,0.095918
speci,0.132494
special,0.012871
spice,0.033182
spini,0.047412
st,0.016590
strait,0.064602
stretch,0.025943
strike,0.022892
studi,0.010876
sulawesi,0.045674
sumatra,0.082837
sunda,0.048999
support,0.012236
t,0.035812
tale,0.029588
th,0.011801
theori,0.012063
thesi,0.025468
thi,0.015395
thoma,0.018409
thu,0.012030
time,0.009105
tip,0.028704
transit,0.053752
travel,0.036345
tree,0.021199
understand,0.013969
underwat,0.033182
unit,0.010380
univers,0.010659
use,0.016818
van,0.022512
variat,0.019292
veri,0.011753
visibl,0.022748
vol,0.022118
voyag,0.028150
wa,0.025315
wahab,0.051073
wallabi,0.050605
wallac,0.440543
wallacea,0.253025
washington,0.022658
water,0.031751
weber,0.062934
weidenfeld,0.043451
west,0.053014
wildlif,0.029326
wilson,0.025708
windsor,0.044849
world,0.020868
year,0.010386
zone,0.042543
zoogeograph,0.050166
zoolog,0.031073
