abil,0.006870
abl,0.010512
ablat,0.031640
absorb,0.013309
absorpt,0.004051
academi,0.006412
acceler,0.003201
accord,0.006657
account,0.003920
accur,0.002835
achiev,0.020939
act,0.009511
activ,0.003321
actual,0.004260
ad,0.002124
addit,0.010103
adequ,0.003491
adjac,0.003809
adjust,0.003186
administr,0.002327
advanc,0.006167
advisor,0.004264
advisori,0.004092
agreement,0.007621
aim,0.002376
alamo,0.012153
allow,0.016552
alloy,0.004631
alon,0.002846
alpha,0.019264
alreadi,0.002424
alter,0.002985
altern,0.002138
amplab,0.008756
amplif,0.015500
amplifi,0.050275
analysi,0.004012
anew,0.005893
ani,0.010268
anisotropi,0.012235
announc,0.002795
anoth,0.004802
antar,0.006972
anyth,0.003289
anywher,0.004074
appear,0.003855
appli,0.003558
approach,0.013409
approv,0.005718
approxim,0.002268
april,0.007639
arc,0.013421
architect,0.004425
area,0.013225
argument,0.002796
arm,0.005307
arnold,0.004230
arrang,0.008140
art,0.007639
articl,0.001978
aspect,0.004375
assist,0.002481
associ,0.001625
assur,0.003792
asymmetr,0.004553
atmospher,0.003260
atom,0.008731
attain,0.003369
attempt,0.005695
attend,0.003175
august,0.007587
author,0.001874
avail,0.006103
avli,0.008756
avoid,0.002486
awar,0.003011
away,0.005070
backlight,0.016172
bad,0.003414
ban,0.006707
bank,0.007221
barrier,0.003386
base,0.004350
baselin,0.010585
basi,0.004146
basic,0.006057
bay,0.011276
beam,0.081668
beamlet,0.025434
beamlin,0.126079
becam,0.009172
becaus,0.003021
becom,0.003213
befor,0.015426
began,0.006012
begin,0.011741
behavior,0.004708
behaviour,0.003094
beryllium,0.011689
berylliumcopp,0.008756
best,0.002212
billion,0.031358
billionth,0.006563
block,0.002989
blowoff,0.008262
blunt,0.005645
bob,0.004668
bomb,0.041799
bone,0.007528
boost,0.007870
bootstrap,0.011165
bottomup,0.005367
box,0.003762
break,0.002766
breakeven,0.013338
breakthrough,0.004282
bret,0.007416
brief,0.003180
brighter,0.006056
bring,0.007485
budget,0.031415
build,0.012742
buildup,0.004943
built,0.002501
bundl,0.008924
burn,0.006880
c,0.001920
calcul,0.007683
calendar,0.004115
california,0.009236
came,0.002197
campaign,0.021121
capabl,0.010588
capacitor,0.023074
capsul,0.083207
carbon,0.003276
care,0.002525
carri,0.010834
case,0.005042
caus,0.017941
cavern,0.006252
caviti,0.009719
ceas,0.003395
center,0.021439
centimetr,0.005725
centurion,0.014049
ceremoni,0.007421
certifi,0.004385
ch,0.004289
chain,0.006006
chainreact,0.007416
chair,0.011326
challeng,0.016808
chamber,0.049936
chang,0.013639
charg,0.002594
chief,0.002799
chill,0.005860
cigar,0.006409
circuit,0.003792
circul,0.003517
cite,0.002811
claim,0.002040
clean,0.003935
clear,0.007505
clearli,0.003022
close,0.003597
closer,0.009978
cm,0.004227
coat,0.007964
code,0.007803
cold,0.003204
collaps,0.002961
collid,0.004553
combin,0.005750
come,0.003845
commensur,0.005582
comment,0.006440
commerci,0.007726
commiss,0.002676
committe,0.002884
compar,0.001988
comparison,0.008457
complet,0.048276
complex,0.001967
compon,0.004630
compos,0.002550
comprehens,0.008883
compress,0.066411
comput,0.013366
concentr,0.005261
concept,0.018761
concern,0.009437
conclud,0.005499
conclus,0.005991
concret,0.022098
condit,0.016930
conduct,0.002304
configur,0.007428
confin,0.010829
confirm,0.005796
conflict,0.002503
congress,0.015061
consid,0.004703
consider,0.009037
consist,0.003598
construct,0.033310
contain,0.017358
continu,0.009774
continuouspour,0.008756
contrari,0.003515
contrast,0.002271
convent,0.005206
convers,0.013868
convert,0.013703
cool,0.007532
cope,0.004314
core,0.011420
correspond,0.002440
correspondingli,0.005077
cost,0.023637
count,0.003066
coupl,0.009333
coverag,0.004044
crandal,0.014534
creat,0.009866
crew,0.004227
critic,0.011865
cryogen,0.005813
crystal,0.007543
cubic,0.013922
cultur,0.002021
current,0.005163
custom,0.002718
cut,0.005708
cyclop,0.007267
cylind,0.010002
cylindr,0.010753
d,0.002176
damag,0.008704
dark,0.003476
data,0.008582
date,0.015729
david,0.002388
day,0.012172
debri,0.005151
decemb,0.009868
decid,0.007860
declar,0.002596
dedic,0.009688
deep,0.002993
defens,0.011803
definit,0.002125
deform,0.004389
degre,0.002201
delay,0.017169
deliv,0.053872
deliveri,0.011657
demonstr,0.012083
densiti,0.025955
depart,0.004714
depend,0.001773
deposit,0.006365
describ,0.003309
descript,0.002457
design,0.069115
despit,0.002279
deton,0.005524
deuterid,0.008756
deuterium,0.012035
deuteriumtritium,0.008756
develop,0.017479
devic,0.027042
diagnost,0.008610
diamet,0.004392
diann,0.006468
did,0.007983
differ,0.002850
difficult,0.002344
dihydrogen,0.006468
dimension,0.004158
diodepump,0.008262
dioxid,0.003950
direct,0.023208
directli,0.008641
director,0.025861
disassembl,0.011721
discov,0.002367
discuss,0.002193
distanc,0.002862
distribut,0.002218
divid,0.004263
document,0.002595
doe,0.025468
dollar,0.003141
dont,0.003756
door,0.004204
dr,0.006671
dramat,0.006072
drive,0.034664
driven,0.006259
driver,0.037088
drop,0.002950
dt,0.026508
dump,0.005266
dun,0.005301
dunn,0.005535
durat,0.003829
dure,0.010833
dust,0.004389
e,0.002178
earli,0.016189
earlier,0.007175
earth,0.002541
eclips,0.004337
econom,0.001771
ed,0.006797
edward,0.002944
effect,0.007862
effici,0.027879
effort,0.008966
el,0.003892
electr,0.005352
electron,0.008125
element,0.002058
emerg,0.006223
end,0.024776
energet,0.008771
energi,0.156352
energyuv,0.008756
engin,0.004665
ensur,0.013296
enter,0.002366
enterpris,0.003046
entir,0.008398
envis,0.004421
equal,0.002204
equat,0.008076
equip,0.002893
equival,0.005214
erect,0.004389
error,0.003077
escap,0.003249
essenti,0.006750
estim,0.025055
evenli,0.019326
eventu,0.004601
everi,0.002025
everyon,0.003737
evid,0.002207
exampl,0.001449
excav,0.004351
exceed,0.003399
excel,0.003501
execut,0.002451
exist,0.006438
expans,0.002731
expect,0.013343
expens,0.002890
experi,0.061704
experiment,0.013518
expert,0.003197
explod,0.009524
explor,0.009865
explos,0.014352
express,0.006291
extend,0.002135
extens,0.004371
extern,0.006328
extrem,0.009287
fabric,0.008098
face,0.002429
facil,0.049642
fact,0.002055
fail,0.007300
failur,0.005632
far,0.010974
favor,0.002673
featur,0.006567
februari,0.005259
feed,0.003715
feinstein,0.006875
fell,0.003126
felt,0.003417
fewer,0.003432
fiber,0.004204
filter,0.012103
final,0.006280
finish,0.003724
fission,0.004912
fissionfus,0.007024
flash,0.018181
flashlamp,0.016525
flashlamppump,0.008262
flat,0.003701
flood,0.003821
focal,0.004854
focu,0.011873
focus,0.004506
follow,0.004153
followup,0.005136
foot,0.003760
footlong,0.007694
footwid,0.008756
forc,0.003469
form,0.006615
format,0.002360
formerli,0.003242
forward,0.006145
foster,0.003700
foundat,0.004514
fraction,0.003387
frame,0.003307
frequenc,0.013230
froze,0.006138
frozen,0.004591
ft,0.007565
fuel,0.089810
fuelhigh,0.008478
fulli,0.002609
fullsiz,0.006922
fullsystem,0.008756
fund,0.011932
fundament,0.002216
furthermor,0.002966
fusion,0.177515
fusionreadi,0.008756
fy,0.021243
ga,0.011648
gain,0.014740
gallon,0.005944
gao,0.017262
gap,0.003369
gcm,0.012321
gener,0.019899
georg,0.002494
german,0.002444
gfusion,0.008756
given,0.012151
glass,0.030522
glenzer,0.017512
global,0.002298
goal,0.030949
goe,0.003114
gold,0.003009
good,0.003848
gordon,0.004036
got,0.003904
governor,0.003176
grade,0.004036
gradual,0.002782
grate,0.005754
greater,0.006540
greatli,0.011337
green,0.002976
ground,0.002518
groundbreak,0.004931
group,0.004683
grow,0.004438
h,0.002404
ha,0.015003
half,0.014295
halit,0.014401
halt,0.007887
happen,0.002735
head,0.004468
heat,0.073248
heavi,0.002991
hi,0.001551
high,0.021031
highenergi,0.015003
higher,0.006173
higherenergi,0.006972
highest,0.002650
highestenergi,0.007138
highgain,0.016956
highli,0.006835
highqual,0.005190
highspe,0.005136
histori,0.002883
hit,0.003583
hohlraum,0.107414
hohlraumbas,0.008756
hold,0.002084
hollow,0.009937
holoraum,0.017512
homepag,0.005120
hope,0.002946
hot,0.011434
hour,0.012166
hous,0.002321
howev,0.014047
hurdl,0.005501
hybrid,0.003616
hydrodynam,0.005357
hydrogen,0.014340
icf,0.140912
idea,0.005827
ideal,0.005632
identifi,0.008369
ignit,0.262177
ignitionlevel,0.008756
ignor,0.003002
il,0.004826
illumin,0.012199
imag,0.005330
imperfect,0.004261
impetu,0.004466
imping,0.005893
implement,0.002409
implos,0.043124
import,0.005904
improv,0.029818
inadequ,0.004110
inch,0.009327
includ,0.014418
incom,0.002651
incorpor,0.002376
increas,0.013315
inde,0.005886
independ,0.008888
indirect,0.011281
indirectdr,0.008756
indirectli,0.003729
industri,0.001975
inerti,0.030007
inertia,0.004883
inform,0.001720
infrar,0.026819
ingenia,0.008262
initi,0.018806
inject,0.004273
innov,0.005996
inplac,0.007694
input,0.009407
insid,0.011611
instabl,0.003742
instal,0.013662
instead,0.004054
institut,0.001831
instrument,0.002665
integr,0.004177
intend,0.002679
intens,0.005749
interact,0.004319
interfer,0.007065
interior,0.003396
intern,0.001516
introduc,0.002030
invent,0.002816
investig,0.002425
inward,0.009874
ion,0.003753
ir,0.029023
irradi,0.005406
isol,0.005620
isotop,0.004192
issu,0.011143
item,0.003174
j,0.002173
januari,0.019760
jason,0.010603
john,0.005906
joul,0.005347
jr,0.003676
juli,0.010000
june,0.010086
just,0.012109
kelvin,0.009813
kev,0.006277
key,0.013214
kg,0.004508
kgm,0.012819
kidder,0.022501
kilogram,0.004888
kj,0.054161
km,0.003257
knapp,0.006922
known,0.017353
koonin,0.029356
krf,0.007694
kt,0.005999
kwh,0.005283
lab,0.037810
laboratori,0.041114
lack,0.002206
lamp,0.014631
lanl,0.008086
larg,0.018300
larger,0.004568
largescal,0.003371
largest,0.007170
lase,0.007416
laser,0.404994
laserbas,0.007500
laserplasma,0.016956
lasnex,0.025434
late,0.008013
later,0.013767
lawrenc,0.019356
layer,0.023316
layout,0.009697
lb,0.004988
lead,0.006906
leader,0.002530
leav,0.002450
led,0.011205
left,0.004613
length,0.008612
lengthi,0.004512
level,0.008651
lid,0.006438
life,0.007440
light,0.069182
like,0.004636
limit,0.012370
line,0.010354
liner,0.005980
linger,0.005257
link,0.001258
lithium,0.005041
littl,0.002214
livermor,0.062527
llnl,0.103186
lmf,0.076304
lnll,0.008756
lo,0.007937
locat,0.010637
long,0.007515
longsought,0.007808
look,0.002389
lose,0.006086
loss,0.007592
lost,0.002514
low,0.004435
lower,0.004276
lowpow,0.006707
lowyield,0.008262
lru,0.024787
machin,0.011175
magazin,0.003349
maglif,0.026269
magnet,0.003396
magnitud,0.003569
main,0.016486
maintain,0.006052
mainten,0.006942
major,0.013815
make,0.004414
mammoth,0.005999
manag,0.041445
mani,0.006539
march,0.011997
mask,0.004587
mass,0.002372
master,0.015439
materi,0.008110
matter,0.006529
maxim,0.003290
maximum,0.009439
mean,0.003186
measur,0.003790
mechan,0.002136
medium,0.003298
meet,0.011705
megabar,0.008262
megajoul,0.031233
member,0.001846
memo,0.024148
met,0.002958
metal,0.003011
meter,0.003894
meterdiamet,0.008262
meters,0.007416
method,0.007167
microfus,0.008478
mid,0.002881
middl,0.002385
mike,0.009608
mileston,0.009290
militari,0.002340
miller,0.004039
milligram,0.025527
millijoul,0.007937
million,0.015908
mind,0.002728
minor,0.002677
minut,0.006907
mirror,0.011720
misfocus,0.008756
misl,0.006017
mission,0.002884
mix,0.008349
mj,0.168970
mm,0.004233
mode,0.003257
model,0.005406
modifi,0.002823
modul,0.019534
money,0.002585
month,0.007669
moor,0.003904
mose,0.023607
movi,0.003957
multipass,0.007339
multipiec,0.008756
nanojoul,0.016525
nanomet,0.005632
nanosecond,0.012998
nation,0.033668
naval,0.003649
near,0.004757
need,0.024351
neodymium,0.013944
neodymiumdop,0.008756
net,0.012166
neutron,0.013686
nevada,0.005570
new,0.012924
newer,0.004248
newsroom,0.007079
newsweek,0.006182
nic,0.045944
nif,0.579480
nike,0.006922
nio,0.005582
nm,0.046971
nomin,0.006039
nonweapon,0.008756
normal,0.006918
notabl,0.004440
note,0.011677
nova,0.065424
novemb,0.005190
ns,0.005570
nuckol,0.040431
nuckollss,0.008756
nuclear,0.047303
nucleartestban,0.007694
number,0.013027
numer,0.006430
observ,0.003819
obtain,0.004497
occur,0.003676
octob,0.015011
offer,0.002151
offic,0.004657
offici,0.006589
older,0.003036
omega,0.014224
onc,0.002162
ongo,0.003165
onli,0.005327
onlin,0.005064
oper,0.020078
opportun,0.002733
optic,0.055692
order,0.020728
organ,0.001578
origin,0.006413
oscil,0.020935
outer,0.014787
outlin,0.002816
output,0.012079
outsid,0.004414
outstand,0.003957
outward,0.004454
overal,0.010592
overcom,0.007106
overh,0.006138
overrid,0.005048
overrun,0.010381
oversaw,0.004994
oversight,0.004583
overtaken,0.005632
oxid,0.003838
p,0.002208
pacer,0.015874
pack,0.004221
packag,0.003668
page,0.002836
paleontologist,0.005798
pam,0.030382
pancak,0.006972
panel,0.008528
panorama,0.005860
paper,0.002387
parallel,0.005996
particl,0.009330
particular,0.001811
partner,0.003163
pass,0.013486
past,0.002295
path,0.005867
pcm,0.007500
pdd,0.007808
peac,0.002790
peak,0.019049
peer,0.004034
pellet,0.024071
penetr,0.003865
percent,0.020341
perform,0.016272
period,0.013753
perman,0.002803
perspect,0.002589
petawattclass,0.008756
phase,0.002782
phosphat,0.008947
photon,0.004227
physic,0.007573
physicist,0.003424
pick,0.003766
picosecond,0.013845
picoseconddur,0.008756
pictur,0.003239
pipe,0.004842
place,0.014726
plan,0.008764
planet,0.003282
plant,0.002512
plasma,0.025438
plasmaopt,0.008756
plastic,0.019449
plenari,0.005980
plug,0.010734
plutonium,0.017262
plutoniumbas,0.007937
point,0.013426
polar,0.003544
polystyren,0.006499
popular,0.002070
portion,0.005814
posit,0.010288
possibl,0.008461
postgao,0.008756
postnova,0.008756
potassium,0.004600
potenti,0.006444
pour,0.021774
power,0.039051
practic,0.005325
prais,0.003879
preamplifi,0.008756
precis,0.008199
preclud,0.004756
predict,0.026703
prepar,0.005381
present,0.003317
preserv,0.002796
press,0.003905
pressur,0.007492
previou,0.010007
previous,0.007587
price,0.002456
primari,0.015330
primarili,0.011339
prioriti,0.003498
prism,0.005582
probabl,0.004761
problem,0.024842
procedur,0.002889
process,0.017253
produc,0.024168
product,0.001729
program,0.031306
progress,0.020351
project,0.061588
prompt,0.003632
propag,0.007393
properli,0.003489
properti,0.002008
propos,0.004094
prospect,0.007051
provid,0.004416
public,0.001670
publicli,0.003550
publish,0.003683
puerifoy,0.008756
puls,0.070743
pump,0.008345
pure,0.002623
push,0.018930
quad,0.005535
quadrillion,0.006328
qualiti,0.004944
quantiti,0.002702
quest,0.004178
question,0.002083
quickli,0.005401
quot,0.003471
race,0.003259
radiat,0.006645
radiograph,0.012656
rain,0.004213
rais,0.002447
ramp,0.005927
ran,0.003714
rang,0.007966
rapid,0.005750
rapidgrowth,0.008756
rapidli,0.008391
rate,0.004112
rational,0.004682
ray,0.010782
rd,0.005941
reach,0.053460
reaction,0.040472
reactor,0.004793
readi,0.003867
realign,0.005558
reassembl,0.005962
rebar,0.008262
rebaselin,0.043781
receiv,0.004020
recent,0.001822
recommend,0.003101
reconfigur,0.006096
record,0.006653
redesign,0.021064
reduc,0.011960
reduct,0.003027
reemit,0.007339
reevalu,0.005190
refer,0.007365
reflect,0.002261
refract,0.004809
regain,0.004041
regen,0.005999
regim,0.003066
rei,0.011141
reinforc,0.003583
relat,0.002837
releas,0.026297
relev,0.002752
reliabl,0.003146
remain,0.005220
remov,0.007288
replac,0.008577
report,0.036403
repres,0.001726
request,0.012792
requir,0.024847
research,0.015363
resolv,0.003056
respond,0.002837
rest,0.002465
restart,0.011071
result,0.017588
retain,0.002767
rethink,0.005014
retir,0.003580
return,0.006388
reus,0.004826
reveal,0.002767
review,0.047154
revis,0.003144
richardson,0.020483
rick,0.005671
right,0.003776
ring,0.003563
risk,0.002589
rivalri,0.004334
room,0.013652
rose,0.003193
run,0.006937
s,0.005969
said,0.004324
sandia,0.060004
sank,0.005232
saturn,0.005248
say,0.004559
scale,0.011908
schedul,0.031476
schwarzenegg,0.006830
scienc,0.008848
sciencebas,0.006056
scientif,0.010587
scientist,0.004812
second,0.006907
secondari,0.017978
secretari,0.010313
section,0.005214
secur,0.006706
seen,0.004129
semiempir,0.006302
senat,0.003609
sent,0.008749
separ,0.001922
septemb,0.015225
sequenc,0.002921
seri,0.010481
seriou,0.002947
serv,0.002094
servic,0.004100
set,0.006520
settl,0.002990
sever,0.006106
shape,0.017556
sheer,0.005084
sheet,0.011417
shell,0.007083
shield,0.004126
shift,0.005100
shine,0.004968
shiva,0.023508
shock,0.014389
short,0.004487
shorter,0.007492
shortpuls,0.008262
shot,0.053197
shown,0.005075
siegfri,0.006252
signific,0.007477
significantli,0.005401
similar,0.012240
simplest,0.003735
simplifi,0.003410
simul,0.028637
sinc,0.011714
singl,0.011758
site,0.009866
size,0.009122
skip,0.005396
slab,0.005893
slightli,0.006347
slow,0.009070
slowli,0.003375
small,0.028671
smaller,0.014940
smallest,0.003811
smoother,0.006328
soak,0.005860
socal,0.002954
soil,0.003318
solid,0.003147
solv,0.005390
somewhat,0.006209
soon,0.005370
sophist,0.003369
sort,0.003071
sourc,0.016578
spark,0.011626
spatial,0.006846
specif,0.005256
speed,0.002994
sphere,0.003277
spheric,0.008553
spie,0.007500
spielman,0.015874
spite,0.004218
split,0.006019
spot,0.003666
sputter,0.007592
ssmp,0.026269
stabil,0.002731
staf,0.004943
staff,0.003452
stage,0.005114
standard,0.001972
star,0.003247
starship,0.005999
start,0.024098
state,0.014094
stateoftheart,0.005725
steam,0.004361
steel,0.011004
stellar,0.004912
step,0.007449
steven,0.007379
stewardship,0.016859
stockpil,0.035262
store,0.005933
storm,0.004102
stray,0.005582
strongli,0.002822
structur,0.005133
studi,0.009285
submit,0.003668
substitut,0.003254
success,0.005826
suffer,0.005345
suffici,0.002707
suggest,0.020501
suitabl,0.006501
summar,0.003729
suppli,0.004774
support,0.005223
surfac,0.013258
surpass,0.004134
surpris,0.003850
surround,0.002681
suspect,0.003913
sustain,0.002864
switch,0.014383
switchyard,0.026269
symmetr,0.016680
symmetri,0.004076
t,0.002547
taken,0.002144
talk,0.003151
target,0.163601
task,0.002716
team,0.018349
technic,0.013022
techniqu,0.004500
technolog,0.012668
telescop,0.004500
teller,0.005458
temperatur,0.011841
temperaturethi,0.008478
tempor,0.007718
terawatt,0.008262
term,0.004151
test,0.040698
th,0.001679
themselv,0.002172
theoret,0.004802
therebi,0.003031
thermal,0.003755
theyv,0.006117
thi,0.056958
thicker,0.005582
thing,0.002330
thirtyf,0.006328
thought,0.002075
thousand,0.005165
threefootthick,0.008756
threshold,0.008158
thu,0.001711
tightli,0.004587
time,0.033688
timelin,0.003447
tini,0.011851
tnt,0.006056
togeth,0.002019
told,0.003714
ton,0.007941
took,0.011438
topic,0.002323
total,0.018389
trace,0.005616
track,0.003240
tradit,0.001844
transfer,0.005011
trap,0.003836
travel,0.002585
treati,0.003058
trek,0.005283
trillion,0.004081
tritium,0.012763
truth,0.003115
trw,0.007694
tube,0.008093
turn,0.006073
tw,0.025754
twostag,0.006205
type,0.001760
typic,0.009823
ultraviolet,0.009149
unambigu,0.004949
unanim,0.004618
unavail,0.004788
unclear,0.003846
undergo,0.013581
underground,0.012177
undersecretari,0.006499
understand,0.009939
underway,0.004706
unequivoc,0.005416
unexpect,0.004276
uniform,0.016977
uniqu,0.002497
unit,0.004431
univers,0.003033
unknown,0.003031
unlik,0.007316
unoffici,0.004493
unpreced,0.004158
updat,0.010642
upgrad,0.033634
upstream,0.005347
use,0.052650
util,0.002649
uv,0.044834
valid,0.005592
valu,0.005630
valuabl,0.003437
vapor,0.013724
vari,0.002158
varieti,0.002198
variou,0.005001
vend,0.006302
veri,0.006689
vibrat,0.004273
victor,0.003941
view,0.001876
virtual,0.002896
visit,0.002942
volum,0.002508
wa,0.105665
wall,0.003100
wallplug,0.017512
walltofus,0.008756
want,0.002703
war,0.002080
warhead,0.006182
warp,0.005671
water,0.004517
watt,0.009355
wave,0.011813
wavefront,0.006787
wavelength,0.013308
way,0.009394
weapon,0.045527
weather,0.003591
weigh,0.004126
west,0.002514
window,0.012347
withstand,0.010015
work,0.014356
world,0.004454
worthless,0.005524
wound,0.004017
wrong,0.003444
x,0.005185
xenon,0.005711
xray,0.047926
yard,0.015746
year,0.010345
yearold,0.004267
yield,0.011443
ytterbiumdop,0.008756
z,0.007145
