abdomen,0.004014
abdomin,0.019087
abl,0.001521
abnorm,0.011991
abort,0.905230
abortifaci,0.019010
abortionrel,0.025347
abov,0.001542
absenc,0.002214
access,0.026667
accident,0.003115
accomplish,0.002420
accord,0.006022
account,0.009931
acid,0.002426
action,0.001480
addit,0.006093
address,0.001813
adher,0.002436
administ,0.002361
administr,0.001684
admiss,0.003213
advanc,0.002975
advertis,0.002830
advoc,0.006203
affect,0.003148
afford,0.005173
africa,0.003912
aganglionosi,0.005979
age,0.015085
agenc,0.001894
agerelev,0.006336
agre,0.001816
aliv,0.003009
allow,0.007187
alon,0.006179
alongsid,0.002505
altern,0.001547
america,0.003376
american,0.006824
amniocentesi,0.005428
analog,0.012914
analysi,0.001452
ancient,0.008726
anesthesia,0.012622
angkor,0.009236
ani,0.003184
anim,0.006744
ann,0.002821
annual,0.005551
anoth,0.001158
antiabort,0.057032
antibiot,0.003399
antiprogestogen,0.006336
appar,0.004112
appear,0.002790
appli,0.001287
applic,0.001438
approxim,0.008207
april,0.001842
area,0.004785
argu,0.003204
argument,0.002023
aris,0.001965
aristotl,0.002483
arson,0.009050
artist,0.002528
asia,0.004136
aspir,0.027253
assault,0.003088
associ,0.007060
attack,0.003884
attempt,0.008244
attend,0.002298
attribut,0.001872
austin,0.003465
australia,0.002093
author,0.004068
avail,0.011779
averag,0.003598
avoid,0.001799
awar,0.002179
ba,0.006410
babi,0.003149
ban,0.014561
bangladesh,0.003438
banish,0.003850
barnett,0.004341
barrett,0.003950
base,0.002099
bce,0.007996
becam,0.002655
becaus,0.005466
becom,0.001162
befor,0.021088
begin,0.002832
believ,0.007511
belongedwa,0.006336
best,0.001600
bibliographi,0.002112
biolog,0.001722
birth,0.042803
birthcontrol,0.006336
black,0.001960
bleed,0.003884
bodi,0.002914
bolton,0.009406
bomb,0.005500
born,0.002051
breakag,0.004241
breast,0.010692
brief,0.002302
briefli,0.002694
bring,0.001805
britain,0.002046
britton,0.004975
broadli,0.002431
brought,0.001790
bruce,0.002984
brucellosi,0.005428
buccal,0.004943
buddhist,0.002921
c,0.005560
caesarean,0.009951
cambodia,0.003542
camera,0.003144
campylobact,0.005367
canada,0.004167
cancer,0.026753
care,0.012792
carri,0.007840
case,0.006081
cat,0.006172
cathol,0.002348
caus,0.031161
cdc,0.012431
ce,0.007996
cell,0.004184
center,0.004654
centuri,0.006245
certain,0.006657
certainti,0.003070
certifi,0.003174
cervic,0.021266
cervix,0.004826
chanc,0.004683
chang,0.001096
channel,0.002401
character,0.003690
chase,0.003307
cheek,0.004302
chemotherapi,0.012655
child,0.025700
childbear,0.004659
childbirth,0.024086
children,0.012004
china,0.013082
choic,0.001911
choos,0.002092
chosen,0.004445
chri,0.003274
christian,0.001885
chromosom,0.003161
church,0.006593
circumst,0.006704
cite,0.002034
civil,0.001668
classifi,0.005903
clean,0.002847
clinic,0.017759
cloth,0.002543
code,0.001882
coexist,0.003074
cohosh,0.005979
collect,0.001419
colleg,0.002111
combin,0.015260
commit,0.002039
common,0.010587
commonli,0.001615
compar,0.004317
compel,0.003040
complet,0.004031
complic,0.015434
compulsori,0.003077
conceiv,0.002554
concept,0.008146
conclud,0.007959
conclus,0.002167
condemn,0.005480
condit,0.002722
condom,0.009600
confer,0.001915
conflict,0.001812
confus,0.002189
congenit,0.003898
congress,0.002180
consent,0.005972
conservat,0.003674
consid,0.006808
consider,0.006540
consist,0.002604
construct,0.003013
contact,0.004083
contagi,0.004302
contain,0.001395
context,0.001711
continu,0.002357
contracept,0.020873
contrast,0.003287
contribut,0.001428
control,0.010341
copul,0.004474
corpu,0.003292
correl,0.002267
cost,0.001710
countri,0.034571
court,0.005536
cow,0.006710
cranial,0.004085
creat,0.001190
criteria,0.002436
crowd,0.003032
cultur,0.005851
curett,0.005979
curettag,0.029898
current,0.001245
damag,0.004199
danger,0.002285
danz,0.005979
data,0.007764
daughter,0.002670
david,0.001728
day,0.010277
dc,0.002694
dead,0.002439
death,0.030673
debat,0.009057
decad,0.003537
decid,0.003792
decis,0.003280
declar,0.005637
decompress,0.009197
decor,0.003158
decreas,0.001916
deem,0.005266
deep,0.002166
defect,0.005744
defin,0.004005
degre,0.001593
delay,0.002485
delayedsuspend,0.006336
deliber,0.002604
deliveri,0.008436
demis,0.006877
demon,0.003442
depend,0.010270
depict,0.004853
describ,0.002395
descript,0.003557
desir,0.001831
despit,0.001649
detect,0.002136
determin,0.002702
develop,0.016542
deviat,0.002761
devic,0.002174
diabet,0.003442
did,0.005777
die,0.001864
differ,0.004125
difficult,0.001697
difficulti,0.002101
dilat,0.045436
dilemma,0.003301
direct,0.001292
directli,0.001563
disabl,0.011334
disagre,0.002797
disapprov,0.003648
discourag,0.002937
discoveri,0.001822
discrimin,0.002701
diseas,0.006114
dispar,0.002990
disrupt,0.002507
dissect,0.003595
dissemin,0.003030
distribut,0.001605
divers,0.003742
divid,0.001542
doctor,0.011610
doe,0.010532
dog,0.005825
domin,0.001601
door,0.003042
dose,0.003546
dosedepend,0.005744
doxycyclin,0.005852
drop,0.002135
drug,0.006884
dublin,0.003605
dure,0.013440
earli,0.012887
earliest,0.001957
east,0.001801
eat,0.002733
eber,0.004123
econom,0.001281
educ,0.002984
effect,0.017069
efficaci,0.003218
effort,0.001622
egypt,0.002473
eighth,0.003268
elect,0.010366
electr,0.003873
elimin,0.002025
embryo,0.025968
emerg,0.004503
emot,0.002406
emphas,0.002055
empir,0.001634
employe,0.004909
empti,0.002792
enact,0.002596
end,0.007684
endang,0.003254
energi,0.001639
engag,0.001855
england,0.002032
ensur,0.001924
enter,0.003425
entir,0.003038
episiotomi,0.005494
equip,0.002094
eric,0.002782
erron,0.003355
error,0.002227
especi,0.006801
estim,0.014835
estonia,0.007025
ethic,0.004311
europ,0.003176
eva,0.004057
evacu,0.016012
evalu,0.002029
everi,0.001465
evid,0.001597
exacerb,0.003243
examin,0.001833
exampl,0.004196
execut,0.001774
exercis,0.002012
exist,0.003494
expans,0.001976
expect,0.001609
experi,0.001440
expos,0.004692
exposur,0.013016
express,0.001517
expuls,0.003435
extens,0.003163
extern,0.000915
extract,0.013529
facil,0.011227
fact,0.002974
factor,0.008911
factorsphys,0.006336
fail,0.003522
failur,0.004076
faith,0.002341
fallen,0.002846
famili,0.008110
far,0.004765
faster,0.002443
father,0.004118
favor,0.009673
fear,0.002197
feder,0.001865
femal,0.014111
fetal,0.043886
feticid,0.019010
fetu,0.110892
fetus,0.004912
fetuss,0.005979
fewer,0.004968
fifth,0.004989
finkbin,0.006336
firsttrimest,0.019010
foal,0.010622
focu,0.003437
folk,0.003028
follow,0.006012
followup,0.003716
forbad,0.003811
forbidden,0.003097
forc,0.006277
form,0.003829
forti,0.003127
fraction,0.002451
franc,0.001793
free,0.001430
frequenc,0.004787
frequent,0.001760
friez,0.005211
garson,0.004397
gemeprost,0.006336
gender,0.002685
gene,0.002430
gener,0.006300
genet,0.002127
georg,0.001805
german,0.003538
germani,0.003772
gestat,0.092140
girl,0.003092
given,0.002512
global,0.001663
good,0.001392
govern,0.001191
government,0.005243
governor,0.002299
gray,0.003125
greater,0.006310
greatli,0.002051
greek,0.001773
group,0.007909
growth,0.001585
guard,0.002618
guis,0.003898
gunn,0.004598
guttmach,0.025347
gy,0.009707
gynaecolog,0.004800
gynaecologist,0.005494
gynecolog,0.008885
gynecologist,0.005568
ha,0.020880
haemorrhag,0.005259
half,0.006896
hanger,0.006336
happen,0.001979
harass,0.006812
hardship,0.003555
harm,0.002414
hazard,0.002860
head,0.001617
health,0.047148
heavi,0.004329
heavili,0.002019
hemorrhag,0.004638
herb,0.010829
herbal,0.007840
hereditarili,0.005311
hi,0.002246
high,0.002536
higher,0.004467
highli,0.001648
hill,0.002491
hindu,0.002904
hippocrat,0.017158
histor,0.002814
histori,0.003129
hold,0.001508
homicid,0.004302
homozyg,0.004302
hormon,0.006492
hors,0.005411
hospit,0.007410
hour,0.004402
howev,0.005082
human,0.004827
hundr,0.001903
hungari,0.003101
husbandri,0.003643
hygien,0.003663
hysterectomi,0.011488
hysterotomi,0.019010
icd,0.004579
iceland,0.003221
identifi,0.001514
idx,0.011136
iia,0.004598
ill,0.002432
illeg,0.007572
imbal,0.003248
immedi,0.003682
impact,0.001716
impair,0.003254
implant,0.003392
implement,0.003487
imprecis,0.003884
improperli,0.004241
improv,0.003082
inabl,0.003024
incest,0.018031
incid,0.017349
incis,0.004153
includ,0.015651
incom,0.001918
incomplet,0.005459
inconsist,0.002910
incorpor,0.001720
increas,0.008431
increment,0.003163
independ,0.001286
india,0.005753
indic,0.003081
indirectli,0.002699
individu,0.001292
induc,0.086812
induct,0.002773
inequ,0.002635
infant,0.003009
infanticid,0.004638
infect,0.014215
infertil,0.004066
influenc,0.001379
influenti,0.002014
inform,0.003735
initi,0.002721
injuri,0.008330
insert,0.002905
inspect,0.003129
instil,0.003927
institut,0.006627
instrument,0.001928
insuffici,0.002839
intact,0.009631
intellectu,0.002148
intent,0.004215
intern,0.003292
interpret,0.001671
intestin,0.003609
intrauterin,0.020494
invas,0.002284
investig,0.003510
involv,0.003642
iq,0.003920
irradi,0.003912
islam,0.004170
israel,0.002565
issu,0.004032
jame,0.001766
jen,0.003877
john,0.001424
judgment,0.010618
jurisdict,0.012711
justif,0.005853
juven,0.005083
kidnap,0.003555
kingdom,0.003332
kitten,0.005045
knit,0.004341
known,0.012558
korea,0.002528
labor,0.010281
lacer,0.005123
lack,0.009581
langur,0.005650
larg,0.001103
largu,0.005650
late,0.002899
later,0.006227
lateterm,0.005979
law,0.022708
lead,0.003748
led,0.001351
lee,0.002847
left,0.001669
legal,0.051841
legisl,0.001917
legislatur,0.002562
lessen,0.003329
lethal,0.003609
lethalsid,0.006336
liber,0.005664
liberti,0.002658
life,0.016153
light,0.001726
like,0.001118
limit,0.006394
line,0.002997
link,0.002731
literatureand,0.006336
littl,0.004808
live,0.008124
liveborn,0.006336
local,0.001418
long,0.002719
longer,0.001727
longterm,0.002203
loss,0.003663
lost,0.003639
lower,0.007736
lowney,0.006336
lumpectomi,0.005979
lupu,0.004490
lymph,0.004341
lymphovascular,0.006336
maintain,0.001460
major,0.006665
make,0.005324
male,0.018790
malign,0.007810
mandatori,0.003218
mani,0.008518
manner,0.004041
manual,0.005289
mare,0.012655
mark,0.001681
massag,0.004241
mastectomi,0.005744
mate,0.003139
matern,0.040145
matter,0.001575
mean,0.004612
measl,0.004207
measur,0.005486
mechan,0.001546
medic,0.080989
medicin,0.011978
meet,0.001694
membran,0.002965
menstrual,0.013978
menstruat,0.004638
mental,0.013595
mentalhealth,0.023918
met,0.002141
method,0.028530
methodolog,0.002216
methotrex,0.005650
methotrexatemisoprostol,0.006336
metronidazol,0.005744
microcephali,0.005979
middl,0.001726
midlevel,0.004458
mifepriston,0.057032
mifepristonemisoprostol,0.012673
million,0.019736
miniabort,0.006336
minisuct,0.006336
minor,0.005813
miscarriag,0.058826
misoprostol,0.047837
misus,0.003453
modern,0.005023
modifi,0.002043
monkey,0.003435
month,0.001850
moral,0.010474
morbid,0.004355
mortal,0.019590
mother,0.019305
motherhood,0.004703
motiv,0.002045
movement,0.001443
multipl,0.006442
murder,0.023934
muslim,0.002341
mva,0.015633
nation,0.003480
natur,0.001117
nazi,0.002919
nd,0.001948
nearbi,0.002576
necessari,0.008343
necessarili,0.002049
need,0.002517
needl,0.007379
neg,0.003631
nelson,0.003163
neoadjuv,0.005852
neoplast,0.004882
nepal,0.003555
netherland,0.002440
new,0.000935
newborn,0.007358
nicaragua,0.003756
nichol,0.004218
node,0.003156
nomin,0.002185
nonmed,0.004368
nonsurg,0.009707
nordic,0.003614
north,0.003325
notabl,0.001606
note,0.003621
notic,0.002376
nowextinct,0.004912
number,0.011522
oath,0.014292
observ,0.002763
obstetrician,0.010422
obstruct,0.003551
obtain,0.008137
occur,0.011973
occurr,0.002708
offic,0.003370
offici,0.001589
onechild,0.015370
onethird,0.003181
onli,0.008674
onlin,0.001832
open,0.001433
opinion,0.006676
oppon,0.002601
oppos,0.005249
optim,0.002220
organ,0.013705
otherwis,0.001991
outbreak,0.002849
outcom,0.004281
outpati,0.004218
outsid,0.003194
overal,0.001916
overlap,0.002327
owner,0.002368
p,0.001598
pace,0.002825
pain,0.002652
palli,0.004289
papyru,0.003480
parent,0.004716
parenthood,0.004774
parti,0.001618
partial,0.001926
partialbirth,0.006336
particularli,0.002936
partli,0.002251
partner,0.002289
partyto,0.006135
pass,0.003253
past,0.003322
patient,0.002550
paul,0.001820
pelvic,0.008482
pennyroy,0.005979
peopl,0.001154
percent,0.004206
percentag,0.011666
percept,0.002228
perfor,0.004302
perform,0.045632
period,0.001244
permiss,0.002910
permit,0.008530
perpetr,0.003674
person,0.010961
personnel,0.005175
pertain,0.005790
pharmaceut,0.002852
phenomenon,0.002156
philosoph,0.001837
phone,0.002988
physic,0.006850
physician,0.023772
picket,0.005123
pill,0.007995
pine,0.003568
place,0.007105
placenta,0.004277
plan,0.006343
plastic,0.002815
point,0.004858
polici,0.006198
polit,0.001314
poll,0.002914
pope,0.005889
popul,0.005959
posit,0.004963
possess,0.001881
possibl,0.003674
postabort,0.006336
postop,0.004750
postpon,0.003409
potenti,0.003109
poverti,0.002470
practic,0.003853
practis,0.003158
practition,0.012600
prefer,0.012870
pregnanc,0.153503
pregnant,0.036639
prematur,0.010251
prescrib,0.005864
present,0.002401
preserv,0.004047
pressur,0.005422
preterm,0.004800
prevent,0.010299
previou,0.001810
previous,0.001830
primari,0.003169
primarili,0.001641
princip,0.001875
privaci,0.003551
privat,0.001721
problem,0.008989
procedur,0.039730
proceduresometim,0.006336
process,0.001135
prochoic,0.005852
procur,0.003316
product,0.001251
profession,0.001945
program,0.001510
progress,0.004909
prohibit,0.009800
prolif,0.006848
promot,0.003425
proper,0.004308
properti,0.001453
proport,0.001985
propos,0.002962
prosecut,0.003246
prostaglandin,0.038000
protect,0.006401
protestor,0.004703
provid,0.008522
psycholog,0.010233
public,0.003627
publicli,0.002569
pump,0.003019
purchas,0.002042
purport,0.003395
purpos,0.001561
question,0.006031
quicken,0.004289
race,0.002358
radiat,0.009618
radic,0.004402
radiotherapi,0.004397
rais,0.005313
rang,0.004324
rape,0.014256
rare,0.003952
rate,0.029759
readili,0.002605
realiz,0.002129
reason,0.013667
recent,0.001318
receptionist,0.005045
recogn,0.001632
recommend,0.008978
record,0.004815
reduc,0.014426
reduct,0.004382
refer,0.005330
regard,0.001460
regardless,0.004604
regim,0.002219
regimen,0.037293
regiment,0.003431
region,0.002727
regul,0.007211
reject,0.001877
rel,0.001365
relat,0.003080
relationship,0.002907
releas,0.001903
reli,0.001834
reliabl,0.002277
relief,0.005429
religi,0.005835
religion,0.001939
remain,0.002518
remov,0.005274
report,0.016099
repres,0.001249
represent,0.001921
reproduct,0.007760
reproductivehealth,0.006336
reput,0.002649
request,0.004629
requir,0.014385
research,0.002470
resolut,0.002329
resorb,0.011301
resort,0.005651
resourc,0.001541
respons,0.003962
restel,0.006336
restrict,0.017649
result,0.012729
retain,0.002002
right,0.019131
rigor,0.002564
rise,0.001532
risk,0.029979
riski,0.003229
robert,0.003348
rockefel,0.003786
rodent,0.003870
roe,0.008885
roeder,0.005650
romali,0.006336
roman,0.002042
romania,0.006389
room,0.002470
root,0.001923
royal,0.002009
ru,0.003912
rudolph,0.004113
rule,0.001390
russia,0.002238
s,0.003240
safe,0.022408
safer,0.007444
safest,0.012984
safeti,0.004909
sake,0.003181
salin,0.003674
sampl,0.002269
sanderson,0.004750
save,0.002162
schedul,0.002531
scholar,0.003867
scholarli,0.002695
school,0.001549
scientif,0.003064
scott,0.002818
scriboniu,0.005650
second,0.009998
secondari,0.002168
secondtrimest,0.023918
section,0.003773
secur,0.003235
sedat,0.004397
seek,0.003417
seen,0.001494
seldom,0.003457
select,0.006623
selfabort,0.006336
selfinduc,0.005744
send,0.002381
sensat,0.006208
sensibl,0.003368
sent,0.002110
separ,0.001391
sepsi,0.004912
seri,0.001517
seriou,0.002133
seriouseven,0.006336
servic,0.004451
sever,0.004419
sex,0.007910
sexscreen,0.006336
sexselect,0.041857
sexual,0.002502
shannon,0.007572
sharp,0.007721
sharpen,0.004133
sheep,0.003068
shelley,0.004022
shennong,0.004975
sherri,0.004800
shield,0.002986
shift,0.001845
sign,0.005234
signific,0.001352
significantli,0.003908
silphium,0.006336
similar,0.008858
similarli,0.002007
simultan,0.002220
sinc,0.003179
singl,0.002836
singledigit,0.005009
site,0.001785
situat,0.001631
sixtu,0.004853
size,0.001650
skill,0.002041
slepian,0.006336
slip,0.003500
small,0.001296
smaller,0.001802
smell,0.003461
social,0.004044
societ,0.005960
societi,0.002655
socioeconom,0.006123
sometim,0.013796
somewhat,0.002246
son,0.002029
sonographi,0.005428
soranu,0.010332
soul,0.002736
sourc,0.002666
south,0.003319
southeast,0.002594
soviet,0.002295
spay,0.005852
spearhead,0.003700
specif,0.005072
spontan,0.030129
st,0.001708
stabl,0.002085
staff,0.002498
stage,0.011104
stalk,0.004164
stand,0.001991
standard,0.004282
start,0.001341
state,0.020400
statelevel,0.004826
statist,0.003477
step,0.001797
stigma,0.008133
stigmat,0.004253
stillbirth,0.005259
stillborn,0.005428
stock,0.002044
strategi,0.001974
stress,0.002173
strictli,0.002499
studi,0.005600
subject,0.001348
subsequ,0.001653
substanti,0.001967
succeed,0.002166
suction,0.013192
suctionaspir,0.012673
suggest,0.002967
suitabl,0.002352
support,0.008820
suprem,0.002170
surgeri,0.014940
surgic,0.048156
surround,0.001940
surviv,0.012795
sweden,0.007942
switzerland,0.008148
syndrom,0.006458
syring,0.005045
taiwan,0.002982
taken,0.003103
takeov,0.003280
tansi,0.006336
tar,0.004153
techniqu,0.011400
technolog,0.001528
televis,0.002388
templ,0.002801
tendenc,0.002379
tent,0.003251
teratogen,0.004943
term,0.008011
termin,0.029798
terminolog,0.002495
terror,0.002821
texa,0.002992
text,0.001828
th,0.008506
thalidomid,0.004853
themselv,0.004716
theologian,0.003134
theoriz,0.002883
therapeut,0.012509
therapi,0.005398
thi,0.016646
threat,0.004445
threequart,0.003762
tiller,0.004912
time,0.008439
tissu,0.002560
tool,0.003394
total,0.002957
tourism,0.002465
trace,0.002032
tradit,0.008007
train,0.003660
trapneuterreturn,0.006336
trauma,0.010502
travel,0.007485
treat,0.005567
treatis,0.002556
treatment,0.011697
trimest,0.071250
trimesterbas,0.006336
true,0.001715
twentieth,0.002500
twin,0.003118
type,0.002548
typic,0.004265
unabl,0.004404
unavail,0.003465
unborn,0.004355
uncommon,0.006497
undergo,0.002457
undergon,0.003307
underli,0.002012
underworld,0.004341
unemploy,0.002482
unicef,0.004383
unintend,0.010719
unintent,0.003739
unit,0.019241
unlaw,0.003891
unless,0.004749
unlik,0.001764
unsaf,0.094845
unsanitari,0.005083
unskil,0.003762
unwant,0.010588
usag,0.002222
use,0.032041
usual,0.003826
uterin,0.013523
utero,0.005083
uteru,0.021207
v,0.003779
vaccin,0.003517
vacuum,0.022123
vagin,0.008885
valu,0.001358
vandal,0.007979
vari,0.012498
varieti,0.003182
variou,0.003619
various,0.003277
vascular,0.003492
vast,0.002128
veri,0.007261
viabil,0.014458
vietnam,0.002872
view,0.002716
vigor,0.003066
violenc,0.015144
viral,0.003476
voluntari,0.002932
vs,0.005117
wa,0.013034
wade,0.004094
wait,0.002873
waiv,0.004368
wale,0.002950
wall,0.002244
wat,0.009319
way,0.002266
week,0.066824
weight,0.002136
wellb,0.005670
whi,0.001950
white,0.004024
wide,0.002729
wild,0.002718
window,0.002978
woman,0.047630
womb,0.004057
women,0.060509
word,0.001471
work,0.002077
world,0.016117
worldwid,0.017200
wound,0.002907
wrote,0.001805
ww,0.003792
year,0.008556
york,0.001632
young,0.001967
zebra,0.004265
