abbrevi,0.004472
abduct,0.005666
abil,0.010105
abl,0.004638
abolitionist,0.006332
abov,0.007052
absenc,0.006751
absentmind,0.008096
abund,0.003723
abundantli,0.007103
academ,0.013751
academia,0.004735
accept,0.002305
accommod,0.004264
accord,0.016525
account,0.008650
accumul,0.003522
accur,0.006257
achiev,0.006930
acknowledg,0.003540
acquaint,0.005374
acquir,0.008972
acquisit,0.007940
act,0.002098
action,0.002256
activ,0.005496
actual,0.002350
ad,0.009373
adam,0.223596
adamsmith,0.009115
addit,0.007430
address,0.002765
adept,0.006081
adher,0.003714
adjust,0.003514
administr,0.007702
adopt,0.002534
adulthood,0.005744
advantag,0.002850
advoc,0.022064
affair,0.003036
affect,0.007198
affluenc,0.013452
afford,0.003943
afterward,0.004044
age,0.002299
agenc,0.008666
agent,0.003130
agreeabl,0.006227
agricultur,0.005458
aid,0.002754
al,0.003149
alan,0.003892
alexand,0.007036
alfr,0.011287
allianc,0.003434
alloc,0.003664
allow,0.009130
alon,0.003140
alreadi,0.002675
altern,0.002359
altogeth,0.004552
alway,0.009877
ambigu,0.004314
ambit,0.014368
american,0.004161
ampli,0.007637
ancient,0.002660
andr,0.004793
andrew,0.007458
angloamerican,0.005649
ani,0.011328
anim,0.002570
ann,0.004300
anniversari,0.004869
annual,0.008462
anoth,0.007064
answer,0.003269
anticip,0.004084
anticorn,0.008376
anyth,0.003629
anywher,0.004494
appar,0.003134
appeal,0.003419
appear,0.012761
appeas,0.005987
appli,0.003926
appoint,0.003018
appreci,0.004074
approach,0.008453
approb,0.007749
appropri,0.002943
approv,0.003154
approxim,0.002502
aptitud,0.006256
architect,0.004881
archiv,0.006759
argu,0.039084
argument,0.006170
aris,0.005991
arm,0.005855
art,0.008427
articl,0.004364
ascertain,0.005288
aspect,0.002413
assum,0.002543
astronomi,0.012368
atheist,0.005009
atlant,0.003891
atomist,0.005809
attempt,0.004189
attend,0.003503
attent,0.005988
attract,0.005909
attribut,0.008563
audienc,0.004144
audiobook,0.005735
august,0.002790
australian,0.003819
authent,0.004651
author,0.014472
automat,0.003748
avaric,0.007399
awar,0.003322
away,0.002797
b,0.002432
bad,0.003766
baker,0.004969
balliol,0.015887
bank,0.010622
banknot,0.016756
bannerman,0.016549
baptism,0.006021
bargain,0.004974
barrier,0.003736
base,0.004800
basi,0.006861
basic,0.002227
bear,0.003436
beau,0.007749
becam,0.004047
becaus,0.003333
becom,0.007089
bed,0.004782
befor,0.009455
befriend,0.006448
began,0.011054
begin,0.002158
begun,0.007040
behavior,0.007791
belfast,0.007010
belief,0.020747
believ,0.013740
belk,0.009115
bell,0.004286
belleslettr,0.008274
belong,0.003128
belov,0.006820
benefici,0.012189
benefit,0.018808
benevol,0.005503
benian,0.009115
benign,0.005964
benjamin,0.004198
best,0.014642
bestknown,0.004826
better,0.007490
bibliographi,0.003220
bicentenni,0.006846
binari,0.004421
biograph,0.010056
biographi,0.017083
birth,0.003262
black,0.002988
blind,0.004531
bloomsburi,0.006558
bodi,0.004443
bodleian,0.007399
bonar,0.008017
bond,0.003162
book,0.042086
bore,0.004969
born,0.006255
boswel,0.015750
branch,0.002354
bread,0.005181
breakdown,0.004558
brewer,0.006465
bridg,0.003658
brilliant,0.005481
bring,0.005505
britain,0.021834
british,0.017305
broader,0.003691
broadli,0.003706
bronz,0.004456
brother,0.003713
brought,0.005458
brown,0.003757
buccleuch,0.008756
buchan,0.007875
buchholz,0.008274
build,0.004686
builder,0.005387
bulg,0.006158
burgh,0.008274
buri,0.004378
busi,0.014975
businessdomin,0.009115
businessmen,0.005387
bussingburk,0.009115
butcher,0.006172
butler,0.005547
butter,0.006081
buyer,0.004419
c,0.002119
ca,0.004072
cabal,0.007585
cambridg,0.023495
came,0.002424
campbel,0.004965
canal,0.004398
canong,0.016752
capac,0.003073
capit,0.024117
captur,0.003044
care,0.002785
career,0.007275
caricatur,0.006598
carolina,0.004996
carri,0.002390
case,0.005562
catalogu,0.005056
cathedr,0.005253
cato,0.005744
caus,0.015834
cecilia,0.007010
celebr,0.007643
centr,0.003049
central,0.012472
centralis,0.005790
centuri,0.020946
certain,0.006089
ch,0.004731
challeng,0.002649
chao,0.004291
chapter,0.020737
charact,0.006128
characteris,0.013336
characterist,0.002556
charl,0.005680
charlott,0.005848
charter,0.003989
chastis,0.007442
chatto,0.007585
cheap,0.009188
check,0.003844
chemist,0.004261
chicago,0.003614
chief,0.006176
childhood,0.009477
children,0.003049
christian,0.002873
church,0.026805
circul,0.003880
circular,0.004321
circumst,0.010219
citat,0.004416
cite,0.006203
civil,0.022894
claim,0.006753
clariti,0.005324
class,0.009838
classic,0.022051
cleveland,0.005848
client,0.004270
close,0.005953
closer,0.011008
club,0.012902
clydesdal,0.008488
coas,0.025792
cobden,0.030548
cobdenit,0.018230
code,0.002869
coin,0.003071
collabor,0.003406
colleagu,0.004008
collect,0.002163
colleg,0.022535
collus,0.006660
colonel,0.005075
coloni,0.018399
colorado,0.005231
combin,0.004229
come,0.008484
comfort,0.009422
comic,0.005187
commemor,0.004965
comment,0.007104
commerc,0.003695
commiss,0.002952
commission,0.004561
commit,0.003108
common,0.007173
commonli,0.002463
compani,0.004683
companion,0.008555
compar,0.002193
compens,0.007497
compet,0.003057
competit,0.026247
competitor,0.004594
complain,0.004815
comptrol,0.006316
concept,0.010349
conceptu,0.003569
concern,0.002082
concis,0.004517
conclud,0.006066
concoct,0.007278
condit,0.004150
confer,0.002919
confisc,0.005208
conflict,0.002762
connai,0.009115
connecticut,0.005474
conscienc,0.010853
consequ,0.002522
consid,0.010378
consider,0.004985
conspiraci,0.010541
constitut,0.004683
consum,0.014766
consumpt,0.006918
contain,0.002127
contemporari,0.002901
content,0.005853
continu,0.007188
contract,0.002975
contradict,0.003961
contrast,0.010021
contribut,0.004353
contributionunproduct,0.009115
contriv,0.006132
control,0.001970
controversi,0.008768
conveni,0.003960
convers,0.009180
cook,0.004181
copi,0.010727
copley,0.007040
copublish,0.008017
corn,0.004638
correspond,0.008077
cosmo,0.005019
cost,0.002607
counten,0.007637
counteract,0.005700
counterpart,0.003977
counti,0.004413
countri,0.001951
courag,0.005532
cours,0.002585
court,0.002813
cousin,0.004877
cover,0.004883
creat,0.005442
creation,0.002699
crisi,0.006121
critic,0.010908
criticis,0.008731
cross,0.003237
cultur,0.002230
cunningham,0.024582
cup,0.004978
curios,0.010600
custom,0.005998
cylind,0.005517
d,0.002401
dalembert,0.006316
daniel,0.003689
date,0.004957
daughter,0.004070
david,0.028982
day,0.013429
dd,0.006132
dead,0.003718
deal,0.002389
dearer,0.008756
death,0.023379
debat,0.011045
decad,0.005392
decemb,0.002721
declar,0.005729
declin,0.002816
dedic,0.003562
deduc,0.004429
deem,0.004014
deepen,0.010660
deepli,0.004187
defenc,0.010831
defend,0.016592
defin,0.002035
definit,0.002345
degre,0.002429
deist,0.006796
deliv,0.006992
demand,0.010592
demolish,0.006145
depend,0.013699
depict,0.007399
deploy,0.004014
descend,0.003590
describ,0.009128
desir,0.002791
destroy,0.012406
destruct,0.003510
deter,0.005433
determin,0.008239
detractor,0.006033
develop,0.011867
devolut,0.006501
devot,0.007011
dexter,0.006639
dictionari,0.003596
dictum,0.006465
did,0.015412
die,0.017051
differ,0.018868
difficult,0.002586
diffus,0.004052
digniti,0.005300
dinner,0.005910
direct,0.005908
disagr,0.004217
disappoint,0.005090
discipl,0.004956
disciplin,0.005466
discont,0.005094
discov,0.002612
discriminatori,0.006185
discuss,0.007260
dislik,0.005294
dismal,0.006501
dispens,0.005160
dispos,0.004388
dissent,0.005051
dissolut,0.004469
dissuad,0.006846
distinct,0.002284
distinguish,0.002633
distractedli,0.008614
distribut,0.007341
divid,0.002351
divis,0.012853
doctor,0.003539
doctrin,0.003557
doctrinair,0.007691
doe,0.002006
doge,0.007875
dogmat,0.011109
doi,0.007853
doin,0.006618
doirefodnb,0.008488
domain,0.002896
domest,0.009219
domin,0.004881
donald,0.004181
dougla,0.021916
draft,0.003827
drawn,0.007000
driven,0.003453
drug,0.003498
drunk,0.006726
dug,0.006242
duke,0.004677
duli,0.006332
dullest,0.008756
dure,0.013658
dynam,0.005561
e,0.004806
eamonn,0.008921
earli,0.010716
earlier,0.002638
earn,0.006712
earnest,0.005633
eas,0.008222
easi,0.003626
econom,0.105527
economi,0.019509
economicu,0.006726
economist,0.053641
ed,0.014999
edinburgh,0.068011
edit,0.005589
educ,0.011374
effect,0.003469
effectu,0.006618
effort,0.002473
egalitarian,0.010977
eighteenth,0.004564
ekelund,0.008614
elect,0.007901
elementari,0.004028
embodi,0.008257
embrac,0.004028
emma,0.006145
empathi,0.005819
emphasi,0.006477
emphasis,0.024058
empir,0.032392
employ,0.016580
enabl,0.005663
encourag,0.008805
encyclopedia,0.003075
end,0.013666
endeavour,0.015466
endow,0.004523
enemi,0.003991
enforc,0.006695
england,0.009295
english,0.007461
engrav,0.005744
enjoy,0.006799
enlighten,0.015596
enquir,0.006871
enrol,0.004910
entail,0.004167
enter,0.002610
enterpris,0.003361
entir,0.002316
envi,0.006009
environment,0.002870
epithet,0.006045
equal,0.012159
equilibr,0.006578
equilibrium,0.014928
era,0.005642
escap,0.003585
essay,0.020762
essenc,0.004033
essenti,0.004964
establish,0.001905
et,0.003069
etch,0.006726
europ,0.004842
european,0.004448
event,0.002323
eventu,0.002538
everi,0.015641
evid,0.004870
evolut,0.002899
exactli,0.003498
exagger,0.004978
examin,0.005589
exampl,0.003198
exce,0.004664
excel,0.003862
excess,0.003450
exchang,0.002524
excit,0.004353
executor,0.014080
exhibit,0.006741
exist,0.003551
expect,0.004906
expens,0.009567
experi,0.002195
experienc,0.003205
explain,0.007211
explan,0.006286
explicitli,0.003635
exploit,0.003324
expound,0.015918
express,0.004627
extend,0.004710
extens,0.004822
extent,0.002938
extern,0.001396
extract,0.003437
extrem,0.002561
eye,0.003569
f,0.007891
face,0.005360
fact,0.011336
factor,0.002264
factori,0.003907
faculti,0.008249
fail,0.002684
fair,0.003616
fall,0.002437
familiar,0.003778
famous,0.004638
far,0.009685
farmer,0.003779
fashion,0.007516
father,0.009418
favour,0.007023
fear,0.003350
featur,0.007244
feder,0.008529
fee,0.004179
feedback,0.004336
feel,0.013353
feet,0.004360
fell,0.003448
fellow,0.012112
fervor,0.007103
feudal,0.004612
fife,0.024545
figur,0.005289
final,0.002309
financi,0.002549
firm,0.003189
fit,0.006502
fix,0.002834
flat,0.004084
flock,0.005899
fluctuat,0.003987
focus,0.004971
follow,0.003054
followedin,0.009115
food,0.002748
foreign,0.004971
forerunn,0.005070
forgotten,0.005042
form,0.007297
formal,0.002389
forum,0.003921
forward,0.003389
foundat,0.002489
founder,0.010040
foundri,0.006952
fourteen,0.005192
franc,0.019135
franci,0.010970
franklin,0.004368
franoi,0.004721
free,0.045803
freetrad,0.006520
french,0.007709
frequent,0.005368
friend,0.015170
friendli,0.004398
frsa,0.008181
fund,0.005265
fundrais,0.006501
futur,0.002325
g,0.002583
gain,0.002323
gait,0.007010
garegnani,0.008181
gave,0.005557
gener,0.026069
geneva,0.010150
gentli,0.006772
geologist,0.005155
georg,0.002752
german,0.002696
gile,0.007010
given,0.007660
glahe,0.009115
glasgow,0.078525
global,0.002535
goal,0.002626
god,0.016710
goe,0.003436
gold,0.003320
gone,0.004237
good,0.029721
govern,0.030868
gradual,0.009208
graduat,0.007156
grant,0.002927
great,0.036585
greater,0.014430
greatest,0.010080
greenspan,0.012793
grew,0.003190
grip,0.005744
group,0.001722
groveatlant,0.009115
grow,0.004897
growth,0.019335
gutenberg,0.005114
gypsi,0.007278
h,0.002652
ha,0.022918
haakonssen,0.017513
habit,0.012145
half,0.007885
hamowi,0.006618
hand,0.030757
handbag,0.008488
handsoff,0.016549
happi,0.004222
happiest,0.007204
harbour,0.004910
hard,0.003133
hardship,0.005419
hardwick,0.007875
harmoni,0.004453
hatr,0.005998
head,0.007395
health,0.002662
heard,0.004540
hebert,0.008181
held,0.004515
help,0.010452
helvtiu,0.007943
henri,0.009233
herbert,0.004134
herd,0.005094
herdsman,0.008488
herdsmen,0.007691
heriot,0.008376
hi,0.190043
hide,0.004520
hierarchi,0.011673
high,0.001933
highest,0.002924
hiroshi,0.006952
histor,0.006434
histori,0.014313
historian,0.003217
hogarth,0.014482
hold,0.002300
holland,0.004974
home,0.005453
homo,0.005005
honor,0.003950
honorari,0.004922
honour,0.004503
hous,0.007684
howev,0.009298
huge,0.003551
human,0.016557
hume,0.049698
humeto,0.009115
hundr,0.002901
husband,0.004974
hutcheson,0.042816
hutchesona,0.009115
hutton,0.005899
iain,0.012728
ian,0.009429
idea,0.027860
ident,0.005468
identifi,0.006924
ii,0.007497
ill,0.007415
illustr,0.003256
imag,0.002940
imagin,0.003817
imaginari,0.005000
immedi,0.005613
imparti,0.005819
impedi,0.005931
imperfect,0.004700
imperi,0.044637
import,0.011400
imposs,0.003228
impress,0.003897
improp,0.005633
incent,0.007951
includ,0.010604
incom,0.014623
incompat,0.004865
inconveni,0.006145
increas,0.012853
inde,0.012987
independ,0.003922
indig,0.008274
indign,0.006726
individu,0.011817
industri,0.021795
industrialist,0.005700
inequ,0.016070
inexpress,0.008017
infant,0.013764
inferior,0.018591
influenc,0.008412
influenti,0.012284
inform,0.001898
infrastructur,0.003232
ingeni,0.006158
inher,0.003659
injuri,0.008465
injustic,0.011109
input,0.010378
inquiri,0.011426
insight,0.003542
instant,0.004935
instead,0.006709
institut,0.016164
instruct,0.007189
insurg,0.004943
intact,0.004894
intellectu,0.026206
intellig,0.002979
intend,0.011823
intent,0.006426
interact,0.002382
interdisciplinari,0.003925
intermedi,0.003752
intern,0.003346
internet,0.003132
interpret,0.007642
intervent,0.003464
introduc,0.006719
introduct,0.002531
invad,0.007638
invari,0.004222
invent,0.009320
invis,0.065253
invisiblehand,0.008921
invok,0.004585
iron,0.003419
irreligios,0.009115
irwin,0.005921
isbn,0.063203
issu,0.006146
iv,0.004144
ivii,0.008274
ivix,0.009115
j,0.004795
jack,0.004514
jacob,0.012916
jame,0.021544
je,0.005964
jean,0.003960
jerri,0.005259
jersey,0.004728
jim,0.005046
job,0.003297
john,0.008687
joint,0.003362
jonathan,0.004464
joseph,0.015732
joshua,0.005374
journal,0.014735
journalist,0.004494
judg,0.007052
judgement,0.014480
judgment,0.004046
juli,0.013790
june,0.013909
jupit,0.005467
jurisprud,0.010710
just,0.002226
justic,0.012907
justifi,0.003840
kame,0.015274
karl,0.007182
kay,0.005772
keith,0.004804
kernel,0.005562
key,0.002429
kincaid,0.008181
king,0.003041
kirkcaldi,0.036461
kirkcaldycharacteris,0.009115
kirkyard,0.009115
klein,0.010112
km,0.003593
knew,0.008995
know,0.005786
known,0.014358
knud,0.015499
krypto,0.009115
l,0.005620
labour,0.093730
labourth,0.009115
lack,0.002434
laid,0.003603
laissez,0.013641
laissezfair,0.032974
land,0.004832
landlord,0.005562
languag,0.002399
larg,0.005047
largescal,0.007439
late,0.006630
later,0.018985
latin,0.003000
law,0.015385
lccn,0.005910
le,0.003802
lead,0.017142
leader,0.005583
leagu,0.003916
learn,0.005363
leav,0.005406
lectur,0.045124
led,0.006181
left,0.010179
legaci,0.004014
legisl,0.002922
lesser,0.003913
let,0.007153
letter,0.009453
levi,0.008972
liber,0.002878
libertarian,0.005051
liberti,0.016208
librari,0.020993
librivox,0.005879
life,0.026677
lifetim,0.004087
lifework,0.008756
light,0.002631
like,0.001705
limit,0.005848
line,0.002284
link,0.001388
lip,0.006094
list,0.005325
listen,0.004508
literari,0.012010
littl,0.009772
live,0.018576
livinggener,0.009115
lld,0.008017
local,0.006486
logic,0.006179
london,0.018815
long,0.004145
look,0.002635
lord,0.018891
loui,0.007204
love,0.003789
low,0.009785
lower,0.009435
lowest,0.003796
lui,0.004969
luxuri,0.009578
macfi,0.008921
machin,0.003082
macmillan,0.013082
magistr,0.025072
magnet,0.003747
magnum,0.012114
maintain,0.011129
mainten,0.003829
major,0.003387
make,0.014609
malthu,0.005889
man,0.016945
manag,0.002286
manchest,0.010019
mandatori,0.004906
mandevil,0.007071
mani,0.012985
mankind,0.013820
manli,0.007317
manner,0.003080
mansionhous,0.009115
manufactur,0.015220
manuscript,0.004331
march,0.015882
marcwilliam,0.018230
margaret,0.013992
margin,0.006996
mari,0.003687
mark,0.002562
market,0.050177
marketplac,0.010093
marri,0.008003
marsh,0.005474
marshal,0.012692
marx,0.013384
marxian,0.005726
master,0.013626
materi,0.004473
mathemat,0.005018
mclean,0.013962
meager,0.006981
mean,0.003515
meant,0.003274
medallion,0.007278
member,0.010183
membership,0.003515
memori,0.009961
men,0.014799
mention,0.006180
mentor,0.005270
mercantil,0.015140
mercat,0.006558
merchant,0.018955
mere,0.006280
messag,0.011900
met,0.013057
metaphys,0.004084
method,0.007907
methodolog,0.003378
metropol,0.007943
middl,0.005263
midnineteenth,0.006242
mile,0.007420
milgat,0.007317
militari,0.002582
millar,0.007071
minimum,0.003481
minist,0.005760
minneapoli,0.005942
minor,0.002953
mislead,0.009653
misrepres,0.005921
misunderstand,0.005242
mizuta,0.009115
mme,0.007357
model,0.007953
moder,0.003656
modern,0.013402
monarch,0.008431
mond,0.006396
money,0.002852
mongiovi,0.008488
monopoli,0.012269
month,0.008460
monument,0.004570
moral,0.105382
moralis,0.017228
moregener,0.009115
morellet,0.008274
mother,0.014714
motto,0.005674
moy,0.015383
mr,0.017165
mtall,0.009115
muller,0.006227
multipl,0.004910
murray,0.004616
mutual,0.013468
n,0.002866
narrat,0.005306
nation,0.088437
natur,0.032377
near,0.005249
nearbi,0.003928
nearest,0.005145
nearli,0.005560
necess,0.011999
necessari,0.010175
necessarili,0.006249
neckti,0.025466
need,0.009594
neoclass,0.038646
nervou,0.008741
net,0.003355
new,0.017109
newli,0.003358
newspap,0.003951
newtonian,0.004939
nichola,0.004293
nicholson,0.013040
night,0.003915
nightgown,0.009115
nineteenth,0.003992
nineteenthcenturi,0.005616
nobel,0.003715
nobil,0.014936
north,0.002534
northern,0.005968
norton,0.004974
nose,0.005355
notabl,0.002449
note,0.012882
noth,0.003377
notion,0.003019
ns,0.006145
number,0.003193
numer,0.002364
oak,0.005140
obliqu,0.006301
observ,0.010533
obtain,0.007443
obviou,0.004032
occas,0.015881
occasion,0.003600
occupi,0.003200
oclc,0.009194
octob,0.002760
offer,0.009494
offici,0.002423
oligopoli,0.006081
oliv,0.009051
onc,0.007155
oneself,0.004996
onli,0.019101
onlin,0.005587
onward,0.004046
open,0.008741
oper,0.004027
oppon,0.003965
opportun,0.003015
oppos,0.005335
opposit,0.010505
opu,0.011544
opul,0.015274
opulencefor,0.009115
orat,0.006009
order,0.008795
ordinari,0.003480
organiz,0.004181
origin,0.007075
orourk,0.014798
os,0.005829
otteson,0.035684
ought,0.013746
ourselv,0.010311
outlin,0.006213
outproduc,0.007943
output,0.006663
outsid,0.009740
overst,0.006520
overturn,0.010473
owner,0.007221
oxford,0.047986
p,0.004873
page,0.003129
paid,0.006509
pain,0.004042
palen,0.018230
palgrav,0.004738
panmur,0.027346
paper,0.005267
pari,0.006981
parlanc,0.006172
parliament,0.003219
parliamentari,0.003655
parti,0.002466
partial,0.005872
particular,0.001997
pass,0.007439
passag,0.003802
passer,0.007749
passion,0.019172
patent,0.008519
paterson,0.006448
patronag,0.010396
paul,0.002774
pay,0.002980
payment,0.003440
peac,0.003078
peart,0.018230
peculiar,0.004969
penguin,0.004800
pension,0.004434
peopl,0.017598
perceiv,0.009630
percept,0.003397
perfectli,0.004434
perhap,0.008901
period,0.009483
periodfrom,0.008488
person,0.014620
petri,0.006316
phenomena,0.003047
phillipson,0.008488
philosoph,0.033621
philosophi,0.038046
physic,0.002088
physicist,0.003778
physiocrat,0.032418
pichet,0.008921
picker,0.006578
piec,0.003524
pierangelo,0.008274
pioneer,0.006669
pit,0.005056
place,0.003610
plain,0.004171
plan,0.002417
planet,0.003621
plant,0.002771
play,0.004609
plenti,0.010038
plu,0.010773
plural,0.004105
pluralist,0.005467
podcast,0.006094
point,0.011109
polic,0.003550
polici,0.011810
polish,0.004312
polit,0.020033
ponder,0.006158
poor,0.015780
popular,0.002283
popularis,0.005641
porter,0.005387
portion,0.003207
portrait,0.020706
portray,0.008309
posit,0.007566
possess,0.008605
possibl,0.005600
post,0.003097
postclass,0.006483
postgradu,0.005348
posthum,0.010428
power,0.007492
pp,0.002984
preacher,0.006158
precaut,0.005899
precoci,0.007071
precursor,0.011962
predict,0.002678
predomin,0.008350
prefer,0.005605
premier,0.004582
prepar,0.002968
present,0.010981
press,0.038776
pressur,0.002755
prestonpan,0.008488
pretenc,0.007749
pretend,0.011332
price,0.024387
prime,0.002940
primer,0.005294
princeton,0.016164
princip,0.005718
principl,0.004394
print,0.003437
privat,0.007873
privileg,0.004177
prizewin,0.005931
probabl,0.010505
process,0.001730
produc,0.013331
product,0.024800
professor,0.009814
professorship,0.017731
profil,0.003951
profit,0.009487
programm,0.007036
progress,0.004989
project,0.006794
promin,0.005740
promot,0.020888
prompt,0.008013
proper,0.006567
properli,0.007698
properti,0.028810
propon,0.007670
proport,0.018157
propos,0.020324
proposit,0.008414
propound,0.005569
proprieti,0.007136
prosecutor,0.005790
prosper,0.015135
protect,0.012197
protrud,0.007103
prove,0.005649
provid,0.012992
provinci,0.008853
provok,0.004684
psycholog,0.003120
public,0.042398
publick,0.015499
publicth,0.009115
publish,0.024379
punish,0.004026
purchas,0.003113
pure,0.002894
pursu,0.013315
push,0.003480
qualif,0.004651
qualiti,0.002727
quantiti,0.017888
queen,0.007683
quesnay,0.021214
question,0.002298
quot,0.007658
r,0.004898
racial,0.004494
radic,0.006710
rae,0.020943
rais,0.002699
rank,0.006180
raphael,0.006256
rapt,0.008756
rare,0.003012
rate,0.002268
ration,0.009463
read,0.010080
reader,0.003958
reaganom,0.007399
real,0.004818
realiti,0.006315
realli,0.003734
reason,0.004166
receiv,0.006653
recent,0.002010
recess,0.004154
recognis,0.003584
recondit,0.008017
record,0.002446
recoveri,0.003864
rector,0.006749
reduc,0.002199
refer,0.009286
reflect,0.002494
refus,0.003387
regard,0.017817
regul,0.013741
reid,0.005744
rel,0.002081
relat,0.001565
relationship,0.008863
releas,0.002901
religi,0.008895
religion,0.002956
remain,0.001919
remaind,0.004307
render,0.003807
rent,0.008939
reorganis,0.005987
repay,0.004906
report,0.004462
repres,0.007616
reprint,0.004464
republ,0.002724
request,0.003528
requir,0.007309
rescu,0.004606
resid,0.012301
resign,0.007933
resourc,0.002350
respect,0.006622
reston,0.007691
restor,0.003282
restrain,0.005510
result,0.004851
retaliatori,0.014482
retriev,0.003448
return,0.009397
rev,0.005187
revenu,0.023706
reverenti,0.007749
revis,0.003468
revolut,0.002875
reynold,0.005532
rh,0.005964
rhetor,0.004494
ric,0.007103
ricardo,0.015829
rich,0.016644
richard,0.002867
right,0.002083
rigid,0.004319
rigor,0.003908
road,0.006743
robert,0.010209
robertlhelbron,0.009115
role,0.004067
ronald,0.008293
ross,0.009499
rothschild,0.006483
rough,0.004603
roughli,0.003256
routledg,0.008273
royal,0.015314
ruinou,0.007241
rule,0.002119
run,0.002551
russel,0.004068
s,0.003292
safeti,0.003741
sage,0.004576
said,0.007155
sale,0.003381
samuel,0.004126
samuelson,0.023316
sanborn,0.007749
sandra,0.006256
sat,0.005495
satiris,0.015383
satisfi,0.003443
say,0.007545
scanti,0.007749
scarc,0.004445
scheme,0.003493
scholar,0.014740
scholarli,0.012327
scholarship,0.008301
school,0.016532
schumpet,0.006132
scienc,0.013666
scot,0.006033
scotland,0.026179
scotsman,0.007442
scott,0.021480
scottish,0.044562
screen,0.004286
scrupul,0.007103
sculptor,0.006348
sculptur,0.015659
second,0.003810
secondari,0.003305
secondli,0.005104
secret,0.003581
sector,0.003043
secur,0.019730
seek,0.005209
seen,0.002277
selfinterest,0.041983
selflov,0.007943
sell,0.003283
senior,0.007695
sens,0.007165
sentenc,0.011905
sentiment,0.099256
seri,0.004625
serv,0.002310
servic,0.006785
set,0.005394
sever,0.008421
shaftesburi,0.007488
shake,0.005858
shannon,0.005772
shape,0.002766
share,0.002262
sharp,0.003923
shelter,0.004525
shelv,0.006069
shepherd,0.011907
shield,0.009104
shift,0.002813
short,0.004950
shortli,0.007226
shown,0.002799
signet,0.007691
silver,0.004039
similar,0.003858
similarli,0.003060
simon,0.003881
simpl,0.002567
simpson,0.010826
sinc,0.001615
singl,0.004324
sir,0.003646
situat,0.004974
skepticismyet,0.009115
skill,0.003112
skinner,0.005562
skousen,0.008274
slaveri,0.004257
sleep,0.004597
slightli,0.003501
small,0.001976
smaller,0.002747
smile,0.011155
smith,0.783849
smithian,0.008756
smoke,0.004800
snell,0.019450
social,0.012331
societi,0.040483
sold,0.010235
solicitor,0.007136
solv,0.002973
someon,0.003773
sometim,0.004206
somewhat,0.003424
son,0.006186
sort,0.010165
sought,0.003147
sourc,0.006096
south,0.002530
southern,0.002998
sovereign,0.003861
speak,0.006195
special,0.008082
specif,0.005798
spectat,0.012371
speech,0.010442
spell,0.004458
spin,0.004480
spite,0.004654
splendor,0.006925
sponsor,0.004050
spread,0.005711
squar,0.003422
squeez,0.005753
st,0.007813
stack,0.005037
stand,0.003036
standard,0.004352
state,0.018376
statement,0.023727
stay,0.003536
steadi,0.004140
stein,0.017860
stephen,0.003588
stepson,0.007875
sterilwa,0.009115
stifl,0.005998
stigler,0.006413
stiglitz,0.006094
stimson,0.007691
stock,0.003116
stoddart,0.007810
stood,0.004346
stori,0.003274
strahan,0.008488
straight,0.004480
strathendri,0.018230
street,0.007373
strong,0.004695
student,0.024748
studi,0.011951
style,0.006657
subject,0.018497
subjectssuch,0.009115
subordin,0.017835
subscript,0.005247
subsequ,0.007563
subsidi,0.004500
subsidis,0.006271
subsist,0.008896
subsistencewag,0.008756
substant,0.005467
substitut,0.003590
success,0.010712
suffer,0.002948
suggest,0.006785
suitabl,0.003586
summaris,0.005762
superior,0.017980
superstit,0.005593
suppli,0.021070
supplysid,0.006558
support,0.036497
suppos,0.007100
surrend,0.004450
surround,0.002958
surviv,0.002786
suspici,0.005517
swift,0.010761
symbol,0.002933
sympathi,0.042354
sympathis,0.007399
symposium,0.005171
symptom,0.004597
synonym,0.004032
systematis,0.006871
tabur,0.009115
taken,0.004731
talk,0.013905
tall,0.010280
tan,0.011250
tariff,0.017750
tassi,0.018230
tax,0.024290
taxat,0.003972
taxi,0.006271
tea,0.005166
teach,0.028484
teacher,0.007404
teapot,0.008274
technic,0.005746
tend,0.002653
tension,0.003669
term,0.018319
text,0.005573
textual,0.005075
th,0.007410
thatcher,0.005899
thcenturi,0.003725
themselv,0.007189
theolog,0.003938
theoret,0.002649
theori,0.068173
theorist,0.003765
thereaft,0.004224
therebi,0.003343
therefor,0.010979
thi,0.035043
thing,0.010282
think,0.005603
thinker,0.003905
thirteen,0.009692
thoma,0.002889
thought,0.016027
thousand,0.002849
thu,0.007554
till,0.004877
time,0.024300
titl,0.005799
todd,0.005641
togeth,0.004455
told,0.004097
toler,0.004087
took,0.010095
topic,0.007690
tori,0.012931
toronto,0.005019
toulous,0.013641
tour,0.018643
town,0.003317
townshend,0.008376
townshendwho,0.009115
trade,0.016359
tradit,0.004068
train,0.002789
transact,0.003478
transform,0.002644
transitori,0.006301
travel,0.008558
treat,0.002828
treatis,0.011692
tribe,0.003977
trivial,0.004823
true,0.002615
trust,0.003531
truth,0.010312
turgot,0.006871
turn,0.006700
tutor,0.039318
twentiethcenturi,0.011170
twice,0.003850
twitch,0.007317
uk,0.008883
unabl,0.003357
undermin,0.004282
undersel,0.008376
understand,0.002192
understood,0.006063
undertak,0.004385
unearth,0.005975
unemploy,0.003783
unimpress,0.007691
unintent,0.005700
unit,0.003259
univers,0.060238
unknown,0.006689
unlik,0.002690
unproduct,0.017546
unpublish,0.011139
unveil,0.005510
unwil,0.005616
upper,0.003262
usabl,0.004956
use,0.023761
usual,0.003888
util,0.005845
v,0.008642
va,0.005616
valid,0.003085
valu,0.022777
valuabl,0.018963
vaniti,0.006660
vari,0.002381
varieti,0.004851
variou,0.001839
veri,0.012915
vernon,0.006069
versu,0.003771
vianello,0.007875
vice,0.003740
victim,0.004341
vid,0.008181
view,0.028989
viik,0.008756
viner,0.023431
virtual,0.003195
vision,0.003499
vivienn,0.007585
vocal,0.005046
voltair,0.005762
volum,0.002767
w,0.008132
wa,0.099350
wage,0.021300
walk,0.008253
wall,0.003420
walra,0.006465
want,0.002982
war,0.002295
wari,0.005953
warn,0.011654
watt,0.005160
way,0.005182
wealth,0.169676
wealthi,0.004215
wear,0.008756
week,0.003395
weinstein,0.007071
welfar,0.003721
wellgovern,0.008921
went,0.020742
western,0.002430
whatev,0.003977
wherea,0.002803
wherev,0.005181
wide,0.004161
wider,0.003678
widow,0.005446
william,0.007766
winch,0.007488
winchest,0.006871
wing,0.008796
wolloch,0.009115
wonder,0.004680
word,0.002242
work,0.050682
workman,0.030340
workmen,0.013850
workshop,0.004782
world,0.009827
worri,0.004760
wors,0.004442
worst,0.004456
write,0.025260
writer,0.013263
written,0.002557
wrote,0.013762
xiv,0.005453
xv,0.005987
yale,0.004416
year,0.026087
yield,0.003156
york,0.002488
young,0.008999
younger,0.004014
z,0.003941
