abdel,0.029735
academ,0.006099
accept,0.005112
accommod,0.009456
accord,0.004072
account,0.009593
act,0.009309
activ,0.012190
actor,0.009387
adam,0.008264
adapt,0.025940
advantag,0.018964
advoc,0.006990
africa,0.019841
age,0.005100
aggrandiz,0.017187
al,0.006985
alassad,0.016822
albashir,0.016059
alexand,0.007802
ali,0.010096
aliyev,0.017781
allard,0.018577
allegi,0.010872
allow,0.004049
amartya,0.014339
america,0.005707
andrew,0.008271
anim,0.005700
annual,0.012512
anoth,0.015668
antana,0.018826
antiauthoritarian,0.050813
antidemocrat,0.016822
antifasc,0.019420
antiregim,0.018351
antnio,0.014078
anwar,0.014545
apartheid,0.025988
apparatu,0.020271
appeal,0.022753
appli,0.004353
approach,0.004686
arabia,0.009962
arbitrari,0.017588
argentin,0.012740
argentina,0.020205
argu,0.016253
aris,0.006643
arm,0.006493
asphyxi,0.016607
assert,0.006996
associ,0.011935
attach,0.007710
attempt,0.013936
attribut,0.012661
august,0.006188
augusto,0.013630
author,0.022926
authoritarian,0.794091
authoritarianlik,0.020216
autocraci,0.041825
autocrat,0.013407
azerbaijan,0.012493
bahrain,0.012863
bank,0.005889
base,0.007097
bashar,0.016607
basi,0.005072
basic,0.004940
battl,0.007691
beat,0.010329
becam,0.004488
becaus,0.007393
befor,0.004193
began,0.009806
begin,0.004788
belaru,0.012566
belief,0.006573
believ,0.005078
bent,0.012475
berdimuhamedow,0.017781
best,0.005412
bind,0.008479
biya,0.018146
bland,0.015127
bloc,0.009853
bohemian,0.015073
bound,0.007347
brandt,0.014917
brazil,0.008775
brethren,0.013601
build,0.005196
bureaucraci,0.010936
bureaucrat,0.021762
bureaucraticmilitari,0.040432
burma,0.012204
c,0.004699
caetano,0.016822
cambodia,0.011976
cameroon,0.013228
candid,0.007575
capita,0.008926
carl,0.008211
carri,0.005301
case,0.008224
castro,0.013303
catastroph,0.019521
cathol,0.007940
caus,0.013169
ccp,0.016410
central,0.009220
centralis,0.012842
certain,0.018005
challeng,0.011750
chang,0.007415
chanocha,0.018146
character,0.031190
characterist,0.005668
charismat,0.025480
chart,0.009368
chile,0.010638
china,0.012637
chines,0.014139
choic,0.006462
chunghe,0.017781
church,0.007431
chvez,0.030255
cite,0.006878
citizen,0.006730
civil,0.022567
cleavag,0.013572
coalit,0.015940
coercion,0.025812
collabor,0.007555
collaps,0.007245
collectiv,0.025685
colorado,0.023203
combat,0.008633
combin,0.009380
comment,0.007878
common,0.003977
communist,0.032451
compar,0.004865
competit,0.006468
competitor,0.010189
concentr,0.006437
concept,0.009180
concern,0.004618
conclud,0.006727
concomit,0.013941
conduct,0.005637
conform,0.009078
connect,0.005415
consciou,0.009726
consequ,0.005593
consid,0.003836
consider,0.005528
constitut,0.005193
constraint,0.016334
consult,0.007595
content,0.006490
contest,0.008654
contrast,0.005556
control,0.026222
coopt,0.014503
corporat,0.014724
corporatist,0.044313
correl,0.007667
corrupt,0.024229
counter,0.008894
countercultur,0.014224
countri,0.012986
coup,0.026875
creation,0.005987
crise,0.010148
critic,0.004838
cuba,0.010471
cultur,0.004946
curb,0.011947
current,0.004211
death,0.017284
decis,0.005546
declin,0.018737
deem,0.008902
defeat,0.007783
defin,0.004514
definit,0.010402
degre,0.005387
demand,0.011745
demobil,0.015826
democid,0.018826
democraci,0.205165
democrat,0.064455
deni,0.007625
depend,0.004340
deposit,0.007787
depriv,0.010565
describ,0.012146
descript,0.006013
determin,0.004568
develop,0.019739
dichotomi,0.011835
dictat,0.018814
dictatorship,0.031890
differ,0.010461
differenti,0.013321
difficult,0.005737
direct,0.004368
displac,0.008440
disput,0.006616
distinct,0.015199
distinguish,0.023360
doe,0.004450
domin,0.010826
donald,0.009274
duckitt,0.040432
dure,0.007573
dynasti,0.008553
earli,0.003961
easili,0.006785
eastern,0.006573
econom,0.017336
economi,0.005408
economist,0.007435
ed,0.005544
efficiencyenhanc,0.019420
egypt,0.025090
elect,0.017523
element,0.005036
elit,0.008794
elsisi,0.017781
embrac,0.008934
emot,0.008135
encourag,0.013018
end,0.004330
endur,0.009665
engend,0.012387
enjoy,0.007539
enter,0.005789
entir,0.005136
environ,0.005249
equal,0.010786
equilibrium,0.008277
erdogan,0.018351
eric,0.009407
especi,0.004598
establish,0.008453
estado,0.027817
et,0.006807
ethiopia,0.011203
ethnic,0.023445
europ,0.005370
evid,0.010801
evil,0.009633
examin,0.006198
exampl,0.024828
exclus,0.006765
execut,0.005999
exercis,0.013608
exist,0.007876
expect,0.010882
experi,0.004870
extend,0.005223
extens,0.010696
extern,0.003096
extrem,0.011362
faction,0.009354
factor,0.005021
fail,0.011908
falang,0.016712
famin,0.010605
far,0.005370
fascism,0.012949
fascist,0.011741
fattah,0.017618
favor,0.006541
fear,0.022293
featur,0.016067
femal,0.007951
fewer,0.008398
fidel,0.012005
financi,0.005653
fit,0.007210
follow,0.006775
forc,0.004244
form,0.022659
formal,0.005299
fragil,0.011354
fragment,0.008329
franci,0.008110
francisco,0.009139
franco,0.024190
francoist,0.017187
free,0.004837
freedom,0.040112
frequent,0.005953
friedrich,0.008661
fukuyama,0.015483
function,0.013007
fundament,0.005423
gaddafi,0.015183
gamal,0.014917
gasiorowski,0.020216
gdp,0.007964
gender,0.036315
gener,0.018258
getlio,0.016822
goal,0.017475
govern,0.040271
government,0.008863
grant,0.006492
group,0.030560
grow,0.005430
growth,0.005360
gruevski,0.018577
guid,0.005987
gurbanguli,0.017618
h,0.005882
ha,0.039533
hafez,0.017187
hail,0.011377
halperin,0.052854
hand,0.005247
health,0.005903
held,0.005007
help,0.004636
helsinki,0.012842
henri,0.006825
hi,0.007594
higher,0.005034
highli,0.005575
hippi,0.015683
histor,0.004757
hold,0.010202
hosni,0.015547
hous,0.017043
howev,0.003436
hugo,0.010782
human,0.004080
humanitarian,0.010655
hun,0.013630
idea,0.009506
ideal,0.006890
identif,0.008341
identifi,0.015357
ideolog,0.047997
ii,0.005542
ilham,0.017956
illiber,0.036703
imag,0.006520
imagin,0.008466
import,0.003611
inadequ,0.010057
includ,0.011759
incom,0.006486
increas,0.004072
increasingli,0.006243
incumb,0.011354
indefinit,0.009949
independ,0.008699
indic,0.005209
indispens,0.011821
individu,0.034945
indoctrin,0.015614
industri,0.004833
inequ,0.017820
infant,0.010175
influenti,0.006811
inform,0.008420
inher,0.008115
instal,0.008357
instead,0.009920
instil,0.013278
institut,0.035850
institution,0.011193
institutit,0.020216
insurg,0.010964
interdepend,0.010630
intermedi,0.008323
interst,0.012642
invad,0.008469
involv,0.004105
iran,0.009606
iranian,0.010680
islam,0.007049
j,0.015955
joachim,0.013303
john,0.004816
joseph,0.006978
juan,0.041703
judiciari,0.009422
junta,0.011890
justicialista,0.019420
karimov,0.017618
kazakhstan,0.012236
key,0.010777
khalifa,0.014300
khamenei,0.017465
khmer,0.013812
khomeini,0.015753
kim,0.011835
kleptocraci,0.017956
korea,0.025640
korean,0.009829
lack,0.010797
lao,0.024160
larg,0.014925
largescal,0.008249
late,0.004901
later,0.004210
latin,0.006654
law,0.004265
leader,0.006191
leadership,0.015363
legislatur,0.008661
legitimaci,0.054180
level,0.012701
liber,0.031916
liberti,0.026960
libya,0.011172
lie,0.006936
lieberth,0.020216
life,0.009102
like,0.018908
limit,0.017295
link,0.006157
linz,0.132054
lipset,0.017618
list,0.003936
lithuania,0.012065
littl,0.005418
littunen,0.020216
long,0.004596
lower,0.005231
lowerclass,0.015826
lowincom,0.025480
loyal,0.010791
loyalti,0.010258
lukashenko,0.035236
m,0.005063
macedonia,0.012336
maduro,0.031803
mainli,0.011754
maintain,0.024682
major,0.003755
make,0.003600
male,0.007940
manag,0.015210
manipul,0.015160
marcelo,0.016410
mark,0.011368
martin,0.007493
mass,0.029028
massbas,0.018146
matern,0.011310
mean,0.003898
meaning,0.009201
measur,0.004636
media,0.006493
men,0.013129
mental,0.007660
meritocrat,0.016228
michael,0.006515
mid,0.014099
militar,0.012493
militari,0.040089
minim,0.007471
misus,0.011676
mixtur,0.017703
mobil,0.022559
mobiliz,0.019420
moder,0.008110
modern,0.004246
monarchist,0.015020
monopoli,0.009070
mortal,0.009461
morton,0.013407
movement,0.004881
muammar,0.015420
mubarak,0.014771
mugab,0.015483
murder,0.008991
mystiqu,0.016410
nasser,0.028840
nathan,0.025284
nation,0.023536
natur,0.007558
nazarbayev,0.016607
necessari,0.005641
negoti,0.007410
network,0.005918
new,0.006324
nicol,0.012863
nikola,0.013780
nonexhaust,0.015826
norm,0.008211
normbound,0.020216
normsfew,0.020216
north,0.005621
note,0.012244
novo,0.026814
nursultan,0.016607
nyazow,0.019104
obedi,0.012336
occup,0.007376
occupi,0.007097
occur,0.008995
offic,0.005698
oliveira,0.015753
omar,0.011947
oneparti,0.012422
onli,0.003258
oppon,0.008794
oppos,0.011832
opposit,0.011650
orderli,0.012404
organ,0.007722
organicstatist,0.020216
orthodoxi,0.011863
ostrac,0.016059
overcentr,0.020216
overli,0.011332
overreli,0.015683
overse,0.010557
overthrew,0.011947
park,0.008274
parliamentari,0.008107
parti,0.065650
particip,0.005584
passiv,0.009754
patronag,0.011528
patroncli,0.018146
paul,0.012307
peac,0.006827
peopl,0.015612
perform,0.014930
period,0.008412
pern,0.032456
person,0.027794
personalist,0.081587
personalisthav,0.020216
pinochet,0.014917
place,0.004003
plural,0.018209
point,0.008212
polic,0.015746
polici,0.010477
polit,0.088863
poor,0.006999
popul,0.005036
populac,0.011203
popular,0.005064
populist,0.050341
portug,0.009456
posit,0.004195
possess,0.006361
possibl,0.004140
post,0.006870
postcoloni,0.012204
posttotalitarian,0.040432
potenti,0.005255
power,0.045697
pragmat,0.009895
prayut,0.018146
precis,0.006686
predomin,0.009260
press,0.004777
preval,0.008938
prevent,0.005803
primarili,0.005549
privat,0.005820
problem,0.004341
procedur,0.007069
promin,0.006365
promot,0.005790
prophet,0.010655
prosper,0.008392
przeworski,0.018826
pseudodemocrat,0.018351
psycholog,0.006919
public,0.012264
punk,0.015073
putin,0.042561
qualiti,0.006048
question,0.005097
quo,0.011321
racial,0.029905
ral,0.014503
rang,0.004873
rare,0.006680
rate,0.005030
ration,0.006996
realiz,0.007198
realli,0.008283
recent,0.004458
recep,0.016506
recogniz,0.011976
refer,0.002574
refuge,0.009638
regim,0.255077
regimesb,0.020216
regular,0.007053
reinforc,0.008767
reli,0.006203
remain,0.004257
report,0.004948
represent,0.006495
repress,0.029130
republ,0.012085
research,0.012530
reshap,0.011961
resili,0.023616
resist,0.006671
resourc,0.005212
respond,0.006943
rest,0.006031
revolut,0.006377
revolutionari,0.008193
reward,0.008906
right,0.013860
rigid,0.009580
robert,0.005660
role,0.009020
roug,0.014224
routin,0.009242
ruhollah,0.016506
rule,0.056395
ruler,0.008601
russia,0.015133
s,0.014605
sadat,0.015420
salazar,0.015183
saparmurat,0.017618
saud,0.015420
saudi,0.010494
scholar,0.006538
scientist,0.005887
secret,0.015887
sector,0.006749
secur,0.005469
seen,0.005051
selassi,0.016317
selfappoint,0.017322
selfconcept,0.014678
selfdescrib,0.014771
sen,0.024672
sens,0.005297
set,0.003988
sever,0.011206
seymour,0.013278
shift,0.006239
shinawatra,0.017781
siegl,0.020216
signific,0.009147
simpl,0.005693
singl,0.004795
size,0.005579
smetona,0.019420
social,0.018232
societ,0.020152
societi,0.022446
sometim,0.004664
sondrol,0.040432
south,0.022444
soviet,0.015521
spain,0.030457
spanish,0.007748
special,0.004481
spring,0.008081
stabil,0.013364
stabl,0.007051
staf,0.012095
stand,0.006733
state,0.056432
statecontrol,0.015358
statu,0.005984
steadier,0.019104
stifl,0.013303
stigma,0.013749
stigmat,0.014379
strengthen,0.008104
stress,0.007347
strong,0.020825
stronger,0.008626
studi,0.015146
style,0.007382
subcategor,0.016712
submerg,0.012720
submiss,0.011343
subordin,0.009889
substant,0.012126
substanti,0.006651
subtyp,0.039395
success,0.009503
sudan,0.011032
suffer,0.006539
suggest,0.020064
superior,0.007975
superpow,0.012319
support,0.017040
suppress,0.008205
surviv,0.006179
syria,0.010533
t,0.006234
taiwan,0.010082
tayyip,0.016822
technocrat,0.054176
teleolog,0.011961
tend,0.011767
tendenc,0.008045
tenur,0.010863
terror,0.019076
thailand,0.021654
themselv,0.005314
theori,0.008399
theoriz,0.029247
thi,0.018760
thought,0.005078
thu,0.004188
tie,0.006989
tighter,0.013203
time,0.003170
toler,0.009066
totalist,0.019420
totalitarian,0.199834
tradit,0.013535
trait,0.016979
transit,0.049904
trend,0.006843
tri,0.005639
trump,0.027260
turkey,0.018689
turkmenistan,0.013719
type,0.004307
typolog,0.012370
tyrant,0.013843
ultimatum,0.012994
underdevelop,0.011976
unit,0.003613
univers,0.007422
unlik,0.017901
unpopular,0.011388
unregul,0.012661
unusu,0.008687
use,0.011711
utilis,0.011781
utopian,0.012457
uzbekistan,0.012863
vagu,0.010597
varga,0.014545
varieti,0.005379
variou,0.004079
vast,0.007194
venezuela,0.021986
version,0.006267
vestal,0.017781
vietnam,0.009710
vietnames,0.011990
view,0.009184
vladimir,0.010196
wa,0.011751
war,0.015269
washington,0.007888
way,0.007662
weak,0.021352
weaken,0.008974
weinstein,0.015683
women,0.006819
work,0.007025
worker,0.006669
world,0.014530
write,0.016806
wrote,0.006104
yale,0.009794
yingluck,0.017956
yrjo,0.020216
zimbabw,0.011715
