academ,0.049040
account,0.019281
addit,0.016561
address,0.024652
adult,0.032048
advanc,0.020219
affect,0.021392
affili,0.037449
age,0.020501
aid,0.024559
analysi,0.078937
analyz,0.027517
answer,0.029149
archiv,0.030131
area,0.016259
attain,0.066278
barrier,0.033309
boulder,0.100153
brazil,0.035275
build,0.020888
carri,0.021312
center,0.042172
certif,0.038426
childhood,0.042249
choic,0.025977
class,0.021928
collect,0.019286
colleg,0.057402
colorado,0.093271
commun,0.017289
constitut,0.020878
contain,0.018969
content,0.026091
countri,0.017401
creat,0.016174
current,0.016928
curricular,0.068087
debat,0.024618
depart,0.046369
design,0.019422
develop,0.013224
directli,0.021246
disciplin,0.024366
dure,0.015221
earli,0.015923
econom,0.017422
educ,0.730137
engag,0.025210
exampl,0.042773
expect,0.021873
experienc,0.028581
extern,0.012448
failur,0.027699
feder,0.076042
field,0.017385
file,0.035535
form,0.013012
govern,0.064753
gp,0.046390
grade,0.039704
graduat,0.063799
grant,0.026097
group,0.030712
higher,0.020238
hold,0.041010
hous,0.022836
human,0.016401
import,0.014519
includ,0.023634
increas,0.016370
indic,0.020941
inform,0.050772
infrastructur,0.028822
institut,0.054041
intend,0.026353
invest,0.024237
involv,0.049509
issu,0.036534
job,0.029397
journal,0.021895
kindergarten,0.059188
law,0.017145
lawmak,0.051795
legislatur,0.034819
level,0.034037
link,0.012375
local,0.038551
mainstream,0.034536
maker,0.039258
mani,0.064314
measur,0.018639
method,0.035249
model,0.017726
nation,0.015768
object,0.019453
occur,0.018080
oecd,0.126373
oper,0.017952
oppos,0.023781
past,0.022575
pay,0.026567
pell,0.061034
peopl,0.015689
person,0.018621
polici,0.421187
policymak,0.046586
pressur,0.024564
principl,0.019588
privat,0.023398
problem,0.017452
profession,0.026442
psycholog,0.027815
public,0.032868
purpos,0.042452
question,0.020492
refer,0.010349
reform,0.126578
requir,0.016292
research,0.033579
respons,0.017950
review,0.023189
right,0.018571
role,0.018129
rule,0.018891
say,0.022422
scholarli,0.036633
school,0.189504
seek,0.023223
select,0.022504
sever,0.015015
sex,0.035833
size,0.044860
societ,0.040505
sociolog,0.034127
specif,0.017233
sphere,0.032233
sponsor,0.036109
state,0.075616
statist,0.023630
steadi,0.036915
student,0.049030
studi,0.015221
subject,0.018322
success,0.019100
target,0.026818
teach,0.028215
teacher,0.132030
texa,0.040663
texan,0.072182
th,0.033031
therefor,0.019577
tool,0.023063
topic,0.022852
track,0.031868
train,0.024871
transpar,0.073724
tri,0.022671
undocu,0.060592
union,0.021403
unit,0.029055
univers,0.074588
uphold,0.047359
valu,0.018460
varieti,0.021626
want,0.026591
wide,0.018550
year,0.029072
