abandon,0.012693
abl,0.003433
abnorm,0.003382
abolish,0.002839
abolit,0.003569
abort,0.026578
abov,0.003479
absolut,0.006915
abus,0.002923
academ,0.002035
accept,0.017063
access,0.003761
accommod,0.018936
accord,0.006795
account,0.001600
acerbo,0.007149
achiev,0.013678
acknowledg,0.005241
acquir,0.002213
action,0.033399
activ,0.002712
adam,0.002758
address,0.002046
admir,0.016101
adolf,0.007498
adopt,0.011253
advanc,0.006714
advantag,0.002109
advent,0.005944
advoc,0.020997
advocaci,0.007356
aerial,0.003827
aesthet,0.006592
aesthetic,0.006055
affair,0.004494
affect,0.003552
afflict,0.004225
african,0.004764
aftermath,0.006773
afterward,0.002993
age,0.008510
agenc,0.002138
agenda,0.009498
agendaabandon,0.007149
aggrand,0.005934
aggress,0.015142
aggressor,0.005048
agre,0.002049
agreement,0.006223
agricultur,0.002020
aid,0.002038
aim,0.005822
aka,0.003704
albania,0.004089
albeit,0.003435
alberto,0.004359
alcest,0.007149
alfredo,0.004686
alien,0.003184
alik,0.003662
alleg,0.008430
allegi,0.003628
allembrac,0.004883
alli,0.025103
allianc,0.002541
allow,0.004054
almirant,0.006375
alongsid,0.002826
alter,0.002437
altern,0.003492
alway,0.003655
ambassador,0.003335
ambit,0.010634
ambri,0.014299
amelior,0.004406
amend,0.002866
america,0.001904
american,0.001539
analysi,0.001638
anarch,0.003963
anarchist,0.004001
ancestri,0.003731
ancient,0.007876
angelo,0.014204
ani,0.013175
annex,0.003091
announc,0.004564
annual,0.002087
ansaldo,0.006746
antagon,0.016653
anthem,0.003949
anticler,0.014317
anticommun,0.005445
anticommunist,0.004366
anticonserv,0.013845
anticonservat,0.007149
antidemocrat,0.016842
antiegalitarian,0.013205
antifascist,0.005146
antigerman,0.005577
antiinterventionist,0.006746
antiliber,0.012751
antimarxist,0.012248
antir,0.004568
antirepublican,0.006375
antisemit,0.039442
antisocialist,0.005780
antithet,0.004945
antnio,0.004698
antonio,0.003539
apart,0.002490
aphor,0.004539
appeal,0.012655
appli,0.005811
applic,0.001623
appoint,0.008936
approxim,0.001852
april,0.004158
arbitr,0.003851
ardent,0.004578
area,0.002699
argentina,0.003371
argu,0.001808
argument,0.002283
aristocraci,0.003831
aristocrat,0.007498
arm,0.008668
armament,0.008438
aros,0.010796
arrang,0.002215
arrest,0.014934
arriv,0.004375
arrow,0.003489
arthur,0.005544
artisticcultur,0.007149
aryan,0.010172
ask,0.002246
aspect,0.003572
assassin,0.009650
assert,0.002334
asset,0.002512
assimil,0.003547
assist,0.010132
associ,0.014604
assum,0.001882
assumpt,0.002315
atheist,0.003708
atlant,0.002880
atom,0.002376
attack,0.015339
attempt,0.018603
attent,0.002216
attract,0.002186
august,0.002065
austria,0.009433
austriahungari,0.009040
austrian,0.006510
autarki,0.025151
author,0.016832
authoritarian,0.020921
automat,0.002774
autonom,0.002748
autonomi,0.011359
autonomyth,0.006746
avanti,0.006282
aventin,0.006282
avert,0.004431
avoid,0.002030
awar,0.002459
away,0.002070
axe,0.003718
axi,0.028052
backer,0.004898
backward,0.006760
bakunin,0.005012
balanc,0.004302
balbo,0.006746
balkan,0.003855
ban,0.016430
bank,0.005896
banker,0.003711
bankrupt,0.004116
barbarossa,0.005210
barrier,0.002765
base,0.007105
basi,0.005078
basic,0.003297
battl,0.005133
bea,0.005735
bear,0.005086
bearer,0.004422
beauti,0.003113
becam,0.017975
becaus,0.016037
becom,0.005247
bedouin,0.004883
beer,0.003793
befor,0.004198
began,0.006545
begin,0.006391
begun,0.002605
behavior,0.001922
behaviour,0.020213
belief,0.004387
believ,0.015254
bellicos,0.005577
belong,0.002315
benedetto,0.005332
benito,0.013797
benn,0.005281
bergson,0.009680
berlin,0.002918
berlusconi,0.011868
bermensch,0.012248
bestow,0.004245
bianchi,0.005476
big,0.002481
bind,0.002829
biogroup,0.007149
biolog,0.003887
biomed,0.003598
birth,0.004829
birthrat,0.005476
bishopr,0.004868
blackshirt,0.018848
blame,0.003255
bless,0.003884
blind,0.003354
blinkhorn,0.006055
blood,0.002668
bloodsh,0.004945
bodenstndigen,0.007149
bodi,0.001644
bolshev,0.016336
bolshevik,0.017200
bolster,0.003963
bolzano,0.005233
bon,0.005030
bond,0.002340
book,0.003115
bordersof,0.007149
borrow,0.002719
boss,0.004652
bottai,0.007149
boundless,0.005048
bourgeoi,0.041455
bourgeoisi,0.013504
bourgeoisproletarian,0.007149
brand,0.003312
brazilian,0.003778
break,0.002258
brief,0.002597
bring,0.006111
britain,0.011543
british,0.005489
broken,0.008197
brother,0.002748
brought,0.006060
brown,0.002780
budget,0.002565
build,0.001734
buildup,0.004036
built,0.002042
bulli,0.004826
bundl,0.010930
bureaucrat,0.003631
busi,0.007389
byproduct,0.003637
came,0.005383
camp,0.008908
campaign,0.014783
capabl,0.004322
capac,0.004550
capit,0.037486
capitalist,0.012969
captain,0.003312
captur,0.002253
care,0.002061
carl,0.002740
carnaro,0.013205
carri,0.003538
cartel,0.004448
case,0.002744
castro,0.004439
catalyz,0.003959
categori,0.002094
cathol,0.026500
catholic,0.003678
caus,0.008789
celebr,0.002828
censor,0.004343
censorship,0.004001
center,0.003501
centr,0.002256
centrist,0.004558
centuri,0.009865
ceremoni,0.003029
challeng,0.011764
champion,0.003407
chancellor,0.003892
chang,0.007424
charact,0.009072
characterist,0.003783
charg,0.004236
charismat,0.004251
charl,0.002102
charter,0.011810
chi,0.003931
chief,0.002285
child,0.007908
childbear,0.005257
children,0.006772
chile,0.007100
chines,0.004718
choic,0.006470
christian,0.004254
christofasc,0.007149
church,0.022319
cite,0.002295
citi,0.005686
citizen,0.008984
citizenri,0.004772
citizenship,0.006842
civic,0.003575
civil,0.015062
civilian,0.008560
claim,0.048318
class,0.029128
classic,0.003626
cleans,0.008614
clear,0.002042
clergymen,0.005476
cleric,0.007946
client,0.006322
cline,0.005125
coalit,0.010639
coin,0.002273
coincid,0.002952
cold,0.002616
collabor,0.005042
collaps,0.009672
collect,0.003202
collectiv,0.004285
colon,0.005824
coloni,0.006809
combat,0.008643
combattimento,0.013493
combin,0.004695
come,0.001569
command,0.002303
commit,0.023007
common,0.009291
commonli,0.009114
commonwealth,0.002835
commun,0.012918
communist,0.008122
compani,0.008666
compar,0.001623
comparison,0.002301
compat,0.003149
compens,0.002774
compensatori,0.004945
competit,0.004317
complet,0.007580
complex,0.001606
compon,0.005671
compos,0.004165
comprehend,0.003888
compulsori,0.003471
comrad,0.004961
conceiv,0.002882
concentr,0.008593
concept,0.018383
concess,0.010415
concordat,0.005332
condemn,0.030919
condit,0.009216
condom,0.005415
confess,0.003987
confid,0.002808
confindustria,0.007149
confisc,0.011566
conflict,0.018401
confront,0.003032
congress,0.002459
connect,0.003614
conscious,0.002796
conserv,0.019611
conservat,0.008291
consid,0.012802
consider,0.003689
consist,0.001469
consolid,0.002882
conspiraci,0.003901
constant,0.002182
constitut,0.003466
construct,0.003399
consumer,0.004501
contemporari,0.004294
contempt,0.004558
contend,0.003164
continent,0.002923
continu,0.002660
contracept,0.004710
contract,0.002202
contrari,0.008612
contribut,0.001611
control,0.020419
controlth,0.006375
conven,0.003785
convent,0.004251
converg,0.002891
convict,0.006362
cooper,0.002098
core,0.006993
corfu,0.005879
corpor,0.008615
corporatist,0.029576
corradini,0.028599
correspond,0.001992
corrupt,0.008085
cosmopolitan,0.004329
council,0.004003
counterpart,0.002943
countri,0.008668
coup,0.005979
cowardic,0.005146
crackdown,0.004431
crass,0.005934
creat,0.025513
createdther,0.006746
creation,0.017984
credit,0.002124
cremona,0.005332
crime,0.008171
crimin,0.005561
crisi,0.013592
critic,0.019377
croat,0.010292
croce,0.005415
cross,0.007188
cuba,0.003494
culmin,0.002908
cult,0.007173
cultur,0.006602
curabl,0.005445
currenc,0.002405
cut,0.004661
cyrenaica,0.005693
cyrenaican,0.006602
czechoslovakia,0.008658
dachau,0.005992
damn,0.004698
dannunzio,0.018373
darwin,0.015361
darwinian,0.004187
darwinist,0.010292
dawn,0.013897
day,0.003313
dead,0.005504
death,0.005768
debat,0.002043
decad,0.015964
decemb,0.002014
decid,0.002139
declar,0.033925
declin,0.002084
decomposit,0.003584
decre,0.003152
decrimin,0.005652
deed,0.003808
deem,0.017825
deep,0.004887
deepli,0.003099
defeat,0.007792
defect,0.003240
defend,0.002456
defens,0.002409
defin,0.004519
definit,0.005207
degener,0.007686
deliber,0.008815
demand,0.005879
demilitar,0.005030
demis,0.003880
democraci,0.048906
democrat,0.008604
deni,0.002544
denounc,0.042670
depend,0.001448
depos,0.003610
depress,0.019093
depressionwa,0.007149
deputi,0.005879
deriv,0.005007
descend,0.002657
describ,0.014863
descript,0.002006
design,0.009674
desir,0.004132
despis,0.004609
destroy,0.002295
destruct,0.005196
determin,0.003049
develop,0.010979
deviant,0.009571
devic,0.002453
devil,0.003888
devoid,0.004206
di,0.006833
dictat,0.009418
dictatorship,0.007095
dictatorshipth,0.006746
did,0.016296
differ,0.002327
difficult,0.001914
difficulti,0.002370
diffus,0.002999
diminish,0.002972
dino,0.006481
diplomat,0.010432
direct,0.010204
directli,0.001763
director,0.002639
disapprov,0.004116
disastr,0.003839
disband,0.003815
disciplin,0.004045
discount,0.003169
discrimin,0.003048
discuss,0.005373
disdain,0.004772
diseas,0.002299
disenfranchis,0.004978
disguis,0.004001
disgust,0.004630
dishonest,0.004883
dishonesti,0.010514
dismantl,0.011541
dismiss,0.002924
disord,0.002829
disorgan,0.013991
dispers,0.003012
disput,0.002208
dissolut,0.003308
dissolv,0.002726
distinct,0.010144
distinguish,0.001949
distrust,0.004041
ditalia,0.011154
divers,0.002111
divid,0.003481
divis,0.003805
divorc,0.003688
doctrin,0.015796
doe,0.001485
dollfuss,0.012111
domest,0.006823
domin,0.009032
dont,0.003067
dostoyevski,0.005614
draft,0.002833
drastic,0.003286
drew,0.003025
dreyfu,0.004710
dtat,0.003523
duca,0.006199
dure,0.024010
duti,0.007837
dwarf,0.003987
dynam,0.002058
earli,0.011897
earn,0.002484
easili,0.002264
eastern,0.002193
eco,0.008829
econom,0.040499
economi,0.023465
edgar,0.003863
editor,0.002813
editori,0.003767
edmondo,0.007149
educ,0.008418
effect,0.006419
effemin,0.006055
effici,0.002069
effort,0.005491
egalitarian,0.032499
egoism,0.004798
egypt,0.002791
eighthour,0.010613
elect,0.005848
element,0.010085
elit,0.023478
elitel,0.007149
elitist,0.004840
els,0.002721
elsewher,0.005449
embodi,0.003055
emerg,0.001693
emmanuel,0.021682
emot,0.008145
emotion,0.005542
emphas,0.020876
emphasi,0.009589
employ,0.008765
employe,0.008308
employeremploye,0.005780
empti,0.003151
en,0.003247
enact,0.002929
encourag,0.002172
end,0.004335
endless,0.004046
endors,0.006256
energi,0.001850
enforc,0.004955
engag,0.002092
engelbert,0.005992
engin,0.003809
english,0.001840
enhanc,0.002448
enjoy,0.002516
enrico,0.004272
ensur,0.002171
entail,0.003084
enter,0.001932
enterpris,0.007463
entir,0.003428
entiti,0.002242
entrench,0.016085
entrepreneur,0.003328
entri,0.002556
environ,0.001752
equal,0.003599
equip,0.002362
era,0.006264
erich,0.004105
ernst,0.003204
errat,0.004448
erupt,0.003300
escal,0.006847
especi,0.001534
espous,0.007506
essay,0.002561
essenti,0.001837
establish,0.007052
estado,0.013925
estim,0.001859
etern,0.003341
ethic,0.002432
ethiopia,0.007477
ethnic,0.002608
etymolog,0.002813
eugen,0.006462
europ,0.017921
european,0.008231
event,0.003439
eventu,0.003757
evict,0.004578
evid,0.001802
exact,0.002521
exalt,0.004465
exampl,0.003551
excit,0.003222
exclud,0.002486
excommun,0.004854
execut,0.004004
exemplifi,0.006734
exercis,0.004541
exhaustedth,0.007149
exist,0.006571
existedth,0.006746
exodu,0.004128
expand,0.003739
expans,0.004460
expansionist,0.009240
expel,0.006373
expend,0.004232
expert,0.002610
explain,0.001779
explod,0.003888
exploit,0.004920
extens,0.007139
extermin,0.004329
extern,0.002066
extramarit,0.005828
eye,0.002642
ezra,0.004747
face,0.007935
fact,0.001678
faction,0.003121
facto,0.003204
fade,0.003774
fail,0.013910
failur,0.006898
falang,0.005577
falangist,0.013493
fall,0.003608
falter,0.004698
famili,0.003660
far,0.005376
farinacci,0.007149
farright,0.015316
fasc,0.019443
fasci,0.051849
fascio,0.027691
fascism,0.462422
fascismespeci,0.007149
fascisminclud,0.007149
fascismo,0.006602
fascismon,0.007149
fascist,0.548596
fascista,0.012751
fascistdomin,0.007149
fascistmussolini,0.007149
favor,0.002182
favour,0.002599
fbi,0.004722
fear,0.002479
februari,0.002147
feebl,0.004898
felt,0.002790
ferrara,0.005146
fetu,0.004314
fetus,0.011084
fidel,0.004006
fifti,0.003349
fight,0.004959
figur,0.003914
figuressuch,0.007149
filippo,0.015566
fin,0.008425
financ,0.004188
financi,0.015094
findesicl,0.031414
firm,0.007081
fit,0.009625
fittest,0.004698
fium,0.006282
fix,0.004195
fluctuat,0.002951
focus,0.003679
follow,0.006783
fondli,0.006199
forbid,0.003800
forbidden,0.003494
forc,0.022665
forcibl,0.003859
fordism,0.005652
foreign,0.014718
forg,0.003515
form,0.017284
formal,0.001768
fortyeighthour,0.007149
forza,0.011985
foster,0.003021
foundat,0.001842
fourteen,0.003843
franc,0.026302
francisco,0.003050
francist,0.007149
franco,0.020182
free,0.016143
freedom,0.006693
french,0.020922
frenchman,0.004675
friedrich,0.005781
friend,0.002807
fund,0.001948
furthermor,0.002421
fuse,0.003479
fusion,0.006588
futur,0.003442
futurist,0.013123
fyodor,0.005146
fzm,0.007149
g,0.001911
gabriel,0.003567
gaetano,0.005445
gain,0.010316
gave,0.008226
gender,0.006059
gener,0.006093
genocid,0.003823
genu,0.003569
genuin,0.006557
georg,0.006110
german,0.061874
germani,0.104273
germanitalian,0.006199
germanspeak,0.004492
gestapo,0.012565
getlio,0.005614
giacomo,0.005012
giant,0.003090
giorgio,0.004698
giovinezza,0.007149
giusepp,0.008503
given,0.004252
glorifi,0.004772
glove,0.004898
gmb,0.006282
goal,0.011663
gobineau,0.012248
god,0.004947
golden,0.011455
gottfri,0.003728
govern,0.041663
grandi,0.005934
grant,0.002166
gravit,0.003161
great,0.009557
greater,0.003560
greatest,0.004974
greatli,0.002314
greec,0.008014
greek,0.004002
grew,0.002361
griffin,0.008896
griffith,0.004212
ground,0.004113
group,0.006374
grow,0.001812
grown,0.005443
guarante,0.005184
guard,0.005908
guild,0.003914
gustav,0.003616
gutenberg,0.003785
gymnast,0.004945
gypsi,0.005387
gyula,0.005693
ha,0.011308
half,0.001945
hall,0.002681
hamsun,0.006199
hand,0.003502
happen,0.002233
harass,0.003843
hardship,0.004011
harmon,0.003435
head,0.005473
headquart,0.003131
health,0.001970
healthi,0.003085
height,0.005635
held,0.023393
henri,0.004555
herbert,0.003060
herd,0.003771
hered,0.004036
hereditari,0.006765
hero,0.003352
heroic,0.008279
heroism,0.005105
hi,0.038016
hierarch,0.006484
high,0.001431
highli,0.001860
highlight,0.002910
histor,0.007937
histori,0.001177
historian,0.019052
hitler,0.065472
hitlerit,0.006922
ho,0.003625
hold,0.006809
holocaust,0.012203
home,0.006054
homosexu,0.024535
honor,0.002923
honour,0.006665
hoover,0.004465
hope,0.004812
hostil,0.002931
hous,0.001895
howev,0.001147
human,0.009531
humankind,0.003918
humili,0.008718
hundr,0.002147
hungari,0.006999
hungarian,0.003643
hungarianamerican,0.005879
husband,0.007363
hygien,0.008267
hyperbol,0.007624
ian,0.003489
idea,0.012689
ideal,0.018397
ident,0.010118
identifi,0.011959
ideolog,0.048053
ignobl,0.006124
ignor,0.002451
ii,0.035142
iii,0.016216
il,0.007881
illeg,0.002847
illus,0.003489
imag,0.002176
immigr,0.005624
immin,0.008124
impact,0.005810
impend,0.004422
imperi,0.013766
imperson,0.004366
implement,0.001967
import,0.004821
impos,0.004861
imposs,0.002389
impress,0.002884
imprison,0.003360
inabl,0.003411
incap,0.003808
incent,0.002942
includ,0.022565
inclus,0.002911
incompat,0.003601
increas,0.002718
increasingli,0.004167
indecis,0.004913
independ,0.001451
indic,0.001738
indiffer,0.003905
individu,0.013119
indoctrin,0.005210
industri,0.027423
industrybut,0.007149
ineffect,0.003575
inequ,0.005947
inferior,0.010320
influenc,0.031132
influenti,0.002273
inform,0.001405
initi,0.007677
insid,0.002370
insist,0.008650
inspir,0.007014
instead,0.011587
instinct,0.007477
institut,0.008973
insult,0.004219
insur,0.002724
intact,0.003622
integr,0.003411
integralist,0.006602
intellectu,0.004849
intend,0.002187
intent,0.004756
intern,0.017338
internation,0.013504
internationalist,0.010134
interpret,0.003770
interven,0.006074
intervent,0.015386
interventionist,0.015145
interwar,0.004001
intimid,0.004046
intract,0.004321
introduc,0.001657
invad,0.005653
invalid,0.003547
invas,0.015462
involv,0.004110
ion,0.003064
iri,0.009078
iron,0.010124
ironi,0.004609
irration,0.004734
irreconcil,0.004945
irredentist,0.016161
irreligi,0.005125
irresist,0.005210
islamofasc,0.007149
island,0.002094
ism,0.009652
isol,0.004589
issu,0.006066
itali,0.183123
italia,0.010251
italian,0.212148
italiani,0.012111
italo,0.005828
j,0.001774
januari,0.004033
jew,0.009967
jewish,0.008789
jnger,0.019443
jo,0.003362
job,0.002440
johann,0.003024
john,0.003215
join,0.006306
joy,0.003831
juan,0.003479
judeomasonicbolshevik,0.007149
judici,0.002713
june,0.004118
just,0.001647
justic,0.002388
justifi,0.002842
kapitalismu,0.006481
kevin,0.003708
key,0.001798
kidnap,0.004011
kill,0.002333
kind,0.003765
king,0.011254
kingdom,0.003759
know,0.002141
known,0.011808
knut,0.004812
labor,0.002320
labour,0.016745
lack,0.001801
laissezfair,0.004067
lan,0.004840
land,0.001788
languag,0.001776
larg,0.003735
larger,0.001865
largest,0.005854
late,0.009815
later,0.007026
lateran,0.005257
latin,0.004441
launch,0.002379
law,0.015657
laymen,0.004913
le,0.002814
leader,0.022727
leadership,0.012818
leadersnor,0.006746
leadersuch,0.007149
leagu,0.005798
learn,0.001984
leav,0.002000
lebensraum,0.005306
led,0.022874
left,0.020718
leftist,0.003640
leftright,0.004785
leftw,0.015587
legal,0.005849
legisl,0.002163
legitim,0.002934
legitimaci,0.010848
lenin,0.008302
lewi,0.002965
liber,0.055388
liberalbourgeoi,0.007149
liberalera,0.007149
liberalinspir,0.007149
liberti,0.005998
libya,0.018642
lictor,0.006375
life,0.007594
like,0.002524
likewis,0.002798
limit,0.004328
line,0.005073
link,0.003082
list,0.003941
literatur,0.004221
lithuania,0.004026
littl,0.005425
littorioa,0.007149
live,0.007638
loan,0.002741
local,0.001600
locat,0.001737
lockout,0.005780
logist,0.006819
lombard,0.004747
london,0.001989
long,0.006136
longer,0.001948
longtim,0.004026
look,0.003901
lose,0.002484
loss,0.002066
lost,0.002053
louisferdinand,0.006746
lowerqu,0.006481
loyal,0.003601
ludendorff,0.006055
lukac,0.005445
macedonian,0.004398
machin,0.004562
magistr,0.003711
main,0.001495
mainstream,0.005734
maintain,0.004942
mainten,0.002834
major,0.022562
make,0.003604
male,0.007950
malign,0.004406
man,0.004180
manag,0.005076
manageri,0.003843
mani,0.011746
manifest,0.008153
manifesto,0.026075
mankind,0.003409
manner,0.004560
manufactur,0.002253
march,0.009796
margherita,0.005992
marinetti,0.051849
mark,0.003793
market,0.003537
martial,0.003804
martin,0.002500
marxism,0.044337
marxist,0.022454
marxistdefin,0.007149
masculin,0.008400
mass,0.019375
massacr,0.003444
massbas,0.006055
massiv,0.007541
materi,0.014900
materialist,0.003819
matern,0.003774
matteoti,0.007149
matter,0.003554
matthew,0.003425
maurra,0.053974
maurras,0.007149
maurrassian,0.014299
maxim,0.002686
mean,0.013011
meaningless,0.003977
measur,0.001547
media,0.004334
mediat,0.002894
mediawixcom,0.007149
mediocr,0.004826
mediterranean,0.015452
meet,0.007646
member,0.018089
membership,0.002602
men,0.017526
mental,0.005113
mention,0.002287
mere,0.006972
merg,0.008536
met,0.002416
mi,0.002978
michaloliako,0.007149
michel,0.003238
mikhail,0.003721
milan,0.003963
milit,0.014766
militari,0.022935
militia,0.010968
millenarian,0.005476
million,0.009278
mindset,0.004548
minh,0.004812
minimum,0.002577
minist,0.012790
ministri,0.005080
minor,0.017491
mistress,0.004812
misus,0.003896
mix,0.009089
mobil,0.025095
model,0.008830
modern,0.021256
modernist,0.008464
modifi,0.002305
monarch,0.009360
monarchi,0.006056
monarchist,0.010025
monasteri,0.003589
money,0.002111
month,0.004174
moral,0.004727
morgan,0.006708
mosca,0.011657
mostli,0.004031
mother,0.005445
motherhood,0.005306
motiv,0.002308
mountain,0.002541
movement,0.057020
moyra,0.007149
multiparti,0.003031
multipl,0.007268
munich,0.012300
murder,0.006001
muscular,0.004187
musician,0.004122
mussolini,0.340328
mutual,0.004984
mystif,0.005992
myth,0.012068
mythic,0.003936
napl,0.004422
narrow,0.002667
nation,0.107349
nationalist,0.036759
nationalistsyndicalist,0.007149
nationalsyndicalist,0.007149
nativ,0.002441
natur,0.013874
nazi,0.112005
nazional,0.005387
nazism,0.032266
near,0.001942
necess,0.008881
necessari,0.007531
need,0.011362
neg,0.002048
negat,0.003760
neighbor,0.002665
neighbour,0.002885
neocleou,0.007149
neofasc,0.007149
neofascist,0.019127
neomachiavellian,0.007149
neonazi,0.017207
neutral,0.005171
new,0.018995
newcom,0.004548
newspap,0.011699
nichola,0.003178
nietzsch,0.027944
nietzschean,0.005359
nihil,0.009002
nikolao,0.005735
nineteenth,0.002955
nonaryan,0.006602
nondemocrat,0.005577
nonegalitarian,0.006481
noneuropean,0.004599
nonfascist,0.007149
nongerman,0.006055
nordic,0.012235
nordicist,0.020768
nordicmediterranean,0.007149
normal,0.005649
northern,0.011043
notabl,0.001812
note,0.006810
noth,0.007500
notion,0.002235
novemb,0.004238
novo,0.013423
npd,0.006746
nsv,0.018848
number,0.013001
numer,0.003500
nuremberg,0.009624
obedi,0.004116
obliter,0.005167
obrero,0.005693
obscur,0.003272
observ,0.001559
obsess,0.004145
obsolet,0.003684
obtain,0.001836
obviou,0.002984
occasion,0.002665
occup,0.004923
occupi,0.002368
occur,0.001501
ocean,0.002431
octob,0.010214
offend,0.003954
offens,0.006584
offic,0.003803
offici,0.014349
oliveira,0.005257
olivetti,0.018167
oliviero,0.018848
onc,0.003530
oneparti,0.016582
onli,0.009787
onset,0.007268
open,0.001617
openli,0.007156
oper,0.001490
oppon,0.008804
opportun,0.004463
opportunist,0.018437
oppos,0.033564
opposit,0.007775
oppress,0.003484
order,0.016925
orderli,0.004139
ordinari,0.002576
ore,0.003384
organ,0.024484
origin,0.001309
orwel,0.004883
outbreak,0.012859
outlook,0.003386
outnumb,0.003922
outsid,0.005406
overal,0.002162
overcom,0.002901
overrid,0.004122
overthrow,0.006861
overthrown,0.003812
overus,0.004539
ownership,0.005549
pacif,0.005476
pact,0.003547
palazzo,0.005879
palingenesi,0.012962
palingenet,0.019808
panunzio,0.006602
papaci,0.009240
parafascist,0.007149
paramilitari,0.008291
parasit,0.010491
pareto,0.004157
pari,0.002583
parliament,0.019062
parliamentari,0.010822
parliamentarian,0.004439
parti,0.056598
particip,0.001863
particular,0.004436
particularli,0.009941
partisan,0.004128
partit,0.003272
partito,0.012962
partli,0.002540
partyarmi,0.007149
partyto,0.006922
passmor,0.005879
patriot,0.006894
paxton,0.005780
payment,0.002546
payn,0.004961
pdf,0.002734
peac,0.004556
peak,0.002592
peasant,0.003294
pejor,0.012367
penalti,0.007068
peopl,0.033867
perceiv,0.007127
percent,0.004745
percept,0.002514
period,0.008422
perman,0.002289
permiss,0.003284
permut,0.004175
pern,0.010831
peron,0.005934
perpetu,0.003200
persecut,0.006810
person,0.009275
personifi,0.004772
perspect,0.002114
pervers,0.004520
pervert,0.005577
pessimist,0.004390
pfr,0.007149
phenomenon,0.002433
philip,0.005807
philosophi,0.008045
physic,0.006183
place,0.008016
plan,0.007156
plansresult,0.007149
pleng,0.027691
plnio,0.007149
plural,0.006076
plutocrat,0.006199
point,0.002740
poland,0.016138
pole,0.003272
polic,0.007882
polici,0.036715
polish,0.003191
polit,0.088968
politician,0.002834
pope,0.006645
popolo,0.012565
popul,0.008404
popular,0.005070
populist,0.012600
pornographi,0.004840
portug,0.003156
pose,0.002877
posit,0.016802
positiv,0.007694
post,0.002292
postfascist,0.013845
postworld,0.008156
postworldwar,0.007149
potenti,0.001753
pound,0.003395
power,0.042978
powerha,0.007149
practic,0.005797
prais,0.003167
prayer,0.003569
preced,0.002566
predatori,0.004374
premarit,0.006124
preoccup,0.004448
prepar,0.004394
presenc,0.002048
present,0.006773
preserv,0.004566
press,0.001594
prevail,0.002866
previou,0.006128
previous,0.002065
preziosi,0.006199
pride,0.003728
primari,0.007153
primarili,0.007407
prime,0.008706
primo,0.005415
primordi,0.003808
princip,0.002116
principl,0.001626
prior,0.014323
privat,0.015540
problem,0.004346
problemsinclud,0.006481
proceed,0.004958
process,0.001280
proclaim,0.003064
produc,0.007048
product,0.022591
production,0.007149
productivist,0.018167
profession,0.002195
professor,0.002421
profit,0.011703
profitshar,0.005508
program,0.006816
programm,0.002604
progress,0.007385
prointerventionist,0.020240
project,0.003352
proletarian,0.043560
proletariat,0.004501
prolongedcontrari,0.007149
promin,0.002124
promis,0.007637
promot,0.050246
propaganda,0.018111
propagandaandcultur,0.006746
properti,0.004920
proport,0.002239
propos,0.001671
prosper,0.002800
prostitut,0.008291
protectionist,0.008643
protector,0.003352
protest,0.002517
provid,0.004808
psi,0.008245
psycholog,0.006927
puberti,0.004929
public,0.009550
publicli,0.002899
publish,0.001503
punish,0.002980
pure,0.006426
purg,0.015157
puriti,0.007670
purpos,0.003524
pursu,0.029566
pursuit,0.003054
putsch,0.005415
quantiti,0.006620
question,0.003402
quickli,0.002205
quot,0.002834
race,0.031939
rachel,0.004351
racial,0.046574
racism,0.003982
racist,0.004406
radic,0.017384
raid,0.003225
rais,0.001998
ramif,0.004285
rang,0.001626
rare,0.002229
rate,0.001678
ration,0.011673
rationalist,0.003918
reach,0.001746
reactionari,0.025674
read,0.001492
realiz,0.002402
realpolitik,0.005476
rearmament,0.005188
reason,0.004626
rebirth,0.007984
receiv,0.006566
recess,0.003075
reclaim,0.008023
recogn,0.005527
reconstruct,0.005385
red,0.007144
redempt,0.004128
reduc,0.004883
reduct,0.002472
refer,0.004295
reflect,0.003692
refound,0.005146
refuge,0.003216
refus,0.002507
regard,0.013187
regardless,0.002597
regen,0.004898
regener,0.011470
regim,0.032548
region,0.004615
regul,0.006102
regularli,0.002924
reinforc,0.002926
reject,0.019063
rejuven,0.004710
rel,0.001540
relat,0.012743
relationship,0.001640
reli,0.002070
relianc,0.003444
religi,0.002194
religion,0.006565
remain,0.005684
remilitar,0.006124
remov,0.001983
renaiss,0.002841
renew,0.002512
reorgan,0.003592
repeatedli,0.003057
replac,0.007003
report,0.001651
repres,0.004228
represent,0.008670
repress,0.006480
reproach,0.005233
reproduc,0.002914
republ,0.006049
republican,0.003069
requir,0.002705
reradic,0.007149
rescu,0.010229
resign,0.002936
resist,0.002226
resolut,0.002628
resolv,0.004991
respect,0.001633
respond,0.006951
respons,0.007451
restraint,0.003859
restrict,0.001991
result,0.013165
retain,0.006778
retir,0.002923
revis,0.005135
revisionist,0.004641
reviv,0.002730
revolt,0.006256
revolut,0.014899
revolutionari,0.054688
rhetor,0.006653
rhineland,0.004978
richard,0.004245
ridicul,0.004031
right,0.038545
rightw,0.023781
riot,0.003433
rise,0.013831
risk,0.002114
ritual,0.003204
rivera,0.005146
rivoluzionario,0.006602
robert,0.001889
roberto,0.004351
rocco,0.006481
rod,0.011144
roderick,0.004558
roger,0.002881
role,0.009030
roman,0.013828
romania,0.003604
romanian,0.008314
romant,0.003656
rome,0.026402
room,0.002786
root,0.006511
rose,0.002607
rossoni,0.007149
roughli,0.002410
rule,0.007841
run,0.001888
russia,0.005050
russiagreatli,0.007149
russian,0.005030
russiath,0.007149
s,0.018278
said,0.007061
saint,0.005746
salazar,0.005067
salgado,0.005934
sanction,0.003225
sanctiti,0.010025
sanguinari,0.006746
sarfatti,0.007149
sat,0.004067
saw,0.008410
say,0.020476
scandal,0.003628
scapegoat,0.005577
schmitt,0.004913
scholar,0.008728
school,0.001748
scientif,0.001728
scientism,0.004785
scientist,0.001964
scope,0.002525
scorn,0.004652
sea,0.004384
seat,0.010170
secess,0.004157
second,0.002820
secondari,0.002446
sector,0.015768
secur,0.007301
seek,0.003855
segreg,0.003760
seguro,0.005828
seiz,0.011816
seizur,0.007662
select,0.001868
selfdescrib,0.004929
selfdetermin,0.003863
selfinterest,0.003884
selfsuffici,0.003610
senat,0.002947
send,0.002686
senior,0.002847
sens,0.005303
sensibl,0.003800
sent,0.004763
separ,0.001569
separatist,0.004083
sergio,0.004747
seriou,0.004813
serv,0.006841
servant,0.003312
servic,0.003348
set,0.003992
settl,0.002441
settlement,0.002507
settler,0.003233
seven,0.002254
sever,0.008726
sexolog,0.005879
sexual,0.016940
share,0.003348
shirt,0.004785
short,0.001831
shortli,0.002674
shortliv,0.003375
shortservic,0.007149
sicl,0.010060
sign,0.003937
signific,0.001526
silvio,0.005105
similar,0.008567
similarli,0.002265
simon,0.005746
simultan,0.002505
sinc,0.004782
singl,0.003200
sinosoviet,0.005281
sit,0.003161
situat,0.001841
sizabl,0.004026
slate,0.004145
slav,0.004722
slavsespeci,0.007149
slovakia,0.004116
sloven,0.005125
small,0.004389
soar,0.011627
socal,0.002412
social,0.080622
socialist,0.056176
societi,0.031461
sociologist,0.003393
soldier,0.002720
sole,0.004854
solidar,0.018392
solut,0.004091
solv,0.002200
sometim,0.007783
sophist,0.002751
sorel,0.045545
sorelian,0.020240
sought,0.020965
sourc,0.006016
south,0.003745
sovereign,0.002858
sovereignti,0.002883
soviet,0.015540
space,0.003687
spain,0.005082
spanish,0.005171
spazio,0.007149
spectrum,0.019794
specul,0.004975
speed,0.002445
spirit,0.016211
spiritu,0.008265
split,0.007372
spoke,0.019801
spread,0.006340
squadristi,0.013493
stabl,0.002353
stackelberg,0.006375
stalin,0.003931
stalinist,0.004698
stanc,0.013185
stand,0.004494
standard,0.001610
stanley,0.003149
starvat,0.003945
state,0.052313
statea,0.006746
statecontrol,0.005125
statement,0.002195
stateoper,0.006055
stateown,0.003520
statu,0.001997
staunch,0.004510
staunchli,0.005508
stay,0.002617
steadi,0.003064
steadili,0.003154
steel,0.002995
stefani,0.005879
stem,0.002687
sternhel,0.006282
stimulu,0.003502
strategi,0.002227
strength,0.012126
strengthen,0.002704
stress,0.004904
strictli,0.002820
strike,0.015958
strive,0.003428
strong,0.008687
strongest,0.006938
strongli,0.004609
structur,0.004191
struggl,0.010026
student,0.004070
studi,0.002527
subject,0.003042
subjectiv,0.004883
sublim,0.004175
subordin,0.003300
subsequ,0.001866
subservi,0.008879
substanti,0.002219
subtyp,0.004382
subvers,0.004492
subvert,0.009545
succeed,0.007333
success,0.001585
suddenli,0.003547
sudetenland,0.005780
suffrag,0.003515
suggest,0.001674
suicid,0.003428
sum,0.002385
supercapit,0.006602
superior,0.010646
superiorqu,0.007149
support,0.051182
supportedbut,0.007149
supposedli,0.007299
supran,0.004747
surg,0.003691
surpass,0.003375
surrend,0.013177
surviv,0.010311
survivor,0.003714
swastika,0.012111
switch,0.002936
symbol,0.013025
synchron,0.003927
syndic,0.017257
syndicalist,0.044913
synonym,0.002984
synthesi,0.002669
systemat,0.002284
tactic,0.003179
taken,0.001750
tariff,0.003284
tax,0.002247
teach,0.002342
tear,0.003835
technician,0.003823
technocrat,0.004520
technolog,0.012068
technologicalmarti,0.007149
tend,0.001963
tenet,0.003520
tension,0.002716
tenur,0.003625
term,0.016948
terminolog,0.002815
territori,0.016743
terror,0.003183
th,0.004113
thcenturi,0.002757
theme,0.005296
themselv,0.014189
theoret,0.003921
theori,0.012614
theorist,0.002786
therapi,0.003045
therebi,0.002475
therefor,0.001625
thereof,0.003675
thi,0.013416
thing,0.005708
think,0.002073
thirdway,0.006922
thorni,0.005828
thousand,0.004217
threat,0.002508
threaten,0.002718
threefourth,0.005146
thu,0.002795
tie,0.004664
time,0.011637
today,0.001717
togeth,0.003297
tommaso,0.015632
tomorrow,0.008558
took,0.005604
total,0.013347
totalitarian,0.023537
trace,0.002292
trade,0.003459
tradespeopl,0.005735
tradit,0.009034
traditionalist,0.004406
train,0.006194
trait,0.002833
transcend,0.003382
transclass,0.007149
transform,0.007829
translat,0.002058
transport,0.004099
treati,0.004994
trent,0.004826
tri,0.001882
trial,0.002728
tribe,0.002943
tribun,0.007429
triumph,0.007443
trust,0.002614
tsar,0.004422
tumor,0.003839
turkey,0.003118
turmoil,0.003728
turn,0.001653
twentiethcenturi,0.004133
type,0.004312
typic,0.006416
tyrann,0.005233
tyranni,0.004212
uk,0.002191
ultim,0.002068
ultranation,0.012962
umberto,0.010251
unabl,0.002484
unaccept,0.003896
unavoid,0.004300
unceas,0.005992
unchang,0.003188
undermin,0.003169
understood,0.002244
uneasi,0.004520
unemploy,0.008402
unifi,0.007508
unimpress,0.005693
uninterest,0.004698
union,0.014215
unit,0.007236
uniti,0.021027
univers,0.003715
unjust,0.004219
unlik,0.001991
unlimit,0.003578
unorthodox,0.004686
unpreced,0.006791
unprincipl,0.012962
unproduct,0.008658
unrest,0.003316
unw,0.006481
uphold,0.003931
urban,0.002508
use,0.014656
usual,0.002877
util,0.002163
utopian,0.004157
valu,0.010728
valuesinterpret,0.007149
vanguard,0.004366
varga,0.004854
vari,0.003525
variabl,0.002185
variant,0.002896
varieti,0.001795
variou,0.008167
verg,0.004225
versail,0.004187
version,0.002091
versu,0.005582
viabl,0.003290
victimhood,0.007149
victor,0.016092
victori,0.002769
vidioni,0.007149
vietnam,0.003240
view,0.030652
viewsadvoc,0.007149
vilfredo,0.004826
violat,0.002645
violenc,0.048412
violent,0.014763
viril,0.011759
vision,0.002590
vital,0.016023
vladimir,0.003402
vocal,0.003735
volksgemeinschaft,0.012565
volunt,0.003296
vote,0.004535
wa,0.089221
wage,0.005255
wagnerian,0.006746
wait,0.003242
wale,0.003328
walk,0.003054
want,0.004415
war,0.124001
warfar,0.006065
warrior,0.003604
warriorsonc,0.007149
warriorwork,0.014299
washburn,0.005508
way,0.003835
weak,0.004750
wealth,0.002462
weaponri,0.004100
week,0.002513
weimar,0.009261
weiss,0.004483
welfar,0.011016
went,0.004386
western,0.003597
whatev,0.002943
wherea,0.002074
wide,0.009240
wider,0.002722
widespread,0.006892
widow,0.004031
willing,0.003652
winter,0.002963
wish,0.002643
woman,0.008956
womanli,0.006481
women,0.034136
won,0.004841
word,0.008299
work,0.016411
worker,0.026711
workforc,0.003362
world,0.041218
worldwid,0.002425
worst,0.003298
worthwhil,0.004343
write,0.007478
wrong,0.002812
wrote,0.008149
wyndham,0.005577
year,0.007240
yesterday,0.009420
yoke,0.005012
york,0.003683
young,0.004440
youth,0.024126
yugoslavia,0.016166
zeev,0.005828
