abroad,0.026826
affair,0.040852
africa,0.040123
african,0.086608
agre,0.018625
agricultur,0.018361
aid,0.018532
alberto,0.039621
american,0.013996
angola,0.037471
ani,0.010887
announc,0.041489
anoth,0.011881
assembl,0.038569
assist,0.073676
assur,0.028145
august,0.018771
award,0.021778
base,0.010764
becam,0.013615
becom,0.011924
bilater,0.028331
build,0.031525
burkina,0.041084
capac,0.041360
carlo,0.028389
centr,0.020513
china,0.076668
close,0.013349
closer,0.024686
collabor,0.022918
colon,0.026472
coloni,0.041260
commerci,0.019115
common,0.012064
commun,0.013046
comput,0.016533
congo,0.034048
consid,0.011636
context,0.017552
continu,0.012090
cooper,0.057214
costa,0.070686
council,0.018194
countri,0.105049
credit,0.019309
da,0.053124
decemb,0.073244
deliv,0.023519
describ,0.012281
develop,0.049896
development,0.028089
diplomat,0.189650
dr,0.024756
dure,0.022972
econom,0.026293
educ,0.015304
emori,0.046229
emphas,0.021083
empir,0.016762
enetwork,0.062924
enjoy,0.022870
enter,0.017562
essenti,0.016699
establish,0.038461
europ,0.016289
expand,0.016993
experi,0.014772
export,0.022037
exportugues,0.064987
extern,0.009393
facilit,0.043315
far,0.016289
faso,0.041084
favour,0.023623
februari,0.019517
field,0.013119
financi,0.017149
follow,0.010275
foreign,0.033445
form,0.009819
formal,0.016074
friendli,0.029590
gabon,0.041084
gener,0.018461
gestur,0.035537
gift,0.028996
good,0.014281
goodwil,0.040051
govern,0.085510
grant,0.039385
ha,0.051393
hardwar,0.030051
health,0.035816
high,0.013007
howev,0.010425
identifi,0.015528
immedi,0.018883
implement,0.017884
import,0.032868
increasingli,0.018937
incubationcumproduct,0.064987
independ,0.105551
india,0.137669
indiaindia,0.064987
indigen,0.025612
infrastructur,0.043498
intern,0.011256
januari,0.018332
join,0.019107
juli,0.018554
june,0.018715
kind,0.017110
korea,0.051851
land,0.016254
languag,0.016142
largest,0.017738
later,0.012772
leav,0.018187
led,0.013860
level,0.012842
line,0.015370
list,0.023883
local,0.014545
mainland,0.027897
maintain,0.014974
manuel,0.068684
meaning,0.027910
medicin,0.020474
meet,0.017375
militari,0.017372
million,0.067468
minist,0.019375
ministri,0.046179
mission,0.085646
movement,0.014807
nation,0.047596
navi,0.025702
near,0.017656
nearli,0.018703
new,0.009592
nonalign,0.035459
nonpolit,0.093931
novemb,0.038520
octob,0.018569
offic,0.017284
offici,0.032606
oil,0.021433
onli,0.019769
organ,0.011713
packet,0.039281
panafrican,0.047364
particip,0.016940
particularli,0.015059
pass,0.016682
peopl,0.023679
perman,0.020810
pinto,0.092112
pire,0.051746
polici,0.015891
portug,0.086058
portugues,0.054670
prc,0.278833
presid,0.035615
princip,0.038471
prior,0.018598
prioriti,0.025967
privat,0.017656
prncipe,0.393668
project,0.030473
provid,0.021850
rapid,0.021340
ratifi,0.031378
recent,0.013523
refer,0.007809
region,0.013984
relat,0.094767
relationship,0.044721
remain,0.012915
remark,0.023952
reportedli,0.031012
republ,0.109974
request,0.023736
requir,0.012294
reserv,0.020769
resum,0.029870
retain,0.020537
roc,0.249145
rs,0.039084
s,0.011076
sao,0.046587
seat,0.023110
sector,0.040948
secur,0.049776
servic,0.015215
set,0.012097
sever,0.011330
shanghai,0.039347
sign,0.017894
sinc,0.021736
sme,0.047572
social,0.027652
sought,0.021173
south,0.017020
speak,0.020840
state,0.028529
stp,0.139219
support,0.038768
swaziland,0.041802
switch,0.026687
technic,0.019330
technolog,0.015670
th,0.012462
thi,0.016258
tie,0.063600
time,0.009616
tini,0.029320
tom,0.536712
toman,0.158938
tome,0.041169
trace,0.020840
trade,0.031445
tradit,0.013686
train,0.018768
treati,0.022697
turn,0.030051
union,0.016150
unit,0.043849
unoffici,0.033346
uss,0.036506
variou,0.012373
visit,0.131018
wa,0.080204
warm,0.027775
water,0.016765
west,0.018662
western,0.016349
year,0.010968
