ababa,0.078787
abus,0.022812
accredit,0.026862
accuraci,0.022999
addi,0.076212
administr,0.014828
afar,0.041213
affair,0.017535
africa,0.051667
african,0.074351
agreement,0.016187
aircraft,0.047107
ambassador,0.026023
america,0.014862
ani,0.009346
announc,0.017809
anoth,0.010200
antiriot,0.050572
april,0.032448
arena,0.029312
armi,0.018241
assembl,0.016555
attend,0.020235
august,0.016115
becam,0.011688
bilater,0.048643
black,0.017257
bonn,0.039994
botswana,0.034134
bought,0.073303
brussel,0.030820
bullet,0.031617
cabinet,0.043029
capit,0.027858
carnat,0.038589
chairman,0.024223
chang,0.009655
check,0.022203
chief,0.017834
china,0.164547
chines,0.073639
cite,0.017913
citi,0.029582
close,0.080222
come,0.024500
committe,0.018376
commonwealth,0.066375
communist,0.021126
compani,0.013525
compet,0.017660
confer,0.016861
consult,0.019780
continu,0.020758
convent,0.016587
countri,0.067637
critic,0.012600
current,0.010966
czech,0.027451
damag,0.018486
day,0.025853
dc,0.023720
decemb,0.015719
declar,0.016545
democrat,0.016784
dinner,0.068269
diplomat,0.061054
donat,0.025658
dramat,0.019345
driven,0.019942
dure,0.019721
east,0.015856
econom,0.033858
edna,0.040319
embassi,0.102147
emphas,0.018099
end,0.011275
endang,0.028652
ensur,0.016943
equip,0.036876
establish,0.022012
europ,0.013984
european,0.012845
exil,0.023553
farm,0.041153
firm,0.018419
follow,0.026465
forbid,0.029656
foreign,0.057424
fourday,0.041213
gave,0.016047
gear,0.027988
geneva,0.029312
govern,0.083895
grow,0.014141
ha,0.029413
harar,0.083638
held,0.013038
host,0.020165
hous,0.029587
human,0.021249
ian,0.027228
ib,0.035967
iceland,0.028359
immedi,0.016210
impos,0.018965
includ,0.007655
independ,0.022653
inform,0.021927
initi,0.011982
intent,0.018558
intern,0.038655
interpol,0.025767
invest,0.047104
investig,0.015452
isol,0.017904
ivori,0.059916
ivorywatchdog,0.055790
jia,0.038845
john,0.012543
joshua,0.031038
juli,0.015928
june,0.016066
ke,0.037766
kilogram,0.062299
kingdom,0.014668
lancast,0.036134
later,0.010965
latest,0.024626
left,0.014696
legisl,0.016880
li,0.028578
lisbon,0.032302
list,0.030755
loan,0.042780
london,0.031047
loureno,0.042984
machineri,0.045471
madzongw,0.055790
mainli,0.015304
maputo,0.042491
marqu,0.040661
marxist,0.025030
met,0.018852
middl,0.015199
milit,0.028804
militari,0.029827
million,0.086880
minist,0.033266
ministri,0.039644
misheck,0.055790
mission,0.165433
movement,0.012712
mugab,0.241915
multilater,0.058514
nam,0.029013
nation,0.102152
new,0.016469
nkomo,0.098050
north,0.014637
octob,0.015941
offic,0.029677
oneparti,0.032348
onli,0.008486
oper,0.011629
organ,0.050277
outdat,0.032724
pari,0.020159
partli,0.019822
peopl,0.060984
perman,0.071461
place,0.020851
polici,0.027284
polit,0.011570
portug,0.024626
power,0.010818
prais,0.024718
prc,0.034196
presenc,0.015986
presid,0.045863
pretoria,0.076929
previous,0.016115
prime,0.016984
process,0.009993
protest,0.019645
provid,0.009379
qinglin,0.054019
ran,0.023664
read,0.011644
recent,0.011609
record,0.014131
refer,0.006704
relat,0.027118
relationship,0.038392
repres,0.021995
republ,0.110146
respons,0.011628
rest,0.015707
return,0.027137
revolut,0.016608
rhodesia,0.110833
rhodesian,0.040661
richard,0.016562
rifl,0.031658
right,0.024061
robert,0.044223
roll,0.025016
said,0.013775
sale,0.039061
sanction,0.025170
schwartz,0.033389
secretari,0.021903
secretli,0.032302
seiz,0.023050
senat,0.022999
septemb,0.016167
sever,0.048636
ship,0.019022
sibanda,0.055790
signific,0.011910
smith,0.019768
sought,0.018177
south,0.014611
soviet,0.060630
speaker,0.023960
speci,0.017160
spend,0.019367
state,0.024492
subsaharan,0.029229
support,0.022187
tauri,0.039538
term,0.008816
thailand,0.028194
tie,0.018199
time,0.008255
tobacco,0.026290
tokyo,0.029568
ton,0.025300
tractor,0.036755
trade,0.013497
truck,0.061570
unesco,0.025343
unilater,0.029257
union,0.083191
unit,0.028233
usd,0.027966
viceminist,0.048376
violat,0.020644
visit,0.056238
wa,0.015300
washington,0.020542
websit,0.035287
western,0.014035
white,0.017715
whiteown,0.046760
withdrew,0.026222
world,0.018919
worth,0.021126
year,0.018833
york,0.014370
zanupf,0.092608
zhao,0.039252
zimbabw,0.701692
zimbabwean,0.199195
ziyang,0.049750
