abroad,0.004003
adjectiv,0.005688
administr,0.002577
agricultur,0.002740
air,0.002832
airport,0.012182
america,0.005167
anthem,0.005357
antil,0.017169
approxim,0.002512
archipelago,0.004679
architectur,0.003477
archiv,0.003393
area,0.005493
arm,0.002939
armi,0.003171
art,0.005640
articl,0.002191
associ,0.001800
atla,0.008645
atlant,0.007813
bank,0.007998
becaus,0.001673
began,0.002219
belham,0.008791
bicamer,0.005007
biospher,0.004634
bird,0.003794
board,0.003206
boundari,0.003103
brade,0.024148
brambl,0.007518
branch,0.009456
british,0.007446
cabinet,0.003740
capit,0.009685
care,0.002796
caribbean,0.042476
caricom,0.005955
catalonia,0.006439
cdb,0.006527
centr,0.003061
chanc,0.003584
chief,0.003100
christian,0.002885
christoph,0.003901
cinema,0.004998
citi,0.005142
climat,0.003179
close,0.001992
coast,0.003398
coastal,0.004059
coastlin,0.009262
coat,0.004410
code,0.008643
columbu,0.005090
command,0.003123
commanderinchief,0.005170
common,0.007202
commun,0.003894
compani,0.002351
complex,0.002178
confin,0.003998
constitut,0.002351
continu,0.001804
countri,0.009798
court,0.002824
crime,0.003694
crimin,0.003772
cuisin,0.005062
cultur,0.002239
currenc,0.003263
current,0.001906
damag,0.003213
defenc,0.003625
democrat,0.002917
demographi,0.005007
demonym,0.005832
depend,0.001964
descent,0.004272
destroy,0.003114
destruct,0.003524
develop,0.001489
diplomat,0.007075
dive,0.005395
divis,0.002580
dock,0.005475
dollar,0.003479
domain,0.002908
dome,0.005944
dormant,0.005663
earli,0.001793
eastern,0.005951
econom,0.001962
economi,0.002448
ecoregion,0.005309
educ,0.002284
eighti,0.005357
elect,0.002644
elizabeth,0.004265
emerald,0.006527
endonym,0.011784
energi,0.007529
enforc,0.003361
english,0.004993
environ,0.002376
era,0.002832
erupt,0.008953
etymolog,0.003816
european,0.002233
exchang,0.002534
exclus,0.003062
execut,0.002715
exist,0.001782
extend,0.002364
extern,0.001401
extrem,0.002571
facil,0.003436
facto,0.004346
fauna,0.004573
featur,0.002424
feder,0.002854
festiv,0.004452
fjord,0.006045
flag,0.004281
flee,0.004597
follow,0.001533
footbal,0.004797
forc,0.007686
foreign,0.002495
form,0.001465
freedom,0.003026
ft,0.004190
gdp,0.003605
gener,0.001377
geograph,0.003117
geographi,0.007057
geolog,0.003663
georg,0.002763
georgian,0.005913
gerald,0.004972
given,0.001922
glacier,0.005011
googl,0.004609
govern,0.018230
governor,0.003518
guid,0.005421
ha,0.002556
head,0.004949
health,0.002672
hemispher,0.008731
heritag,0.011763
hi,0.001718
high,0.001941
hill,0.011440
hinduism,0.004609
histori,0.004790
holiday,0.004512
hospit,0.003780
hous,0.007715
human,0.001847
hundr,0.002912
ii,0.002508
imag,0.002951
includ,0.002661
increas,0.001843
index,0.003045
industri,0.002188
inform,0.001905
infrastructur,0.006491
intern,0.005039
internet,0.006289
interpol,0.004479
ireland,0.004007
irish,0.004546
isl,0.004921
islam,0.003191
island,0.025573
iso,0.017896
judaism,0.004585
judici,0.003680
juli,0.002769
kilometr,0.004444
kingdom,0.007649
km,0.014431
lake,0.003780
land,0.002425
languag,0.002409
law,0.003861
leeward,0.011571
legisl,0.002934
lesser,0.007858
lgbt,0.005415
link,0.001393
list,0.003564
listen,0.004526
literatur,0.002863
live,0.002072
local,0.002170
locat,0.007069
long,0.002080
low,0.002456
lower,0.002368
m,0.004584
mainland,0.004163
mammal,0.004057
map,0.002931
market,0.002398
media,0.002939
member,0.002044
membership,0.003530
mi,0.012122
militari,0.010370
minist,0.002891
ministri,0.003445
mission,0.006390
monarch,0.008464
monsterrat,0.008956
montserrat,0.992732
montserratian,0.008791
montserratrel,0.017583
montserratunit,0.008956
montserrratzjb,0.008956
mountain,0.003447
ms,0.014447
msr,0.008648
municip,0.003905
music,0.003522
namesak,0.006527
nation,0.007103
natur,0.001710
navi,0.003835
new,0.002863
news,0.003497
ninth,0.005016
nomin,0.003344
north,0.010178
northern,0.005992
observatori,0.004955
ocean,0.003297
oec,0.006925
offici,0.007299
oil,0.003198
olymp,0.004838
onlin,0.002804
open,0.002193
order,0.001766
organ,0.005244
outlin,0.015596
oversea,0.011467
overview,0.003211
parish,0.010740
park,0.003745
parliament,0.003232
parliamentari,0.003670
parti,0.002476
peak,0.003516
peopl,0.001766
plymouth,0.013169
point,0.001858
polic,0.003564
polici,0.002371
polit,0.004022
popul,0.006840
postal,0.004934
previous,0.002801
pronunci,0.004873
protect,0.002449
provid,0.003260
public,0.001850
queen,0.003856
radio,0.003762
rail,0.004625
rank,0.009308
record,0.002456
reduc,0.002207
refer,0.003496
region,0.004174
relat,0.003142
releas,0.002912
religion,0.005936
renew,0.003408
report,0.002240
repres,0.003823
resembl,0.003676
reserv,0.003099
right,0.004182
river,0.003186
road,0.003385
sanit,0.005251
satellit,0.004066
scale,0.002637
scuba,0.006341
sea,0.008921
second,0.001912
senat,0.003998
serv,0.002320
settler,0.004385
sikhism,0.005395
site,0.010928
size,0.002525
soufrier,0.017045
south,0.002540
special,0.002028
spectacular,0.005647
sport,0.003852
st,0.002614
state,0.002838
stock,0.003129
subbureau,0.007068
suppli,0.002644
suprem,0.003321
symbol,0.002944
televis,0.003656
territori,0.008517
th,0.003719
theatr,0.004582
thi,0.001213
time,0.002870
today,0.002330
topic,0.005147
toplevel,0.005268
tourism,0.003773
tourist,0.004322
trade,0.002346
transport,0.008342
travel,0.005728
twothird,0.004444
union,0.004820
unit,0.003272
univers,0.001679
upper,0.003275
upu,0.004942
utc,0.005524
valley,0.007502
view,0.002078
villag,0.003706
visitor,0.004436
volcan,0.013960
volcano,0.019189
voyag,0.004436
wa,0.002659
water,0.002502
waterfal,0.005475
webdirectori,0.008791
western,0.002439
wftu,0.005599
wh,0.005913
wide,0.002089
wikimedia,0.004521
wikivoyag,0.006281
wildlif,0.004622
world,0.008222
wrought,0.005999
xcd,0.008049
zone,0.010057
