accept,0.009341
activ,0.014848
adb,0.029340
africa,0.024166
african,0.091288
agenc,0.011704
agenda,0.017332
aid,0.011162
aim,0.010624
algeria,0.062926
algerian,0.025787
align,0.016073
ambassador,0.018257
ambival,0.025065
appoint,0.012231
april,0.011382
area,0.014779
armi,0.012798
asset,0.013754
assist,0.022187
associ,0.007268
author,0.008377
avenu,0.021524
avow,0.028652
azawad,0.069809
bamako,0.126591
banditri,0.031167
bank,0.032280
becam,0.008200
belong,0.012676
belt,0.019558
bilater,0.051191
black,0.012107
bloc,0.018002
border,0.013215
boundari,0.012525
britain,0.012639
broadbas,0.027253
build,0.009493
burkina,0.024745
canada,0.077219
canadian,0.030503
capabl,0.011832
cdn,0.033940
cdnm,0.039142
china,0.023089
cilss,0.037899
close,0.024121
coast,0.027429
coloni,0.012425
commiss,0.011964
committe,0.012892
commun,0.015716
communist,0.014822
concess,0.019006
conflict,0.033579
consider,0.010099
consul,0.039693
contenti,0.021357
contigu,0.022538
control,0.015969
cooper,0.034460
coordin,0.012740
cordial,0.023619
counter,0.016250
countri,0.015817
court,0.011399
crimin,0.015223
crossbord,0.022792
current,0.007694
dao,0.028405
declar,0.034823
delhi,0.020745
democrat,0.035327
depart,0.010537
depend,0.007929
describ,0.014794
develop,0.030052
diplomat,0.057113
diseas,0.012589
disput,0.012088
domin,0.009889
donor,0.018846
drop,0.013191
drought,0.019621
dure,0.006918
ec,0.022015
econom,0.023755
economi,0.009881
ecowa,0.076414
educ,0.009217
effort,0.010020
embargo,0.021724
embassi,0.143332
encourag,0.011892
especi,0.008401
establish,0.023165
estim,0.010182
european,0.009012
exceed,0.015194
excel,0.015652
expand,0.020470
expans,0.012208
explos,0.016039
export,0.013273
expuls,0.021218
facil,0.013869
facto,0.017541
faso,0.024745
feel,0.013526
firm,0.012922
follow,0.012378
forc,0.007755
foreign,0.030216
form,0.005914
franc,0.066458
free,0.008837
frequent,0.010876
fund,0.010668
gear,0.019636
gener,0.011119
given,0.007760
goal,0.010642
golburn,0.039142
good,0.017204
govern,0.014715
growth,0.029380
ha,0.077387
health,0.010786
held,0.009147
help,0.008470
highli,0.010185
hostag,0.045918
howev,0.006279
human,0.007454
icc,0.022568
ideolog,0.014615
illeg,0.015590
ilo,0.020411
imf,0.016943
immigr,0.015396
import,0.006598
improv,0.028563
includ,0.010741
increas,0.007440
increasingli,0.011406
independ,0.023840
india,0.023691
infecti,0.020724
initi,0.008406
insecur,0.022211
institut,0.016374
institution,0.020449
integr,0.028010
intern,0.027120
interst,0.023097
intervent,0.028077
invest,0.022032
islam,0.012879
issu,0.016604
itu,0.020300
ivori,0.042037
korea,0.031230
korean,0.017959
labour,0.013096
largest,0.010683
leon,0.019245
lessen,0.020565
liberia,0.023276
libya,0.020411
liptakogourma,0.037899
list,0.014385
live,0.008363
longstand,0.018691
maintain,0.009018
major,0.006862
mali,0.874175
malian,0.029812
malines,0.039142
mani,0.005846
market,0.009681
mauritania,0.093702
member,0.016504
membership,0.014246
militari,0.010463
million,0.010159
minist,0.011669
mission,0.025792
mnla,0.036147
monetari,0.027730
moscow,0.018529
mostli,0.011035
movement,0.008918
multilater,0.020526
nam,0.020355
nation,0.021500
natur,0.013809
negoti,0.013538
neighbor,0.029181
new,0.005777
niger,0.045986
nonalign,0.021357
north,0.030808
northern,0.012091
nouakchott,0.030945
number,0.006470
oau,0.024643
octob,0.011184
offer,0.009617
offici,0.009819
oic,0.022858
oil,0.012909
omv,0.068791
open,0.008854
organ,0.028219
organis,0.024490
orient,0.026954
ottawa,0.023780
ousman,0.032806
pakistan,0.035359
particip,0.010203
particular,0.008095
path,0.013113
peacekeep,0.019652
peopl,0.014262
perman,0.012534
plan,0.019590
play,0.009338
polici,0.028714
popul,0.009202
postal,0.019913
potenti,0.038408
pragmat,0.018078
prepar,0.012028
prime,0.011916
proclaim,0.016778
project,0.009177
promot,0.010579
prowestern,0.027073
question,0.009313
rate,0.009191
reach,0.009559
rebel,0.034180
rebellion,0.016794
recent,0.008145
recipi,0.018156
recognis,0.014522
record,0.009914
reduc,0.008910
refer,0.004703
regard,0.009024
region,0.067384
rejoin,0.025292
relat,0.063420
relationship,0.008978
remain,0.007779
report,0.009040
republ,0.033118
resolv,0.013662
resourc,0.019045
respect,0.008945
right,0.008440
river,0.025719
road,0.013662
ruler,0.015715
russia,0.027648
sahel,0.025658
seek,0.010554
seiz,0.016171
seneg,0.045263
septemb,0.011343
seven,0.012343
sever,0.006824
shortli,0.014639
sierra,0.021988
signific,0.008356
significantli,0.012072
sinc,0.032729
sixthlargest,0.030157
small,0.008010
socialist,0.014644
soldier,0.014895
somewhat,0.013877
south,0.020503
sovereignti,0.015786
span,0.015122
special,0.008187
spillov,0.028172
spread,0.011571
squeez,0.023313
st,0.010552
stabil,0.024417
state,0.040095
strengthen,0.014806
suppli,0.010671
support,0.023350
sustain,0.012804
taken,0.009585
telecommun,0.017063
territori,0.022916
terror,0.034853
thi,0.004896
thirdlargest,0.025722
threaten,0.014884
tie,0.012768
time,0.005792
togeth,0.009027
trade,0.009469
troop,0.014775
troubl,0.017187
tuareg,0.059297
udi,0.031909
uemoa,0.032806
uneasi,0.024745
union,0.038910
unit,0.019808
uniti,0.014389
univers,0.006780
upu,0.019947
use,0.005348
usmalian,0.039142
valley,0.015138
valu,0.008390
volatil,0.017417
wa,0.016102
war,0.009299
warm,0.016729
wear,0.017740
west,0.044961
work,0.019252
world,0.006636
zana,0.039142
zone,0.013530
