abstract,0.019006
accredit,0.027358
acp,0.032119
affair,0.017859
agreement,0.032973
ambassador,0.053007
america,0.015137
aosi,0.046726
asia,0.018545
associ,0.021102
august,0.082064
australia,0.018773
becam,0.011904
befor,0.055614
begun,0.020707
bilater,0.024770
biodivers,0.026987
brazil,0.023273
capac,0.018081
cartagena,0.041235
chang,0.009834
china,0.033516
chinaniu,0.056820
chines,0.018749
citizen,0.017850
citizenship,0.027188
climat,0.018625
commun,0.011407
conduct,0.014952
constitut,0.013775
consular,0.036548
convent,0.033787
cook,0.073789
cooper,0.016674
corp,0.025737
coton,0.042591
countri,0.045923
credenti,0.032496
cuba,0.027771
cultur,0.013117
decemb,0.032019
defenc,0.021237
despit,0.014793
diplomat,0.165816
educ,0.013381
escap,0.021088
establish,0.022418
europ,0.014242
european,0.013082
extend,0.013854
extern,0.008213
fao,0.028574
februari,0.017064
fiji,0.033279
follow,0.008984
foreign,0.043862
formal,0.028108
forum,0.023068
franc,0.016078
free,0.012829
futur,0.013679
gener,0.008070
govern,0.010680
grant,0.017218
group,0.020262
guinea,0.026520
ha,0.007489
head,0.014499
health,0.015657
hi,0.010070
histor,0.012616
howev,0.009115
ifad,0.030638
includ,0.007796
independ,0.011535
india,0.017195
inform,0.011166
intend,0.017386
interact,0.014013
intern,0.039368
invest,0.015991
island,0.083234
israel,0.023001
issu,0.012052
itali,0.020212
januari,0.064114
japan,0.018573
june,0.049089
kosovo,0.031648
kyoto,0.034641
languag,0.014114
leader,0.016419
like,0.010029
limin,0.044615
link,0.016329
list,0.031322
longer,0.015486
maintain,0.026184
malaysia,0.027434
manag,0.013447
member,0.011979
membership,0.020680
mission,0.037441
multilater,0.029797
nation,0.020807
nauru,0.035215
new,0.092252
niue,0.872334
note,0.010824
novemb,0.033679
ocean,0.019320
oceania,0.028691
octob,0.016235
opcw,0.030574
organ,0.040964
oversea,0.022393
pacif,0.043523
papua,0.032852
particip,0.044434
peopl,0.010351
polit,0.011783
polynesian,0.033789
pop,0.032201
practic,0.011518
present,0.010765
project,0.013321
protocol,0.048687
queen,0.022595
realm,0.021569
recogn,0.014641
record,0.014392
refer,0.006827
region,0.012227
relat,0.092064
repertori,0.044615
repres,0.011200
request,0.020753
respons,0.011843
retain,0.017956
right,0.012252
samoa,0.033580
secretariat,0.031958
selfrul,0.039697
septemb,0.065865
singapor,0.025041
small,0.011628
sovereign,0.022712
sparteca,0.044323
spc,0.037725
state,0.049888
thailand,0.028714
trade,0.013746
treati,0.019845
treatymak,0.048671
turkey,0.024783
unccd,0.056820
unclo,0.051506
unesco,0.051623
unfccc,0.049929
union,0.014121
unit,0.019169
varieti,0.014268
variou,0.010818
wa,0.015583
wmo,0.029910
world,0.009634
zealand,0.225957
zhang,0.032242
