accredit,0.028137
acp,0.033033
acpc,0.058438
acquaint,0.032510
act,0.012696
activ,0.011084
africa,0.072159
africain,0.041414
african,0.214170
agenc,0.034950
agreement,0.016955
aid,0.033329
allegi,0.029655
allianc,0.020775
ambassador,0.054517
american,0.025171
anad,0.058438
angola,0.033694
ani,0.009790
anticip,0.024706
arab,0.020517
articl,0.013202
asia,0.019073
assist,0.016562
associ,0.021702
augur,0.045299
auster,0.031511
bank,0.032128
bar,0.025110
base,0.009679
bdi,0.096112
becam,0.012243
becom,0.010722
belong,0.018925
better,0.015104
bilater,0.050951
boigni,0.058438
boycot,0.033883
bring,0.016651
broke,0.022969
brought,0.016510
caribbean,0.025593
ceremoni,0.024763
cfa,0.037589
chang,0.010114
charg,0.017312
china,0.017235
cia,0.026654
civilian,0.023322
close,0.024008
closest,0.027156
club,0.026017
coast,0.389033
cocoa,0.068453
coffe,0.056002
cold,0.021385
colleagu,0.024250
coloni,0.018551
commerci,0.017188
common,0.010848
commun,0.023463
communaut,0.045299
conflict,0.033422
consid,0.010463
consider,0.015078
construct,0.013894
contact,0.018827
continu,0.021743
cooper,0.034298
council,0.016360
countri,0.094462
coup,0.073306
creat,0.010975
critic,0.013198
cultur,0.013491
current,0.011486
debt,0.020806
decad,0.016310
decemb,0.016465
decis,0.015127
defens,0.019693
delhi,0.030971
democrat,0.017581
develop,0.044868
dialogu,0.025049
difficult,0.015649
difficulti,0.019378
diplomat,0.063951
disput,0.018048
disson,0.038902
domain,0.017524
donor,0.028137
econom,0.047287
ecowa,0.038028
educ,0.013762
effect,0.020988
effort,0.029921
eib,0.043373
elect,0.063731
elector,0.046350
end,0.011810
entent,0.039675
establish,0.023057
ethiopia,0.030559
european,0.040364
evok,0.032909
exchang,0.030540
expand,0.015281
experi,0.013284
express,0.013996
extens,0.014587
factbook,0.027073
familiar,0.022856
favor,0.017842
financier,0.050671
flaw,0.027538
flix,0.036149
follow,0.027721
foreign,0.105261
foster,0.024694
franc,0.016536
freez,0.029934
friendli,0.026608
fund,0.047781
gbagbo,0.154054
gener,0.016600
govern,0.043938
grow,0.014812
guei,0.058438
ha,0.023107
halt,0.026320
harm,0.022269
help,0.012646
histor,0.012975
hold,0.013913
houphout,0.058438
houphoutboigni,0.148487
howev,0.028124
httpswwwciagovlibrarypublicationstheworldfactbookindexhtml,0.035818
iaco,0.058438
icco,0.058438
idea,0.012964
imf,0.025296
import,0.019703
incid,0.022856
includ,0.016037
incorpor,0.015862
increas,0.011107
independ,0.011864
india,0.017685
indoivorian,0.058438
initi,0.012550
institut,0.024446
intelsat,0.032172
interafrican,0.052111
intern,0.050612
invest,0.032893
israel,0.070968
issu,0.024790
ivori,0.596221
ivorian,0.096112
kept,0.020812
know,0.017501
larg,0.010177
leader,0.016887
left,0.015394
liberia,0.069502
libya,0.030474
like,0.010315
list,0.021476
london,0.016260
longterm,0.040643
maintain,0.053859
major,0.010244
mani,0.026184
mar,0.026425
marxism,0.030198
materi,0.013531
mauritian,0.045299
measur,0.012647
mechan,0.014260
media,0.017712
mediat,0.023656
medic,0.017782
member,0.061602
militari,0.015621
mission,0.057761
moder,0.022121
monetari,0.020700
movement,0.013315
nation,0.032099
neighbor,0.021783
new,0.017250
newli,0.040632
nonaggress,0.038697
nonalign,0.031885
notabl,0.014817
note,0.011133
oau,0.183959
observ,0.012744
ocam,0.058438
octob,0.033395
offici,0.014660
open,0.013219
orderli,0.033835
organ,0.042130
organis,0.036564
pacif,0.022381
parti,0.014922
particip,0.030466
particular,0.012086
partnership,0.024304
past,0.015318
peacekeep,0.058681
pend,0.032588
peopl,0.010646
phase,0.018569
play,0.013941
polici,0.014289
polit,0.036358
postapartheid,0.047249
power,0.033994
powershar,0.040420
presid,0.112092
produc,0.023042
program,0.013928
promin,0.017363
public,0.011151
rapid,0.019189
rascom,0.058438
reestablish,0.026748
refer,0.007022
region,0.100603
relat,0.113622
remain,0.023228
remov,0.016213
repeat,0.020269
repres,0.011519
reschedul,0.040290
resid,0.037209
resolut,0.021482
return,0.014212
revisit,0.032472
role,0.012301
rule,0.012818
satellit,0.024502
scholar,0.017834
seek,0.015757
seen,0.013778
selfhelp,0.040420
sent,0.019464
septemb,0.016935
serv,0.013978
share,0.013684
shift,0.017018
situat,0.015047
solidar,0.030065
sought,0.019039
south,0.030610
soviet,0.021169
special,0.012223
stanc,0.053882
state,0.051309
statesivorian,0.058438
strateg,0.021330
suffer,0.017838
suit,0.022719
swearingin,0.052111
sympathet,0.031251
temporari,0.023049
therefor,0.013284
thi,0.014620
tie,0.076254
time,0.008647
trade,0.014138
uemoa,0.048979
undergo,0.022660
union,0.058092
unit,0.078861
uniti,0.042965
unknown,0.020234
upris,0.027139
usaid,0.038499
usivorian,0.058438
varieti,0.014674
view,0.012526
virtual,0.019328
visit,0.019635
wa,0.072121
war,0.013883
websit,0.018480
west,0.083908
western,0.014701
wide,0.012587
willing,0.029856
withheld,0.038306
world,0.009908
xenophobia,0.044508
