abandon,0.001845
abcclio,0.003788
abet,0.003550
abic,0.005198
abl,0.003744
abolish,0.002064
abolit,0.002595
abov,0.001265
abroad,0.002145
abund,0.002004
academi,0.005711
acced,0.003091
acceler,0.001900
accept,0.001240
access,0.004101
acclaim,0.002981
accord,0.002964
account,0.003491
accredit,0.002503
accus,0.003963
achiev,0.001243
acrolect,0.004712
act,0.007906
activ,0.000986
activist,0.002357
actor,0.002278
actual,0.001264
ad,0.002522
adapt,0.003147
addit,0.004998
administ,0.001937
administr,0.002763
admir,0.009366
admiralti,0.006614
admitt,0.003805
admixtur,0.003540
adopt,0.002727
adult,0.003869
advanc,0.001220
advantag,0.003067
advent,0.002161
advic,0.004301
aerial,0.002783
aeroplan,0.007368
affair,0.003268
affect,0.001291
afford,0.002122
afghanistan,0.002535
africa,0.012838
african,0.015588
afrikaan,0.003959
afrocaribbean,0.004905
aftermath,0.004925
age,0.002475
agenc,0.001554
agent,0.001684
agre,0.004469
agreement,0.006033
agricultur,0.005875
aid,0.010377
ail,0.003698
air,0.019734
airbas,0.003519
aircraft,0.010974
airfield,0.003169
airlin,0.005030
airport,0.010883
airway,0.006407
alfr,0.002024
algonquian,0.007964
algonquianspeak,0.005198
align,0.002134
alik,0.002662
alkilin,0.005198
allegi,0.002638
alli,0.001825
allianc,0.003696
allow,0.002948
alreadi,0.001439
altern,0.003809
alth,0.004568
amalgam,0.002871
amateur,0.002698
amend,0.002083
america,0.012464
american,0.033589
ami,0.003221
ancestr,0.002583
ancestri,0.037989
anchorag,0.003407
andor,0.001729
angela,0.003442
anglera,0.005198
anglim,0.005198
anglobo,0.008906
angola,0.005995
ani,0.007838
annex,0.004496
announc,0.004978
annual,0.007590
anonym,0.002616
anoth,0.004752
answer,0.001759
antego,0.014402
antigua,0.003351
antikickback,0.005198
anyon,0.002154
anzio,0.004568
appeal,0.003680
appear,0.001144
applic,0.001180
appoint,0.004873
approach,0.001137
appropri,0.001584
approv,0.010185
approxim,0.002693
aquarium,0.003684
arab,0.001825
archipelago,0.025083
area,0.009814
ariel,0.003433
aris,0.001612
arkley,0.005198
arm,0.007878
armi,0.010198
arnold,0.005023
aros,0.001962
arrest,0.002171
arriv,0.014317
art,0.007559
arthur,0.004031
articl,0.001174
artifact,0.002341
artist,0.010369
artwork,0.003027
ashor,0.006559
asian,0.005647
aspect,0.002597
assassin,0.002338
assembl,0.001542
assent,0.003111
assess,0.001683
asset,0.001826
assist,0.002946
associ,0.008688
assum,0.001369
asylum,0.002862
athlet,0.002855
atla,0.002317
atlant,0.041882
attack,0.003186
attempt,0.004508
attend,0.003771
attract,0.011130
august,0.004505
australia,0.001717
author,0.006675
avail,0.002415
averag,0.004428
aviat,0.005199
avoid,0.002952
awar,0.001787
away,0.006021
azor,0.014160
babylonica,0.004800
backwat,0.003788
baggag,0.003657
bahama,0.012792
bahamianborn,0.005198
ballot,0.005532
baltimor,0.005819
ban,0.003982
band,0.002148
bank,0.008574
banknot,0.003005
barbada,0.009601
barbado,0.006202
barbedwir,0.004712
barrack,0.003314
barri,0.002616
base,0.019804
basebal,0.003253
basketbal,0.010173
bat,0.002923
battl,0.001866
bay,0.017853
beach,0.007744
beat,0.005013
beauti,0.002264
becam,0.017426
becaus,0.002690
becom,0.006677
befor,0.005088
began,0.014278
begin,0.003485
behalf,0.002197
behaviour,0.001837
behead,0.003416
beij,0.002868
believ,0.002464
beliz,0.003221
belong,0.001683
belt,0.005195
benedict,0.003049
berkeley,0.002327
berlin,0.004244
bermdez,0.012714
bermooth,0.010397
bermuda,0.906487
bermudan,0.011366
bermudarel,0.005198
bermudass,0.005198
bermudian,0.185373
bermudiana,0.004800
bermudianborn,0.004800
best,0.001313
bestknown,0.002597
bicamer,0.002684
bid,0.002539
biennial,0.006959
bilater,0.002266
billion,0.008462
bird,0.006102
birdsey,0.004453
birth,0.001755
bittereind,0.004635
bitterend,0.004712
black,0.049852
bloc,0.002390
blockad,0.005457
blow,0.002524
blue,0.004247
bmjud,0.010397
board,0.003438
boat,0.009501
bodi,0.002391
boer,0.027540
bombard,0.002644
book,0.003397
border,0.003510
boreali,0.004238
born,0.010099
boston,0.002196
botan,0.005819
bought,0.002276
boultbe,0.004905
box,0.004467
boy,0.002348
brackish,0.003519
branch,0.001267
brazil,0.002129
brian,0.002437
bridg,0.001968
brig,0.003916
brigadi,0.010101
bright,0.002605
bring,0.001481
britain,0.016786
british,0.054548
broken,0.001986
bronz,0.002398
brother,0.005994
brought,0.002937
brown,0.002021
browneevan,0.005198
bsx,0.005198
buddz,0.005198
build,0.007565
buildup,0.002934
built,0.002970
burgess,0.003424
buri,0.002356
burland,0.005198
burt,0.007424
bush,0.004915
busi,0.006716
butterfield,0.003822
c,0.009123
cabinet,0.004009
cadet,0.003470
cahow,0.010397
caico,0.003937
calcul,0.001520
caldera,0.008059
calypso,0.008629
cambridg,0.001580
came,0.003914
cameron,0.003091
camp,0.006477
campu,0.005654
canada,0.015383
canadian,0.010128
canal,0.002367
cannoni,0.005198
cap,0.002431
cape,0.017546
capit,0.009085
capita,0.006497
captain,0.009633
captur,0.004915
car,0.002108
care,0.002998
caribbean,0.034152
caricom,0.031922
carolina,0.008066
carri,0.005146
cartoonist,0.003877
case,0.000997
cashew,0.004170
castaway,0.004357
catchment,0.003772
categori,0.004568
catherin,0.002842
caus,0.003195
cave,0.002399
cedar,0.018288
cedarbridg,0.005198
celebr,0.002056
cenotaph,0.004568
censu,0.007020
census,0.003595
center,0.001272
centr,0.004922
central,0.002237
centuri,0.029719
ceremoni,0.002203
certain,0.003276
certif,0.002319
cerulean,0.004275
cfa,0.003343
chain,0.001782
challeng,0.001425
champion,0.004955
championship,0.012937
chang,0.006298
charact,0.001649
characteris,0.004784
characterist,0.002751
charg,0.001540
charl,0.004585
chart,0.002273
charter,0.008587
chattel,0.003822
chesapeak,0.003896
chesley,0.004905
child,0.003833
china,0.004599
church,0.001803
churchil,0.008884
cia,0.002371
cinereu,0.005198
circul,0.002088
circumst,0.001833
citi,0.013782
citizen,0.001633
citizenship,0.004975
civil,0.009583
civilian,0.002074
claim,0.007268
clarenc,0.003343
class,0.002647
classic,0.001318
classifi,0.003228
claytown,0.005198
clear,0.007427
cliff,0.002672
climat,0.010224
clinton,0.002758
close,0.006407
closur,0.002577
club,0.016201
clyde,0.003561
coast,0.005464
coastal,0.004351
coastlin,0.002482
coauthor,0.002736
coconut,0.002923
cod,0.003273
code,0.001544
coder,0.004238
cofound,0.005483
coin,0.008263
col,0.003259
cold,0.005707
collect,0.002328
colleg,0.003465
colli,0.004275
coloni,0.036307
colonis,0.002703
colonist,0.002728
colour,0.013668
combin,0.001138
come,0.001141
command,0.003349
commemor,0.005344
comment,0.001911
commerc,0.003977
commerci,0.001529
commission,0.002454
common,0.000965
commonli,0.005302
commonwealth,0.004123
commun,0.008349
compani,0.026467
compar,0.002361
compet,0.014810
competitioncurr,0.005198
competitor,0.004945
compil,0.002059
complet,0.002204
complic,0.001808
compound,0.001798
comprehens,0.001758
compris,0.001632
condit,0.002233
conduct,0.001368
conductor,0.002878
confeder,0.007147
confer,0.004713
conflict,0.001486
congression,0.002833
connect,0.003942
conscript,0.002871
consequ,0.001357
conserv,0.001584
consid,0.003723
consider,0.004024
consist,0.007478
consolid,0.002095
conspiraci,0.002836
constitu,0.001869
constitut,0.003781
construct,0.004944
consul,0.005271
consult,0.003686
consumpt,0.005585
contain,0.001145
content,0.001575
contin,0.002056
continu,0.010638
contrast,0.001348
contribut,0.001171
contributori,0.003937
contriv,0.003300
control,0.003181
convent,0.001545
convict,0.002313
convoy,0.003163
cool,0.002236
cooler,0.003067
cooper,0.003051
coral,0.005276
cornerston,0.002803
corp,0.002354
corpor,0.003132
correspond,0.001449
cost,0.002806
cotton,0.002440
counter,0.004316
countri,0.008403
cours,0.002782
court,0.001513
coverag,0.002401
cox,0.002934
craig,0.002830
creat,0.002929
creation,0.001452
creativ,0.002062
credit,0.001544
crew,0.002510
cricket,0.026078
critic,0.001174
cronin,0.004005
crown,0.014471
cruis,0.002827
crystal,0.002239
crystallis,0.003684
cuba,0.002540
cultiv,0.002038
cultur,0.014402
cup,0.010717
currenc,0.001749
current,0.008175
custom,0.001614
cut,0.003389
d,0.001292
damag,0.001722
dame,0.003121
danc,0.005119
dancehal,0.004568
dancer,0.003509
dandi,0.004110
danger,0.001874
daniel,0.001985
dark,0.002064
darrel,0.015091
date,0.001334
daughter,0.002190
david,0.008507
day,0.002409
dc,0.006630
dead,0.004002
dealt,0.002392
death,0.005592
debat,0.001486
debt,0.001850
decad,0.008705
decemb,0.007324
decent,0.003279
decid,0.001555
decis,0.001345
declar,0.003083
declin,0.003031
decreas,0.001571
deep,0.001777
deeper,0.002385
deepli,0.002253
defeat,0.005665
defenc,0.003886
defend,0.003571
defin,0.001095
deforest,0.005869
degre,0.005228
deleg,0.002253
delinqu,0.003632
deliv,0.001881
demand,0.002850
demograph,0.006429
demographi,0.002684
demonstr,0.001434
demuth,0.004712
densiti,0.001926
depart,0.001399
depend,0.003159
deplet,0.002491
deploy,0.004320
depopul,0.003266
deport,0.002747
depositori,0.003321
depth,0.002095
deputi,0.002137
deriv,0.001213
descend,0.003864
describ,0.002947
desegreg,0.012714
design,0.005862
despatch,0.003877
despit,0.005414
destin,0.002233
destroy,0.003338
detaine,0.004055
detent,0.003063
determin,0.002217
detriment,0.002622
detroit,0.003391
develop,0.010377
devic,0.003567
devil,0.008481
devolv,0.003367
devonshir,0.008629
devot,0.001886
diagnost,0.002556
diamondback,0.004712
diana,0.003234
diaspora,0.002892
did,0.004739
die,0.001529
differ,0.000846
difficulti,0.003447
dill,0.003937
diminish,0.002161
dinghi,0.004905
diplomat,0.007585
direct,0.005299
directli,0.003847
director,0.001919
disappear,0.004058
disastr,0.002791
disband,0.002774
discount,0.002304
discov,0.004217
discuss,0.003907
diseas,0.001672
displac,0.004096
disput,0.001605
dissent,0.002718
dissolv,0.001982
distanc,0.001699
distant,0.002218
distinct,0.002458
distinctli,0.002916
distinguish,0.001417
dive,0.005784
diver,0.006734
divers,0.001535
diversifi,0.002417
divid,0.002531
divis,0.004150
dna,0.002060
dockag,0.005198
dockyard,0.046084
doe,0.005400
dog,0.002389
dollar,0.007460
domest,0.001653
domin,0.009194
door,0.002496
doubl,0.003534
dougla,0.002358
dr,0.001980
drake,0.003359
drawn,0.001883
drop,0.003503
drove,0.002585
dunkley,0.004905
duquesn,0.016952
durat,0.002273
dure,0.011945
dutch,0.001960
duti,0.001899
dwayn,0.004275
dwell,0.002824
dwight,0.003137
e,0.001293
eagerli,0.003632
earl,0.002906
earli,0.003844
earlier,0.002840
earliest,0.001606
easili,0.003292
east,0.005910
eastern,0.003190
eastsoutheast,0.008341
econom,0.010516
economi,0.014436
ed,0.001345
edg,0.002096
edmund,0.002445
educ,0.006121
edward,0.001748
effect,0.002800
effort,0.003992
egg,0.002324
eisenhow,0.006687
elect,0.004252
element,0.001222
elig,0.002404
elizabeth,0.002286
elsewher,0.003962
embezel,0.004800
embrac,0.004335
emerg,0.001231
emigr,0.009663
emphasi,0.001743
emphasis,0.002589
empir,0.006704
employ,0.008922
employe,0.008054
en,0.002361
enabl,0.001524
enact,0.006390
encourag,0.001579
end,0.014710
endem,0.002676
enemi,0.004295
engag,0.003043
england,0.018343
english,0.033460
englishspeak,0.005267
enjoy,0.001829
enslav,0.010999
ensur,0.004736
enter,0.001404
enterpris,0.001808
entir,0.003739
environ,0.002547
epidem,0.002667
eponym,0.003111
equestrian,0.008279
equip,0.001718
equiti,0.002198
equival,0.001547
erect,0.002605
ernest,0.004945
escap,0.003858
escape,0.004712
especi,0.005579
espionag,0.006232
essenti,0.001335
establish,0.010255
estat,0.004091
estim,0.002704
ethnic,0.003792
ethnicallyenglish,0.005198
european,0.005984
europeanintroduc,0.005198
evad,0.002977
evan,0.002686
event,0.005002
eventu,0.001365
everi,0.003607
evid,0.001310
ewart,0.003726
examin,0.001504
exampl,0.002582
exce,0.002510
exceed,0.002018
excess,0.003714
exchang,0.009509
execut,0.001455
exemplifi,0.002448
exempt,0.002497
exercis,0.001651
exhibit,0.005442
exil,0.002194
exist,0.001911
expand,0.001359
expans,0.001621
expat,0.008806
expatri,0.009161
expenditur,0.002124
expens,0.003432
experi,0.003545
experienc,0.001725
explor,0.004392
export,0.005288
expubl,0.005198
extend,0.005070
extens,0.002595
extern,0.000751
extinct,0.002184
eye,0.001921
f,0.016986
fa,0.006089
fabian,0.003499
facil,0.009210
factbook,0.002408
facto,0.002329
fail,0.002889
failur,0.001672
fall,0.001311
famili,0.002661
famou,0.004762
famous,0.002496
far,0.003909
farm,0.003834
farmland,0.003072
farrel,0.003788
farther,0.002684
fate,0.002426
fauna,0.004902
fbi,0.003433
featur,0.001299
februari,0.003122
feder,0.001530
fee,0.002249
femal,0.001929
fenc,0.003198
feral,0.003479
festiv,0.004773
fiction,0.002049
field,0.001049
fif,0.004905
fifth,0.002046
figur,0.005692
film,0.007796
final,0.003728
financ,0.001522
financi,0.006859
firstli,0.002830
fish,0.003585
fit,0.001749
fiveyear,0.002340
flagship,0.003273
flatt,0.009425
flee,0.002464
fleet,0.011553
fli,0.002145
flight,0.002105
float,0.002275
floor,0.002337
flora,0.002597
florida,0.002522
flotilla,0.007577
flyingboat,0.005198
fold,0.002449
folklif,0.004357
follow,0.007398
food,0.002957
footbal,0.020572
forbid,0.002763
forc,0.017509
forecast,0.002264
foreign,0.006688
foreignborn,0.004139
forein,0.004800
forest,0.001976
form,0.009425
formal,0.002571
formalis,0.006037
formerli,0.003849
forti,0.002565
fortifi,0.005624
fortress,0.005618
foundat,0.001340
founder,0.003602
fouryear,0.002614
franci,0.001967
frank,0.002012
free,0.004695
freez,0.002662
french,0.001382
frequent,0.004333
fresh,0.004616
fripp,0.005198
frith,0.004055
fritz,0.002771
frost,0.003121
fruit,0.002036
ft,0.004491
fulli,0.001549
funchal,0.004403
function,0.001052
fund,0.014168
futur,0.001251
g,0.001390
gaelic,0.003937
gain,0.002500
galleri,0.005285
gambier,0.004029
game,0.008817
garden,0.004596
gari,0.002563
garrison,0.015623
garza,0.004905
gate,0.002487
gazett,0.003101
gdp,0.005798
gen,0.003031
gener,0.002215
general,0.003632
genet,0.003490
geograph,0.001671
geographi,0.001891
georg,0.035544
georgia,0.002456
german,0.001451
germani,0.001547
ghana,0.002902
gibb,0.002895
gibraltar,0.003116
gilbert,0.002457
gina,0.004170
girl,0.002537
given,0.001030
glamorgan,0.004568
global,0.001364
globe,0.002340
glover,0.003840
glyn,0.004029
goater,0.005198
golf,0.006481
golfer,0.004357
gombey,0.005033
gone,0.002280
good,0.003427
googl,0.002470
gordon,0.002396
govern,0.031270
governor,0.018861
gradual,0.001651
graduat,0.001925
graham,0.002618
grand,0.003992
grant,0.006301
grantinaid,0.009425
great,0.004632
greater,0.001294
grew,0.003434
group,0.008342
grow,0.002635
growth,0.002601
guantnamo,0.013523
guard,0.008591
guidelin,0.002279
gulf,0.004649
gunpowd,0.003031
guyana,0.006202
ha,0.028093
habitat,0.002396
hal,0.003246
half,0.002829
halifax,0.003561
hamilton,0.025503
hampshir,0.003163
handcarv,0.004712
hansa,0.004568
harbour,0.005285
harold,0.002465
harsh,0.004890
harvey,0.005211
hattera,0.009811
hayward,0.003840
head,0.005306
headey,0.004635
headquart,0.006830
health,0.007162
healthcar,0.021783
heard,0.002443
heat,0.001812
heather,0.003595
heavili,0.001656
hedg,0.002565
held,0.010934
help,0.003375
hem,0.004082
hemispher,0.004680
hemp,0.003470
herbert,0.002225
heritag,0.008407
hi,0.009213
high,0.006243
higher,0.002443
highest,0.006294
highestrank,0.003896
highli,0.001352
hill,0.006132
hinson,0.004905
hire,0.002243
histor,0.005771
histori,0.005991
historian,0.001731
history,0.005198
hit,0.002127
hm,0.008186
hmc,0.004357
hog,0.003470
hogg,0.004055
hold,0.003713
hole,0.002338
holiday,0.002418
home,0.007336
homeland,0.002658
homer,0.002881
homogenis,0.004314
hong,0.002402
horrid,0.004275
horsesho,0.003572
hortonperinchief,0.005198
hospit,0.004052
host,0.009395
hotel,0.007422
hous,0.016542
household,0.002044
howev,0.010007
human,0.002970
humid,0.002736
hundr,0.012490
hunt,0.002073
hurrican,0.027445
husband,0.002676
hw,0.003698
icd,0.007514
ice,0.002241
iceland,0.002642
icon,0.002766
ident,0.001471
identifi,0.002484
ignor,0.001782
ii,0.005379
iii,0.001965
illeg,0.002070
imag,0.003164
immigr,0.036809
imperi,0.004003
import,0.008764
importantli,0.002354
impressionist,0.003916
improv,0.002529
includ,0.016407
incom,0.007869
incorpor,0.007055
increas,0.002964
increasingli,0.001514
indentur,0.003131
independ,0.005277
index,0.003264
indi,0.046945
india,0.001573
indian,0.020412
indigen,0.010244
individu,0.001059
industri,0.008210
inflict,0.002797
influenc,0.002263
influx,0.002651
inform,0.001021
infrastructur,0.003479
infus,0.002950
ingham,0.004507
inhabit,0.003572
initi,0.004466
inscript,0.002774
insist,0.002096
inspir,0.001700
instal,0.006083
institut,0.004349
instrument,0.003164
insur,0.013867
insurancereinsur,0.005198
intent,0.001729
interchang,0.002352
interfer,0.002097
intern,0.012607
internet,0.001685
interv,0.002165
intrigu,0.002927
introduc,0.006027
invas,0.003747
invest,0.005852
involv,0.002988
ire,0.003937
ireland,0.006443
irish,0.012186
isbn,0.001214
isl,0.031658
island,0.126416
isol,0.001668
issu,0.006616
itali,0.001849
j,0.002581
jamaican,0.003712
jame,0.002898
jamestown,0.030581
januari,0.001466
jazz,0.003529
jillian,0.004568
job,0.001774
john,0.007012
join,0.007642
jointli,0.002479
jone,0.002281
joseph,0.001693
joubert,0.004568
joyn,0.004800
jp,0.003126
jr,0.004365
juan,0.010119
judg,0.001897
judgement,0.002597
june,0.008982
junip,0.003982
juniperu,0.004568
k,0.001557
katura,0.005198
kemp,0.003509
kennedi,0.002734
kenneth,0.002305
khyber,0.004082
kilogram,0.002902
kilometr,0.002382
kindley,0.009425
king,0.006546
kingdom,0.010934
kitchen,0.012612
km,0.023207
knock,0.003131
known,0.006868
kong,0.002423
kppen,0.003424
kyle,0.003741
la,0.003430
labour,0.005218
lack,0.003930
lahey,0.005198
lamb,0.003096
lanc,0.003137
land,0.016903
landbas,0.003424
landfal,0.003757
landmass,0.003169
landscap,0.008569
lane,0.002627
languag,0.005165
laniel,0.005198
larg,0.008148
larger,0.001356
largescal,0.004003
largest,0.011351
lasionycteri,0.005198
lasiuru,0.015596
late,0.001189
later,0.008174
latin,0.001614
latitud,0.002605
launch,0.001730
law,0.009314
lay,0.001933
lazaru,0.003529
lb,0.002961
lead,0.002050
leader,0.009013
leagu,0.006323
leas,0.002593
led,0.004435
left,0.004108
leg,0.002550
legaci,0.002160
legal,0.001417
legatio,0.004800
legend,0.004840
legisl,0.001572
lena,0.004275
lens,0.002923
level,0.002054
leverock,0.004800
levi,0.002414
lf,0.011468
liabil,0.002414
licens,0.002045
lie,0.001683
lieu,0.003240
life,0.001104
light,0.001416
lightbourn,0.004905
lighthous,0.006782
like,0.002752
limeston,0.002934
limit,0.007344
line,0.001229
link,0.002241
list,0.003821
literatur,0.001534
littl,0.003944
live,0.003332
local,0.017453
locat,0.013894
loi,0.003253
london,0.005786
long,0.005577
look,0.001418
lord,0.006099
lorri,0.004170
lost,0.001492
loud,0.003091
low,0.001316
lower,0.001269
lowest,0.002043
lowform,0.005198
lt,0.003163
lucr,0.002833
luft,0.004110
lumber,0.003266
m,0.002457
macmillan,0.004693
madeira,0.011012
main,0.005437
mainland,0.002231
mainstream,0.002084
maintain,0.011978
major,0.011848
majorgener,0.003858
make,0.001747
makeup,0.002744
malabar,0.003757
male,0.001926
mall,0.003266
mammal,0.002174
man,0.004559
manag,0.003690
mandatori,0.002640
maner,0.013523
mangrov,0.003367
mani,0.013199
manoeuver,0.005198
manpow,0.003018
map,0.001571
march,0.005698
margaret,0.002510
mari,0.003969
marin,0.011799
marionbermuda,0.005198
maritim,0.011056
mark,0.001379
market,0.003857
marri,0.002153
marsh,0.002946
marshal,0.002276
martha,0.003203
martial,0.002766
maryland,0.002852
mason,0.002973
mass,0.001408
massachusett,0.002252
master,0.001833
masterwork,0.008406
match,0.005480
materi,0.003611
matter,0.002584
mean,0.001892
meat,0.002383
medal,0.002522
medallist,0.004712
media,0.001575
medic,0.003163
medicalhealthcar,0.005198
meet,0.006949
member,0.013152
membership,0.003784
memori,0.001786
men,0.011150
mention,0.003326
merchant,0.014281
merg,0.004138
met,0.005270
metal,0.001787
mexican,0.002736
mexico,0.004286
mi,0.021659
miami,0.003259
michael,0.004742
mid,0.003421
midatlant,0.007059
midaugust,0.004238
middl,0.004249
midth,0.002119
migrat,0.001835
mile,0.015974
milit,0.002684
militari,0.019455
militia,0.007975
million,0.004047
minim,0.003626
minist,0.007749
minor,0.004769
mishka,0.005198
miss,0.002166
mission,0.001712
mistaken,0.002836
mixtur,0.004295
mobil,0.001824
model,0.001070
modern,0.004121
modernday,0.002445
monarch,0.002268
monetari,0.001841
money,0.001535
montessori,0.003877
month,0.003035
moresbi,0.007611
morgan,0.004877
mostli,0.004397
mozambiqu,0.002942
mrtir,0.005198
multipl,0.001321
multiraci,0.003644
municip,0.006279
muppet,0.004712
museum,0.018643
music,0.003775
musician,0.008992
mutini,0.002985
mysteri,0.002267
na,0.002597
nahki,0.005198
narr,0.002260
nation,0.013326
nativ,0.019531
nativeborn,0.004453
nato,0.002597
natur,0.002751
nautic,0.012633
naval,0.045506
navfac,0.005198
navi,0.032896
navig,0.004290
nd,0.001598
near,0.007062
nearbi,0.006342
nearli,0.001496
necessari,0.001369
need,0.005163
neglig,0.002556
neighbour,0.002098
neighbourhood,0.003031
nelson,0.002595
new,0.016881
newengland,0.004800
newer,0.002522
newfoundland,0.009594
newli,0.001807
newport,0.003840
newportbermuda,0.005198
news,0.001874
newspap,0.002126
nice,0.003116
nicol,0.003121
night,0.004214
noctivagan,0.005198
nois,0.002449
nomin,0.001792
nonafrican,0.003937
nonbermudian,0.013907
nonblack,0.004568
nonn,0.006903
nonwhit,0.003877
normal,0.001369
north,0.017731
northeast,0.002446
northernmost,0.006959
northnorthwest,0.004635
notabl,0.002636
note,0.005942
notori,0.002726
nova,0.010358
novelist,0.002961
number,0.012031
numer,0.003818
nurs,0.002499
nusum,0.005198
oath,0.002931
oba,0.004507
object,0.002348
obscur,0.004759
observ,0.001133
obtain,0.002670
occas,0.002136
occupi,0.001722
occur,0.003274
ocean,0.014141
octob,0.002970
odi,0.004314
oecd,0.002542
offer,0.003832
offic,0.013827
offici,0.005216
offshor,0.010019
okeeff,0.004275
old,0.002842
oldest,0.011149
olymp,0.018155
onc,0.007701
oncethriv,0.004635
onearm,0.004800
oneday,0.003670
oneil,0.003399
onli,0.010279
onlin,0.001503
onward,0.002177
oona,0.005198
open,0.011760
oper,0.010837
opinion,0.001825
opportun,0.003245
oppos,0.001435
opposit,0.004240
opt,0.002672
option,0.001792
order,0.001893
organ,0.000937
organis,0.003252
origin,0.006663
outer,0.002194
outli,0.003314
outlin,0.001672
outward,0.002644
overpopul,0.003153
oversea,0.012293
owe,0.002090
owner,0.005829
ownership,0.002017
oxford,0.001614
paget,0.007875
paint,0.002181
pakistan,0.002348
palau,0.003489
palm,0.008030
pan,0.002839
par,0.002635
parallel,0.005339
parent,0.001934
parish,0.031664
parliament,0.010395
parliamentarian,0.003228
parti,0.009292
partial,0.001580
particip,0.004065
particularli,0.002409
partner,0.007511
parttim,0.003022
pass,0.005338
passeng,0.007668
past,0.002725
path,0.001741
patrick,0.002487
patrol,0.008290
paul,0.001493
paula,0.003479
pay,0.004811
payrol,0.003111
peak,0.003770
pedro,0.002755
peg,0.002942
pembrok,0.012511
peopl,0.004735
pequot,0.004314
perform,0.002415
perhap,0.001596
perimyoti,0.005198
period,0.004082
perman,0.006658
permit,0.003499
person,0.008992
personnel,0.002123
petrel,0.007833
pga,0.008629
philip,0.002111
phone,0.002451
photo,0.002658
physic,0.001124
physician,0.004333
pianist,0.003840
pickl,0.003896
piec,0.001897
pig,0.002561
pink,0.003111
pipe,0.002875
place,0.005828
placenam,0.003877
plan,0.003902
plane,0.002069
plant,0.001491
plantat,0.007392
play,0.008682
player,0.004496
pleas,0.002601
pledg,0.002435
plough,0.003460
plp,0.013209
pocahonta,0.005198
poem,0.002535
point,0.004982
poland,0.002346
polic,0.005731
polit,0.009703
politician,0.004121
poll,0.002390
pond,0.003035
pool,0.002249
popul,0.024444
populac,0.002718
popular,0.008603
port,0.007764
portion,0.001726
portug,0.009179
portugues,0.030614
pose,0.002092
possibl,0.003014
post,0.001667
postsecond,0.004357
potent,0.003091
pound,0.002469
pow,0.003572
power,0.006048
powhatan,0.004905
practic,0.002107
preced,0.001866
predat,0.004373
predecessor,0.002147
predomin,0.002247
premier,0.022193
presenc,0.001489
present,0.000984
preserv,0.001660
presettl,0.005198
presid,0.011396
press,0.003478
prestigi,0.002800
prevent,0.001408
previou,0.004456
previous,0.006006
price,0.001458
primari,0.010402
primarili,0.012118
prime,0.007913
princ,0.004251
princip,0.004616
print,0.001849
prior,0.004463
prison,0.014634
privat,0.016949
probabl,0.001413
problem,0.001053
process,0.000931
produc,0.004099
product,0.002053
profess,0.002058
profession,0.004788
profit,0.001701
profound,0.002247
program,0.001239
programm,0.007573
progress,0.004027
prohibit,0.004019
promin,0.006178
promot,0.002810
prompt,0.002156
prone,0.002721
properli,0.002071
properti,0.003578
proport,0.001628
propuls,0.003077
protect,0.006564
protest,0.001830
proud,0.003228
provid,0.007865
proxim,0.006830
public,0.012896
publish,0.004373
puerto,0.008500
punish,0.002166
purchas,0.003350
puritan,0.003215
purpos,0.001281
pursu,0.003582
push,0.001873
qualiti,0.002935
quantiti,0.001604
queen,0.004134
question,0.001237
quickli,0.001603
quiet,0.002885
quinn,0.003540
quit,0.001664
quo,0.002747
race,0.013546
racial,0.004837
radiolisten,0.005198
raf,0.003234
raid,0.002345
rain,0.002501
rainfal,0.002711
rainwat,0.003619
rais,0.002905
raleigh,0.003959
ran,0.002205
rang,0.001182
rank,0.001663
rankin,0.011094
rankinbass,0.005198
rapidli,0.001660
rare,0.004863
rate,0.004882
raucou,0.004905
raw,0.002037
reach,0.006348
read,0.001085
readili,0.002137
real,0.003889
realiti,0.001699
rebel,0.009079
rebellion,0.002230
receipt,0.002693
receiv,0.005967
recent,0.015145
recess,0.002236
reclaim,0.002916
recognis,0.001928
recognit,0.001712
record,0.006584
recours,0.003096
recurv,0.004507
redesign,0.003126
rediscov,0.002721
reduc,0.001183
reef,0.016451
refer,0.004373
reflect,0.001342
refuel,0.007123
refuge,0.002338
refus,0.001823
regard,0.002397
regardless,0.001888
regga,0.003858
reggi,0.005198
regiment,0.008445
region,0.005593
regist,0.005811
registrar,0.003698
regul,0.004436
regular,0.001711
regularli,0.004253
regulationlaw,0.005198
regulatori,0.002162
reimburs,0.003253
reinsur,0.003632
rel,0.005600
relat,0.003369
relax,0.002388
releas,0.004683
reli,0.003010
reliev,0.002614
religi,0.001595
reloc,0.002575
remain,0.009298
remaind,0.002318
remembr,0.003509
remov,0.001442
render,0.002048
renegad,0.007101
renew,0.001826
rent,0.002405
repair,0.002224
repeat,0.003606
replac,0.002546
replant,0.003896
replenish,0.003131
report,0.003602
reportedli,0.002480
repres,0.005123
republ,0.002932
request,0.003797
requir,0.006884
reserv,0.001661
resid,0.016551
resourc,0.002529
respons,0.005417
rest,0.001463
restaur,0.002774
restor,0.001766
result,0.010442
retain,0.001642
return,0.005057
reveal,0.001643
revenu,0.001822
revoc,0.003726
revok,0.003014
revolut,0.003095
revolutionari,0.001988
rhode,0.002862
ricardo,0.002839
richard,0.001543
rico,0.008850
ridg,0.002736
right,0.003363
rim,0.003307
ring,0.002115
risen,0.002631
rival,0.002064
rivalri,0.002573
river,0.001708
road,0.001814
robber,0.003399
robert,0.001373
rock,0.005869
role,0.004377
rolf,0.003460
roof,0.006080
root,0.001578
roughli,0.005257
round,0.001979
rout,0.003761
row,0.004831
royal,0.047802
royalist,0.003111
rugbi,0.013597
rule,0.004561
rump,0.003619
run,0.002745
runner,0.003266
rustic,0.004139
s,0.009746
sabl,0.008476
safe,0.004085
said,0.005134
sail,0.018903
sailboat,0.003916
sailor,0.002672
salari,0.002310
salt,0.010701
saltwat,0.003619
sam,0.002774
san,0.003967
sand,0.002579
sandi,0.003067
sandwich,0.003111
sargasso,0.009425
saul,0.003014
save,0.003548
sayl,0.004568
scene,0.004500
schedul,0.006229
scheme,0.001880
scholar,0.001586
scholarli,0.002211
school,0.041944
schoolboy,0.007919
scientist,0.001428
scooter,0.004453
scot,0.006493
scotia,0.009721
scotland,0.002348
scuba,0.003399
sculptor,0.003416
sculptur,0.008427
sea,0.023910
seaboard,0.010859
seafar,0.003383
seamount,0.007964
seaplan,0.015222
search,0.001599
season,0.002018
seasonend,0.004905
seat,0.001848
second,0.007177
secondlargest,0.002981
secondli,0.002747
secret,0.003855
section,0.003095
sector,0.008189
secular,0.002162
secur,0.003981
seek,0.001401
seen,0.001225
segment,0.002140
segreg,0.002734
seiz,0.002147
sejm,0.004082
selfgovern,0.002477
selfidentif,0.004029
selfreferr,0.004800
selfsustain,0.003359
seminolu,0.005198
senat,0.002143
seneg,0.003005
senior,0.006211
sens,0.001285
sent,0.001731
sentenc,0.002135
septemb,0.006026
serv,0.006217
servant,0.002408
servic,0.009737
set,0.001935
settj,0.005198
settl,0.010653
settlement,0.012761
settler,0.007052
seven,0.001639
seventh,0.002520
sever,0.006344
shakespear,0.006144
shallow,0.002642
share,0.001217
sharpl,0.004275
shaun,0.004082
shift,0.001513
ship,0.037224
shipbuild,0.006135
shipwreck,0.009459
shore,0.009501
short,0.001332
shown,0.001506
sight,0.002318
sightse,0.004453
signific,0.003329
similar,0.003114
sinc,0.012171
singersongwrit,0.004110
singl,0.001163
singlegend,0.005198
singlesex,0.004712
singleton,0.003540
singular,0.002291
sink,0.005179
sir,0.009812
site,0.004393
situat,0.001338
size,0.005415
skeleton,0.002658
skink,0.008629
slam,0.003840
slave,0.018490
slavehold,0.008164
slaveri,0.016037
slight,0.002595
slip,0.002871
sloop,0.007545
small,0.007447
smaller,0.001478
smith,0.005526
smithsonian,0.002973
smoothawley,0.004203
snorkel,0.003805
soccer,0.003321
social,0.001106
socioeconom,0.002511
sociohistor,0.004055
soften,0.003375
soil,0.003940
sold,0.003672
soldier,0.005935
somer,0.038968
somerset,0.021868
someth,0.001671
sometim,0.001131
somewhat,0.001843
son,0.003329
soon,0.004783
sosu,0.005198
sourc,0.007655
south,0.010892
southampton,0.007191
southeast,0.006385
southeastern,0.002701
southern,0.006454
southwest,0.002440
soviet,0.003766
space,0.001340
spain,0.005542
spanish,0.018802
spanishcaribbean,0.005198
spanishspeak,0.007754
spark,0.002300
speak,0.001667
speci,0.011193
special,0.002174
specialis,0.005038
specialist,0.004314
specif,0.002080
specifi,0.001767
speed,0.001778
spell,0.002399
spend,0.001804
spent,0.001921
spi,0.005907
spinoff,0.003221
spirit,0.001964
spoke,0.002399
spoken,0.002338
sport,0.016519
spot,0.004353
spring,0.001961
sq,0.005191
squar,0.005526
ss,0.002672
st,0.030834
stabl,0.001711
stage,0.001518
stalactit,0.004712
standard,0.002342
stark,0.002934
start,0.003301
state,0.019779
stateless,0.003399
statement,0.001596
station,0.011396
statist,0.002852
statu,0.013068
stay,0.001903
steadi,0.004456
steadili,0.002293
steam,0.002589
steamship,0.003433
steer,0.002871
stem,0.001954
step,0.002948
stillvex,0.005198
stillvexd,0.005198
stinson,0.004712
stock,0.003354
stop,0.001717
store,0.001761
storm,0.002435
stormi,0.004170
stormwrack,0.010397
stow,0.007833
strachey,0.004005
strategi,0.001619
stream,0.004167
strength,0.001763
strengthen,0.003933
strong,0.003790
strongli,0.003351
struck,0.004945
structur,0.002031
student,0.005919
studi,0.001837
subflavu,0.005198
subject,0.003318
submarin,0.007881
submerg,0.003086
subscrib,0.002718
subsequ,0.001356
subsidiari,0.002629
subsidis,0.003375
substanti,0.001614
subtrop,0.009491
succeed,0.001777
success,0.002306
suez,0.003022
suffer,0.001586
suffrag,0.005112
sullivan,0.003391
summer,0.016091
summertim,0.004568
summit,0.012714
sun,0.001928
supersed,0.002511
supplant,0.002777
suppli,0.007087
support,0.003101
supposedli,0.002653
suppress,0.003982
surfac,0.001574
surinam,0.003300
surpass,0.002454
surpris,0.002286
surround,0.004776
surviv,0.002999
survivor,0.002701
suspicion,0.002794
sustain,0.001700
swainson,0.004314
swam,0.004314
swim,0.002824
switch,0.008539
sworn,0.002768
sympathet,0.002780
tackl,0.002676
taken,0.002546
talbot,0.007145
talent,0.002569
taliban,0.003489
tank,0.004816
tariff,0.004776
tax,0.019608
taxat,0.004275
taxi,0.003375
teacher,0.001992
team,0.021788
teceira,0.005198
technologist,0.003391
teenag,0.003111
telecommun,0.002266
televis,0.001959
temperatur,0.010545
tempest,0.007645
tenni,0.003180
tenor,0.003877
tension,0.005924
tent,0.002667
term,0.002464
terrapin,0.004029
territori,0.013696
th,0.026917
thatcher,0.003175
thcenturi,0.002004
themselv,0.001289
thi,0.017558
thickli,0.003712
think,0.001507
thoma,0.001555
thought,0.008625
thousand,0.004599
thraldom,0.005198
threaten,0.001976
tie,0.006783
till,0.002625
time,0.008462
titl,0.001560
tobacco,0.004899
today,0.008743
togeth,0.001198
tom,0.002385
took,0.006791
tool,0.001392
tortois,0.003399
total,0.007278
tourism,0.016181
tourist,0.011585
tournament,0.009647
town,0.016069
trace,0.001667
trade,0.022639
trader,0.002140
tradit,0.004379
trafalgar,0.004029
traffiqu,0.009015
train,0.006005
traitor,0.003540
transatlant,0.006154
transfer,0.004463
transient,0.002818
transit,0.004541
transport,0.008943
tree,0.003581
triangl,0.005143
triathlon,0.004314
tribe,0.004280
tribut,0.005187
trickl,0.003607
trimingham,0.005198
trinidad,0.003027
trinidadianborn,0.005198
tripl,0.002395
tropic,0.002218
trott,0.004453
true,0.001407
truste,0.003072
tucker,0.012839
turin,0.003399
turk,0.010988
turn,0.007211
turtl,0.006020
twice,0.002072
twoparti,0.003253
tynwald,0.008806
typic,0.004665
u,0.002028
ubp,0.004507
uk,0.011155
unawar,0.002827
underground,0.004819
underlin,0.003049
underwat,0.002803
unexplain,0.003228
unif,0.002472
uninhabit,0.002747
union,0.005167
uniqu,0.002965
unit,0.030693
univers,0.007204
unjust,0.003067
unlik,0.002895
unlimit,0.002601
unrest,0.002411
unveil,0.002965
unwil,0.003022
upper,0.001755
urbina,0.004314
usaf,0.003772
use,0.009946
usn,0.004238
usual,0.004185
usyear,0.005198
utilis,0.002858
uwi,0.009425
uyghur,0.011575
van,0.001901
varieti,0.001305
variou,0.004948
vascular,0.002865
vega,0.002875
vendor,0.002977
ventur,0.011449
verd,0.009364
veri,0.004964
versu,0.002029
vertebr,0.005166
vessel,0.010583
vest,0.004560
victim,0.002336
victori,0.002013
view,0.003343
vigor,0.002515
vii,0.002644
villag,0.017881
vineyard,0.003822
violat,0.001923
virgin,0.002662
virgineola,0.005198
virginia,0.040077
virginian,0.004905
virtual,0.001719
visibl,0.001921
visit,0.005240
visitor,0.021403
vital,0.003883
volcano,0.007714
volunt,0.002396
voluntari,0.004810
vote,0.004946
w,0.001458
wa,0.061308
wade,0.010077
wall,0.001840
waller,0.003877
walter,0.004147
war,0.054344
warm,0.002221
warmer,0.002977
wartim,0.002768
warwick,0.020155
washington,0.007656
water,0.008047
watercolour,0.005033
watercolourist,0.005198
wave,0.003506
way,0.001859
weaken,0.002177
weather,0.004264
web,0.001885
websit,0.001644
week,0.001827
wellknown,0.002041
west,0.056730
westerli,0.003519
western,0.006539
westminst,0.002899
westnorthwest,0.004314
wetter,0.003584
weve,0.003684
whale,0.002708
whatsoev,0.005978
white,0.019808
whitehal,0.003959
wholli,0.002529
wider,0.001979
wife,0.002241
wikimedia,0.002423
wild,0.002230
william,0.004179
willingli,0.003367
win,0.001955
winner,0.002393
winslow,0.003741
winston,0.005862
winter,0.006463
withdrew,0.002443
women,0.003309
won,0.007040
work,0.006818
worker,0.001618
workforc,0.002445
world,0.027325
worldrenown,0.003840
worth,0.001968
wound,0.002385
wreck,0.003106
write,0.001359
writer,0.003568
written,0.004129
wrote,0.001481
wyck,0.005198
yacht,0.009943
yanke,0.011468
year,0.014916
yearold,0.002533
york,0.010712
young,0.003228
youngestev,0.005198
zanzibar,0.003595
zetajon,0.005198
zone,0.003594
zoo,0.003147
