abdou,0.040407
abdoulay,0.038456
abl,0.011326
accredit,0.045426
accus,0.053949
activ,0.008947
addit,0.009071
advoc,0.015392
affect,0.011717
africa,0.014562
african,0.047150
afromauritanian,0.047173
agenc,0.014106
agreement,0.013687
agricultur,0.013328
ahmadinejad,0.036566
allow,0.008917
america,0.012566
annual,0.013774
articl,0.021314
asham,0.033952
ashen,0.042065
asian,0.017082
assembl,0.013998
assist,0.026740
automak,0.035928
avr,0.039537
best,0.011916
bilater,0.061694
black,0.043776
bordeaux,0.032628
border,0.015927
boundari,0.015094
cannabi,0.029236
capac,0.015011
captain,0.021854
car,0.038271
carri,0.011673
casam,0.039537
champion,0.022480
china,0.055652
citi,0.037519
clear,0.013479
close,0.019380
commiss,0.014418
compani,0.011436
compromis,0.020822
confeder,0.021618
confer,0.014257
consider,0.012171
consul,0.047837
consular,0.030343
consulategener,0.067904
consulatesgener,0.035542
contribut,0.010630
control,0.009623
cooper,0.013843
cordial,0.028465
correct,0.014585
corrupt,0.017782
council,0.013206
counterpart,0.019421
countri,0.038126
court,0.013737
cover,0.011924
crimin,0.018346
cultiv,0.018499
cut,0.015377
dakar,0.210075
dc,0.040112
depart,0.012699
develop,0.028975
differ,0.015356
diouf,0.040903
diplomat,0.103247
directli,0.011637
dispatch,0.024808
disput,0.014568
dissid,0.051591
document,0.013983
domain,0.014146
drug,0.017082
du,0.020471
econom,0.028629
economi,0.011908
effort,0.012076
elect,0.012861
embassi,0.215924
empow,0.024554
en,0.021429
enjoy,0.033202
especi,0.010125
espous,0.024761
establish,0.037224
estim,0.012271
europ,0.011824
excel,0.018864
exil,0.019915
expand,0.012335
extent,0.014348
extradit,0.030846
failur,0.015172
feb,0.030141
field,0.009522
fleuv,0.041452
flood,0.020585
follow,0.007459
foreign,0.012138
form,0.007127
franc,0.053396
frenchspeak,0.030922
friend,0.018520
friendli,0.042957
function,0.009546
gambia,0.030207
giant,0.020389
govern,0.026601
grow,0.011956
h,0.012953
ha,0.080829
haidalla,0.040407
harbor,0.023334
heroin,0.029348
hi,0.008360
high,0.009441
honorari,0.048079
howev,0.007567
human,0.008983
illicit,0.056282
immun,0.020410
includ,0.006472
incorpor,0.012804
increas,0.008966
independ,0.009577
instead,0.010921
integr,0.022505
intern,0.032684
iran,0.063456
iranbas,0.047173
iranian,0.047031
iraniansenegales,0.047173
irrig,0.023571
joint,0.016418
june,0.013584
khodro,0.043563
kill,0.015392
known,0.007790
korea,0.037637
kuala,0.030552
la,0.015562
larg,0.008215
le,0.018570
line,0.011157
list,0.017336
live,0.010079
long,0.010121
lopold,0.034531
lumpur,0.031077
lyon,0.026632
mahmoud,0.031933
maintain,0.043477
malaysia,0.045553
mali,0.026338
manag,0.011163
mani,0.007045
market,0.011668
marseil,0.032319
mashhad,0.038792
materi,0.010923
maur,0.042065
mauritania,0.197623
mean,0.008584
meet,0.012612
member,0.029836
mexico,0.077788
minor,0.014425
mise,0.027794
mission,0.031084
monetari,0.016710
morocco,0.024668
moscow,0.022331
mostli,0.013299
moulay,0.038140
nation,0.008637
negoti,0.016315
neighbor,0.017584
new,0.006962
north,0.012376
nouakchott,0.037294
octob,0.026958
offic,0.012546
oic,0.027548
onli,0.007175
organ,0.008502
organis,0.014757
ould,0.038140
pari,0.017045
peacekeep,0.023684
peopl,0.017188
philosophi,0.013270
platform,0.019087
pledg,0.022101
point,0.009041
polici,0.011535
polit,0.009783
pour,0.023460
presid,0.051705
press,0.010519
princip,0.013962
problem,0.009559
produc,0.018600
profil,0.019297
progress,0.012182
project,0.011059
propon,0.018729
protect,0.011912
provid,0.007930
public,0.009001
purport,0.025278
rabat,0.036132
rebel,0.020596
reestablish,0.021592
refer,0.005668
refuge,0.021223
region,0.010151
relat,0.076432
relationship,0.010820
remain,0.009375
republ,0.066523
resolv,0.016466
resourc,0.011476
respect,0.010780
result,0.007896
right,0.020345
river,0.015498
russia,0.033320
saintloui,0.037843
samand,0.043563
section,0.014046
secur,0.024087
seneg,0.790972
senegales,0.109700
senegambia,0.038792
senghor,0.074589
separatist,0.026943
serbia,0.024784
short,0.012086
sngalomv,0.045675
soldier,0.017951
south,0.012354
southeast,0.019313
southwest,0.022143
soviet,0.017088
speak,0.015127
spite,0.022728
split,0.016214
state,0.062127
strategi,0.014696
subsaharan,0.024714
succeed,0.016129
success,0.010462
suppli,0.012861
support,0.018760
taiwan,0.022200
taya,0.039151
technic,0.014031
tehran,0.030141
thi,0.011802
threat,0.016547
tie,0.046166
time,0.006980
tourism,0.018353
transship,0.030999
troop,0.017807
undefin,0.027964
union,0.023447
unit,0.063659
use,0.006446
usmilitari,0.036345
valeur,0.036132
veil,0.028914
vigor,0.022825
wa,0.025875
wade,0.030482
washington,0.034739
weapon,0.035038
west,0.040639
world,0.007998
year,0.007962
york,0.012151
