account,0.051800
becam,0.024237
cabinet,0.044612
constitu,0.041594
council,0.032388
countri,0.046750
crisi,0.036655
current,0.022740
differ,0.018830
doranyork,0.109164
dutch,0.130877
event,0.027829
follow,0.018292
gevolmachtigd,0.109164
govern,0.021745
henrietta,0.087628
howev,0.018558
kingdom,0.060832
list,0.042515
maarten,0.440658
minist,0.379400
nation,0.021182
netherland,0.133643
offic,0.030769
parliament,0.038553
plenipotentiari,0.598215
polici,0.028288
polit,0.023992
refer,0.013901
repres,0.022804
resign,0.047507
signific,0.024698
sinc,0.019347
sint,0.452781
tabl,0.037235
therefor,0.026297
usual,0.023283
van,0.042322
