absolut,0.017002
academi,0.038620
accord,0.010023
activ,0.010002
affair,0.016574
agreement,0.030600
air,0.015398
aladi,0.047800
america,0.028096
american,0.079500
ani,0.008834
answer,0.017848
april,0.030669
area,0.009955
argentina,0.049731
associ,0.039168
asuncin,0.041406
asuncion,0.137174
bank,0.043487
belong,0.017078
bolivia,0.031069
bolivian,0.036474
border,0.035609
branch,0.012853
brazil,0.043198
brazilian,0.055732
bueno,0.032093
chaco,0.040162
chang,0.009126
chile,0.052369
china,0.046658
citi,0.013980
ciudad,0.116862
clorinda,0.049759
colombia,0.055203
colorado,0.057110
common,0.009789
compani,0.012784
concentr,0.015844
cone,0.028585
congress,0.018141
consul,0.080213
consulatesgener,0.039731
cooper,0.015475
correspond,0.014698
corrient,0.043364
council,0.014763
counterpart,0.021710
countri,0.117205
coup,0.022049
current,0.010365
da,0.021553
dam,0.027323
date,0.027064
deal,0.026086
debt,0.018775
decis,0.013651
del,0.073334
develop,0.016195
diplomat,0.134651
disput,0.032571
embassi,0.193098
encarnacin,0.046338
end,0.010657
energi,0.027292
entri,0.018855
est,0.081246
establish,0.031209
estigarribia,0.047800
europ,0.013217
evo,0.038601
execut,0.014766
expans,0.016447
express,0.012629
extern,0.007622
fao,0.026518
fernando,0.090842
fernndez,0.034481
financ,0.015446
financi,0.013915
flix,0.032620
follow,0.008338
foreign,0.094984
formosa,0.039731
fund,0.014372
g,0.028202
good,0.011588
govern,0.009912
greatli,0.017069
group,0.037610
guyana,0.031457
ha,0.083405
handl,0.018954
histor,0.011708
honorari,0.053746
hope,0.017747
howev,0.008459
hydroelectr,0.030199
iadb,0.036841
iaea,0.029233
iberoamerican,0.085978
ibrd,0.028003
icao,0.028031
icct,0.035104
icrm,0.028900
ida,0.027398
ifad,0.028434
ifc,0.028115
ifrc,0.028524
iguaz,0.047023
ilo,0.027499
imf,0.022827
imo,0.029770
improv,0.025653
inaugur,0.024080
incio,0.043364
includ,0.007235
increas,0.010023
influenc,0.011480
instead,0.012208
institut,0.011029
integr,0.012578
interamerican,0.034566
intern,0.045670
interpol,0.048710
ioc,0.027177
iom,0.030750
ipu,0.042303
iso,0.024325
itaipu,0.044197
itso,0.045170
itu,0.027348
ituc,0.034566
jo,0.024801
jointlyoper,0.052732
known,0.008708
lae,0.038432
laia,0.039731
languag,0.026197
larg,0.009184
largest,0.014393
latin,0.049137
latina,0.039329
led,0.011247
leftist,0.026850
level,0.010420
lima,0.032263
link,0.007577
list,0.019379
longrun,0.028375
lugo,0.207030
luiz,0.042636
lula,0.083977
m,0.012462
maintain,0.036451
mani,0.007875
market,0.013043
massiv,0.018541
member,0.055588
membership,0.019193
mercosur,0.108384
met,0.017819
mexico,0.065217
miga,0.039731
million,0.013686
minist,0.015721
ministri,0.056206
minurso,0.038775
minustah,0.043364
mission,0.034747
monetari,0.018679
montevideo,0.038268
monusco,0.044663
moral,0.017432
nam,0.027423
nation,0.028965
natur,0.009302
negoti,0.018238
neighbor,0.019656
new,0.007783
oa,0.030884
observ,0.011500
offici,0.026457
oil,0.017391
onli,0.008020
opan,0.037802
opcw,0.028375
organ,0.076035
owe,0.021206
paraguay,0.661320
paraguayan,0.153730
paraguaybrazil,0.105465
parti,0.026931
particularli,0.012219
pay,0.016267
payment,0.018780
pca,0.031820
peopl,0.009606
peru,0.054998
peruvian,0.032499
petrleo,0.043766
petropar,0.051058
plant,0.015128
polici,0.012894
polit,0.021872
posada,0.047023
present,0.009990
presid,0.130048
propon,0.020937
puerto,0.028741
recogn,0.013587
refer,0.006336
region,0.011347
relat,0.136705
republ,0.044618
resistencia,0.047023
resourc,0.012828
rest,0.014846
restart,0.033336
retard,0.031069
rio,0.115862
rosario,0.035393
rule,0.011567
s,0.008987
secur,0.013463
senat,0.021739
serv,0.012614
settl,0.018010
sever,0.009194
sign,0.014520
silva,0.033066
sinc,0.017637
slate,0.030575
south,0.041432
southern,0.016368
spanish,0.076289
start,0.022327
state,0.046299
support,0.010485
tension,0.020031
term,0.016667
thi,0.006596
tripl,0.024296
unasur,0.079463
unbroken,0.033066
unctad,0.027423
unesco,0.023954
unficyp,0.040391
unido,0.028143
union,0.052420
unit,0.008895
unlik,0.014686
unmi,0.041690
unmil,0.040628
unoci,0.043766
unpaid,0.030363
unwto,0.041135
upu,0.026873
uruguay,0.060318
use,0.007206
venezuela,0.162351
victori,0.020425
wa,0.007231
war,0.012528
wco,0.031408
wipo,0.028003
wmo,0.027758
world,0.026823
wto,0.027758
year,0.017800
