academ,0.016166
accord,0.010793
activ,0.043080
address,0.032507
affair,0.053540
affect,0.014104
afghanistan,0.027692
africa,0.035056
allianc,0.080745
alway,0.014514
ambassador,0.026485
ander,0.033404
ani,0.009512
answer,0.019218
applic,0.012890
arctic,0.029861
area,0.010720
argu,0.014358
arm,0.017210
attent,0.070402
attitud,0.022158
austrianfrench,0.056781
balanc,0.017082
balkan,0.030617
base,0.009404
bayn,0.042349
becam,0.011896
becaus,0.009797
began,0.012995
best,0.014344
blank,0.032138
bosnia,0.033063
britain,0.018334
british,0.014531
broad,0.017480
broke,0.022318
cambridg,0.017263
canada,0.018669
carl,0.021762
carlsson,0.047126
center,0.013902
centuri,0.011193
challeng,0.015570
choos,0.018751
cia,0.025899
citizen,0.017838
close,0.023327
cold,0.083117
collect,0.012716
common,0.010541
concern,0.024478
congo,0.029748
consensu,0.021746
consid,0.010167
consular,0.036523
consult,0.040263
continu,0.010563
contribut,0.012796
control,0.011583
controversi,0.017179
cooper,0.099979
council,0.063587
countri,0.057365
cover,0.014353
current,0.022322
dag,0.041383
david,0.015486
decid,0.016990
decis,0.029398
defens,0.057406
defin,0.011964
deliv,0.020549
depart,0.015286
desir,0.016408
develop,0.017438
devot,0.020607
diplomaci,0.029342
diplomat,0.062138
direct,0.011577
disarma,0.034930
doctrin,0.041815
dont,0.024362
driven,0.020296
dure,0.030107
earli,0.010498
econom,0.045947
effect,0.010196
effort,0.014536
eighteenth,0.026827
elect,0.030962
elig,0.026257
embassi,0.025990
employ,0.013922
emu,0.074441
end,0.022952
engag,0.016621
enjoy,0.019982
enlarg,0.026809
environment,0.016874
especi,0.012188
eu,0.205682
euroatlant,0.043010
europ,0.028465
european,0.078440
event,0.013659
expenditur,0.023208
explain,0.014129
extens,0.014174
extern,0.008207
factbook,0.026305
favor,0.017336
favour,0.020640
februari,0.017053
final,0.027152
flatter,0.038550
fogh,0.050634
forc,0.011249
foreign,0.058444
formal,0.028089
free,0.012820
futur,0.013670
gnp,0.034438
good,0.012478
govern,0.053366
great,0.025299
growth,0.014206
gustaf,0.041565
ha,0.059872
half,0.015449
hammarskjld,0.048092
heavi,0.019398
held,0.013270
high,0.022729
histor,0.012607
horn,0.028463
host,0.020523
howev,0.009109
importantli,0.025719
improv,0.013811
includ,0.038956
incompat,0.028601
indic,0.013807
influenc,0.012362
inform,0.011158
ingvar,0.047126
institut,0.011876
instrument,0.017282
intern,0.049177
internationalist,0.040240
interoper,0.037129
iran,0.025460
iranian,0.028305
issu,0.024087
januari,0.016017
job,0.019382
join,0.033388
juli,0.016211
king,0.017876
kingdom,0.014928
korea,0.022652
leader,0.016408
led,0.012110
lessen,0.029833
liber,0.016918
libya,0.029610
light,0.015469
lindstrm,0.044585
link,0.008159
list,0.041735
live,0.012132
low,0.014380
main,0.011878
maintain,0.013083
make,0.019082
mani,0.008480
march,0.015559
matter,0.042341
member,0.047885
membership,0.062000
milieu,0.034930
militari,0.075892
minist,0.050786
mission,0.037415
movement,0.012937
nation,0.062379
nationwid,0.028508
nato,0.056745
natol,0.043492
natur,0.010016
negoti,0.039277
neighbor,0.021165
neutral,0.082146
nonalign,0.154908
nonparticip,0.045551
nonprolifer,0.041383
nordic,0.161944
norrhem,0.056781
north,0.014897
notabl,0.014397
novemb,0.033656
nuclear,0.019171
number,0.009386
numer,0.013900
object,0.012826
observ,0.012383
occas,0.046675
opportun,0.035445
order,0.010339
organ,0.010234
organis,0.017763
outsid,0.014313
outspoken,0.034741
paper,0.015481
parti,0.014499
particip,0.059205
particular,0.011744
partli,0.020174
partnership,0.047230
patrick,0.027170
peac,0.036189
peacekeep,0.057017
peacemak,0.039274
peacetim,0.072094
peopl,0.010344
percent,0.037687
permit,0.019109
peter,0.017108
polici,0.111077
polit,0.035327
poll,0.026114
popular,0.013423
posit,0.022239
power,0.044041
pp,0.017540
preclud,0.030846
premis,0.025238
presid,0.015559
press,0.025325
prime,0.017286
promot,0.015347
protect,0.028678
provid,0.009545
purpos,0.013994
pursu,0.019566
question,0.013510
rasmussen,0.041565
rate,0.013333
read,0.023702
reason,0.012246
refer,0.006823
referendum,0.071067
relat,0.018400
remain,0.033855
renew,0.019953
repres,0.011193
requir,0.021483
reserv,0.036294
respons,0.011834
rest,0.015986
result,0.019009
revis,0.020390
revolut,0.016903
right,0.024489
riksdag,0.045909
rushdi,0.048638
s,0.009677
salman,0.041945
salmon,0.034497
sat,0.032304
saw,0.016697
scandinavia,0.063329
scandinavian,0.032056
second,0.011198
secretarygener,0.034930
secur,0.086982
seek,0.015311
seen,0.013388
septemb,0.016455
serv,0.040747
sever,0.019799
shape,0.016263
sinc,0.037983
small,0.011620
social,0.024161
somewhat,0.020131
spend,0.019711
spring,0.021419
stage,0.016583
standard,0.025580
state,0.041545
stay,0.041572
storm,0.026603
strengthen,0.042958
strong,0.013798
studi,0.010035
submit,0.023785
success,0.012593
superpow,0.032650
supplement,0.023510
support,0.033872
suspici,0.032431
suspicion,0.030522
svant,0.040868
swede,0.079341
sweden,0.711638
swedish,0.207192
taken,0.013904
tehran,0.036280
term,0.008973
thi,0.014205
threat,0.019918
today,0.013642
trade,0.013737
tradit,0.011958
turnout,0.032097
uk,0.017406
ukrain,0.028372
unhappi,0.033305
union,0.056445
unit,0.047891
univers,0.009835
variou,0.010810
view,0.012171
visa,0.030880
visit,0.019079
vote,0.054024
voter,0.050949
wa,0.038931
war,0.080939
welfar,0.021872
went,0.017417
western,0.042853
white,0.018029
wide,0.012230
win,0.021353
world,0.048138
xvi,0.033557
ye,0.030304
year,0.009583
