abkhazia,0.009403
abov,0.003329
abovement,0.008356
abren,0.012635
abroad,0.011295
absorb,0.005199
academ,0.003895
acceler,0.005002
accept,0.009795
access,0.007197
accidentpron,0.012910
accord,0.007802
accus,0.020863
acknowledg,0.005015
act,0.005945
action,0.006391
activ,0.010380
actor,0.005995
ad,0.006638
addit,0.002631
address,0.015666
adi,0.008686
administ,0.005098
administr,0.003636
admit,0.005484
advis,0.005257
affair,0.051605
affirm,0.006277
afghanistan,0.006672
agenc,0.004091
agent,0.004434
aggress,0.005795
agre,0.027448
agreement,0.023819
agricultur,0.003865
ahmadinejad,0.010605
air,0.003995
aircraft,0.017329
alassad,0.010743
alex,0.007676
alexand,0.014949
alexei,0.009403
alleg,0.005377
allegedli,0.006697
alli,0.004803
allianc,0.019456
alreadi,0.011366
alway,0.003497
ambassador,0.019146
ambiti,0.006732
ambrosio,0.011154
amend,0.005484
american,0.008840
analyst,0.005902
anatoliy,0.011863
andor,0.004551
andrei,0.016625
angela,0.018120
angola,0.007888
ani,0.018337
ann,0.006091
annex,0.017750
anniversari,0.006897
announc,0.026205
annual,0.007990
answer,0.009261
antarct,0.007867
antarctica,0.007753
anticip,0.005784
antinato,0.013682
anyon,0.005670
apec,0.018027
appear,0.003012
applebaum,0.011863
appropri,0.004169
approv,0.004467
approxim,0.007088
april,0.015915
apriljun,0.011154
architectur,0.004905
archiv,0.004786
arctic,0.007195
area,0.010332
argentina,0.006451
argu,0.017299
argument,0.004369
aris,0.004242
arm,0.020734
armenia,0.015650
arrest,0.005715
articl,0.015455
asia,0.004465
asian,0.009909
asiapacif,0.008136
ask,0.012898
aspir,0.006538
assad,0.021083
assassin,0.006155
assembl,0.012180
assert,0.004467
asylum,0.015065
atlant,0.011022
attack,0.004193
attempt,0.002966
attend,0.014887
august,0.003952
australia,0.009041
australian,0.005409
author,0.011713
autocrat,0.008562
autonom,0.005259
away,0.003961
azerbaijan,0.031913
baltic,0.029418
baluyevski,0.013682
bangladesh,0.007424
base,0.011330
bashar,0.010605
basi,0.009718
bear,0.004867
becam,0.005733
becaus,0.009442
becom,0.002510
befor,0.010713
began,0.006262
begun,0.004986
beij,0.007549
belaru,0.048151
belarusian,0.009847
believ,0.006487
belong,0.008862
benefit,0.003805
benign,0.008447
berezovski,0.024045
berlusconi,0.011355
biggest,0.005887
bilater,0.005964
billionair,0.009261
birthday,0.007695
bitter,0.007095
black,0.004232
bloc,0.006292
blunder,0.009696
bolshoy,0.012402
bomber,0.023602
border,0.036957
bordet,0.012910
bori,0.007846
bosnia,0.007967
boundari,0.013134
boycot,0.007933
brazilian,0.007230
break,0.004322
breakup,0.015065
brenton,0.023176
brief,0.004970
britain,0.017671
british,0.038516
broad,0.004212
broke,0.005377
broken,0.005228
bronz,0.006311
brother,0.005259
brought,0.003865
brown,0.005321
brussel,0.007558
build,0.006637
bulgaria,0.007108
burma,0.007794
bush,0.038811
busi,0.003535
businesslik,0.011154
cambodia,0.007648
came,0.003434
cancel,0.005949
candid,0.009675
canon,0.005703
capabl,0.004136
capit,0.003415
capitul,0.008704
carrier,0.006307
case,0.002626
caspian,0.034048
caspiansea,0.013682
cast,0.005335
caucasu,0.007667
cautiou,0.008037
cede,0.006722
center,0.003349
centr,0.004318
central,0.011777
centuri,0.013485
ceo,0.007498
certain,0.002874
cession,0.009403
cfe,0.034765
challeng,0.003751
chanc,0.015168
chancellor,0.022347
chang,0.011839
characteris,0.006296
charl,0.004022
chief,0.004373
china,0.016141
chines,0.009029
chirac,0.011062
christoph,0.005504
church,0.009491
chvez,0.009660
ci,0.029388
circumst,0.004825
citi,0.014509
citizen,0.008596
civil,0.003603
claim,0.015941
clear,0.011728
clearli,0.004722
climat,0.004484
close,0.005621
closer,0.005197
club,0.006091
coalit,0.005089
cold,0.025035
collect,0.003064
colonialera,0.011588
comment,0.010062
commiss,0.008364
commission,0.006460
commit,0.008805
common,0.005080
commonwealth,0.027130
communion,0.008667
communist,0.015543
compar,0.006213
comparison,0.004404
complet,0.002901
compli,0.006925
compris,0.004297
concept,0.002931
concern,0.005898
conclud,0.004296
conduct,0.003600
confer,0.028946
confirm,0.004528
conflict,0.019562
confront,0.011606
congratul,0.010107
consid,0.014699
consortium,0.007354
constitut,0.019901
construct,0.003253
contact,0.008816
contain,0.006027
contempt,0.008723
contenti,0.007465
contin,0.005413
continu,0.007636
contradict,0.005611
contribut,0.009250
control,0.002791
controversi,0.012419
convent,0.012203
cooler,0.008073
cooper,0.036136
cosponsor,0.009494
cost,0.003693
council,0.022983
counterpart,0.005633
counterpropos,0.010976
counterterror,0.009592
countri,0.066349
cours,0.010984
cover,0.006917
cq,0.010363
creat,0.010278
crew,0.006606
crimea,0.055099
crimean,0.034386
crise,0.006481
crisi,0.026010
critic,0.009270
criticis,0.006183
cultur,0.006317
current,0.008068
cyberwarfar,0.011863
czech,0.026928
da,0.005592
damag,0.004533
david,0.003731
day,0.009510
dead,0.005266
deal,0.003384
dealt,0.006296
dean,0.006847
death,0.007358
deborah,0.008861
decad,0.003818
decemb,0.019275
decis,0.014167
declar,0.008115
deepli,0.005931
defens,0.023054
deliv,0.004951
demand,0.003750
democraci,0.009358
democrat,0.004116
deni,0.009739
denunci,0.009887
denver,0.009235
depart,0.007366
deploy,0.005685
describ,0.005171
deserv,0.007440
design,0.003085
desir,0.007907
despit,0.003562
destruct,0.004971
deterior,0.012373
determin,0.002917
develop,0.014706
dialogu,0.011729
dictat,0.006007
dictionari,0.005093
die,0.004025
differ,0.004454
digit,0.004691
diplomat,0.034937
direct,0.005579
directli,0.003375
disarma,0.008416
disast,0.005803
disintegr,0.006869
dispatch,0.007195
display,0.004774
disput,0.054932
dissolut,0.006330
dissolv,0.005217
dmitri,0.016350
doe,0.005685
domest,0.008705
domin,0.003456
donbass,0.023439
donetsk,0.011719
doubl,0.004651
doubt,0.010843
downturn,0.007195
dramat,0.004744
drift,0.006477
duma,0.009157
dure,0.029019
e,0.010212
earli,0.002529
earlier,0.003737
east,0.007777
eastern,0.016791
econom,0.008303
economi,0.003454
ed,0.010622
educ,0.003222
edward,0.004601
effect,0.002457
effort,0.007005
eightyear,0.009132
elect,0.014921
embrac,0.005705
empir,0.014116
encompass,0.004734
end,0.008295
endors,0.005986
endur,0.006172
enemi,0.011305
engag,0.008010
english,0.003522
enrich,0.006620
entiti,0.004291
entrepreneur,0.006370
envoy,0.007515
equal,0.006888
equip,0.004521
era,0.011988
especi,0.005873
espionag,0.008201
establish,0.016195
estonia,0.030339
estoniarussia,0.012910
ethnic,0.014973
ethnophobia,0.013682
eu,0.011013
eurasian,0.007753
euromaidan,0.012200
europ,0.054872
european,0.044102
eve,0.007401
event,0.003291
exampl,0.002265
excerpt,0.020971
exclus,0.008641
exercis,0.008691
exist,0.002515
exkgb,0.013682
expand,0.007155
expans,0.012802
expect,0.006949
expel,0.024392
expert,0.004995
explicitli,0.005148
express,0.006553
expuls,0.007416
extend,0.003336
extern,0.001977
extract,0.004868
extradit,0.026840
exu,0.012635
face,0.007592
fail,0.003802
far,0.003429
fare,0.007804
favor,0.008354
favour,0.004973
fear,0.004745
februari,0.016436
feder,0.052350
feel,0.018912
felgenhau,0.013682
fellow,0.005718
fewer,0.005363
fight,0.004745
fighter,0.006869
fiia,0.027364
final,0.009814
financ,0.004007
finnish,0.015588
firstev,0.009261
fix,0.004014
fli,0.005645
flight,0.011081
focus,0.003520
follow,0.025961
food,0.003892
forc,0.029818
foreign,0.105620
form,0.004134
forth,0.005497
forum,0.005554
foundat,0.003526
founder,0.004740
framework,0.003874
freedom,0.004269
french,0.003639
friedman,0.006990
friend,0.005371
friendli,0.012459
friendship,0.020151
froze,0.009592
fsb,0.011154
fsu,0.012200
fulfil,0.010938
fund,0.003728
futur,0.006587
g,0.014634
ga,0.009100
gabala,0.013682
gate,0.006546
gaull,0.009108
gave,0.003935
gazeta,0.012022
gener,0.005830
geoffrey,0.007070
geopolit,0.022203
georg,0.019489
georgia,0.051715
georgian,0.016683
georgianrussian,0.012635
gerhard,0.023570
german,0.007638
germani,0.020361
given,0.005425
global,0.014366
goal,0.003720
goldfarb,0.011467
goodneighborli,0.012910
gordon,0.006307
got,0.006101
govern,0.018002
grant,0.012438
great,0.006096
greater,0.003406
greatest,0.004759
greec,0.005112
group,0.007318
grown,0.005208
guid,0.007647
gulf,0.006118
gvosdev,0.012635
ha,0.034264
haiti,0.007899
half,0.003722
halt,0.006162
hand,0.003351
hariri,0.011251
hast,0.016772
head,0.003491
headquart,0.005992
heighten,0.007825
heiligendamm,0.013247
heir,0.006920
held,0.009592
help,0.002960
hi,0.031524
high,0.002738
highlight,0.005568
hinder,0.006815
histor,0.006076
histori,0.009010
historian,0.004557
hold,0.006515
hope,0.004604
hopf,0.010015
howard,0.006273
howev,0.015364
httpengglobalaffairsrunumberforcedordesiredmodern,0.013682
httpengglobalaffairsrunumberwaitingforastorm,0.013682
hugo,0.006886
human,0.005211
hyper,0.010308
idea,0.003035
ignatiu,0.009847
illeg,0.005449
imbal,0.007014
immedi,0.003975
implement,0.003765
import,0.006919
impos,0.004651
inacio,0.013247
inappropri,0.007128
inclin,0.006692
includ,0.015019
increas,0.002600
increasingli,0.003987
independ,0.019444
india,0.004140
indic,0.003327
indirectli,0.005828
individu,0.005579
indonesia,0.006406
industri,0.003086
industrialist,0.008073
inflam,0.009732
influenc,0.023830
inform,0.002688
inhabit,0.009403
initi,0.011754
insert,0.006273
insid,0.004535
instanc,0.003662
institut,0.011447
institution,0.007148
insurg,0.007002
integr,0.003263
intellig,0.004219
intend,0.004186
interact,0.003374
interceptor,0.021211
interfer,0.011040
intern,0.035549
interpret,0.007216
interven,0.005811
intervent,0.004907
interview,0.011184
introduc,0.003172
invad,0.005409
invas,0.004931
investor,0.005152
involv,0.007865
iran,0.018405
iranian,0.006820
iraq,0.030261
island,0.032068
issu,0.017412
istanbul,0.016802
itali,0.004867
italian,0.005074
iturup,0.013682
jacqu,0.006273
januari,0.007719
japan,0.013417
japanes,0.010308
jeffrey,0.007026
jet,0.006615
job,0.004670
john,0.003076
join,0.008045
joint,0.004762
jointli,0.006524
jordan,0.006815
joseph,0.004456
journalist,0.012732
juli,0.019531
june,0.027581
just,0.006306
k,0.004100
kanet,0.013682
kazakhstan,0.031259
kenya,0.007523
khabomai,0.013682
kiev,0.009108
kind,0.007204
km,0.010179
kosovo,0.022862
kremlin,0.010363
krogh,0.008800
kunashir,0.013682
kuril,0.022502
kuznetsov,0.022308
kyrgyzstan,0.009084
land,0.010266
larg,0.007148
largest,0.003734
larson,0.009770
late,0.003130
later,0.002689
latest,0.006039
latvia,0.023935
lavrov,0.034765
law,0.008171
leader,0.027676
leas,0.013651
leav,0.003829
lebanes,0.008596
lebanon,0.007490
led,0.002918
lee,0.006148
left,0.003604
legvold,0.013682
leningrad,0.009770
let,0.005066
letter,0.004463
level,0.002703
li,0.007008
life,0.002906
lift,0.012072
light,0.003727
like,0.007245
liken,0.008001
limit,0.002761
link,0.003932
list,0.005028
lithuania,0.023115
littl,0.003460
littor,0.009526
litvinenko,0.060114
live,0.002923
london,0.007614
long,0.002935
longdist,0.015866
longer,0.003728
longterm,0.009515
lose,0.004755
lower,0.003340
lowest,0.010755
lugovoi,0.027364
luhansk,0.011863
lui,0.007039
lula,0.010894
macmillan,0.006176
mahmoud,0.009261
maintain,0.006305
major,0.014391
make,0.006897
mani,0.004087
manifest,0.005201
mankoff,0.013682
map,0.004136
march,0.007498
marek,0.009526
mark,0.007259
marri,0.005667
marsh,0.007753
mass,0.007415
max,0.005524
mccormack,0.024045
meat,0.006273
media,0.012440
mediat,0.011077
mediterranean,0.005913
medvedev,0.009971
meet,0.018290
member,0.034615
membership,0.019919
menac,0.008723
menkiszak,0.013682
mere,0.004447
merkel,0.010107
met,0.009246
mexico,0.005640
mid,0.004502
middl,0.003727
midnight,0.008820
miliband,0.022308
militari,0.062176
mindset,0.008704
minicrisi,0.012910
minist,0.044871
ministeri,0.007532
ministri,0.014583
minor,0.004183
missil,0.028181
mission,0.018031
mistrust,0.008800
mode,0.010179
modern,0.008135
moldova,0.034969
monitor,0.004889
monopolist,0.008188
month,0.007988
moratorium,0.009013
moreov,0.005186
moscow,0.064771
moscowbas,0.013682
mostli,0.003857
mothbal,0.011355
multilater,0.007175
multipolar,0.010255
munich,0.023538
murder,0.017225
myer,0.008479
nacc,0.013682
nagornokarabakh,0.009183
nation,0.037577
nationalist,0.005861
nato,0.123060
natol,0.010479
natorussia,0.026495
natur,0.002413
naval,0.005703
navi,0.005411
nazi,0.006303
nd,0.004206
near,0.007434
nearabroad,0.013682
necess,0.005665
necessari,0.003603
neg,0.003920
negoti,0.014196
neighbor,0.020400
neighbour,0.005522
new,0.016155
newli,0.004756
nicaragua,0.008110
nikola,0.008800
nonrussian,0.011154
normal,0.003603
norman,0.012740
north,0.003589
northern,0.008453
notion,0.004277
novaya,0.012022
novemb,0.008109
nuclear,0.013858
numer,0.003349
object,0.003090
oblast,0.027473
oblig,0.009985
observ,0.011935
obstructionist,0.013682
occupi,0.004532
ocean,0.004652
octob,0.011728
offic,0.014556
offici,0.020594
old,0.003740
onc,0.006756
onli,0.004162
opec,0.008562
oper,0.002852
opinion,0.004805
oppos,0.015112
opposit,0.007440
optim,0.004795
orang,0.006757
order,0.002491
organ,0.022194
organis,0.008560
origin,0.002505
orthodox,0.012176
osc,0.023506
ossetia,0.028390
outer,0.005776
outsid,0.006897
overcom,0.005552
overthrow,0.006564
overwhelmingli,0.007331
ownership,0.005309
p,0.013804
pact,0.013577
page,0.004432
pakistan,0.006179
palgrav,0.006712
paper,0.003730
pari,0.004943
parti,0.006987
particip,0.024965
particular,0.002829
particularli,0.006341
partner,0.004942
partnership,0.034142
pass,0.003512
past,0.007173
patriarch,0.007549
patrol,0.014545
patron,0.006920
pavel,0.008991
pay,0.004220
peac,0.030521
peacekeep,0.006869
pend,0.007629
peninsula,0.006014
peopl,0.002492
period,0.002686
perman,0.008762
persian,0.005680
person,0.008875
perspect,0.004045
peter,0.004122
petersburg,0.008136
pew,0.009108
philippin,0.006485
pipelin,0.007393
place,0.005113
plan,0.010271
play,0.003264
point,0.007867
poison,0.012638
poland,0.043234
polici,0.066913
polish,0.012216
polit,0.011350
politician,0.010847
popul,0.003216
portug,0.006039
pose,0.005506
posit,0.010717
possibl,0.002644
postamerican,0.012910
postcommunist,0.009887
posthum,0.007385
postsoviet,0.026169
potenti,0.003356
power,0.005306
pp,0.008453
practic,0.002773
presenc,0.011761
present,0.005184
presid,0.056237
presidenti,0.005301
press,0.009153
prevent,0.003706
primaci,0.007744
primari,0.003422
prime,0.020826
princeton,0.005723
principl,0.006224
prior,0.007831
prioriti,0.005466
privat,0.003717
problem,0.005545
process,0.004901
programm,0.004983
prohibit,0.005289
project,0.006415
prokremlin,0.013682
promis,0.004871
promot,0.007396
propos,0.028787
prorussian,0.011062
protect,0.006910
provid,0.002300
provis,0.005049
prowestern,0.009463
pskov,0.023439
public,0.005221
publicli,0.005547
purg,0.007251
putin,0.516438
pytalovo,0.012910
question,0.003255
quit,0.004381
quot,0.016271
race,0.005093
rada,0.010605
radar,0.014474
radiat,0.005191
rafiq,0.011467
ratif,0.008110
ratifi,0.019818
rd,0.013926
read,0.002855
readi,0.012085
real,0.003412
reassert,0.008175
recent,0.008541
recogn,0.010576
recognit,0.004506
reconstitut,0.008723
reduc,0.003114
refer,0.003288
reflect,0.003533
refuge,0.006155
refus,0.014394
regain,0.006315
regard,0.018926
regim,0.014373
region,0.023554
regret,0.008528
regular,0.004504
regulatori,0.005690
reich,0.008049
reign,0.005685
rel,0.002947
relat,0.050988
relationship,0.012553
releas,0.012327
relev,0.004300
relic,0.008188
relinquish,0.007549
remain,0.008157
remov,0.003796
reopen,0.007473
report,0.009480
repres,0.002697
republ,0.042447
requir,0.002588
research,0.002667
reserv,0.004372
resolut,0.005029
resolv,0.009551
resort,0.006101
resourc,0.003328
respect,0.006253
respond,0.004434
respons,0.022814
restor,0.004649
restrict,0.003810
result,0.009161
resum,0.006288
resumpt,0.016991
retaliatori,0.010255
return,0.013310
revolut,0.008146
reykjavik,0.011719
rhetor,0.006366
rift,0.007549
right,0.008851
rise,0.003308
robert,0.010845
robust,0.005955
roger,0.005513
role,0.002880
romania,0.013794
rome,0.005613
round,0.005208
russia,0.507381
russiaeu,0.013682
russian,0.399533
russianato,0.013682
russianbritish,0.012910
russianchines,0.013682
russianeuropean,0.013682
russianl,0.012402
russiaon,0.013682
russoestonian,0.013682
russogeorgian,0.011588
s,0.002331
safe,0.005375
said,0.054051
saint,0.005497
sakhalin,0.010817
sanction,0.024691
saul,0.007933
saw,0.008047
say,0.010686
scarc,0.006296
schism,0.008001
schrder,0.039233
scientif,0.003308
sco,0.041023
scrutini,0.007473
sea,0.012585
sean,0.025686
search,0.016833
seat,0.009731
seaworthi,0.012200
second,0.005396
secretari,0.010743
sector,0.004310
secur,0.027945
seeker,0.008596
seen,0.012904
separ,0.003003
separatist,0.023444
septemb,0.011895
serb,0.008861
serdyukov,0.026495
sergei,0.008631
sergey,0.018315
servic,0.003203
set,0.007640
settl,0.009345
settlement,0.014394
sevastopol,0.079489
sever,0.002385
sfsr,0.010673
shadow,0.006406
shanghai,0.008284
share,0.003203
shevchenko,0.012402
shield,0.012895
shikotan,0.013247
ship,0.004665
shokhin,0.012402
shortli,0.005117
shot,0.006394
sign,0.041442
signal,0.004730
silva,0.008579
silvio,0.009770
sinc,0.022881
site,0.003854
situat,0.014092
slovakia,0.007878
snowden,0.010976
sochi,0.010894
soldier,0.005206
soon,0.004196
sort,0.004799
sorti,0.020409
south,0.010750
southern,0.004246
sovereign,0.005469
sovereignti,0.005518
soviet,0.084257
sovietera,0.010420
sovietjapanes,0.011588
space,0.010583
spain,0.004862
special,0.002861
speech,0.004930
sphere,0.010241
spi,0.015547
spiritu,0.005272
spokesman,0.016484
ssr,0.009108
st,0.011066
stabil,0.008534
staff,0.005394
stalin,0.022571
stand,0.008600
start,0.005793
state,0.070076
statement,0.025204
station,0.004999
statu,0.019108
stent,0.010817
step,0.007760
steven,0.005765
stimul,0.005120
stipul,0.006920
stone,0.010220
storm,0.006410
strain,0.011375
strateg,0.034959
strategi,0.004262
stratfor,0.013682
strengthen,0.005175
strong,0.003324
studi,0.002418
subject,0.002910
substanc,0.004810
success,0.006069
suggest,0.012813
suit,0.005319
summit,0.086999
supersed,0.006610
suppli,0.007460
support,0.032648
surg,0.007064
surround,0.004190
survey,0.008796
suspect,0.006114
suspend,0.028439
suspens,0.007108
sydney,0.007168
syria,0.006727
syrian,0.015507
tajikistan,0.017641
talk,0.009847
tanzania,0.007685
tarabarov,0.013682
target,0.008521
tax,0.004300
ted,0.007440
tehran,0.017484
tender,0.007629
tens,0.008085
tension,0.015592
term,0.004324
territori,0.052067
terror,0.006091
text,0.011842
th,0.002623
thailand,0.006914
thi,0.037653
think,0.003968
thirdparti,0.008495
thoma,0.004093
threat,0.028797
threaten,0.010405
tide,0.007115
tie,0.004463
time,0.012147
today,0.003287
told,0.005803
toni,0.014178
took,0.003574
trade,0.009930
tradit,0.005762
transfer,0.007831
transform,0.003745
treati,0.062121
tri,0.010805
tribun,0.007108
troop,0.010329
true,0.003704
tsar,0.008463
tsygankov,0.013682
turkey,0.017903
turkish,0.006624
turkmenistan,0.017523
turn,0.009490
twentyfirst,0.007773
twice,0.005453
uk,0.020971
ukrain,0.116223
ukrainian,0.063464
uncontain,0.012022
understand,0.003106
unilater,0.014350
uninhabit,0.007230
union,0.068006
uniqu,0.003901
unit,0.046159
unlik,0.003810
unpredict,0.007202
unresolv,0.007773
unveil,0.007804
unwarr,0.009847
upris,0.006354
uranium,0.014296
usback,0.010743
use,0.011218
usl,0.009036
usrussian,0.011719
ussr,0.026443
ussuriyski,0.013682
vacat,0.007856
vandrovec,0.013682
variou,0.002604
vciom,0.013682
vector,0.005534
venezuelan,0.008596
veri,0.002613
verkhovna,0.012635
version,0.004002
veto,0.007424
victori,0.010599
vietnam,0.006201
view,0.017596
viktor,0.008614
violat,0.005062
visa,0.014881
visit,0.027584
vladimir,0.045581
vladivostok,0.010976
w,0.015357
wa,0.071295
wage,0.005028
wait,0.006204
wake,0.012209
wall,0.004845
want,0.025347
war,0.042257
warn,0.005502
warrant,0.007057
warsaw,0.015911
warstyl,0.013682
washington,0.025189
way,0.009786
weapon,0.010162
welch,0.009208
west,0.007858
western,0.027536
wherebi,0.005170
white,0.004344
wide,0.005894
wine,0.006439
withdraw,0.011000
wonder,0.006629
work,0.004486
world,0.011599
worri,0.006742
written,0.003622
wrote,0.003898
yalta,0.010420
yanukovych,0.023727
year,0.018474
yefremenko,0.027364
younger,0.005685
yugoslavia,0.007734
yuri,0.008162
zakaria,0.011355
zhaox,0.012910
