abil,0.004280
abolish,0.006500
abund,0.006309
accept,0.003905
access,0.004304
accommod,0.007224
accord,0.003110
account,0.003664
achiev,0.007827
activ,0.003104
actress,0.010924
ad,0.003970
adam,0.006313
administ,0.006098
administr,0.004349
adventist,0.010866
aerfc,0.016366
afford,0.006680
africa,0.020209
african,0.059982
aftermath,0.007753
agenc,0.009788
agricultur,0.018496
ahead,0.007263
aim,0.004442
air,0.014337
aircraft,0.006909
airlin,0.007919
airport,0.034264
album,0.020287
allen,0.007182
allow,0.003093
amalia,0.014191
amend,0.006560
america,0.021800
american,0.007049
amerindian,0.010503
amphibian,0.009182
anecdot,0.009171
anggwil,0.016366
anglican,0.009299
anglicis,0.012090
anguil,0.016366
anguila,0.016366
anguilla,0.834985
anguillarel,0.015443
anguillian,0.186965
anguillita,0.016366
ani,0.002741
anniversari,0.008250
annual,0.009558
anoth,0.005984
ant,0.008442
antholog,0.008834
antigua,0.031654
antil,0.009657
antillean,0.024413
apart,0.005701
approxim,0.008479
april,0.014278
arawak,0.021456
archiv,0.011452
area,0.009269
arid,0.009073
arm,0.004960
arriv,0.015024
artefact,0.009943
artibeu,0.016366
articl,0.003697
artifact,0.007371
artist,0.006529
asia,0.005341
asid,0.007095
assembl,0.004856
athlet,0.017980
athlyi,0.016366
atla,0.007294
atlin,0.016366
attempt,0.003548
august,0.009455
australasia,0.010346
australia,0.005407
austrian,0.007452
author,0.007005
autonomi,0.006500
averag,0.009293
aviat,0.008184
award,0.010969
awardwin,0.011357
background,0.005343
bank,0.022495
banki,0.029671
banx,0.032733
baptist,0.009083
barbado,0.019527
barbuda,0.011474
barri,0.008237
bart,0.011144
basseterr,0.013342
bat,0.055232
bayn,0.012206
bc,0.005550
beach,0.008127
beat,0.007891
becam,0.003428
becom,0.009008
beef,0.009094
befor,0.009611
began,0.007491
begin,0.007315
beij,0.018062
belief,0.010043
believ,0.003879
belong,0.005300
ben,0.008023
best,0.004134
beth,0.010068
bibliographi,0.005455
birthday,0.009205
birthplac,0.020027
black,0.005062
blake,0.010924
blow,0.015894
boat,0.037391
boe,0.030373
bolt,0.010755
book,0.003565
boost,0.007355
born,0.005299
boy,0.007392
brachyphylla,0.016366
branch,0.003989
breadfruit,0.012034
breda,0.012465
briefli,0.006958
britain,0.015854
britannica,0.015258
british,0.046074
britishinfluenc,0.016366
britto,0.015443
broker,0.008237
bronz,0.007549
brought,0.009248
built,0.009353
burgeon,0.009385
busi,0.004228
c,0.007180
california,0.005754
callaloo,0.015443
cambridg,0.004975
came,0.008215
canadian,0.006377
candid,0.005787
cape,0.007891
capit,0.012258
captain,0.007582
captiv,0.016093
captur,0.005158
car,0.006639
carbonaria,0.014835
cardigan,0.014594
career,0.006163
carib,0.010143
caribbean,0.071680
carifta,0.014381
carniv,0.011178
carrier,0.007545
casserol,0.015443
cathol,0.012132
cavernarum,0.016366
cay,0.034303
celebr,0.012950
celestinecarti,0.016366
censu,0.022102
center,0.004007
central,0.007043
centuri,0.003226
ceremoni,0.006935
certein,0.015114
champion,0.015599
championship,0.030547
chang,0.008497
channel,0.006202
chapter,0.005855
charg,0.004848
charl,0.004812
charter,0.020276
chef,0.023374
chelonoidi,0.016366
chesney,0.014835
chief,0.005232
chines,0.010801
chisholm,0.010242
christian,0.014607
christoph,0.013169
christophernevisanguilla,0.014381
church,0.028384
citi,0.004339
citizen,0.005141
citru,0.010283
claim,0.003813
clayton,0.010866
climat,0.021459
club,0.014573
coach,0.010346
coast,0.017203
cod,0.010304
coin,0.005203
collect,0.003665
coloni,0.041565
colonis,0.042556
columbu,0.008590
come,0.003593
commenc,0.007601
commend,0.011079
commerc,0.006261
commit,0.005266
committe,0.005390
common,0.006076
commonli,0.004172
commonwealth,0.012981
commun,0.013142
compani,0.015871
compass,0.008095
compos,0.004767
compris,0.015421
conceiv,0.006598
conch,0.011732
condit,0.003516
confirm,0.005417
confus,0.005655
connect,0.004137
connor,0.023655
consid,0.002930
consider,0.004223
consist,0.006726
constitut,0.007935
contemporari,0.004915
contest,0.006611
continent,0.006692
contract,0.005040
control,0.006677
convert,0.005122
cookbook,0.012609
cool,0.007039
coolest,0.012331
coordin,0.005327
coral,0.016611
corpor,0.004930
counti,0.007478
crab,0.009876
creol,0.048587
cricket,0.041050
crime,0.006234
crisi,0.005185
cross,0.005484
crown,0.006508
cuban,0.009240
cuisin,0.034171
cuisinart,0.015443
culinari,0.023754
cultiv,0.006418
cultur,0.034006
currenc,0.005506
current,0.003217
custom,0.005081
damag,0.005423
date,0.012599
debut,0.019991
decemb,0.004611
decemberfebruari,0.015443
decolon,0.009228
deep,0.005594
defenc,0.018351
deficit,0.006975
democrat,0.004923
demograph,0.006747
depend,0.013263
depot,0.010242
derbyshir,0.012397
descend,0.006082
design,0.003691
despit,0.004261
destin,0.007032
develop,0.007539
dialect,0.014784
dialek,0.016366
diamond,0.022888
did,0.003730
diesel,0.010182
difficult,0.004382
dioces,0.009943
direct,0.006673
directli,0.008075
discours,0.006881
discoveri,0.009413
dish,0.019033
dispers,0.006896
distant,0.006985
distinct,0.003870
doctor,0.005997
dog,0.007522
dollar,0.017615
dominican,0.009041
dr,0.006234
draft,0.006485
dri,0.006581
drive,0.010798
dure,0.020249
duti,0.005979
earli,0.024208
earlier,0.004470
earliest,0.005056
earth,0.004749
easier,0.006477
east,0.013954
eastern,0.005021
eaten,0.018254
ec,0.009205
ecolog,0.005701
econom,0.003310
economi,0.012395
ed,0.016941
educ,0.011562
eel,0.044063
effect,0.002939
effort,0.004189
emancip,0.008657
emerg,0.007755
emigr,0.007605
empir,0.004221
encourag,0.004972
encyclopdia,0.015695
end,0.003307
energi,0.021177
england,0.005249
english,0.037922
englishlexifi,0.016366
englishspeak,0.008291
engrav,0.009732
enjoy,0.005759
enslav,0.017314
epicurean,0.010283
especi,0.007026
establish,0.009686
estat,0.006440
estim,0.004257
ethnic,0.005970
europ,0.008204
european,0.033914
event,0.003937
everyon,0.006985
evid,0.004125
exampl,0.002709
exchang,0.004276
execut,0.009165
exercis,0.005198
exist,0.003008
expand,0.004279
expens,0.005403
explor,0.004609
extent,0.004978
extern,0.002365
f,0.004456
fabian,0.011015
face,0.004540
factbook,0.007582
fahi,0.015114
failur,0.005264
famou,0.004998
far,0.004102
farthest,0.011047
fast,0.006193
featur,0.016366
feet,0.014776
ferri,0.018433
festiv,0.015027
figur,0.008961
final,0.003913
finalist,0.013129
financ,0.004794
financi,0.004319
firstclass,0.011248
fish,0.005644
fix,0.004801
fixtur,0.011248
flag,0.007224
flat,0.006919
fled,0.007322
flight,0.006628
flood,0.007142
florida,0.015883
focus,0.004211
focuss,0.010575
follow,0.005175
food,0.013968
forc,0.009727
forest,0.006221
form,0.014837
formal,0.004048
formerli,0.006060
forprofit,0.010625
forti,0.008077
fortifi,0.008853
fox,0.008333
framework,0.004635
freetail,0.015443
french,0.030476
frog,0.009216
fruit,0.012821
fruiteat,0.015443
fulli,0.004877
fund,0.004460
funnelear,0.016366
gain,0.003935
game,0.022206
garlic,0.011642
garrison,0.008197
gather,0.005639
gener,0.004649
genr,0.007639
geographi,0.005955
geolog,0.012365
gerswin,0.016366
girl,0.007987
glasgow,0.009503
goal,0.004449
goat,0.017022
god,0.005662
gold,0.011251
good,0.007193
got,0.007298
goulain,0.014381
govern,0.027688
govpub,0.011357
grammat,0.009810
grant,0.004959
great,0.007292
greater,0.004074
green,0.005563
grid,0.016382
grouper,0.013459
grown,0.006230
guadeloup,0.010575
guid,0.004574
gulf,0.007318
h,0.004494
ha,0.030200
habitat,0.007545
hakluyt,0.012939
hampshir,0.009960
handl,0.005882
hard,0.005309
harri,0.006803
harrigan,0.032733
hat,0.009051
haven,0.008191
head,0.012529
headquart,0.007168
held,0.003824
help,0.007083
heritag,0.013234
hi,0.014503
high,0.003275
hiphop,0.014019
histor,0.003634
histori,0.013472
historian,0.005451
hit,0.006698
hold,0.007793
holi,0.006849
holiday,0.022845
home,0.004619
host,0.011831
hotel,0.007789
hottest,0.011687
hous,0.008679
howev,0.005251
hugh,0.053141
huguenot,0.011248
hurrican,0.051842
idea,0.003630
identif,0.006372
identifi,0.003910
iguana,0.036804
illinoi,0.007919
immigr,0.006437
immov,0.011283
import,0.024832
inch,0.008717
includ,0.024703
incom,0.004955
incorpor,0.008885
increas,0.003110
independ,0.013291
index,0.005139
indi,0.016421
indian,0.010710
indic,0.003979
indigen,0.006450
individu,0.003336
industri,0.011077
infertil,0.010503
influenc,0.007126
influx,0.008347
inform,0.012865
inhabit,0.005624
initi,0.003515
insular,0.009516
insur,0.012474
integr,0.007808
intellig,0.005047
intent,0.005444
interim,0.007763
intermediari,0.008210
intern,0.014174
introduc,0.007589
irrespect,0.009398
island,0.258930
issagracekennedi,0.016366
italian,0.006070
itun,0.013342
ix,0.009449
j,0.008125
jacqui,0.014594
jamaica,0.009287
jamaican,0.011687
jamaicensi,0.016366
jame,0.009125
jehovah,0.010527
jet,0.007913
john,0.014718
juan,0.007964
judiciari,0.007197
juli,0.023364
juliana,0.012090
julyoctob,0.014835
jump,0.007469
jumper,0.013232
june,0.009426
keith,0.016279
kingdom,0.008606
kitt,0.064056
km,0.018265
knowledg,0.004068
known,0.013515
labour,0.010952
lake,0.006379
land,0.012280
landbas,0.010782
languag,0.040654
larg,0.011402
lasana,0.014381
late,0.003744
later,0.003216
latin,0.005083
laudonnier,0.015114
laudonnir,0.014381
law,0.003258
lead,0.006454
leaf,0.008770
leagu,0.026545
leav,0.004580
led,0.006981
leeward,0.019527
left,0.004311
legisl,0.009903
legislatur,0.006617
length,0.005366
lenni,0.025534
lesser,0.006630
letter,0.005339
levi,0.007601
lewi,0.006788
liat,0.016366
librari,0.005081
lie,0.005299
life,0.003476
like,0.002888
lime,0.009672
limeston,0.009240
limit,0.006606
linda,0.008920
linguist,0.012716
link,0.002351
list,0.009022
literaci,0.007936
literatur,0.004832
live,0.006994
livestock,0.007634
lloyd,0.008340
lobster,0.011079
local,0.025642
locat,0.003976
logo,0.008420
london,0.009108
long,0.007023
lot,0.006661
lowli,0.010390
lui,0.016840
luxuri,0.008114
m,0.030943
maarten,0.010390
maclehos,0.015114
mahimahi,0.015443
main,0.013695
major,0.014346
make,0.002750
maldiv,0.010625
malliouhana,0.015114
manag,0.011620
mani,0.009777
manufactur,0.005157
march,0.004484
marigot,0.013717
marin,0.012382
mark,0.004342
marlin,0.012268
martin,0.045796
martiniqu,0.010503
mass,0.004435
mauritiu,0.009827
mclass,0.014381
mean,0.002978
meat,0.007504
medal,0.023825
medalist,0.012465
medic,0.009960
medicin,0.010312
meet,0.004375
merchant,0.006423
method,0.003349
methodist,0.020136
mexican,0.017231
mexico,0.013494
migrant,0.008442
migrat,0.011557
mile,0.018859
militari,0.008750
minist,0.014638
minor,0.010009
minut,0.006455
mission,0.010784
missionari,0.007658
mix,0.005201
mm,0.007913
moderates,0.015443
molossu,0.029671
monday,0.009978
money,0.004833
monophyllu,0.016366
montgomeri,0.010676
mostli,0.004614
motiv,0.005283
mount,0.006304
moveabl,0.011320
ms,0.008127
multin,0.008191
multiparti,0.006938
multipl,0.004159
music,0.023775
musician,0.009436
muslim,0.006048
mutton,0.012686
mutual,0.005704
nacac,0.016366
napoleon,0.007375
narrowbodi,0.016366
natalu,0.016366
nation,0.020977
nativ,0.016769
natur,0.005774
navig,0.006753
nearbi,0.006655
need,0.003251
nehesi,0.014594
network,0.004521
nevi,0.066475
new,0.012078
nigeria,0.008657
ninth,0.008465
nobleman,0.011283
nonanguillian,0.032733
nonselfgovern,0.011111
north,0.012882
northeastern,0.008354
northerli,0.011732
note,0.009354
novemb,0.009701
number,0.010822
obtain,0.004203
occur,0.006871
offic,0.013059
offici,0.008211
offshor,0.015771
oluwakemi,0.016366
olymp,0.008165
omari,0.015443
onion,0.010412
open,0.007404
oper,0.006823
order,0.002980
origin,0.011988
oscar,0.009423
osteopilu,0.016366
outlin,0.005264
overland,0.009876
overlap,0.006010
oversea,0.019351
overwat,0.015443
p,0.012385
parabl,0.010600
park,0.012641
parliamentari,0.006193
particularli,0.007585
partnership,0.006806
pass,0.004201
passport,0.008910
patricia,0.009323
patrol,0.008699
pea,0.009275
pear,0.011248
pentecost,0.011474
peopl,0.017890
pepper,0.009599
percent,0.010863
perhap,0.005027
period,0.016066
perman,0.005240
person,0.007077
personnel,0.006683
phase,0.005200
pibi,0.015443
pigeon,0.009876
place,0.015292
plan,0.004095
play,0.011714
plethodon,0.016366
pluriform,0.012609
poet,0.007478
poetri,0.007545
point,0.012548
polic,0.006014
polici,0.008004
polit,0.006788
poor,0.005347
pop,0.009275
popul,0.030782
popular,0.007738
pork,0.010086
potato,0.008237
poultri,0.009599
power,0.009520
practic,0.003317
practis,0.016317
prawn,0.013583
precis,0.005108
predomin,0.007074
presenc,0.009379
present,0.003100
preserv,0.010453
presid,0.004484
press,0.003649
previous,0.004727
price,0.004590
prickli,0.013232
primari,0.004093
princess,0.009073
princip,0.004844
print,0.005823
prior,0.004684
privat,0.004446
pro,0.009010
proctor,0.012331
produc,0.006453
product,0.006464
profit,0.005358
programm,0.005960
progress,0.004226
promot,0.004423
pronounc,0.007491
properti,0.003754
provid,0.002751
provis,0.006040
public,0.009369
publish,0.010326
puerto,0.026761
qualiti,0.004620
quarter,0.006450
queen,0.006508
question,0.003894
race,0.012185
rainfal,0.017069
rapidli,0.005228
rastafarian,0.028383
rate,0.007686
rb,0.010390
reason,0.003529
receiv,0.003757
recent,0.006811
recognis,0.006072
record,0.016582
recov,0.006054
red,0.005451
redfoot,0.014191
reef,0.008632
refer,0.005900
reflect,0.004226
refug,0.008390
regard,0.003773
regatta,0.014019
regga,0.012147
region,0.010565
regular,0.010776
reinforc,0.006698
rel,0.003526
releas,0.004915
reliant,0.009503
religi,0.010047
religion,0.025046
remain,0.003252
remot,0.006658
ren,0.007707
renew,0.023005
repeatedli,0.006998
repres,0.022583
republ,0.009232
reput,0.013687
requir,0.003096
resid,0.005210
resort,0.007298
resourc,0.003981
respons,0.006822
restor,0.005562
result,0.002739
return,0.007960
reuel,0.016366
revolut,0.009744
rfc,0.023655
rice,0.007417
richard,0.004858
rico,0.027861
ridg,0.008615
rita,0.011514
road,0.005712
robert,0.008648
roger,0.006595
roman,0.010551
ronald,0.007025
root,0.009936
row,0.007605
ruan,0.013862
rugbi,0.010702
runway,0.010283
said,0.004041
sail,0.014878
saint,0.078919
salt,0.006738
san,0.006245
sandi,0.019315
saw,0.004813
schedul,0.013074
scholarship,0.007032
school,0.020007
scott,0.007278
scottish,0.015099
scribner,0.010434
scrub,0.023465
scrumhalf,0.016366
se,0.008178
sea,0.010036
seafood,0.010755
seal,0.014751
season,0.019067
seced,0.010013
second,0.019367
sector,0.010312
secur,0.004178
sekou,0.013717
select,0.004276
selfgovern,0.007799
semifinalist,0.013717
seneg,0.009463
separ,0.007186
septemb,0.009486
septentrionali,0.016366
serv,0.015660
servic,0.019159
setback,0.018232
settl,0.005589
settlement,0.005739
settler,0.014801
seventhday,0.011047
sever,0.011414
shape,0.004687
shara,0.014381
share,0.007665
ship,0.005580
short,0.004193
shrimp,0.010182
sid,0.012090
sight,0.007298
sign,0.004506
signatur,0.008011
signific,0.010482
silver,0.006843
similar,0.006537
sinc,0.002737
singl,0.010989
size,0.004262
slave,0.032339
slaveri,0.007213
small,0.010048
smaller,0.009308
snake,0.017382
snapper,0.014381
soca,0.013862
societi,0.006858
sociohistor,0.012767
soil,0.018606
solar,0.006529
sole,0.005556
sombrero,0.013342
sometim,0.003563
son,0.010481
sound,0.005763
soup,0.010866
sourc,0.003443
south,0.012859
spa,0.011015
spanish,0.017758
speak,0.005248
speci,0.010068
specialis,0.007930
spectacular,0.009530
speech,0.005897
spini,0.012609
spiritu,0.006306
spoken,0.022089
sponsor,0.013724
sport,0.019502
sprint,0.011556
sprinter,0.013862
squar,0.005799
squash,0.010755
st,0.035299
stabilis,0.009323
stage,0.004780
stand,0.005144
standard,0.007373
standout,0.014381
stapl,0.025997
starch,0.009876
state,0.007185
statist,0.004490
stew,0.011642
stock,0.005280
storm,0.007668
stramineu,0.016366
strong,0.007954
structur,0.003198
student,0.004658
subject,0.003482
submerg,0.009717
substanti,0.005081
succeed,0.005595
success,0.003629
sudden,0.007836
suffer,0.009991
suggest,0.003831
suitabl,0.006076
summer,0.012664
sun,0.006072
suppli,0.004462
support,0.006508
sustain,0.005353
sweet,0.008527
switch,0.006721
t,0.004762
taino,0.013232
taken,0.004007
talk,0.005890
tax,0.010288
taxat,0.006729
taxi,0.010625
team,0.017148
tell,0.006165
temperatur,0.011067
temporarili,0.007545
tend,0.004494
term,0.007759
territori,0.043119
th,0.012554
themselv,0.004060
thi,0.014331
thither,0.013129
threaten,0.006223
time,0.021796
tini,0.007384
titl,0.004913
today,0.003932
togeth,0.003774
tomato,0.009385
took,0.004276
toptier,0.013459
toronto,0.008503
tortois,0.021404
total,0.003819
tourism,0.025470
tourist,0.007294
tournament,0.010124
trace,0.010497
trade,0.003959
tradewind,0.014019
tradit,0.003446
traffiqu,0.014191
transport,0.018769
travel,0.019332
treati,0.005716
tree,0.005638
tripl,0.007540
tropic,0.020955
true,0.004431
trust,0.017951
ts,0.010182
ucb,0.011434
uk,0.015051
uncertain,0.007235
unifi,0.005729
uninhabit,0.008648
union,0.004067
unit,0.013804
univers,0.002834
unpreced,0.007773
unsuit,0.009732
unto,0.009859
usain,0.015114
use,0.002236
utilis,0.018000
valley,0.006330
vari,0.004035
varieti,0.016439
variou,0.006232
veget,0.006534
velveti,0.014835
veri,0.003125
vest,0.007179
virgin,0.016767
visit,0.005499
vivica,0.016366
vol,0.005882
volcan,0.007853
volum,0.009377
vote,0.005190
voyag,0.037435
wa,0.060596
wage,0.006014
wallblak,0.016366
war,0.011665
warwickshir,0.013342
wast,0.006565
watti,0.016366
way,0.005853
websit,0.005175
webster,0.010527
welsh,0.009779
wesleyan,0.011514
west,0.023499
weve,0.011598
wherebi,0.006184
white,0.005196
wide,0.007050
widest,0.010390
wikimedia,0.007629
wildlif,0.007799
william,0.004386
wind,0.006503
windward,0.010262
winter,0.006782
wish,0.006052
wit,0.006666
wl,0.012090
won,0.011082
worker,0.005095
world,0.016650
worldwid,0.005553
writer,0.005617
written,0.004333
wrote,0.004663
xivanguilla,0.014594
yam,0.010503
year,0.011049
yeer,0.015114
yohan,0.014594
york,0.004215
zharnel,0.016366
