abroad,0.009634
abus,0.009543
access,0.006138
account,0.005225
accus,0.017795
acknowledg,0.008555
act,0.005070
activ,0.004427
adam,0.009004
adher,0.008974
adopt,0.024490
advers,0.010391
agre,0.006689
agreement,0.033861
agricultur,0.006594
aid,0.006655
aim,0.019006
air,0.006815
airplan,0.013015
alexand,0.017001
alexend,0.023340
alli,0.008194
ambassador,0.043548
america,0.006217
american,0.005026
amg,0.022024
amnesti,0.012791
analyt,0.008088
announc,0.007450
anoth,0.004267
approach,0.005106
april,0.013574
area,0.004406
armour,0.013348
arrang,0.007233
arrest,0.019501
asia,0.007617
asid,0.010118
assist,0.013230
associ,0.008668
atlant,0.009401
attempt,0.005060
august,0.013483
author,0.014986
b,0.005876
bank,0.025664
bear,0.008302
becam,0.004889
becaus,0.008054
befriend,0.015579
belaru,0.848799
belaruschina,0.023340
belaruseuropean,0.046680
belarusian,0.201587
belarusrussia,0.046680
belarusunit,0.023340
belneftekhim,0.022024
benchmark,0.012171
beneficiari,0.012735
better,0.006032
bilater,0.030525
bogu,0.017495
border,0.015761
bssr,0.022024
budget,0.008373
busi,0.012061
byelorussian,0.021157
carri,0.005775
centr,0.007367
central,0.005022
chaillot,0.021554
charter,0.009638
chemic,0.006822
chief,0.007461
china,0.006883
ci,0.012533
circl,0.008633
citizen,0.007332
citizenship,0.011168
clampdown,0.019992
climat,0.015301
close,0.009588
closer,0.008866
cold,0.017082
commiss,0.021402
commit,0.015021
common,0.004333
commonwealth,0.009256
commun,0.009371
compani,0.005658
compar,0.005300
competit,0.007046
compon,0.006171
concern,0.010062
conclud,0.029316
conflict,0.013348
congress,0.008029
consid,0.004179
consist,0.004796
constitut,0.011316
consult,0.008275
contain,0.005141
contend,0.010330
control,0.004761
cooper,0.061645
core,0.007610
corpor,0.007031
correct,0.007216
cost,0.006300
council,0.026137
counterproduct,0.014881
countri,0.075457
creat,0.008766
credit,0.006934
crisi,0.007395
curtail,0.013000
custom,0.014492
cut,0.007608
day,0.005407
decad,0.006514
decemb,0.019729
decid,0.013968
declar,0.020765
declin,0.006804
deepli,0.010118
defenc,0.017447
defend,0.008018
deliber,0.009592
democraci,0.015965
demonstr,0.006441
denounc,0.011607
describ,0.008821
destroy,0.007494
develop,0.028672
dialogu,0.020009
dictatorship,0.011580
did,0.021279
digest,0.043797
diplomaci,0.012061
diplomat,0.034056
direct,0.004758
dirti,0.013793
disappoint,0.012298
discov,0.006311
discuss,0.005847
disput,0.021625
dissolut,0.010799
drazdi,0.023340
dream,0.010346
dure,0.004125
duti,0.008527
eap,0.039124
east,0.013266
eastern,0.007161
eceubelaru,0.023340
econom,0.018886
ecuador,0.027587
effect,0.004191
eject,0.013127
elect,0.012727
element,0.005487
elig,0.010793
embassi,0.032050
encourag,0.007091
engag,0.006832
equal,0.005875
eriksson,0.018326
escal,0.011176
establish,0.004604
ethnic,0.008514
eu,0.140911
eubelaru,0.023340
eurasian,0.013227
euro,0.010977
europ,0.035102
european,0.064486
execut,0.006535
expel,0.020805
experienc,0.007745
export,0.031659
exportimport,0.017010
express,0.011180
expuls,0.025304
extern,0.003373
facil,0.008270
fair,0.008738
fallen,0.010483
favor,0.007126
februari,0.007009
field,0.004711
financ,0.006836
financi,0.006159
firm,0.007705
flyer,0.017679
focu,0.006329
follow,0.018453
forc,0.004624
foreign,0.048047
format,0.012585
framework,0.013219
franc,0.006604
fraudul,0.025670
free,0.015809
freedom,0.007283
frozen,0.024479
fulfil,0.018659
fund,0.019083
futur,0.011238
ga,0.007762
gain,0.005613
game,0.007916
generalis,0.013313
given,0.004627
goe,0.008302
good,0.005129
govern,0.026323
gradual,0.007416
grant,0.007072
grew,0.007709
growth,0.005839
gsp,0.036905
guard,0.009643
ha,0.036916
half,0.012701
harass,0.012546
hardlin,0.015709
head,0.005956
headquart,0.010222
heavi,0.007973
heavili,0.007437
hesit,0.013836
hi,0.016546
highlevel,0.012182
highrank,0.014411
hope,0.007855
hound,0.017085
hous,0.006189
howev,0.011232
human,0.026669
ii,0.006037
imf,0.040414
imfback,0.044048
implement,0.006423
import,0.011804
impos,0.023802
imposs,0.007800
improv,0.005677
incid,0.009128
includ,0.006405
increas,0.004436
incumb,0.012370
indefinit,0.021679
independ,0.028431
industri,0.015798
info,0.014384
initi,0.020051
inner,0.009274
instead,0.005403
institut,0.004882
insur,0.008894
integr,0.011135
intern,0.016171
interv,0.009720
intervent,0.008371
intimid,0.013210
introduc,0.005411
introduct,0.006116
intrus,0.013313
invest,0.026275
investig,0.006464
islamabad,0.015579
issu,0.004950
join,0.006862
joint,0.008123
journalist,0.021719
juli,0.006663
june,0.013443
karen,0.013210
korea,0.018622
lack,0.005881
largest,0.006370
late,0.005340
later,0.004587
latin,0.007249
law,0.004646
lead,0.004602
leader,0.006744
leadership,0.008368
leav,0.006531
led,0.004978
level,0.004612
lift,0.010297
like,0.004119
link,0.003353
list,0.008577
littl,0.005903
live,0.004987
loan,0.008948
long,0.005007
look,0.006368
low,0.005911
lukashenko,0.172744
machineri,0.009511
macroeconom,0.010419
main,0.004882
mainli,0.012805
manufactur,0.007355
march,0.019187
market,0.005773
materi,0.005404
matter,0.005801
measur,0.005051
media,0.014148
member,0.014762
membership,0.008495
mid,0.007680
middl,0.012717
million,0.006057
minist,0.006958
ministeri,0.012849
ministri,0.008292
minor,0.014274
minsk,0.088883
mission,0.015379
moder,0.008835
moldova,0.014913
monetari,0.033071
multivector,0.020813
mutual,0.008135
nation,0.008547
nato,0.011662
natur,0.004117
negoti,0.008072
neighbour,0.009421
neighbourhood,0.013610
newspap,0.009547
nice,0.013991
nonpap,0.021157
north,0.006123
oblig,0.008516
observ,0.005090
obstruct,0.013079
occas,0.009592
occasion,0.008700
octob,0.006669
offer,0.017204
offici,0.011710
oil,0.007697
ok,0.017241
ongo,0.008439
onli,0.007100
onward,0.009777
orang,0.011527
orbit,0.009781
order,0.008500
organ,0.012620
osc,0.026733
outlet,0.012322
output,0.008049
overhaul,0.015081
oversea,0.009198
overthrow,0.011199
pace,0.010408
pakistan,0.042168
paper,0.025454
parachut,0.016666
parliament,0.015556
parliamentari,0.008832
parliamentarian,0.014493
partner,0.016862
partnership,0.048535
pass,0.005991
past,0.006118
pattern,0.006580
pca,0.028168
peac,0.022313
person,0.005046
pipe,0.012908
place,0.004361
plural,0.009918
point,0.004473
poland,0.052681
pole,0.010683
polic,0.008577
polici,0.028536
polish,0.052098
polit,0.024202
posit,0.013712
possibl,0.004510
postpon,0.012559
postsoviet,0.014881
practic,0.004731
prais,0.010341
predomin,0.010088
prefer,0.006772
present,0.004422
presid,0.038374
price,0.006547
primari,0.005837
primarili,0.012090
print,0.008305
prior,0.006679
privat,0.019023
prodemocraci,0.016480
product,0.009218
profil,0.009547
program,0.027816
programm,0.008500
progress,0.018082
project,0.005472
promot,0.006308
protract,0.013590
prove,0.006825
provid,0.007847
public,0.004453
quito,0.017407
rare,0.007278
ratifi,0.011269
raw,0.009149
realm,0.008860
recal,0.021692
receiv,0.005358
recogn,0.006014
recognit,0.007687
recommend,0.016535
refer,0.002804
referendum,0.019475
reflect,0.006027
reform,0.027443
region,0.005022
regular,0.007684
rel,0.005028
relat,0.094543
relationship,0.010707
relaunch,0.016798
releas,0.014019
reli,0.006758
remain,0.009277
replac,0.011431
report,0.010781
reportedli,0.011138
repres,0.004600
republ,0.032914
requir,0.004415
resolut,0.008580
resourc,0.005678
respect,0.005333
respond,0.007564
respons,0.004864
restor,0.007932
restrict,0.019501
revers,0.007721
revolut,0.013896
right,0.035232
riot,0.011206
rotfeld,0.023340
row,0.010846
rubl,0.015709
russia,0.090675
russiabelaru,0.022024
russian,0.016423
said,0.017288
sanction,0.042121
satellit,0.009786
schedul,0.009322
scholar,0.007122
second,0.004603
secur,0.017877
seiz,0.009643
separ,0.005124
septemb,0.013527
seriou,0.007857
set,0.017379
setback,0.026000
sever,0.012208
shortterm,0.010195
sign,0.012853
signal,0.008070
signatur,0.011424
sinc,0.007806
singl,0.005223
situat,0.024040
size,0.006078
slow,0.008058
smp,0.018724
solidar,0.012007
soon,0.007158
sought,0.007604
south,0.006112
sovereignti,0.009413
soviet,0.033819
spectacular,0.013590
spokesman,0.014060
ssr,0.031075
stabil,0.007279
staff,0.018404
staffmonitor,0.022024
stall,0.012984
standbi,0.016603
start,0.004941
state,0.037570
stateit,0.022024
statement,0.007166
stateown,0.011492
steadi,0.010004
stefan,0.013366
step,0.006619
stepbystep,0.015415
stewart,0.012394
stir,0.013815
stockholm,0.013143
stop,0.007711
strain,0.019405
stronger,0.009397
structur,0.009121
studi,0.004125
subsequ,0.006091
suffici,0.007216
suppli,0.006363
support,0.013923
suppress,0.008939
supran,0.015496
suprem,0.007993
suspend,0.029108
swedish,0.031937
taci,0.021157
tank,0.010812
taxila,0.018584
technic,0.006942
teddi,0.018092
temporari,0.009205
temporarili,0.010760
term,0.003688
textil,0.010554
thi,0.014598
tie,0.007614
time,0.013814
told,0.009900
track,0.008636
trade,0.045174
traderel,0.017585
tranch,0.018092
travel,0.027570
treati,0.032607
turn,0.005396
ukrain,0.034987
ukrainian,0.013532
unabl,0.008111
unanim,0.012310
uncertain,0.020638
undertak,0.010596
unifi,0.008170
union,0.104409
unit,0.027560
use,0.003189
variou,0.004443
vehicl,0.008863
violat,0.017273
visa,0.012693
visafre,0.017982
visit,0.007842
wa,0.057610
wage,0.008577
wake,0.010413
war,0.011090
way,0.004173
welcom,0.010773
western,0.005871
wherebi,0.008819
white,0.007411
withdraw,0.009382
withdrew,0.010970
workabl,0.014817
workintens,0.021157
world,0.007915
worri,0.011501
yalta,0.017776
