abroad,0.016119
accredit,0.075205
addit,0.007509
africa,0.120543
african,0.065050
agenc,0.011677
ago,0.014383
agreement,0.011330
agricultur,0.011032
america,0.020805
ankara,0.027009
armenia,0.022333
ask,0.012270
assist,0.011067
becam,0.016362
belgium,0.052703
bilater,0.051069
british,0.009993
brussel,0.043143
build,0.009471
canada,0.038517
capac,0.012425
cdc,0.025533
center,0.009560
chief,0.012483
china,0.046067
citi,0.010352
commiss,0.023871
common,0.007249
commonwealth,0.092915
commun,0.007839
conclud,0.012261
consul,0.138596
control,0.007965
copenhagen,0.021306
corp,0.017687
countri,0.110461
current,0.007675
cypru,0.059955
dc,0.033204
decemb,0.011002
defens,0.013159
degre,0.009818
delhi,0.020695
denmark,0.035175
depart,0.021024
develop,0.035977
diplomat,0.170932
diseas,0.012559
donor,0.018801
eastern,0.011981
educ,0.009195
embassi,0.285981
enterpris,0.013587
establish,0.077035
ethnic,0.014244
extern,0.005644
feder,0.011492
forc,0.007736
foreign,0.010048
foundat,0.010065
fourweek,0.033859
fund,0.021285
georgia,0.018449
global,0.010250
govern,0.007340
greec,0.043770
guyana,0.023294
ha,0.015440
high,0.015631
hivaid,0.050464
honorari,0.059699
human,0.007436
ii,0.010101
implement,0.010746
independ,0.007927
india,0.035451
initi,0.008386
instead,0.009040
institut,0.008167
intern,0.013527
japan,0.025528
kenya,0.042946
king,0.012293
kingdom,0.061600
korea,0.015577
kuala,0.025291
labor,0.012671
largest,0.010658
link,0.005611
list,0.021526
london,0.032596
long,0.008378
lumpur,0.025725
maintain,0.008997
malaysia,0.037708
maputo,0.059481
market,0.009658
master,0.013770
mbaban,0.278570
member,0.032930
militari,0.010438
mission,0.038596
monarchi,0.016539
mozambiqu,0.088406
nairobi,0.026590
nation,0.057198
nativ,0.013336
nearbi,0.015879
negoti,0.013505
new,0.011527
novemb,0.011572
number,0.012910
onli,0.005939
open,0.008833
oversea,0.015389
parallel,0.053479
paramount,0.021647
past,0.010236
peac,0.012443
popul,0.009180
prc,0.023934
pretoria,0.134611
primarili,0.010113
princip,0.011558
privat,0.010609
profession,0.011989
program,0.018614
protector,0.018306
public,0.007451
recogn,0.010061
refer,0.004692
reincorpor,0.027777
relat,0.069596
repres,0.069277
represent,0.023676
republ,0.121146
resourc,0.009499
roc,0.074851
romania,0.019685
russia,0.013791
sector,0.012302
send,0.014674
septemb,0.011316
serbia,0.020516
small,0.007991
sobhuza,0.034821
sourc,0.008214
south,0.112498
southern,0.024241
state,0.039999
support,0.007764
swazi,0.123487
swaziland,0.753524
taipei,0.050821
taiwan,0.018377
territori,0.011430
trade,0.009447
train,0.011277
turkey,0.051095
union,0.009704
unit,0.072457
usaid,0.025725
vietnam,0.017697
visitor,0.017863
wa,0.005354
washington,0.028756
world,0.006621
year,0.006590
york,0.010058
