abacha,0.031233
abia,0.034112
abubakar,0.032235
abuja,0.087513
abujabas,0.036437
achiev,0.008999
act,0.008175
activ,0.007137
adamawa,0.035510
administr,0.030005
africa,0.011617
african,0.012538
air,0.021977
airborn,0.021354
aircraft,0.015887
akwa,0.034753
amphibi,0.024488
anambra,0.034753
ani,0.012608
appeal,0.013322
applic,0.008543
appoint,0.035278
approxim,0.009748
area,0.007104
arm,0.045624
armi,0.012304
aspect,0.009401
assembl,0.044669
assist,0.010665
associ,0.006988
attack,0.011533
attribut,0.011120
author,0.008054
balanc,0.011321
baron,0.019033
base,0.012466
bauchi,0.036437
bayelsa,0.069506
benu,0.034753
better,0.009726
bicamer,0.019429
boat,0.017194
bodi,0.025966
borno,0.032631
branch,0.064209
breakdown,0.017756
briefli,0.015999
brigad,0.021639
britain,0.024302
british,0.038523
broadcast,0.016736
cabinet,0.029024
capit,0.028186
case,0.014446
chamber,0.045988
check,0.029954
chief,0.036090
civil,0.029729
classifi,0.011686
coastal,0.015749
code,0.011179
coloni,0.119464
combin,0.008238
command,0.012121
commiss,0.046010
common,0.020958
commonlaw,0.030946
commonwealth,0.029848
compos,0.021923
composit,0.023956
comprehens,0.012726
compris,0.011819
confirm,0.024913
consist,0.007733
consolid,0.015171
constitu,0.040591
constitut,0.054739
context,0.010164
control,0.007676
convett,0.036437
corpor,0.022672
correspond,0.010489
corrupt,0.014186
council,0.042143
countri,0.045623
coup,0.015735
court,0.120553
craft,0.017380
creat,0.007067
crime,0.014335
crimin,0.014635
cross,0.012611
current,0.022191
customari,0.057780
date,0.019314
death,0.010119
defect,0.017055
delta,0.016550
democraci,0.012870
democrat,0.011321
deploy,0.015637
deriv,0.017571
despit,0.009797
develop,0.005778
distinct,0.008899
distinctli,0.021113
district,0.013976
divid,0.027487
divis,0.030043
divisions,0.036437
dump,0.022632
dure,0.006651
duti,0.013749
ebonyi,0.036437
econom,0.007612
edo,0.025782
effici,0.010892
ekiti,0.034753
elect,0.051301
elector,0.014924
enact,0.030841
end,0.007605
england,0.012071
english,0.009688
enugu,0.034753
environ,0.009221
equip,0.024874
era,0.032973
erod,0.020024
exampl,0.006230
execut,0.094840
exercis,0.023904
extern,0.005439
fast,0.014240
fct,0.063747
feder,0.132911
fewest,0.027310
fighter,0.018894
financi,0.009931
fli,0.015527
focus,0.009683
follow,0.011901
forc,0.014911
foreign,0.019367
formal,0.009308
fouryear,0.037849
framework,0.021315
frigat,0.023644
gain,0.009050
garrison,0.018849
gener,0.010690
genuin,0.017256
gomb,0.032235
govern,0.091958
governmentown,0.023024
governor,0.027307
grant,0.011403
great,0.008383
greatli,0.012181
guard,0.015547
ha,0.054561
head,0.057618
held,0.008794
helicopt,0.020228
hi,0.006669
high,0.007532
highest,0.022782
histori,0.018587
hous,0.069851
howev,0.030185
ibom,0.036437
imo,0.021245
import,0.006344
incept,0.019360
includ,0.010327
independ,0.061121
indigen,0.029663
infantri,0.020104
influenc,0.024579
insul,0.020249
jigawa,0.035510
join,0.011064
judici,0.085682
judiciari,0.049650
junta,0.020886
justic,0.050284
kaduna,0.032631
kano,0.061357
katsina,0.033558
kebbi,0.033068
kogi,0.033558
kwara,0.036437
lago,0.052953
land,0.009412
laps,0.022139
largest,0.020543
latest,0.016611
law,0.127362
lawmak,0.022632
leader,0.010874
legal,0.061573
legisl,0.136633
legislatur,0.045644
lga,0.173765
life,0.007994
like,0.006642
link,0.005407
list,0.020745
local,0.025268
long,0.016148
lower,0.009188
magistr,0.019534
major,0.013194
make,0.006323
manag,0.008906
marshal,0.016481
mean,0.006848
mechan,0.009183
member,0.047604
mileston,0.019964
militari,0.060357
minist,0.044878
ministri,0.053482
model,0.015491
montesquieu,0.024729
multiparti,0.015954
nasarawa,0.034753
nation,0.082685
navi,0.014883
neighbor,0.014027
news,0.013572
niger,0.022106
nigeria,0.577271
nigerian,0.493582
nonoper,0.030678
norm,0.014423
northern,0.011625
number,0.006220
occur,0.007900
offic,0.010009
ogun,0.030946
ondo,0.033068
oper,0.007844
order,0.006852
organ,0.006782
osun,0.034753
otherwis,0.011828
oyo,0.029964
parastat,0.053539
parliament,0.012541
parti,0.009609
past,0.009864
patrol,0.020004
peac,0.011992
penal,0.020862
period,0.036943
perman,0.012050
personnel,0.030736
petroleum,0.015984
place,0.007032
plateau,0.020207
play,0.008978
polit,0.046827
politi,0.019226
politician,0.014918
popularli,0.018657
post,0.024136
power,0.036485
practic,0.022887
practis,0.018759
precoloni,0.022449
presid,0.134056
presidenti,0.029163
previou,0.021505
prison,0.015134
progress,0.009718
provid,0.006326
provis,0.013888
purchas,0.012127
real,0.009386
recent,0.007830
recommend,0.013330
refer,0.009044
regard,0.008676
regim,0.013177
relat,0.012194
remain,0.014958
replac,0.009215
repres,0.044509
republ,0.031841
republican,0.016154
respect,0.008600
respons,0.023531
review,0.010132
river,0.024727
role,0.007922
rule,0.033019
ruler,0.015109
sadiqu,0.034753
sani,0.029751
secretari,0.014774
secur,0.009608
seiz,0.015547
select,0.009833
senat,0.124112
senior,0.014988
separ,0.008262
serv,0.018003
servant,0.017434
servic,0.044054
sever,0.006561
shake,0.022824
sharia,0.044548
signifi,0.018247
similar,0.007515
sinc,0.012586
singleseat,0.047007
sit,0.016637
sokoto,0.030426
sourc,0.047500
speaker,0.016162
specialis,0.018234
state,0.093617
statu,0.010511
statut,0.036977
stream,0.015085
subject,0.008006
subsequ,0.009821
subsum,0.021036
success,0.008346
suffrag,0.018502
suggest,0.008810
suprem,0.064442
suspend,0.015644
taraba,0.034753
term,0.011894
territori,0.033048
theori,0.007377
thi,0.014122
thirdtier,0.034753
thirteen,0.018879
threeseat,0.032235
till,0.019002
time,0.005568
togeth,0.008678
total,0.008781
tradit,0.007925
trainer,0.024045
transport,0.010789
trial,0.014361
union,0.009352
unit,0.038088
univers,0.013037
unsuccess,0.016185
upper,0.012709
use,0.010285
usher,0.019276
variou,0.007164
vehicl,0.028580
vest,0.016507
vestig,0.023066
violat,0.013925
violent,0.015541
wa,0.010320
wale,0.017520
westminst,0.020986
wit,0.015329
written,0.029893
yobe,0.036437
zamfara,0.034112
