accord,0.019088
administ,0.074843
administr,0.080073
advic,0.083090
age,0.023906
alo,0.070910
alofi,0.086022
appeal,0.035552
appoint,0.094142
assembl,0.238407
august,0.029008
branch,0.097913
caledonia,0.062240
capit,0.025072
case,0.019275
chiefdom,0.194676
collect,0.067469
commun,0.020161
consist,0.041274
constitut,0.024346
council,0.028115
court,0.029246
coutum,0.166698
coutumi,0.092741
crimin,0.039057
customari,0.102794
democrat,0.030212
deputi,0.041293
district,0.037296
divid,0.024451
eastern,0.030812
elect,0.136902
execut,0.056242
exercis,0.031895
fiveyear,0.090412
framework,0.028440
franc,0.085254
franoi,0.049084
french,0.240435
futuna,0.433681
gener,0.014264
govern,0.094384
hahak,0.097236
head,0.076880
high,0.060300
hihifo,0.097236
holland,0.051711
iloai,0.097236
instanc,0.026883
interior,0.038955
intern,0.017395
island,0.176531
judici,0.038108
justic,0.067094
king,0.063233
law,0.059978
legal,0.027385
legisl,0.060769
local,0.022476
matutu,0.185483
member,0.063518
ministri,0.035680
mua,0.092741
multiparti,0.042576
nation,0.018387
new,0.014822
nivaleta,0.097236
non,0.047826
nouma,0.082584
onli,0.015275
oversea,0.079158
overview,0.033249
pacif,0.038461
paolantoni,0.097236
parliamentari,0.038002
parti,0.025644
particip,0.026178
philipp,0.053068
place,0.018766
polit,0.041653
popul,0.023610
popular,0.047481
power,0.019473
presid,0.165111
refer,0.012067
relat,0.016271
repres,0.039592
royaum,0.076921
seat,0.035712
secretariat,0.056483
senat,0.082801
septemb,0.029102
serv,0.024022
sigav,0.091032
state,0.014695
subdivid,0.046021
suffrag,0.049376
term,0.031740
territori,0.235180
territorial,0.074900
tradit,0.063448
tribun,0.052177
unicamer,0.051221
univers,0.017395
use,0.013723
uvea,0.161126
vote,0.063699
wa,0.013771
walli,0.360611
western,0.025264
wherebi,0.037949
year,0.016950
zone,0.034714
