abbrevi,0.090319
administ,0.072692
administr,0.155544
agreement,0.056602
appli,0.079283
applic,0.044285
appoint,0.060957
biot,0.295529
british,0.149772
bryan,0.118113
c,0.042791
capit,0.097408
case,0.037443
cdr,0.145495
charl,0.057355
chief,0.124723
christoph,0.078483
commission,0.368430
commonwealth,0.077363
crombi,0.151217
d,0.048488
doe,0.040527
domest,0.062061
elect,0.053187
elizabeth,0.085793
farley,0.145495
februari,0.058587
fieldsend,0.180152
foreign,0.050197
form,0.029474
gardner,0.114938
govern,0.073337
ha,0.077136
hamilton,0.095699
hereditari,0.092288
howard,0.089451
ii,0.050465
indian,0.127662
island,0.057152
januari,0.055030
john,0.087718
justic,0.065166
kingdom,0.051289
law,0.194182
london,0.054280
militari,0.104293
monarch,0.170260
ocean,0.132666
offic,0.051885
oversea,0.076883
person,0.042179
posit,0.038202
practic,0.039547
prohibit,0.075421
provid,0.032795
punish,0.162626
queen,0.077576
refer,0.023441
repres,0.038454
resid,0.186319
rn,0.113920
simon,0.078388
sinc,0.065247
sir,0.147280
special,0.040803
spri,0.188883
state,0.085639
subject,0.041503
term,0.030828
territori,0.342631
toni,0.101080
uk,0.119600
unit,0.098720
