abc,0.007261
abl,0.003199
aboard,0.029755
abov,0.003242
absent,0.006172
abund,0.005136
accept,0.006359
access,0.017521
accord,0.007597
accumul,0.004858
achiev,0.003186
acquisit,0.005476
acr,0.013556
act,0.037629
action,0.003111
activ,0.007581
addit,0.002562
administ,0.014894
administr,0.035411
afford,0.005438
africa,0.004112
african,0.008878
agreement,0.007731
aid,0.003799
aim,0.003616
air,0.007781
airbas,0.027057
aircraft,0.022499
airfield,0.016245
airlin,0.006446
airmen,0.009128
airport,0.033471
airstrip,0.009100
airway,0.008211
alexand,0.004852
alleg,0.005236
alli,0.018711
allow,0.002518
alreadi,0.003689
amateur,0.006916
ambassador,0.006214
american,0.002869
anchorag,0.034934
ani,0.002232
annex,0.017285
announc,0.004253
anoth,0.002435
antiimperialist,0.009753
appli,0.008122
applic,0.003024
appoint,0.029143
approxim,0.017257
april,0.011623
aquat,0.006824
archipelago,0.019285
area,0.012577
arm,0.004038
armi,0.008712
arrang,0.004128
arriv,0.024461
articl,0.006019
ascertain,0.007293
asia,0.013045
assign,0.004549
assist,0.015104
associ,0.009896
atol,0.089510
attempt,0.005777
attent,0.004129
attest,0.006668
attitud,0.005199
attorneygener,0.018955
augment,0.006521
august,0.003848
australia,0.123260
australian,0.131682
author,0.011406
avail,0.003095
averag,0.007565
avoid,0.003782
away,0.003857
ballot,0.007089
banjarmasin,0.010956
banknot,0.007703
bankruptci,0.006610
bantam,0.008917
barri,0.006705
baru,0.010772
base,0.004413
basic,0.003072
batavia,0.009442
batteri,0.006860
battl,0.014349
beach,0.033079
beagl,0.016810
becam,0.005582
becaus,0.002298
befor,0.010432
began,0.009148
belief,0.004087
bencoolen,0.010461
best,0.006731
bibliographi,0.004441
birth,0.004499
blockad,0.006993
bombard,0.006778
bomber,0.022983
book,0.002902
bore,0.006854
borneo,0.024867
boyhood,0.010147
brad,0.008550
briefli,0.005664
bring,0.003796
british,0.027277
broadband,0.007986
broadcast,0.011850
broke,0.005236
brother,0.005121
brought,0.003764
bu,0.007475
buffband,0.010956
buffett,0.008670
build,0.003231
built,0.003806
bulletin,0.006866
busi,0.003442
c,0.008767
cabinet,0.005137
cabl,0.046602
cahaya,0.010956
came,0.003344
camp,0.005533
campu,0.007245
campus,0.017424
canberra,0.016452
capabl,0.008055
cape,0.012847
capit,0.003326
capricorn,0.009668
captain,0.037034
captur,0.004199
card,0.011622
care,0.003842
carri,0.006594
casual,0.007747
caught,0.006299
caus,0.002729
cc,0.022370
cctld,0.010038
ceas,0.015499
cecil,0.007986
centr,0.004205
central,0.002867
centuri,0.005252
ceylon,0.025948
chang,0.004611
channel,0.010097
charl,0.003917
children,0.012619
china,0.011788
chines,0.004396
choic,0.004018
christma,0.050449
chronicl,0.006442
cia,0.006077
cidh,0.010956
ciia,0.020184
circuit,0.005770
civilian,0.005317
civilis,0.006980
cki,0.010772
claim,0.003104
classif,0.004513
climat,0.017469
clinic,0.005334
close,0.002736
cluniesross,0.175304
cluniesrosss,0.010956
coastal,0.005576
coastlin,0.006362
coauthor,0.007013
coco,0.544839
coconut,0.014987
cocoskeel,0.010956
code,0.003957
cogan,0.010956
coincident,0.008458
collect,0.002983
collier,0.008733
colombo,0.009019
coloni,0.021147
com,0.008550
combat,0.005369
command,0.008583
commend,0.009019
commerc,0.005097
committe,0.004388
commonwealth,0.042270
commonwealthlevel,0.010956
commun,0.024073
commut,0.006795
compani,0.012920
compar,0.006051
complex,0.002993
compon,0.003522
compris,0.004184
compulsori,0.006469
condit,0.002862
conduct,0.007012
confin,0.005492
connect,0.006736
consensu,0.005102
consent,0.006278
consist,0.013689
constabl,0.008570
constantinopl,0.007075
constitut,0.003230
construct,0.012671
contain,0.002934
content,0.008072
continu,0.002478
contractor,0.007503
contribut,0.006005
control,0.005435
conven,0.007054
convoy,0.024326
coolest,0.010038
cooper,0.003909
coral,0.033805
coron,0.007692
corpor,0.004013
cost,0.003596
costa,0.007245
council,0.018650
countri,0.002692
court,0.046561
cover,0.006736
covington,0.010772
cruiser,0.034358
crush,0.006258
crusz,0.010688
cshape,0.010461
cultur,0.003075
currenc,0.008965
current,0.002618
curriculum,0.006336
cyclon,0.007661
cypru,0.006818
daili,0.004784
damag,0.008829
darwin,0.011449
day,0.006174
death,0.007165
decemb,0.007508
decis,0.003449
decolon,0.007512
dedic,0.004913
defenc,0.039838
delay,0.005224
deleg,0.005776
deliveri,0.011825
demograph,0.005492
depart,0.017933
depend,0.002699
deploy,0.011072
describ,0.002517
desert,0.005817
despit,0.003468
detach,0.006657
develop,0.006137
dialect,0.006017
die,0.003919
digit,0.009136
direct,0.032597
disabl,0.005957
discret,0.004824
discuss,0.003337
dishearten,0.010147
disput,0.004114
dissatisfact,0.007550
distinct,0.006301
distress,0.006789
distribut,0.006750
district,0.009896
document,0.003949
domain,0.011986
doubt,0.005279
draw,0.004193
dri,0.005358
driest,0.009668
dronebas,0.010772
drop,0.004490
dure,0.009419
dutch,0.005024
dx,0.008649
earli,0.007390
east,0.011359
economi,0.003363
edit,0.003854
educ,0.006275
effect,0.002392
elect,0.007265
elector,0.005283
elev,0.005495
elig,0.006161
elsewher,0.015231
emden,0.072752
emerg,0.003156
empir,0.010309
employ,0.006533
enact,0.005459
end,0.005385
endang,0.006842
endem,0.006860
enforc,0.013852
engag,0.007800
english,0.013720
englishman,0.017026
enic,0.021913
enjoy,0.004688
ensign,0.019420
entri,0.004763
equat,0.008192
escap,0.004944
escort,0.016642
espionag,0.007986
establish,0.015770
estim,0.010397
ethnic,0.009720
euronew,0.010861
european,0.009202
eventu,0.003500
everi,0.003081
execut,0.007461
exercis,0.004231
exil,0.005624
exist,0.002449
expedit,0.005571
experi,0.003028
express,0.003191
extend,0.003248
extens,0.003325
extern,0.001925
f,0.007255
facilit,0.004440
fact,0.003127
factbook,0.006172
fail,0.003702
fall,0.003361
fame,0.006483
famili,0.027282
far,0.003339
farmer,0.005213
fauna,0.006282
feder,0.023528
fernando,0.015301
ferri,0.007503
feud,0.008305
feudal,0.006362
fight,0.004621
fish,0.004595
fitzroy,0.008967
flag,0.005881
flat,0.005632
fli,0.005497
flight,0.005395
flora,0.006657
focus,0.003428
follow,0.010533
food,0.007580
forc,0.026397
form,0.014091
free,0.006016
fremantl,0.030983
frequenc,0.005032
fresh,0.005915
ft,0.017268
function,0.002696
futur,0.003207
galleri,0.006772
garden,0.005890
garrison,0.020020
gavin,0.008712
gener,0.001892
geographi,0.004847
geostrateg,0.010205
german,0.022316
good,0.002928
govern,0.055097
governor,0.024169
governorgener,0.007531
grant,0.008074
gratien,0.010956
grenvil,0.010205
grew,0.004401
ground,0.003832
group,0.004751
grow,0.003377
gsm,0.008993
guard,0.005504
guidelin,0.005841
gun,0.012367
h,0.003658
ha,0.003512
haas,0.009937
half,0.003625
hand,0.003263
happen,0.004162
hare,0.040266
harem,0.019420
hasluck,0.010533
head,0.006799
health,0.007343
heavili,0.008491
held,0.006227
hi,0.018890
high,0.010666
highest,0.004032
highway,0.006646
hire,0.005750
histori,0.004387
historian,0.004437
hm,0.013987
hma,0.010265
hold,0.003172
home,0.063931
homepag,0.007791
hope,0.008968
horsburgh,0.043089
hottest,0.009514
hour,0.004627
hous,0.007065
howev,0.004274
hull,0.022184
iana,0.010861
ii,0.010340
immedi,0.003871
import,0.008984
improperli,0.008917
inch,0.007096
includ,0.005484
incomplet,0.005738
incorpor,0.003616
increas,0.005065
indentur,0.008026
independ,0.005409
index,0.004183
india,0.008064
indian,0.030516
indic,0.003239
individu,0.005432
industri,0.003006
infrastructur,0.004458
inhabit,0.022891
initi,0.002861
injuri,0.005838
insist,0.005373
inspir,0.004357
instal,0.005197
instead,0.003084
instruct,0.009916
integr,0.006356
intellig,0.004109
intend,0.004076
interisland,0.009842
intern,0.002307
internet,0.025921
invas,0.004802
investig,0.003690
involv,0.002553
isbn,0.003113
isl,0.006761
isla,0.008012
island,0.605030
islandsrel,0.009373
islet,0.015583
item,0.004830
j,0.003307
jack,0.006226
jame,0.007428
japan,0.004355
japanes,0.025095
java,0.006668
jet,0.012884
john,0.023964
judg,0.004863
judici,0.005055
juli,0.011411
june,0.003836
juno,0.009245
just,0.006141
keel,0.315678
keelingcoco,0.010956
ken,0.007310
kenneth,0.005909
kept,0.004745
kill,0.013042
kilometr,0.036634
kind,0.003507
kindergarten,0.027470
king,0.008389
kingdom,0.028023
km,0.004956
kok,0.010327
kppen,0.008777
lagoon,0.025013
lake,0.005193
land,0.009997
lane,0.013466
languag,0.006619
lanka,0.014054
larger,0.010426
largest,0.003636
later,0.013092
law,0.015914
leadership,0.004777
leak,0.007386
learn,0.003698
leav,0.003728
lee,0.005987
left,0.003509
legal,0.003633
legisl,0.004031
lens,0.014987
letter,0.013039
liber,0.007939
lie,0.008627
lieutenantcommand,0.010772
life,0.002830
lighterag,0.010956
like,0.002351
limit,0.002688
lingiari,0.010461
link,0.005743
littl,0.003369
live,0.014234
local,0.014910
locat,0.019423
longrang,0.007935
longterm,0.004633
lost,0.003826
low,0.003374
lower,0.006506
lowli,0.008458
m,0.003148
machineri,0.005429
magistr,0.020748
mail,0.013794
main,0.002787
maintain,0.003069
majesti,0.007692
major,0.002335
malay,0.067194
malaya,0.008289
malaysian,0.015921
malta,0.007253
man,0.003895
march,0.007301
maritim,0.005667
marriag,0.005566
mate,0.006600
materi,0.003085
mauritiu,0.007999
mbe,0.010393
meant,0.004515
meanwhil,0.005323
measur,0.002883
media,0.008076
medic,0.012162
member,0.014044
memori,0.009159
men,0.004082
merchant,0.005228
met,0.004502
metr,0.012524
mi,0.022204
mid,0.004384
midway,0.016675
mile,0.005117
militari,0.007123
millimetr,0.016916
minist,0.007944
mint,0.007207
mk,0.008513
mm,0.006442
mobil,0.004676
moder,0.010087
modern,0.002640
monsoon,0.008589
month,0.031117
morn,0.006397
motherinlaw,0.009888
mulatto,0.009407
mullen,0.010956
muslim,0.009847
mutin,0.027217
mutini,0.030602
nail,0.008094
nation,0.007318
natur,0.004700
naturalist,0.005997
naval,0.011107
navi,0.005269
nctr,0.010772
nearbi,0.005418
nearli,0.003834
necess,0.005516
need,0.002646
neighbour,0.005377
netherland,0.005130
network,0.007361
new,0.005899
news,0.004805
newspap,0.005450
night,0.005400
noel,0.008371
nonappl,0.010393
nonmuslim,0.007874
nonmutin,0.010956
nonresid,0.008609
norfolk,0.017382
normal,0.003509
north,0.017478
northern,0.012347
note,0.005076
novemb,0.019743
ntv,0.010956
number,0.004404
obama,0.007360
occupi,0.008827
occur,0.005594
ocean,0.031713
oceania,0.013455
octob,0.019034
offduti,0.010956
offer,0.003273
offic,0.014174
offici,0.010027
onc,0.009868
onli,0.010132
onward,0.005581
open,0.003013
oper,0.016664
option,0.004593
order,0.012130
origin,0.002439
outback,0.010147
outsid,0.003358
ownership,0.005170
p,0.003360
pacif,0.010205
paid,0.004488
palm,0.006860
panama,0.007184
paper,0.003632
park,0.005145
parliament,0.008880
parti,0.006804
partial,0.004049
particip,0.003473
pass,0.006840
patent,0.011749
patient,0.005362
patrol,0.007082
pave,0.012452
pearl,0.006795
pedit,0.010688
perpetu,0.005964
personnel,0.016323
perth,0.034280
peter,0.004014
phone,0.012565
photo,0.006813
pivot,0.006560
place,0.007469
plan,0.020004
plane,0.005302
planner,0.006986
platoon,0.009514
pleasant,0.007826
point,0.002553
polic,0.019585
pondok,0.010956
popul,0.028191
poseidon,0.009308
posit,0.002609
possess,0.003956
post,0.017090
postcod,0.010038
potenti,0.006536
pow,0.009156
power,0.012917
pppoebas,0.010956
precipit,0.017416
prefer,0.011597
prepar,0.012283
prepreparatori,0.010956
presenc,0.003817
previous,0.003848
primari,0.003332
princip,0.003943
prison,0.005358
privat,0.007239
procedur,0.004396
profil,0.005450
promot,0.003601
properli,0.005308
prosi,0.010956
provid,0.033598
provok,0.006460
proxim,0.005835
public,0.005084
publish,0.005604
pulu,0.010956
purchas,0.004293
purpos,0.006567
pursu,0.004591
qanta,0.010461
queen,0.005298
raaf,0.010327
radio,0.015504
raf,0.024867
raid,0.012022
raider,0.008226
rail,0.006353
rainfal,0.006947
rainwat,0.009276
rais,0.003723
rang,0.012121
rate,0.003128
reason,0.005747
receiv,0.006117
recent,0.002772
recharg,0.009215
reconnaiss,0.007935
reconquest,0.008799
recov,0.004928
redeem,0.007531
reef,0.007027
refer,0.004803
referendum,0.016675
reform,0.003916
refuel,0.009128
region,0.005734
registr,0.006234
registri,0.007986
reinvas,0.010956
releas,0.008002
reliabl,0.004787
religion,0.004077
remain,0.005295
reneg,0.009245
repeal,0.014491
repres,0.005252
republ,0.003757
reputedli,0.009340
request,0.009732
requir,0.005040
research,0.002597
resid,0.016967
resourc,0.003241
respons,0.008330
restrict,0.003710
result,0.002230
resumpt,0.008273
retain,0.004210
retir,0.005447
return,0.012961
revert,0.007006
review,0.003587
rica,0.008053
rifl,0.007560
ring,0.010845
river,0.004377
robert,0.003520
robertswray,0.010956
rodrigu,0.009156
ross,0.013101
royal,0.008449
rule,0.005845
run,0.007037
runway,0.008371
rupe,0.008629
s,0.002270
said,0.003289
sail,0.012111
sailor,0.013697
salvo,0.010092
satellit,0.027931
sb,0.008550
schedul,0.005321
school,0.009772
schooner,0.009796
scottish,0.012292
scuttl,0.009551
sea,0.020425
seaman,0.009796
seaplan,0.009753
seaport,0.008080
season,0.010348
seat,0.004738
seattl,0.007780
seawat,0.007758
second,0.005255
secret,0.004939
seiz,0.005504
self,0.005502
selfdetermin,0.007199
sell,0.004529
semioffici,0.009937
send,0.005007
sent,0.013313
sentenc,0.010947
separ,0.005850
septemb,0.007722
sergeant,0.008733
seri,0.003189
seriou,0.004485
serv,0.015935
servic,0.046791
settl,0.004550
settlement,0.028034
seven,0.008403
seventi,0.007493
shack,0.009937
shallow,0.006772
sheet,0.005790
ship,0.031800
shire,0.018431
shore,0.012175
shot,0.006226
sight,0.005941
sign,0.003668
silent,0.006636
sim,0.008305
similar,0.002660
sinc,0.004456
singapor,0.046974
singl,0.002982
sir,0.005029
site,0.007506
sixti,0.006778
size,0.003470
sm,0.008094
small,0.010906
smith,0.004720
socialist,0.004984
societi,0.002791
soldier,0.010140
son,0.008532
sound,0.004691
souter,0.010772
south,0.024426
southeast,0.010909
southern,0.004135
southwest,0.006254
special,0.002786
specimen,0.006909
speed,0.004556
spitfir,0.010327
split,0.004579
spoken,0.005994
spot,0.005578
sq,0.013304
squadron,0.030202
squar,0.018883
sri,0.012967
staf,0.007521
standard,0.003001
stanley,0.005868
state,0.011698
station,0.063283
statu,0.007442
step,0.007556
stephen,0.009899
stevedor,0.010393
stoke,0.015921
stop,0.013206
store,0.004514
strait,0.027974
strateg,0.009726
structur,0.002603
student,0.003792
studi,0.002354
style,0.004591
submarin,0.006733
subsidiari,0.006738
succeed,0.004555
sum,0.004444
sunni,0.007033
superintend,0.008039
supermarin,0.010608
supervis,0.005327
suppli,0.007265
support,0.015896
supposedli,0.006801
suprem,0.004563
surround,0.004080
surveil,0.007033
survey,0.004283
surviv,0.003843
survivor,0.006922
sydney,0.034901
sym,0.010265
taken,0.003262
tame,0.008137
target,0.004148
teacher,0.005106
telecentr,0.021913
telecommun,0.005808
telegraph,0.006897
televis,0.010045
temperatur,0.013513
term,0.004211
termin,0.005220
territori,0.054602
th,0.005110
themselv,0.006610
theori,0.002611
thi,0.011666
thickli,0.009514
threat,0.004673
time,0.003943
told,0.005651
toplevel,0.007238
total,0.015545
tourism,0.015551
tourist,0.011876
town,0.004575
track,0.004930
trade,0.003223
tradit,0.002805
train,0.003847
transfer,0.022878
transmiss,0.005504
transmit,0.005459
transmitt,0.007650
transport,0.015279
treat,0.003901
treatment,0.004098
tree,0.004589
trial,0.005084
trip,0.006157
troop,0.010059
troopship,0.010772
tropic,0.017058
turkish,0.006451
tv,0.018483
twice,0.005310
typic,0.002989
unabl,0.004630
underground,0.006176
undersea,0.008649
undertaken,0.005741
unemploy,0.005218
unicamer,0.006795
uninhabit,0.014081
union,0.003311
unit,0.017979
unlaw,0.008181
upgrad,0.006397
upset,0.007531
use,0.007282
usual,0.002681
valid,0.004255
valu,0.002855
valuabl,0.005230
vari,0.003284
veget,0.005319
verisign,0.010861
vessel,0.005424
vhf,0.010092
victoria,0.006550
view,0.002855
viii,0.007096
villag,0.005091
virgin,0.006824
vital,0.004976
vkec,0.011284
voic,0.005310
vol,0.004788
volunt,0.006142
vote,0.016902
wa,0.062118
wan,0.009477
war,0.028488
warship,0.014587
washington,0.004905
water,0.006874
waterbas,0.009753
waw,0.010956
wdw,0.010956
wealthi,0.005814
web,0.004830
websit,0.004213
weekend,0.008257
weekli,0.006610
went,0.004087
west,0.061217
western,0.040221
wet,0.006652
wettest,0.009842
whilst,0.005756
white,0.008461
wide,0.002869
wife,0.011489
william,0.010711
wind,0.005294
wireless,0.021667
women,0.012722
work,0.002184
worker,0.012443
world,0.018072
worldwid,0.004520
wound,0.018339
wow,0.009986
written,0.003527
wrote,0.003796
xxx,0.008869
xxxx,0.009888
y,0.004745
yacht,0.008494
year,0.026985
younger,0.005536
zealand,0.005298
