abbrevi,0.046088
affair,0.031287
agenc,0.059534
aleksandar,0.087472
area,0.018793
assembl,0.029539
assess,0.032230
august,0.057507
branch,0.024263
cabinet,0.422262
church,0.034527
civil,0.026213
commonli,0.025380
commun,0.019984
consecut,0.051672
cooper,0.087637
decid,0.029786
develop,0.015285
diaspora,0.055379
director,0.220499
drakovi,0.091928
elect,0.054280
english,0.025627
european,0.022919
execut,0.027874
extern,0.014388
formal,0.024622
govern,0.093556
government,0.082362
ha,0.026240
human,0.018957
impact,0.026965
incumb,0.105515
integr,0.023745
irkovi,0.088767
italian,0.036920
ivana,0.085267
led,0.021231
link,0.014303
major,0.017451
majstorovi,0.099544
member,0.020986
mileta,0.099544
minist,0.059356
ministri,0.035367
minor,0.030439
mira,0.071646
nation,0.018226
offic,0.238283
offici,0.024972
paunovi,0.099544
portfolio,0.045245
presid,0.027277
prime,0.030304
prokopijevi,0.099544
radojevi,0.099544
refer,0.011961
reform,0.029261
region,0.021421
regulatori,0.082800
religi,0.030556
republ,0.028075
republik,0.078162
right,0.021466
second,0.019632
serb,0.064472
serbia,0.523009
serbian,0.299338
slavka,0.099544
societi,0.020858
sran,0.093931
srbije,0.180468
srpska,0.076246
sulejman,0.091928
sustain,0.032563
suzana,0.090234
ugljanin,0.099544
underdevelop,0.055645
vlada,0.262418
vote,0.031570
vui,0.090234
wa,0.027300
websit,0.031480
