administr,0.099138
affair,0.097700
alexi,0.037902
andr,0.030846
appear,0.013687
appoint,0.038852
audit,0.032012
autonomi,0.024693
beij,0.068608
budget,0.022304
bureaux,0.099745
cabinet,0.023974
casa,0.040751
ce,0.052299
central,0.040134
chan,0.036628
cheong,0.159756
chief,0.139115
china,0.073342
chines,0.041028
chon,0.107812
chui,0.060194
civil,0.016371
commiss,0.038004
commission,0.029353
commun,0.012480
convent,0.018483
coordin,0.020234
corrupt,0.023435
countri,0.012561
cpg,0.096991
cultur,0.028704
current,0.024440
da,0.050819
decid,0.037204
degre,0.015631
depart,0.050208
did,0.014169
differ,0.010119
directli,0.015337
econom,0.012576
economi,0.015694
educ,0.014640
endors,0.054398
english,0.016005
establish,0.012264
execut,0.104449
extern,0.008986
fernando,0.035698
fewer,0.024370
financ,0.018209
financi,0.016405
florinda,0.060194
franci,0.023533
govern,0.222028
governo,0.109258
governor,0.045111
ha,0.008194
handov,0.041725
head,0.111049
high,0.012443
ho,0.031521
hong,0.057461
independ,0.012621
io,0.037513
justic,0.041534
key,0.015637
kong,0.057960
kuoc,0.062168
lau,0.045713
light,0.016937
link,0.008933
list,0.011423
local,0.013914
macau,0.739103
msar,0.062168
nonexist,0.031900
offic,0.033069
organis,0.019448
overse,0.030635
pak,0.047618
peopl,0.056629
polici,0.045605
polit,0.012892
portal,0.029626
portugues,0.130747
posit,0.012174
prc,0.038105
pre,0.034225
prior,0.017792
public,0.047453
rae,0.044927
refer,0.007470
region,0.026756
replac,0.015223
report,0.028717
republ,0.052601
respons,0.012957
rosa,0.037770
sai,0.044744
sar,0.078767
secretari,0.219668
secretariat,0.244763
secur,0.031744
servic,0.014555
short,0.015928
si,0.032694
silva,0.038982
similar,0.012415
slightli,0.022534
social,0.026453
special,0.026006
spokesperson,0.042861
structur,0.024295
tam,0.085723
tourism,0.024187
transport,0.035648
u,0.024259
v,0.018538
veng,0.050264
wa,0.017049
weng,0.104211
work,0.020385
youth,0.026221
yuen,0.052105
