abandon,0.008857
abov,0.006070
absorb,0.009479
access,0.006560
accompani,0.009167
accord,0.009483
act,0.043355
action,0.005826
activ,0.009462
address,0.007140
adjac,0.010852
administ,0.018590
administr,0.013259
affair,0.023521
agricultur,0.007047
amateur,0.064744
american,0.042980
anchorag,0.016351
anguid,0.021630
ani,0.004179
annex,0.010787
anol,0.020335
anoli,0.020335
anoth,0.004560
appear,0.005492
appertain,0.063384
appli,0.005069
area,0.004709
aristellig,0.021630
arizona,0.013671
arriv,0.007633
assign,0.008517
assist,0.007070
assum,0.013137
author,0.016016
automat,0.009680
avoid,0.007082
badiu,0.021630
baltimor,0.041884
band,0.010310
bankruptci,0.012377
barqu,0.019107
barrack,0.015904
base,0.012395
basi,0.011812
bay,0.053540
beacon,0.015489
becam,0.015678
becki,0.019459
began,0.005709
behalf,0.010546
believ,0.005913
benjamin,0.010841
bicolor,0.020703
biodivers,0.011848
biolog,0.006781
biologist,0.021395
black,0.023149
blacksmith,0.017488
blue,0.010191
boa,0.015904
boat,0.011397
boquern,0.020907
boundari,0.007982
brevifolia,0.021128
brownei,0.021630
bucculentu,0.021630
buchanan,0.015673
built,0.021383
bulletin,0.012856
callsign,0.056685
camp,0.010360
canal,0.022716
cano,0.014719
captain,0.011556
car,0.010118
caribbean,0.043700
case,0.019151
cat,0.012147
celestu,0.021630
center,0.012215
centuri,0.009834
chang,0.004317
channel,0.009452
charg,0.007389
christoph,0.010035
church,0.017304
circuit,0.010803
citizen,0.007836
civil,0.006568
claim,0.087195
cliff,0.012822
coast,0.034960
coccoloba,0.021630
cochrana,0.021630
columbu,0.013093
combin,0.005461
commerci,0.007337
commiss,0.007624
common,0.004630
commun,0.005007
commut,0.012723
compani,0.024189
condit,0.005359
conserv,0.007602
consid,0.004466
consist,0.010252
constitut,0.024189
contact,0.008036
content,0.007557
contract,0.007683
control,0.010177
coordin,0.008119
coral,0.012658
cornuta,0.021630
countri,0.010080
court,0.029058
cover,0.006305
creat,0.004684
crew,0.012044
cuba,0.024384
curlytail,0.021630
current,0.004903
cyclura,0.021630
dc,0.010605
decemb,0.007028
defend,0.008569
defens,0.008406
deni,0.008878
depart,0.053723
depend,0.005053
deposit,0.009067
describ,0.004714
design,0.005625
despit,0.006494
did,0.005685
die,0.007338
directli,0.006154
discover,0.014012
disgruntl,0.017678
dismantl,0.013422
disput,0.007704
diversifolia,0.021630
dmoz,0.010144
dog,0.011465
dominican,0.013780
drive,0.008229
dug,0.016118
dun,0.015103
duncan,0.028495
durat,0.021816
dure,0.004408
dwarf,0.013910
dxpedit,0.082814
dynamit,0.017882
east,0.007089
eastern,0.007653
ecolog,0.026069
econom,0.005046
ecosystem,0.010459
eighteen,0.013686
elev,0.010288
employ,0.006116
endem,0.012844
enforc,0.017289
enter,0.006741
entiti,0.007823
entri,0.008919
enumer,0.013326
eremitu,0.021630
evacu,0.012606
event,0.006000
eventu,0.013107
exagger,0.012856
execut,0.013970
exercis,0.007922
expedit,0.020861
expos,0.009236
extend,0.006082
extern,0.003605
extinct,0.010482
fabio,0.017744
facil,0.008838
februari,0.022475
feder,0.014683
feet,0.033782
feral,0.016696
fertil,0.009665
ficu,0.019219
field,0.005035
fierc,0.012680
fig,0.015103
file,0.010292
fish,0.060223
fisherman,0.017428
fishermen,0.044092
flag,0.022022
flown,0.015460
foetidissimum,0.021630
foot,0.010713
forc,0.009884
forest,0.009482
form,0.003768
fourth,0.008603
fratern,0.015129
french,0.006635
galilean,0.015262
galillean,0.021630
gave,0.007175
gecko,0.035357
gener,0.003543
geographi,0.009076
glean,0.015836
goat,0.012972
goe,0.008873
govern,0.009377
grand,0.009577
grant,0.007559
grassland,0.014343
grassroot,0.015235
group,0.013343
guano,0.289647
guantanamo,0.038438
guard,0.030918
ha,0.016439
haiti,0.115223
haitian,0.016433
harbor,0.024678
harrison,0.014083
harvard,0.009633
haul,0.032623
hawaii,0.013118
hazard,0.022521
head,0.006365
heat,0.017389
heaven,0.011809
help,0.005398
herd,0.013156
hi,0.013263
high,0.004992
hill,0.009808
hispaniola,0.017310
histor,0.005538
histori,0.008213
horizont,0.011371
hous,0.013229
ibru,0.021630
id,0.013566
iguana,0.018698
ii,0.019359
illustr,0.008408
implicit,0.011549
imprison,0.011724
includ,0.003422
inform,0.004902
inhabit,0.008571
inland,0.011832
instal,0.009730
insular,0.043513
interag,0.018260
interior,0.048382
interrupt,0.012264
island,0.394646
issu,0.010582
jamaica,0.056620
jame,0.006954
januari,0.028147
jone,0.021895
judici,0.009465
juli,0.007122
jurisdict,0.030022
juror,0.018514
just,0.005749
keeper,0.016081
km,0.027839
kn,0.033124
known,0.004119
kp,0.017882
la,0.016458
labor,0.008094
land,0.024956
landmark,0.011606
larger,0.006507
later,0.004902
law,0.014898
leagu,0.010114
led,0.005320
legal,0.013604
leiocephalu,0.021630
level,0.009858
licens,0.009816
life,0.005299
light,0.027184
lighthous,0.097631
like,0.004403
limeston,0.028166
link,0.003584
list,0.009167
live,0.010660
lizard,0.029715
lle,0.020513
locat,0.018182
longicep,0.021630
lower,0.006091
lulu,0.076428
m,0.029476
mainli,0.006843
mainstay,0.015077
maintain,0.011495
manag,0.005903
mani,0.003725
map,0.007540
march,0.006835
marin,0.028308
maryland,0.013686
mastic,0.020168
md,0.012201
mean,0.004539
member,0.005259
memori,0.017148
men,0.007643
mention,0.007980
metopium,0.021630
metr,0.023449
midth,0.010169
mile,0.028743
militari,0.006668
miner,0.018251
minor,0.007628
miscellan,0.014324
mona,0.052651
money,0.007366
mostli,0.007032
muchneed,0.017143
murder,0.010468
musclepow,0.020907
nation,0.018269
nativ,0.008519
natur,0.008800
nava,0.019721
naval,0.020795
navass,0.043260
navassa,0.724624
navaza,0.043260
navi,0.009865
navig,0.010292
nearest,0.013286
need,0.009910
new,0.003681
newli,0.008672
nightmar,0.016742
note,0.004752
novemb,0.007393
nowobsolet,0.020703
nv,0.017198
object,0.005634
observ,0.005440
occasion,0.009298
occupi,0.008263
octob,0.014255
offic,0.026538
offshor,0.024038
old,0.006820
onair,0.020907
onc,0.006159
onchiopsi,0.021630
onequart,0.015610
ongo,0.009019
onli,0.011382
open,0.005642
oper,0.026000
opinion,0.008760
order,0.018169
organ,0.004496
origin,0.004567
otherwis,0.007840
outli,0.015904
overlay,0.016271
oversight,0.013056
owner,0.009323
panama,0.013450
passag,0.019639
passion,0.012377
pearl,0.012723
peninsula,0.010964
permiss,0.034376
personnel,0.010187
peter,0.007516
petit,0.012192
phosphat,0.038234
pickax,0.020335
pig,0.012292
pigeon,0.015052
place,0.004661
plain,0.010771
plan,0.006242
plum,0.016045
point,0.004781
poisonwood,0.021128
polit,0.005173
populnea,0.020513
port,0.009314
possess,0.007407
post,0.007999
prefix,0.012701
prepar,0.007665
present,0.004726
preserv,0.007966
presid,0.013670
profil,0.010204
protest,0.008783
provok,0.012095
publish,0.005246
puerto,0.027191
purpos,0.006148
quarter,0.009831
radio,0.067735
rail,0.011895
railway,0.011185
rais,0.006971
ran,0.010580
reach,0.012183
rebellion,0.010702
reduc,0.005678
refer,0.002997
refug,0.038366
reject,0.007389
relay,0.013927
remain,0.009915
repeatedli,0.010666
reptil,0.013182
republ,0.007035
reserv,0.007972
resourc,0.006068
respons,0.005199
resum,0.011465
retain,0.007883
return,0.006066
rich,0.008596
rico,0.028310
right,0.005379
ring,0.010152
riot,0.011977
rock,0.009387
romanc,0.013944
rule,0.005471
s,0.004251
sack,0.012474
said,0.006159
salvag,0.015705
schedul,0.009963
scientif,0.012064
sea,0.030594
seaboard,0.017368
secretari,0.009793
secur,0.006368
selfdefens,0.016789
sent,0.008308
sentenc,0.010248
separ,0.005476
septemb,0.007229
servic,0.046723
set,0.004643
share,0.005841
ship,0.008505
shop,0.011185
shortleaf,0.021128
sideroxylon,0.021630
sign,0.006868
signific,0.005325
similar,0.009963
sinc,0.025030
size,0.006496
small,0.010210
snake,0.013246
societi,0.005226
sold,0.008810
south,0.013066
southwest,0.011709
southwestern,0.013020
sovereignti,0.020121
spadi,0.021630
spanishamerican,0.016837
speci,0.015345
special,0.005217
specif,0.004991
sphaerodactylu,0.021630
spring,0.009410
squar,0.008838
ss,0.012822
start,0.005280
state,0.073006
statist,0.006844
statu,0.013935
strand,0.011895
studi,0.004408
subject,0.005307
subsist,0.011486
success,0.005532
sulcatu,0.021630
superior,0.009285
supervisor,0.029134
support,0.004960
suprem,0.017086
surviv,0.007195
tabernacl,0.019336
task,0.007739
team,0.017424
term,0.003942
terrain,0.012435
territori,0.051115
th,0.004783
thi,0.009361
time,0.003691
tini,0.011254
topographi,0.027221
tower,0.012201
town,0.008567
track,0.009230
trader,0.010270
transfer,0.021417
transient,0.013522
trawl,0.018427
tree,0.008593
trial,0.019039
tribut,0.012444
tropic,0.010646
tropidophi,0.021630
twice,0.009943
twoweek,0.018794
typhlop,0.021630
unavail,0.013640
unincorpor,0.032951
uninhabit,0.039546
union,0.006199
uniqu,0.007113
unit,0.067326
univers,0.004320
unlik,0.006947
unnam,0.015519
unoffici,0.025600
unorgan,0.017613
untouch,0.015579
uphold,0.013717
use,0.003408
usfw,0.043260
uss,0.014012
v,0.014877
var,0.016392
vertic,0.010792
virtual,0.008250
visit,0.008381
visitor,0.011411
voyag,0.011411
wa,0.034206
war,0.029631
warehous,0.014719
warship,0.013656
washington,0.009185
water,0.019306
way,0.008921
went,0.007652
west,0.007163
white,0.039604
wildlif,0.083215
windward,0.015641
worker,0.015532
world,0.016918
written,0.006605
yard,0.044859
year,0.008420
