advic,0.105189
appoint,0.079453
author,0.054419
bakanlar,0.254268
binali,0.246194
bodi,0.058481
cabinet,0.392216
compos,0.074064
council,0.071186
current,0.099960
execut,0.142400
exercis,0.080756
govern,0.047794
head,0.064884
kabinesi,0.254268
kurulu,0.246194
led,0.054231
list,0.046722
major,0.044576
manag,0.060175
member,0.053607
minist,0.303230
ministri,0.090340
power,0.049304
presid,0.069674
prime,0.154816
refer,0.030554
respons,0.052996
state,0.037208
suprem,0.087082
th,0.048760
trkiy,0.213113
turkey,0.443616
turkish,0.246233
yldrm,0.234814
