ababa,0.073574
accord,0.019806
addi,0.071169
addit,0.020038
administr,0.055388
afar,0.076972
affair,0.032750
africa,0.064332
agricultur,0.029439
amhara,0.084945
appoint,0.065120
approv,0.034025
assembl,0.061841
award,0.034918
base,0.017258
benishangulgumaz,0.104199
bet,0.120831
bicamer,0.053797
branch,0.076194
canadian,0.040600
candid,0.036844
capit,0.026014
center,0.025512
ceprc,0.104199
chamber,0.084889
charter,0.086062
chosen,0.073103
citi,0.055249
commiss,0.031848
compris,0.032727
constitu,0.037464
constitut,0.050522
control,0.021256
council,0.145860
countri,0.021054
court,0.060690
current,0.020481
dawa,0.086481
deputi,0.042844
design,0.046997
determin,0.022217
develop,0.016000
dire,0.065207
direct,0.021244
divid,0.025369
divis,0.027728
dmoz,0.042373
eca,0.066149
econom,0.021079
elect,0.227274
environ,0.025532
epolici,0.104199
ethiopia,0.272446
ethiopian,0.121348
ethnolinguist,0.073574
execut,0.087533
exercis,0.033094
extern,0.015061
feder,0.306677
fiveyear,0.046904
follow,0.016476
foreign,0.026812
framework,0.029509
gambela,0.092917
govern,0.156690
ha,0.027467
harar,0.078105
head,0.026589
health,0.028713
hous,0.221039
includ,0.014297
independ,0.021154
judg,0.038034
judici,0.079081
judiciari,0.045825
legisl,0.094579
legislatur,0.042127
link,0.014972
mekir,0.201780
member,0.087873
million,0.027044
minist,0.310658
ministri,0.185106
nation,0.057236
offici,0.026139
oromia,0.092917
parliament,0.138901
parliamentari,0.078860
parti,0.053215
peopl,0.151864
popul,0.024497
popular,0.024633
portal,0.049657
power,0.060614
presid,0.114210
prime,0.222052
provid,0.017517
receiv,0.023922
recommend,0.036910
refer,0.012521
region,0.067268
repres,0.164321
republ,0.029388
resourc,0.050699
rule,0.022856
rural,0.040494
seat,0.111164
select,0.027228
serv,0.024925
singleseat,0.065079
sixyear,0.124519
somali,0.066149
southern,0.032342
state,0.045743
structur,0.020360
submit,0.043648
suprem,0.035686
technolog,0.025125
term,0.065867
themselv,0.025849
tiga,0.104199
tigray,0.086481
time,0.015418
turn,0.024091
variou,0.019838
vest,0.045706
vice,0.040344
water,0.026881
wherebi,0.039375
year,0.017587
yefedereshn,0.100890
yehizbtewekayoch,0.100890
