administr,0.033871
anthoni,0.057207
appeal,0.045116
appoint,0.119469
assembl,0.037818
associ,0.023664
attorney,0.066520
bank,0.035033
branch,0.093191
cabinet,0.049145
caribbean,0.167445
caricom,0.078255
chang,0.022056
committe,0.041977
consist,0.052378
constitu,0.045821
council,0.178397
court,0.111342
current,0.025050
decolon,0.071858
defenc,0.047633
democrat,0.076682
depend,0.025818
develop,0.019569
divid,0.031029
divis,0.033914
donaldson,0.090317
eastern,0.078204
eclac,0.088149
elect,0.138986
execut,0.178431
exercis,0.040476
financ,0.037329
fiveyear,0.057367
framework,0.036091
gener,0.018101
georg,0.036306
govern,0.071866
governor,0.184953
ha,0.016797
head,0.032521
hi,0.022587
high,0.025507
icftu,0.078688
includ,0.017487
independ,0.025873
intern,0.044150
interpol,0.058860
island,0.074674
judici,0.048360
judiciari,0.056047
justic,0.042572
kingdom,0.067013
legisl,0.231354
legislatur,0.103050
level,0.025183
list,0.023417
mead,0.074641
member,0.080606
militari,0.034067
monarch,0.055614
montserrat,0.625430
movement,0.058076
multiparti,0.054030
nation,0.046669
nonselfgovern,0.086524
organ,0.045939
outgo,0.078114
oversea,0.050227
parish,0.070567
parliamentari,0.048225
parti,0.032543
particip,0.033220
peopl,0.023217
peter,0.038399
place,0.023815
polit,0.052860
power,0.049423
premier,0.302254
prosper,0.049920
replac,0.031208
repres,0.025122
respons,0.026562
reuben,0.091725
romeo,0.094143
saint,0.153630
secretari,0.050034
selfgovern,0.060734
state,0.018649
subbureau,0.092882
suprem,0.043646
term,0.020140
territori,0.111918
unit,0.085990
vest,0.055901
wa,0.017475
wcl,0.081790
wherebi,0.048158
