abroad,0.012468
absent,0.013993
absolut,0.009738
accept,0.007208
accord,0.017224
act,0.026249
action,0.028219
actual,0.007348
addit,0.011617
administr,0.016055
advic,0.049983
advis,0.011605
advisor,0.014709
age,0.007190
agenc,0.009032
allow,0.005709
alway,0.015441
amend,0.012107
appoint,0.066069
approv,0.019726
approxim,0.007824
attend,0.032866
attorney,0.031532
auditor,0.019428
author,0.032323
basi,0.007151
becom,0.005542
befor,0.017738
bia,0.013201
bodi,0.013894
bord,0.025873
borough,0.021103
bound,0.010359
broad,0.009299
bunreacht,0.029246
cabinet,0.139777
candid,0.021360
carri,0.014949
case,0.011595
castl,0.015722
ceas,0.035137
ceremoni,0.012799
certain,0.006346
charg,0.008948
chief,0.019311
choos,0.009974
circul,0.012132
citizen,0.009489
civil,0.047724
claus,0.015445
coalit,0.033709
collect,0.013528
command,0.009729
commerci,0.008884
commiss,0.027697
common,0.005607
commonli,0.007701
commun,0.006063
compli,0.015289
compon,0.007986
compris,0.009487
comptrol,0.019751
confer,0.009128
confid,0.011863
consent,0.014233
consid,0.010817
consist,0.012414
constitut,0.087872
constitution,0.019175
contain,0.006653
contempt,0.019257
continu,0.011238
contradict,0.012387
convent,0.008980
correspond,0.008419
costello,0.024624
council,0.008456
counti,0.027602
court,0.026389
creat,0.005672
current,0.017811
d,0.007507
decis,0.007819
declar,0.008957
deem,0.012551
defenc,0.033868
defin,0.006364
defunct,0.016391
deleg,0.013094
depart,0.048789
deputi,0.012419
differ,0.014749
dil,0.397427
direct,0.012316
directli,0.007451
discret,0.010938
dismiss,0.012356
dissolut,0.027952
dissolv,0.023037
distinct,0.007142
document,0.008953
doe,0.012550
dublin,0.034368
duti,0.022071
economi,0.007625
educ,0.014226
elect,0.008235
employe,0.046798
energi,0.007816
engag,0.008842
enjoy,0.021259
entir,0.014484
eport,0.028502
esb,0.028502
establish,0.005958
eurolearnorg,0.031557
everi,0.006986
execut,0.059206
exercis,0.019186
exist,0.005552
expect,0.007671
expenditur,0.012345
explicitli,0.011366
extern,0.004366
fail,0.016789
financ,0.008847
finian,0.029246
follow,0.004776
forc,0.017953
form,0.004563
formal,0.014942
free,0.006819
frequent,0.008393
fulfil,0.012073
fulli,0.009001
function,0.018338
fundament,0.015291
gener,0.021451
given,0.005988
glanc,0.019950
govern,0.278206
grant,0.009153
group,0.005385
h,0.008293
ha,0.027868
hall,0.011328
head,0.015415
health,0.024970
held,0.007059
hi,0.005353
higgin,0.020961
hireann,0.027894
histori,0.004972
hold,0.007191
holder,0.027148
home,0.008525
hous,0.032037
howev,0.014536
ida,0.015693
imparti,0.018196
imprison,0.014197
inaugur,0.013793
includ,0.012434
independ,0.006132
individu,0.006158
inelig,0.021103
inform,0.005935
instanc,0.008085
invas,0.010887
ireann,0.404026
ireland,0.199670
irish,0.070803
john,0.006791
judg,0.011025
judgment,0.012652
junior,0.062947
justic,0.010090
keho,0.023717
knowledg,0.007509
known,0.004988
labour,0.010106
laid,0.011266
larg,0.010521
largest,0.024733
law,0.024053
lead,0.005955
leader,0.008728
legal,0.016473
letter,0.009853
limit,0.006095
link,0.004340
list,0.005550
littl,0.007639
local,0.006760
longer,0.008232
lower,0.022126
maintain,0.006959
major,0.010590
make,0.005075
mandamu,0.029246
maximum,0.010853
mcgrath,0.024051
meet,0.024227
member,0.146468
merrionstreeti,0.030205
michael,0.009185
minist,0.306183
ministeri,0.016629
na,0.030185
near,0.008206
necessari,0.007954
new,0.004458
news,0.010893
nomin,0.093757
non,0.014385
noncommerci,0.019703
nonmemb,0.021327
normal,0.015911
number,0.004993
oath,0.017031
occasion,0.011259
occur,0.006341
offic,0.096404
offici,0.007577
oireachta,0.114008
onli,0.004594
oper,0.006296
oppos,0.008340
order,0.005500
otherwis,0.009493
paper,0.008235
parliament,0.020132
parliamentari,0.022860
parti,0.023139
particip,0.023621
particular,0.006247
partit,0.013825
patrick,0.014453
paul,0.008675
peopl,0.016508
person,0.019592
phrase,0.012025
polici,0.007386
polit,0.012528
portfolio,0.027458
posit,0.005915
post,0.019372
power,0.029284
preced,0.010843
prescrib,0.013976
presid,0.182090
presidenti,0.011703
presidentieenthepresidentconstitutionalrol,0.030205
presidentth,0.027894
prime,0.036782
protect,0.007627
provid,0.005077
provis,0.011147
public,0.057639
q,0.012817
question,0.007187
receiv,0.006934
recent,0.006285
refer,0.014518
reform,0.008878
refus,0.021185
regard,0.006963
regim,0.010577
regul,0.017186
remain,0.006003
renam,0.012601
repres,0.005954
republ,0.017038
resid,0.009616
resign,0.062019
respons,0.012591
retain,0.019090
retir,0.012350
rialta,0.030205
right,0.006513
role,0.012717
rt,0.018547
rule,0.013251
scenario,0.013147
seanad,0.058492
secretari,0.023717
sector,0.085645
seen,0.007122
serv,0.021676
servic,0.106080
seven,0.028575
shall,0.052997
sinc,0.015154
singl,0.006760
special,0.006317
specif,0.006044
st,0.008143
stand,0.009493
state,0.053040
stateown,0.014873
statu,0.008436
statutori,0.016844
step,0.008565
structur,0.005902
style,0.010408
subject,0.006426
successor,0.022694
super,0.032782
suppli,0.008235
support,0.012012
suprem,0.020689
taoiseach,0.460497
technic,0.008984
telegraph,0.015636
term,0.019093
theoret,0.008283
therefor,0.013732
thi,0.018892
thu,0.011810
titl,0.009067
tnaist,0.057004
total,0.014096
transfer,0.008644
treati,0.010549
ultim,0.008737
undertak,0.013713
upper,0.010201
usual,0.012158
venu,0.015289
vest,0.013249
vote,0.009579
wa,0.016567
war,0.014352
whatev,0.012436
whenev,0.014215
whip,0.019563
work,0.004952
writ,0.020388
write,0.007898
year,0.025490
