achiev,0.006576
act,0.005975
administr,0.007309
affair,0.034577
affect,0.006831
alan,0.033248
alleg,0.010810
amend,0.011024
andrew,0.031852
ani,0.004607
ann,0.024488
approv,0.008980
april,0.015995
assembl,0.008161
assist,0.023384
basi,0.006511
bbc,0.011893
ben,0.013481
breckon,0.027502
broken,0.010510
brought,0.007770
candid,0.019449
cap,0.012860
chamber,0.011203
chief,0.140670
cohen,0.041696
colleagu,0.011412
collect,0.006159
commit,0.008850
conduct,0.007237
confidenti,0.015750
conntabl,0.023051
constabl,0.017690
constitut,0.013334
contest,0.011110
controversi,0.008321
coordin,0.008951
council,0.061598
critic,0.006211
cultur,0.025397
current,0.005406
data,0.006739
decemb,0.015498
decid,0.016459
decis,0.007119
defeat,0.039964
deni,0.009789
depart,0.007403
deputi,0.384491
develop,0.016892
discuss,0.006890
doe,0.005713
duhamel,0.070674
econom,0.016691
educ,0.025907
elect,0.134972
elimin,0.017583
email,0.014861
environ,0.026956
especi,0.005903
establish,0.005425
exchang,0.007186
execut,0.023103
face,0.007630
fail,0.007643
farnham,0.024930
fay,0.039278
februari,0.008259
final,0.006575
focu,0.007458
follow,0.004348
foreign,0.014153
formal,0.006802
fourth,0.009485
franci,0.010410
frank,0.010644
freddi,0.057644
geoff,0.038699
gorst,0.055005
govern,0.005169
green,0.018698
gresley,0.027502
guy,0.029536
health,0.037894
held,0.012855
hi,0.034120
higgin,0.019085
hold,0.006548
home,0.031051
hous,0.021878
howev,0.008824
hrissier,0.110010
ian,0.067113
initi,0.005906
institut,0.005752
jackson,0.014063
jame,0.007667
jersey,0.134620
jim,0.028737
john,0.006183
judi,0.018901
juli,0.007852
june,0.023760
kevin,0.028527
kinnard,0.027502
law,0.010950
le,0.151573
legal,0.014999
legisl,0.008321
len,0.013786
lewi,0.034223
lyndon,0.017983
maclean,0.042131
main,0.017260
major,0.024107
manifesto,0.014328
margin,0.009959
marquand,0.101593
martin,0.028858
matter,0.013672
member,0.023193
membership,0.010010
mike,0.045269
minist,0.508376
ministerelect,0.025398
ministeri,0.075705
nomin,0.113824
nomine,0.017143
norman,0.012804
novemb,0.008150
number,0.004546
offic,0.007314
onli,0.004183
oper,0.005733
order,0.005008
ozouf,0.103807
parliamentari,0.010407
parti,0.007022
patrick,0.013160
paul,0.015798
peopl,0.005010
perchard,0.055005
person,0.011893
philip,0.044680
place,0.015418
plan,0.034411
polici,0.020175
posit,0.010771
post,0.061738
power,0.015998
practic,0.005575
predecessor,0.022725
present,0.005210
presid,0.007536
prevent,0.007450
previou,0.007858
prioritis,0.020223
properti,0.006309
propos,0.012858
protect,0.006945
pryke,0.055005
radio,0.010668
receiv,0.075771
reed,0.125667
refault,0.027502
refer,0.003304
relationship,0.006308
remain,0.005465
remark,0.010136
replac,0.020204
repres,0.005421
resign,0.056469
resourc,0.006690
respons,0.005732
rest,0.007743
retain,0.008691
rob,0.047378
role,0.011579
round,0.052347
routier,0.220021
roy,0.013552
ryan,0.016918
sean,0.034422
second,0.005424
secur,0.021065
senat,0.442182
send,0.010335
servic,0.064392
shenton,0.027502
sinc,0.004599
social,0.046810
sole,0.009336
southern,0.017073
sport,0.043696
state,0.036221
stood,0.012373
strateg,0.010038
stuart,0.038270
subsequ,0.007177
success,0.012199
sueur,0.049050
suicid,0.013187
surround,0.008423
syvret,0.074791
taken,0.006734
talkback,0.025951
technic,0.040902
terri,0.077732
tiebreak,0.022826
transport,0.039426
treasuri,0.048898
trigger,0.011188
ultim,0.007955
unanim,0.014505
unoppos,0.018357
unproven,0.017423
urg,0.012139
varieti,0.006906
vibert,0.027502
vigor,0.013307
vote,0.261672
wa,0.041485
walker,0.014491
wendi,0.018165
withdraw,0.011055
withdrew,0.012926
