abdullah,0.020597
abeid,0.063176
acclaim,0.020313
addit,0.013624
administr,0.028244
adopt,0.009292
africa,0.010935
african,0.023604
agreement,0.030834
agricultur,0.010008
aika,0.034298
ali,0.033385
alloc,0.026875
allow,0.006696
alphabet,0.032428
amani,0.032713
amin,0.020424
appeal,0.062702
appli,0.014396
appoint,0.066414
approv,0.011567
april,0.010301
arrang,0.010977
arusha,0.028641
assembl,0.105118
attack,0.010856
attorney,0.036979
augustin,0.018082
author,0.015163
becom,0.012999
befor,0.006934
begin,0.007916
benjamin,0.030791
boat,0.016185
boycot,0.020538
boycott,0.019998
branch,0.025903
british,0.009065
bukoba,0.034298
bullet,0.020075
bung,0.048845
byelect,0.072365
cabinet,0.027320
came,0.008890
candid,0.025051
case,0.006799
ccm,0.192213
cha,0.106759
chadema,0.034298
chairman,0.015380
chama,0.122863
chang,0.012261
charl,0.010414
cheyo,0.034298
chief,0.011324
chosen,0.024852
christoph,0.014251
citi,0.009391
civic,0.017714
claim,0.008254
classifi,0.011000
coloni,0.011245
commerci,0.010419
commiss,0.032482
common,0.006576
commun,0.007111
complet,0.007511
compris,0.011126
concurr,0.016769
condit,0.007610
conduct,0.009321
consid,0.006342
constitu,0.025472
constitut,0.034351
construct,0.008422
convent,0.010531
council,0.019834
court,0.134110
creat,0.006652
cuf,0.210020
cultur,0.008177
current,0.020889
dar,0.048845
death,0.009525
decemb,0.009981
decid,0.010599
defeat,0.025737
democraci,0.036345
democracia,0.026047
democrat,0.031971
demonstr,0.009776
design,0.007988
develop,0.005439
direct,0.014444
directli,0.008739
district,0.052623
divid,0.008624
divis,0.018853
dmoz,0.014405
dodoma,0.032713
doe,0.007359
domin,0.008950
eac,0.026832
earli,0.006549
east,0.020135
econom,0.014332
educ,0.025026
elect,0.202819
elector,0.056192
elig,0.016380
empow,0.018438
enact,0.029031
end,0.007159
entir,0.008493
es,0.020747
especi,0.007603
establish,0.006988
execut,0.029757
exercis,0.011250
exofficio,0.027133
expel,0.015788
extern,0.005120
fair,0.013262
februari,0.010638
feder,0.010425
figur,0.009697
financ,0.010375
firstev,0.023979
fivelevel,0.034298
fiveyear,0.031891
flee,0.016791
food,0.010077
forc,0.007018
framework,0.010031
frederick,0.015796
free,0.015996
freedom,0.011053
freeman,0.017522
fundikira,0.034298
ga,0.011780
gener,0.025157
govern,0.066585
grate,0.023278
ha,0.028013
hamad,0.053664
hassan,0.021234
head,0.018078
health,0.009761
held,0.016557
help,0.007665
hi,0.012556
high,0.021270
higher,0.008324
histori,0.005832
hold,0.008434
hous,0.122109
hundr,0.010638
hybrid,0.014628
improv,0.008616
includ,0.014582
increas,0.020199
independ,0.021575
index,0.011123
injur,0.017756
inquiri,0.013966
intellig,0.010925
investig,0.009811
involv,0.013575
iringa,0.032713
irregular,0.016380
islam,0.023312
island,0.010378
isnt,0.019002
issu,0.007513
jame,0.009875
januari,0.029978
john,0.007964
judg,0.025860
judici,0.013442
judiciari,0.031157
juliu,0.035628
junior,0.018455
jurisdict,0.028422
justic,0.011833
kambarag,0.032713
karum,0.098139
kenya,0.019479
kick,0.021791
kigomaujiji,0.034298
known,0.005850
labour,0.011852
law,0.049365
leader,0.020472
led,0.022665
legal,0.019319
legisl,0.021435
legislatur,0.028643
lindi,0.030715
link,0.005090
list,0.006509
live,0.007568
local,0.015856
long,0.007600
lyatonga,0.034298
maendeleo,0.033426
magistr,0.018388
main,0.007410
mainland,0.076030
major,0.006210
make,0.011904
mapinduzi,0.096331
mar,0.016018
mark,0.009398
matter,0.026414
mbatia,0.034298
mbeya,0.034298
mbow,0.034298
member,0.156835
mid,0.023312
minist,0.031683
ministri,0.012585
mkapa,0.098139
model,0.007291
moham,0.019041
morogoro,0.034298
moshi,0.031588
mostli,0.009986
mrema,0.034298
mtikila,0.034298
mtwaramikindani,0.034298
multiparti,0.075091
municip,0.014263
musoma,0.034298
mwalimu,0.032713
mwanza,0.031588
mwinyi,0.031588
na,0.017700
nation,0.051888
natur,0.006248
nccrmageuzi,0.034298
nd,0.010890
ninetynin,0.032110
nomin,0.048868
nonelect,0.025817
nonunion,0.029130
number,0.017567
nyerer,0.054585
observ,0.007725
occur,0.007436
octob,0.020243
offic,0.028264
offici,0.008886
oneparti,0.020538
onli,0.010776
onyangoobbo,0.034298
oper,0.007384
ostens,0.018963
parallel,0.012128
parliament,0.106247
parliamentari,0.026809
parti,0.117592
particip,0.009233
particular,0.007326
partli,0.012585
pass,0.009093
peac,0.011288
pemba,0.087391
peopl,0.006453
place,0.006619
polic,0.013017
polit,0.044078
politician,0.014042
popular,0.025122
power,0.013737
presid,0.165014
presidenti,0.041177
previou,0.010121
primari,0.008860
prime,0.032352
principl,0.008057
proport,0.011097
propos,0.008281
protest,0.012473
purpos,0.008730
rank,0.022664
reconcili,0.035628
refer,0.008513
reform,0.020825
reformmageuzi,0.034298
refuge,0.015936
regim,0.012404
region,0.007622
registr,0.016575
rel,0.007632
relationship,0.008125
report,0.008181
repres,0.069828
republ,0.019981
resid,0.011277
resourc,0.008617
respect,0.008095
result,0.005929
reverend,0.022683
revolutionari,0.027094
rival,0.014064
rule,0.023311
rural,0.013766
salaam,0.026420
scienc,0.007159
seat,0.163762
second,0.006986
secur,0.009044
seen,0.008352
seif,0.061431
select,0.009256
semiautonom,0.024050
septemb,0.010265
serv,0.033894
set,0.006594
share,0.008295
shariff,0.064220
shein,0.034298
shinyanga,0.034298
sign,0.009754
similarli,0.011223
singida,0.034298
socialist,0.026506
son,0.011343
special,0.014818
specif,0.007088
state,0.025918
subsequ,0.009245
suffrag,0.017416
sumay,0.031588
tabora,0.032110
tanga,0.032110
tanganyika,0.025394
tanzania,0.358184
tanzanian,0.050991
teacher,0.013576
tear,0.019002
technolog,0.008541
term,0.033588
test,0.009685
th,0.006793
tlp,0.030715
tourism,0.013782
town,0.012165
tri,0.009325
tribal,0.016523
udp,0.026979
uganda,0.020424
umd,0.029400
undertook,0.018472
unicamer,0.036134
union,0.061624
uniondesign,0.034298
uniqu,0.010101
unit,0.023901
unitari,0.018594
univers,0.006135
unregist,0.025012
urban,0.024852
use,0.004840
vacant,0.021559
vacat,0.020341
valid,0.011313
vest,0.015538
vice,0.013715
violenc,0.014109
vision,0.012832
vote,0.056172
w,0.009940
wa,0.029145
way,0.006334
wherebi,0.013386
whi,0.010900
wide,0.007630
wikipedia,0.019041
win,0.013321
women,0.033824
won,0.023985
work,0.005807
year,0.023915
zanzibar,0.563538
zanzibari,0.031588
