abrog,0.014981
accord,0.004541
accus,0.009107
achiev,0.005713
acp,0.013505
act,0.005190
actingpresid,0.021657
activ,0.009063
add,0.008660
addit,0.004594
administ,0.008902
administr,0.006349
advoc,0.007795
af,0.016080
afdb,0.014540
affair,0.007509
affect,0.005934
africa,0.029501
african,0.047759
afterward,0.010003
agre,0.006847
agreement,0.013864
air,0.006976
alcohol,0.010426
alleg,0.037562
allow,0.009032
amend,0.047885
amid,0.012044
anc,0.016749
angola,0.027551
ani,0.004002
appar,0.007752
appeal,0.016916
appoint,0.037328
arbitrari,0.009806
area,0.004510
argument,0.007630
armi,0.007811
arrest,0.009980
articl,0.005397
assembl,0.056717
assent,0.014298
assum,0.006291
attack,0.007322
attain,0.009193
attempt,0.010360
attribut,0.007059
august,0.027604
authoritarian,0.011651
award,0.008006
away,0.006918
ban,0.009150
banda,0.069956
base,0.007914
becam,0.010010
befor,0.004676
began,0.005468
begun,0.008706
bemba,0.019829
bilater,0.010415
blind,0.011207
bodi,0.005495
boycot,0.013852
boycott,0.013488
branch,0.023293
bridg,0.009047
briefli,0.010157
bring,0.006807
british,0.006114
byelect,0.032537
c,0.005240
cabinet,0.009213
campaign,0.008232
candid,0.059135
candidaci,0.015862
capit,0.005964
carri,0.005912
ceasefir,0.038853
central,0.010282
chagwa,0.046265
challeng,0.019654
chang,0.004134
charg,0.007077
chief,0.007637
chiluba,0.257777
chilufya,0.023132
chiluyfa,0.023132
chosen,0.008380
citizen,0.007505
civil,0.006291
clark,0.031858
clear,0.006826
collaps,0.008079
column,0.010420
coma,0.016318
comesa,0.019829
commiss,0.029210
commit,0.007687
committe,0.023608
commod,0.026708
common,0.004435
commonwealth,0.009474
commun,0.004796
complet,0.005066
compliment,0.017266
compris,0.007504
conclud,0.007502
condemn,0.010331
confer,0.007220
congo,0.012517
congoles,0.016268
congress,0.008219
consider,0.006164
consist,0.004909
constitu,0.008590
constitut,0.104256
construct,0.005680
contenti,0.013035
contest,0.028954
continu,0.013334
cooper,0.014022
copper,0.010186
copperbelt,0.021304
corrupt,0.027019
count,0.008366
countri,0.028964
coup,0.009990
court,0.083493
cover,0.006039
crimin,0.018583
criticis,0.010797
critiqu,0.009319
current,0.009392
day,0.005535
death,0.019274
debat,0.006829
decemb,0.033658
decid,0.014298
decis,0.006184
declar,0.014170
defector,0.018196
defens,0.016102
demand,0.013098
democraci,0.024513
democrat,0.014375
demonstr,0.006593
deport,0.012625
depreci,0.026217
deriv,0.005577
design,0.005388
despit,0.006220
develop,0.007337
dialogu,0.010240
die,0.007028
differ,0.007777
difficult,0.006398
diminish,0.009931
directli,0.011788
divid,0.005816
dmoz,0.009715
draft,0.018934
drew,0.010110
drop,0.008051
dure,0.012668
duti,0.008729
earli,0.017669
earn,0.008301
eastern,0.007330
eca,0.015167
econom,0.004833
edgar,0.038729
effort,0.018349
elect,0.234500
elector,0.018949
elimin,0.007637
embezzl,0.015510
emerg,0.005660
enabl,0.007003
enact,0.009790
encount,0.008698
encourag,0.007258
end,0.019314
enlarg,0.011280
era,0.006977
essenti,0.006139
establish,0.014139
ethnic,0.008715
exclus,0.007544
execut,0.026760
exercis,0.015176
exert,0.010133
expenditur,0.009765
expens,0.007887
exploit,0.008221
export,0.008101
extens,0.005963
extern,0.006906
eye,0.008829
face,0.019886
fade,0.012613
fail,0.006640
fair,0.008944
fall,0.006028
fao,0.012014
far,0.005988
faulti,0.014185
fear,0.008286
februari,0.014350
fight,0.008286
figur,0.006540
final,0.005712
firmli,0.011543
firstpastthepost,0.018096
fiveyear,0.010754
flamboy,0.018096
follow,0.018888
forc,0.014200
foreign,0.006147
form,0.003609
formal,0.005909
formerli,0.008846
formul,0.007562
framework,0.006766
frederick,0.031962
frederik,0.016268
free,0.005394
g,0.012777
gather,0.008232
gave,0.013743
gener,0.010180
genocid,0.012776
global,0.006271
govern,0.049399
governor,0.008668
great,0.005322
group,0.012779
grow,0.012111
guy,0.025658
ha,0.015745
hakaind,0.023132
halt,0.010760
head,0.018290
headquart,0.010463
held,0.044668
hi,0.042343
hichilema,0.023132
hierarchi,0.009623
high,0.014345
higher,0.005614
highest,0.007231
histori,0.003933
hit,0.009777
hold,0.005688
home,0.006743
hotli,0.016220
howev,0.011498
human,0.009099
iaea,0.013244
ibrd,0.012687
icao,0.012699
icct,0.015904
icftu,0.014751
icrm,0.013093
ida,0.012413
ifad,0.012882
ifc,0.012738
ifrc,0.012923
ilo,0.012458
imf,0.010342
immedi,0.006942
immun,0.010337
implement,0.006575
import,0.004027
impress,0.009639
improprieti,0.019647
improv,0.005811
includ,0.009834
increasingli,0.013924
inde,0.008029
independ,0.024252
individu,0.004871
initi,0.010262
intent,0.007947
intern,0.024830
interpol,0.011034
ioc,0.012313
iom,0.013931
irregular,0.022096
issu,0.020270
itu,0.012390
januari,0.026958
joint,0.008315
judg,0.008720
judici,0.009066
juli,0.006821
justic,0.015961
kaunda,0.264437
kenneth,0.021193
key,0.006009
kinshasa,0.017266
klerk,0.020235
kwacha,0.040048
labor,0.007752
landslid,0.013404
late,0.005466
later,0.004695
latest,0.010545
law,0.009512
lead,0.009421
leader,0.034519
leadership,0.008566
leav,0.006686
led,0.015287
legal,0.006515
legisl,0.028914
lengthi,0.012313
leon,0.011746
levi,0.033287
liber,0.007118
limit,0.014465
link,0.003433
local,0.010694
longer,0.006511
longstand,0.011408
longtim,0.013454
lost,0.013721
lungu,0.161929
lusaka,0.052703
magistr,0.012401
major,0.025130
make,0.004014
mandat,0.009836
mani,0.007136
manipul,0.008452
mantra,0.015510
margin,0.025955
market,0.011819
mate,0.011836
maximum,0.008584
member,0.065481
michael,0.043592
mid,0.015722
militari,0.012773
minist,0.021369
mmd,0.290029
monopoli,0.020229
monuc,0.017412
mount,0.009203
movement,0.016331
mozambiqu,0.027044
multiparti,0.060774
mwanakatw,0.023132
mwanawasa,0.281541
nam,0.024849
namibia,0.014185
narrow,0.017829
nation,0.061243
nationwid,0.011995
negoti,0.008263
new,0.021158
newspap,0.009773
nonalign,0.013035
noncontenti,0.022544
nongovernment,0.012625
northern,0.022140
novemb,0.007080
number,0.003949
numer,0.005848
oau,0.030083
observ,0.005210
occur,0.005015
octob,0.040959
offic,0.063544
oneparti,0.055410
onli,0.007268
opcw,0.012855
oppos,0.006597
opposit,0.077950
order,0.017401
organ,0.012918
organis,0.007474
origin,0.004375
outcom,0.016142
overal,0.007225
overwhelm,0.010585
parent,0.008890
parliament,0.047772
parliamentari,0.072326
parti,0.128117
particip,0.018683
participatori,0.014229
particular,0.004941
pass,0.006133
patriot,0.034558
pca,0.014416
peac,0.022840
peacekeep,0.011995
peopl,0.004352
perform,0.005549
permit,0.008040
persist,0.008950
person,0.010331
petit,0.011677
philosophi,0.006721
physic,0.005165
place,0.008929
play,0.005699
polici,0.011684
polit,0.039638
poll,0.010988
popular,0.011296
posit,0.004678
post,0.007661
power,0.023163
predecessor,0.019741
predetermin,0.012965
present,0.009052
presid,0.248776
presidenti,0.148118
pressur,0.006814
previous,0.006901
price,0.006701
primarili,0.006188
princip,0.007071
problem,0.004841
process,0.004279
profil,0.009773
progress,0.006169
promin,0.021296
promulg,0.011543
protect,0.006033
protest,0.008412
protocol,0.010235
provid,0.008033
provinc,0.033474
provinci,0.010948
publish,0.005024
push,0.008608
quash,0.033863
race,0.008893
reelect,0.046777
refer,0.002870
referendum,0.029902
reform,0.007022
region,0.010282
regist,0.008902
registr,0.011179
reject,0.007077
relat,0.003871
reli,0.006918
reloc,0.011836
remain,0.014244
remaind,0.010654
renew,0.008395
replac,0.005850
report,0.011036
repres,0.004709
republ,0.020214
requir,0.004519
resid,0.007606
resolv,0.008339
resoundingli,0.020024
respect,0.005459
respons,0.004979
result,0.019996
resum,0.010981
retroact,0.014892
review,0.006432
rhodesia,0.031641
rhodesian,0.017412
riot,0.011471
rise,0.005777
rivalri,0.011827
role,0.005029
root,0.007252
roy,0.011773
rule,0.026203
run,0.018928
rupiah,0.059487
rwanda,0.029448
rwandan,0.016995
s,0.016287
sadc,0.033618
sata,0.157810
satir,0.026678
scott,0.042500
seat,0.076465
second,0.004712
secondrank,0.020465
secretari,0.009379
seek,0.006442
select,0.006243
separ,0.005245
septemb,0.013847
seri,0.005719
seriou,0.016085
serv,0.011430
servic,0.005593
set,0.008894
sever,0.008331
sharpli,0.011295
sierra,0.013421
sign,0.019736
signific,0.005100
simpl,0.006348
sinc,0.007991
singl,0.005347
singlememb,0.016471
sixth,0.010608
slim,0.015584
societi,0.005006
sole,0.024331
somewhat,0.016941
south,0.012514
southern,0.029663
speaker,0.020521
split,0.008212
sponsor,0.010017
state,0.024473
stem,0.008981
step,0.006775
stipul,0.024167
streak,0.016126
strength,0.008103
stress,0.008193
strong,0.005805
strongli,0.007701
subject,0.005083
submit,0.020016
subsequ,0.012470
succeed,0.016337
success,0.010597
suddenli,0.011854
suffici,0.007387
support,0.023753
suprem,0.008182
supremaci,0.013064
suspicion,0.012842
swept,0.013064
sworn,0.050901
talk,0.008598
task,0.007412
technic,0.007106
temporari,0.009423
term,0.033980
thi,0.002988
thu,0.009341
took,0.012483
total,0.011150
tri,0.012578
trial,0.009117
tribun,0.012413
troop,0.009018
true,0.006469
tumultu,0.016525
turbul,0.012390
turn,0.005523
twoterm,0.020465
unamsil,0.019166
unclear,0.010496
unctad,0.012424
unesco,0.010853
unicamer,0.024371
unido,0.012750
union,0.005937
unip,0.331462
unit,0.016120
uniti,0.008782
unjustifi,0.015135
unme,0.018519
unmik,0.016173
unsubstanti,0.017648
upheld,0.013992
upnd,0.023132
upp,0.038953
upu,0.012175
use,0.003264
usmilitari,0.018407
usual,0.004808
valu,0.005121
variou,0.004548
vest,0.010479
vice,0.009250
vicepresid,0.025819
victor,0.010754
view,0.005121
visibl,0.008831
vote,0.022731
voter,0.010718
wa,0.095009
wane,0.013035
wcl,0.015333
wco,0.014229
western,0.006010
wherebi,0.009028
white,0.007586
widespread,0.007676
willem,0.014751
wipo,0.012687
wit,0.009732
wmo,0.012576
won,0.040442
work,0.003917
wto,0.012576
wtoo,0.014141
ye,0.025501
year,0.024195
zambia,0.336208
zambian,0.203718
zambianborn,0.022063
zdf,0.046265
zeal,0.016268
zimbabw,0.013064
znsthe,0.023132
