approv,0.101308
becam,0.064998
branch,0.075620
chang,0.053694
claim,0.036148
close,0.031864
collect,0.034738
collectivit,0.342187
comoro,0.105315
conseil,0.104113
constitu,0.055773
constitut,0.037606
council,0.130285
daniel,0.059239
dego,0.146374
democrat,0.046668
depart,0.083519
design,0.034982
dom,0.104113
doutrem,0.226110
dpartement,0.208227
dpartemental,0.292748
elect,0.084585
execut,0.086873
exercis,0.049267
follow,0.024528
framework,0.043930
franc,0.131687
french,0.041265
gener,0.066098
gnral,0.111646
govern,0.087474
ha,0.020445
head,0.118752
island,0.045446
legisl,0.046933
local,0.034718
mahoran,0.136309
mainland,0.066588
march,0.085012
mayott,0.538234
member,0.032704
multiparti,0.065765
oversea,0.183406
overwhelmingli,0.083125
parliamentari,0.058699
parti,0.039610
particular,0.032083
place,0.057975
polit,0.096510
power,0.030078
prefect,0.098900
presid,0.127518
referendum,0.129432
reform,0.045597
region,0.033380
repres,0.061156
result,0.025965
seat,0.055163
set,0.028876
singl,0.034718
state,0.022699
statu,0.129984
term,0.024514
thi,0.019404
thoma,0.046406
threeyear,0.085110
titl,0.046567
veri,0.029627
voter,0.069593
wa,0.042542
wherebi,0.058617
zaidani,0.146374
