aborigin,0.045548
academi,0.029240
acadmi,0.026949
accademia,0.027894
accord,0.007589
acknowledg,0.014634
act,0.008674
affect,0.009917
african,0.013302
age,0.009504
agenda,0.017680
agit,0.022569
albert,0.061699
alphabet,0.018275
ani,0.006688
antihindi,0.039926
applic,0.009063
approach,0.008734
april,0.011610
aql,0.072383
arab,0.028035
arabica,0.035603
arkadiusz,0.072383
artist,0.015927
associ,0.007413
au,0.021760
australia,0.013191
australian,0.015784
autonm,0.039926
autonom,0.015346
autour,0.039926
bangladesh,0.021666
barcelona,0.047485
base,0.006613
bastardasboada,0.159704
belgium,0.035925
bernard,0.017823
bilingu,0.025567
biolog,0.010853
board,0.039606
brand,0.018496
brd,0.037674
cambridg,0.024277
canada,0.039382
case,0.007663
categor,0.015580
census,0.027615
central,0.008591
centuri,0.007870
chang,0.013820
charter,0.032976
ciral,0.039926
citizen,0.012543
classifi,0.012398
cohes,0.019887
collect,0.008941
commun,0.016030
complex,0.008969
concern,0.008606
consid,0.007149
contain,0.008794
conting,0.017804
council,0.033533
countri,0.024201
court,0.011627
crawford,0.026949
croatia,0.021980
croatian,0.025085
crusca,0.039926
culmin,0.016243
cultiv,0.015657
cultur,0.027652
current,0.007848
dan,0.079425
danc,0.019659
danger,0.014399
dapr,0.032833
day,0.009250
death,0.010736
decemb,0.011249
decis,0.010335
defend,0.013716
defin,0.008412
degre,0.010039
della,0.023972
der,0.016043
design,0.018008
destudi,0.039926
determin,0.008513
die,0.011746
differ,0.006498
direct,0.008140
disappear,0.015586
discourag,0.018508
dispers,0.016824
divers,0.035371
diverscit,0.039926
divis,0.010624
doe,0.008294
dure,0.007056
dutch,0.015056
econom,0.008076
edicion,0.031565
educ,0.009402
effect,0.007169
elabor,0.015357
elana,0.039926
elsewher,0.015215
empower,0.024791
en,0.018137
english,0.010279
era,0.011660
establish,0.007876
estim,0.010385
et,0.012686
ethnic,0.014564
eu,0.016069
euphona,0.039926
europ,0.020015
europa,0.024428
european,0.009192
exacerb,0.020433
exampl,0.013219
exist,0.014678
expens,0.013181
explain,0.009935
explicit,0.032231
explor,0.011245
extern,0.005771
fact,0.009370
factor,0.018715
favor,0.012190
februari,0.011990
finland,0.039468
fora,0.028295
formal,0.009875
franais,0.077219
franc,0.022596
francoist,0.032029
french,0.053105
frenchlanguag,0.035084
gaeilg,0.039926
gaelic,0.030242
gain,0.009601
geograph,0.012835
german,0.011145
germani,0.011883
geuthner,0.039926
ghilad,0.071206
gidhlig,0.039926
given,0.015830
global,0.010480
glocal,0.036191
glossa,0.039926
good,0.008774
govern,0.022514
grimm,0.028191
groningen,0.028853
group,0.007118
ha,0.005262
half,0.010863
handbook,0.015972
hebrew,0.039620
hegemoni,0.021330
hidden,0.017379
histor,0.017730
human,0.022810
hungari,0.019543
ident,0.011300
imperi,0.015374
implement,0.010987
includ,0.010957
inde,0.013419
index,0.012537
india,0.012082
indigen,0.031470
individu,0.008140
infograph,0.030242
institut,0.008351
intellectu,0.013539
intercommun,0.029633
interdisciplinari,0.016222
intern,0.020747
irish,0.018718
isbn,0.027988
island,0.011697
jacqu,0.036615
jame,0.011130
jeught,0.039926
journal,0.020301
jurisdict,0.016017
kenan,0.033816
kingdom,0.010497
knowledg,0.009925
kordi,0.037674
la,0.039514
lamnag,0.079852
landscap,0.016452
langu,0.146132
languag,0.733902
latvia,0.046564
laval,0.091745
law,0.055639
le,0.062869
lead,0.007872
leader,0.011537
lebnaan,0.039926
leclerc,0.054213
legisl,0.024160
lengua,0.039926
lesson,0.018519
let,0.014783
lgislat,0.037674
liban,0.034619
libanais,0.071206
lide,0.063582
likewis,0.015627
line,0.009443
linguist,0.201638
linguistiqu,0.153808
link,0.005737
list,0.007336
literatur,0.011788
local,0.008936
london,0.011109
long,0.008566
luniversit,0.032833
madrid,0.022107
magyar,0.027615
maintain,0.009199
mainten,0.015827
major,0.006999
malik,0.027615
mani,0.029815
mean,0.007265
meet,0.010674
michael,0.012141
minor,0.036627
mitig,0.018963
mond,0.079316
montenegro,0.024698
montral,0.031565
mother,0.015204
movement,0.027292
multilingu,0.025085
music,0.014499
n,0.011847
na,0.039900
nacionalismo,0.039926
nadu,0.027439
nation,0.036552
nationalism,0.036871
nativ,0.027272
need,0.007930
new,0.005893
norwegian,0.020504
nouvel,0.024698
nove,0.035084
offic,0.021238
offici,0.070111
ol,0.030581
ought,0.037876
overview,0.013219
p,0.010071
pakistan,0.018033
pan,0.021808
par,0.020244
pari,0.014426
particular,0.008257
perspect,0.011805
plan,0.009991
plonka,0.079852
poland,0.018023
polici,0.224550
polit,0.008280
politician,0.015827
politiqu,0.025455
polon,0.034619
popul,0.009386
portrait,0.021395
potenti,0.009794
pp,0.012333
practic,0.008094
present,0.007564
preserv,0.012751
press,0.017807
prioriti,0.015953
promot,0.032375
properti,0.009159
prospect,0.016076
protect,0.010082
provid,0.006712
public,0.007618
publish,0.016793
purism,0.070168
qubcoi,0.068399
qubec,0.027894
quebec,0.022212
reason,0.008610
reclam,0.026171
recognis,0.014813
recueil,0.033816
refer,0.004797
reform,0.011736
region,0.025775
regul,0.022717
republika,0.031350
research,0.007783
retriev,0.014254
revista,0.029778
revit,0.023315
reviv,0.030495
revu,0.026723
right,0.043048
routledg,0.017097
russif,0.029927
sad,0.046631
said,0.009858
scientist,0.010971
scope,0.014105
scotland,0.018033
script,0.018913
secession,0.036871
serbia,0.020977
serbian,0.024012
set,0.007432
shohami,0.039926
sign,0.010994
site,0.022495
size,0.010398
skill,0.012863
sl,0.025346
slovak,0.026370
slovakia,0.045978
snjeana,0.039926
socioecolog,0.032029
socioeconom,0.019291
sociolingstica,0.039926
sociolinguist,0.027799
south,0.010456
soviet,0.028926
spain,0.028379
spanish,0.028880
speak,0.012803
speaker,0.017147
spoken,0.017962
spolski,0.035084
srpska,0.030581
st,0.010764
standard,0.008993
start,0.008452
state,0.029212
stefaan,0.039926
stop,0.013191
strait,0.020957
strife,0.022005
studi,0.007056
subsidis,0.025919
surviv,0.011516
sustain,0.013060
swedish,0.018210
tamil,0.024215
tax,0.012549
term,0.006309
territori,0.011687
thi,0.004994
threat,0.014005
threaten,0.015182
titl,0.011985
tlfq,0.039926
today,0.009592
tongu,0.022318
torr,0.024173
toubon,0.037674
transdisciplinari,0.025085
translat,0.022991
trust,0.014596
ukrainian,0.023149
understand,0.009063
union,0.029767
unit,0.006734
univers,0.006915
universit,0.050911
urdu,0.026949
usag,0.014005
use,0.027280
van,0.014606
vari,0.009843
vernacular,0.023084
vi,0.018988
viabil,0.022774
vol,0.028701
w,0.011203
wa,0.005474
walsh,0.026508
way,0.007139
web,0.028953
websit,0.012626
weight,0.013458
weirdest,0.039926
welsh,0.047712
whilst,0.017248
whyalla,0.039926
work,0.006546
world,0.033848
writer,0.013704
y,0.014219
year,0.006738
zuckermann,0.070168
