act,0.011580
addit,0.010250
administ,0.039725
administr,0.014167
affair,0.016754
afterward,0.022319
age,0.012689
alderney,0.087669
andrew,0.041156
appeal,0.018870
appoint,0.049969
april,0.015501
assent,0.063802
bailiff,0.167419
bailiwick,0.202991
base,0.008828
befor,0.020869
bodi,0.012259
branch,0.012992
british,0.027283
busi,0.013772
carri,0.013191
castel,0.077044
chair,0.022982
chang,0.009225
chief,0.034080
citizen,0.016746
civil,0.028073
colleagu,0.022119
combin,0.011669
commenc,0.024755
commiss,0.016292
committe,0.070230
common,0.009895
comptrol,0.034855
conseil,0.107330
consist,0.010954
constabl,0.137147
constitu,0.019165
constitut,0.025845
coordin,0.017349
corpor,0.016057
council,0.059693
court,0.108664
crown,0.148382
death,0.014334
decis,0.013798
deleg,0.023109
deliber,0.109541
democrat,0.016036
depart,0.014349
depend,0.032397
deputi,0.109588
deriv,0.012444
develop,0.008185
district,0.039592
divis,0.014185
douzain,0.093680
douzeni,0.140520
doyen,0.045659
effect,0.009572
elect,0.247064
elector,0.021139
england,0.017098
english,0.041169
equival,0.031743
european,0.024545
everi,0.024660
examin,0.015422
extern,0.007704
facto,0.023888
follow,0.016857
forest,0.040526
form,0.016107
formal,0.013184
framework,0.015095
french,0.014179
gener,0.015142
gibraltar,0.031953
given,0.010567
govern,0.030058
governor,0.038679
guernsey,0.621587
ha,0.014051
half,0.014503
head,0.027204
hi,0.018894
hm,0.055959
hold,0.025382
hous,0.014134
human,0.010151
incumb,0.028250
island,0.015616
job,0.018195
judg,0.019456
judici,0.020227
junior,0.027771
jurat,0.135442
juri,0.029515
justic,0.017806
kingdom,0.014014
known,0.035213
law,0.074283
lay,0.019822
legal,0.014535
legisl,0.016127
legislatur,0.021551
lieuten,0.056227
loi,0.100073
london,0.014831
longer,0.014527
longest,0.025250
loos,0.021898
machineri,0.021722
magistr,0.027669
make,0.008957
mandat,0.043892
martin,0.037288
matter,0.013249
meet,0.042754
member,0.011238
minist,0.031784
multimemb,0.040376
non,0.025385
nonpartisan,0.033628
nonvot,0.039955
norman,0.024817
north,0.013985
novemb,0.015797
number,0.008811
offic,0.056709
offici,0.026744
opinion,0.018720
order,0.019412
ordersincouncil,0.050298
ordin,0.051954
ordonn,0.045659
ordr,0.043098
oversea,0.021008
parish,0.177093
parishion,0.043098
parliament,0.071056
parliamentari,0.020170
parti,0.027223
pass,0.013683
peopl,0.009711
perman,0.017069
peter,0.096366
pierreduboi,0.051611
place,0.029883
polici,0.078206
polit,0.044218
port,0.079611
presid,0.087638
prior,0.015255
privi,0.061554
procureur,0.046840
project,0.012497
projet,0.043454
promulg,0.025755
propos,0.012461
queen,0.021197
rector,0.037241
reduc,0.012134
refer,0.006405
reform,0.015668
regard,0.012289
registr,0.024942
regular,0.017548
report,0.012311
repres,0.084060
requir,0.010083
resid,0.016970
resourc,0.038903
respons,0.011110
result,0.008922
retir,0.021796
return,0.012963
right,0.022989
road,0.018606
royal,0.152112
rpubliqu,0.036407
sampson,0.077698
sanction,0.024048
sark,0.044240
saviour,0.079911
scrap,0.030650
seat,0.037911
selfgovern,0.025402
send,0.020032
senior,0.042462
septemb,0.015447
serv,0.051003
sixyear,0.031849
south,0.027921
southeast,0.021823
st,0.201193
state,0.109203
strateg,0.019456
taken,0.013053
term,0.016847
territori,0.015603
tortev,0.093680
ultim,0.015419
undertaken,0.022971
unelect,0.038683
union,0.013247
unit,0.008991
unlik,0.014846
usual,0.010727
vale,0.076127
vote,0.033810
wa,0.029238
walker,0.028086
west,0.030614
year,0.053981
