accord,0.002886
affair,0.004773
aftsi,0.015186
agrar,0.013344
agrarian,0.007826
albania,0.147650
albanian,0.204217
aleanca,0.197420
allianc,0.070184
ambientalist,0.015186
arbnor,0.026689
ardhmen,0.015186
ardhmrija,0.015186
atdheu,0.015186
balli,0.050912
barazi,0.015186
bashkimi,0.058815
bashkimit,0.030372
bashkuar,0.029407
biznesit,0.015186
black,0.004697
busi,0.003923
central,0.003267
chang,0.002628
christian,0.004517
coalit,0.005649
commiss,0.004641
communist,0.017251
conserv,0.004628
countri,0.003068
data,0.003721
defenc,0.011352
demochristian,0.030372
democraci,0.010387
democrat,0.073100
demokr,0.030372
demokraci,0.014329
demokracia,0.014329
demokrat,0.039024
demokratik,0.117073
demokristian,0.030372
depriv,0.007489
develop,0.002331
dhe,0.104065
disabl,0.006790
dissolv,0.005791
djatht,0.045558
drejta,0.015186
drejtav,0.030372
drejtsi,0.075930
e,0.170028
elect,0.016561
elector,0.006022
emigr,0.007057
enver,0.011846
environmentalist,0.009411
equal,0.003822
ethnic,0.005539
etnik,0.015186
european,0.006992
europeanis,0.014024
europian,0.030372
europianizimin,0.015186
fascist,0.008322
fashist,0.015186
fitoren,0.015186
follow,0.002401
forc,0.003008
forca,0.013344
freedom,0.004738
futur,0.007312
g,0.004060
gener,0.002157
gjelbr,0.015186
govern,0.002854
greek,0.004250
green,0.005162
grek,0.015186
grupim,0.015186
ha,0.002001
homeland,0.007765
hoxha,0.012380
integr,0.014489
integrim,0.029407
integrimi,0.015186
integrimin,0.015186
justic,0.025364
koalicioni,0.015186
kombtar,0.154266
komunist,0.030372
komunistv,0.015186
konservator,0.015186
kristiandemokr,0.015186
kufizuar,0.014329
kuq,0.015186
labour,0.010162
law,0.003023
leagu,0.012315
lean,0.008197
left,0.004000
legal,0.004141
legalitetit,0.015186
liber,0.027148
liberal,0.011631
lidhja,0.029407
ligj,0.015186
liri,0.013765
list,0.008371
local,0.006797
lvizja,0.102927
macedonian,0.009342
major,0.002662
majt,0.013765
maqedonas,0.015186
mbrojtjen,0.015186
minor,0.004643
minoriteti,0.015186
mirqni,0.030372
mjaft,0.015186
moder,0.005748
moderuar,0.015186
mohuara,0.015186
monarchist,0.010646
monarkist,0.015186
movement,0.024221
multiparti,0.006438
muslim,0.005611
mysliman,0.015186
nacional,0.013542
nation,0.030586
ndryshim,0.015186
new,0.004482
nntori,0.015186
novemb,0.004500
offici,0.003809
onli,0.002309
ora,0.011326
pajtimit,0.015186
parliament,0.010121
parliamentari,0.005746
parti,0.255939
partia,0.747296
particip,0.007917
path,0.010175
peopl,0.008299
personat,0.015186
polit,0.015747
popular,0.003590
popullit,0.015186
popullor,0.029407
pr,0.119284
progr,0.011383
progress,0.003921
pun,0.020442
puntor,0.015186
puntorv,0.030372
reconcili,0.007636
red,0.005058
refer,0.001824
reform,0.008927
reformav,0.030372
regist,0.005658
registri,0.009103
renew,0.005336
repres,0.002993
represent,0.004603
republican,0.006518
republikan,0.015186
right,0.022923
rini,0.014024
rinovuar,0.015186
rruga,0.030372
s,0.002588
secur,0.003877
shqipri,0.200168
shqiptar,0.253547
shqiptarv,0.015186
shtjeve,0.015186
siguri,0.015186
social,0.022616
socialdemokr,0.015186
socialist,0.034090
solidar,0.015625
solidaritet,0.029407
success,0.003368
t,0.035351
thi,0.001899
time,0.002247
total,0.003543
true,0.004112
truth,0.005403
union,0.015096
unit,0.007685
unitet,0.015186
uniti,0.011165
valu,0.003255
victori,0.005882
vlera,0.015186
vrtet,0.030372
wealth,0.005230
welfar,0.005849
worker,0.014183
year,0.002563
youth,0.006405
zhvillim,0.015186
zi,0.010802
