absolut,0.015447
accin,0.038148
accord,0.009106
action,0.011189
agrcola,0.044243
agricultur,0.013536
ahora,0.047909
alianza,0.106677
allianc,0.051096
altern,0.011702
alternativa,0.040578
amaru,0.082076
american,0.010318
americana,0.030957
andean,0.029526
andino,0.042722
ani,0.008026
arm,0.014521
articl,0.010823
avanza,0.046388
cambio,0.037618
chang,0.008291
christian,0.014253
civil,0.012616
civilista,0.047909
coalit,0.017822
communist,0.072568
compet,0.015165
compromiso,0.047909
comunista,0.181448
congress,0.016481
consequ,0.012508
coordin,0.015593
coordinadora,0.044243
countri,0.029041
cristiano,0.035911
cumpl,0.047909
del,0.177671
demcrata,0.038433
democraci,0.016385
democracia,0.035228
democrat,0.057654
democrtica,0.068690
democrtico,0.036097
ecolog,0.016689
ecologist,0.025779
ecologista,0.088487
el,0.063885
elect,0.026124
fatherland,0.032431
fim,0.039763
forc,0.018984
form,0.007238
fredemo,0.045208
frent,0.105685
frepap,0.047909
fuerza,0.074745
futur,0.011534
futuro,0.041038
govern,0.009005
green,0.016286
group,0.008542
ha,0.006314
histor,0.010637
humanist,0.023003
humanista,0.042722
independ,0.019453
independient,0.076867
izquierda,0.076296
justic,0.016004
justicia,0.039056
known,0.007912
la,0.047415
left,0.025241
legisl,0.014495
let,0.017739
liber,0.042823
list,0.017606
llama,0.034623
luminoso,0.042099
major,0.016798
make,0.008050
marxistaleninista,0.045208
marxistleninist,0.029260
mayora,0.043428
moral,0.015837
moralizador,0.047909
movement,0.043665
movimiento,0.139669
multiparti,0.020311
nacion,0.236844
nacionalista,0.037618
nation,0.078949
nationalist,0.020526
new,0.014142
nueva,0.062966
obtain,0.012304
odrist,0.047909
odrista,0.047909
organ,0.008635
pa,0.049339
para,0.029581
parliamentari,0.018129
parti,0.281380
particip,0.012488
partido,0.476902
partylist,0.036489
path,0.016050
patria,0.035391
pcp,0.107735
pcpml,0.045208
peopl,0.026184
peru,0.474691
peruano,0.173714
peruvian,0.118106
polit,0.059615
popular,0.079282
por,0.134353
posibl,0.041542
possibl,0.009259
progresemo,0.047909
progreso,0.037372
progress,0.024745
project,0.011232
proport,0.015009
proyecto,0.042099
rare,0.014939
rebel,0.020917
reconstruccin,0.045208
reconstruct,0.018041
red,0.015957
renacimiento,0.046388
renaiss,0.019037
renew,0.016835
renovacin,0.044243
represent,0.014524
restauracin,0.047909
restor,0.016281
resurg,0.024626
resurgimiento,0.047909
revolucionaria,0.080309
revolucionario,0.036696
revolutionari,0.054967
roja,0.035559
s,0.008165
se,0.023939
sendero,0.042099
sever,0.008353
shine,0.027186
singl,0.010722
social,0.020385
socialist,0.017924
socialista,0.034917
solidar,0.024648
solidaridad,0.041038
solucin,0.046388
solut,0.013708
somo,0.086857
sp,0.024562
thi,0.005993
thu,0.009366
todo,0.039398
tpac,0.083084
unidad,0.036696
unin,0.102633
union,0.035719
uniti,0.017612
verd,0.028766
victori,0.018556
victoria,0.023555
work,0.007855
y,0.017063
