accord,0.023494
ad,0.014992
addit,0.047538
allot,0.035682
analysi,0.014161
ani,0.051767
asia,0.020170
aspir,0.029531
assam,0.043798
assembl,0.110035
avail,0.014360
b,0.031120
base,0.010236
broadcast,0.027484
c,0.013556
candid,0.021852
capit,0.015429
categorydefunct,0.061801
certain,0.012985
chang,0.010696
choos,0.040817
claus,0.031602
clemen,0.045041
commiss,0.056669
concern,0.013321
condit,0.053107
consult,0.021911
contest,0.049931
countri,0.024974
criteria,0.071289
crosssect,0.035345
current,0.012147
d,0.015361
date,0.015859
delhi,0.065508
democraci,0.021136
differ,0.010059
district,0.022952
dure,0.010923
ec,0.034759
eci,0.049578
ed,0.015993
elect,0.219047
elector,0.049017
elig,0.028578
els,0.023526
enjoy,0.021749
enskat,0.061801
everi,0.014295
exclus,0.019516
fail,0.017176
follow,0.019544
fraction,0.023911
free,0.027907
fulfil,0.098815
gener,0.035112
govern,0.011616
greenwood,0.034220
group,0.011019
ha,0.024436
hb,0.084422
impos,0.021008
includ,0.008480
india,0.112216
indian,0.040443
input,0.022131
isbn,0.028882
k,0.037041
leader,0.035717
legisl,0.130890
level,0.024425
liber,0.018413
like,0.010908
list,0.045424
local,0.013832
lok,0.410340
lose,0.021478
mike,0.033908
minimum,0.044551
mitra,0.095812
multiparti,0.026201
nation,0.124472
necessarili,0.019990
need,0.012276
new,0.009121
note,0.011773
number,0.020432
object,0.013959
offer,0.015185
onli,0.009400
parliament,0.020595
parti,0.505000
percent,0.041019
period,0.012133
polit,0.064084
poll,0.085269
praeger,0.041364
presid,0.033869
privileg,0.026725
provid,0.010389
public,0.011793
puducherri,0.057072
radio,0.023973
read,0.012898
recogn,0.031848
recognis,0.045858
recognit,0.081425
refer,0.007426
regist,0.138174
regul,0.017581
requir,0.011691
reserv,0.039503
respect,0.014123
review,0.016640
rule,0.027113
run,0.016320
sabha,0.378697
sage,0.029275
seat,0.197796
secur,0.031557
septemb,0.017909
set,0.023008
seven,0.019488
singh,0.036693
social,0.013148
south,0.016185
specifi,0.021014
spiess,0.058316
state,0.217047
statesut,0.061801
statu,0.051786
subrata,0.114145
subsequ,0.016129
symbol,0.112587
televis,0.023297
territori,0.036182
thereof,0.031767
thi,0.007730
time,0.009144
total,0.072106
union,0.015358
unless,0.023161
unrecognis,0.085217
upgrad,0.029673
use,0.008445
v,0.018429
valid,0.039474
vote,0.058800
wa,0.008474
win,0.139446
wish,0.022853
x,0.018300
