accord,0.015786
activ,0.015753
administr,0.044148
advic,0.034359
advisor,0.040446
appeal,0.058805
appoint,0.025952
arrang,0.025738
ascens,0.150604
aspect,0.020749
atlant,0.033455
attorney,0.043351
base,0.013756
branch,0.060732
british,0.063765
capit,0.020735
case,0.015941
castl,0.043231
chief,0.053100
committe,0.027356
consist,0.017067
constitut,0.020134
council,0.209270
councillor,0.053067
countri,0.016781
court,0.145123
cunha,0.175300
da,0.101838
defeat,0.030171
defenc,0.031042
democraci,0.056810
depend,0.033652
doe,0.017254
elect,0.135865
equal,0.020907
ex,0.083066
execut,0.162797
exercis,0.026378
exist,0.015267
facto,0.037220
final,0.019857
forbid,0.044148
format,0.022391
fouryear,0.041767
framework,0.023521
gener,0.011796
govern,0.062446
governor,0.210934
ha,0.032840
head,0.021193
helena,0.607631
herald,0.046150
hereditari,0.039291
howev,0.013323
independ,0.016861
intern,0.014386
island,0.072997
ituc,0.054442
jamestown,0.061070
januari,0.023429
judici,0.063033
judiciari,0.036526
june,0.047835
juvenil,0.048223
kingdom,0.065509
labour,0.027788
law,0.016534
led,0.017714
legisl,0.150773
legislatur,0.033579
limit,0.016761
london,0.023109
magistr,0.043112
main,0.017374
march,0.022758
member,0.105061
militari,0.022201
monarch,0.108732
nomin,0.028644
nonpartisan,0.104793
ocean,0.028241
offic,0.022090
officio,0.110877
onli,0.012632
organ,0.014969
oversea,0.065465
parti,0.106041
particip,0.021649
place,0.015520
polit,0.086122
popular,0.019634
power,0.032209
present,0.015735
privi,0.047954
progress,0.021448
propos,0.038832
refer,0.009980
referendum,0.034650
reign,0.034511
repres,0.016372
respons,0.017310
run,0.021933
saint,0.367109
secretari,0.032607
selfgovern,0.039580
septemb,0.024068
sinc,0.013889
southern,0.025779
st,0.022391
structur,0.016229
suprem,0.028444
term,0.013125
territori,0.145874
thi,0.010389
tristan,0.175300
turnout,0.093896
unit,0.042030
vest,0.036431
vote,0.079021
wa,0.022778
wherebi,0.031384
