accept,0.018970
act,0.034539
administr,0.042254
afega,0.075008
affair,0.024984
agre,0.022781
amend,0.031864
announc,0.025374
anoth,0.014533
appoint,0.024839
april,0.023116
associ,0.014760
atafu,0.067326
atol,0.242744
besid,0.031172
bodi,0.018282
cabinet,0.030654
confer,0.024024
consist,0.016335
constitut,0.019270
council,0.044509
decolonis,0.052106
democrat,0.023914
depend,0.016104
determin,0.016949
draft,0.031499
elect,0.021672
elizabeth,0.034958
entiti,0.024931
extern,0.011489
faipul,0.269306
fakaofo,0.067326
favour,0.057790
februari,0.095493
fell,0.028379
finish,0.033812
follow,0.025138
fono,0.244978
foreign,0.020454
formul,0.025162
foua,0.068926
framework,0.022511
free,0.017947
function,0.016087
futur,0.019137
gaualofa,0.075008
gener,0.022581
govern,0.074709
ha,0.010477
head,0.081138
hereditari,0.037605
histori,0.013087
hold,0.018926
hous,0.021078
ii,0.020563
impos,0.027022
independ,0.016138
island,0.023288
john,0.017871
june,0.022891
key,0.019994
kolouei,0.075008
leader,0.068911
legisl,0.024050
linda,0.043324
link,0.011422
major,0.041806
mayor,0.079692
member,0.016758
minist,0.047398
ministeri,0.043762
modern,0.015755
monarch,0.034688
nation,0.029109
nationssponsor,0.063768
new,0.093861
novemb,0.023558
nukunonu,0.067326
number,0.013140
o,0.027698
obrien,0.052502
octob,0.022713
offic,0.021142
oneyear,0.048722
ongo,0.028741
pacif,0.030443
parliamentari,0.030080
parti,0.020298
peopl,0.014481
period,0.031213
place,0.044563
polit,0.016485
popul,0.018688
portfolio,0.036130
power,0.015413
presid,0.021781
prime,0.024199
process,0.014238
propos,0.018583
pulenuku,0.137852
puni,0.062844
queen,0.031610
question,0.018914
realm,0.030174
receiv,0.018250
refer,0.009552
referenda,0.055162
referendum,0.132653
remain,0.015798
repres,0.031339
requir,0.030075
right,0.017141
rotat,0.031623
seat,0.028268
second,0.015677
selfdetermin,0.128859
seven,0.025067
share,0.018614
short,0.020367
sit,0.035143
small,0.016267
speak,0.025491
start,0.016828
state,0.034896
step,0.022542
succeed,0.027178
supervis,0.031787
te,0.048211
term,0.012562
territori,0.046538
thi,0.009943
tokelau,0.695210
tokelauan,0.067326
toloa,0.068926
took,0.041535
trade,0.019231
transform,0.021761
treati,0.055525
twothird,0.072856
ulu,0.064802
undergo,0.030823
unicamer,0.040543
unit,0.013408
villag,0.060757
vote,0.050420
wa,0.021800
wisdom,0.035199
wonder,0.038516
wrong,0.031268
zealand,0.252887
