aldmqrt,0.093037
aldmqrtiyyah,0.093037
alfilastn,0.279112
alfilastniyya,0.186075
alislmiyyah,0.087791
alittihd,0.093037
aljabhah,0.186075
allianc,0.066151
alliancepalestinian,0.093037
almasri,0.093037
almubdara,0.186075
almuqwamah,0.093037
almustaqb,0.093037
alphabet,0.042585
alshab,0.093037
alshabiyyah,0.093037
altahrr,0.093037
alwataniya,0.186075
arab,0.032665
assaiqa,0.093037
author,0.039824
businessman,0.054734
coalit,0.034610
communist,0.035231
countri,0.018798
democraci,0.031819
democrat,0.111961
elect,0.025366
fatah,0.073554
fida,0.084336
filastn,0.186075
follow,0.014711
forum,0.037771
futur,0.022398
hama,0.062798
harakat,0.159388
hizb,0.068105
initi,0.039963
islam,0.030613
justic,0.062158
launch,0.030965
leftw,0.050708
liber,0.138602
list,0.051287
litahrr,0.186075
movement,0.042398
munib,0.093037
nation,0.085175
novemb,0.027573
order,0.016941
palestin,0.193889
palestinian,0.637676
parti,0.118788
peopl,0.016949
polit,0.057884
popular,0.065983
recent,0.019360
refer,0.011180
resist,0.028971
s,0.015856
stormthunderbolt,0.093037
struggl,0.032617
taken,0.022783
territori,0.027234
union,0.023121
vanguard,0.056822
war,0.022103
way,0.016637
