abdullah,0.015525
abeda,0.020336
abil,0.006983
abolit,0.013331
abscond,0.020698
absolut,0.017218
abus,0.021836
accept,0.006372
accident,0.013128
accord,0.020301
account,0.005977
accus,0.010179
act,0.005801
activ,0.005064
actual,0.006495
ad,0.006477
adam,0.010300
administr,0.014193
adulteri,0.076267
advanc,0.006268
advent,0.011100
advic,0.011046
advis,0.020519
advisori,0.024956
afesd,0.020118
affair,0.058747
affect,0.006632
afraid,0.016058
age,0.006356
agenc,0.007984
ahmad,0.014683
airway,0.016456
al,0.156710
alcohol,0.163132
alli,0.009374
allow,0.040379
ambassador,0.012454
amf,0.019066
amiri,0.023463
announc,0.025570
apostasi,0.018350
appar,0.017329
appeal,0.009452
appli,0.010852
appoint,0.025031
april,0.015529
arab,0.065623
arabia,0.012416
archiv,0.009341
arm,0.008093
art,0.007764
articl,0.006032
ash,0.013713
assembl,0.023770
asshura,0.024204
assist,0.007567
assum,0.014062
author,0.011429
authoritarian,0.013022
awqaf,0.023810
bahrain,0.016032
baladiyah,0.025195
baladiyat,0.025195
ban,0.020452
basic,0.006156
bbc,0.011547
becam,0.011188
becom,0.004899
bias,0.025364
bin,0.070550
blasphemi,0.018994
bloodless,0.016006
bodi,0.012282
boundari,0.008544
branch,0.006508
breach,0.013848
brotherhood,0.016425
brunei,0.016006
campaign,0.009201
cancel,0.011610
candid,0.009441
carr,0.015756
carri,0.006607
case,0.020500
caught,0.012623
caus,0.005471
certain,0.005610
challeng,0.007322
chang,0.009242
channel,0.010118
citi,0.007079
citizen,0.016777
citizenship,0.012776
civil,0.021094
claim,0.006222
close,0.005484
cloth,0.010716
code,0.023795
codifi,0.013460
colleg,0.008898
commiss,0.008161
committe,0.008795
common,0.004957
compani,0.006473
complain,0.013310
consensu,0.010226
conserv,0.008137
consid,0.014343
constitut,0.058259
consult,0.047334
consum,0.024489
consumpt,0.057372
continu,0.009934
convent,0.007938
corpor,0.008043
correspond,0.007442
council,0.059803
countri,0.059347
coup,0.011164
court,0.007776
cousin,0.013482
cover,0.006749
creat,0.005014
crime,0.020343
crimin,0.041538
cultur,0.006164
cup,0.013761
current,0.005248
custom,0.016579
daayen,0.025195
damag,0.008847
dawhah,0.025195
death,0.035902
decemb,0.007523
declar,0.023755
defens,0.008998
democraci,0.009132
deni,0.028512
depart,0.014376
deport,0.014110
depos,0.026965
deputi,0.010979
describ,0.010092
desir,0.007715
despit,0.006951
develop,0.008200
difficult,0.007150
directli,0.006587
disput,0.008246
distribut,0.013529
district,0.009916
divis,0.007105
diwan,0.021261
dla,0.049317
dmoz,0.010858
doe,0.011094
doha,0.017775
dress,0.027237
drink,0.012157
drive,0.008808
dure,0.004719
econom,0.005401
educ,0.012576
elect,0.087360
elector,0.010589
emir,0.225109
employ,0.019641
energi,0.006909
environ,0.006542
escwa,0.021957
establish,0.015802
eu,0.010746
evolv,0.008101
exact,0.009416
exampl,0.004420
exclud,0.009285
execut,0.014953
exempt,0.025659
exit,0.012947
expatri,0.094110
explan,0.008688
express,0.006395
extend,0.006510
extern,0.003859
famili,0.047842
fan,0.013885
fao,0.013427
father,0.026033
favor,0.008152
februari,0.008019
femal,0.029729
fifa,0.017823
filipino,0.016915
financ,0.007821
financi,0.007046
firm,0.008815
fit,0.008986
fivestar,0.022872
flog,0.125796
follow,0.008444
forc,0.010580
foreign,0.048095
formul,0.008452
free,0.012057
freedom,0.033328
fund,0.007277
g,0.007140
gcc,0.017681
gener,0.003792
given,0.005293
govern,0.040152
grant,0.008091
group,0.009521
guidelin,0.011706
gulf,0.011939
ha,0.035193
half,0.007265
hama,0.018023
hamad,0.101127
hamasl,0.024204
hanbali,0.019724
hand,0.006539
head,0.020441
health,0.014716
heir,0.027010
held,0.018720
heritag,0.021590
hezbollah,0.019633
hi,0.018929
higher,0.006274
highest,0.008082
hold,0.012714
holder,0.011999
home,0.007536
homosexu,0.015271
hotel,0.012707
hous,0.014160
howev,0.017134
human,0.005085
hurrican,0.028193
iaea,0.014802
ibrd,0.014179
icao,0.014193
icrm,0.014633
idb,0.016951
idea,0.005923
ifad,0.014397
ifrc,0.014443
iho,0.017459
illicit,0.047786
illtreat,0.019914
ilo,0.013924
imag,0.008127
imf,0.011558
immigr,0.031509
implement,0.014696
import,0.004501
impos,0.018153
includ,0.010991
increas,0.005075
increasingli,0.007780
independ,0.010841
index,0.008384
indic,0.006492
indonesia,0.012502
industri,0.006024
influenc,0.011626
influx,0.013618
inform,0.005247
inherit,0.009787
injuri,0.011700
inmarsat,0.017636
institution,0.027900
insurg,0.013665
intelsat,0.014700
intent,0.008882
interior,0.020715
intern,0.009250
interpol,0.012332
interpret,0.007041
introduc,0.012382
introduct,0.006996
invest,0.007514
investig,0.007395
involv,0.005116
ioc,0.013761
iran,0.011972
islam,0.043930
islamist,0.015828
island,0.007822
iso,0.012317
itu,0.013848
ituc,0.017503
jail,0.015074
jazeera,0.038593
job,0.009114
join,0.007850
joint,0.009293
judici,0.010132
judiciari,0.011743
june,0.030757
kafala,0.025195
katrina,0.019377
key,0.006716
khalifa,0.089116
khor,0.022379
kumari,0.020572
labor,0.008664
labour,0.044669
lash,0.134527
late,0.006109
launch,0.008886
law,0.069105
lead,0.005264
leav,0.014945
led,0.005695
leg,0.013098
legal,0.029125
legisl,0.048473
legislatur,0.010795
liabl,0.030834
liberti,0.011200
libya,0.027848
libyan,0.016337
licenc,0.015112
limit,0.005388
link,0.003836
liquor,0.035743
list,0.004906
local,0.011952
look,0.007285
louisiana,0.015250
luxuri,0.013238
madinat,0.024204
main,0.011171
mainli,0.007324
maintain,0.006152
majli,0.017728
major,0.004681
make,0.004486
man,0.015613
mani,0.003988
manmad,0.014179
maritim,0.011357
maya,0.015853
meddl,0.018786
medic,0.008125
meet,0.007138
member,0.028147
men,0.016363
met,0.009022
migrant,0.013773
million,0.020790
minimum,0.009624
miniskirt,0.023810
minist,0.055725
ministri,0.113842
mixtur,0.011031
modern,0.005292
modest,0.012883
modesti,0.019066
monarchi,0.033929
money,0.015770
mostli,0.015055
movement,0.006084
municip,0.064507
murder,0.011205
muslim,0.078939
nam,0.013885
nation,0.019556
nato,0.013342
near,0.007254
neg,0.007650
neighbor,0.009953
neighborhood,0.013363
nepales,0.018923
network,0.022128
new,0.007882
news,0.019260
nonmuslim,0.047340
notabl,0.006770
note,0.005086
number,0.004413
numer,0.006536
oapec,0.021588
oblig,0.009743
observ,0.005823
obtain,0.006857
occup,0.009193
octob,0.007629
offenc,0.031140
offer,0.006560
offici,0.013396
oic,0.015593
oman,0.015980
onli,0.020307
opcw,0.014367
opec,0.016709
open,0.006040
oper,0.011132
opinion,0.009377
opposit,0.007259
organ,0.009625
orlean,0.017459
oversea,0.010523
overwhelmingli,0.014308
palestinian,0.015250
parti,0.013636
partial,0.008116
pass,0.006854
passport,0.014537
pearl,0.013618
pearlqatar,0.025195
penalti,0.039593
pend,0.014890
peopl,0.009729
permiss,0.036797
permit,0.026959
person,0.011546
pertain,0.012200
piou,0.017503
piper,0.038755
place,0.004989
plan,0.013363
pledg,0.025020
plu,0.009926
pm,0.013363
polic,0.009812
polici,0.019587
polit,0.033225
pork,0.032912
posit,0.005228
postpon,0.014367
power,0.031065
practic,0.016239
practis,0.013310
preemin,0.014666
press,0.005954
prevent,0.007233
prime,0.016257
prison,0.021476
produc,0.005264
progress,0.006895
project,0.006260
promot,0.007217
prosecut,0.013677
proselyt,0.017728
provid,0.004488
provis,0.019708
public,0.015285
punish,0.111298
purchas,0.008604
qatar,0.709027
qatarbas,0.025195
qatari,0.124188
question,0.006353
radic,0.009274
rank,0.008542
rate,0.006269
rayyan,0.048408
reason,0.005758
rebel,0.023316
rebuk,0.018655
recent,0.016668
recommend,0.009458
reconcil,0.012615
refer,0.003208
referendum,0.022279
reform,0.007848
regard,0.006156
regim,0.009350
rein,0.016222
rel,0.005753
relat,0.025958
releas,0.008019
relief,0.011439
religi,0.008196
remind,0.014474
repair,0.011423
replac,0.006538
report,0.030835
reportedli,0.012742
repres,0.005263
request,0.009752
requir,0.015153
resid,0.025502
resort,0.011907
respons,0.011130
restaur,0.028501
restrict,0.007436
result,0.004469
retain,0.008438
review,0.007189
right,0.028790
robberi,0.017681
role,0.011242
root,0.008105
royal,0.008466
rule,0.023428
rumour,0.017775
salafist,0.045231
salal,0.024204
sanction,0.012046
saudi,0.013079
scale,0.007262
score,0.011761
scrap,0.015353
seat,0.018990
secur,0.013634
seen,0.006295
sell,0.027230
sentenc,0.087757
seriou,0.008988
serv,0.006387
servic,0.006251
set,0.004970
seven,0.008420
sever,0.004655
sexual,0.031631
shamal,0.023463
sharia,0.079022
shariabas,0.024204
sharma,0.018655
sheikh,0.048418
short,0.013683
sign,0.007352
singlet,0.019818
singular,0.011767
sleeveless,0.025195
social,0.011361
societi,0.011189
sourc,0.022468
specif,0.005342
specul,0.009290
speech,0.009621
sponsor,0.044781
sponsorship,0.032445
spring,0.020145
standard,0.012029
state,0.023444
stone,0.019946
stop,0.008822
store,0.009047
strongli,0.008607
subject,0.005680
subsidiari,0.013505
suffrag,0.013128
support,0.026547
suprem,0.018289
syria,0.013128
syrian,0.015132
tamim,0.021767
task,0.008284
technic,0.007942
televis,0.030196
tenet,0.013148
tenur,0.013538
term,0.004219
terrorist,0.013516
testimoni,0.014367
th,0.005120
thani,0.211099
thi,0.013360
threat,0.009366
tie,0.008710
tight,0.027261
time,0.007902
told,0.011325
took,0.006976
tortur,0.026877
tourist,0.023801
trade,0.006459
tradit,0.016869
travel,0.015770
twoyear,0.014521
umm,0.019724
uncensor,0.020118
unctad,0.013885
unesco,0.012129
unido,0.014250
unilater,0.014002
union,0.006635
unit,0.004504
univers,0.004625
unknown,0.009245
unrest,0.012385
upu,0.013607
urban,0.009366
use,0.003648
vast,0.008967
violat,0.009880
violenc,0.010635
visa,0.058085
vote,0.008468
voter,0.011979
wa,0.040276
wage,0.019625
wakrah,0.023463
war,0.006343
wco,0.015903
wear,0.024203
welfar,0.010285
wide,0.005751
willing,0.013642
wipo,0.014179
wit,0.010876
wmo,0.014055
woman,0.022299
women,0.008498
worker,0.066502
workplac,0.014015
world,0.009054
worth,0.010111
wto,0.014055
year,0.013520
zone,0.018459
