activ,0.022197
afl,0.096240
allianc,0.041605
alon,0.038043
alth,0.102839
alu,0.091292
alubandalagi,0.117031
aluflokkurinn,0.117031
articl,0.026439
awaken,0.062973
borgaraflokkurinn,0.117031
borgarahreyfingin,0.117031
box,0.050286
chanc,0.043248
citizen,0.073533
coalit,0.043536
communist,0.088633
countri,0.023646
defunct,0.063509
democraci,0.040025
democrat,0.035208
distribut,0.029648
eldri,0.117031
elect,0.127631
extern,0.016916
flokkur,0.113314
forc,0.023186
form,0.017682
frjlslyndra,0.117031
gain,0.028144
govern,0.021998
ha,0.030850
heimastjrnarflokkurinn,0.117031
home,0.033033
hreyfingin,0.117031
iceland,0.356933
incumb,0.062025
independ,0.023759
jernissinna,0.117031
jvaki,0.117031
jvarnarflokkurinn,0.117031
kommnistaflokkurinn,0.234062
kvennalistinn,0.117031
land,0.058543
leftist,0.059589
liber,0.034869
lifandi,0.117031
link,0.016816
list,0.064514
live,0.025005
lrishreyfingin,0.117031
mani,0.017479
manna,0.106085
marxistleninist,0.071476
ml,0.071102
movement,0.106664
multiparti,0.049616
nation,0.042856
nationalist,0.050140
new,0.017273
ntt,0.094623
octob,0.066879
og,0.078331
old,0.031997
parliament,0.039001
parliamentari,0.088571
parti,0.567806
peopl,0.042641
polit,0.121354
power,0.022692
preserv,0.037375
refer,0.014063
represent,0.070958
rule,0.025671
sameiningarflokkur,0.117031
samtk,0.117031
seat,0.041618
seven,0.036905
sjlfstisflokkurinn,0.117031
slandshreyfingin,0.117031
social,0.024898
socialist,0.043786
ssalistaflokkurinn,0.117031
statist,0.032110
thi,0.014639
union,0.029084
uniti,0.043022
vinstri,0.117031
women,0.037249
work,0.019187
