action,0.010481
activ,0.029791
ahsp,0.022438
akcija,0.044876
allianc,0.007976
alon,0.007294
altern,0.005480
alternativa,0.019004
articl,0.005069
ash,0.011523
autochthon,0.017618
autohtona,0.022438
autonom,0.008624
autonomna,0.022438
bloc,0.020639
blok,0.034179
centar,0.020339
centr,0.007082
chanc,0.008291
charter,0.009266
christian,0.013350
civic,0.011220
coalit,0.016694
collabor,0.007912
communist,0.008496
croatia,0.172941
croatian,0.253765
croatianhungarian,0.019717
croatserb,0.021725
croatsloven,0.022438
da,0.009171
dalmatia,0.016149
dalmatian,0.017287
dalmatinska,0.022438
danub,0.013778
dc,0.009539
democrat,0.087756
demokranska,0.022438
demokrata,0.021725
demokrati,0.019456
demokratska,0.105864
demokratski,0.021725
elect,0.012235
ena,0.018292
establish,0.004426
far,0.005624
form,0.003390
forum,0.018218
gain,0.005396
goranski,0.022438
govern,0.004217
graanska,0.021172
green,0.022882
growth,0.005614
ha,0.005914
hb,0.015325
hd,0.013932
hdss,0.022438
hg,0.013679
histor,0.004982
hkdu,0.022438
hnd,0.020339
hrast,0.022438
hrvatsk,0.082885
hrvatska,0.290270
hrvatski,0.065176
hrvatskoslovenska,0.022438
hrvatskosrpska,0.022438
hrvatskougarska,0.022438
hrvatsku,0.022438
hrz,0.022438
hsl,0.019456
hsp,0.051863
ilirska,0.020339
illyrian,0.016819
independ,0.013666
isdf,0.022438
ista,0.063518
istarski,0.022438
istrian,0.019456
januari,0.006329
jedino,0.022438
kingdom,0.005899
koalicija,0.021725
komunista,0.022438
kotar,0.022438
kranska,0.022438
labour,0.015014
leagu,0.009098
left,0.011821
legal,0.006118
level,0.008868
liber,0.026741
liberalna,0.042345
liberalnih,0.022438
libra,0.018806
list,0.012369
lista,0.038009
ljevica,0.044876
ls,0.015325
march,0.006148
modern,0.004447
movement,0.005112
multiparti,0.009512
napredna,0.022438
narodna,0.097280
nation,0.008216
new,0.003311
nezavisni,0.022438
nova,0.011176
numer,0.005492
onli,0.003412
order,0.004085
parti,0.286484
partija,0.040017
partypeopl,0.022438
partyserbian,0.022438
peasant,0.010338
pension,0.010301
peopl,0.024526
pg,0.014069
pirat,0.011811
piratska,0.022438
podunavskih,0.022438
pokret,0.022438
polit,0.027920
power,0.004350
prava,0.140061
pravahrvatska,0.044876
previous,0.006481
primorjegorski,0.022438
primorsko,0.022438
progress,0.005794
puka,0.022438
pure,0.020168
radic,0.007793
radikalna,0.022438
radnika,0.044876
rast,0.021172
refer,0.002696
regist,0.016722
represent,0.013604
republican,0.009631
republikanska,0.022438
ri,0.013932
rid,0.013009
right,0.038709
rightscroatian,0.044876
rijeka,0.039434
rijeku,0.022438
samostalna,0.043451
savez,0.043451
sbh,0.020339
sd,0.014368
seat,0.151607
seljaka,0.021172
serb,0.043597
serbian,0.040484
sinc,0.003752
slavoniabaranja,0.022438
slavonskobaranjska,0.022438
sn,0.012635
social,0.019095
socialist,0.008395
socijaldemokrata,0.021725
socijaldemokratska,0.021172
socijaldemokratski,0.021725
socijalistika,0.022438
socijalno,0.022438
split,0.007712
splitska,0.022438
srba,0.021172
srpska,0.085933
starevi,0.021725
starevieva,0.022438
stranka,0.745968
strankanarodna,0.022438
strankasrpska,0.022438
struck,0.010671
thi,0.002806
togeth,0.005174
umirovljenici,0.022438
unija,0.021725
union,0.016729
women,0.007141
won,0.083561
za,0.031573
zagorj,0.022438
zagorska,0.022438
zajednica,0.022438
zajedno,0.022438
zd,0.020008
zelena,0.065176
