abbrevi,0.005105
abov,0.002683
accord,0.002096
achiev,0.005274
activ,0.002091
affili,0.004795
agricultur,0.003115
aichi,0.010406
aikoku,0.011028
aikokusha,0.011028
ainu,0.017562
air,0.003220
al,0.003595
allianc,0.015682
allow,0.002084
altogeth,0.005196
anoth,0.004032
antildp,0.022056
antinuclear,0.016706
antitpp,0.033084
approach,0.002412
archiv,0.003858
area,0.002082
arm,0.003342
articl,0.002491
asahara,0.011028
asianist,0.010406
assembl,0.016362
assist,0.006251
associ,0.014334
atsuo,0.011028
attempt,0.002391
ban,0.004223
banri,0.011028
becam,0.011552
befor,0.004317
belief,0.003383
benefit,0.003067
berkeley,0.004936
boulder,0.006412
breakaway,0.158261
breakthrough,0.005394
breez,0.008146
briefli,0.004688
broad,0.003395
broadcast,0.004904
broke,0.004334
buntha,0.011028
bureaucraci,0.005629
ca,0.004649
cabinet,0.017011
california,0.003877
candid,0.007798
caraway,0.022056
centr,0.006961
central,0.002373
centreleft,0.007652
centreright,0.007381
centrist,0.084373
ch,0.010804
chang,0.001908
chef,0.007874
chiiki,0.011028
chinpei,0.011028
chiyoda,0.011028
chsei,0.011028
chseikai,0.011028
citi,0.005847
citizen,0.017322
club,0.181662
coalit,0.028717
collaps,0.003729
collect,0.002469
comment,0.004055
commission,0.005206
committe,0.003632
common,0.002047
communist,0.033408
concis,0.005157
concurr,0.005220
confer,0.006666
conserv,0.033610
conservativeform,0.011028
conservativegreen,0.011028
consid,0.001974
constitu,0.003965
constitut,0.040103
consum,0.003371
consumpt,0.003949
contest,0.004455
continu,0.006154
cooper,0.042071
cooperativ,0.011028
core,0.007191
corpor,0.003322
councillor,0.077510
countri,0.002228
cover,0.002787
creat,0.022782
creation,0.003082
current,0.008670
cut,0.017974
daid,0.020812
daiichi,0.009243
dainihon,0.011028
dainiin,0.022056
dantai,0.020812
datsugenpatsu,0.055140
dawn,0.005358
decad,0.006155
decemb,0.003107
decid,0.003299
defector,0.008399
defunct,0.005984
democrat,0.149300
den,0.030356
departur,0.005200
dictionari,0.004105
didnt,0.011128
diet,0.080108
differ,0.001795
discont,0.005816
dissolut,0.015308
dissolv,0.033644
distribut,0.002793
district,0.004095
divid,0.008055
dlp,0.008916
dmei,0.022056
dokuritsu,0.011028
domin,0.008359
donat,0.005071
dp,0.007016
dpj,0.071290
dshi,0.011028
dshikai,0.020812
dsp,0.008309
dspalign,0.011028
dure,0.007796
earli,0.014272
ecologist,0.005934
eda,0.016293
eita,0.011028
elect,0.018040
elector,0.004373
empir,0.005689
english,0.002839
enoki,0.010406
enter,0.002980
era,0.006441
et,0.003504
eventu,0.002897
exist,0.004054
expans,0.003439
exsdf,0.011028
faction,0.028890
far,0.011056
farmer,0.056093
feder,0.025966
feminist,0.010687
final,0.005273
fiscal,0.004621
follow,0.006975
forc,0.002184
forefath,0.015749
foreign,0.002837
form,0.036657
formerli,0.008166
forum,0.013431
founder,0.003820
fratern,0.006688
freedom,0.003441
freez,0.005648
frontier,0.024026
fukushit,0.011028
fund,0.003005
futur,0.005310
ga,0.003667
gd,0.007381
gen,0.006430
gener,0.004699
genzei,0.055140
goken,0.022056
good,0.002423
govern,0.018656
governor,0.008002
grand,0.012702
great,0.004913
green,0.082475
ground,0.003172
group,0.047192
ha,0.001453
han,0.004356
hantpp,0.044112
happi,0.009639
harbing,0.032740
hashimoto,0.008916
hata,0.009690
hataozawa,0.011028
hatoyam,0.011028
hatoyama,0.081474
hc,0.007678
heimint,0.011028
heiwa,0.033084
help,0.002386
hi,0.003909
hideo,0.036611
high,0.002207
hike,0.014092
hiranuma,0.011028
hiroki,0.009996
histori,0.001815
hokkaid,0.009996
hont,0.020812
hoshu,0.011028
hoshushint,0.011028
hoshut,0.011028
hosokawa,0.010184
hous,0.035091
hr,0.006735
hrebenar,0.011028
hunter,0.005523
ichir,0.052031
ideolog,0.004117
imparti,0.013286
imperi,0.016986
includ,0.007566
incomplet,0.004750
increas,0.002096
independ,0.015672
independentist,0.009152
initi,0.002368
innov,0.003775
inspir,0.003606
internet,0.003575
iron,0.003904
ishihara,0.011028
ishin,0.031218
iwat,0.022056
j,0.002737
janet,0.006298
januari,0.003110
japan,0.151402
japanes,0.095550
jdp,0.011028
jinmint,0.011028
jitsugen,0.022056
jiy,0.022056
jiyminshut,0.021355
jiyt,0.149490
jlp,0.019993
join,0.087544
joint,0.007676
joseit,0.022056
jsp,0.098341
jspalign,0.011028
jspldp,0.011028
judg,0.004025
june,0.003175
justic,0.007367
kai,0.029135
kaieda,0.011028
kaigi,0.011028
kaikaku,0.033084
kaishint,0.022056
kakushin,0.020812
kakushint,0.022056
kamei,0.011028
kan,0.007704
kanagawa,0.010406
kanda,0.008990
kano,0.008990
kansei,0.009690
kariyushi,0.022056
katsura,0.009996
kawamura,0.020812
kenp,0.010677
kensei,0.011028
kenseikai,0.022056
kenseit,0.011028
kizuna,0.033084
kmei,0.041624
kmeit,0.085423
koe,0.011028
kokkai,0.011028
kokumin,0.099252
kokumint,0.022056
kshikai,0.011028
kshkai,0.011028
kt,0.007555
kurabu,0.022056
kurimoto,0.011028
kyd,0.009690
kydt,0.044112
kykai,0.020812
kyoto,0.006723
kytot,0.011028
labour,0.003689
largest,0.003010
later,0.006502
ldp,0.162561
ldpkmeit,0.011028
leader,0.003186
leagu,0.031301
led,0.004704
left,0.005810
leftist,0.005615
leftw,0.006010
leftwinggreen,0.011028
legal,0.009021
lf,0.008109
liber,0.187290
libertarian,0.005766
librari,0.003423
life,0.007028
lift,0.014595
list,0.006079
lit,0.072856
local,0.009873
lost,0.006333
lp,0.021185
lt,0.006711
main,0.006921
mainland,0.014201
mainli,0.003025
mainstream,0.008844
major,0.009666
marxist,0.004947
masahiko,0.019381
masami,0.011028
mass,0.017930
mayor,0.005528
mean,0.002006
meiji,0.007176
member,0.034875
membership,0.004013
men,0.003379
merg,0.065834
merger,0.089769
michihiko,0.011028
middl,0.003004
midori,0.089969
midorin,0.011028
miki,0.009243
militari,0.005895
miniparti,0.011028
minor,0.010116
minseit,0.091658
minshat,0.011028
minsht,0.011028
minshu,0.011028
minshujiyt,0.011028
minshushakait,0.011028
minshut,0.085423
mirai,0.041624
misako,0.011028
mitsuzuka,0.011028
miyazawa,0.019381
moder,0.008349
modern,0.002185
month,0.003219
monthli,0.004967
morihiro,0.010406
mostli,0.003109
motoo,0.016798
movement,0.015076
mu,0.005777
municip,0.013321
murayama,0.009834
mushozoku,0.011028
nagoya,0.017437
nakamura,0.008916
nakano,0.009996
nakason,0.010184
naoto,0.010184
nation,0.030288
nationalist,0.009449
ndl,0.011028
negoti,0.003814
nejir,0.011028
network,0.009139
new,0.056970
newli,0.003833
nfp,0.129956
nhk,0.009562
nihon,0.133653
niigata,0.062437
niji,0.022056
nippon,0.069749
nmin,0.010406
nminrdt,0.011028
nminshint,0.011028
nmint,0.019993
noconfid,0.014803
nomin,0.003803
note,0.004201
novemb,0.026147
nozu,0.011028
nuclear,0.011170
number,0.001823
o,0.003842
occupi,0.003653
octob,0.003151
offici,0.005533
okinawa,0.105905
oligarchi,0.013494
onli,0.001677
onwaha,0.011028
oppon,0.009053
oppos,0.021317
opposit,0.029984
organ,0.003975
orient,0.003797
osaka,0.015573
ozawa,0.047812
p,0.002781
parliament,0.003675
parliamentari,0.025038
parti,0.664594
past,0.002890
patriot,0.010634
paul,0.003167
peac,0.010543
peer,0.005081
peopl,0.036163
percent,0.003659
perman,0.003531
person,0.002384
phaseout,0.026343
plan,0.005519
pnp,0.023717
polici,0.002696
polit,0.059464
politician,0.030602
postwar,0.019823
pre,0.006071
precursor,0.009104
predominantli,0.004638
prefectur,0.046660
present,0.016714
presid,0.003021
press,0.004918
prewar,0.018773
progovern,0.007731
progress,0.031327
promot,0.002980
proport,0.010364
prorevers,0.011028
protect,0.002784
public,0.006313
purg,0.017534
push,0.003973
radic,0.003830
rainbow,0.019522
rang,0.002508
rdnmint,0.011028
rdshanmint,0.011028
rdshanmintrejoin,0.011028
readi,0.004870
realiz,0.011116
receiv,0.002531
recent,0.002294
reconstruct,0.004152
reestablish,0.025239
refer,0.003975
reform,0.025933
reformist,0.019049
reformistecologist,0.011028
region,0.004746
regionalist,0.008309
regular,0.003630
regularli,0.004511
reimei,0.022056
rejoin,0.007126
remain,0.002191
remnant,0.005298
renaiss,0.008764
renam,0.018403
renew,0.007750
reng,0.046215
rengjsp,0.011028
rengo,0.010406
renmei,0.011028
rentai,0.011028
repres,0.045651
resign,0.004528
respect,0.002520
restor,0.011243
result,0.007384
retir,0.004509
return,0.029502
revolut,0.003282
revolutionari,0.016870
right,0.011890
rightist,0.008037
rightw,0.030567
rikken,0.106778
rise,0.005333
risshisha,0.011028
rit,0.009068
rnt,0.018681
rntaisht,0.011028
ronald,0.004733
rule,0.012095
ryki,0.011028
ryokufkai,0.011028
ryukyu,0.008496
s,0.007518
sabur,0.009152
sadao,0.009996
saiken,0.011028
saka,0.033788
sakai,0.009690
sakigak,0.042711
salari,0.004901
sale,0.003860
samemind,0.011028
sampa,0.010406
sanehiko,0.011028
sangiin,0.033084
sararman,0.010406
satsuki,0.011028
scap,0.028339
school,0.002696
scienc,0.002228
sdp,0.016370
seat,0.011765
secessionist,0.007159
secur,0.002815
seiichi,0.010406
seiji,0.009996
seikatsu,0.011028
seikatsusha,0.011028
seit,0.038762
seiy,0.022056
seiykai,0.061105
selfhelp,0.007627
sever,0.005768
shakai,0.066168
shakaiminshu,0.011028
shakaiminshut,0.022056
shakait,0.022056
shhizei,0.011028
shi,0.006324
shigeru,0.009834
shiina,0.022056
shimin,0.044112
shimp,0.011028
shin,0.007905
shinichir,0.011028
shinpot,0.044112
shinriki,0.010406
shinrit,0.011028
shinsei,0.031218
shinseit,0.011028
shinshakait,0.011028
shinshint,0.011028
shint,0.108175
shintar,0.009996
shizuka,0.011028
shk,0.010406
shortliv,0.015620
shwakai,0.011028
significantli,0.003401
small,0.004513
smaller,0.009408
social,0.014077
socialdemocrat,0.007731
socialist,0.103151
societi,0.004621
sometim,0.002400
son,0.003531
soon,0.010146
special,0.002306
spectrum,0.004361
spend,0.003828
spirit,0.004167
split,0.015162
sport,0.004380
sshint,0.011028
statu,0.006160
strength,0.007481
strong,0.002679
strongest,0.005351
successor,0.045572
summer,0.008533
sun,0.008183
sunris,0.014974
support,0.002192
suptsu,0.011028
suru,0.020812
sz,0.008146
t,0.019253
tabl,0.014198
tachiagar,0.011028
tagawa,0.020812
taiseikai,0.011028
taish,0.008718
taisht,0.044112
taiy,0.011028
taiyt,0.011028
takashi,0.018305
takeo,0.017318
takeru,0.011028
tanabu,0.011028
tar,0.007228
tatsuo,0.009996
tax,0.027729
tea,0.011795
teikokut,0.011028
teiseit,0.011028
temporari,0.004349
term,0.001742
themselv,0.002735
thi,0.001379
thkai,0.022056
thousand,0.003252
tie,0.003597
time,0.003263
tketsu,0.011028
togeth,0.002543
tokyo,0.023379
tomorrow,0.006600
total,0.002573
tpj,0.020812
tpp,0.008718
trade,0.002668
translat,0.003175
treati,0.003851
tri,0.002903
trotskyist,0.016993
tru,0.009152
true,0.008958
truth,0.003924
tsutomu,0.009446
ttp,0.009562
turn,0.002549
twist,0.006050
ty,0.007874
unifi,0.003860
union,0.005481
unit,0.003720
univers,0.001910
upright,0.006568
urban,0.003868
use,0.001507
usjapanes,0.009690
uyoku,0.011028
vat,0.006621
voic,0.004395
vote,0.013990
w,0.003094
wa,0.013610
want,0.010215
war,0.002620
ward,0.005644
welfar,0.004248
westview,0.006784
whirlwind,0.009068
win,0.004147
wind,0.013146
wing,0.005021
wo,0.008718
women,0.007020
won,0.007467
work,0.001808
worker,0.024033
yai,0.010184
yamada,0.016532
yamahana,0.011028
yamamoto,0.008602
yashiro,0.011028
yasuhiro,0.009152
year,0.005584
ykkai,0.011028
yoshida,0.025490
yseikai,0.011028
yukio,0.009446
zeikint,0.011028
zenkoku,0.022056
zzei,0.011028
