accord,0.012220
al,0.020961
alhaq,0.110138
alhaqq,0.060664
alislah,0.128578
allianc,0.022855
allow,0.012152
alsabri,0.064289
amend,0.025770
amidst,0.038793
anoth,0.011754
arab,0.045143
armour,0.036768
attempt,0.013939
august,0.018570
baath,0.095898
biggest,0.027664
bin,0.033973
candid,0.022732
captur,0.020263
challeng,0.017629
coalit,0.047832
common,0.011935
compris,0.020192
congreg,0.071363
congress,0.044233
council,0.053996
coupl,0.022841
declar,0.019065
defect,0.029137
democrat,0.038682
dialogu,0.027557
disput,0.019855
divisionth,0.062247
domin,0.016243
econom,0.013005
effect,0.011545
elect,0.122697
english,0.016551
faisal,0.046087
feder,0.018921
financi,0.016965
forc,0.050949
forg,0.031609
form,0.019427
forum,0.026100
founder,0.022273
garner,0.070868
gener,0.018263
govern,0.012084
governor,0.046650
gpc,0.269418
green,0.021854
group,0.022926
halt,0.028956
held,0.015024
hizb,0.094122
hold,0.015306
howev,0.010313
includ,0.044107
initi,0.013807
islah,0.128578
islamistori,0.064289
jazeera,0.046461
jmp,0.291383
joint,0.022375
just,0.014817
law,0.025597
leader,0.018577
leadership,0.023050
legal,0.017531
liber,0.019154
like,0.011347
list,0.023626
local,0.028778
mandat,0.026468
march,0.017616
measur,0.013914
meet,0.017188
member,0.013554
membership,0.023399
moham,0.034557
movement,0.014648
muhammad,0.030515
nasserist,0.233106
nation,0.047085
newspap,0.026299
northernbas,0.064289
opposit,0.104877
organ,0.011587
organis,0.040225
parliament,0.021425
parti,0.377583
particular,0.013296
peac,0.020487
peopl,0.035136
percent,0.064006
polit,0.066664
popular,0.106388
power,0.012466
presid,0.035233
presidenti,0.024910
propos,0.015029
protest,0.022638
provid,0.010808
public,0.012268
qahtan,0.058276
refer,0.007725
reform,0.094489
region,0.041503
regularli,0.026299
remnant,0.030889
replac,0.015743
repres,0.025346
restrict,0.017905
revolut,0.057415
saleh,0.092174
seat,0.068586
secular,0.026737
semireligi,0.055069
septemb,0.037261
shamlan,0.056493
sit,0.028423
socialist,0.192427
south,0.033675
spokesperson,0.044324
state,0.009407
statu,0.017957
step,0.018231
stipend,0.043647
stronghold,0.035001
success,0.014258
support,0.012783
time,0.009513
tribal,0.029987
tribe,0.026468
union,0.015977
unionist,0.159077
unit,0.010844
uttahrir,0.048189
viabl,0.029585
view,0.013780
vote,0.061168
wa,0.035263
yemen,0.226591
yemeni,0.506961
youth,0.027116
ysp,0.121328
