aim,0.058158
articl,0.048405
b,0.053947
bank,0.058899
basic,0.049405
c,0.046999
central,0.046107
certain,0.045018
coalit,0.079706
countri,0.129879
current,0.042116
d,0.053257
democraci,0.073279
domin,0.054136
e,0.053309
elect,0.116835
electionsrel,0.191064
extern,0.030970
f,0.058341
form,0.097119
frivol,0.152416
g,0.057295
gener,0.030433
geoschem,0.177829
govern,0.080549
h,0.058833
head,0.054675
ideolog,0.080002
increas,0.040727
individu,0.043685
issu,0.045446
j,0.053187
k,0.064210
l,0.062334
leader,0.061915
link,0.061575
list,0.354340
m,0.050636
major,0.037562
n,0.063581
nation,0.117693
net,0.074424
o,0.074659
organ,0.038617
overview,0.070940
p,0.054045
parliament,0.071404
parliamentari,0.081079
parti,0.547129
particip,0.111704
polit,0.399918
power,0.041546
properli,0.085374
q,0.090924
r,0.054326
refer,0.025747
resourc,0.052125
result,0.035865
rule,0.046999
s,0.036517
scienc,0.043304
separ,0.047040
special,0.044816
state,0.031353
subscrib,0.112044
t,0.062346
tabl,0.137927
thi,0.026802
topic,0.113710
u,0.083611
unit,0.036142
usual,0.043122
v,0.063893
veri,0.040922
vote,0.067953
w,0.060125
y,0.076310
z,0.087426
