achiev,0.034172
activ,0.027104
allianc,0.050802
ani,0.023940
bahama,0.439542
bahamian,0.224414
banner,0.079690
bcp,0.113786
bncp,0.142902
candid,0.050529
coalit,0.106321
constitut,0.034643
defunct,0.077548
democrat,0.257952
develop,0.021943
difficulti,0.047387
dna,0.056627
domin,0.036106
elector,0.056671
exist,0.026268
extrem,0.037892
fnm,0.129536
free,0.032265
independ,0.029012
labour,0.047812
liber,0.042577
list,0.026258
major,0.025052
minor,0.043698
movement,0.097682
nation,0.156991
parti,0.693325
peopl,0.052068
plp,0.121034
polit,0.088908
poor,0.046687
power,0.027709
progress,0.036904
reform,0.042006
social,0.030402
success,0.031693
twoparti,0.089428
unit,0.048211
upm,0.131968
vanguard,0.087277
worker,0.044488
