abov,0.008294
abroad,0.014068
absolut,0.010988
absorb,0.012951
accept,0.008133
accord,0.006478
achiev,0.008150
acquaint,0.018960
act,0.007404
action,0.015920
ad,0.008267
add,0.012353
advoc,0.011121
affair,0.010712
affect,0.008465
afraid,0.020497
age,0.008113
aim,0.009251
albeit,0.016375
alik,0.017458
allow,0.025770
allus,0.021591
alon,0.011079
analyz,0.010889
anathema,0.025958
anderson,0.016884
anglican,0.019364
ani,0.034258
anoth,0.024924
antoninu,0.077874
anyon,0.014124
anyth,0.012803
appear,0.007503
approv,0.011129
aquincum,0.031474
archiv,0.011924
arent,0.020364
arrog,0.022510
art,0.009911
ash,0.035007
asid,0.014775
assign,0.011637
attack,0.010445
audiobook,0.020235
augustin,0.017398
augustu,0.019169
aureliu,0.342180
author,0.007294
avoid,0.009676
away,0.069081
babylon,0.019518
bad,0.013289
baron,0.017238
barrier,0.013181
base,0.005645
beauti,0.014842
becam,0.007140
becaus,0.029402
becom,0.006253
befor,0.013343
begin,0.007617
behav,0.013894
believ,0.008079
belong,0.011037
berner,0.029552
bertrand,0.017016
best,0.008609
bestsel,0.019265
betray,0.018938
bid,0.016645
birth,0.034531
bitter,0.017675
blaze,0.024948
blood,0.012721
blow,0.016549
bodi,0.007838
bond,0.011157
bondag,0.023278
bone,0.014651
book,0.074244
boundless,0.024065
bourchier,0.032160
breath,0.033589
bred,0.020815
briar,0.028565
bright,0.017084
broken,0.013025
buri,0.015446
bustl,0.027138
c,0.014952
caeso,0.034082
came,0.008554
camillu,0.031474
campaign,0.035234
capac,0.010845
capitul,0.021682
carnuntum,0.034082
carri,0.008434
casaubon,0.064320
cato,0.020267
celebr,0.013484
central,0.014668
chain,0.011688
chang,0.005898
charact,0.032435
christian,0.010139
chronicl,0.016479
chronolog,0.015600
churn,0.025816
claim,0.007942
clark,0.015149
classic,0.034578
clearli,0.011764
clearminded,0.034082
clinton,0.018081
clod,0.029949
close,0.007001
collect,0.007632
come,0.007483
common,0.006327
commonli,0.008689
commun,0.006842
compar,0.007739
complaint,0.052017
concept,0.007302
concern,0.007346
concur,0.022023
confess,0.038012
conscious,0.026660
consid,0.012205
constantli,0.014587
contain,0.007507
contempt,0.021729
continu,0.006340
contradictori,0.018475
control,0.006952
coordin,0.011093
cope,0.016794
copi,0.012615
corey,0.023978
corp,0.015437
corps,0.020430
cosmic,0.016009
cosmo,0.017708
cover,0.017231
cr,0.020430
critic,0.007697
critiqu,0.013294
cucumb,0.023811
da,0.013930
daili,0.012239
david,0.018591
daw,0.023730
day,0.039483
deal,0.008430
death,0.027495
deceiv,0.019932
defeat,0.012381
defens,0.011485
degre,0.008569
dentatu,0.034082
depend,0.013809
deploy,0.014162
describ,0.006441
desir,0.009848
despond,0.026761
despot,0.021004
develop,0.005233
differ,0.016642
difficult,0.009127
direct,0.006948
discuss,0.017077
dishonest,0.023278
disposit,0.017822
dissolut,0.031540
distract,0.018784
disturb,0.014695
divid,0.008298
divin,0.027836
doe,0.007080
doesnt,0.015646
domain,0.010220
door,0.016364
durat,0.014903
earth,0.009891
east,0.009686
echo,0.017549
eden,0.021245
edit,0.039443
editio,0.028286
effect,0.006120
ei,0.022875
element,0.016025
embark,0.017708
embrac,0.028425
emot,0.012942
emperor,0.055579
empti,0.015020
encyclopedia,0.010850
end,0.013776
english,0.026323
equal,0.017159
essenti,0.008758
ethic,0.023190
everlast,0.046995
everyman,0.027138
everyon,0.029091
everyth,0.050181
evid,0.008591
evil,0.030649
exampl,0.005642
exasper,0.030392
exhibit,0.011893
exist,0.025060
expans,0.010630
extern,0.009852
eye,0.012594
face,0.009456
fade,0.017993
fail,0.018944
falter,0.022396
familiar,0.013330
farquharson,0.028027
fast,0.012897
fatalist,0.027138
fate,0.015907
faulti,0.020235
favorit,0.018575
fear,0.023643
feel,0.011777
feelinga,0.034082
feet,0.015385
firmament,0.026586
flourish,0.013865
flow,0.009921
focu,0.009242
follow,0.016167
footnot,0.016794
forc,0.006752
form,0.010299
foster,0.014402
fountain,0.022396
franci,0.012901
free,0.015390
freedom,0.010635
frequent,0.009470
fulli,0.010156
fund,0.009288
gain,0.008196
gener,0.004840
georg,0.077675
german,0.009514
gilbert,0.016113
glad,0.023730
god,0.011791
gone,0.014949
good,0.089880
granova,0.034082
grant,0.010327
grape,0.020364
greater,0.008485
greek,0.028619
gregori,0.114710
guidanc,0.015190
gutenberg,0.018045
gutenbergorg,0.034082
ha,0.031445
hadrian,0.025816
hain,0.050353
hammond,0.023071
handbook,0.013634
hang,0.018045
happen,0.063885
happi,0.014896
hard,0.011057
hardli,0.018010
harm,0.025976
harmoni,0.015712
harsh,0.016029
harvard,0.013162
hatr,0.021163
hay,0.131645
hear,0.014206
heart,0.012365
heauton,0.034082
hegel,0.055191
heidelberg,0.020397
height,0.013432
help,0.007375
hi,0.102688
hick,0.082542
histor,0.007567
hold,0.008114
home,0.009620
hous,0.009037
hron,0.032160
humanhowev,0.034082
hunger,0.018535
hurt,0.017659
hutcheson,0.025176
hypocrisi,0.023730
idea,0.022683
identifi,0.008143
ii,0.017633
iii,0.025767
illwil,0.029194
immanuel,0.017003
immens,0.016187
impact,0.009232
imperfectlyand,0.034082
import,0.005745
includ,0.009353
inconsist,0.015656
indianapoli,0.019571
indiffer,0.037233
individu,0.006948
indulg,0.020497
infin,0.017612
infinit,0.013191
influenc,0.007420
injustic,0.019597
inner,0.013542
inspir,0.011146
instead,0.007890
intellig,0.010511
intend,0.010429
intens,0.022377
intern,0.005903
internet,0.022103
interwoven,0.023004
introduct,0.008930
involv,0.006530
isbn,0.063711
isol,0.010937
iv,0.087739
j,0.008460
jacob,0.015190
jame,0.028504
jealou,0.023350
jeanjacqu,0.020080
john,0.030650
judgment,0.057108
just,0.015710
justic,0.011385
kant,0.016297
kind,0.008973
koin,0.025958
l,0.009915
lack,0.008588
larg,0.011871
laud,0.021636
law,0.006785
left,0.008978
legend,0.015867
length,0.022349
lesser,0.013808
let,0.025239
liberti,0.042889
librari,0.031744
librivox,0.020742
life,0.057920
lifeless,0.025419
like,0.024063
line,0.008060
link,0.004897
lip,0.021501
list,0.006262
listen,0.015907
liter,0.012951
literari,0.014124
live,0.058258
livest,0.034082
locat,0.008280
loeb,0.023278
logo,0.035068
long,0.065814
look,0.009299
lose,0.023690
lost,0.009787
lucki,0.022023
lull,0.023978
mac,0.019597
magnum,0.021371
maintain,0.023558
make,0.017181
man,0.079716
mani,0.020361
manuscript,0.015282
marcu,0.338316
marcuss,0.102246
marin,0.012892
martin,0.011920
materi,0.007892
matter,0.008471
matti,0.025958
maxwel,0.100769
meddl,0.023978
mediev,0.012012
medit,0.376463
meet,0.009112
men,0.052215
mere,0.011079
meric,0.034082
michael,0.010364
militari,0.009110
mind,0.042481
ml,0.020706
modern,0.013510
modernday,0.016029
monarchi,0.014436
moor,0.015198
moral,0.011266
morn,0.016364
mostand,0.034082
mric,0.031474
multipl,0.017324
murray,0.032572
natur,0.018036
nd,0.010478
necessari,0.008975
needleman,0.030894
new,0.005030
nightli,0.026419
nobler,0.032160
noblest,0.025061
note,0.012986
noth,0.011917
novel,0.012464
oblivion,0.027138
obscur,0.015600
obsolet,0.017565
offer,0.016748
offic,0.009064
offici,0.008549
onc,0.033660
oneif,0.034082
onli,0.025920
opinion,0.023939
opu,0.020364
order,0.018618
origin,0.012482
overpow,0.022628
ownnot,0.034082
oxford,0.010581
p,0.017193
pack,0.016432
pain,0.028528
pannonia,0.025547
paragraph,0.019217
pass,0.008749
passag,0.013416
path,0.011418
penguin,0.033873
peopl,0.012418
percept,0.011987
perfect,0.012582
perhap,0.010468
period,0.006691
permeat,0.040535
persever,0.023651
person,0.029476
perspect,0.020154
pervad,0.021414
phenomenolog,0.017030
philosoph,0.039539
philosophi,0.076705
piazza,0.025419
place,0.006368
plain,0.014716
plan,0.008528
pleasur,0.016744
point,0.013065
polit,0.007068
popular,0.008057
portion,0.011316
posit,0.006674
possess,0.030360
possibl,0.006586
pound,0.016187
power,0.026434
practic,0.006909
prais,0.015100
preoccup,0.021203
presenc,0.009765
present,0.006457
presid,0.009339
pretend,0.019991
priest,0.015290
primarili,0.008827
princep,0.026259
principl,0.007752
print,0.012127
privat,0.009259
prize,0.012044
profound,0.014731
project,0.007990
promontori,0.027138
prototyp,0.016658
public,0.013007
publish,0.021503
pursuit,0.014559
quadi,0.030894
quotat,0.034307
r,0.008641
random,0.012319
rapid,0.011191
ration,0.011129
reaction,0.010502
read,0.007113
reader,0.013965
real,0.008500
reason,0.022051
recept,0.016209
recogn,0.008782
record,0.008632
reduc,0.007758
ree,0.045138
refer,0.004095
reflect,0.017603
refus,0.011952
regal,0.027138
regard,0.007857
relat,0.011044
religion,0.010431
remembr,0.023004
remind,0.018475
reprint,0.031501
rest,0.009595
restless,0.023208
return,0.008288
revis,0.012239
reward,0.014168
rise,0.008241
river,0.011197
road,0.023793
rocki,0.019571
roman,0.021972
room,0.013284
rousseau,0.019145
royalti,0.018678
russel,0.028711
s,0.005808
sa,0.018045
sacr,0.015684
said,0.025245
sake,0.017111
savour,0.030392
say,0.017746
scarc,0.015684
scene,0.014753
schuster,0.019761
scipio,0.027138
scot,0.042573
sea,0.010450
seamu,0.028565
second,0.006721
secretari,0.013380
seen,0.008036
self,0.028149
selfexpress,0.025816
selfimprov,0.023573
sellar,0.024733
send,0.012808
sens,0.008427
sensori,0.015877
sentenc,0.014001
seri,0.016318
sever,0.017826
severu,0.025296
shall,0.029899
shame,0.042573
share,0.007980
sheer,0.019789
short,0.008732
sight,0.015198
similar,0.006806
simon,0.013695
simplifi,0.013275
sinc,0.005699
sirmium,0.056054
sixth,0.015132
skill,0.010980
sleep,0.016220
smile,0.039357
soberli,0.034082
societi,0.007141
someth,0.010959
soon,0.031357
sort,0.011955
soul,0.014716
sound,0.012001
sour,0.021501
sourc,0.014339
space,0.008788
speech,0.024561
spent,0.012599
spirit,0.038637
spiritu,0.013133
spoken,0.015333
st,0.009188
stale,0.025547
stand,0.021424
staniforth,0.192962
star,0.012640
state,0.024936
steadfastli,0.025679
steinbeck,0.027784
sterner,0.034082
stoic,0.120852
stoicism,0.043747
straightforward,0.018045
strand,0.016253
strip,0.014957
strive,0.016342
strong,0.016564
struck,0.016209
structur,0.006659
studi,0.006023
stuff,0.020463
style,0.035234
subject,0.007251
suibhn,0.031474
superflu,0.021371
surf,0.021824
surli,0.031474
suspicion,0.018320
ta,0.019845
taken,0.016692
tarcher,0.032160
tell,0.038517
terror,0.015173
text,0.019665
thee,0.097730
theme,0.037872
therefor,0.007747
thi,0.059688
thing,0.117906
think,0.039539
thou,0.065331
thought,0.024235
thousand,0.010052
throne,0.016081
throw,0.017503
time,0.040346
tire,0.020080
titl,0.030694
today,0.008188
togeth,0.015720
trajectori,0.017003
tran,0.314792
translat,0.078503
trivial,0.017016
troubl,0.014965
true,0.009229
trust,0.012460
truth,0.012127
turn,0.007880
twine,0.026945
ugli,0.022569
unabl,0.011845
understand,0.007737
unendingli,0.034082
ungrat,0.029194
unhappi,0.019991
unit,0.017247
uniti,0.012529
univers,0.023614
unlik,0.009492
unlucki,0.028866
uphold,0.018742
use,0.009314
utter,0.018784
v,0.040653
valu,0.021916
vari,0.008402
version,0.009970
vi,0.016209
view,0.007305
vii,0.017339
viii,0.036306
void,0.018245
vol,0.012250
volesu,0.034082
wa,0.046736
wait,0.015455
wake,0.015206
want,0.010523
way,0.018283
week,0.011980
welcom,0.015731
wert,0.029552
whatev,0.042096
whi,0.020975
wholli,0.016585
wikisourc,0.022341
wilhelm,0.014349
wipe,0.018455
wisdom,0.015092
wise,0.017806
withdraw,0.013700
word,0.007912
work,0.044703
world,0.023115
worldord,0.032999
worth,0.012906
wove,0.027341
write,0.053473
written,0.045122
wrong,0.040219
wrongdoer,0.028565
wrote,0.019422
x,0.010092
xyland,0.028866
ye,0.018189
year,0.011505
youll,0.025061
youv,0.024153
