ab,0.007247
abl,0.001827
absenc,0.002659
absent,0.007050
absolut,0.002453
abstract,0.005090
ac,0.003939
academi,0.022291
academu,0.022827
accept,0.009079
access,0.002001
accord,0.031820
accordingli,0.003255
account,0.039182
acknowledg,0.002789
acquaint,0.004233
acquir,0.004711
act,0.001653
action,0.001777
activ,0.001443
actual,0.003702
ad,0.005537
addit,0.004389
address,0.004356
adeimantu,0.022103
adequ,0.003034
adjourn,0.005898
admir,0.006854
admit,0.003050
adopt,0.003992
advanc,0.001786
adventur,0.003628
adversari,0.004290
advoc,0.004965
aegina,0.006058
afterlif,0.004424
age,0.007245
ago,0.002802
agon,0.006015
agora,0.005898
agre,0.006542
agreement,0.004415
ailment,0.004599
aim,0.002065
al,0.002481
albert,0.002939
alcibiad,0.017695
alexand,0.002771
alexandrian,0.005107
alfarabi,0.009856
alfr,0.005927
alleg,0.005981
allegedli,0.003724
allegori,0.013729
allud,0.004418
alon,0.002473
alonzo,0.005229
alreadi,0.004214
altogeth,0.007171
alway,0.001945
ambassador,0.003549
ambit,0.003772
amousoi,0.007609
analog,0.007753
analys,0.002827
analysi,0.003487
ancestor,0.003108
ancient,0.018861
ani,0.006373
anniceri,0.007180
annot,0.003960
anoth,0.011129
answer,0.005150
antiphon,0.006058
antiqu,0.005986
anyth,0.002858
anytu,0.007180
aphrodisia,0.005898
apocryph,0.005121
apocrypha,0.011527
apollo,0.004525
apollodoru,0.018313
apolog,0.044057
aporia,0.006444
appar,0.012346
appear,0.016753
append,0.005093
appendix,0.004469
appetit,0.009505
appetitespiritreason,0.015218
appli,0.003092
apprehens,0.014147
approach,0.008323
appropri,0.006955
approvingli,0.006377
approxim,0.001971
apuleiu,0.005795
aquina,0.004069
arab,0.008014
arcadian,0.005795
archetyp,0.004238
archiv,0.002662
archon,0.006015
area,0.001436
arena,0.003997
aretha,0.014735
arethasa,0.007609
argo,0.005570
argu,0.023090
argument,0.009720
aris,0.004719
aristocl,0.035901
aristocraci,0.008155
aristocrat,0.007980
aristodemu,0.007180
ariston,0.064622
aristophan,0.016364
aristotl,0.047708
aristoxenu,0.006152
arithmet,0.010595
arm,0.004612
armi,0.004975
arrang,0.004716
array,0.003156
arriv,0.002328
art,0.011064
articl,0.001719
artist,0.003035
ascertain,0.004165
ascrib,0.011461
ask,0.004782
aspect,0.001901
assert,0.002484
assign,0.002598
associ,0.002825
assum,0.002003
assumpt,0.002464
assur,0.003295
astrolog,0.004184
astronomi,0.003247
athen,0.051973
athenian,0.028685
attach,0.002738
attack,0.002332
attain,0.005855
attempt,0.003299
attend,0.005519
attent,0.004717
attic,0.005476
attribut,0.004497
audiobook,0.004517
auguri,0.006598
augustin,0.003884
authent,0.007327
author,0.013028
avail,0.007072
averro,0.004707
avicenna,0.004081
avoid,0.006481
axiochu,0.007609
b,0.019158
bad,0.014835
base,0.010082
basi,0.003603
bce,0.016003
bear,0.002706
beauti,0.009941
becam,0.006376
becaus,0.009190
becom,0.011169
bed,0.003766
bee,0.004090
befor,0.004468
begin,0.006802
begun,0.002773
behalf,0.006434
belief,0.028016
believ,0.005411
belittl,0.006315
belong,0.004928
berlinghieri,0.007609
bernard,0.003396
besid,0.002984
bessarion,0.006104
best,0.001922
better,0.001966
bettera,0.007180
bibl,0.003497
biograph,0.003960
biographi,0.003364
biolog,0.002068
birth,0.012849
bitter,0.003946
blackburn,0.004987
blame,0.003464
blind,0.003569
bloom,0.004323
board,0.002516
boast,0.004387
bodi,0.007000
boleianu,0.007609
book,0.011603
bore,0.003914
born,0.004927
borodi,0.015218
borrow,0.002894
bought,0.003332
bound,0.002609
boy,0.024058
brave,0.004553
breadth,0.004142
brief,0.002764
bright,0.003814
bring,0.002168
broad,0.002342
broader,0.002908
broke,0.002990
brother,0.011699
brotherinlaw,0.004975
brought,0.002149
burnet,0.010998
busi,0.001966
byzantin,0.017940
byzantium,0.008993
c,0.011684
caesarea,0.005675
calippu,0.007367
callia,0.013570
calligraph,0.005795
cambridg,0.004626
came,0.009549
campbel,0.007822
captain,0.007050
captur,0.002398
care,0.002194
carpent,0.004568
case,0.005842
cast,0.005934
castor,0.005595
cathol,0.002820
caus,0.015591
causat,0.004213
cave,0.017561
cb,0.004623
cd,0.012063
ce,0.003200
celebr,0.003010
central,0.001637
centuri,0.010499
certain,0.001598
certainli,0.003334
cf,0.003939
challeng,0.002086
champion,0.003626
chanc,0.002811
chang,0.010535
changeless,0.012889
chao,0.003380
chapter,0.002722
charact,0.031380
character,0.008862
characterist,0.002013
charg,0.011271
charmid,0.055181
cheap,0.003619
childhood,0.003732
children,0.004804
choic,0.004590
choos,0.005025
christian,0.020374
chronolog,0.013931
church,0.005278
cicero,0.004351
circa,0.003925
circular,0.003404
cite,0.004886
citi,0.022190
citizen,0.002390
cityst,0.004098
civil,0.004007
claim,0.012412
clarendon,0.004248
clark,0.010146
clarkianu,0.007609
class,0.007750
classic,0.017370
classifi,0.007088
clear,0.006522
clearli,0.002626
climb,0.007907
clitophon,0.015218
close,0.004689
cluster,0.003205
coach,0.004810
codex,0.023856
codru,0.007609
coher,0.003220
coin,0.002419
coincid,0.006284
collaps,0.002573
collect,0.003408
combin,0.001665
come,0.010024
comic,0.004086
comment,0.005596
commentari,0.023574
commit,0.002448
common,0.009888
commun,0.003055
compani,0.001844
compar,0.005183
compel,0.003651
compil,0.006028
complain,0.003793
complet,0.016135
composit,0.004843
conceiv,0.003067
conceiveda,0.007609
concern,0.008201
conclud,0.007168
conclus,0.002603
condemn,0.003290
conduct,0.002002
confid,0.002988
confirm,0.002518
conflict,0.004351
confus,0.002629
congress,0.002617
connect,0.003847
consensu,0.005828
consequ,0.001986
consid,0.014987
consider,0.003926
consist,0.006254
constantinopl,0.012122
constantli,0.003256
construct,0.001809
contain,0.010056
contempl,0.004032
contemporan,0.004351
contemporari,0.002285
contemptu,0.005647
content,0.004610
contest,0.003073
continu,0.009909
contradict,0.003120
contrari,0.003055
contrast,0.003947
contribut,0.003429
control,0.001552
controversi,0.002302
conundrum,0.005433
convent,0.004524
convers,0.012052
convict,0.003385
cook,0.006587
cooper,0.004466
copi,0.016899
coptic,0.005181
core,0.002481
cornel,0.003694
corneliu,0.004607
correct,0.002352
correspond,0.010604
corrupt,0.011473
cosimo,0.029874
cosmo,0.003953
couch,0.005166
council,0.002130
countri,0.001537
courag,0.004357
cours,0.004072
court,0.004432
courtroom,0.005545
craftsmen,0.004561
cratylu,0.041550
crew,0.003674
crime,0.005797
crisi,0.002410
criterion,0.003508
critia,0.046186
critic,0.010311
crito,0.040712
critobolu,0.007609
cross,0.002549
croton,0.005935
culmin,0.003095
cultur,0.001756
current,0.002991
custom,0.002362
cyren,0.005213
d,0.003782
da,0.006220
date,0.009763
daughter,0.003206
day,0.012341
dazzl,0.005433
deal,0.003764
death,0.014323
debat,0.002175
debra,0.006203
decis,0.003939
declar,0.002256
declin,0.002218
deed,0.004052
deepli,0.003298
defend,0.005228
defens,0.002564
defin,0.001603
definit,0.005542
degener,0.004090
degrad,0.003351
delicaci,0.005476
delphi,0.005392
demis,0.004129
democraci,0.018217
democrat,0.004578
demodocu,0.007609
demonstr,0.004200
demu,0.007027
den,0.008378
deni,0.005416
depart,0.002048
depth,0.003067
deriv,0.012435
descent,0.006703
describ,0.014380
descript,0.010678
design,0.001716
desir,0.004397
destroy,0.002443
determin,0.001622
develop,0.003505
devot,0.002761
di,0.003636
dialect,0.024058
dialogu,0.225055
dicaearchu,0.006315
did,0.003468
didiciss,0.006686
die,0.008954
differ,0.012385
difficult,0.006113
diminish,0.003163
diogen,0.042530
dion,0.029678
dionysiu,0.028105
dionysiuss,0.015218
direct,0.001551
directli,0.003754
disapprov,0.004381
disbelief,0.004951
discern,0.003839
discipl,0.023427
disclos,0.008163
discours,0.003199
discov,0.002057
discrep,0.004032
discurs,0.005246
discuss,0.009531
dismiss,0.006225
disparag,0.014819
display,0.002655
disput,0.007050
distinct,0.005398
distinguish,0.012445
diverg,0.003157
divers,0.002247
divid,0.003705
divin,0.024859
divis,0.004049
doctor,0.008364
doctrin,0.028018
dodd,0.020103
doe,0.011065
domain,0.002281
dominican,0.004203
doubt,0.006030
drachma,0.005935
dramat,0.018469
draw,0.002395
dream,0.003373
drink,0.006929
drunken,0.005412
dualiti,0.008018
dub,0.003758
dubiou,0.004503
dure,0.012104
dyad,0.011242
e,0.005679
ea,0.009050
earli,0.021103
earlier,0.008313
earliest,0.004702
earnest,0.004437
echecr,0.007027
echedemu,0.007609
eclips,0.003769
ed,0.001969
edit,0.048434
edmund,0.003578
educ,0.008959
effect,0.001366
effectu,0.005213
egypt,0.005941
einstein,0.003391
element,0.007155
elicit,0.008397
eloqu,0.004963
elpenor,0.007609
els,0.008690
embed,0.003271
emissari,0.005213
emphas,0.004937
emphasis,0.003790
empir,0.003925
employ,0.001865
enabl,0.002230
enclosur,0.004715
encyclopedia,0.009690
end,0.006151
enemi,0.006287
english,0.013713
enlighten,0.006142
entangl,0.004329
enter,0.002056
enthusiasm,0.004290
entir,0.003648
epigram,0.005828
epinomi,0.007367
epiphenomena,0.006104
epistemolog,0.020057
epistl,0.010272
equal,0.001915
equival,0.002265
er,0.008887
era,0.004444
ero,0.005545
erotic,0.006897
erron,0.004028
eryxia,0.007180
especi,0.006533
essenc,0.009532
essenti,0.001955
establish,0.006004
estienn,0.006517
et,0.002417
etern,0.007112
ethic,0.007766
eu,0.003062
euclid,0.012855
europ,0.001907
european,0.001751
eusebiu,0.005246
euthanasia,0.005000
euthydemu,0.014054
euthyphro,0.036626
event,0.009152
eventu,0.001999
everi,0.001760
everyday,0.003004
everyon,0.006495
everyth,0.008402
evid,0.007672
evil,0.013685
evolut,0.002283
exact,0.005366
examin,0.004403
exampl,0.007558
excel,0.003042
exclus,0.002402
execut,0.004261
exercis,0.002416
exhaust,0.006578
exist,0.015386
exorbit,0.005647
expect,0.001932
expel,0.003391
expens,0.002512
experienti,0.004539
expertis,0.003431
explain,0.005680
explicit,0.003071
explicitli,0.008590
expos,0.008452
expound,0.004179
express,0.005467
extant,0.018609
extens,0.001899
extent,0.006943
extern,0.001099
eye,0.005623
face,0.004222
fact,0.017859
faction,0.003322
fail,0.002114
fairli,0.003186
faith,0.002811
fall,0.007680
fals,0.002852
famili,0.021424
famou,0.011618
famous,0.010960
far,0.001907
farmer,0.005954
fashion,0.002960
fatalist,0.006058
father,0.014837
fatherless,0.006785
fatherson,0.013373
faulti,0.004517
favor,0.002323
favour,0.002766
feast,0.004424
fee,0.009876
feel,0.005259
fellow,0.009540
ferrara,0.005476
ferunt,0.006686
ficino,0.017386
fidel,0.004264
fifti,0.003565
fiftyon,0.006152
figur,0.014582
filippo,0.005522
final,0.007277
fine,0.003007
firsthand,0.004862
fit,0.005121
flaw,0.003585
fleet,0.003382
florenc,0.008097
flower,0.003415
fluctuat,0.003141
flute,0.005136
flux,0.003700
follow,0.010828
fool,0.004568
footnot,0.007499
forc,0.004522
forcibl,0.004107
forehead,0.005052
foreign,0.001958
foreshadow,0.004510
forget,0.004198
form,0.048287
formal,0.001882
format,0.002051
formul,0.004817
forth,0.003057
forti,0.003755
forward,0.002670
foster,0.003215
foundat,0.005884
founder,0.007908
fragment,0.005916
francesco,0.004418
fratern,0.004615
freedom,0.004748
frege,0.004576
french,0.002024
frequent,0.002114
friedrich,0.006152
friend,0.011949
friendship,0.003735
fruit,0.002980
function,0.001539
fundament,0.005778
futur,0.001831
gain,0.001829
gaiser,0.007027
game,0.002581
gap,0.002927
gather,0.002622
gave,0.002188
gdel,0.004312
gemisto,0.007180
gemistu,0.006377
gener,0.008646
geneva,0.003997
genuin,0.006978
geometr,0.009279
georg,0.004335
german,0.002124
gettier,0.012208
gift,0.003395
girl,0.003713
given,0.009051
glaucon,0.034488
glorif,0.006152
god,0.007897
goe,0.002706
gold,0.002615
gomperz,0.006785
gone,0.006675
good,0.030100
gorgia,0.029142
gottlob,0.004576
govern,0.005721
gr,0.004761
graecu,0.006897
grammar,0.011223
grandfath,0.008624
grandson,0.004213
grappl,0.004963
graspabl,0.006897
great,0.010171
greater,0.001894
greatest,0.005293
greec,0.002843
greek,0.038338
ground,0.004377
group,0.009497
grove,0.004363
grow,0.001928
growth,0.001903
guardian,0.011149
guest,0.003971
guid,0.004253
guidanc,0.003391
guilti,0.008073
gutenberg,0.004028
gymnast,0.010526
ha,0.028082
hackett,0.010131
halcyon,0.006517
halfbroth,0.005229
hammadi,0.006315
hamper,0.003986
han,0.003005
hand,0.005591
happi,0.003325
happier,0.005263
happili,0.005499
hard,0.002468
hare,0.004599
harmoni,0.003508
harold,0.003609
hartz,0.012514
head,0.003883
health,0.004193
healthi,0.003284
heard,0.003576
hecademu,0.007609
hefti,0.006058
hegel,0.004107
heidegg,0.009078
height,0.002998
heinrich,0.003732
held,0.001778
hellen,0.004329
help,0.004939
hemlock,0.005675
henc,0.002346
henri,0.002424
henricu,0.011190
heracleitean,0.007180
heraclitean,0.006444
heraclitu,0.023953
hermippu,0.006897
hermodoru,0.007180
hermogen,0.007609
hero,0.003567
hi,0.151046
higher,0.003576
highli,0.001980
hint,0.004094
hipparchu,0.005025
hippia,0.018176
hippo,0.004583
hipponicu,0.007609
histor,0.003379
histori,0.006263
hold,0.001811
home,0.006443
homer,0.012654
honor,0.003111
horaton,0.007609
howev,0.012207
human,0.013042
hunayn,0.005898
hunter,0.003811
hyperlink,0.005372
iamblichu,0.006058
ibn,0.003274
idea,0.037139
ideal,0.022026
ident,0.002153
identifi,0.003636
ideolog,0.002841
ignor,0.005217
ii,0.005905
iliad,0.005025
ill,0.002920
illumin,0.007067
illus,0.003713
imag,0.011580
imagin,0.006014
imit,0.003558
immedi,0.002211
immort,0.003982
imperfect,0.007405
impli,0.002338
implic,0.002620
implicitli,0.003986
import,0.015393
improv,0.001850
incens,0.005121
includ,0.016705
incomplet,0.003277
inconsequenti,0.005795
increasingli,0.002217
inde,0.007672
indefinit,0.003533
independ,0.003089
indiana,0.003799
indic,0.005550
indirectli,0.003241
indispens,0.004198
indisput,0.005093
individu,0.007757
infant,0.007228
infer,0.002890
infinit,0.002945
influenc,0.028163
influenti,0.009676
inform,0.005981
infus,0.004317
inher,0.002882
inherit,0.002789
inhibit,0.003702
initi,0.006537
injustic,0.004375
ink,0.004469
innov,0.002605
inscript,0.004061
insight,0.008370
insist,0.003068
inspir,0.012442
instanc,0.006111
instanti,0.009879
instead,0.005285
institut,0.001591
instruct,0.005663
intact,0.003855
intellectu,0.010321
intellig,0.004693
intern,0.002636
internet,0.004934
interpret,0.026086
intim,0.003763
introduc,0.001764
introductori,0.003585
intuit,0.009655
invent,0.007342
invert,0.004065
investig,0.002107
invis,0.003671
involv,0.001458
ion,0.013046
ironi,0.004905
irrat,0.007748
ishaq,0.005522
islam,0.005007
isnt,0.004081
issu,0.003228
isthmian,0.006257
itali,0.002706
ivori,0.004086
jab,0.006203
jean,0.003119
jewish,0.003118
joachim,0.004724
joann,0.005316
john,0.006843
join,0.002237
jowett,0.012889
juri,0.004213
just,0.005261
justic,0.010167
justif,0.007028
justifi,0.015123
justinian,0.004752
kant,0.003638
karl,0.005657
kept,0.008130
kind,0.010017
king,0.023956
know,0.009115
knowabl,0.010214
knower,0.005499
knowledg,0.041617
known,0.012566
konrad,0.004576
krmer,0.006686
kurt,0.003960
label,0.002705
labour,0.002545
lach,0.012117
lack,0.007669
laertiu,0.031016
laertiuss,0.007609
laid,0.002838
land,0.003806
languag,0.003780
larg,0.003975
largest,0.002076
lartiu,0.005898
late,0.012187
later,0.019441
latest,0.003358
latin,0.011817
laughingstock,0.007609
laughter,0.005316
launch,0.002532
law,0.012118
lawmak,0.004576
lay,0.002829
lead,0.006001
leader,0.002198
learn,0.012674
lectur,0.010936
led,0.003245
left,0.006013
legal,0.004150
legend,0.003542
leo,0.003763
lesser,0.006165
letter,0.017376
level,0.001503
lewi,0.003156
librari,0.004724
librivox,0.004631
lieu,0.004743
life,0.008082
like,0.006715
likemind,0.005121
line,0.008998
link,0.005466
lip,0.004800
list,0.001398
listen,0.003551
liter,0.005783
literari,0.006306
literatur,0.004493
littl,0.001924
live,0.004877
locat,0.005546
loeb,0.005197
lofti,0.005107
logic,0.004867
logist,0.007257
logo,0.003914
long,0.004898
longer,0.002073
longstand,0.003633
look,0.006228
lorenzo,0.004707
lost,0.002185
loui,0.002837
love,0.014925
lover,0.013311
luciu,0.005298
luxuri,0.003772
lyric,0.004532
lysi,0.022815
m,0.003596
machiavelli,0.004715
mad,0.004098
magnifi,0.004655
maimonid,0.004698
main,0.006367
mainli,0.004174
maintain,0.001753
major,0.002667
make,0.007671
man,0.028921
mani,0.031821
manner,0.002426
manuscript,0.034119
marri,0.003152
marriag,0.003178
marsilio,0.005898
martin,0.002661
mason,0.004351
mass,0.004124
master,0.002683
match,0.005347
materi,0.012333
mathemat,0.011859
matter,0.003782
matur,0.005851
mcdowel,0.005703
mean,0.008308
mediat,0.003080
medici,0.004780
medicin,0.007191
mediev,0.013409
meet,0.002034
megara,0.011871
melanthu,0.007609
meletu,0.007609
member,0.001604
memorabilia,0.006517
memori,0.005231
men,0.016320
menac,0.004851
mend,0.004830
menexenu,0.022827
meno,0.045630
mention,0.012171
merchant,0.005972
merci,0.004351
mere,0.009894
merit,0.003588
messenia,0.006686
metaphys,0.038604
metempsychosi,0.006104
method,0.001557
methodcan,0.007609
middl,0.018657
middlel,0.007180
middletransit,0.007609
midwif,0.005595
mina,0.010131
mind,0.007113
mino,0.006203
minor,0.002326
mistaken,0.004151
mock,0.004724
mockeri,0.005733
model,0.004698
moder,0.002880
modern,0.016589
modest,0.003671
modesti,0.005433
money,0.004494
moot,0.005372
moral,0.010061
mother,0.011590
mouthpiec,0.006058
ms,0.003778
muddl,0.005621
multipl,0.001933
multipli,0.003241
multitud,0.003968
muse,0.009294
music,0.005526
muster,0.005433
mutil,0.005025
mutini,0.004369
mysteri,0.003318
mystic,0.003708
mytholog,0.003516
nag,0.005433
nail,0.009246
namesak,0.005121
narrat,0.037617
natur,0.012080
navel,0.006444
nearli,0.004379
necess,0.003150
necessari,0.004007
need,0.001511
neoplaton,0.013126
neoplatonist,0.005107
nephew,0.004208
new,0.002246
niec,0.005136
nietzsch,0.012745
noeton,0.007609
nonetheless,0.003145
nonexperienti,0.007180
nonsens,0.004334
north,0.001996
notabl,0.003858
note,0.008697
notheuomenoi,0.007609
notion,0.004757
notori,0.003990
number,0.007547
numer,0.001862
obfusc,0.005647
object,0.015469
obscur,0.003482
observ,0.003318
occup,0.002619
occur,0.003194
octob,0.002174
odd,0.007094
offer,0.011218
oil,0.002509
old,0.002080
older,0.005277
oldest,0.008159
oligarch,0.005052
oligarchi,0.009311
olympiodoru,0.006315
omnia,0.006104
onc,0.003757
onli,0.023148
onlin,0.002200
ontolog,0.010334
open,0.008606
oper,0.003172
opinion,0.010689
oppon,0.003123
opportun,0.002374
oppos,0.006303
opposit,0.002068
oppress,0.003708
oracl,0.008874
oral,0.009747
order,0.011084
ordinari,0.002741
organ,0.002742
organic,0.006444
origin,0.009753
orphan,0.004715
orphic,0.006058
orphism,0.006377
otherwis,0.002391
outlaw,0.004036
outlin,0.004894
outsid,0.003836
overal,0.002301
overthrow,0.003651
overview,0.002519
owner,0.002844
oxford,0.009449
oxoniensi,0.007609
oxyrhynchu,0.006686
pagin,0.013570
pain,0.003184
paint,0.006386
papyri,0.042244
par,0.003858
paradox,0.003215
parallel,0.005210
parisinu,0.007367
parmenid,0.071428
partak,0.004951
partial,0.002312
particip,0.007934
particular,0.001573
particularli,0.001763
partli,0.002703
pass,0.001953
pastri,0.005675
patern,0.004503
patriarch,0.004198
pay,0.002347
peculiar,0.003914
peloponnesian,0.005545
pen,0.004028
penalti,0.003761
penetr,0.003358
peopl,0.019407
perceiv,0.002528
percept,0.002676
perfect,0.011236
perfum,0.004951
perhap,0.004674
pericl,0.005675
periction,0.050261
period,0.010457
perman,0.004873
perseu,0.004820
persian,0.006318
person,0.008226
perspect,0.004499
persuas,0.003960
phaedo,0.065723
phaedru,0.070352
phenomena,0.002400
phil,0.004591
philebu,0.026392
philolog,0.004790
philosoph,0.105933
philosopherk,0.018946
philosophi,0.053517
philosophis,0.006377
philpap,0.004583
photio,0.006598
physic,0.011516
piec,0.002776
piti,0.005334
pivot,0.003746
place,0.009953
plat,0.006598
plato,0.755180
platoinspir,0.007609
platon,0.056186
platonem,0.006686
platonica,0.007609
platonist,0.019902
platyt,0.007609
play,0.005446
pleasur,0.003738
plethon,0.033432
pleto,0.007609
plot,0.006163
plotinu,0.005079
pltn,0.015218
plumber,0.006058
plutarch,0.004830
poet,0.006953
poetri,0.010524
point,0.001458
polit,0.031561
politeia,0.006785
politicu,0.007027
pollux,0.006785
polyamori,0.006598
polymorph,0.004323
poor,0.004972
popper,0.008240
popular,0.003597
portrait,0.004077
pose,0.003062
posit,0.004470
possibl,0.004411
post,0.002440
postmodern,0.003887
poton,0.007609
power,0.004426
practic,0.003085
prais,0.006742
precis,0.009499
predecessor,0.003143
predic,0.003979
premiddl,0.007609
present,0.017299
presocrat,0.008799
press,0.005090
presum,0.006437
prevail,0.003050
preval,0.003174
prevent,0.002061
previou,0.002174
previous,0.002197
pride,0.003968
primari,0.001903
primarili,0.003941
prime,0.002316
princ,0.003111
principl,0.008653
print,0.013538
prison,0.006120
privat,0.002067
probabl,0.006206
problem,0.007709
problemat,0.003474
proce,0.003510
proceed,0.002638
process,0.002726
proclu,0.005621
prodicu,0.011656
produc,0.003000
product,0.001502
professor,0.002576
progress,0.003930
project,0.005352
promin,0.009043
promot,0.002056
promulg,0.003676
pronounc,0.003482
propag,0.003212
proper,0.002586
properli,0.006063
properti,0.001745
propon,0.003021
proportion,0.004248
propos,0.003557
prosecut,0.003897
prostitut,0.004411
protagora,0.057708
protect,0.001921
prototyp,0.003719
prove,0.002225
proven,0.006090
provid,0.003837
psychologist,0.003303
public,0.004356
publish,0.009601
punish,0.003171
pupil,0.003761
pure,0.006839
purpos,0.001875
pursu,0.002622
pyrilamp,0.022827
pythagora,0.039219
pythagorea,0.006686
pythagorean,0.021673
qualif,0.003663
qualifi,0.006063
qualiti,0.002148
quest,0.003631
question,0.016295
quick,0.007125
quickli,0.002346
quot,0.009049
r,0.003858
race,0.002832
rais,0.002126
rancher,0.005476
rang,0.006922
rank,0.002434
ration,0.004969
rationalist,0.004170
reach,0.001858
read,0.007940
reader,0.003118
real,0.013285
realiti,0.009949
realli,0.002941
realm,0.005777
reason,0.019693
receiv,0.003494
recent,0.004750
recogn,0.003921
recognis,0.002823
recollect,0.009167
reconcil,0.003595
reconstruct,0.005731
record,0.007709
recount,0.004243
recoveri,0.003044
recruit,0.003371
recurr,0.003928
refer,0.010058
referenc,0.003928
refut,0.007223
regard,0.005263
regim,0.007993
regress,0.003606
reign,0.003161
reintroduc,0.004218
reject,0.009016
rel,0.003279
relat,0.008630
relationship,0.012218
religion,0.004657
remain,0.006049
remark,0.008413
rememb,0.003357
remind,0.004124
renaiss,0.009070
renam,0.003174
repeat,0.005278
repeatedli,0.003253
report,0.003514
repres,0.005999
represent,0.004613
republ,0.077260
reput,0.012727
request,0.002779
requir,0.004318
research,0.001483
resembl,0.002884
resolv,0.002656
resourc,0.001851
respect,0.003477
respons,0.001586
rest,0.006427
restor,0.002586
result,0.001273
resurg,0.007822
retic,0.005935
return,0.005551
reveal,0.002405
review,0.002048
revis,0.005465
reviv,0.002905
rewritten,0.004553
rhapsodi,0.006104
rhetor,0.010621
rich,0.002622
riddl,0.005107
ridicul,0.004290
right,0.001640
rightli,0.004905
rigor,0.003079
ripoli,0.007609
rise,0.001840
ritter,0.005093
rival,0.003021
river,0.002499
robust,0.003312
role,0.003203
roman,0.002452
roughli,0.002565
rule,0.025037
ruler,0.009165
rumor,0.004517
run,0.004018
safest,0.005197
said,0.011272
sail,0.003458
saint,0.003057
saw,0.006713
say,0.043584
scenario,0.003312
scene,0.003293
scheme,0.002752
scholar,0.046443
scholarship,0.013078
scholast,0.007921
scholastic,0.004381
school,0.005581
scienc,0.010765
scientist,0.004181
scope,0.002688
scorn,0.004951
sea,0.002333
searchabl,0.004800
second,0.006003
secondari,0.002603
secreci,0.004483
secret,0.002821
section,0.002265
secur,0.001942
seen,0.001794
segment,0.003132
selfconsci,0.004576
selfcontrol,0.004851
sens,0.015052
sensibl,0.012134
sent,0.002534
separ,0.003341
septemb,0.002205
seri,0.007286
seriou,0.005123
serr,0.005181
serranu,0.007609
serv,0.001820
set,0.002832
settl,0.002598
seventh,0.014758
sever,0.009286
sexual,0.006009
shadow,0.007125
shape,0.002179
share,0.001781
ship,0.007783
short,0.001949
sicili,0.004203
sight,0.003393
siglum,0.022827
signific,0.003249
significantli,0.002346
similar,0.001519
simon,0.003057
simpli,0.002076
simplic,0.003681
simpliciu,0.011656
sinc,0.011452
singl,0.001703
sister,0.003512
sisyphu,0.006315
situat,0.003918
sjacopo,0.007609
skeptic,0.006703
slander,0.011190
slave,0.009021
slaveri,0.003353
sleep,0.007242
sling,0.011242
slyli,0.007180
small,0.006228
socal,0.007703
social,0.001618
societ,0.003578
societi,0.012755
socrat,0.333938
sold,0.002687
solon,0.005935
solut,0.004354
someth,0.012233
sometim,0.001656
somewhat,0.005395
son,0.026803
sophist,0.026351
soul,0.046000
sourc,0.022410
sow,0.005107
spanish,0.002752
sparta,0.005476
speak,0.014641
speaker,0.003268
special,0.001591
specif,0.001522
speech,0.008225
spent,0.002812
speusippu,0.018176
spirit,0.005750
spiritu,0.005864
spite,0.003666
spoke,0.003512
spoken,0.003423
spuriou,0.019622
squander,0.005545
stabil,0.002373
stadia,0.006444
stand,0.002391
standard,0.006856
stanford,0.005912
state,0.014475
statement,0.004672
statesman,0.026434
statesmen,0.004780
statingeven,0.007609
step,0.002157
stephanu,0.025029
stobaeu,0.006686
stop,0.002514
stori,0.015477
storylin,0.005181
strang,0.003775
strauss,0.014683
strength,0.002581
strong,0.003698
strongli,0.004905
structur,0.004460
struggl,0.002667
student,0.006498
studi,0.010759
stumbl,0.004800
style,0.002622
stylometr,0.022827
stylometri,0.014360
subject,0.008094
subsequ,0.001985
substanc,0.002675
substanti,0.004724
substrat,0.003864
successor,0.002858
suggest,0.019597
suit,0.002958
sulla,0.005703
summar,0.003241
sunlit,0.006152
suppl,0.005675
suppli,0.002074
support,0.003026
suppos,0.008389
surviv,0.013169
suspici,0.004346
suzann,0.005151
sweet,0.003964
symposium,0.040734
synthesi,0.002841
syracus,0.029172
systemat,0.004862
szlezk,0.007609
t,0.002214
tackl,0.003918
taken,0.003726
tarrant,0.006897
tarski,0.005197
tasti,0.006686
tbingen,0.005545
teach,0.017450
teacher,0.014581
teleolog,0.004248
tell,0.008599
tempor,0.003353
temporari,0.003001
term,0.003607
terribl,0.004399
tertullian,0.005595
testifi,0.004340
testimoni,0.008189
testimonia,0.028720
tetralog,0.037219
text,0.043906
textual,0.007995
th,0.005836
thcenturi,0.002934
theaetetu,0.129766
theag,0.007609
theme,0.008455
themselv,0.009438
theolog,0.003102
theologian,0.003763
theori,0.019391
therebi,0.002634
therefor,0.001729
therewith,0.006517
thesi,0.003149
thi,0.040930
thing,0.018224
think,0.013241
thinker,0.012305
thirdcenturi,0.006785
thirteen,0.003817
thirti,0.006862
thirtyf,0.005499
thoma,0.002276
thorough,0.003817
thought,0.016232
thracian,0.005647
thrasyllu,0.020356
threat,0.002669
thrust,0.004476
thth,0.004248
thu,0.007438
tiberiu,0.005570
tightli,0.003986
till,0.007684
timaeu,0.042385
time,0.014637
timocraci,0.012630
titl,0.006852
today,0.007312
togeth,0.003509
told,0.006455
tome,0.004820
took,0.007952
tool,0.002037
torso,0.010909
total,0.003551
totalitarian,0.004174
trace,0.004880
tradit,0.019230
trainer,0.004862
trait,0.003015
transcendent,0.004065
transform,0.002083
transit,0.006646
translat,0.021908
transmigr,0.005621
transmiss,0.006287
transmit,0.009354
travel,0.004494
treat,0.004456
treatis,0.003070
treatment,0.004682
tree,0.002621
tri,0.004006
trial,0.014519
trip,0.003516
tripartit,0.004476
troop,0.002872
troubl,0.003341
true,0.026786
trust,0.002781
truth,0.010830
turn,0.003518
tutor,0.008848
twelfth,0.004450
twenti,0.006260
twentyeight,0.005412
twice,0.003033
type,0.004590
typic,0.001707
tyranni,0.008966
tyrant,0.039335
ultim,0.004402
unattain,0.005499
unavail,0.004161
unchang,0.010179
uncl,0.008138
unconcern,0.005392
undergon,0.007943
understand,0.001727
undisciplin,0.005862
unexpect,0.003716
unifi,0.005327
uninterrupt,0.009561
uniqu,0.002169
unit,0.001283
uniti,0.005594
univers,0.007908
unknown,0.005269
unless,0.002851
unlik,0.004238
unmolest,0.006517
unseemli,0.006598
unseen,0.004800
unveil,0.004340
unwritten,0.031897
use,0.011438
usual,0.006125
usurp,0.004517
utopia,0.004483
utopian,0.004424
utterli,0.004743
valori,0.006897
varieti,0.003821
variou,0.002897
vellum,0.006058
venetu,0.007609
ventur,0.003351
veri,0.008719
version,0.004452
vice,0.002946
view,0.017941
viewpoint,0.003349
viii,0.004052
vindobonensi,0.007609
virtu,0.009673
virtual,0.005033
virtuou,0.004490
visibl,0.002812
vision,0.013782
visit,0.005113
visualis,0.004780
voic,0.003033
volum,0.008719
w,0.004270
wa,0.059476
wageearn,0.006377
want,0.002349
war,0.005423
warn,0.003060
warrior,0.003835
warriorlik,0.007609
wast,0.003052
water,0.001963
way,0.005442
wealth,0.005241
wealthi,0.003320
wealthiest,0.004456
weari,0.005433
websit,0.002406
wed,0.004301
wellreceiv,0.005545
went,0.004668
west,0.004370
western,0.024885
wherea,0.002208
whi,0.007024
whilst,0.003287
whitehead,0.004193
wide,0.003278
widen,0.003960
wider,0.005795
widerang,0.004443
widespread,0.002444
wisdom,0.030325
wise,0.019877
wit,0.006199
wonder,0.003687
word,0.012365
work,0.048655
worker,0.002368
world,0.028384
worthi,0.004013
wrestl,0.009620
write,0.029846
writer,0.015671
writethat,0.007609
written,0.026193
wrote,0.004336
xenocr,0.005974
xenophon,0.009927
year,0.005137
yield,0.002486
young,0.009451
younger,0.006323
youth,0.012838
