abl,0.012402
abroad,0.021322
administr,0.041185
advisori,0.024139
age,0.012296
akran,0.046061
akureyri,0.050013
alingi,0.092122
allianc,0.036726
alth,0.408508
althingi,0.050013
alway,0.013203
anoth,0.009443
apart,0.017993
appear,0.011372
applic,0.011726
appoint,0.064562
april,0.030042
arctic,0.027164
arguabl,0.023929
assembl,0.030656
associ,0.009591
attack,0.015830
australia,0.017066
austurbarastrandarssla,0.050013
austurhnavatnsssla,0.050013
austurskaftafellsssla,0.050013
base,0.008555
basi,0.012230
becam,0.010821
becaus,0.008912
befor,0.020222
begin,0.011544
bi,0.027765
bjrnsson,0.047701
bodi,0.011880
borgarfjararssla,0.050013
branch,0.050361
cabinet,0.119515
campaign,0.017799
candid,0.018264
care,0.014896
cast,0.020141
cbss,0.040293
ce,0.021726
ceremoni,0.043777
chairman,0.022427
chang,0.026819
chose,0.089217
closest,0.024003
coalit,0.076862
comfort,0.025191
commonwealth,0.020484
compar,0.023459
compos,0.015045
conclus,0.017670
condit,0.011096
conduct,0.013592
conserv,0.015742
consist,0.010614
constitu,0.018571
constitut,0.050089
controversi,0.015628
council,0.028922
counti,0.023601
countri,0.020873
court,0.030085
dalassla,0.050013
danish,0.025082
dav,0.047701
decid,0.015456
democraci,0.017665
democrat,0.077700
despit,0.013448
did,0.011773
differ,0.008407
diplomat,0.018842
discuss,0.012940
disput,0.015952
dissolv,0.019698
distribut,0.026172
district,0.019183
divid,0.025152
divis,0.013745
doe,0.010731
dure,0.009129
eapc,0.035499
earli,0.009550
ebrd,0.033004
ece,0.034766
economi,0.013040
efta,0.037029
elect,0.309829
elector,0.020484
end,0.010439
eras,0.030814
eu,0.041579
european,0.011892
everi,0.047792
execut,0.072320
exercis,0.049216
extent,0.015711
extern,0.007466
eyjafjararssla,0.050013
fact,0.012123
faction,0.022552
famili,0.013221
fao,0.025976
fell,0.018441
figurehead,0.033694
financ,0.015130
finnbogadttir,0.050013
follow,0.008167
form,0.046826
fouryear,0.051952
framework,0.014628
fulli,0.015393
function,0.010453
geir,0.089578
gener,0.007336
given,0.020481
govern,0.135930
grmsson,0.047701
group,0.009210
gullbringussla,0.050013
ha,0.034040
haard,0.047701
hafnarfjrur,0.047701
happen,0.016136
head,0.039543
held,0.024143
hi,0.018309
histori,0.017008
hnappadalsssla,0.050013
home,0.014579
hous,0.013696
howev,0.016572
hsavk,0.047701
hstirttur,0.050013
iaea,0.028634
ibrd,0.027430
icao,0.027457
icc,0.029782
icct,0.034386
iceland,0.367590
icrm,0.028309
ida,0.026837
iea,0.035280
ifc,0.027539
ifrc,0.027941
iho,0.033776
ilo,0.026936
imf,0.022359
immedi,0.015008
imo,0.029161
import,0.008708
independ,0.031460
inflationari,0.029273
infring,0.030620
ingvellir,0.047701
inmarsat,0.034116
instal,0.020149
instead,0.023918
intelsat,0.028437
intens,0.016957
interim,0.024501
interior,0.020036
intern,0.008947
interpol,0.023856
involv,0.009898
ioc,0.026621
ip,0.127336
iso,0.023827
itu,0.026788
ituc,0.033859
januari,0.014571
jhanna,0.048741
join,0.015186
judici,0.019601
judiciari,0.068150
june,0.029750
justic,0.017254
kaupstair,0.050013
kaupstaur,0.050013
keflavk,0.093645
king,0.016261
kjsarssla,0.050013
kpavogur,0.050013
lafsfjrur,0.050013
lafur,0.136169
larg,0.017992
largest,0.014098
leader,0.074632
left,0.027214
leftgreen,0.097482
leftist,0.026300
leftw,0.056305
legal,0.014085
legisl,0.031256
legislatur,0.020883
lgm,0.042870
life,0.010972
limit,0.020849
link,0.007422
list,0.009491
longstand,0.024666
lose,0.017952
loss,0.014929
lost,0.029666
lower,0.012612
major,0.072443
margin,0.018705
mark,0.013704
member,0.032670
membership,0.037600
memori,0.017754
merger,0.024733
militari,0.013807
millennium,0.021303
minist,0.092400
ministri,0.018352
modern,0.010237
movement,0.023539
mrassla,0.050013
multiparti,0.021899
muster,0.036884
nato,0.051620
nc,0.032722
nea,0.036341
neskaupstaur,0.050013
new,0.007623
nib,0.044245
nonparliamentari,0.042109
noruringeyjarssla,0.050013
norurmlassla,0.050013
norursafjararssla,0.050013
observ,0.011264
oddsson,0.047701
oecd,0.025265
offic,0.054953
og,0.034573
oldest,0.018463
onli,0.015713
opcw,0.027794
opposit,0.014044
organ,0.009309
osc,0.029581
parliament,0.034428
parliamentari,0.078185
parti,0.211041
particip,0.013464
partner,0.018658
pca,0.031169
period,0.020283
person,0.011168
place,0.019305
plural,0.021950
pois,0.033776
polici,0.012630
polit,0.064274
popular,0.012211
posit,0.020230
possess,0.015337
power,0.060095
pp,0.031912
practic,0.010471
presenc,0.014800
presid,0.141541
presidenti,0.060044
prevail,0.020705
prime,0.062900
process,0.009252
progress,0.026678
promot,0.013961
proport,0.016182
protect,0.013044
provis,0.038126
purpos,0.012730
ragnar,0.109417
rangrvallassla,0.050013
reach,0.012614
reason,0.011140
receiv,0.011859
reelect,0.025283
reestablish,0.023643
refer,0.006207
reform,0.015183
regent,0.059648
rel,0.011129
repres,0.010182
represent,0.015659
republ,0.043705
republican,0.022173
result,0.025939
resurg,0.026551
reykjavk,0.043293
rnesssla,0.050013
role,0.010873
rule,0.022661
run,0.013640
s,0.017607
safjrur,0.050013
saurkrkur,0.050013
saw,0.015189
scholar,0.015763
sdp,0.076676
season,0.020059
seat,0.128581
seen,0.012179
serv,0.012356
sever,0.018011
seyisfjrur,0.046822
share,0.012095
siglufjrur,0.050013
sigurardttir,0.048741
simpl,0.013726
sinc,0.008638
singl,0.011560
singular,0.045528
skagafjararssla,0.050013
snfellsn,0.050013
social,0.043958
somewhat,0.018313
sooner,0.030913
splinter,0.031491
ssla,0.045389
sslur,0.045389
stabl,0.017000
stand,0.016235
state,0.007558
strandassla,0.050013
stronger,0.041596
subsequ,0.013481
success,0.011456
suffer,0.015767
suffrag,0.025396
suggest,0.012093
support,0.030813
suprem,0.017690
suspend,0.021472
suuringeyjarssla,0.050013
suurmlassla,0.050013
sveinn,0.100026
term,0.016325
themselv,0.025627
thi,0.025845
time,0.015286
togeth,0.011912
took,0.013495
total,0.012053
town,0.035479
trade,0.012496
tradit,0.021756
tri,0.013597
turn,0.011942
unabl,0.017952
unctad,0.026862
unesco,0.023464
unicamer,0.026345
union,0.012837
univers,0.008947
unless,0.019358
unmik,0.034966
unstabl,0.023046
unu,0.037029
upper,0.017444
upu,0.026323
use,0.007058
usual,0.010395
valu,0.011072
vest,0.022657
vestmannaeyjar,0.047701
vesturbarastrandarssla,0.050013
vesturhnavatnsssla,0.050013
vestursafjararssla,0.050013
vesturskaftafellsssla,0.050013
victori,0.020007
viey,0.050013
vigd,0.050013
vote,0.049145
voter,0.023174
wa,0.056665
wco,0.030765
week,0.018156
weu,0.037485
wherebi,0.019519
wide,0.022252
wipo,0.027430
wmo,0.027190
woman,0.021569
world,0.017516
wtro,0.030252
year,0.043591
