abroad,0.008595
absolut,0.020141
accredit,0.010026
action,0.009727
activ,0.007899
addit,0.004004
administr,0.016603
advanc,0.004888
advantag,0.006144
affair,0.006544
agenc,0.006226
agenda,0.009220
agre,0.005967
agreement,0.006041
aid,0.017814
air,0.006080
airport,0.008718
allgerman,0.018297
alli,0.014621
allianc,0.051819
alloc,0.007899
allot,0.012022
allow,0.003936
altern,0.005086
alway,0.005322
amend,0.008347
angela,0.096523
ani,0.003488
announc,0.019941
apparatu,0.009851
appeal,0.007371
appear,0.004584
appli,0.004231
appoint,0.013013
approv,0.013599
april,0.006055
area,0.011793
articl,0.014112
aspir,0.009950
atlantic,0.020161
august,0.006014
avoid,0.005912
badenwrttemberg,0.035273
balanc,0.006264
bank,0.005724
base,0.003448
basi,0.009860
basic,0.033610
battleground,0.014310
bavaria,0.027952
becam,0.013087
becaus,0.014371
becom,0.011462
befor,0.016304
behalf,0.008803
benefit,0.005791
berlin,0.017000
berlinbrandenburg,0.019229
big,0.007226
biggest,0.008960
blackyellow,0.019649
bmz,0.019649
bndni,0.018875
bodi,0.009578
bond,0.006816
branch,0.010151
brandt,0.028997
bring,0.005933
budget,0.007470
bundesgerichtshof,0.020161
bundeskabinett,0.020161
bundeskanzl,0.019229
bundeskanzlerin,0.020161
bundesrat,0.128085
bundesregierung,0.058947
bundestag,0.364771
bundesverfassungsgericht,0.018055
cabinet,0.040150
came,0.015679
campaign,0.007175
candid,0.036814
carri,0.005153
case,0.019983
catalogu,0.010899
cdu,0.098775
cducsu,0.123457
cem,0.016836
cent,0.019833
centrist,0.013276
ceremoni,0.008824
chair,0.026934
chairman,0.045205
challeng,0.005710
chancellor,0.238074
chang,0.010811
chief,0.006656
chosen,0.007304
christan,0.020161
christian,0.074339
christianliber,0.020161
cite,0.006685
citi,0.005520
citizen,0.006541
civil,0.016450
classifi,0.006466
clear,0.005949
close,0.012832
coalit,0.178166
cold,0.007620
collect,0.004663
combat,0.008391
come,0.004572
committe,0.006858
common,0.003865
commun,0.012541
communist,0.007885
compar,0.004728
compris,0.013080
compromis,0.009191
conced,0.011668
concili,0.015111
conclud,0.006538
concurr,0.009857
condit,0.004473
confid,0.008178
consent,0.009812
consequ,0.005436
consist,0.017116
constantli,0.008912
constitu,0.022460
constitut,0.080770
construct,0.009901
continu,0.003873
contradict,0.008540
contrast,0.005400
contributor,0.018705
cool,0.008956
cooper,0.012221
cost,0.005621
council,0.005829
countersignatur,0.017636
countri,0.012622
cours,0.005572
court,0.078834
craft,0.009617
creation,0.005819
credit,0.006187
crimin,0.016197
crisi,0.013195
crucial,0.007782
csu,0.053510
cultur,0.009614
current,0.016372
curtain,0.013825
cut,0.006787
day,0.009649
dc,0.008853
deal,0.010301
debat,0.011904
decad,0.005811
decemb,0.005867
decis,0.005390
decreas,0.006296
defeat,0.022693
defenc,0.015565
defin,0.004387
democrat,0.131557
depend,0.004218
despit,0.005421
determin,0.004440
devast,0.009077
develop,0.012790
did,0.014238
die,0.006126
diet,0.009453
differ,0.013557
difficult,0.005576
diplomat,0.015191
direct,0.004245
directli,0.010274
disaffect,0.014757
disagr,0.009091
disput,0.006431
dissolut,0.009635
distinct,0.004924
district,0.030933
divid,0.020279
divis,0.005541
doe,0.008652
domest,0.006624
domin,0.005261
donat,0.009576
donor,0.010026
dtent,0.016043
dure,0.011041
earli,0.007699
east,0.023672
eastwest,0.012502
econom,0.033699
economi,0.005256
edmund,0.009793
effect,0.014957
elect,0.193029
elector,0.049547
elevenseat,0.020161
elig,0.009629
embassi,0.009531
emerg,0.004933
emphas,0.006755
enabl,0.018313
end,0.012625
energi,0.005388
english,0.005360
enter,0.005627
environment,0.006188
especi,0.017878
establish,0.012323
ethnic,0.007595
eu,0.008380
eurocrisi,0.020161
europ,0.005219
european,0.028766
eurozon,0.012695
event,0.005009
exampl,0.003447
exclus,0.006575
execut,0.040816
exist,0.007655
expect,0.005288
export,0.007061
expresid,0.015608
extens,0.005197
extern,0.003009
extra,0.008815
factor,0.009761
fail,0.023149
fall,0.005254
far,0.005219
favor,0.006357
fdp,0.168361
feder,0.343204
fell,0.007434
femal,0.007728
fewer,0.008162
figur,0.005700
final,0.004978
financ,0.006099
firm,0.006874
fiscal,0.008726
flaw,0.009812
flchenlnder,0.020161
flood,0.009087
flourish,0.008471
focu,0.005646
follow,0.013170
forefront,0.012107
foreign,0.037507
form,0.015730
formal,0.005150
formul,0.006591
fourth,0.007181
fouryear,0.020943
fragment,0.008095
franc,0.011785
frankwalt,0.060485
franoi,0.010177
franz,0.021737
frequent,0.005786
friction,0.010140
fundament,0.005270
fundimf,0.020161
fuse,0.010133
g,0.022273
gabriel,0.031165
gain,0.005007
gdp,0.015482
gdr,0.047849
gener,0.005915
gerhard,0.035871
german,0.093006
germanamerican,0.030764
germani,0.266497
good,0.004576
got,0.009285
govern,0.101767
grand,0.039975
green,0.070786
greenspd,0.020161
gregor,0.012651
grnen,0.019649
gross,0.008047
group,0.011138
growth,0.005209
grundgesetz,0.016243
guido,0.026668
gysi,0.020161
ha,0.024701
half,0.005665
handl,0.007484
hardli,0.011003
head,0.042509
health,0.005738
hear,0.008679
heartland,0.012930
heavi,0.007113
heaviest,0.013109
held,0.034065
helmut,0.040651
help,0.004506
hess,0.012232
hi,0.011071
high,0.012503
highest,0.018909
highli,0.005418
histori,0.013713
hit,0.008521
hold,0.009915
horst,0.014222
hour,0.007232
hous,0.005521
howev,0.013361
hub,0.010684
human,0.007931
hurdl,0.013083
hurt,0.010789
ii,0.016160
implement,0.005730
import,0.021063
imposit,0.011831
incept,0.010713
includ,0.008571
incorpor,0.005652
increas,0.007916
incumb,0.011036
independ,0.004227
indic,0.005063
individu,0.004245
initi,0.008944
instabl,0.008899
integr,0.004967
intend,0.006371
interdepend,0.010331
intern,0.021641
interpret,0.005491
invas,0.007505
involv,0.007980
iraq,0.018422
iron,0.007371
issu,0.008833
join,0.006122
joint,0.007247
judici,0.023705
judiciari,0.018315
juli,0.005945
june,0.005996
jurisdict,0.016707
justic,0.027824
kaiserslautern,0.018297
katja,0.018055
kept,0.007416
key,0.005237
khler,0.014450
kingdom,0.010949
kip,0.014356
kohl,0.079748
kreis,0.019229
labor,0.013514
labour,0.006967
lafontain,0.052910
laid,0.007767
land,0.005208
larger,0.005431
largest,0.028418
late,0.004764
later,0.004092
law,0.058037
lead,0.008211
leader,0.006017
leadership,0.007466
led,0.013323
left,0.049368
leftist,0.010602
legisl,0.037801
legislatori,0.020161
legislatur,0.042094
legitimaci,0.010531
level,0.012344
liber,0.031021
liberti,0.008734
like,0.011026
lindner,0.017123
link,0.005984
list,0.007652
lnder,0.070547
local,0.009321
locat,0.005059
long,0.004467
lose,0.007237
loss,0.018055
lost,0.017939
low,0.005273
lower,0.010169
main,0.008712
maintain,0.009595
major,0.036505
make,0.006998
margin,0.007540
mark,0.005524
market,0.005150
marshal,0.009119
martin,0.007283
massiv,0.014643
matter,0.015527
mean,0.011368
media,0.006311
member,0.048291
merkel,0.107676
militari,0.005566
minist,0.068290
ministri,0.007398
minor,0.012735
mission,0.006860
mitterrand,0.016043
mixedmemb,0.017836
mntefer,0.040323
moder,0.007882
monetari,0.007376
month,0.006079
mostli,0.011741
multiparti,0.008828
municip,0.008384
nation,0.022876
nato,0.031214
nazi,0.009594
near,0.005657
nearli,0.005993
need,0.004136
network,0.005752
new,0.018440
newli,0.007239
nomin,0.007181
nonconstitu,0.018297
north,0.010926
notabl,0.005279
novemb,0.012342
npd,0.019649
number,0.003442
numer,0.005097
oblig,0.007598
obtain,0.016044
occup,0.007169
octob,0.011899
oecd,0.020370
offic,0.055383
offici,0.015671
offset,0.010005
onli,0.019003
opposit,0.016984
ordinari,0.015006
organ,0.003753
organis,0.013028
origin,0.003813
oskar,0.024884
ostpolitik,0.018568
outcom,0.007034
outsid,0.010497
overhang,0.045528
parliament,0.041637
parliamentari,0.039398
parti,0.186105
partit,0.009531
partner,0.015043
partypd,0.020161
past,0.005458
patent,0.009181
pd,0.040651
peopl,0.003793
perceiv,0.006919
percent,0.013821
perform,0.004837
period,0.008176
permiss,0.009565
permit,0.007008
personalis,0.016580
philipp,0.022007
pick,0.008956
pictur,0.007702
place,0.003891
plan,0.010421
play,0.004967
polici,0.025459
polit,0.077732
politician,0.008254
poll,0.057461
poor,0.006803
popul,0.009791
posit,0.008155
possibl,0.008048
post,0.006677
power,0.028264
practic,0.004221
presid,0.079883
prevent,0.016922
previou,0.011899
prime,0.019017
prior,0.017878
problem,0.004219
process,0.007459
product,0.004112
profil,0.008518
promin,0.006187
promis,0.007413
proport,0.013046
propos,0.004867
prospect,0.008384
protect,0.005258
protest,0.007332
provid,0.007001
provis,0.007684
public,0.003973
purpos,0.005132
question,0.004954
quickli,0.006422
railway,0.009336
ramstein,0.020161
rate,0.004889
rd,0.007065
reach,0.025426
receiv,0.009561
recent,0.004333
redgreen,0.046591
reelect,0.030577
reestablish,0.009531
refer,0.005004
reform,0.012241
refrain,0.011516
refus,0.007302
regierungsbezirk,0.020161
region,0.013442
rel,0.008973
relat,0.020243
remain,0.012415
remov,0.005777
renew,0.007317
repres,0.020523
represent,0.012625
republ,0.082221
requir,0.003939
reserv,0.006655
resign,0.008551
respect,0.004758
respons,0.021700
result,0.020913
reunif,0.049848
revenu,0.007300
review,0.005606
rhinewestphalia,0.038459
right,0.008980
rise,0.005035
rival,0.008267
role,0.021917
rsler,0.040323
rule,0.009135
run,0.005499
rural,0.008092
s,0.010647
saw,0.012247
saxoni,0.026610
scandal,0.010567
schengen,0.014266
schmidt,0.012213
schrder,0.104493
schulz,0.014987
seat,0.140695
second,0.008213
secur,0.005316
seek,0.005614
seen,0.004909
send,0.007825
septemb,0.036206
serv,0.004981
set,0.003876
sever,0.003630
share,0.014628
shortli,0.015576
sigmar,0.054167
sign,0.017201
signatur,0.010192
signific,0.004445
sinc,0.055717
singleseat,0.013005
site,0.005866
situat,0.005361
sixteen,0.011425
size,0.005423
slower,0.010005
smaller,0.017764
snap,0.013718
socal,0.014053
social,0.039871
socialdemocrat,0.014598
socialist,0.007790
societ,0.009793
soon,0.006386
sourc,0.008761
spark,0.009215
spd,0.303044
special,0.004355
specif,0.004166
specifi,0.007080
spent,0.007697
stabl,0.006853
stadtstaaten,0.020161
state,0.088367
statu,0.005816
stay,0.007622
steinmeier,0.060485
stoiber,0.040323
strong,0.025301
stuttgart,0.013937
style,0.007175
subdivis,0.010230
subject,0.004430
succeed,0.007119
successor,0.015645
suffer,0.019068
suffici,0.006438
suggest,0.004875
support,0.012421
surpris,0.018315
surround,0.006377
sworn,0.011090
symbol,0.006322
talk,0.014987
target,0.006484
tax,0.006544
technolog,0.005021
tell,0.007844
tension,0.007910
term,0.009872
territori,0.018286
th,0.007986
thi,0.026048
threshold,0.009700
thu,0.012212
tie,0.013585
time,0.009243
togeth,0.024011
took,0.010880
total,0.019436
tradit,0.008770
treati,0.014545
trial,0.007946
troop,0.007860
type,0.004186
unabl,0.007237
unchang,0.009285
unconstitution,0.018055
unemploy,0.024469
unif,0.019807
unifi,0.007289
union,0.020699
unit,0.024587
uniti,0.007654
unless,0.007804
unpopular,0.011068
urban,0.007304
usbound,0.019229
use,0.002845
usual,0.008381
valid,0.006650
vari,0.005133
veri,0.007954
vest,0.009133
veto,0.011300
vice,0.024187
vicechancellor,0.032700
victori,0.024196
view,0.004463
violat,0.007705
vizekanzl,0.020161
vocal,0.010878
vote,0.072644
voter,0.009342
wa,0.065675
wall,0.007373
war,0.029682
wasg,0.038459
washington,0.007667
way,0.007447
weaker,0.009916
week,0.007319
weimar,0.026973
west,0.023919
westerwel,0.040323
wherea,0.012086
wide,0.004485
willi,0.011682
win,0.023492
wing,0.009481
won,0.014099
world,0.017653
wwii,0.012502
year,0.024602
yugoslavia,0.011770
zdemir,0.018055
