acct,0.034738
acp,0.029008
ad,0.012448
administr,0.013639
admir,0.046226
afdb,0.031232
african,0.034195
agre,0.014707
ahead,0.022773
allow,0.019401
alreadi,0.014211
americo,0.045094
angolan,0.035853
announc,0.032762
annul,0.032051
antonio,0.050807
appeal,0.036334
appoint,0.064142
approv,0.016757
april,0.089540
aristid,0.074172
arm,0.015553
armi,0.050336
arrest,0.085754
articl,0.011593
assassin,0.046175
assembl,0.076141
assembleia,0.041168
associ,0.009529
assur,0.022225
asylum,0.028252
attach,0.018468
attempt,0.055635
august,0.014823
bacai,0.046518
bafata,0.049687
base,0.008499
becaus,0.008854
began,0.011745
bernardo,0.068696
biombo,0.047391
bissau,0.079559
bloodless,0.030762
bolama,0.088995
bolamabijago,0.049687
branch,0.037525
bring,0.014622
bubo,0.189564
cabinet,0.019789
cacheu,0.047391
calm,0.027671
cape,0.049486
capit,0.012812
care,0.014799
carlo,0.112087
case,0.049249
central,0.011043
chang,0.008881
chief,0.065620
choic,0.030958
chose,0.022159
civil,0.067568
civilian,0.020480
coalit,0.057271
committe,0.016903
commun,0.010302
compos,0.044843
compound,0.035508
condemn,0.066576
confus,0.017733
consid,0.009188
consist,0.010545
constitu,0.018451
constitut,0.024881
consult,0.018194
continu,0.028640
contribut,0.011564
controversi,0.015526
council,0.014367
counterpart,0.021128
countri,0.031107
coup,0.193121
court,0.104614
crimin,0.039916
da,0.020974
date,0.013168
day,0.047560
decis,0.026569
demand,0.014067
democraci,0.017551
democrat,0.061755
deputi,0.042201
despit,0.013360
detent,0.030235
develop,0.007880
direct,0.010462
disguis,0.028721
dissolv,0.019570
district,0.019058
divid,0.012494
divis,0.013656
domin,0.012966
eca,0.032578
ecowa,0.033394
elect,0.167897
elector,0.020351
embassi,0.023489
enshrin,0.031071
enter,0.027736
escap,0.019045
event,0.012345
execut,0.043109
exercis,0.032597
experienc,0.017030
express,0.012290
extend,0.025025
fair,0.019213
fao,0.025807
feloni,0.037241
final,0.012269
firmli,0.024795
fisherman,0.035853
fiveyear,0.046201
follow,0.016228
forc,0.020334
format,0.027670
forti,0.025326
fouryear,0.025807
framework,0.029066
franc,0.014521
free,0.023173
freed,0.026151
function,0.010385
fz,0.035612
g,0.013722
gabu,0.047391
gambia,0.032861
gener,0.029156
gome,0.250119
govern,0.106107
guard,0.021201
guinea,0.071856
guineabissau,0.201338
ha,0.033819
happen,0.016031
head,0.052381
hear,0.042780
held,0.047972
henriqu,0.038466
hi,0.072761
howev,0.008232
hundr,0.015412
ial,0.084401
ibrd,0.027251
icao,0.027278
icftu,0.031685
icrm,0.028124
ida,0.026662
idb,0.032578
ifad,0.027671
ifc,0.027360
ifrc,0.027759
ilo,0.026761
imf,0.022214
imo,0.028971
incid,0.020071
includ,0.021124
independ,0.052092
indic,0.012478
indjai,0.094782
induta,0.047391
instabl,0.043866
institut,0.021467
intelsat,0.028252
interf,0.028899
intern,0.035555
interpol,0.023701
ioc,0.026448
iom,0.029924
issu,0.010884
itu,0.026614
jnior,0.139554
joint,0.017861
joo,0.063730
jose,0.030011
judg,0.018731
judici,0.019473
judiciari,0.022568
juli,0.014651
junior,0.053472
justia,0.045761
justic,0.017142
kabi,0.149063
kill,0.083724
kumba,0.046518
later,0.020171
law,0.020432
lawyer,0.024606
lead,0.010118
leader,0.044487
leadership,0.018399
left,0.013518
legisl,0.046580
legislatur,0.041495
liber,0.015290
lost,0.014736
loyalist,0.030914
maintain,0.011824
major,0.008996
malam,0.043464
manag,0.012144
mandat,0.042256
march,0.042186
martinho,0.047391
mean,0.009338
medic,0.015615
meet,0.013720
member,0.032457
militari,0.082307
minist,0.168297
misdemeanor,0.039538
multimemb,0.038871
multiparti,0.087026
na,0.128211
nacion,0.028188
nam,0.026687
nation,0.037584
naval,0.021390
navi,0.020295
ndafa,0.049687
ndjai,0.049687
necessarili,0.016599
new,0.015148
nino,0.040294
noconfid,0.034443
normal,0.013516
novemb,0.015208
oau,0.032308
occur,0.010773
offic,0.054595
oic,0.029968
oio,0.049687
onc,0.012670
opcw,0.027613
opposit,0.013952
order,0.009344
organ,0.018498
oust,0.026495
outlin,0.016505
paigc,0.163447
pari,0.018543
parliament,0.017102
parliamentari,0.038838
parti,0.144146
particip,0.013377
past,0.013452
pave,0.023982
peopl,0.037396
place,0.009589
pleasur,0.025212
pm,0.128415
polit,0.063855
popular,0.024263
power,0.049753
pr,0.057584
preempt,0.034254
premis,0.022809
presid,0.239054
presidenti,0.039768
press,0.011444
pressur,0.014636
previou,0.014663
prime,0.140605
prior,0.014686
problem,0.010399
program,0.012231
propos,0.011996
pusd,0.096847
quinara,0.049687
ratifi,0.024777
reach,0.012532
rear,0.055169
refer,0.006166
reform,0.015084
refug,0.026309
regiao,0.049687
regio,0.038088
region,0.044172
reject,0.015202
releas,0.046236
renam,0.021409
renegad,0.035050
renew,0.054099
repeal,0.027908
repeatedli,0.021943
replac,0.012566
report,0.035557
repres,0.010115
republ,0.014473
resid,0.032675
resign,0.042147
resolv,0.017912
respons,0.010696
result,0.017180
retali,0.027065
return,0.037441
right,0.011066
role,0.010802
rosa,0.031178
round,0.019535
rule,0.011256
said,0.050682
sanha,0.099375
say,0.026721
secretari,0.040295
sector,0.032335
secur,0.013102
seek,0.013837
seemingli,0.024198
semipresidenti,0.032648
send,0.019285
septemb,0.014871
serv,0.024551
simultan,0.017985
sinc,0.025746
singular,0.022616
situat,0.013214
snub,0.043464
social,0.043672
socialist,0.019200
soldier,0.097642
someon,0.020048
spoke,0.023687
stabl,0.016890
staff,0.040465
stand,0.016129
state,0.007509
statement,0.015755
street,0.019583
strike,0.019090
submit,0.021496
subsequ,0.026786
substanti,0.015932
success,0.011381
support,0.030613
suprem,0.035150
supremo,0.040031
surrend,0.023644
sworn,0.027333
tagm,0.046518
taken,0.012566
talk,0.018468
tchuto,0.189564
tension,0.019494
term,0.024329
thu,0.010032
thursday,0.032243
tighten,0.028617
tombalinot,0.049687
took,0.053629
trade,0.012415
train,0.014820
transit,0.029883
tri,0.013509
tribun,0.026662
troop,0.019371
uncertainti,0.019973
unctad,0.026687
unesco,0.023311
unido,0.027388
union,0.012753
unit,0.008656
unrest,0.023803
upu,0.026151
use,0.007012
valu,0.011000
verd,0.061624
vest,0.022510
vieira,0.159118
viera,0.096847
vote,0.032550
wa,0.112593
wadb,0.041168
waemu,0.040571
waie,0.047391
war,0.024383
way,0.009176
went,0.015741
wftu,0.029629
wherebi,0.019392
wipo,0.027251
wmo,0.027013
work,0.008413
wtoo,0.030374
wtro,0.030056
year,0.008661
zamora,0.040571
