abolit,0.021745
abort,0.011564
act,0.023655
action,0.005086
activ,0.008260
addit,0.004187
adopt,0.005712
advisori,0.010176
age,0.005184
agenc,0.006512
agreement,0.025274
aid,0.006210
allianc,0.061934
alliancepeopl,0.021085
allow,0.008233
altern,0.005319
althea,0.018252
amend,0.034917
amon,0.016495
ani,0.003648
antiauster,0.042170
appeal,0.015418
appoint,0.027219
approv,0.007111
approxim,0.005641
area,0.016445
armi,0.007120
articl,0.024598
associ,0.008087
australia,0.007195
author,0.032625
automat,0.008450
backlash,0.013655
ballot,0.023174
basi,0.010312
becam,0.004562
becom,0.003995
befor,0.012788
begin,0.009733
begun,0.007936
behalf,0.009206
belfast,0.031607
belief,0.006681
bench,0.013548
bi,0.011705
bicamer,0.011243
bilater,0.009493
blackhal,0.021776
blueshirt,0.021085
board,0.014401
boast,0.012556
bodi,0.040069
bomb,0.009450
border,0.007352
borough,0.015214
bosnia,0.012680
boundari,0.006968
branch,0.021232
bree,0.020548
bring,0.012410
british,0.022292
britishirish,0.018444
broad,0.013408
bunreacht,0.021085
byelect,0.014828
cabinet,0.016795
candid,0.069301
carri,0.016167
case,0.008359
catch,0.010063
cathol,0.040357
caus,0.004461
ce,0.009159
ceann,0.021776
ceas,0.008444
celtic,0.012850
centr,0.013747
centreleft,0.015112
ceremoni,0.018456
certain,0.027453
chad,0.012889
chairman,0.009455
chamber,0.008870
chang,0.007537
characteris,0.010021
charg,0.006451
chief,0.013923
christian,0.006478
church,0.007553
citi,0.028866
citizen,0.020524
civil,0.068815
clash,0.009950
class,0.005544
clearli,0.015033
clonmel,0.021776
coakley,0.019419
coalit,0.040505
collaps,0.007364
collin,0.023609
comhairl,0.021776
commerci,0.006405
commiss,0.013312
committe,0.007172
common,0.008085
commun,0.008743
compani,0.005279
compet,0.006893
compli,0.011023
compon,0.011516
compris,0.006839
concern,0.004694
confid,0.008552
conflict,0.018682
congo,0.011409
connolli,0.016680
consensu,0.008340
consid,0.011698
consist,0.067126
constitu,0.023489
constitut,0.068631
contribut,0.004907
convent,0.006474
coordin,0.007087
core,0.007100
cork,0.014274
correspond,0.006069
council,0.097547
counti,0.059701
countri,0.004400
court,0.069760
cradden,0.021776
craig,0.011856
creation,0.006086
crisi,0.006899
cumann,0.063255
current,0.021402
cypru,0.011145
darfur,0.015737
day,0.020182
death,0.005856
decad,0.006077
decis,0.005637
declan,0.018882
declar,0.006458
deem,0.009048
defenc,0.016278
defin,0.013766
delay,0.008539
democraci,0.007447
democrat,0.026206
deploy,0.009048
deputi,0.017908
derri,0.017469
despit,0.005669
devolv,0.014104
differ,0.003544
dil,0.429792
directli,0.016117
discrimin,0.018570
dissolv,0.008304
divid,0.010604
divorc,0.011233
dla,0.020110
doe,0.004524
domest,0.006928
domin,0.016506
dooney,0.021776
draft,0.008629
drogheda,0.020110
drop,0.014677
dublin,0.024778
duti,0.015912
earli,0.004026
east,0.006189
ebrd,0.013914
ece,0.014657
econom,0.008810
editor,0.008569
educ,0.005128
effort,0.005574
eib,0.016163
elect,0.154370
electionsirelandorg,0.021776
elector,0.034544
employ,0.016018
empow,0.011335
emu,0.014274
encourag,0.006616
end,0.008802
enda,0.018882
england,0.006985
enjoy,0.015327
enter,0.005885
entir,0.005221
entiti,0.006830
environment,0.006471
eritrea,0.013185
esa,0.013323
establish,0.021480
ethiopia,0.011387
eu,0.017529
eufor,0.037307
european,0.020055
event,0.005238
everi,0.010074
ex,0.010890
exampl,0.003605
exclud,0.007572
execut,0.042685
exercis,0.027665
exist,0.004003
expect,0.005530
explod,0.011843
express,0.005215
extern,0.003147
extrem,0.005774
factor,0.005104
fall,0.005494
fao,0.010951
far,0.005458
fashion,0.008472
fewer,0.008536
fianna,0.139758
fil,0.126428
fin,0.051322
final,0.005206
financ,0.012757
financi,0.005746
fine,0.051635
finian,0.021085
fitzgerald,0.014828
focu,0.005905
follow,0.024103
forc,0.008629
foreign,0.022414
form,0.036193
formal,0.005386
format,0.005871
foundat,0.005613
fourth,0.007510
free,0.004916
friday,0.037363
function,0.008814
fundament,0.011024
gael,0.105642
gain,0.005237
gallagh,0.014698
galway,0.016880
garda,0.018444
garrett,0.014007
gener,0.018558
gerrymand,0.017908
gill,0.012373
good,0.014357
govern,0.171921
government,0.009008
green,0.007402
ground,0.006263
group,0.019414
guarante,0.007896
guest,0.011366
ha,0.057405
half,0.017775
halligan,0.019135
head,0.022228
hear,0.009077
help,0.009425
herzegovina,0.013371
hi,0.003859
high,0.013075
hireann,0.020110
hisher,0.012373
histor,0.014506
histori,0.007170
hold,0.005184
holder,0.009786
home,0.006146
hous,0.057744
howev,0.006986
huge,0.016010
iaea,0.012072
ibrd,0.011564
icao,0.011575
icc,0.025112
icrm,0.011934
ida,0.011314
iea,0.014873
ifad,0.011742
ifc,0.011610
ifrc,0.011779
ilo,0.011356
imf,0.009426
imparti,0.013118
implement,0.011986
import,0.007342
incapac,0.015267
includ,0.005976
inclus,0.008866
incom,0.006593
increas,0.004139
independ,0.048632
indirectli,0.009276
influenc,0.004741
instanc,0.011659
instead,0.005041
intelsat,0.011988
interfet,0.018653
intern,0.007544
interpol,0.010057
introduc,0.005049
invalid,0.010805
involv,0.008345
ioc,0.011223
iom,0.012698
ira,0.025940
iraniraq,0.015162
ireann,0.194190
ireland,0.449855
irish,0.214395
island,0.012760
iso,0.010045
issu,0.004619
itu,0.011293
ituc,0.014274
jame,0.012141
jim,0.011377
john,0.014688
judg,0.023846
judici,0.016527
judiciari,0.028731
june,0.006271
junior,0.011345
jurisdict,0.008736
justic,0.014549
kenni,0.015611
key,0.005477
kilkenni,0.020548
kingdom,0.017176
known,0.010789
labour,0.043716
land,0.005446
landscap,0.008973
larg,0.022756
largest,0.059439
larkin,0.018653
late,0.004982
later,0.004279
law,0.030347
leader,0.018878
leagu,0.008829
lebanon,0.011921
led,0.018578
left,0.011473
leftw,0.023737
legisl,0.026355
legislatur,0.017608
liber,0.025953
liberia,0.012949
librari,0.006760
limerick,0.016585
limit,0.008789
line,0.005150
link,0.009387
list,0.004001
local,0.063362
long,0.004672
longstand,0.010399
longterm,0.007572
loos,0.008946
lost,0.006253
lower,0.015952
loyalist,0.026237
macmillan,0.009830
main,0.009111
mainli,0.005973
maintain,0.005017
major,0.011453
make,0.010977
manag,0.005153
manchest,0.011293
mani,0.003252
maritim,0.009263
marriag,0.009097
massiv,0.007656
matter,0.005412
maureen,0.016585
mcgrath,0.017339
mean,0.007925
meet,0.011644
member,0.082641
membership,0.015852
merger,0.010427
michael,0.013244
mick,0.016987
militari,0.011642
minist,0.064925
ministeri,0.023977
minurso,0.016012
misbehaviour,0.019135
mission,0.014349
money,0.025723
mostli,0.012278
movement,0.009923
multiseat,0.015550
na,0.032644
nam,0.011324
nation,0.019936
nationalist,0.009329
nato,0.010881
nea,0.015321
neil,0.011430
neutral,0.015752
new,0.003214
newli,0.007570
ngaedheal,0.042170
nicra,0.021776
noel,0.013682
nomin,0.060084
nonalign,0.011882
norm,0.008346
normal,0.005735
northern,0.107632
northsouth,0.039971
note,0.004148
nsg,0.015737
number,0.017999
observ,0.009498
occupi,0.014427
oecd,0.010651
offic,0.023167
offici,0.005462
officio,0.014535
oireachta,0.184939
onc,0.010753
onli,0.029811
onuc,0.019135
opcw,0.011717
open,0.014778
oper,0.009079
oppos,0.018040
opt,0.011193
order,0.003965
ordinari,0.007846
organ,0.007849
organis,0.020438
origin,0.015951
osc,0.012471
osullivan,0.016012
otool,0.020110
outgo,0.013347
outlook,0.020631
overrepres,0.015267
panel,0.010604
paramilitari,0.012626
parliament,0.036286
parliamentari,0.024721
parti,0.200189
particip,0.005676
particular,0.004504
partner,0.015732
pass,0.005590
past,0.005708
pattern,0.006139
peacekeep,0.010933
peopl,0.015869
period,0.004275
perman,0.006973
person,0.004708
pfp,0.015737
place,0.004069
plan,0.010898
play,0.005195
plebiscit,0.013795
polic,0.008002
polici,0.042600
polit,0.067743
popul,0.005119
popularli,0.010796
populist,0.012792
posit,0.004264
possess,0.006466
power,0.033781
powershar,0.015062
prefer,0.006318
present,0.004125
presid,0.131279
presidenti,0.008438
press,0.004856
previou,0.006222
prime,0.019888
pringl,0.018653
privat,0.005916
proceed,0.007551
proenterpris,0.021776
proeuropean,0.018444
profit,0.021387
programm,0.007931
proper,0.007402
proport,0.013644
propos,0.005090
protect,0.010998
protest,0.030673
protreati,0.021776
provid,0.007322
provision,0.020912
public,0.054022
publish,0.004579
queen,0.008659
rare,0.006790
read,0.004545
real,0.005431
realign,0.013824
realis,0.010551
reason,0.004696
reassum,0.017752
recent,0.009063
recommend,0.007713
recruit,0.009648
redistribut,0.010881
reelect,0.010659
refer,0.005233
referenda,0.015112
referendum,0.009085
regain,0.010051
rel,0.004692
relat,0.010585
remain,0.025968
remov,0.006042
report,0.005029
repres,0.025756
represent,0.019805
republ,0.079844
republican,0.037392
repugn,0.016778
request,0.007953
resid,0.013866
resign,0.008942
resolut,0.008005
respect,0.009953
respons,0.009077
result,0.007290
resumpt,0.013522
retir,0.008904
return,0.010592
review,0.005863
reward,0.009052
right,0.004696
rise,0.005265
road,0.007601
role,0.018337
roman,0.014039
root,0.006610
rout,0.007878
routledg,0.009325
rule,0.009553
s,0.011134
samesex,0.013914
sanit,0.011792
saw,0.006403
sean,0.013627
seanad,0.105426
seat,0.007744
second,0.017179
secret,0.008074
section,0.012968
sector,0.048025
seek,0.005872
senat,0.071820
sent,0.014507
seri,0.005213
serv,0.005209
servic,0.086677
set,0.004053
seven,0.034336
sevenyear,0.014458
sfor,0.017339
signific,0.009298
similar,0.004348
simpli,0.005942
sinc,0.029134
singl,0.014622
sinn,0.065980
sit,0.009627
sixti,0.022157
size,0.005671
sligo,0.019740
small,0.008913
smaller,0.006192
sochna,0.021085
social,0.013899
socialist,0.016295
solut,0.006231
sometim,0.004741
sourc,0.004581
special,0.004554
specif,0.004357
spill,0.012869
sponsor,0.009130
stanc,0.010039
state,0.063733
statesponsor,0.044224
statu,0.012165
stood,0.009797
stormont,0.036888
strong,0.005291
strongli,0.007019
structur,0.008510
subsequ,0.005683
substanti,0.013521
success,0.004829
suppli,0.005937
support,0.030311
suprem,0.044748
suspend,0.009052
suspens,0.011314
taken,0.005332
taoiseach,0.165999
tax,0.006844
tchadrca,0.021776
td,0.073707
teachta,0.021776
tend,0.005980
tension,0.008272
term,0.010324
terri,0.012309
th,0.004176
themselv,0.005402
theoret,0.005971
thi,0.013620
thirteen,0.010924
thoma,0.006514
thousand,0.006422
thu,0.008514
tier,0.039098
time,0.003222
timor,0.013824
tipperari,0.018444
titl,0.013074
tnaist,0.061646
today,0.020928
total,0.010163
town,0.022436
trace,0.013967
trade,0.010536
tradit,0.027516
train,0.006289
transfer,0.006232
troubl,0.028686
twotier,0.015673
typic,0.004886
ula,0.036504
unabl,0.007568
unctad,0.011324
unemploy,0.008530
unesco,0.009892
unficyp,0.033360
unhcr,0.014274
unido,0.011622
unif,0.010357
unifil,0.034679
uniimog,0.019740
unikom,0.017339
union,0.021647
unionist,0.040413
unit,0.022040
unitar,0.016086
univers,0.011316
unme,0.016880
unmibh,0.016241
unmik,0.014741
unmil,0.016778
unmop,0.017469
unnecessari,0.010755
unsuccess,0.009366
untaet,0.016585
untso,0.017216
upu,0.011097
urban,0.007639
use,0.002975
usual,0.004382
vacant,0.013253
valera,0.017339
valid,0.006954
vari,0.005368
variou,0.008292
vest,0.019104
veto,0.011817
vicepresid,0.011767
view,0.004667
viewpoint,0.009587
violenc,0.026020
vision,0.007888
vocat,0.012217
vote,0.041438
voter,0.009769
wa,0.032848
wallac,0.011135
war,0.015520
water,0.011236
waterford,0.018444
wco,0.012970
westminst,0.012144
weu,0.015803
wexford,0.019135
whelan,0.017752
whilst,0.018815
wing,0.009915
wipo,0.011564
wish,0.008052
wmo,0.011463
won,0.007372
work,0.003570
worker,0.006779
workforc,0.020484
wtro,0.012754
year,0.014702
zangger,0.016086
