abolit,0.023324
absolut,0.045186
accord,0.008879
act,0.010149
adam,0.018021
addit,0.017967
address,0.013372
adjourn,0.108637
administr,0.037248
adopt,0.024508
affirm,0.021433
agenc,0.013969
amend,0.018726
ani,0.023478
announc,0.014912
annual,0.013641
appeal,0.016538
appoint,0.043793
approv,0.045764
april,0.013585
area,0.044098
assent,0.027958
associ,0.008674
assum,0.012301
atom,0.015527
august,0.013494
author,0.009998
balzer,0.040507
base,0.015475
basi,0.011060
becom,0.008571
befor,0.009144
board,0.015447
bodi,0.010744
born,0.015125
branch,0.034160
budget,0.016760
cabinet,0.018015
came,0.011725
case,0.008966
chang,0.016170
charg,0.013839
check,0.018592
citizen,0.088057
coalit,0.034757
collabor,0.016474
colleagu,0.019385
collegi,0.059189
come,0.010257
commiss,0.042836
committe,0.092325
commun,0.009378
commut,0.023826
compos,0.013607
composit,0.014869
compromis,0.041241
confirm,0.015463
conserv,0.014237
consider,0.012053
consist,0.038400
constitu,0.050389
constitut,0.124578
conven,0.049469
cooper,0.013709
council,0.013078
councillor,0.029849
councilor,0.065502
countersignatur,0.039567
countri,0.018878
cours,0.012501
court,0.108837
crimin,0.018168
current,0.018365
customari,0.023908
day,0.010823
debat,0.013353
decis,0.012093
decre,0.041198
deleg,0.020252
democraci,0.015977
democrat,0.028108
deputi,0.096043
diet,0.021209
direct,0.009524
discret,0.016917
discuss,0.011703
dismiss,0.019110
dissolut,0.043231
dissolv,0.017815
distinct,0.011047
district,0.017349
divid,0.011374
divis,0.012431
domin,0.011803
draft,0.055535
dure,0.024770
duti,0.068273
ebrd,0.029849
econom,0.009450
elect,0.178315
elector,0.018526
elig,0.021602
emerg,0.011067
enact,0.019142
end,0.009441
energi,0.012089
entitl,0.035655
eschen,0.045232
europ,0.035128
european,0.010755
execut,0.052325
exercis,0.059348
extern,0.006752
fail,0.012983
februari,0.014030
februarymarch,0.039154
follow,0.007386
forc,0.018511
foreign,0.012020
form,0.035291
forum,0.018965
forward,0.016392
fouryear,0.023492
free,0.010547
frstlich,0.086282
function,0.009454
gamprin,0.045232
gazett,0.027868
gemeinden,0.042346
gerichtshof,0.043141
german,0.052164
govern,0.254653
government,0.019326
ha,0.036944
han,0.018454
hansadam,0.041658
hasler,0.037771
head,0.107289
hereditari,0.022100
hi,0.041398
high,0.009350
highland,0.075256
howev,0.014988
icrm,0.025602
ifrc,0.025269
ii,0.024170
import,0.007875
impos,0.015880
includ,0.012820
increas,0.008879
independ,0.009484
individu,0.009524
initi,0.030099
institut,0.009771
intellectu,0.015841
intelsat,0.025718
intens,0.015336
intern,0.056643
interpol,0.021576
investig,0.012939
involv,0.008951
issu,0.009908
itu,0.024227
januari,0.013178
judg,0.051155
judgment,0.019569
judici,0.017727
judiciari,0.041090
laid,0.017425
landgericht,0.043141
landtag,0.328405
largest,0.012751
law,0.037200
lead,0.009211
leader,0.013499
legal,0.012739
legisl,0.070671
legislatur,0.037774
liberalconserv,0.037771
liechtenstein,0.390636
low,0.011831
lowland,0.080918
main,0.009772
major,0.032759
mandat,0.019233
march,0.012801
mauren,0.045232
meet,0.024979
member,0.108339
men,0.014314
met,0.015785
minist,0.027855
minor,0.042855
mitig,0.022188
mix,0.014847
monarch,0.081545
monarchi,0.019787
month,0.027276
moreov,0.017708
multiseat,0.033358
nation,0.017107
negoti,0.016157
new,0.006895
nomin,0.016111
normal,0.024608
novemb,0.013845
obergericht,0.043141
oberst,0.040507
observ,0.010188
occup,0.016084
offic,0.012425
ogan,0.045232
olymp,0.023306
onc,0.023068
onli,0.021317
opcw,0.025137
open,0.010567
opposit,0.012701
order,0.008506
organ,0.025259
otmar,0.039154
parliament,0.389212
parliamentari,0.088388
parti,0.143149
particip,0.012177
patriot,0.090097
pca,0.028189
peopl,0.008510
percentag,0.017201
period,0.009171
person,0.010100
planken,0.045232
plenipotentiari,0.034509
polit,0.048441
popul,0.010982
posit,0.009148
possibl,0.009028
postal,0.023766
power,0.072467
practic,0.009470
present,0.008850
presid,0.051204
prime,0.028443
princ,0.324734
princip,0.041482
principl,0.010625
procedur,0.015415
profess,0.018497
progress,0.036192
properti,0.010717
proport,0.014635
propos,0.043684
public,0.008914
publish,0.009824
punish,0.019472
ratifi,0.022555
reach,0.022817
read,0.009750
reason,0.010075
recent,0.009721
recess,0.020092
refer,0.005613
referendum,0.097448
reform,0.013732
regard,0.010770
repres,0.036835
represent,0.014162
requir,0.017674
resolut,0.017173
respect,0.010676
respons,0.019473
right,0.060443
ruggel,0.045232
schaan,0.042346
schellenberg,0.040015
seat,0.049838
secur,0.023854
septemb,0.013538
seriou,0.015726
session,0.042715
set,0.008696
share,0.010939
sign,0.025727
sinc,0.007812
sole,0.015858
stake,0.023766
stand,0.014683
state,0.047852
strong,0.011352
subject,0.009938
superior,0.017390
supervis,0.018681
suprem,0.031998
suspend,0.038840
task,0.014493
tax,0.014683
term,0.007382
thi,0.011687
thu,0.009133
took,0.012205
total,0.010901
trade,0.022604
treati,0.048947
triesen,0.044081
triesenberg,0.043141
turnout,0.026407
twoparti,0.029234
unctad,0.024294
union,0.058049
unit,0.007880
univers,0.008091
use,0.006383
usual,0.009401
vaduz,0.038416
valid,0.014919
veri,0.008922
vest,0.020491
veto,0.050702
visvi,0.032312
vote,0.044447
voter,0.041917
wa,0.012812
wcl,0.029981
welfar,0.017995
went,0.014330
win,0.017568
women,0.029738
won,0.031631
work,0.007659
world,0.015841
year,0.007884
