abov,0.005117
absolut,0.006779
abtahi,0.019418
accord,0.035972
accordingli,0.008995
account,0.032953
accus,0.008015
act,0.013704
action,0.004911
activ,0.007976
addit,0.004043
administr,0.005588
affair,0.026436
affili,0.009143
ahmadinejad,0.016299
akbar,0.014035
alloc,0.007976
allow,0.007949
amend,0.033715
american,0.009057
ani,0.007045
announc,0.006712
annual,0.030700
anoth,0.003844
ansar,0.015325
apicorp,0.019418
appoint,0.019711
approv,0.075530
approxim,0.005447
arbit,0.013998
arm,0.012746
arrear,0.014193
asid,0.009116
assembl,0.012479
asset,0.007389
associ,0.007809
assum,0.011074
assumpt,0.013619
attach,0.007567
attempt,0.004559
august,0.006073
averag,0.053732
ayatollah,0.014957
balanc,0.012652
bank,0.023121
barrel,0.178839
base,0.027862
baseej,0.020359
basiji,0.020359
bbc,0.018186
bearer,0.013007
becaus,0.010884
befor,0.004116
biggest,0.009048
billion,0.246446
bn,0.012010
bodi,0.009672
bonyad,0.019418
border,0.007099
bpd,0.017001
break,0.006643
breakdown,0.009921
brent,0.014152
bring,0.005991
budget,0.460185
budgetari,0.025419
busi,0.005433
calcul,0.012300
calendar,0.009883
came,0.010555
candid,0.029740
capit,0.020999
capita,0.008760
captiv,0.010338
cash,0.008067
categori,0.006159
ceil,0.011962
cent,0.010014
center,0.010296
central,0.022624
challeng,0.005766
chang,0.003639
charact,0.006670
character,0.006122
charg,0.012458
chart,0.009195
circl,0.007778
claim,0.004900
classif,0.007122
classifi,0.013059
clear,0.006008
cleric,0.011684
close,0.008638
coalit,0.007822
collect,0.004709
combin,0.004603
come,0.013851
commerci,0.024739
compani,0.035683
compar,0.023874
comparison,0.020309
compens,0.008159
complet,0.004458
complex,0.004724
condens,0.009341
condit,0.004517
conserv,0.006408
conservativelink,0.020359
consid,0.003765
constitut,0.015293
construct,0.004999
continu,0.003911
contractor,0.011841
control,0.008578
convers,0.006660
coordin,0.006844
core,0.006856
corp,0.019049
cost,0.005676
council,0.052982
countri,0.016994
coverag,0.009711
craftspeopl,0.016624
creat,0.003949
credit,0.018743
crisi,0.006662
crude,0.060830
currenc,0.007074
current,0.020666
cut,0.013708
day,0.029231
debt,0.037433
decemb,0.005924
decis,0.005443
declar,0.006235
declin,0.006129
decreas,0.006357
defend,0.007223
defens,0.021258
deficit,0.026884
defin,0.004430
democrat,0.012652
depart,0.005660
depend,0.008519
depriv,0.010369
depth,0.008477
deriv,0.004908
describ,0.007947
develop,0.025831
differ,0.003422
diplomat,0.007670
direct,0.004287
disput,0.006494
dissolut,0.009729
divid,0.005119
dmoz,0.008551
document,0.006233
doe,0.013105
dollar,0.052808
dollariranian,0.020359
domest,0.006689
doubl,0.007148
draft,0.008332
draw,0.006618
drop,0.014172
dure,0.003716
earli,0.003887
earlier,0.005743
earmark,0.058967
econom,0.025522
economi,0.015925
effect,0.003776
eightyear,0.014035
elect,0.068796
elector,0.008338
element,0.004943
elig,0.009723
elimin,0.006721
embassi,0.009624
emigr,0.009771
employe,0.016289
end,0.008499
energi,0.005441
enterpris,0.007316
entrepreneur,0.009789
entrepris,0.016624
envisag,0.012484
establish,0.004148
estim,0.043758
evasionexempt,0.020359
exchang,0.043957
exclud,0.007312
execut,0.011776
exempt,0.010103
expect,0.005340
expedi,0.013133
expenditur,0.111727
expens,0.020826
expert,0.015355
export,0.028522
extern,0.015196
factor,0.009856
famili,0.005382
featur,0.005256
februari,0.006315
fedayeen,0.035247
fee,0.009097
fifth,0.008277
figur,0.023026
final,0.005027
financ,0.018477
financi,0.016647
fiscal,0.035249
fiveyear,0.018930
fix,0.006169
flowchart,0.016200
fluctuat,0.008679
follow,0.013299
forc,0.004166
forecast,0.009157
foreign,0.027053
foreignexchang,0.015843
forex,0.014957
form,0.006354
format,0.005669
formula,0.007258
foundat,0.010840
framework,0.005954
freedom,0.013122
fuel,0.007702
function,0.004255
fund,0.051578
fy,0.051012
ga,0.034964
gain,0.005056
gdp,0.046902
gener,0.023893
gnp,0.012753
goal,0.005717
goe,0.029919
govern,0.181815
government,0.008698
group,0.026244
growth,0.026305
guard,0.017375
guardian,0.071889
guid,0.011753
guidelin,0.009218
ha,0.049887
half,0.005721
handout,0.015927
hardlin,0.028305
hashemirafsanjani,0.020359
head,0.010731
health,0.005794
hi,0.007453
hidden,0.018305
high,0.004208
higher,0.009882
hike,0.013435
hizballah,0.019060
hold,0.005006
holder,0.009449
hostag,0.024667
household,0.008268
howev,0.006746
hundr,0.006315
ideolog,0.007851
imam,0.012819
imf,0.027307
implement,0.011573
import,0.003544
imposit,0.011947
includ,0.054820
incom,0.025465
incorpor,0.011415
increas,0.031975
independ,0.004269
indirect,0.009030
industri,0.009488
industrydriven,0.020359
inflat,0.023482
influenc,0.004577
infrastructur,0.007037
institut,0.013194
instrument,0.006400
insur,0.008013
intern,0.010926
invas,0.015158
invest,0.011835
iran,0.490285
iranian,0.146749
iraniraq,0.014640
iraq,0.009301
iraqi,0.025376
irr,0.033486
isbn,0.004913
islam,0.083028
issu,0.004460
item,0.007624
judici,0.007979
jurist,0.024523
just,0.004846
kept,0.007488
khalq,0.017623
khatami,0.018011
khomeini,0.015461
kill,0.006861
king,0.006619
known,0.003472
kurdish,0.014113
kurdistan,0.015134
larg,0.007324
latest,0.009281
law,0.012558
leader,0.054686
leav,0.005884
led,0.004484
legal,0.005734
lend,0.017854
letter,0.006859
level,0.004155
liabil,0.019531
like,0.003711
line,0.004973
link,0.003021
list,0.003863
literatur,0.006208
littl,0.005318
loan,0.008061
local,0.009412
longterm,0.007312
loss,0.006077
lost,0.006038
lower,0.005134
macroeconom,0.009387
mahmoud,0.014234
mainli,0.005768
maintain,0.004844
majli,0.069804
major,0.003686
make,0.007066
manag,0.004976
mani,0.006281
march,0.023047
market,0.010402
martyr,0.012191
mcc,0.016200
mean,0.003826
meanwhil,0.008401
mek,0.017809
member,0.017732
memorandum,0.012279
mid,0.006919
militari,0.011241
militia,0.021504
million,0.027287
ministri,0.007470
mistransl,0.015015
mobil,0.007380
model,0.004328
mohammad,0.012584
mohammadali,0.020359
mojahedin,0.019060
mojahedinekhalq,0.020359
monetari,0.029794
money,0.006209
monitor,0.007514
mostli,0.005928
movement,0.014373
muslim,0.015541
nation,0.042351
nationalist,0.009008
natur,0.003709
ndf,0.017291
ndfi,0.040719
nearli,0.012103
need,0.012530
net,0.014607
new,0.009310
news,0.007583
nioc,0.018011
nomin,0.007252
nonexist,0.010789
note,0.004005
novemb,0.012463
observ,0.004585
obstacl,0.010027
occup,0.007239
octob,0.006008
offic,0.011185
offici,0.052750
oil,0.180311
oilproduc,0.016200
onc,0.015575
onli,0.006396
openmarket,0.017142
oper,0.004383
oppos,0.011613
opposit,0.005717
order,0.003828
organ,0.026529
organis,0.006578
osf,0.019060
outlook,0.009960
overal,0.025437
overalltot,0.040719
overse,0.010361
overseen,0.012407
page,0.006811
paid,0.014168
paradox,0.008885
parliament,0.049053
parliamentari,0.015914
parliamentmajli,0.020359
parti,0.075172
pass,0.005397
payment,0.014977
pdf,0.008041
pension,0.009653
peopl,0.007661
percent,0.139566
period,0.008256
permiss,0.009659
permit,0.007076
persian,0.017459
petroleum,0.008931
place,0.007858
plan,0.052619
player,0.009093
polici,0.020567
polit,0.065412
poor,0.006869
posit,0.004117
possibl,0.004063
postrevolut,0.018232
poverti,0.008196
power,0.028541
prepar,0.006461
prerevolutionari,0.016106
present,0.003983
presid,0.011523
presidenti,0.008147
pressur,0.005997
previou,0.024033
price,0.082576
principl,0.004782
privat,0.017138
profession,0.006456
program,0.005011
progress,0.005430
prohibit,0.008129
project,0.034509
propos,0.029494
proreform,0.016868
prosper,0.008236
protect,0.005310
provinc,0.007365
public,0.024075
purpos,0.005182
quadrillion,0.030392
quadrillionri,0.020359
rate,0.044437
ratifi,0.010152
ray,0.008631
rd,0.014268
reach,0.010270
reason,0.004535
recent,0.004375
recogn,0.005418
reduc,0.009573
refer,0.005053
reform,0.043267
reformist,0.048429
reformistprogress,0.020359
regim,0.007363
regist,0.007835
relat,0.013627
religi,0.006454
religion,0.006435
remain,0.016716
remaind,0.009376
repres,0.008290
repress,0.009530
republ,0.023722
republican,0.009026
research,0.004099
reserv,0.006720
result,0.003519
revenu,0.147436
revolut,0.012519
revolutionari,0.024125
rial,0.267890
rightw,0.011656
rise,0.010169
risen,0.010644
rl,0.014901
rose,0.007667
rule,0.013837
run,0.022211
rural,0.008171
said,0.005191
salari,0.018692
sale,0.044166
sanction,0.009486
santiago,0.012279
save,0.014351
say,0.005474
school,0.005140
secret,0.007796
sector,0.019874
secur,0.005368
seek,0.011340
seiz,0.008687
sent,0.007003
sepaah,0.020359
set,0.015657
setad,0.019418
sever,0.003666
shah,0.011698
share,0.009847
shia,0.011931
sinc,0.010549
sixth,0.009336
sixtyf,0.017142
size,0.005476
skill,0.006774
social,0.017894
societi,0.008812
sourc,0.004423
special,0.004398
spectrum,0.008316
spend,0.029198
sponsor,0.008816
stabil,0.006558
start,0.022257
state,0.036924
stateown,0.041416
statist,0.017308
stock,0.006784
stood,0.018920
strategi,0.006550
stream,0.008428
strengthen,0.007954
strongli,0.006778
structur,0.004108
struggl,0.007371
student,0.029928
subsidi,0.107755
success,0.004663
sum,0.007014
supervis,0.008408
supplement,0.008706
support,0.016725
suprem,0.050410
surplu,0.009252
suspens,0.010925
sustain,0.006878
syncret,0.012543
taken,0.015447
takeyh,0.020359
tax,0.059481
taxat,0.017292
technician,0.011245
term,0.006646
terror,0.009361
terrorist,0.010644
thenpresid,0.014901
theocraci,0.014690
thereaft,0.009195
thi,0.031564
thought,0.004984
thousand,0.006201
total,0.058881
trade,0.005087
transfer,0.012035
transpar,0.009000
treasuri,0.009346
trigger,0.008554
trillion,0.088218
tumult,0.017809
turn,0.004861
twelver,0.015461
twice,0.008381
type,0.004228
union,0.005225
uniqu,0.005996
unit,0.003547
uniti,0.007729
urban,0.007376
usdirr,0.040719
use,0.008620
usual,0.004231
valu,0.009014
vari,0.005184
vet,0.014276
vice,0.008141
vision,0.007617
vote,0.013337
wa,0.020184
wage,0.007727
war,0.019982
web,0.007624
won,0.014237
work,0.003447
world,0.003565
worth,0.015925
year,0.060334
yearonyear,0.015761
york,0.005416
