abeda,0.015026
abil,0.010319
abl,0.004737
abstain,0.011732
abund,0.007605
ac,0.010213
accept,0.004708
accord,0.011250
account,0.004417
acct,0.013355
act,0.030004
add,0.007151
addit,0.018970
administr,0.005243
adult,0.007341
advic,0.032647
advisor,0.009607
aerospac,0.010776
afdb,0.012007
affair,0.012402
affairsintern,0.019729
affluent,0.012092
age,0.009393
agenc,0.017699
agenda,0.008736
agricultur,0.005574
ahead,0.026265
air,0.005761
alberta,0.070960
albertan,0.019729
alien,0.017576
allianc,0.007013
alliancepc,0.019729
allow,0.014917
alreadi,0.005463
alway,0.005043
ambros,0.013434
amend,0.023725
america,0.015767
american,0.008498
ani,0.016526
annal,0.010062
annual,0.005761
anonym,0.009929
anoth,0.007214
anticanadian,0.019729
apec,0.012997
appar,0.006402
appeal,0.027938
applic,0.008957
appoint,0.055485
apportion,0.016224
approv,0.006442
approxim,0.020443
april,0.005737
archiv,0.013805
area,0.007449
argu,0.014967
asdb,0.013784
ask,0.006199
assist,0.005591
associ,0.003663
assumpt,0.006389
atlant,0.007947
attain,0.007591
attempt,0.017111
aucoin,0.018616
australia,0.006518
autonomi,0.015673
avail,0.004584
avenu,0.010849
away,0.005712
backbench,0.034214
balfour,0.014865
band,0.008154
bar,0.016954
base,0.032678
basi,0.009342
basic,0.004549
bc,0.006690
becam,0.008266
becom,0.010859
befor,0.003862
began,0.004515
begin,0.008818
behiel,0.039458
benefit,0.016462
better,0.005099
bi,0.010605
bicamer,0.010186
biggest,0.008489
bilingu,0.012634
bleak,0.014200
bloc,0.063516
board,0.013047
book,0.004297
boondoggl,0.016536
borden,0.014788
born,0.006387
breakthrough,0.009650
brian,0.018499
bring,0.005621
britain,0.006370
british,0.030294
broadcast,0.008774
brunswick,0.012227
build,0.004785
busi,0.010195
c,0.004327
cabinet,0.038041
came,0.009903
campaign,0.020396
canada,0.395704
canadian,0.192187
canadianpoliticscom,0.019729
candid,0.041857
capabl,0.005964
capit,0.004925
care,0.011379
case,0.003786
caucu,0.014317
caucus,0.017336
cbc,0.027761
cbcsrc,0.019729
ccc,0.012114
cdb,0.013279
censu,0.008881
centr,0.006227
central,0.016982
centuri,0.007778
certain,0.004145
challeng,0.010820
chang,0.023902
channel,0.007476
charlottetown,0.018616
chief,0.018921
chosen,0.013841
chronic,0.009309
chrtien,0.030780
citizen,0.030991
civil,0.020781
claim,0.013792
clariti,0.010874
clawback,0.018219
code,0.005860
collaps,0.006672
columbia,0.008424
combin,0.017276
comeback,0.028758
command,0.006354
comment,0.021765
commerc,0.007548
commiss,0.006030
committe,0.032493
common,0.040289
commonwealth,0.015648
compar,0.004480
complet,0.008367
compos,0.005746
comprehens,0.006672
compromis,0.008708
compulsori,0.009580
concept,0.008454
concern,0.012758
conclud,0.006195
condit,0.008477
conduct,0.005191
confeder,0.009041
confid,0.007748
configur,0.008368
conflict,0.005641
consecut,0.010241
consensu,0.007556
consent,0.009297
conserv,0.102220
consid,0.017663
consist,0.016217
consortium,0.021210
constitu,0.014187
constitut,0.081311
content,0.005977
contest,0.007970
context,0.005328
conting,0.008798
continu,0.018352
contribut,0.022230
contributor,0.008861
control,0.008049
controversi,0.005969
convent,0.023463
cooper,0.011579
corpor,0.017830
corrupt,0.007437
cosovereign,0.019729
costa,0.010729
council,0.022094
count,0.006908
countri,0.019932
coupl,0.007009
court,0.080439
cpac,0.019729
creat,0.011115
credit,0.011724
crimin,0.007673
crown,0.031383
crush,0.009267
cspan,0.013646
ctv,0.017336
cumul,0.009614
curb,0.011002
current,0.011634
custom,0.006125
danni,0.013691
date,0.005062
david,0.005381
day,0.013713
deal,0.009760
debat,0.022558
debt,0.007024
decad,0.011013
decemb,0.011118
decid,0.005903
decis,0.005107
declar,0.011701
declin,0.005751
defeat,0.014334
defenc,0.014748
defens,0.006648
delay,0.007737
deliv,0.007140
deliveri,0.017510
demand,0.005408
democraci,0.033738
democrat,0.029678
depart,0.037179
depend,0.003997
deputi,0.008112
deriv,0.004605
describ,0.003728
descript,0.005537
design,0.004449
desir,0.005701
despit,0.005136
destroy,0.006334
determin,0.008413
develop,0.006059
devis,0.008310
did,0.004496
differ,0.003211
digit,0.020293
diminish,0.008201
direct,0.004022
directli,0.009734
disaffect,0.013982
disburs,0.038158
disciplin,0.011163
distinct,0.009331
distribut,0.004998
district,0.014654
divid,0.004803
divis,0.015750
dollar,0.007078
domin,0.014954
dominion,0.051731
dominionprovinci,0.019729
donat,0.027221
doubl,0.006706
drag,0.010487
draw,0.006209
dure,0.013948
eapc,0.013559
earli,0.014591
east,0.005607
ebrd,0.012606
ece,0.013279
echo,0.010159
eclac,0.013646
economist,0.013694
educ,0.009292
edward,0.006634
elect,0.231303
elector,0.046945
eleph,0.010088
elig,0.027370
elimin,0.006307
elizabeth,0.034707
embarrass,0.011423
emerg,0.014022
empow,0.010269
encroach,0.011239
end,0.003987
endur,0.008901
energi,0.005105
english,0.020317
englishspeak,0.009995
ensur,0.023966
enter,0.010663
entir,0.004730
environ,0.004834
equal,0.029800
esa,0.012071
escap,0.007322
especi,0.004234
establish,0.011676
estim,0.005132
ethnic,0.007196
europ,0.004945
evenli,0.010886
everi,0.027382
evolv,0.005986
exampl,0.009798
exceed,0.030635
exclud,0.006860
exclus,0.006230
execut,0.005524
exercis,0.018798
exert,0.016736
exist,0.003626
expect,0.015032
expens,0.006513
experi,0.004484
explain,0.004909
express,0.004725
expressli,0.011538
extens,0.004924
extern,0.002851
fail,0.016450
failur,0.006345
fall,0.004978
fao,0.009921
far,0.004945
farmer,0.007719
farright,0.014088
fashion,0.007676
favour,0.021515
februari,0.005925
feder,0.156782
federalist,0.012371
federalprovinci,0.078917
feel,0.006817
fellow,0.008245
fewer,0.007734
field,0.003982
fight,0.006843
final,0.009434
financ,0.011558
fisheri,0.009913
fix,0.005788
flag,0.026126
fluent,0.013434
fluentli,0.015026
follow,0.006239
forc,0.011726
foreign,0.010153
forev,0.010395
form,0.005961
formerli,0.014610
fortin,0.017107
forward,0.006922
framework,0.005587
franc,0.005583
francophoni,0.014258
frankli,0.015200
freez,0.010106
french,0.015745
frenchspeak,0.012932
frequent,0.005482
function,0.007985
fund,0.086034
furthermor,0.006683
futur,0.004749
g,0.010551
gain,0.018978
garner,0.021748
gener,0.042034
given,0.011734
global,0.005179
globe,0.008881
good,0.008671
govern,0.114964
government,0.016323
governor,0.071581
governorincouncil,0.018219
grant,0.011957
great,0.008790
greater,0.014736
green,0.033534
grim,0.013559
groundbreak,0.011110
group,0.010553
guest,0.010298
ha,0.062410
harper,0.050228
havenot,0.017884
head,0.020138
health,0.027183
height,0.007775
held,0.018443
hereditari,0.009333
hi,0.006993
higher,0.004636
highest,0.005971
histor,0.004380
histori,0.006496
hoist,0.013880
hold,0.018789
holiday,0.009179
hous,0.062778
howev,0.041145
human,0.003757
iadb,0.013784
iaea,0.010937
ibrd,0.010477
icao,0.010487
icc,0.011375
icct,0.013133
icftu,0.012181
icj,0.014034
icrm,0.010812
ida,0.010250
ident,0.005584
iea,0.013475
ifad,0.010638
ifc,0.010519
ifrc,0.010672
iho,0.012901
ii,0.010207
ilo,0.010288
imf,0.008540
immigr,0.046564
imo,0.011138
impact,0.005344
implement,0.005429
import,0.003326
impress,0.007960
improv,0.004799
inaccur,0.010572
includ,0.005414
incom,0.005973
increas,0.015000
indefinit,0.009162
index,0.006195
individu,0.008045
industri,0.004451
infer,0.007494
inflat,0.007344
influenc,0.021477
initi,0.004237
inmarsat,0.013031
inroad,0.012997
insuffer,0.019729
intelsat,0.010861
intent,0.006562
intergovernment,0.011391
interim,0.018716
intern,0.006834
interpol,0.009112
intoler,0.011360
involv,0.003780
ioc,0.010168
iom,0.011504
island,0.005780
iso,0.009101
isol,0.006331
issu,0.025108
itu,0.010232
jean,0.008088
job,0.013469
john,0.004435
johnston,0.011925
join,0.005800
journalist,0.009179
judg,0.036007
judici,0.007486
judiciari,0.008676
juli,0.005632
june,0.005681
junior,0.010279
jurisdict,0.031660
justic,0.032953
justin,0.035480
kingdom,0.010374
knowledg,0.004904
known,0.013033
la,0.006508
labrador,0.053739
lack,0.009943
lake,0.007690
landscap,0.008129
lang,0.021553
larg,0.003436
late,0.004514
law,0.023566
lawrenc,0.008722
lead,0.011670
leader,0.091220
leadership,0.007074
leadup,0.015597
leaf,0.010572
leav,0.005521
led,0.021039
left,0.005197
leg,0.009678
legal,0.048421
legisl,0.029846
length,0.006468
level,0.007797
leverag,0.010062
liber,0.111689
like,0.006964
limit,0.015926
line,0.004666
linger,0.011846
link,0.002834
littl,0.004989
lloyd,0.010054
local,0.008831
long,0.008466
longterm,0.006860
look,0.005383
loophol,0.012808
lose,0.006856
lost,0.028328
lower,0.004817
lowerprofil,0.019729
lowest,0.007754
loyal,0.009937
lrtap,0.019729
maclean,0.015111
mail,0.010213
mainland,0.008469
majesti,0.011391
major,0.065717
make,0.016576
manag,0.004669
mandat,0.024368
mani,0.017680
manitoba,0.027861
manufactur,0.006217
map,0.005964
mapl,0.013434
margin,0.007144
maritim,0.008392
mark,0.005234
martin,0.020702
matter,0.004903
mayb,0.011807
mckay,0.013279
mean,0.017951
media,0.005979
meech,0.018616
member,0.041595
membership,0.007180
mere,0.006413
merg,0.007852
merger,0.009447
meritori,0.014643
middl,0.005375
minimum,0.007111
minist,0.111760
ministri,0.007009
minor,0.036198
minurca,0.018219
minurso,0.014507
miponuh,0.016536
mismanag,0.011925
model,0.004060
moder,0.014936
moment,0.007416
monarch,0.043048
monarchi,0.033426
money,0.011652
monuc,0.014379
motion,0.006578
movement,0.008990
mp,0.076919
mulcair,0.019729
mulroney,0.031903
multiparti,0.008364
nafta,0.013602
nam,0.010260
narrow,0.007361
nation,0.065023
nationaldef,0.019102
nationalist,0.008452
nationalunityrel,0.019729
nationwid,0.009905
nato,0.009858
natur,0.017401
ndp,0.087044
nea,0.013880
nearli,0.005678
need,0.011757
nemesi,0.014258
network,0.010900
new,0.029120
newfoundland,0.072821
newli,0.006858
news,0.014231
newsnet,0.019729
noncabinet,0.019729
nonregion,0.016083
nonspecif,0.012634
norad,0.017107
normal,0.015589
north,0.010352
northcom,0.019729
northwest,0.008916
notabl,0.005002
nova,0.009827
novemb,0.005847
nsg,0.014258
number,0.019568
nunavut,0.015827
oa,0.011555
observ,0.012908
obtain,0.005067
occasion,0.007354
occur,0.008283
octob,0.011274
oecd,0.009650
offer,0.004847
offic,0.015742
offici,0.019797
offshor,0.009506
old,0.005394
older,0.006841
onc,0.009742
ongo,0.007133
onli,0.036011
onlin,0.005705
ontario,0.032154
opcw,0.010616
oper,0.004112
oppon,0.008098
oppos,0.005448
opposit,0.026821
order,0.017962
organ,0.010667
origin,0.003612
osc,0.011298
ottawa,0.011986
outlook,0.009346
outsid,0.004973
oversight,0.010326
overstep,0.015597
overview,0.006532
owner,0.007374
pale,0.012662
paradigm,0.007899
pari,0.007129
parliament,0.072325
parliamentari,0.059726
parti,0.413118
particip,0.005142
particularli,0.018287
partisan,0.011391
partisanpolit,0.019102
partner,0.007126
pass,0.010129
passag,0.015533
past,0.010343
patriat,0.018219
paul,0.005666
pay,0.012172
payment,0.014053
pc,0.031750
pca,0.011905
peopl,0.003594
perceiv,0.013112
percent,0.006547
percentag,0.007264
percept,0.013878
perform,0.004583
period,0.007747
person,0.012797
personalpolitic,0.019102
peter,0.005944
petit,0.009643
place,0.003686
plan,0.004937
play,0.004706
pleas,0.009874
plu,0.007334
plural,0.025152
pointbas,0.019729
polit,0.110474
politician,0.031284
poliwonk,0.019729
poll,0.009073
poor,0.006445
poorer,0.021299
popul,0.023192
popular,0.013992
posit,0.015454
post,0.012653
power,0.065035
practic,0.003999
preced,0.007082
predecessor,0.008151
predomin,0.008527
prefer,0.005724
premier,0.009358
prepared,0.013646
prerevolutionari,0.015111
preserv,0.006300
previou,0.005637
prime,0.102107
princ,0.008067
prior,0.016939
priortemporari,0.019729
privi,0.022782
problem,0.003998
process,0.010602
produc,0.011668
product,0.003896
program,0.009405
progress,0.025475
promin,0.017586
promiscu,0.013559
proper,0.006706
properti,0.004526
proportion,0.011015
propos,0.004612
prospect,0.007944
prove,0.011538
proven,0.007895
provid,0.003316
provinc,0.117482
provinci,0.081372
public,0.033883
puisn,0.017593
punish,0.008223
qualiti,0.005569
quarterli,0.009140
qubcoi,0.067599
quebec,0.252449
queen,0.015691
quiet,0.010950
quit,0.012635
rais,0.011027
rank,0.018934
rare,0.006152
rate,0.009265
read,0.004117
realign,0.075150
realiti,0.006449
realli,0.007627
reason,0.004255
rebalanc,0.014944
receiv,0.049826
recent,0.004105
recognit,0.012997
reconstruct,0.014859
recurr,0.010186
red,0.019714
reduc,0.013474
reemerg,0.011521
refer,0.007112
referenda,0.013691
referendum,0.008231
reform,0.028997
refund,0.013205
regard,0.013645
regardless,0.014334
region,0.025473
regul,0.005612
regular,0.006495
reject,0.011689
relat,0.012786
reli,0.005712
relianc,0.009506
relief,0.008452
remain,0.003921
remark,0.007271
remov,0.005474
replac,0.004831
report,0.009113
repres,0.007778
represent,0.035887
representationbypopul,0.039458
requir,0.007464
reserv,0.012611
resettl,0.011283
resid,0.018843
resourc,0.014399
respect,0.004508
respons,0.004112
rest,0.011109
result,0.016512
revenu,0.020750
revis,0.007084
reviv,0.007534
revolut,0.005873
rhal,0.019729
rica,0.011925
richer,0.022658
ride,0.041230
rightw,0.010937
rise,0.004770
risen,0.009987
robert,0.005212
role,0.016613
rona,0.016224
rule,0.008655
rump,0.013737
run,0.005210
runoff,0.010812
s,0.013450
safeti,0.007641
said,0.034099
saskatchewan,0.013982
saw,0.011603
scandal,0.010012
scenario,0.008587
scholar,0.012042
scotia,0.012298
seat,0.203466
secess,0.022943
secessionist,0.025616
secretariat,0.011096
secur,0.015111
seen,0.009303
select,0.010310
selfgovern,0.018804
senat,0.065068
send,0.007414
senior,0.007858
sens,0.004878
sentiment,0.018428
serv,0.004719
servic,0.036954
set,0.011018
settlement,0.006918
sever,0.006879
share,0.018480
sharpli,0.009327
shortliv,0.009315
signal,0.006821
signific,0.012636
similar,0.003940
similarli,0.006251
sinc,0.039593
singlememb,0.013602
sit,0.008722
situat,0.005080
size,0.005138
skill,0.006356
slant,0.013475
slight,0.009850
slogan,0.011283
smaller,0.011221
social,0.008395
socialdemocrat,0.013831
societi,0.008268
somewhat,0.006995
sought,0.006428
sourc,0.008300
sovereignti,0.015914
sovereigntist,0.036439
speak,0.006326
special,0.004126
specif,0.011843
spencer,0.010824
spend,0.041094
spread,0.005832
squar,0.006990
st,0.010638
stabil,0.006153
stabl,0.006493
staff,0.007778
stand,0.012402
standard,0.004444
star,0.007317
start,0.008353
state,0.017322
statement,0.006057
statu,0.027553
statut,0.009693
step,0.005595
stephen,0.014659
stoke,0.011788
stori,0.006688
straight,0.009151
strain,0.016403
strengthen,0.007463
strive,0.009460
strong,0.009588
stronger,0.007944
structur,0.007710
studi,0.003487
style,0.006798
substanti,0.006125
succeed,0.013491
success,0.026254
successor,0.007411
suffer,0.006022
suffici,0.018300
suffrag,0.009700
suggest,0.004619
summari,0.007940
superior,0.014688
support,0.007846
suppress,0.007556
suprem,0.047299
sure,0.009041
surg,0.010186
surround,0.006042
synthes,0.008574
systemat,0.006303
tactic,0.008774
tail,0.009553
taken,0.004831
task,0.006121
tax,0.031005
televis,0.007437
temporari,0.007781
tend,0.005418
term,0.003117
territori,0.017326
textbook,0.007437
thenpremi,0.019102
thi,0.056764
thirti,0.008896
thoma,0.005902
thought,0.004676
threaten,0.007502
thu,0.007714
time,0.020436
toronto,0.010250
total,0.023019
trade,0.004773
tradit,0.016620
transfer,0.011292
transit,0.005744
treasuri,0.008769
treat,0.011555
trend,0.006302
tri,0.010387
tribun,0.010250
trudeau,0.046171
tva,0.017336
twentyfirstcenturi,0.016710
twice,0.007864
type,0.007934
unabl,0.013713
unconstitut,0.012181
uncoordin,0.015026
unctad,0.010260
understand,0.004478
undof,0.017107
unec,0.017593
unemploy,0.007728
unesco,0.008962
unficyp,0.015111
unhappi,0.011572
unhcr,0.012932
unido,0.010529
unifi,0.006906
unikom,0.015709
unilater,0.031038
union,0.014709
unit,0.013312
uniti,0.036264
unlik,0.005494
unlimit,0.009874
unmibh,0.014714
unmik,0.013355
unmop,0.015827
unpreced,0.018741
untaet,0.015026
untso,0.015597
unu,0.014143
unwritten,0.027568
upper,0.006663
upset,0.011152
upu,0.010054
urg,0.008708
uruguay,0.011283
use,0.018872
usual,0.011912
variabl,0.006031
variat,0.006185
variou,0.007512
veri,0.003768
vertic,0.008536
viabl,0.018158
viceroy,0.012007
victori,0.022925
vote,0.118886
wa,0.059520
wage,0.007250
want,0.006091
war,0.009374
way,0.003528
wcl,0.012662
weight,0.006650
went,0.006052
west,0.011331
western,0.034743
westminst,0.055011
weve,0.013982
wftu,0.011391
wherea,0.005725
wherebi,0.007455
white,0.012529
width,0.011096
william,0.010574
win,0.022258
winner,0.009084
wipo,0.010477
wish,0.007295
wit,0.008036
wmo,0.010385
won,0.053435
word,0.004580
work,0.003234
world,0.020071
write,0.005159
written,0.005224
wto,0.010385
year,0.033300
yukon,0.015597
zangger,0.014574
