accord,0.018442
acquir,0.030040
act,0.021079
advic,0.040138
age,0.023097
appeal,0.034348
appoint,0.090954
assembl,0.086375
attempt,0.021037
attorneygener,0.138037
banaban,0.351801
behavior,0.026086
beretitenti,0.351801
bid,0.047387
branch,0.070948
brief,0.035246
cabinet,0.074831
candid,0.102922
capac,0.030874
citizen,0.060962
coalit,0.036093
commiss,0.029656
commonwealth,0.038477
commun,0.019478
condit,0.020843
conflict,0.027745
consist,0.019938
constitu,0.034884
constitut,0.047043
court,0.084767
democrat,0.058379
design,0.021881
elect,0.211626
elig,0.044866
establish,0.019140
ex,0.048519
execut,0.081506
exercis,0.030815
exist,0.017835
extern,0.014024
fiji,0.113652
formal,0.023998
fouryear,0.097585
framework,0.027477
fundament,0.024559
gener,0.013781
govern,0.091188
guarante,0.035180
ha,0.025576
head,0.024759
high,0.019419
hous,0.077182
includ,0.013313
independ,0.059094
inform,0.019066
island,0.085276
judici,0.110454
judiciari,0.042670
juli,0.027701
kauomanniberetitenti,0.093943
kiribati,0.252552
land,0.024267
legisl,0.088067
legislatur,0.078454
link,0.013941
magistr,0.050365
major,0.017009
make,0.016303
maneaba,0.457770
maungatabu,0.281831
member,0.143190
membership,0.035314
minist,0.028926
multiparti,0.041134
multiseat,0.069283
nation,0.017765
new,0.014320
ni,0.169247
nomin,0.033462
offici,0.048679
officio,0.064763
outsid,0.024457
overview,0.032124
parliamentari,0.036715
parti,0.074327
phosphat,0.049571
placat,0.071673
place,0.036262
platform,0.039259
polit,0.100608
power,0.037627
present,0.018382
presid,0.053173
presidenti,0.037594
previous,0.028026
promulg,0.046879
protect,0.024502
protract,0.056496
provis,0.035807
public,0.037029
rabi,0.062694
repres,0.019125
republ,0.082094
resid,0.030889
return,0.023596
right,0.020922
seat,0.034503
seced,0.059363
serv,0.023209
servic,0.022716
sever,0.016916
similar,0.019376
sinc,0.016226
singleseat,0.060598
sourc,0.020410
sovereign,0.038783
speaker,0.041669
special,0.020294
stand,0.030495
structur,0.018958
te,0.058846
term,0.030666
themselv,0.024069
unicamer,0.049486
vest,0.042559
vicepresid,0.052428
vote,0.061542
websit,0.030683
wherebi,0.036664
