abil,0.007335
abl,0.013469
academ,0.007985
accid,0.025707
accord,0.010662
achiev,0.006707
acronym,0.016150
act,0.012187
action,0.013102
add,0.010166
advoc,0.018304
africa,0.008658
agenda,0.024840
agreement,0.008138
agricultur,0.007924
agudat,0.026466
aka,0.029066
align,0.046072
alli,0.009847
allianc,0.009971
allow,0.005302
almagor,0.028048
alon,0.009117
alongsid,0.022177
american,0.006040
amir,0.018041
amnon,0.021362
ani,0.004698
announc,0.008953
annual,0.008190
antizionist,0.045731
appar,0.009101
appoint,0.008764
approach,0.006136
approv,0.009159
april,0.008156
arab,0.049238
arabisra,0.036417
area,0.005295
ariel,0.018525
assassin,0.012618
assert,0.009159
associ,0.010416
atid,0.051804
attempt,0.012163
averag,0.007963
baaliyah,0.056096
balanc,0.008438
bank,0.046261
barak,0.082878
barrier,0.010848
base,0.009291
becam,0.011752
becom,0.010292
beiteinu,0.052933
benjamin,0.024380
best,0.007085
bid,0.013698
bilater,0.012227
bloc,0.025799
block,0.009576
breaker,0.021245
bring,0.007992
busi,0.007247
calcul,0.008203
came,0.007039
camp,0.011649
campaign,0.009665
capitalist,0.012719
car,0.011377
cataclysm,0.020187
center,0.006867
centr,0.097386
centrist,0.071530
chairman,0.024356
chang,0.004854
charedi,0.028048
charg,0.008309
circl,0.010375
circumst,0.009891
claim,0.006536
classif,0.009501
clear,0.008014
coalit,0.187815
coma,0.019157
combat,0.011302
combin,0.006140
commit,0.018051
committe,0.009238
commun,0.011261
communist,0.010621
compar,0.006369
compos,0.008170
concess,0.013619
condit,0.012051
confid,0.011016
conflict,0.024062
consensu,0.010742
conserv,0.008548
consid,0.010044
consider,0.007237
consist,0.005763
constitu,0.010084
contest,0.011330
continu,0.010436
contrari,0.011261
cooper,0.008231
corrupt,0.010573
council,0.007852
countri,0.017002
courag,0.016062
creat,0.005267
critic,0.012669
cultur,0.006475
david,0.007650
day,0.019496
dayan,0.021133
decid,0.008392
defi,0.016285
defunct,0.015220
degre,0.007052
democraci,0.019185
democrat,0.016876
demonstr,0.007740
depart,0.007550
depress,0.010700
design,0.012650
despit,0.007302
devot,0.010179
did,0.006392
die,0.008251
differ,0.004565
direct,0.005718
disengag,0.056635
disintegr,0.014082
disproportion,0.015030
domin,0.007086
drove,0.013949
dure,0.004957
earli,0.005185
east,0.007971
econom,0.017022
economi,0.007080
edah,0.026466
educ,0.006605
ehud,0.042266
elect,0.145297
elit,0.011513
emphasi,0.009404
emunim,0.025902
encourag,0.008521
enforc,0.009720
enjoy,0.009870
enter,0.007579
environment,0.008335
especi,0.006020
establish,0.011066
evacu,0.028349
eventu,0.014738
everi,0.006487
exampl,0.013930
exclud,0.009753
exist,0.005155
expressli,0.016403
eyni,0.028048
ezer,0.028048
face,0.015564
faction,0.024492
fail,0.015590
fall,0.007077
februari,0.016847
fell,0.010013
feminist,0.013590
fight,0.019457
figur,0.015357
focus,0.014434
follow,0.008870
forc,0.016671
forefront,0.016308
foreign,0.007217
forerunn,0.014722
form,0.046616
format,0.015123
formerli,0.010385
formul,0.008878
fragment,0.010904
free,0.006332
freedom,0.026257
fring,0.014836
gahal,0.026466
gaza,0.072166
gener,0.011951
geneva,0.014736
gesher,0.076275
gil,0.056635
golda,0.023756
govern,0.105444
greater,0.006983
green,0.019069
group,0.030006
gush,0.021879
gvul,0.028048
ha,0.014787
hachareidi,0.026466
hahistadrut,0.028048
haleumi,0.028048
hamifkad,0.028048
haredi,0.043759
hatnuah,0.026466
head,0.007157
hebrew,0.013916
held,0.026220
henc,0.008650
herut,0.051804
hi,0.029826
high,0.011227
highli,0.007298
histadrut,0.024647
histori,0.004617
hold,0.006678
home,0.015833
hostil,0.011498
hous,0.007437
howev,0.008999
identifi,0.013404
immigr,0.011033
import,0.004728
improv,0.013645
incapacit,0.019400
includ,0.030789
independ,0.005694
influenc,0.024426
infrastructur,0.009386
initi,0.018071
interestgroup,0.025902
interim,0.013304
intern,0.009716
isra,0.263768
israel,0.295206
israelipalestinian,0.020028
issu,0.023797
januari,0.039561
jerusalem,0.014821
jewish,0.068960
join,0.041232
joke,0.016732
jonathan,0.012962
judaism,0.066303
judea,0.037546
june,0.008077
kadima,0.155414
knesset,0.262556
known,0.004632
kulanu,0.051804
laam,0.028048
labor,0.100120
labour,0.009384
lack,0.021203
larg,0.009770
larger,0.007316
largest,0.022967
later,0.005512
leader,0.016210
leadership,0.010056
leak,0.015549
leav,0.007849
lebanon,0.030709
led,0.029911
left,0.059110
leftlean,0.020187
leftw,0.045861
legisl,0.008486
legislatur,0.011340
lesarev,0.028048
levi,0.013026
liber,0.033427
life,0.005958
light,0.007641
like,0.004950
likud,0.285075
limit,0.005660
limitbord,0.028048
lipkinshahak,0.028048
list,0.005153
littl,0.007093
livni,0.025425
lobbi,0.042736
local,0.006277
longterm,0.009753
loos,0.011523
maavak,0.028048
mainstream,0.011247
major,0.024585
mani,0.008378
manifesto,0.014613
mapai,0.024320
march,0.038429
margin,0.010157
massiv,0.009862
mean,0.010208
measur,0.006070
meimad,0.027157
meir,0.020442
member,0.005913
meretz,0.025902
merg,0.033488
middl,0.007641
militarist,0.018340
million,0.007279
minist,0.108710
ministeri,0.015441
minor,0.017153
model,0.005773
monitor,0.010022
mordechai,0.022174
mosh,0.019664
mostli,0.015815
motiv,0.009054
mount,0.010804
movement,0.012781
narrow,0.010465
nation,0.077034
nationalist,0.012016
natur,0.004947
need,0.005571
negoti,0.019402
netanyahu,0.202508
new,0.041398
nonzionist,0.076275
north,0.007358
notabl,0.014223
novemb,0.024938
nowaday,0.014026
number,0.009273
occupi,0.009291
offer,0.013783
offic,0.014920
officebear,0.026466
olmert,0.098588
ometz,0.027157
onc,0.006925
onli,0.012798
oppos,0.007745
opposit,0.007626
organ,0.020221
organis,0.008774
orthodox,0.012480
oslo,0.018041
outsid,0.007070
palestinian,0.048060
parti,0.393926
particular,0.011602
particularli,0.006499
past,0.014704
peac,0.026814
pension,0.012876
peopl,0.010219
perceiv,0.009320
pere,0.020624
peretz,0.052933
perman,0.008981
person,0.006064
plan,0.028075
platform,0.011349
polici,0.020575
polit,0.151239
politician,0.011118
pollard,0.020919
popul,0.013188
popular,0.013261
posit,0.005492
post,0.008994
power,0.010877
predominantli,0.011797
presenc,0.008036
present,0.005314
preval,0.011701
previou,0.008014
prime,0.111005
prior,0.008027
privatis,0.016705
problem,0.005683
professor,0.009498
promin,0.008333
promot,0.015162
proport,0.008787
protect,0.007083
public,0.010704
publicli,0.011372
pull,0.036589
pursu,0.009665
rabbin,0.018573
radic,0.009742
rank,0.008972
realign,0.017806
receiv,0.006439
recent,0.005836
reciproc,0.012661
reduc,0.019155
reelect,0.027458
refer,0.003370
refus,0.019672
rel,0.012086
relationship,0.006433
releas,0.008423
relief,0.012016
religi,0.103316
religion,0.008584
report,0.006478
repres,0.055290
represent,0.025509
research,0.005468
resign,0.011518
result,0.018780
revisionist,0.036417
right,0.036290
rightw,0.031098
road,0.009790
rule,0.006152
russian,0.009867
samaria,0.041439
seat,0.049872
secret,0.010399
secular,0.023330
secur,0.028644
seek,0.015126
select,0.007329
separatist,0.016020
septemb,0.008128
servic,0.006567
settlement,0.019672
settler,0.012683
sever,0.014670
sha,0.103121
sharon,0.205390
sharpli,0.013260
shimon,0.020919
shinui,0.077707
short,0.007186
signific,0.005988
simpl,0.007453
sinc,0.009381
singl,0.012555
size,0.014610
slightli,0.010166
smaller,0.023928
smallit,0.028048
social,0.011934
socialist,0.020988
soldier,0.010673
sometim,0.006106
sotzialisti,0.028048
south,0.007345
special,0.005866
spectrum,0.011092
spi,0.015936
split,0.019282
stanc,0.012930
state,0.012313
statu,0.015668
strip,0.024619
stroke,0.014984
strong,0.027264
struggl,0.009833
subject,0.011934
subsequ,0.029281
subsidi,0.013066
success,0.006220
suffer,0.008561
support,0.033464
surfac,0.008493
survey,0.009016
task,0.008702
tax,0.008815
telem,0.028048
tend,0.015406
tenet,0.013811
term,0.008865
territori,0.024631
terror,0.037462
themselv,0.006958
thi,0.017543
tie,0.009149
today,0.006738
togeth,0.006468
took,0.014656
torah,0.069273
tradit,0.011813
tzipi,0.025425
tzomet,0.027157
ultraorthodox,0.023065
umbrella,0.013971
understand,0.006367
unilater,0.029417
union,0.034853
uniqu,0.007998
unit,0.018925
uniti,0.020622
unlik,0.007811
unoffici,0.014392
usbas,0.017731
use,0.007665
valu,0.006012
veri,0.005357
version,0.008205
victim,0.012604
view,0.012024
voic,0.011180
vote,0.008895
wa,0.046154
war,0.006663
water,0.007235
way,0.015047
weizman,0.026466
went,0.008603
west,0.048327
withdraw,0.022550
withdrew,0.026366
women,0.008927
won,0.047479
worker,0.017464
world,0.004755
worsen,0.014004
yachad,0.027157
yarok,0.027157
year,0.004734
yesh,0.075035
yesha,0.049294
yisrael,0.089334
yitzhak,0.021362
young,0.008710
zionism,0.060562
zionist,0.057298
