abolit,0.030640
abus,0.025093
access,0.016140
accus,0.023395
act,0.013332
action,0.043000
activ,0.011640
activist,0.027829
adam,0.023674
africa,0.189446
african,0.184019
afrikan,0.046485
allianc,0.087269
allow,0.023201
alter,0.020925
amend,0.024600
anc,0.344198
apartheid,0.074441
appli,0.012470
approv,0.020040
april,0.017846
assembl,0.091055
associ,0.011395
ba,0.031039
bantubonk,0.061369
bantustan,0.111259
becom,0.022520
befor,0.012013
biteback,0.061369
bophuthatswana,0.113348
buthelezi,0.061369
ca,0.025873
cabinet,0.023666
campaign,0.021147
cape,0.029589
care,0.035396
challeng,0.016829
chamber,0.024998
chang,0.021242
chief,0.058855
children,0.019375
christian,0.018257
citizen,0.019279
cofound,0.032367
communist,0.023239
complaint,0.031221
compris,0.019275
concern,0.013228
confid,0.024103
congress,0.063336
constand,0.061369
constitu,0.022065
constitut,0.163656
contest,0.024791
continu,0.011417
controversi,0.018568
cosatu,0.057909
council,0.017181
countri,0.037200
crime,0.023378
crimin,0.047735
cross,0.041131
current,0.012063
custodi,0.111662
death,0.049509
defenc,0.022937
democraci,0.020988
democrat,0.129240
director,0.022656
disband,0.032752
discrimin,0.078500
domin,0.031011
draft,0.024318
dure,0.021693
dynam,0.017666
econom,0.012414
educ,0.028904
effect,0.011020
elect,0.234249
elector,0.024337
end,0.024806
enjoy,0.021597
entitl,0.023419
enumer,0.032786
environ,0.015037
equal,0.015449
establish,0.024213
everi,0.014195
excess,0.021923
execut,0.051553
exercis,0.019491
expresid,0.046001
extens,0.015319
extern,0.008870
fighter,0.030812
floor,0.055188
follow,0.009703
food,0.017458
forc,0.048635
formal,0.015179
formerli,0.022723
fourth,0.021165
freedom,0.134050
fulli,0.018288
gener,0.034867
gnu,0.123569
govern,0.161498
grave,0.029569
group,0.010942
grow,0.015555
guarante,0.044503
ha,0.048532
habib,0.042447
head,0.078302
health,0.050734
held,0.014342
helen,0.034264
hi,0.021753
high,0.012283
hivaid,0.079310
holden,0.043332
holomisa,0.061369
homeland,0.125525
hope,0.020653
hous,0.032546
human,0.011687
hurutsheboomanyan,0.061369
ifp,0.051436
imparti,0.036969
includ,0.042104
independ,0.037378
inkatha,0.170022
institut,0.012836
interim,0.058219
intoler,0.035336
introduc,0.014229
investig,0.016998
isbn,0.028680
jacob,0.027351
judiciari,0.053979
june,0.017673
justic,0.020500
known,0.010135
kwazulu,0.053927
labour,0.020533
law,0.012217
leader,0.053202
led,0.013089
legal,0.016735
legisl,0.055704
legislatur,0.099247
level,0.024254
life,0.013036
link,0.008818
live,0.013112
local,0.013735
lost,0.017623
lower,0.014984
luca,0.064860
maiman,0.050466
main,0.012838
mainli,0.016835
major,0.021517
mandela,0.089454
mangop,0.113348
mangosuthu,0.061369
mani,0.009165
martin,0.021464
mean,0.011168
member,0.038815
merg,0.024424
militiamen,0.044923
minist,0.036593
mmusi,0.061369
mob,0.036847
motsweda,0.061369
movement,0.013983
multiparti,0.026018
multiraci,0.043024
municip,0.024710
nation,0.134840
nelson,0.030640
new,0.009058
notabl,0.015560
note,0.011691
np,0.073337
number,0.010144
occur,0.038651
offic,0.016322
offici,0.015395
opposit,0.016685
order,0.011174
organis,0.019199
origin,0.011238
ostens,0.032852
parliament,0.122711
parliamentari,0.046445
parti,0.203723
partli,0.021804
paul,0.017626
perman,0.019651
person,0.013269
place,0.011468
plaut,0.055629
polic,0.090212
polici,0.015006
polit,0.076363
politician,0.024328
popular,0.014508
postapartheid,0.049619
power,0.035699
practic,0.012441
predecessor,0.025354
presid,0.184981
press,0.013685
previous,0.017726
privaci,0.034389
problem,0.012436
prohibit,0.047453
prop,0.039212
properti,0.014079
prospect,0.024710
provid,0.020634
provinc,0.064488
provinci,0.056247
provis,0.022649
publish,0.012906
read,0.012808
receiv,0.042269
recent,0.012770
refer,0.007374
reform,0.018039
religion,0.018783
remain,0.036590
repres,0.060487
repress,0.027813
republ,0.051925
requir,0.011609
respect,0.014024
result,0.030818
retain,0.019393
retir,0.025093
revolut,0.018269
right,0.092637
role,0.012919
rule,0.053847
sacp,0.054725
safe,0.024112
seat,0.021823
second,0.012103
secondari,0.042000
secur,0.031336
sent,0.020441
separ,0.013473
seriou,0.020659
serv,0.058720
set,0.011424
share,0.028741
sinc,0.041052
slaveri,0.027046
slow,0.021189
socal,0.020709
social,0.013056
sometim,0.013361
south,0.273239
speech,0.022113
stand,0.019288
state,0.017960
suspect,0.054853
suspend,0.025511
term,0.009698
termin,0.024048
thi,0.007676
threetier,0.046001
thu,0.011997
today,0.014744
trade,0.014847
transkei,0.057909
treatment,0.018880
tribe,0.025266
tripartit,0.036104
tswana,0.048865
twice,0.024462
twothird,0.028123
unilater,0.032182
union,0.015251
unit,0.020704
uniti,0.022560
univers,0.010630
use,0.008386
vest,0.026919
vigilant,0.046485
viljoen,0.061369
violenc,0.024443
violent,0.025343
volksfront,0.057909
vote,0.077853
voter,0.027532
wa,0.058908
water,0.015832
western,0.015438
wide,0.013219
window,0.057689
wit,0.024998
withdrew,0.028844
women,0.039066
year,0.010358
zill,0.061369
zulu,0.041543
zuma,0.054725
