abl,0.007852
accept,0.007804
acp,0.018487
act,0.007105
activist,0.014831
ad,0.007933
administr,0.017384
adult,0.012170
afdb,0.019904
affair,0.010279
africa,0.020191
african,0.021792
agenc,0.009779
agit,0.018487
agre,0.009372
air,0.019099
airport,0.013693
albert,0.037905
alleg,0.025709
allow,0.006182
amend,0.013109
ani,0.005478
ann,0.014560
announc,0.010439
ans,0.157418
appear,0.007200
applic,0.007424
appoint,0.020439
approv,0.042718
april,0.028532
armi,0.010693
arrest,0.027325
arthur,0.012681
ask,0.010276
assembl,0.048525
assemblyassembl,0.031666
associ,0.030364
assum,0.008612
attempt,0.014182
attend,0.011862
au,0.017825
august,0.018893
augustseptemb,0.028358
aux,0.022771
baie,0.054287
barriest,0.031666
bear,0.011633
beau,0.026236
becam,0.013703
becom,0.006000
bel,0.045242
benefit,0.009096
boileau,0.027411
boull,0.028358
branch,0.015943
briefli,0.013904
britain,0.042241
british,0.016739
broken,0.012498
burden,0.014308
businessman,0.019240
buxton,0.027143
c,0.007174
cabinet,0.025224
caiman,0.029163
campaign,0.011270
candid,0.011564
cap,0.015293
care,0.009431
cascad,0.018046
case,0.006277
cast,0.012752
centuri,0.006446
charg,0.019377
chief,0.020909
cia,0.014917
claim,0.015242
closer,0.012423
coalit,0.048665
collect,0.007324
coloni,0.020764
colour,0.014330
commenc,0.015188
commiss,0.029989
commit,0.010524
commonwealth,0.012969
commun,0.006565
compar,0.007426
composit,0.010409
concern,0.007049
condit,0.014052
confeder,0.014987
confer,0.009884
congress,0.011251
conrad,0.019098
consensu,0.025051
consist,0.006720
constitu,0.011758
constitut,0.055500
contest,0.039635
contrast,0.008482
convinc,0.013367
cool,0.014066
cooprat,0.027411
copra,0.021385
corpor,0.009852
correspond,0.009115
council,0.009156
coup,0.027350
creat,0.018426
crescent,0.018729
cross,0.010959
culturel,0.025856
decemb,0.018430
demand,0.008965
democraci,0.011185
democrat,0.049196
deni,0.011640
depress,0.012476
describ,0.006180
develop,0.015066
did,0.007454
directli,0.016136
discov,0.008843
distribut,0.008285
district,0.012146
diverg,0.013571
divid,0.007962
divis,0.008703
doorstep,0.025679
dp,0.208066
draft,0.012959
dtat,0.016116
earli,0.012093
eastern,0.010034
eca,0.020762
econom,0.006616
elect,0.231837
electionsth,0.029646
elector,0.038909
embodi,0.013978
end,0.013219
english,0.008419
enjoy,0.011509
ensur,0.009932
enthusiasm,0.018440
entir,0.007841
establish,0.006451
et,0.010392
etoil,0.029163
everi,0.007565
everyth,0.012038
execut,0.018315
exempt,0.015714
exercis,0.010387
exil,0.041422
extraordinari,0.015779
fair,0.012244
fall,0.008252
fao,0.016446
favor,0.009985
favour,0.011888
februari,0.009822
feel,0.011301
financ,0.009579
fiveyear,0.014721
fled,0.014632
fleuri,0.026661
flight,0.013244
flow,0.009520
forc,0.019438
foreign,0.008415
form,0.029648
fourteen,0.017579
framework,0.009262
franc,0.018509
free,0.014768
frichot,0.031666
fund,0.017827
gain,0.015730
garner,0.018025
gave,0.018813
glaci,0.027411
glaud,0.031666
govern,0.079917
governor,0.023731
grand,0.025114
grant,0.009910
grard,0.021491
greater,0.008142
gresl,0.029646
grimbl,0.027143
group,0.029157
gunman,0.025856
ha,0.004310
head,0.050074
health,0.018024
held,0.007643
help,0.014154
hi,0.028981
hijack,0.020851
histori,0.005384
hoar,0.022139
hoarau,0.028738
hoareau,0.031666
hold,0.007786
home,0.018462
hous,0.008672
howev,0.005246
ibrd,0.017367
icao,0.017384
idea,0.007255
ifad,0.017635
ifrc,0.017691
ii,0.008460
import,0.005513
includ,0.004487
incom,0.009901
increas,0.006216
independ,0.039838
india,0.009897
industri,0.007378
inner,0.012995
inoc,0.029163
instal,0.012757
instig,0.017653
integr,0.023403
intelsat,0.018005
intern,0.050984
interpol,0.015105
intervent,0.011729
involv,0.006267
ioc,0.016855
island,0.019163
jame,0.054705
join,0.009615
juli,0.028012
jump,0.014925
june,0.037673
just,0.007537
keen,0.017805
kill,0.010671
known,0.005401
labour,0.010942
lack,0.008241
land,0.008180
landless,0.021333
landslid,0.018349
larg,0.005696
laru,0.028358
lazar,0.024641
le,0.012874
lead,0.006448
leagu,0.013261
led,0.013950
legisl,0.059371
legislatur,0.026445
liber,0.009744
limit,0.006600
liter,0.012427
lobbi,0.016610
local,0.007319
london,0.018200
lot,0.013310
loui,0.012195
lower,0.007985
loyalti,0.015660
mad,0.017616
mahe,0.030860
main,0.006841
maintain,0.007535
major,0.017200
mamel,0.030202
manag,0.007739
mancham,0.385398
mani,0.004884
march,0.008961
maritim,0.013911
meanwhil,0.013067
member,0.041370
mercenari,0.036974
michel,0.044442
mike,0.017944
minimum,0.011788
minist,0.048753
model,0.006731
monetari,0.011584
mont,0.032404
month,0.009547
movement,0.029807
multiparti,0.055462
murder,0.013724
mutin,0.022270
nation,0.047905
national,0.018534
need,0.006496
neglect,0.014136
new,0.024135
newli,0.011369
nomin,0.033838
nonalign,0.017844
nonsignatori,0.022476
novemb,0.019385
observ,0.007132
obtain,0.008399
offic,0.026095
ombr,0.031666
oneparti,0.037925
onli,0.004974
opcw,0.017598
opinion,0.011485
oppon,0.013424
opposit,0.053352
organ,0.035367
origin,0.005988
overcom,0.013272
overthrow,0.031384
owner,0.024447
parti,0.175378
particip,0.017050
pass,0.008395
past,0.008573
peopl,0.023832
period,0.012842
petit,0.015984
phillip,0.016723
pin,0.018326
place,0.012223
plaisanc,0.030202
plan,0.008184
planter,0.059817
plantocraci,0.028014
plu,0.024316
pmaesa,0.026894
point,0.006268
polit,0.067825
poll,0.015041
poor,0.010685
popul,0.015377
popular,0.023194
port,0.024422
post,0.010488
power,0.025366
praslin,0.028738
predict,0.009067
presid,0.125464
presidenti,0.050689
prevail,0.013109
previou,0.009344
previous,0.009446
price,0.009173
prime,0.019912
process,0.005858
progress,0.016891
promin,0.019434
properti,0.007503
proport,0.010245
protect,0.008259
radio,0.012686
ramkalawan,0.088938
reactionari,0.019572
reconcil,0.015451
reconcili,0.016446
red,0.021786
referendum,0.013644
reform,0.038454
regist,0.012186
registr,0.015303
remain,0.006499
ren,0.030803
rene,0.350241
represent,0.019829
republ,0.009224
request,0.011945
resound,0.024392
respons,0.006816
result,0.010949
retir,0.013372
return,0.031815
review,0.008806
reviv,0.012489
revolt,0.014308
rich,0.011270
river,0.010744
robert,0.008641
roch,0.021333
royal,0.010369
rule,0.021522
sadli,0.026236
saint,0.026283
saw,0.009617
seat,0.093042
servic,0.007657
seselwa,0.029646
set,0.006088
seychel,0.483844
shoot,0.016666
shot,0.015284
signific,0.006982
sinc,0.005469
singleseat,0.020426
sir,0.012345
sixteen,0.017944
small,0.013386
smaller,0.018600
smallhold,0.023353
snpdp,0.031666
social,0.006958
socialist,0.012236
soldier,0.012445
solv,0.010066
somewhat,0.011595
south,0.008565
southern,0.020302
split,0.011241
sppf,0.233311
spup,0.088938
stage,0.019103
standard,0.007366
state,0.014357
station,0.011949
stood,0.014713
strateg,0.011937
strong,0.007947
subject,0.006958
subsequ,0.008535
suffrag,0.016079
superpow,0.018805
support,0.019509
suppress,0.012525
surprisingli,0.018260
takamaka,0.031666
tanzanian,0.047077
tax,0.010279
taxat,0.013447
taxpay,0.036520
techniqu,0.008405
term,0.010336
text,0.009435
thi,0.020455
threw,0.020045
time,0.004839
took,0.042722
total,0.030526
tower,0.015996
trade,0.007912
transit,0.009522
treason,0.019448
tribun,0.016992
troop,0.012345
twenti,0.013453
twentyfirst,0.018582
unctad,0.017007
underground,0.015160
unesco,0.014856
unidentifi,0.022849
union,0.016255
unit,0.022067
univers,0.005664
unoppos,0.021830
uoa,0.027700
upu,0.016666
use,0.004469
user,0.012133
valid,0.010444
vallon,0.029646
vest,0.014345
vice,0.012663
vicepresid,0.017672
victori,0.038003
view,0.007010
voic,0.013036
vote,0.093350
wa,0.143511
wage,0.036056
want,0.010098
war,0.023309
wavel,0.087491
wherebi,0.012358
white,0.010384
whitehal,0.024908
wmo,0.017216
work,0.016086
worker,0.010181
world,0.016635
wtoo,0.019357
wtro,0.019154
year,0.033120
