abolish,0.029669
absenc,0.026103
abus,0.030543
acct,0.050564
acp,0.042224
administr,0.039705
adopt,0.058782
advis,0.028700
afdb,0.045460
amend,0.119770
ani,0.012513
anoth,0.013656
apart,0.026020
appli,0.015179
applic,0.016957
appoint,0.023341
appropri,0.022760
approv,0.024391
arbitrari,0.030661
argument,0.023855
arrest,0.062410
articl,0.016875
assembl,0.088663
associ,0.013870
atanga,0.074696
author,0.031973
background,0.024385
bdeac,0.062606
beat,0.036015
becaus,0.012888
bello,0.052936
bicamer,0.038565
biya,0.063266
bouba,0.068981
boycot,0.043309
branch,0.091035
budget,0.026798
c,0.016385
cabinet,0.028805
cameroon,0.461208
cameroonian,0.185985
case,0.014337
ceeac,0.058268
censorship,0.041806
central,0.048222
chang,0.012927
chosen,0.026202
civil,0.019670
commiss,0.022831
conflict,0.021360
consid,0.013375
constitut,0.162978
constitution,0.094841
construct,0.017759
consult,0.026483
continu,0.013896
contrarili,0.059923
cook,0.032334
corrupt,0.028158
council,0.041824
countri,0.015092
court,0.130520
creation,0.020876
custom,0.023190
death,0.020087
decemb,0.021046
declar,0.022151
demand,0.040951
design,0.033691
detaine,0.058268
disburs,0.048156
discours,0.031404
dismiss,0.030556
doe,0.015518
domest,0.047527
domin,0.018873
eas,0.031788
easili,0.023656
eca,0.047420
elect,0.142559
elimin,0.023878
emerg,0.017696
employe,0.028932
empow,0.038880
establish,0.029471
examin,0.021611
exampl,0.012366
execut,0.125498
exercis,0.047447
exist,0.013730
expenditur,0.030530
fact,0.017531
fao,0.037564
firm,0.049322
fix,0.021915
flaw,0.035199
follow,0.023622
form,0.011285
formal,0.018476
format,0.020138
framework,0.021154
frequent,0.020756
function,0.015116
fz,0.051835
g,0.019974
gener,0.010609
govern,0.238691
governor,0.027101
grant,0.022635
ha,0.049226
head,0.076245
held,0.017456
hierarchi,0.030088
honor,0.030543
human,0.014225
iaea,0.041409
ibrd,0.039666
icao,0.039706
icc,0.043069
icrm,0.040937
ida,0.038809
idb,0.047420
ideal,0.024024
ifad,0.040277
ifc,0.039825
ifrc,0.040405
illeg,0.029751
ilo,0.038952
imf,0.032334
imo,0.042170
improv,0.018169
incapac,0.052368
includ,0.010249
increas,0.014198
incumb,0.039588
independ,0.030330
indirect,0.032080
ineffici,0.034190
influenc,0.016262
inmarsat,0.049336
intelsat,0.041123
intern,0.012938
interpol,0.034499
ioc,0.038497
itu,0.038739
ituc,0.048964
januari,0.021071
join,0.021961
journalist,0.034755
judg,0.027265
judici,0.085035
judiciari,0.098552
junejuli,0.059054
justic,0.074857
law,0.104094
leader,0.021585
legisl,0.135601
legislatur,0.030199
licens,0.029393
lilian,0.057214
limit,0.015075
local,0.033436
maigari,0.072324
maintain,0.017211
major,0.052380
mandat,0.030753
march,0.020468
marchapril,0.050864
meet,0.019970
member,0.078741
membership,0.027187
minist,0.044540
ministri,0.079617
model,0.015374
modifi,0.024083
multiparti,0.063336
multipl,0.018984
municip,0.030076
nam,0.038845
nation,0.082061
newspap,0.091668
note,0.014230
novemberdecemb,0.056280
nudp,0.074696
number,0.024695
oau,0.047027
oblig,0.027256
occasion,0.027843
octob,0.021343
offici,0.018738
oic,0.043620
onc,0.018443
onethird,0.037503
onli,0.034085
opcw,0.040193
opposit,0.060927
ordinari,0.026915
organ,0.013463
parastat,0.106271
parliament,0.024893
parliamentari,0.028266
parti,0.076296
particip,0.019471
pass,0.019174
pca,0.045073
perpetu,0.033437
place,0.013958
play,0.017820
pledg,0.034996
polit,0.077455
popular,0.017658
power,0.028968
prefect,0.047624
present,0.014151
presid,0.225151
presidenti,0.173659
prime,0.022740
privat,0.040588
probat,0.050564
profit,0.024453
promulg,0.036091
properti,0.017136
propos,0.017462
provid,0.025115
provinci,0.034231
public,0.014253
quo,0.039472
radio,0.028975
read,0.015590
receiv,0.017149
recent,0.015543
record,0.018920
refer,0.008976
reform,0.109785
refus,0.026194
regardless,0.027135
region,0.016074
regul,0.021250
remain,0.029691
renew,0.026248
report,0.017252
represent,0.022644
republ,0.042134
request,0.054565
requir,0.014130
resign,0.030674
restrict,0.020804
review,0.040225
right,0.016107
role,0.031449
round,0.028435
ruler,0.059981
search,0.022975
second,0.014732
seiz,0.030861
seldom,0.040756
senat,0.153969
session,0.034150
sidebysid,0.057551
sometim,0.016262
spend,0.025931
state,0.032792
statecontrol,0.053548
station,0.027291
statu,0.020864
stipend,0.050713
strong,0.018151
strongli,0.024077
structur,0.014595
subject,0.015891
subordin,0.068957
subprefect,0.064769
subsequ,0.019495
successor,0.056123
suprem,0.076746
suspend,0.031052
sustain,0.024435
televis,0.028158
term,0.023608
territori,0.021865
time,0.011053
total,0.017430
tradit,0.047193
tribal,0.034842
twothird,0.034231
udeac,0.062606
unaccount,0.054440
unctad,0.038845
unesco,0.033932
unido,0.039865
unitar,0.055179
unitari,0.039208
upu,0.038065
use,0.010207
veri,0.014266
vest,0.032765
veto,0.040535
vote,0.023689
wa,0.020485
wco,0.044489
wftu,0.043128
wherebi,0.028226
wipo,0.039666
wmo,0.039320
woman,0.031191
women,0.071325
won,0.025288
worthi,0.039396
wtoo,0.044212
wtro,0.043748
year,0.063038
