abil,0.006140
abl,0.002818
abroad,0.004845
absenc,0.008204
academ,0.046793
academia,0.011509
accept,0.008404
accord,0.013388
accordingli,0.005022
account,0.010513
achiev,0.002807
acronym,0.006759
act,0.005100
action,0.008225
activ,0.015586
actual,0.002855
adam,0.004528
add,0.004255
administ,0.008748
administr,0.620904
adopt,0.009238
advanc,0.005512
advisor,0.005716
advoc,0.026814
affair,0.029518
africa,0.003623
age,0.002794
agenc,0.028084
agenda,0.005198
agpa,0.023478
aid,0.003347
aim,0.022305
aixenprov,0.011077
aixmarseil,0.010641
al,0.003827
alfr,0.004572
alien,0.005229
alleg,0.004614
allison,0.007901
alloc,0.004453
allow,0.002219
alon,0.003816
altern,0.002867
america,0.009382
american,0.035396
analysi,0.037660
andor,0.015620
ani,0.001966
annual,0.006855
anoth,0.008585
answer,0.003973
anthropolog,0.005059
antiqu,0.009235
applebi,0.030537
appli,0.007156
applic,0.005330
appliedresearch,0.011739
appoint,0.003668
approach,0.025681
approv,0.003833
approxim,0.003041
apsa,0.022155
arab,0.004121
argu,0.020780
aristotl,0.004600
arm,0.003558
armi,0.003838
array,0.004869
art,0.006827
articl,0.007956
asia,0.003831
asian,0.004251
aspa,0.041263
aspect,0.005865
assert,0.007666
assess,0.003800
assimil,0.005824
assist,0.003327
associ,0.017439
assumpt,0.007603
assur,0.005084
attempt,0.007636
attent,0.003638
attitud,0.004581
attribut,0.006937
audienc,0.005036
audit,0.006044
australia,0.007757
australian,0.004641
author,0.015075
award,0.007868
b,0.005911
bachelor,0.011622
backfir,0.008755
background,0.003832
backwat,0.008555
barrier,0.004540
base,0.009722
basi,0.002779
basic,0.008120
battl,0.004214
becam,0.004919
becaus,0.018229
becom,0.006461
befor,0.004596
began,0.008060
begin,0.005247
behavior,0.012625
behaviorist,0.007361
belgium,0.010563
believ,0.008348
benefit,0.013060
best,0.005931
better,0.009102
biennial,0.007857
bleed,0.007195
bloomington,0.007733
bocconi,0.020358
bodi,0.008100
book,0.007671
border,0.003963
borrow,0.004465
branch,0.008584
bright,0.005884
bring,0.003345
britain,0.003790
bronfenbrenn,0.009417
brownlow,0.020358
brussel,0.006485
budget,0.037905
budgetari,0.014191
budgetmaxim,0.021682
bug,0.007083
build,0.019931
built,0.006708
bureau,0.005089
bureaucraci,0.035956
bureaucrat,0.029811
bureaushap,0.023478
busi,0.045498
businesslik,0.009570
c,0.002575
cabinet,0.004527
cambridg,0.007138
came,0.008839
camer,0.017264
canada,0.023159
canadian,0.004574
capabl,0.003548
capam,0.011739
caraca,0.008672
carbon,0.004392
care,0.003385
career,0.004420
caribbean,0.005141
carleton,0.017264
carri,0.002905
carrol,0.006825
case,0.004506
categor,0.004581
caucasu,0.006578
caus,0.002405
censu,0.005284
center,0.008622
central,0.012631
centuri,0.006942
certain,0.002466
chair,0.005061
chairman,0.005097
challeng,0.009657
chang,0.006095
charact,0.003724
characterist,0.003106
charl,0.003451
chatham,0.008991
check,0.004672
chicago,0.004392
choic,0.003541
chun,0.008713
ciim,0.011739
citi,0.006224
citizen,0.029504
citizenship,0.011234
civil,0.024731
clad,0.016967
claim,0.010942
clapp,0.010468
clark,0.005218
class,0.002989
classic,0.011910
classif,0.003976
clearli,0.004052
client,0.005190
clientel,0.008845
climat,0.003848
clinton,0.012455
close,0.002411
cnfpt,0.011739
colbi,0.008991
cold,0.008592
cole,0.006271
collabor,0.004139
collector,0.006391
colleg,0.003912
combin,0.010280
come,0.010310
comment,0.004317
commerci,0.003452
commiss,0.003588
committe,0.003866
commonwealth,0.009311
commun,0.011783
compar,0.055982
comparison,0.022676
compens,0.004555
competit,0.007088
complet,0.004978
complex,0.002637
compon,0.003104
compos,0.003419
comprehens,0.003970
compris,0.003687
concept,0.025153
concern,0.017713
conclud,0.003686
conclus,0.004016
concurr,0.005557
condit,0.002522
conduct,0.003089
confer,0.003548
connect,0.002967
connot,0.005957
consequ,0.003064
consid,0.008408
consider,0.003029
consist,0.004824
constitut,0.008538
constitution,0.007452
construct,0.002791
consult,0.004162
consumpt,0.008408
contain,0.002585
contemporari,0.003525
contend,0.010391
content,0.003556
context,0.003170
contin,0.004644
continent,0.004800
continu,0.004367
contract,0.007231
contractor,0.006611
contrast,0.003044
contribut,0.015873
control,0.002394
cooper,0.006890
coordin,0.003820
core,0.003827
corpor,0.003536
cost,0.006338
costli,0.005617
council,0.003286
counterpart,0.004833
counti,0.005363
countri,0.021348
cours,0.006283
coursework,0.007551
cpa,0.033531
cq,0.008892
creat,0.008818
credit,0.003488
criteria,0.009027
critic,0.010605
critiqu,0.004579
crosscultur,0.007195
cultur,0.008130
current,0.002307
curricula,0.006741
curriculum,0.016749
cursiv,0.009217
curtail,0.006538
custom,0.018223
cut,0.003826
cypru,0.012016
d,0.008753
dadministr,0.011077
daili,0.004215
date,0.006025
david,0.006403
day,0.005440
deal,0.002903
debat,0.013422
debt,0.004179
decentr,0.011778
decis,0.009117
decisionmak,0.015587
declin,0.006844
decreas,0.007099
deemphas,0.007753
defens,0.007912
deficit,0.005003
defin,0.019789
definit,0.022800
degre,0.029518
deinstitution,0.009943
demand,0.012872
democraci,0.032119
democrat,0.024722
denhardt,0.011077
depart,0.012641
department,0.007621
der,0.004717
describ,0.002218
despit,0.003056
detriment,0.005922
develop,0.027040
development,0.010148
devis,0.004944
devot,0.004260
dichotomi,0.032426
did,0.005351
differ,0.024841
differenti,0.007299
difficult,0.003143
digit,0.012075
digniti,0.006441
diminish,0.004880
direct,0.004787
directli,0.002896
director,0.013001
disabl,0.020997
disagr,0.005125
discard,0.006029
disciplin,0.033213
disciplinari,0.013323
discov,0.003174
discoveri,0.003375
discret,0.008502
discuss,0.005882
displac,0.004624
dissemin,0.005613
dissert,0.012277
distanc,0.003838
distinct,0.008328
distinguish,0.003200
diverg,0.009743
divers,0.006933
divid,0.002858
docil,0.008845
doctor,0.034413
dodd,0.007753
doe,0.004877
domain,0.003520
domest,0.011204
domin,0.011864
donald,0.015245
dpa,0.054206
dr,0.004472
draw,0.011085
drawn,0.004253
drew,0.004967
driver,0.005524
dublin,0.006678
duboi,0.016831
dunleavi,0.023478
dure,0.012449
duti,0.017156
e,0.011683
ear,0.005759
earli,0.002170
earn,0.004078
easier,0.004646
east,0.006672
eastern,0.003601
ecolog,0.004089
econom,0.021373
economi,0.002963
ed,0.006075
edemocraci,0.010641
educ,0.013823
effect,0.014757
effici,0.030581
effort,0.015026
egpa,0.023478
eighteenthcenturi,0.007421
eisenhow,0.007551
elect,0.003200
electr,0.010764
electron,0.007262
element,0.002759
elev,0.004841
elit,0.004818
elmor,0.021283
emerald,0.007901
emerg,0.008343
emiss,0.030896
emperor,0.004786
emphas,0.030468
emphasi,0.007872
empir,0.003028
employ,0.002878
employe,0.013641
employerbas,0.011077
emul,0.006221
enabl,0.003441
enact,0.004810
encourag,0.007133
encyclopedia,0.003737
end,0.002372
endeavor,0.005721
energi,0.012151
enforc,0.020341
engag,0.010309
enhanc,0.008038
enlighten,0.004738
enlightenmentera,0.010179
ensur,0.007130
entiti,0.011046
entitl,0.013440
entrepreneur,0.005465
environ,0.002876
equal,0.005910
equival,0.003495
era,0.003428
essay,0.004205
establish,0.006947
ethic,0.019970
europ,0.011770
european,0.008108
evalu,0.007520
event,0.002824
everi,0.002715
everywher,0.005636
evid,0.002959
examin,0.010189
exampl,0.011661
exchang,0.003067
execut,0.039447
executivelegisl,0.011366
exist,0.004315
expand,0.009209
expans,0.003661
expect,0.005963
expenditur,0.014394
experi,0.002668
experienc,0.007791
expert,0.008572
expertis,0.005293
explain,0.005842
exploit,0.004039
extend,0.002862
extens,0.002930
extent,0.003570
extern,0.001696
eye,0.004338
f,0.003196
fact,0.005510
factor,0.002751
factvalu,0.010179
fadzlina,0.011366
fail,0.006525
failur,0.007551
fashion,0.004567
faster,0.004527
father,0.003815
fattor,0.022155
favorit,0.006398
fayol,0.028710
feder,0.024186
feed,0.004981
field,0.073465
figur,0.003213
financ,0.006877
financi,0.009293
firm,0.003875
flowback,0.011739
focu,0.015917
focus,0.015103
foreign,0.003020
form,0.008868
formal,0.011614
fortiori,0.009217
forum,0.009532
foster,0.004960
foundat,0.006051
founder,0.004067
fourth,0.004048
fragment,0.004563
framework,0.003324
franc,0.006644
frank,0.009087
frankfurt,0.006412
fred,0.006018
frederick,0.020940
fredrick,0.009491
friedrichshafen,0.011077
fritz,0.006259
fruit,0.004598
fuller,0.006797
fulltim,0.006179
function,0.009503
fundament,0.005943
futur,0.005652
g,0.003139
gaebler,0.011077
gener,0.033348
geneva,0.006167
georg,0.003344
georgia,0.005546
german,0.009831
germani,0.006988
gilman,0.008672
given,0.002327
global,0.003081
goal,0.015959
good,0.023219
goodnow,0.011739
goodsel,0.011077
gordon,0.005412
gore,0.007794
gottlob,0.007060
gov,0.009281
govern,0.112539
government,0.024282
graduat,0.008696
graduatelevel,0.008632
graham,0.005913
grassroot,0.014339
great,0.005230
grew,0.003877
group,0.014652
grow,0.002975
growth,0.002937
gulick,0.074248
guy,0.006303
h,0.009670
ha,0.026304
hagu,0.007182
hai,0.008449
hall,0.004402
hamper,0.006150
hand,0.002875
hard,0.003808
harvey,0.005884
hazard,0.005299
head,0.002995
headi,0.021283
headquart,0.005141
health,0.009705
heart,0.004259
heavi,0.004010
heavili,0.003741
heinrich,0.005759
help,0.005080
hemel,0.010841
hemispher,0.005284
hempstead,0.010641
henceforth,0.007436
henri,0.007480
herti,0.011077
heyday,0.007534
hfw,0.011077
hi,0.010403
hierarch,0.005323
high,0.002349
highest,0.003553
highlevel,0.006127
highlight,0.004777
histori,0.003865
hold,0.005590
holism,0.007235
hoover,0.007332
hour,0.004077
hous,0.003112
howev,0.009416
hr,0.021509
human,0.017885
iasia,0.023478
ibrahim,0.006806
idea,0.010417
ideal,0.007551
identifi,0.002805
idheap,0.011739
ignor,0.004025
ii,0.006073
iia,0.042597
illdefin,0.007773
illform,0.009943
immigr,0.004617
imperfect,0.005712
imperialist,0.007072
impgt,0.011739
implement,0.016153
implementor,0.010179
impli,0.007215
implicit,0.005435
import,0.001979
improv,0.017133
inappropri,0.006116
inaugur,0.005360
incent,0.004831
includ,0.032217
inclus,0.014340
inconsist,0.005392
incorpor,0.006373
increas,0.015620
increasingli,0.003420
inculc,0.008173
inde,0.003945
independ,0.004766
india,0.010658
indiana,0.005861
individu,0.011967
industri,0.005297
industrialist,0.006927
ineffect,0.017611
ineffici,0.005373
inet,0.010841
influenc,0.002555
influenti,0.003732
inform,0.002306
infrastructur,0.003928
inhous,0.007468
initi,0.002521
inpa,0.023478
input,0.008408
inquiri,0.004628
instanc,0.003142
instead,0.002717
institut,0.034377
instruct,0.008737
instrument,0.003573
integr,0.008400
interact,0.002895
interamerican,0.007695
interdisciplinari,0.004769
intergovernment,0.006778
intern,0.034568
internetbas,0.008483
internship,0.007390
interpret,0.003095
intervent,0.008420
introduc,0.013610
introduct,0.003076
invit,0.004782
involv,0.002249
ireland,0.004850
irrelev,0.005763
isbn,0.005486
islam,0.003862
issn,0.029938
issu,0.012450
itali,0.008351
item,0.004256
itinde,0.011739
iversen,0.009570
j,0.002914
jame,0.003272
janet,0.006705
janick,0.011077
japan,0.007674
jay,0.006215
jefferson,0.006627
jeong,0.028475
johann,0.004965
john,0.005278
journal,0.011938
jr,0.009857
judici,0.004454
jurisdict,0.004709
justi,0.010641
justic,0.007843
justifi,0.004666
kanter,0.010315
karisma,0.011739
kerala,0.015206
kettl,0.026016
kevin,0.006088
key,0.017716
kind,0.003090
king,0.007391
kingdom,0.003086
kirchwey,0.011739
knowledg,0.014592
ku,0.008449
kuala,0.007603
l,0.006830
lack,0.026624
ladminist,0.011739
lag,0.006039
lagpa,0.023478
lalor,0.010641
lane,0.005932
larg,0.006133
larger,0.003062
late,0.008058
later,0.009229
latin,0.014585
launch,0.003907
law,0.018696
layer,0.004465
lead,0.009258
leader,0.003392
leadership,0.008418
learn,0.003259
leav,0.003285
led,0.007511
legal,0.003201
legisl,0.003551
legitimaci,0.005937
lend,0.004984
lesser,0.004756
lesson,0.005445
leuven,0.008593
level,0.020878
levi,0.005452
liber,0.003497
liberti,0.009848
licari,0.011739
like,0.016577
line,0.005553
link,0.006747
literatur,0.006932
live,0.010033
local,0.007882
lock,0.005024
logic,0.003754
london,0.009799
long,0.005037
longer,0.003199
lorenz,0.006906
loui,0.004377
lowincom,0.006981
lumpur,0.007733
luther,0.020250
lyndal,0.019678
lynn,0.013124
m,0.016646
ma,0.024499
macroeconom,0.005240
main,0.002455
major,0.004116
make,0.017753
manag,0.180586
mancosa,0.011739
mani,0.026300
manner,0.003743
mapa,0.010179
marini,0.010055
market,0.011614
marketdriven,0.009653
marx,0.005422
master,0.053819
max,0.004740
maxim,0.013235
maximis,0.006927
maxwel,0.005784
mba,0.024959
mcmpa,0.011739
mead,0.006875
mean,0.006409
mechan,0.002864
mediev,0.008274
member,0.009900
mental,0.004197
menzel,0.009743
mere,0.003816
meritbas,0.009943
method,0.016817
methodolog,0.004106
michael,0.003569
microeconom,0.006039
mid,0.007725
midcar,0.019140
middl,0.006396
midth,0.004786
milan,0.006507
militari,0.003138
militarili,0.006661
million,0.006093
mind,0.003658
minist,0.003500
misappl,0.010055
misunderstood,0.007406
misus,0.006398
model,0.045910
modern,0.009307
modif,0.004610
modifi,0.003785
money,0.003466
monitor,0.004195
montgomeri,0.007657
moral,0.007761
morstein,0.011739
motiv,0.003789
mpa,0.067063
multidisciplinari,0.005802
multipl,0.002983
municip,0.014180
naic,0.009839
naspaa,0.023478
nation,0.032242
national,0.006652
natur,0.010354
nauru,0.007275
nawi,0.011366
nce,0.009417
nearli,0.003378
necess,0.004860
necessari,0.006182
need,0.006995
needsbas,0.010179
nepot,0.008350
netherland,0.004520
network,0.032429
new,0.034654
niskanen,0.049715
nispace,0.023478
nobl,0.005044
nonelect,0.008555
nonforprofit,0.011077
nonprofit,0.011189
norm,0.004499
north,0.006160
notabl,0.008929
note,0.006709
notion,0.003670
npm,0.085132
number,0.009702
object,0.002651
observatoir,0.010468
observatori,0.005997
obtain,0.003015
occup,0.004041
oder,0.007857
oecd,0.005742
offer,0.020191
offici,0.020614
old,0.003209
oldest,0.008392
onc,0.002898
onli,0.007142
open,0.002655
openforumcomau,0.011739
oper,0.012235
opportun,0.010992
oppos,0.006483
opposit,0.003191
option,0.004047
order,0.004275
ordinari,0.004230
organ,0.042317
organiz,0.030490
orient,0.008083
origin,0.002149
osborn,0.007436
ottawa,0.014264
outcom,0.007931
outgrowth,0.007120
outsid,0.005918
owner,0.004387
pa,0.006044
page,0.003802
pair,0.004133
panel,0.005716
paper,0.006401
paperback,0.006531
parti,0.002997
particip,0.009180
participatori,0.006992
particular,0.004856
partisan,0.006778
partisanpolit,0.011366
partner,0.004240
parttim,0.006825
passiv,0.005345
patnet,0.011739
patricia,0.006687
patron,0.005937
patronag,0.006316
pattern,0.006619
paul,0.010115
pay,0.010864
payforperform,0.011739
peopl,0.010693
perform,0.016361
period,0.011524
persist,0.004398
personalpolitic,0.011366
personnel,0.014382
perspect,0.013884
pertain,0.005363
pharaoh,0.007107
phd,0.020050
philosoph,0.006809
philosophi,0.003302
pillar,0.011759
place,0.008775
plan,0.005875
platform,0.004750
play,0.005601
pluralist,0.006644
po,0.007025
point,0.002250
polic,0.004314
polici,0.080377
policymak,0.006350
polit,0.055996
politi,0.005997
politician,0.004653
politicsadministr,0.023478
pool,0.005079
popular,0.002775
posdcorb,0.011739
posit,0.006896
possibl,0.006806
post,0.007529
postmodern,0.005997
postnomin,0.011739
potenti,0.005759
potsdam,0.008259
power,0.015934
practic,0.026178
practition,0.014005
precis,0.003664
predomin,0.005074
predominantli,0.004937
prepar,0.010822
presid,0.012867
press,0.010471
prestablish,0.011739
presum,0.004965
preval,0.004897
prevent,0.003180
price,0.003292
primari,0.005872
primarili,0.009121
principl,0.018691
prior,0.003359
prison,0.004721
privat,0.041463
privatesector,0.007836
problem,0.004757
problemat,0.005360
process,0.008411
produc,0.011572
product,0.006955
profess,0.004648
profession,0.028834
professor,0.027828
profit,0.011529
program,0.058760
programm,0.004275
progress,0.003031
project,0.011009
prolong,0.005656
promin,0.006976
promiscu,0.008068
promot,0.006346
proper,0.007981
properli,0.014033
propos,0.019210
proprietor,0.007248
prosper,0.004598
provid,0.013815
provinc,0.004112
provis,0.008665
prussia,0.006586
prussian,0.006732
psycholog,0.003791
public,0.562286
publiqu,0.009653
publish,0.007406
pure,0.003517
purpos,0.008680
pursu,0.008090
pursuant,0.007361
push,0.004230
quest,0.005602
r,0.005953
racino,0.011077
rang,0.008010
rank,0.003755
ration,0.019167
read,0.007350
reader,0.004810
readi,0.005184
reagan,0.020036
realiti,0.007674
realiz,0.003944
receiv,0.002695
recent,0.012214
recogn,0.006049
reconstruct,0.004420
recordkeep,0.008449
reduc,0.002672
refer,0.011285
reflect,0.006063
reform,0.027606
regard,0.005413
regenesi,0.023478
regim,0.004110
region,0.017683
regul,0.003339
regular,0.003864
reintegr,0.007468
reinvent,0.007060
relat,0.013314
relationship,0.002692
reli,0.006798
remain,0.006999
remov,0.003257
reorgan,0.005898
replac,0.011499
report,0.002711
repres,0.004628
requir,0.013324
research,0.020597
resembl,0.004450
residenti,0.012143
resourc,0.025703
respect,0.005365
respond,0.007609
respons,0.009787
rest,0.003305
restrict,0.003269
result,0.001965
revenu,0.004115
revenuegener,0.010179
review,0.006321
rhetor,0.010924
richard,0.003485
rife,0.008259
rigg,0.028475
right,0.007594
road,0.004097
robert,0.006203
rohr,0.009943
role,0.017299
roof,0.006865
root,0.007127
routin,0.005064
routledg,0.010054
ruleofthumb,0.010315
ruler,0.004713
russian,0.004130
s,0.036014
safeti,0.004547
sage,0.005561
said,0.002898
satisfi,0.012554
save,0.008012
say,0.003056
scandal,0.011914
scarc,0.010804
scatter,0.010419
scholar,0.085983
scholarli,0.004993
school,0.048792
scienc,0.049825
sciencei,0.011077
scientif,0.025549
scientist,0.003225
scope,0.008294
sda,0.009839
seamless,0.008713
second,0.002315
secondgener,0.016347
secondli,0.006203
secretari,0.004608
sector,0.048080
sectorstyl,0.011739
secur,0.011988
seek,0.012662
select,0.003067
selfdestruct,0.008555
senior,0.023379
sens,0.002902
separ,0.010309
seriou,0.003951
serv,0.014040
servant,0.043508
servic,0.049474
serviceorient,0.011739
set,0.010926
sever,0.002046
shape,0.003362
share,0.005498
sharp,0.004768
shield,0.005532
signific,0.002506
similar,0.011722
singl,0.005254
sit,0.005190
situat,0.003022
sizabl,0.006611
size,0.003057
smaller,0.003338
smith,0.004159
social,0.007492
societ,0.005521
societi,0.019678
sociolog,0.023259
sociologist,0.005572
sociopolit,0.013833
solar,0.014049
solicit,0.007072
solidifi,0.006462
sometim,0.002555
sophist,0.004517
sought,0.007649
south,0.003074
space,0.003027
specif,0.004698
speech,0.004230
spend,0.012226
speyer,0.009417
spite,0.005656
split,0.008070
spoil,0.007452
sponsor,0.009844
ss,0.006034
st,0.003164
stabil,0.003661
staf,0.019882
staff,0.004628
stakehold,0.006310
stand,0.003689
standard,0.005288
state,0.044665
stateprovinc,0.011739
statist,0.006442
statur,0.007361
stein,0.036175
stewardship,0.015068
stop,0.003878
storag,0.004672
strategi,0.007314
strengthen,0.008881
structur,0.016057
struggl,0.004115
student,0.016708
studi,0.070546
sub,0.006927
subent,0.011739
subfield,0.045487
subject,0.004995
suboptim,0.007695
subsequ,0.003063
substanti,0.003644
subtract,0.006039
success,0.015622
successor,0.004410
suggest,0.005497
summar,0.005000
supervis,0.004694
suppli,0.003200
support,0.009337
swiss,0.005602
switzerland,0.005032
syracus,0.007501
systemat,0.007502
t,0.006831
taken,0.002874
task,0.014568
taught,0.004377
tax,0.007379
taxat,0.004827
taylor,0.049401
teach,0.003846
team,0.004100
techniqu,0.012068
technolog,0.002830
ted,0.006384
tend,0.006448
tendenc,0.004408
tennesse,0.007037
tension,0.004459
tenur,0.005952
term,0.012986
territori,0.006872
terror,0.005226
test,0.006419
textbook,0.004425
th,0.004502
theme,0.008696
themselv,0.011649
theoret,0.022534
theori,0.052930
theorist,0.022879
therebi,0.004063
thesi,0.004858
thi,0.046992
thing,0.012496
thoma,0.003512
thought,0.002782
thu,0.011475
thurston,0.008119
time,0.006948
titl,0.003524
today,0.005641
togeth,0.002707
tool,0.006287
topic,0.009345
total,0.005478
tout,0.007534
trace,0.003764
tradit,0.002472
train,0.020341
transform,0.003213
translat,0.003380
treasur,0.006088
treat,0.006875
treatment,0.003611
tri,0.003090
type,0.002360
typic,0.013169
typolog,0.013556
uk,0.014394
ultim,0.006791
unbias,0.006906
underdevelop,0.006562
underpin,0.005725
understand,0.018655
undertak,0.005329
unelect,0.008519
uniqu,0.003347
unit,0.027723
univers,0.054903
universalist,0.007421
unlimit,0.005875
unpan,0.011739
unwin,0.007262
uri,0.007946
urwick,0.030167
usbas,0.007421
use,0.022459
userpay,0.011077
usual,0.002362
util,0.003551
utmost,0.007436
valley,0.004540
valu,0.012581
valuesbas,0.009839
variat,0.003680
varieti,0.002947
variou,0.015645
venezuela,0.006023
venu,0.005942
veri,0.002242
vice,0.004545
vienna,0.005617
vietnam,0.005320
view,0.007549
vigor,0.005680
von,0.019910
w,0.006588
wa,0.040245
want,0.003624
war,0.016734
warwick,0.007585
wast,0.009419
waterg,0.009491
waugh,0.018315
way,0.006297
weakli,0.006714
web,0.004256
weber,0.006003
websit,0.003712
welfar,0.004522
wellform,0.008289
wellknown,0.004608
wellsustain,0.011739
western,0.011813
wherea,0.006813
wherebi,0.004436
whi,0.003612
white,0.007455
wide,0.010114
willam,0.011739
william,0.009438
willing,0.005997
willoughbi,0.008991
wilson,0.053947
winslow,0.008449
wit,0.004782
woodrow,0.028886
work,0.034645
worker,0.014619
workshop,0.005811
world,0.013933
worldwid,0.007966
worth,0.004445
worthi,0.006191
write,0.009209
wrote,0.006690
x,0.006952
year,0.007925
york,0.009071
zeppelin,0.009570
zuck,0.011077
