accept,0.008534
accident,0.008791
accord,0.006797
account,0.008006
activ,0.010174
actual,0.013050
ad,0.004337
adapt,0.005412
addit,0.006877
address,0.005118
adher,0.006875
administr,0.004752
admir,0.008053
advoc,0.005834
affect,0.008883
afterward,0.007486
agre,0.005124
america,0.009526
american,0.007702
anachron,0.025071
anachronist,0.012450
analog,0.006073
ancient,0.019698
ani,0.002995
annal,0.009119
anonym,0.008999
antiqu,0.007033
appear,0.015747
applic,0.004059
appoint,0.016762
appreci,0.007541
april,0.005199
archeolog,0.009866
archiv,0.006255
argu,0.009043
aristotelian,0.008817
arm,0.005419
armi,0.005846
art,0.213193
ascrib,0.008977
asia,0.017507
asian,0.012950
asid,0.007751
attent,0.005542
attribut,0.021134
audiobook,0.010616
author,0.038269
authorship,0.021841
autumn,0.054262
avail,0.008309
avid,0.023806
avoid,0.005076
awar,0.012299
bamboo,0.020945
base,0.011846
basic,0.004123
battl,0.057771
battlefield,0.009591
bc,0.054571
bear,0.012721
becam,0.003746
becaus,0.009255
becom,0.006561
befor,0.010500
began,0.004092
begin,0.007992
behavior,0.004807
believ,0.012716
best,0.004517
bibliographi,0.005960
bin,0.094489
bing,0.012450
birth,0.006038
bodi,0.008225
boju,0.053642
book,0.027265
born,0.017368
broad,0.005504
brought,0.005051
burn,0.007025
busi,0.009240
c,0.011766
cad,0.011450
capabl,0.005405
career,0.006733
carri,0.004424
case,0.003432
caus,0.003663
cavalri,0.010044
central,0.011543
centuri,0.035247
certain,0.007513
changq,0.017880
chapter,0.006397
chi,0.009832
chiang,0.011580
china,0.042189
chines,0.070803
chosen,0.006272
chu,0.022751
chunqiu,0.015712
cite,0.011482
claim,0.008333
clarif,0.010826
classic,0.013605
classif,0.006056
clearer,0.011167
closest,0.008309
cognomen,0.017313
colin,0.009448
collect,0.012013
colleg,0.005958
comb,0.031949
combin,0.003914
command,0.034556
commentari,0.015827
commun,0.003589
communist,0.013542
compani,0.013004
compar,0.004060
competit,0.005398
compil,0.014165
complet,0.015166
compon,0.004727
composit,0.011382
comprehend,0.009724
concept,0.003831
concern,0.011562
concubin,0.081711
conflict,0.010226
confront,0.007584
confus,0.012358
consid,0.012806
constant,0.005458
construct,0.004251
contain,0.007877
context,0.014488
continu,0.006652
control,0.003647
core,0.005830
corp,0.008099
correspond,0.004983
cost,0.004826
countri,0.003612
courtesi,0.011810
creation,0.004997
credit,0.010625
critic,0.004038
criticis,0.008080
crossbow,0.013089
cultiv,0.007012
cultur,0.008256
current,0.003514
daimi,0.014576
daoism,0.025160
daoist,0.039814
date,0.013765
decept,0.009651
defens,0.006025
definit,0.004341
denma,0.017880
depart,0.004813
descend,0.019935
describ,0.003379
descript,0.010037
despit,0.004655
develop,0.005491
did,0.008150
differ,0.008731
diplomaci,0.009240
direct,0.007291
directori,0.009215
disagre,0.007892
discipl,0.009175
discov,0.009669
discoveri,0.005142
discuss,0.004479
dispar,0.008437
distribut,0.004529
divid,0.004353
dmoz,0.007271
doe,0.011144
domain,0.005361
doppelgng,0.014704
doubt,0.014171
drama,0.009273
du,0.007759
dure,0.018962
duti,0.013066
dynasti,0.014277
earli,0.009917
earlier,0.004884
east,0.010163
eastern,0.010972
educ,0.004210
effect,0.003211
eleventh,0.010267
els,0.006806
emperor,0.007289
emphas,0.005800
employ,0.008768
end,0.003613
endeavor,0.008714
enemi,0.007387
enlighten,0.007217
ensur,0.005430
entitl,0.006823
episod,0.008117
era,0.005222
essenti,0.004594
euhemer,0.015144
europ,0.004481
event,0.004301
eventu,0.004697
exampl,0.011841
execut,0.005006
exemplifi,0.008420
exhort,0.012450
exist,0.009860
expand,0.009351
expans,0.005577
expertis,0.008062
explain,0.004449
explicitli,0.006728
extant,0.017491
extern,0.002584
extrem,0.004741
face,0.004961
facil,0.006335
famili,0.009153
fashion,0.006956
fault,0.008878
favor,0.016377
featur,0.004470
fertil,0.006928
fight,0.006202
figur,0.019580
final,0.004275
flawlessli,0.015712
fleet,0.007947
follow,0.002827
forc,0.010627
form,0.013508
fought,0.007497
foundat,0.004608
french,0.004756
frequent,0.004968
frivol,0.012719
fugit,0.024735
gener,0.038096
generalship,0.015712
genuin,0.008199
giap,0.016872
giggl,0.029680
given,0.003544
gloss,0.012250
grand,0.027461
great,0.003983
grew,0.005906
griffith,0.010535
ground,0.005143
group,0.003188
guerrilla,0.008984
gulf,0.007995
gutenberg,0.009467
ha,0.021210
half,0.004865
han,0.028253
harem,0.013031
headquart,0.007831
health,0.004927
heart,0.006487
heihachir,0.016512
hel,0.030632
held,0.004178
hero,0.008382
hi,0.053874
hideyoshi,0.014344
highli,0.004652
hire,0.007717
histor,0.067495
histori,0.005887
historian,0.035734
ho,0.009066
honor,0.007311
honorif,0.012869
howev,0.005736
huangdi,0.026944
idea,0.007933
ideal,0.005751
ident,0.010121
identifi,0.004272
ieyasu,0.014040
illustr,0.012054
imperi,0.013770
import,0.006028
imposs,0.005976
inaccuraci,0.011903
includ,0.012267
incorpor,0.004853
influenc,0.019464
influenti,0.011368
inform,0.003513
inscrut,0.015316
inspir,0.011695
institut,0.003740
insurg,0.009151
intern,0.003097
internet,0.005798
interpret,0.014145
interview,0.007308
introduc,0.004146
invalu,0.011554
issu,0.003792
japan,0.023379
japanes,0.013471
jizhong,0.017880
jr,0.007507
kaishek,0.012818
kill,0.005834
king,0.039405
known,0.008859
korea,0.007133
kuomintang,0.012408
lack,0.004505
languag,0.004441
largescal,0.006885
late,0.016364
later,0.024599
leader,0.025835
led,0.007627
legaci,0.014859
legendari,0.009832
lesson,0.008293
li,0.009159
librari,0.005551
librivox,0.010882
life,0.007596
lifetim,0.007566
like,0.003156
likewis,0.006998
link,0.005138
list,0.003285
live,0.003820
long,0.003836
lost,0.005134
madeup,0.014986
maintain,0.008239
major,0.003134
manag,0.008463
maneuv,0.010133
mani,0.010682
mao,0.021615
marin,0.006763
mark,0.004743
martial,0.009514
master,0.012611
masteri,0.010649
masterpiec,0.010789
matter,0.004444
mcneilli,0.017880
mean,0.009761
meiji,0.011635
mention,0.022880
metaphor,0.008309
method,0.007318
middl,0.004871
militari,0.086035
mind,0.005571
minh,0.012034
minist,0.005330
mission,0.005891
modern,0.031896
movement,0.004074
mu,0.009368
nation,0.013095
nativ,0.006106
natur,0.003154
new,0.002639
nguyen,0.013271
nobunaga,0.015316
nonetheless,0.007390
norman,0.008324
north,0.009382
notabl,0.013601
note,0.013626
notic,0.006705
numer,0.004377
obey,0.008431
oblig,0.006524
oda,0.012818
offic,0.023778
oldest,0.006391
onc,0.004414
onli,0.016318
onlin,0.005171
open,0.004044
order,0.006511
origin,0.009823
orthodox,0.007956
outlin,0.005751
outsid,0.004507
paper,0.004875
parsimoni,0.033245
partial,0.005435
pass,0.004590
passiv,0.008141
peac,0.005698
peopl,0.003257
perceiv,0.005941
perform,0.004153
period,0.035106
person,0.003866
personnel,0.007302
persuas,0.018614
philosoph,0.020744
philosophi,0.010060
place,0.010024
plain,0.007721
plan,0.008949
point,0.013709
polit,0.007416
popular,0.016908
posit,0.003501
possibl,0.006911
powel,0.010940
practic,0.007249
practition,0.007110
prais,0.007922
predomin,0.007728
prepar,0.005494
present,0.006775
previous,0.005164
primarili,0.004631
prime,0.005443
primit,0.007497
principl,0.012201
prior,0.015352
prioriti,0.007144
probabl,0.004861
produc,0.003525
profession,0.010979
program,0.004261
project,0.008384
proof,0.013816
protest,0.012592
prove,0.010457
provid,0.003006
public,0.010236
publish,0.007521
push,0.006442
qi,0.033503
qian,0.062462
qin,0.021579
quan,0.014040
quickli,0.005514
ralph,0.009112
rank,0.005720
read,0.014927
reader,0.014654
record,0.027175
recount,0.009971
recoveri,0.007153
rediscoveri,0.020976
refer,0.006446
regard,0.004122
regularli,0.007314
reiter,0.010382
relat,0.005794
relationship,0.012304
reli,0.005177
remain,0.003553
remark,0.006590
render,0.007047
replac,0.004378
requir,0.003382
resolv,0.006241
resourc,0.004350
respect,0.004086
respons,0.007453
restor,0.006076
rever,0.009591
review,0.009629
revis,0.006421
rhetor,0.049918
right,0.003855
role,0.003764
roughli,0.006027
russojapanes,0.012719
s,0.003047
said,0.008829
samuel,0.007638
samurai,0.012672
saw,0.005258
sawyer,0.026063
scholar,0.049111
school,0.013115
schwarzkopf,0.015712
second,0.007053
seren,0.012976
seri,0.004280
serv,0.008554
seven,0.011277
shandong,0.013336
shape,0.005121
sheng,0.012535
shi,0.020507
shiji,0.012976
shogun,0.012367
short,0.004581
significantli,0.011029
silenc,0.009581
sima,0.074954
similar,0.007141
similarli,0.005665
sinc,0.008970
site,0.005037
sixth,0.007939
skeptic,0.015752
skill,0.005760
slip,0.029633
small,0.003659
smallscal,0.009240
societi,0.007493
soldier,0.020413
song,0.007930
sonshi,0.017313
sonshicom,0.017880
sophist,0.006880
sourc,0.011284
speech,0.006442
speed,0.006115
spiritu,0.006890
sport,0.007102
spring,0.040471
staff,0.014099
star,0.006631
state,0.039248
statement,0.005489
steven,0.007535
stori,0.018185
strateg,0.019580
strategi,0.044564
strategist,0.046110
strike,0.006651
strongli,0.005763
struggl,0.006268
student,0.010179
studi,0.006320
style,0.006161
subsequ,0.014000
succeed,0.006113
success,0.003965
sun,0.530724
sundzu,0.017880
sunzi,0.043730
superpow,0.010281
supplement,0.007403
surnam,0.021652
surviv,0.020630
tactic,0.007952
taken,0.008757
tang,0.009662
taoist,0.033437
taught,0.006667
teach,0.023432
techniqu,0.009191
technolog,0.004311
televis,0.006740
tempera,0.010718
term,0.005651
terrain,0.008913
territori,0.005234
test,0.014666
text,0.087697
tg,0.013031
th,0.013715
theori,0.024536
theorist,0.020909
thi,0.015657
thought,0.012714
time,0.007937
titl,0.010735
tokugawa,0.012327
tomb,0.009523
touch,0.007892
toyotomi,0.014237
tradit,0.026359
traditionalist,0.011019
train,0.005163
translat,0.036037
treatis,0.028857
truli,0.007493
twentieth,0.014110
twentyfirst,0.010159
tze,0.015316
tzu,0.637743
uncertain,0.007905
uncov,0.008504
understand,0.008118
understood,0.011224
unearth,0.011061
unfathom,0.013860
unif,0.017008
unit,0.009048
univers,0.003097
unlik,0.009960
unment,0.014040
unusu,0.014500
use,0.012217
valiant,0.013618
valu,0.003832
vari,0.004408
vast,0.006004
veri,0.003415
victori,0.034629
vietnam,0.016207
vietnames,0.010007
view,0.015331
virtu,0.007577
vo,0.012288
w,0.005017
wa,0.061298
war,0.220899
warfar,0.068259
warrior,0.009014
weak,0.005940
wei,0.011303
wellknown,0.007020
wellpreserv,0.012768
west,0.005134
western,0.022491
wide,0.007703
wider,0.006809
win,0.006724
work,0.043974
worker,0.005566
world,0.003031
worth,0.006771
write,0.018702
writer,0.006137
written,0.028407
wrote,0.015284
wu,0.172488
xn,0.011167
yan,0.012139
yawen,0.017880
year,0.003018
yinchuehshan,0.017880
yinqueshan,0.017313
yue,0.013208
zedong,0.011303
zhang,0.010146
zhao,0.012580
zhu,0.011400
zhuan,0.013948
zi,0.012719
zixu,0.034626
zuo,0.026944
zuozhuan,0.017880
