account,0.067452
allow,0.056952
b,0.151716
code,0.179001
come,0.066155
contribut,0.135792
determin,0.064241
dollarbas,0.301286
elig,0.139322
employ,0.221623
employe,0.116698
extern,0.043549
f,0.082037
financ,0.088250
individu,0.061428
intern,0.052187
k,0.090289
khelpcentercom,0.314771
link,0.043292
list,0.055362
percentagebas,0.301286
plan,0.376972
refer,0.036204
retir,0.246391
revenu,0.105625
save,0.205629
schedul,0.120336
set,0.056085
sponsor,0.126323
state,0.132265
subsect,0.193796
taxat,0.123883
taxdef,0.232130
term,0.047613
thrift,0.196059
titl,0.090445
topic,0.079947
unit,0.152468
vest,0.132157
