abat,0.012350
abid,0.010570
abl,0.018183
abov,0.004607
absenc,0.006616
access,0.024898
accommod,0.008357
accord,0.010796
account,0.012716
accus,0.007217
achiev,0.004527
act,0.008226
action,0.008844
activ,0.014364
adapt,0.005730
addit,0.014563
address,0.005419
adequ,0.007550
adopt,0.004966
advantag,0.005586
advoc,0.030889
affect,0.032920
afford,0.007728
africa,0.005844
african,0.006307
ag,0.010857
agbiotech,0.017162
agenc,0.005661
agenda,0.008383
agent,0.012272
aggreg,0.015221
ago,0.006973
agreement,0.021973
agribusi,0.040559
agricultur,0.347701
agronom,0.014419
aid,0.032394
alloc,0.014364
allow,0.014315
alreadi,0.010486
altern,0.009248
altransmiss,0.017162
alway,0.004839
america,0.020175
anderson,0.009379
ani,0.006343
anim,0.070524
annual,0.016585
anoth,0.006923
antibodi,0.020991
antigen,0.011386
anymorelyl,0.017162
appear,0.004168
appli,0.003847
appropri,0.011537
approxim,0.024523
april,0.005505
arctic,0.009956
area,0.021446
argu,0.019150
argument,0.006046
articl,0.008554
artifici,0.006077
ashish,0.016883
asia,0.012358
asiat,0.012097
aspect,0.004730
assess,0.012260
assign,0.006464
assist,0.010732
assur,0.008199
attempt,0.004105
augment,0.009267
australia,0.031278
australian,0.007484
autonom,0.007277
avail,0.004399
averag,0.021502
avian,0.025207
avoid,0.010751
awar,0.006511
axonopodi,0.017162
b,0.004766
bacteria,0.008262
bactericid,0.016637
bacterium,0.022049
bad,0.014765
balanc,0.005696
ban,0.029004
banana,0.009810
band,0.007825
bank,0.005204
barclay,0.011919
barrier,0.043935
base,0.006271
basic,0.004365
bbc,0.008187
becaus,0.032666
becom,0.013895
beet,0.012380
befor,0.003706
believ,0.008976
belong,0.006131
belowmarket,0.015075
ben,0.009281
benefit,0.021064
besid,0.007424
beth,0.011646
better,0.004893
bid,0.009247
biggest,0.008147
billion,0.061638
biodivers,0.017985
biologist,0.008119
biosecur,0.062854
bird,0.022223
blame,0.008620
blockad,0.009938
bone,0.008139
bovid,0.015307
bovin,0.049520
brazil,0.007754
breadth,0.010307
britain,0.012226
british,0.004845
bse,0.052047
bseinfect,0.017162
budget,0.006792
build,0.009184
bull,0.010014
bullock,0.014191
bureau,0.008208
busi,0.009783
buy,0.013729
c,0.004153
cairn,0.012743
calv,0.013011
campesina,0.017162
canada,0.006225
canadian,0.007377
cane,0.010570
canker,0.183695
capabl,0.011446
capac,0.006024
capit,0.004726
captiv,0.009308
carcass,0.012892
case,0.007268
cash,0.014528
catch,0.008749
cattl,0.076618
caus,0.038792
cdc,0.012380
ceil,0.021542
cellulos,0.011241
center,0.004635
centr,0.005976
centuri,0.003732
certain,0.007956
certif,0.008447
chain,0.006493
challeng,0.010383
chanc,0.020989
chang,0.022937
charg,0.005608
cheap,0.036018
cheaper,0.009358
cheapli,0.011848
chicken,0.020660
china,0.039088
chines,0.006247
circul,0.007604
circumst,0.006676
citizen,0.005948
citru,0.202228
claim,0.008824
class,0.004820
clean,0.008508
clearanc,0.011189
climat,0.018618
cloth,0.015197
cloven,0.016217
cocircul,0.017162
coffe,0.009071
coin,0.006018
collabor,0.006676
come,0.020786
commerci,0.005568
commiss,0.005786
commit,0.006092
commod,0.014110
common,0.007029
commonli,0.004827
commun,0.003800
compani,0.004589
compar,0.004299
compet,0.005993
competit,0.022863
competitor,0.009004
complaint,0.009632
compos,0.005514
comput,0.004816
conceal,0.010376
concern,0.020405
concess,0.009193
conclud,0.005945
condit,0.008134
conduct,0.009964
conserv,0.011540
consid,0.010170
consider,0.004885
consist,0.003890
consum,0.028941
consumpt,0.013560
contact,0.006099
contagi,0.012854
contain,0.012510
contamin,0.009274
content,0.005735
continu,0.010566
contribut,0.008533
contributor,0.008503
contributori,0.014341
control,0.023173
convert,0.005925
coordin,0.012324
cope,0.018659
copperbas,0.015434
corn,0.054544
corpor,0.017110
cost,0.066441
cotton,0.044437
count,0.006629
countercycl,0.014341
countri,0.156847
cow,0.020049
creat,0.014222
creativ,0.007511
creutzfeldtjakob,0.014341
crisi,0.005998
critic,0.012828
crop,0.071870
crossprotect,0.017162
cultivar,0.029352
current,0.011164
custom,0.011756
cyclic,0.009028
danger,0.013656
david,0.005163
death,0.005091
decad,0.005284
decis,0.009802
decoupl,0.012262
deer,0.011040
defin,0.007978
deliv,0.006851
demand,0.031139
depart,0.010193
depend,0.011507
depriv,0.009336
describ,0.003578
desert,0.008266
deserv,0.010296
design,0.008539
desir,0.005471
despit,0.009858
destroy,0.054711
destruct,0.013760
detect,0.031919
develop,0.093033
diagnost,0.009308
diet,0.008595
dietari,0.010702
differ,0.003081
difficulti,0.006278
diminish,0.007870
diplomat,0.006906
direct,0.030881
discomfort,0.011824
discourag,0.008776
discov,0.005119
discoveri,0.005444
diseas,0.194862
disrupt,0.007490
distinct,0.004477
distort,0.024624
distribut,0.009593
diversif,0.009656
doesnt,0.008691
doha,0.012603
dollar,0.006792
domest,0.078303
domin,0.004783
dr,0.014424
drastic,0.008702
drift,0.008962
drip,0.013138
drive,0.012491
drop,0.012760
drought,0.018981
dump,0.056933
dure,0.016731
earli,0.003500
earn,0.006578
east,0.005380
eat,0.016334
econom,0.022980
economi,0.019118
economist,0.006570
educ,0.004458
effect,0.023800
eighti,0.020918
elabor,0.007282
element,0.004451
eleph,0.009681
elimin,0.018157
elliott,0.011563
elsewher,0.007215
embargo,0.010508
emerald,0.025486
emphas,0.006142
employ,0.004642
enact,0.007758
encephalopathi,0.055944
encourag,0.040266
endem,0.009749
energi,0.009799
enhanc,0.012964
enorm,0.007538
enrich,0.009160
ensur,0.011499
enter,0.010233
entir,0.004539
environ,0.009278
environment,0.039386
enzoot,0.016637
epidem,0.019430
equilibrium,0.007314
erad,0.061063
erect,0.018981
establish,0.007470
estim,0.014775
et,0.006016
ethanol,0.011330
eu,0.060961
euro,0.044523
europ,0.018982
european,0.017436
event,0.013663
everi,0.008758
exampl,0.018806
excess,0.006763
exist,0.006960
expect,0.009617
expend,0.011206
expens,0.012501
experi,0.004303
expert,0.006913
explain,0.004711
exploit,0.019545
export,0.109145
extern,0.002736
extract,0.006736
extrem,0.010040
face,0.010506
facil,0.006708
fact,0.004443
factor,0.008875
factual,0.010084
fair,0.021265
famili,0.004846
famin,0.009372
fan,0.009845
fao,0.019042
fare,0.010799
farm,0.118708
farmer,0.177787
farmland,0.011189
fastgrow,0.013273
fatal,0.027290
fattyacid,0.014676
februari,0.005686
feder,0.016717
feed,0.064275
fenc,0.011646
fertil,0.007336
fiat,0.011522
fiftyseven,0.015188
figur,0.005183
file,0.007811
filipino,0.011994
financi,0.009992
fisherfolk,0.017162
fisheri,0.009513
fix,0.005554
flavour,0.012150
floor,0.017026
flu,0.025074
fmd,0.149733
fmdfree,0.051486
focu,0.005134
food,0.236995
foot,0.008131
footandmouth,0.075377
forc,0.011253
foreign,0.019487
forest,0.007197
form,0.008581
formal,0.004683
formula,0.006535
forti,0.028031
fortynin,0.015307
free,0.038473
freshfruit,0.017162
fructos,0.039961
fruit,0.029665
fund,0.010320
futur,0.004558
g,0.005062
gain,0.013659
garden,0.008370
gasolin,0.010828
gene,0.007261
genet,0.025426
geograph,0.006086
geopolit,0.010241
ghana,0.052854
given,0.015014
glauca,0.016217
global,0.054669
globalist,0.016035
gm,0.024248
goal,0.010295
goat,0.009845
goe,0.013469
good,0.020804
govern,0.032029
government,0.007832
grapefruit,0.014866
grass,0.009430
greater,0.023568
greenhous,0.031199
group,0.006751
grow,0.047989
grown,0.021622
growth,0.009474
guarante,0.006864
guardian,0.009247
ha,0.027450
half,0.025757
hall,0.007100
halv,0.010757
hand,0.004637
handler,0.014120
harbor,0.009365
harder,0.009301
hardli,0.010005
harm,0.007215
health,0.010434
healthi,0.016342
heavili,0.006033
hedgehog,0.013739
help,0.012291
hemp,0.012637
hempse,0.017162
herbivor,0.011088
hi,0.006711
hidden,0.008241
high,0.022736
higher,0.004449
highli,0.014780
highprior,0.015569
highrisk,0.012350
hire,0.008171
hit,0.007748
hn,0.114051
hold,0.004507
hong,0.008749
hoov,0.014419
host,0.006843
household,0.014889
howev,0.003037
httpwwwewgorgfarmfindingsphp,0.017162
huge,0.013920
human,0.043267
hundr,0.005686
hybrid,0.015637
hydropon,0.014587
identifi,0.004524
ifap,0.016883
illeg,0.015082
illinoi,0.009160
illustr,0.006382
imag,0.005762
immedi,0.005501
immun,0.008191
impact,0.005128
impedi,0.011625
implement,0.005210
import,0.047878
impos,0.012872
imposs,0.006327
improv,0.032237
incent,0.007791
includ,0.018185
incom,0.017196
increas,0.039586
increasingli,0.011034
incub,0.011711
independ,0.007687
india,0.005729
indic,0.004603
indigen,0.007461
individu,0.007720
industri,0.064074
industrialis,0.010583
infect,0.152895
infecti,0.040098
inflat,0.007047
influenza,0.059359
inform,0.003720
infrastructur,0.012672
inhal,0.011583
inocul,0.012779
input,0.013560
inquiri,0.007464
insecur,0.021487
instanc,0.005068
instead,0.013150
institut,0.019800
insul,0.020375
integr,0.004516
interior,0.007344
intern,0.016397
intervent,0.027162
introduc,0.004390
invest,0.021313
investig,0.005244
investor,0.007129
involv,0.010884
irrig,0.018920
island,0.005546
isol,0.006076
issu,0.016063
japan,0.006188
juli,0.005405
june,0.016356
just,0.004363
kanya,0.016883
key,0.004762
kick,0.011646
kickaa,0.017162
kill,0.018533
known,0.006253
kong,0.008825
kym,0.016637
labor,0.018431
lake,0.007379
lamp,0.010545
land,0.061561
landhold,0.012205
larg,0.016487
largest,0.010335
larri,0.010241
late,0.004331
latest,0.008357
latitud,0.009490
law,0.007538
leas,0.009445
leav,0.010597
lectur,0.006803
led,0.004038
lesion,0.023512
lessen,0.009947
lesser,0.007670
level,0.014965
levi,0.008792
liber,0.005641
life,0.004021
like,0.010025
lilliston,0.017162
lime,0.022378
limit,0.007642
link,0.005441
list,0.003478
littl,0.009576
live,0.012136
livelihood,0.021685
livestock,0.017662
lo,0.008580
lobbi,0.009615
local,0.025425
long,0.004062
longer,0.005160
longterm,0.006583
loophol,0.012291
lose,0.006580
lot,0.007705
low,0.009589
lower,0.013869
lowest,0.007441
lump,0.011088
mad,0.010198
maintain,0.013087
mainten,0.007505
maiz,0.051483
major,0.009957
make,0.031814
maker,0.008630
malnutrit,0.011482
manag,0.049287
mani,0.033933
mapl,0.012892
margin,0.006856
mari,0.007227
market,0.088978
marketplac,0.009891
martin,0.006622
mask,0.019838
materi,0.004384
maximum,0.006803
mbm,0.016637
meal,0.010662
mean,0.006890
measur,0.016390
meat,0.060771
mechan,0.013860
medicin,0.011929
meet,0.020247
member,0.003991
met,0.006397
method,0.019373
middl,0.005158
migrat,0.006684
migratori,0.012350
milk,0.027720
million,0.034397
mindanao,0.014120
minim,0.006602
minimum,0.006824
minist,0.005644
mislead,0.009460
mix,0.018052
modern,0.011257
modifi,0.012208
money,0.005591
monitor,0.006765
month,0.005527
mother,0.007209
mountain,0.006730
mouth,0.008870
movement,0.004313
multilater,0.009928
multipl,0.004811
murphi,0.011172
mutat,0.017373
mylar,0.016637
nation,0.069332
nationwid,0.009505
nativ,0.019398
natur,0.006679
nearli,0.005449
nearnatur,0.016637
necessari,0.009971
need,0.022565
neg,0.005424
net,0.006576
neurodegen,0.013182
new,0.022355
news,0.013656
niti,0.016883
nitrat,0.021714
noncommerci,0.012350
normal,0.004986
north,0.014902
northern,0.005848
novemb,0.005611
nucleotid,0.010014
number,0.015648
nutriti,0.013468
nvcjd,0.017162
object,0.004276
observatori,0.009673
obtain,0.009725
occur,0.015899
oecd,0.027781
offal,0.015434
offer,0.009304
oil,0.018732
ongo,0.006845
onli,0.008639
oppon,0.007771
opportun,0.005909
option,0.006527
orang,0.009351
orchard,0.063897
order,0.003447
organ,0.023887
organis,0.005923
organophosphoru,0.014968
origin,0.006934
otherwis,0.005950
outbreak,0.076618
outcom,0.019187
output,0.006529
outsid,0.004772
overal,0.011451
oversea,0.007461
overview,0.006268
ownership,0.007347
oxfam,0.044904
paid,0.019136
pandem,0.024194
paper,0.010324
parlanc,0.012097
particular,0.007831
particularli,0.004387
pass,0.004860
pastoralist,0.012320
pathogen,0.030192
pattern,0.005337
pay,0.005840
payment,0.060687
pcr,0.011668
peak,0.006864
peanut,0.024194
peasant,0.017446
pen,0.010024
peopl,0.034492
percent,0.075399
percentag,0.006971
period,0.011151
persist,0.007093
personnel,0.007731
perspect,0.005598
pest,0.021955
pesticid,0.033026
philippin,0.017949
physic,0.012281
pig,0.009329
place,0.003538
plan,0.009475
planet,0.007098
plant,0.032589
plastic,0.008410
plu,0.007038
point,0.010886
poland,0.008546
polici,0.120371
polit,0.007852
pollut,0.025246
polynesia,0.022589
pool,0.008191
poop,0.016637
poor,0.092784
poorat,0.017162
poorest,0.021141
popul,0.026707
popular,0.004475
port,0.007069
portal,0.009022
posit,0.007415
possibl,0.010977
potenti,0.004644
poultri,0.055526
poverti,0.051659
practic,0.007676
precaut,0.011563
prefer,0.016480
prematur,0.010209
present,0.007174
pressur,0.005400
prevent,0.020515
previous,0.005468
price,0.116838
primarili,0.004903
prion,0.012441
prior,0.005418
prioriti,0.007565
privat,0.005143
probabl,0.010295
problem,0.003836
procedur,0.006247
process,0.016956
processor,0.020250
produc,0.048524
product,0.112168
profil,0.007745
profit,0.018594
program,0.040614
prohibit,0.007319
promot,0.005117
protect,0.023906
protein,0.014575
prove,0.011073
proven,0.007577
provid,0.019097
provis,0.013974
public,0.003612
purpos,0.009332
qualif,0.009115
qualiti,0.021380
quantiti,0.005843
quarantin,0.052047
queensland,0.011711
quick,0.008864
quickli,0.011678
quota,0.009819
race,0.007047
radiu,0.009490
rainforest,0.010757
rais,0.010582
rang,0.004306
rapid,0.006217
rapidli,0.006048
rare,0.023615
rat,0.009521
rate,0.008891
read,0.003951
real,0.004722
realist,0.007818
realloc,0.013138
reason,0.016333
rebel,0.008266
receiv,0.026080
recent,0.007879
recogn,0.004878
reduc,0.038791
reduct,0.013092
refer,0.002275
reform,0.022261
refus,0.006639
region,0.004074
regul,0.005386
reintroduct,0.013053
rel,0.004079
relat,0.006135
relev,0.011901
reli,0.005482
relief,0.016223
remain,0.018814
render,0.007461
replac,0.037090
report,0.021864
repres,0.003732
request,0.006915
requir,0.007163
research,0.036910
reserv,0.006050
resist,0.005895
resourc,0.023030
respons,0.019731
restrict,0.005273
result,0.009507
retain,0.005983
reuter,0.012234
revenu,0.006637
revers,0.006263
rice,0.051485
rich,0.058718
right,0.008165
rise,0.004578
risk,0.016794
ro,0.010716
roam,0.012178
robert,0.010005
rocki,0.010871
root,0.005747
rule,0.029071
runoff,0.010376
rural,0.058863
s,0.006453
safe,0.022316
safeti,0.007333
said,0.004674
sale,0.013255
sap,0.011625
satur,0.010319
save,0.006460
say,0.009858
scarc,0.008712
scientif,0.004578
scrap,0.010886
season,0.014704
sector,0.005964
secur,0.048338
select,0.004947
selfsuffici,0.009560
sell,0.025744
semen,0.013138
sequenc,0.006316
serotyp,0.064143
servic,0.004432
set,0.007048
sever,0.016505
shade,0.010364
share,0.022167
sheep,0.009167
shift,0.005513
shock,0.007778
short,0.004851
signatori,0.010946
signific,0.008084
significantli,0.011678
simultan,0.006635
singl,0.008475
situat,0.009750
size,0.004931
skill,0.030499
skin,0.008030
small,0.015498
smut,0.013572
social,0.008056
sold,0.020060
sometim,0.008244
soon,0.005806
sophia,0.012473
sourc,0.007965
south,0.014875
sovereignti,0.022907
soybean,0.035687
span,0.007314
speci,0.011646
specif,0.018942
sped,0.013138
spend,0.006572
spongiform,0.056209
spontan,0.008183
spray,0.011919
spread,0.033581
stabil,0.017715
stand,0.005950
standard,0.012794
stapl,0.010024
start,0.004008
starv,0.011349
state,0.011082
statist,0.005194
statu,0.005288
steak,0.015569
stem,0.007117
stevia,0.016217
stop,0.018766
strain,0.023612
strateg,0.013821
strong,0.009201
studi,0.003346
subject,0.008056
subsid,0.028182
subsidi,0.220506
subsidis,0.036873
substandard,0.040559
suburban,0.012234
success,0.016796
suffer,0.005779
suffici,0.011707
sugar,0.084870
sugarcan,0.010785
suggest,0.004432
summari,0.007620
sun,0.007024
supplement,0.015678
suppli,0.025810
support,0.015059
surplu,0.008330
surplus,0.022447
surpris,0.008326
surround,0.005798
surviv,0.005461
suscept,0.027386
sustain,0.018580
sweeten,0.013798
sympathi,0.010376
syrup,0.042362
tariff,0.034788
tast,0.008887
tax,0.011901
tech,0.010757
technic,0.005631
techniqu,0.004866
technolog,0.009130
telecommun,0.008253
temperatur,0.019203
temporari,0.014935
tend,0.010399
tent,0.019430
term,0.005984
territori,0.005542
test,0.010352
th,0.003630
themselv,0.004696
theori,0.003711
therefor,0.021519
thi,0.056841
think,0.010982
thirti,0.017074
thought,0.004487
threat,0.053131
thrive,0.008765
thu,0.003701
time,0.016809
today,0.004548
togeth,0.008732
tool,0.010140
topic,0.005023
total,0.022090
tough,0.010545
trade,0.114512
train,0.005467
transmiss,0.007822
transmit,0.007758
transport,0.016284
tree,0.065224
tri,0.014952
tropic,0.016160
twenti,0.007788
twentyf,0.011542
twice,0.007547
twothird,0.008676
type,0.003806
uk,0.011607
ultim,0.005476
unar,0.016416
uncook,0.015569
undercut,0.012178
undevelop,0.011625
unemploy,0.007416
unhealthi,0.011711
union,0.009410
unit,0.009581
univers,0.006559
unjust,0.011172
unknown,0.006555
unless,0.007095
unnatur,0.011294
unsightli,0.015868
unsuccess,0.008143
urban,0.019924
urbanachampaign,0.012971
use,0.072444
usual,0.007620
util,0.005728
vaccin,0.199654
valu,0.012175
vanclief,0.017162
vari,0.004667
variant,0.007670
variat,0.005935
variou,0.003604
vcjd,0.016637
veget,0.007559
vehicl,0.007189
veri,0.014464
vicin,0.010219
view,0.004058
violat,0.007005
viral,0.010388
virologist,0.014968
viru,0.057890
virus,0.028403
vital,0.007071
vulner,0.016106
wa,0.025962
war,0.004498
wast,0.007595
water,0.053728
waterfowl,0.014191
way,0.010156
wealthtransf,0.017162
weather,0.007764
webster,0.024356
welfar,0.014586
wendi,0.012505
went,0.005807
west,0.005436
western,0.014289
wheat,0.027013
whi,0.011652
wide,0.008156
wildlif,0.018045
winglok,0.017162
women,0.006026
wont,0.022017
work,0.009312
worker,0.005894
world,0.064204
worst,0.008733
wto,0.039866
wwwreformthecapeu,0.017162
xanthomona,0.016416
year,0.035151
yield,0.012371
young,0.005879
youth,0.007985
zealand,0.015058
zone,0.006544
