abov,0.028240
absolut,0.021380
abstract,0.005545
accord,0.003151
accordingli,0.007092
account,0.003711
actual,0.004033
ad,0.004021
addit,0.003188
agre,0.004751
american,0.003570
analog,0.005630
ani,0.008331
anoth,0.003030
approxim,0.004294
argument,0.005294
aris,0.010281
asset,0.046604
assum,0.004365
assumpt,0.005368
atm,0.113893
atmf,0.030618
atthemoney,0.025701
atthemoneyforward,0.015309
author,0.003548
auxiliari,0.026678
averag,0.004706
axiom,0.007858
basic,0.003822
befor,0.003245
behav,0.006758
better,0.004284
binari,0.022764
blackschol,0.080714
boundari,0.005304
brief,0.006022
brother,0.006372
brownian,0.038077
buy,0.024043
calcul,0.004848
callput,0.015027
case,0.009545
cash,0.006360
cdf,0.011980
chang,0.025822
choic,0.005000
circumst,0.005846
clariti,0.009137
classif,0.011231
close,0.013621
commiss,0.005067
commod,0.006177
commonli,0.008453
comparison,0.005337
complementari,0.014850
complex,0.007448
compon,0.004383
comput,0.021087
concret,0.013946
condit,0.007122
conflat,0.009752
confus,0.005728
consequ,0.004328
consist,0.003406
construct,0.007883
convent,0.034501
convers,0.026256
convert,0.005188
coordin,0.021583
correct,0.020502
correspond,0.060069
cumul,0.008079
currenc,0.005577
current,0.045620
d,0.061809
data,0.012186
date,0.008508
decreas,0.020049
defin,0.010479
definit,0.016098
deliveri,0.007356
delta,0.094779
denomin,0.007583
depend,0.016792
deriv,0.019350
devapriya,0.015027
deviat,0.043340
differ,0.035079
diffus,0.006953
direct,0.010139
directli,0.004089
discount,0.014697
discrep,0.008786
dispers,0.013971
displaystyl,0.058306
distinct,0.003920
distribut,0.008399
divid,0.004036
dividend,0.008181
dmd,0.013514
doe,0.003444
dollar,0.005947
dpm,0.013016
drift,0.015695
earn,0.005759
effect,0.005954
elegantli,0.012030
elementari,0.006913
enhanc,0.005676
enter,0.004480
equal,0.016693
equiti,0.007011
equival,0.009872
european,0.003816
evalu,0.005309
event,0.003987
everi,0.003834
ex,0.008290
exactli,0.006003
exampl,0.010978
exercis,0.042121
expir,0.107686
expiri,0.129454
express,0.003970
extern,0.002396
f,0.036111
factor,0.027198
far,0.024931
financ,0.004855
firstli,0.009025
fix,0.024319
fixedspot,0.015309
fixedstrik,0.015309
fk,0.011837
fluctuat,0.006843
follow,0.002621
form,0.002504
formal,0.004100
formula,0.034334
forth,0.006661
forward,0.145424
frac,0.007333
function,0.036904
futur,0.019955
geometr,0.020216
given,0.026292
grant,0.005023
greater,0.012382
ha,0.017480
heavi,0.005663
henc,0.015338
high,0.003318
higher,0.011686
hope,0.005579
ibm,0.008426
ident,0.004692
ignor,0.005683
immedi,0.009633
impli,0.061133
import,0.002794
importantli,0.007509
incorpor,0.004499
increas,0.028360
independ,0.010096
inform,0.006515
input,0.023746
instanc,0.004437
instead,0.011514
instrument,0.005045
interpret,0.021858
inthemoney,0.037471
intrins,0.062443
intuit,0.007011
itm,0.162175
itmotm,0.030618
k,0.074520
known,0.008213
ks,0.021955
larg,0.002887
leftddright,0.015309
leftfkright,0.015027
leftfkrightbig,0.015309
leftfkrightlnskrt,0.015309
leftfkrightpm,0.015309
leftfkrightsigma,0.015309
lehman,0.011006
lemma,0.009506
lend,0.007038
level,0.006551
like,0.002926
likelihood,0.030388
linear,0.005828
link,0.002382
littl,0.004192
ln,0.111476
lnfksigma,0.014374
log,0.046052
lognorm,0.011065
long,0.003556
low,0.004198
m,0.035260
main,0.003467
make,0.011142
mallick,0.014567
mani,0.002475
market,0.036904
matur,0.006374
mean,0.015084
meaningless,0.009222
measur,0.071759
median,0.017057
mfrac,0.022510
minu,0.024290
mk,0.010592
model,0.013648
monetari,0.005872
money,0.577676
monoton,0.048986
motion,0.022110
movement,0.003777
ms,0.008231
msktau,0.015309
n,0.024597
narrowli,0.008513
nd,0.020386
ndnmnddelta,0.015309
near,0.013511
nearest,0.017659
need,0.003293
neg,0.028500
new,0.002446
nm,0.008892
nontrivi,0.018962
normal,0.008732
notabl,0.004203
notat,0.007360
note,0.009474
notion,0.005182
nov,0.010395
number,0.013702
numer,0.004058
numrair,0.053196
observ,0.018076
onc,0.004093
onli,0.005043
opposit,0.004507
option,0.371533
order,0.009056
otm,0.088697
outlin,0.005331
outofthemoney,0.037878
output,0.005717
overwrit,0.013299
owner,0.012392
paramet,0.006315
particularli,0.003841
partli,0.005889
percent,0.033009
percentag,0.018312
percentil,0.012426
plot,0.006713
point,0.006355
posit,0.016232
possibl,0.009611
practic,0.010082
prefer,0.004810
previou,0.004736
price,0.292961
primarili,0.004293
probabl,0.040565
profit,0.010854
properti,0.003803
proport,0.010387
proxi,0.008803
purpos,0.004085
quantifi,0.021174
quantiti,0.030698
quit,0.005308
r,0.025220
rare,0.005169
rate,0.031141
ratio,0.011330
raw,0.006498
real,0.004134
realworld,0.008277
reason,0.007150
reciproc,0.022450
recommend,0.005872
refer,0.011952
reflect,0.004281
rel,0.028575
relat,0.005372
renick,0.015027
replic,0.007031
respect,0.026519
revers,0.005484
riskfre,0.040867
riskneutr,0.067732
root,0.005032
rough,0.007900
rsigma,0.014567
ryan,0.010198
s,0.022603
said,0.012279
say,0.004316
scale,0.004508
section,0.004936
secur,0.016930
sell,0.011270
seller,0.007959
sens,0.004099
sequel,0.019564
set,0.003085
share,0.019409
shift,0.004827
short,0.004247
sigma,0.025631
sign,0.013694
similarli,0.005252
simpl,0.048458
simpler,0.007392
simplest,0.021215
simpli,0.004524
sinc,0.008317
singl,0.007420
sk,0.024608
slightli,0.012018
small,0.003392
smile,0.019143
somewhat,0.011755
speak,0.021265
special,0.003467
specif,0.009951
specifi,0.011274
spot,0.236003
spread,0.004900
sqrt,0.044742
squar,0.005874
standard,0.063482
step,0.004701
stock,0.032093
strategi,0.005164
strictli,0.006538
strike,0.265183
struck,0.007884
subtl,0.016400
subtler,0.013514
suppos,0.006092
suppress,0.006349
surfac,0.035141
switch,0.027230
t,0.009647
taken,0.004059
talk,0.011932
tau,0.057430
tenor,0.024728
term,0.018338
tfrac,0.009347
th,0.003179
theoret,0.009092
theori,0.003249
thi,0.045622
threefold,0.010071
thu,0.035651
time,0.049061
today,0.003982
total,0.003868
trade,0.004010
trader,0.013650
tradit,0.003491
twodimension,0.008929
uncertainti,0.006452
underli,0.068447
understand,0.003763
uniformli,0.009035
unit,0.005592
unless,0.006213
unlik,0.004617
unwind,0.011663
upward,0.007718
usdjpi,0.014782
use,0.052104
usual,0.006672
valid,0.005294
valu,0.106605
vari,0.008174
variabl,0.025341
variou,0.003156
versu,0.012943
vertic,0.007172
volatil,0.177037
wait,0.007517
way,0.002964
whi,0.005101
word,0.003848
written,0.004389
year,0.002798
yield,0.043329
zero,0.011661
