account,0.012536
ambigu,0.025011
ani,0.009380
anoth,0.010237
appear,0.012328
applic,0.025423
asset,0.118062
assumpt,0.036269
austin,0.030620
b,0.014098
becaus,0.009661
black,0.173211
blackschol,0.136316
bond,0.109989
c,0.012283
calcul,0.016377
cap,0.052370
caplet,0.045274
case,0.010747
certfndknd,0.055995
check,0.022285
class,0.014257
clear,0.015999
clever,0.033092
close,0.011502
commod,0.020865
consid,0.040106
constant,0.034184
contract,0.137972
correspond,0.015607
cudina,0.050758
cumul,0.027288
currenc,0.018840
d,0.111346
date,0.043108
deliveri,0.074547
deriv,0.052290
determinist,0.027449
dfrac,0.078514
differ,0.018228
discount,0.074467
discuss,0.014028
displaystyl,0.216639
distribut,0.014185
doesnt,0.051413
dr,0.042662
e,0.111456
easili,0.017733
econom,0.011327
equal,0.014096
ert,0.092095
ertt,0.052838
erttft,0.111990
erttftf,0.055995
et,0.017792
european,0.012892
exchang,0.014632
exercis,0.035568
expir,0.027979
extern,0.008093
f,0.167718
factor,0.013124
financ,0.032803
financi,0.029553
fischer,0.062452
floor,0.025178
floorlet,0.047964
foreign,0.014408
form,0.016920
formula,0.173957
forward,0.137537
ft,0.048382
function,0.011332
futur,0.094366
garman,0.051711
gener,0.007953
greater,0.013941
hing,0.033092
inde,0.018820
intern,0.009699
journal,0.042708
k,0.151026
known,0.018495
kohlhagen,0.054217
libor,0.036705
link,0.008046
liquid,0.019835
ln,0.062756
lnfksigma,0.097107
lognorm,0.112130
long,0.012014
man,0.016371
manag,0.013251
margrab,0.143894
mark,0.029711
market,0.027700
mathemat,0.014545
matur,0.021530
max,0.022611
milica,0.049205
miltersen,0.054217
model,0.092204
money,0.033071
n,0.083082
net,0.019450
normal,0.014748
note,0.021335
oblig,0.020432
occur,0.011755
onli,0.008517
onlin,0.016194
option,0.231681
p,0.014124
paper,0.015266
particular,0.011581
pay,0.017273
payoff,0.127593
pertkndfnd,0.055995
portfolio,0.025451
present,0.021217
price,0.172778
primari,0.014005
r,0.127780
rate,0.052593
realiz,0.018815
refer,0.013457
remain,0.011128
replac,0.027424
result,0.009373
risk,0.016556
riskfre,0.034509
riskless,0.164696
sandmann,0.049933
satisfi,0.019961
second,0.011043
seen,0.013202
shing,0.045274
short,0.028694
similar,0.011182
simpl,0.014879
sinc,0.009364
solut,0.016022
sometim,0.012191
sondermann,0.054217
spot,0.023445
sqrt,0.090676
state,0.008194
steven,0.023596
stock,0.018067
strike,0.020830
structur,0.010941
suppos,0.020578
swaption,0.038988
t,0.586576
tdsigma,0.055995
term,0.008849
texa,0.026438
tgeq,0.047964
thi,0.021013
thing,0.014901
thomsonreut,0.051711
thu,0.010947
time,0.049715
tool,0.014995
tsigma,0.079970
turn,0.012946
underli,0.035568
univers,0.009699
unwind,0.039396
use,0.007652
valu,0.048011
variant,0.022685
volatil,0.024916
w,0.015713
wa,0.007678
worth,0.042408
written,0.014826
