abov,0.007552
ad,0.007528
addit,0.005967
address,0.008883
al,0.010118
allow,0.041063
american,0.013367
analyst,0.013386
andrew,0.011980
appli,0.012612
applic,0.014089
approach,0.033944
ariel,0.020496
associ,0.005762
assum,0.016344
aswath,0.024710
austin,0.016969
author,0.006641
b,0.007813
babbel,0.026582
backward,0.014671
base,0.005140
basel,0.018284
bdt,0.028658
becom,0.005693
befor,0.012149
believ,0.014713
bermudan,0.022617
binomi,0.016612
black,0.115193
blackdermantoy,0.024207
blackschol,0.075547
bond,0.660362
brigo,0.046523
buy,0.067513
buyer,0.014196
calcul,0.027230
calibr,0.017123
callabl,0.068150
cap,0.043535
cape,0.014962
caplet,0.050182
case,0.011912
caus,0.006358
cent,0.014779
certain,0.045642
chapter,0.011103
choos,0.010248
compani,0.007523
compar,0.007047
compon,0.032821
compris,0.009747
consist,0.006377
constant,0.018945
contract,0.009558
convers,0.019660
convert,0.048564
correct,0.009595
correspond,0.017299
coupl,0.011025
coupon,0.073473
credit,0.018441
cudina,0.028130
current,0.006099
curv,0.023445
damiano,0.022924
damodaran,0.023770
date,0.079635
david,0.008464
debt,0.011049
decreas,0.009383
default,0.014539
deliveri,0.013771
demand,0.025520
depend,0.006287
deriv,0.021734
derman,0.048734
describ,0.005864
deviat,0.013521
differ,0.015153
dirti,0.018340
discount,0.055026
discuss,0.015549
doe,0.006447
downnod,0.055346
dr,0.047287
dure,0.005484
e,0.007721
earli,0.005737
earlier,0.016953
ed,0.048184
effect,0.016718
emanuel,0.019233
embed,0.093386
entail,0.013386
equiti,0.026252
equival,0.018480
et,0.009860
european,0.014290
evalu,0.009939
exampl,0.005137
exchang,0.016218
exclus,0.009800
exercis,0.039424
exhibit,0.010829
expect,0.031527
expiri,0.020194
extend,0.015133
extern,0.004485
f,0.016900
fabio,0.022075
fabozzi,0.049420
face,0.008610
fall,0.007830
featur,0.015516
final,0.014839
financ,0.009089
financehybrid,0.030047
financeinterest,0.027673
financi,0.016378
fix,0.018210
floor,0.027907
floorlet,0.026582
fluctuat,0.012810
formula,0.021424
forward,0.065335
frank,0.024022
futur,0.059769
g,0.008298
gener,0.004407
girsanov,0.024710
goldman,0.018122
greek,0.008686
ha,0.008180
hand,0.007600
hariparsad,0.031033
hennoverbeck,0.028130
hing,0.036680
ho,0.015735
holder,0.083676
hole,0.013961
hullwhit,0.045848
impact,0.008406
impli,0.009536
includ,0.008516
incom,0.018791
incorpor,0.008423
increas,0.005898
inflat,0.011552
inher,0.011755
instrument,0.028336
interestsensit,0.025519
invest,0.008733
involv,0.005946
isbn,0.036257
issuer,0.091284
j,0.007703
jacquelin,0.021395
januaryfebruari,0.024055
john,0.027908
johnson,0.028033
journal,0.007889
kalotay,0.028658
karasinski,0.030047
known,0.015375
later,0.012198
lattic,0.030584
latticebas,0.097469
life,0.006592
likewis,0.012146
link,0.004459
lock,0.026565
logic,0.009925
man,0.018146
manag,0.022032
market,0.007675
martingal,0.020496
matur,0.059662
measur,0.013433
mercurio,0.046763
method,0.006350
mfi,0.026582
milica,0.027269
model,0.134138
money,0.009164
monograph,0.016008
mutual,0.010816
nd,0.028622
node,0.123662
note,0.005912
number,0.005129
numerair,0.052568
onefactor,0.026284
onli,0.004720
onlin,0.008974
oppos,0.008569
opposit,0.008437
option,0.427998
optionlik,0.030047
otc,0.019743
outsid,0.007822
pascalau,0.028658
payment,0.011052
pdf,0.011868
perform,0.007208
period,0.024371
permit,0.010444
physic,0.006709
piotr,0.023635
place,0.005799
plattsburgh,0.031033
plu,0.023073
point,0.005948
practic,0.012582
predetermin,0.101043
present,0.005879
pretoria,0.021395
price,0.217624
pricingoptioncom,0.029283
prior,0.008881
problem,0.006288
process,0.005558
product,0.006128
public,0.005921
pulltopar,0.028130
purchas,0.010000
putabl,0.026582
puttabl,0.029283
question,0.014768
r,0.007868
random,0.011216
rate,0.102017
razvan,0.028658
rd,0.010529
reach,0.007578
readoff,0.030047
reason,0.013386
redempt,0.017917
reduc,0.007064
refer,0.003729
reflect,0.008014
relationship,0.007118
relev,0.009753
rest,0.008737
result,0.005194
risk,0.036703
riskfre,0.019125
riskneutr,0.021132
sach,0.018512
sanveer,0.031033
schole,0.044671
secur,0.023769
seen,0.014634
select,0.008109
sell,0.031648
seller,0.014900
separ,0.006813
sever,0.005410
shing,0.050182
short,0.031805
similar,0.006197
simpli,0.016937
simplic,0.015015
sinc,0.005189
smile,0.017917
soa,0.022819
sold,0.010960
sometim,0.006756
son,0.009937
sophist,0.011941
specif,0.006209
specifi,0.010552
speed,0.010613
spot,0.025987
springer,0.012562
st,0.008366
stafford,0.043513
standard,0.006990
step,0.061604
stock,0.020026
straight,0.028789
style,0.021387
subsidiari,0.015695
subtract,0.031931
suitabl,0.023042
suni,0.020243
surfac,0.009397
swaptionvalu,0.031033
term,0.014712
texa,0.014652
theorem,0.011634
theoret,0.008510
theori,0.006083
therebi,0.021484
therefor,0.007054
thi,0.038819
thoma,0.009283
thomashocom,0.029283
thomsonreut,0.057317
thu,0.006067
time,0.041328
timestep,0.022246
today,0.037279
tool,0.008310
town,0.010657
toy,0.016988
trade,0.022523
treasuri,0.013793
tree,0.074836
treenod,0.030047
trinomi,0.021681
type,0.006239
typic,0.013925
underli,0.029568
underly,0.026284
univers,0.026876
use,0.063612
usual,0.018737
valu,0.126388
valuat,0.129233
variabl,0.009487
verlag,0.016664
volatil,0.069043
w,0.008708
way,0.005549
wherea,0.018012
wide,0.006684
wiley,0.050800
world,0.010523
xavier,0.019382
year,0.010475
yield,0.020277
ytm,0.026582
zadikov,0.031033
zero,0.010914
zeroeth,0.026908
