action,0.017024
actual,0.017732
agent,0.023623
aggreg,0.029300
agre,0.020889
alik,0.037336
ameritrad,0.070574
amtd,0.072889
appropri,0.022209
approv,0.023801
assist,0.020658
author,0.015600
autom,0.031004
b,0.018352
becom,0.013373
befor,0.014268
best,0.018413
bidask,0.058932
block,0.024887
bond,0.023862
book,0.015878
bought,0.031922
broker,0.513589
brokerag,0.476044
brokerdeal,0.157383
busi,0.037666
buy,0.079286
buyer,0.033343
carri,0.018037
case,0.013990
cash,0.027965
certain,0.030629
charg,0.021592
charl,0.021430
client,0.128900
clientel,0.054918
commiss,0.066836
commod,0.027160
compani,0.017670
compens,0.056569
compet,0.023072
complianc,0.035918
computer,0.041047
condit,0.015658
contribut,0.016425
cost,0.039352
credit,0.021657
daili,0.026174
day,0.033776
design,0.032875
direct,0.014861
discount,0.096933
distributor,0.094416
dure,0.012882
enabl,0.021367
entrust,0.043010
estat,0.028682
exchang,0.019046
execut,0.020410
extern,0.010535
facilit,0.024290
fee,0.063072
fidel,0.040844
financi,0.057705
finra,0.055830
firm,0.288771
fnf,0.068779
follow,0.011525
form,0.011012
fraction,0.028201
fund,0.059596
heavili,0.023227
help,0.015773
ibd,0.059420
ibkr,0.072889
industri,0.016445
institut,0.015245
insur,0.027776
interact,0.017976
invest,0.041026
investor,0.219588
larg,0.012694
lead,0.014371
like,0.012865
link,0.010473
load,0.033053
loan,0.027945
lower,0.035595
manag,0.034499
mani,0.010886
margin,0.026395
market,0.018028
match,0.051227
method,0.014916
money,0.021524
mortgag,0.035573
mutual,0.050811
nasdaq,0.047546
number,0.012048
numer,0.017843
nyse,0.145567
offer,0.035819
onli,0.011086
onlin,0.042159
option,0.050263
order,0.066362
organ,0.013137
overal,0.022043
paid,0.024557
partner,0.026329
payabl,0.043076
pension,0.033462
perform,0.016931
pool,0.031536
portfolio,0.033130
possibl,0.014086
price,0.020445
primarili,0.018878
provid,0.012253
public,0.013909
purchas,0.046978
quantiti,0.022495
quot,0.028894
rank,0.023317
real,0.018179
recommend,0.025819
reduc,0.033186
refer,0.008758
regular,0.023996
regulatori,0.030314
rel,0.015704
requir,0.013788
research,0.014209
respons,0.015192
rule,0.015988
sale,0.025516
schw,0.072889
schwab,0.058038
secur,0.055828
select,0.019046
selfregulatori,0.050924
sell,0.074333
seller,0.034997
serv,0.034871
servic,0.034131
share,0.034136
shift,0.021226
simpli,0.039782
sinc,0.012189
situat,0.018768
small,0.044750
smartmoney,0.068779
sold,0.025742
sourc,0.015333
specif,0.029170
split,0.025053
spread,0.021547
staff,0.028737
stock,0.141110
stockbrok,0.208194
subject,0.031014
survey,0.046863
td,0.049341
technometrica,0.072889
term,0.011518
thi,0.027353
thu,0.014250
time,0.021571
trade,0.141073
tradest,0.072889
tradit,0.046051
type,0.014656
undertak,0.033091
uptod,0.046471
usaa,0.068779
usual,0.044008
volum,0.020881
way,0.039102
winwin,0.061091
year,0.012302
