access,0.007313
account,0.006225
accredit,0.080330
achiev,0.006649
acquir,0.025827
activ,0.005274
administr,0.022171
advanc,0.045698
advic,0.057517
advisor,0.067706
advisori,0.012994
affluent,0.017043
alon,0.009039
america,0.007407
american,0.011977
amp,0.019933
analysi,0.006371
analyt,0.019273
andor,0.009249
ansi,0.041686
appli,0.005650
applic,0.006312
approv,0.009080
area,0.005249
arm,0.008427
aspect,0.006946
associ,0.020653
author,0.005951
avail,0.006461
award,0.009318
bank,0.030575
banker,0.014434
base,0.004605
basic,0.006411
begin,0.006214
besid,0.010904
bestow,0.016509
branch,0.013555
bring,0.007923
broker,0.013994
bundl,0.014170
busi,0.007184
canada,0.127997
canadachina,0.027806
canadian,0.292537
capston,0.021554
card,0.012128
career,0.020942
caribbean,0.012178
categori,0.008144
cdn,0.024111
centenni,0.017652
centr,0.008777
central,0.005983
certif,0.099253
certifi,0.041782
cfp,0.061915
challeng,0.007625
chang,0.004812
charter,0.045933
china,0.032804
chines,0.009175
chp,0.022141
cim,0.086764
class,0.007080
client,0.012293
cmt,0.045733
colleg,0.027800
commonli,0.007089
commun,0.005582
compani,0.006741
complet,0.041274
complianc,0.054809
comprehens,0.009403
continu,0.010346
corecurriculum,0.027806
corpor,0.016753
counsel,0.013744
cours,0.156262
credenti,0.047709
csa,0.019706
csc,0.042597
csi,0.664231
cswp,0.026238
custom,0.008632
dalhousi,0.022306
dealer,0.063114
deriv,0.012983
design,0.137960
develop,0.008539
diploma,0.016262
discretionari,0.017401
distanc,0.009091
distinct,0.006575
earn,0.009661
east,0.007902
educ,0.091677
educatorexamin,0.027806
enabl,0.016303
end,0.011239
endors,0.012165
entiti,0.008721
entri,0.009942
equiti,0.011761
establish,0.021942
estat,0.054710
ethic,0.009460
europ,0.006969
exam,0.044211
examin,0.008045
exclus,0.008781
execut,0.007786
exempt,0.040081
expand,0.007271
extend,0.006779
facto,0.012461
fanshaw,0.027806
fcsi,0.083419
fellow,0.034865
fellowship,0.014751
fin,0.016383
financi,0.249492
financialinvest,0.027806
firm,0.036721
fix,0.008158
foreign,0.007155
formal,0.006877
format,0.007496
formerli,0.010296
forprofit,0.018051
forum,0.011288
franc,0.007868
fund,0.045471
global,0.021897
good,0.006110
grant,0.025278
ha,0.007330
held,0.006498
help,0.006017
high,0.005565
highest,0.008416
histori,0.004578
hold,0.013241
hong,0.012850
honorari,0.014170
honour,0.012962
icb,0.024111
ifi,0.051358
ific,0.027806
iiroc,0.095274
improv,0.013527
includ,0.011446
incom,0.008418
incorpor,0.007547
increas,0.005285
individu,0.005669
industri,0.037642
initi,0.005972
institut,0.127956
insur,0.031789
intend,0.008508
interim,0.013189
intern,0.033715
internetbas,0.020095
introduc,0.032237
invest,0.117385
investor,0.031414
iqpf,0.027806
iso,0.076963
januari,0.007844
june,0.008007
knowledg,0.006912
known,0.009184
kong,0.012962
launch,0.027763
law,0.005535
lead,0.005482
lend,0.011805
level,0.005494
licens,0.065652
life,0.011813
literacyknowledg,0.027806
london,0.007737
make,0.004672
manag,0.072387
mani,0.004153
market,0.027511
maximum,0.009991
mba,0.019706
meet,0.037171
member,0.017587
mere,0.009039
met,0.018792
mfda,0.025679
middl,0.007575
million,0.007216
modul,0.012406
montreal,0.016484
moodi,0.051799
mortgag,0.040712
motiv,0.008976
mti,0.087934
mutual,0.048460
nation,0.010182
need,0.005523
new,0.004104
noncommerci,0.018138
obtain,0.007141
offer,0.075156
offic,0.036978
onex,0.026238
onlin,0.008041
ontario,0.030212
open,0.006290
oper,0.011592
organ,0.055129
outsid,0.007009
overal,0.008409
partner,0.020088
partnership,0.011564
path,0.009315
person,0.030061
pfp,0.140667
pl,0.016807
plan,0.034791
planner,0.116656
portabl,0.015325
portfolio,0.025277
possibl,0.010747
practition,0.011057
preval,0.011600
primarili,0.014404
privat,0.007554
prm,0.020095
prmia,0.024796
profession,0.136598
profici,0.033229
program,0.059649
provid,0.056096
provinci,0.012742
pursu,0.009582
qualif,0.026776
quebec,0.030939
receiv,0.012768
recogn,0.035824
refer,0.003341
regist,0.010361
registr,0.013011
regul,0.007910
regulatori,0.057823
relationship,0.012756
remain,0.005526
renam,0.023201
report,0.006422
repres,0.010962
requir,0.063123
residenti,0.014382
resum,0.012780
retir,0.011370
risk,0.016443
roster,0.021298
rout,0.010060
sac,0.017578
sale,0.019468
salesperson,0.021983
sector,0.017520
secur,0.170384
seek,0.007498
selfregulatori,0.019427
senior,0.011075
septemb,0.008058
serv,0.006651
servic,0.065104
sever,0.004848
shanghai,0.016835
signifi,0.013483
simplifi,0.010830
simultan,0.009745
singapor,0.012254
small,0.005690
societi,0.005826
special,0.023264
specialist,0.057694
specif,0.011128
sro,0.021983
stand,0.026219
standard,0.025054
step,0.015771
stock,0.008972
strateg,0.020299
strategi,0.025988
student,0.015830
studi,0.004914
taken,0.006809
technic,0.008270
technician,0.014870
test,0.007602
thi,0.003478
toronto,0.043342
trade,0.013454
train,0.056212
trust,0.101660
trusttax,0.027806
uk,0.008523
univers,0.009633
use,0.003799
varieti,0.013965
variou,0.005294
version,0.008134
view,0.005960
wa,0.015252
wealth,0.038306
websit,0.008793
wide,0.005989
wish,0.010282
work,0.013677
world,0.004714
worldwid,0.018869
year,0.004693
