abandon,0.011198
abil,0.016497
abl,0.022718
abroad,0.013019
academ,0.008979
access,0.041475
accord,0.011989
accordingli,0.013492
account,0.028244
acquir,0.009764
act,0.013704
activ,0.005982
actor,0.013820
addit,0.024260
advanc,0.007404
advis,0.024236
afford,0.012874
aim,0.017121
algorithm,0.012018
allow,0.005961
analys,0.023442
apart,0.010986
aris,0.009780
arrang,0.009773
articl,0.007125
auction,0.034531
audit,0.016240
author,0.013500
autom,0.013415
avail,0.014657
avers,0.034846
avoid,0.017909
awar,0.010846
bank,0.260097
bankruptci,0.015648
base,0.010447
batch,0.019194
becom,0.005786
befor,0.012347
began,0.007218
behalf,0.026667
benefit,0.008772
biggest,0.013571
billion,0.010267
boe,0.019510
bond,0.247802
borrow,0.071986
bought,0.027625
brief,0.011457
broker,0.111115
browser,0.019366
busi,0.008149
buy,0.045742
buyer,0.014427
bypass,0.016765
calculu,0.013512
campaign,0.010868
capit,0.338591
caq,0.026434
case,0.006053
cash,0.024201
caus,0.006462
center,0.007722
centr,0.009955
central,0.006786
centuri,0.024868
channel,0.035854
cheaper,0.015588
choos,0.020830
citizen,0.009908
class,0.008030
clear,0.009011
client,0.041831
clinton,0.033463
clock,0.015153
column,0.013756
commerci,0.009276
commiss,0.009640
committe,0.010388
common,0.023420
commonli,0.008041
commun,0.006331
compani,0.145275
comparison,0.010153
computer,0.035522
computerbas,0.019621
concentr,0.009476
concern,0.006798
consider,0.008137
consist,0.006481
contact,0.010161
continu,0.011734
contract,0.009714
control,0.038602
convers,0.009990
corpor,0.009500
correspond,0.008790
cost,0.017027
counterparti,0.019546
countri,0.031863
cover,0.007972
creat,0.011846
credit,0.009371
creditor,0.016900
crisi,0.029979
currenc,0.021223
custom,0.009791
date,0.008093
deal,0.015602
dealer,0.017896
debt,0.044917
decis,0.008164
defin,0.006645
depart,0.025471
depositor,0.020286
deriv,0.007363
develop,0.014529
differ,0.046203
dilut,0.016883
direct,0.012860
directli,0.031123
disintermedi,0.025301
divis,0.025179
doe,0.013104
doesnt,0.014479
domest,0.010033
dont,0.054128
duti,0.011523
earli,0.011662
eas,0.013422
easier,0.012483
easili,0.009988
economi,0.007962
effect,0.022655
elect,0.008598
electron,0.009756
elsewher,0.012018
end,0.006374
engag,0.009232
england,0.010116
enlist,0.018260
ensur,0.047891
enterpris,0.021948
entiti,0.049460
equiti,0.026680
equityback,0.028589
especi,0.006769
estim,0.008204
event,0.007587
everi,0.007295
exampl,0.026107
excess,0.011266
exchang,0.049448
exchangetrad,0.020523
execut,0.017663
exist,0.017392
expect,0.016020
expens,0.010412
experienc,0.010466
expertis,0.014221
export,0.010695
extend,0.007690
extrem,0.008363
facetofac,0.020885
fairli,0.013205
fall,0.015916
favor,0.019258
fee,0.027291
figur,0.017268
filter,0.014531
financ,0.101620
financi,0.108199
flow,0.009181
follow,0.009974
forc,0.006248
forecast,0.013735
foreign,0.016231
form,0.014295
fraud,0.014360
free,0.007121
freedom,0.009841
frequent,0.008763
fulli,0.018798
fund,0.077362
futur,0.015186
gain,0.015169
gdp,0.011724
gener,0.008959
given,0.006252
global,0.008279
goe,0.011219
good,0.006931
govern,0.106711
grade,0.014540
great,0.007026
gut,0.017873
ha,0.016627
hand,0.015449
harder,0.015495
head,0.008048
heavili,0.010050
hed,0.022699
hedg,0.031130
help,0.020475
henc,0.009727
hi,0.011179
high,0.006312
higher,0.007411
highest,0.009546
highfrequ,0.021052
histor,0.007003
hold,0.015018
home,0.008902
hong,0.014575
host,0.034199
hour,0.010955
howev,0.015178
hurri,0.022111
imf,0.013652
immedi,0.009164
impact,0.017087
import,0.010634
impos,0.010721
inbound,0.022888
includ,0.017310
incom,0.009548
increas,0.029974
increasingli,0.027571
incur,0.014950
india,0.009544
individu,0.025721
industri,0.021347
inflat,0.011740
infrastructur,0.010555
instead,0.007302
instinct,0.016492
institut,0.026387
internet,0.020453
interven,0.013396
introduct,0.008264
invari,0.013784
invest,0.186399
investor,0.178155
involv,0.024174
issu,0.053517
jurisdict,0.012652
key,0.007933
know,0.018891
known,0.010417
komileva,0.031539
kong,0.014702
larg,0.021972
larger,0.016454
largest,0.008608
law,0.006278
layer,0.011997
lead,0.012437
leav,0.008826
legal,0.008600
lena,0.025936
lend,0.120512
lengthi,0.016254
like,0.038969
limit,0.012730
liquid,0.011172
loan,0.060460
local,0.007058
lock,0.013499
london,0.008775
long,0.040602
longer,0.017191
longterm,0.054838
lose,0.010961
macroeconom,0.014079
main,0.013195
maintain,0.007267
major,0.005529
make,0.042397
manag,0.029856
mani,0.018842
manual,0.013164
market,0.538278
mass,0.008546
maximum,0.011332
mean,0.005739
measur,0.013652
mechan,0.007696
mediat,0.012767
medium,0.011881
meet,0.016864
method,0.012908
modern,0.006251
monetari,0.011172
money,0.121078
month,0.009207
mostli,0.017783
movement,0.007186
multilater,0.049618
municip,0.012699
mutual,0.010993
narrowli,0.016197
nation,0.040423
need,0.018794
neg,0.027111
net,0.021910
network,0.008712
new,0.027930
non,0.015020
note,0.006008
number,0.010427
numer,0.007720
occur,0.006621
offer,0.015499
onc,0.007787
ongo,0.011403
onli,0.033580
open,0.007134
oper,0.013149
opportun,0.019687
order,0.005743
organ,0.011369
origin,0.005775
overal,0.009538
overnight,0.018160
overse,0.015541
overthecount,0.019659
overtook,0.020831
owner,0.011788
ownership,0.024477
paid,0.031877
particip,0.008221
pay,0.048647
payment,0.011232
payrol,0.018875
pension,0.028958
period,0.018576
phone,0.014872
physic,0.013638
place,0.011787
plan,0.007892
platform,0.012761
player,0.013639
point,0.006045
poorli,0.013798
possibl,0.012190
potenti,0.007737
practic,0.006393
predict,0.008743
presid,0.008642
pressur,0.017991
previou,0.009011
price,0.008846
primari,0.094662
privat,0.008568
process,0.022597
product,0.006228
profit,0.010325
promis,0.011229
prone,0.016508
proport,0.019761
protect,0.007964
provid,0.026510
public,0.018055
purchas,0.030491
purpos,0.023320
push,0.034093
qualiti,0.008903
quantit,0.011102
question,0.007504
quick,0.014767
rais,0.096959
rang,0.007173
rapid,0.010356
real,0.007866
recogn,0.008126
reduc,0.014359
refer,0.003789
reflect,0.008144
regul,0.053835
regular,0.041532
regulatori,0.026233
replac,0.007723
requir,0.005966
resal,0.022269
resel,0.021288
result,0.005279
return,0.030681
right,0.006801
rise,0.007626
risk,0.046627
safer,0.018526
safest,0.021541
sale,0.033122
save,0.010762
saver,0.022435
sec,0.018444
second,0.024881
secondari,0.140303
section,0.009391
sector,0.009936
secur,0.080523
securitis,0.025936
seek,0.017009
sell,0.085771
seller,0.015143
senior,0.025124
sens,0.007798
seri,0.007550
serv,0.007544
servic,0.007384
sever,0.021995
share,0.110781
sharehold,0.076629
short,0.016162
shortli,0.011796
similar,0.006298
sinc,0.010548
singl,0.021176
situat,0.008121
size,0.008214
slightli,0.011432
small,0.032272
sold,0.044555
sometim,0.034332
sophist,0.012135
sound,0.011105
sourc,0.019904
sovereign,0.025214
sparingli,0.025500
spend,0.010948
st,0.017005
staff,0.012434
stage,0.009211
standard,0.007104
state,0.013845
stochast,0.014638
stock,0.061058
strategi,0.009825
stratonovichkalmanbuci,0.031539
stream,0.012642
strong,0.007664
studi,0.005574
substanti,0.009791
suffici,0.019503
swiftli,0.019510
syndic,0.038062
team,0.011015
tend,0.034647
tendenc,0.011844
term,0.044857
th,0.018144
themselv,0.015648
theori,0.012365
thi,0.031562
thousand,0.018604
time,0.032668
togeth,0.007273
trade,0.122085
trader,0.051940
transact,0.124930
treasuri,0.014018
trend,0.010074
tri,0.033209
twostag,0.022351
type,0.006341
typic,0.021229
uk,0.009668
uncompetit,0.023408
understand,0.007159
understood,0.009899
underwrit,0.078187
unit,0.010640
univers,0.005463
updat,0.012777
use,0.047409
usual,0.044432
valu,0.006760
vari,0.007775
varieti,0.007919
variou,0.018014
veri,0.006023
view,0.006760
volum,0.009035
vulner,0.013415
wa,0.012974
want,0.029214
way,0.005639
wealth,0.032586
wealthi,0.027526
web,0.011435
wherea,0.027458
wider,0.012010
widest,0.020022
willing,0.016113
winwin,0.026434
wish,0.011662
withdraw,0.012678
word,0.007321
work,0.015513
world,0.005347
worthi,0.016634
write,0.008247
year,0.026616
yield,0.020608
york,0.008123
