abil,0.004119
abl,0.007563
accept,0.003758
access,0.004142
accord,0.008980
account,0.007052
achiev,0.026363
acquisit,0.006473
act,0.010264
activ,0.011949
actyvamifund,0.015749
ad,0.011461
addit,0.006057
adequ,0.006280
adjust,0.011460
administ,0.005868
administr,0.004185
advantag,0.018588
advers,0.014023
advic,0.013030
advis,0.018154
aedak,0.015749
affect,0.015648
age,0.003749
aggreg,0.006331
aim,0.038474
alloc,0.005974
allow,0.008931
alon,0.005119
alongsid,0.006226
alpha,0.027720
altern,0.011540
amc,0.013339
amend,0.006313
amplifi,0.008220
analys,0.005853
andor,0.010478
ani,0.013192
anlagefond,0.014861
annual,0.009197
anoth,0.011517
answer,0.005330
anyth,0.005916
appli,0.009601
approach,0.003445
appropri,0.009597
argu,0.003982
aris,0.004884
arrang,0.014642
articl,0.003558
asic,0.011995
aspect,0.007869
asset,0.143895
assetbas,0.014276
assetmanag,0.015749
associ,0.011698
attempt,0.003414
attend,0.005712
australian,0.006226
avail,0.018297
avoid,0.008943
bank,0.008658
bankmanag,0.015749
base,0.023477
basi,0.003728
basic,0.007263
bear,0.005602
beat,0.015187
becom,0.005779
behalf,0.006658
belgium,0.007085
belief,0.004832
belong,0.005100
benchmark,0.057490
benefit,0.013141
bet,0.009131
beta,0.022150
better,0.016283
bevak,0.015749
bevek,0.015749
bia,0.006883
bid,0.015384
bidoff,0.026678
blend,0.007567
board,0.005207
bodi,0.003622
bond,0.010311
borrow,0.017973
box,0.013534
branson,0.012951
broad,0.004848
broadli,0.006042
brokerag,0.018701
built,0.004500
busi,0.004069
buy,0.057105
calcul,0.004606
canadian,0.006136
cancel,0.013697
cancellationcr,0.015749
cap,0.014729
capac,0.005011
capit,0.090438
care,0.004541
case,0.006045
cashier,0.012208
categori,0.009226
certain,0.003309
cf,0.008153
chang,0.013628
charg,0.041991
chariti,0.007844
choic,0.014251
choos,0.005201
chunk,0.009636
class,0.044111
click,0.009380
close,0.006470
closedend,0.126817
closeend,0.014544
closer,0.005982
closet,0.011335
collaps,0.010652
collect,0.098757
combin,0.006895
come,0.003458
commerci,0.004632
commingl,0.012451
commiss,0.038511
common,0.023390
commonli,0.008031
commun,0.003161
compani,0.087817
compar,0.003576
complex,0.003538
complianc,0.007760
complic,0.005480
concept,0.003374
concern,0.006789
condit,0.010150
connect,0.003981
constitut,0.007636
consum,0.009629
contractu,0.008593
contribut,0.003549
contributori,0.011929
control,0.012851
corpor,0.037955
correl,0.022546
cost,0.076527
counithold,0.015749
countri,0.006364
cours,0.004214
cover,0.007962
creat,0.014789
creation,0.008803
critic,0.003557
cth,0.012839
currenc,0.021196
custodi,0.009552
custodian,0.010661
date,0.004041
deal,0.023373
debacl,0.011580
decid,0.004712
decis,0.008154
defin,0.003318
degre,0.003960
demand,0.017269
demonstr,0.004346
depend,0.009572
deposit,0.011450
deriv,0.007353
describ,0.005952
descript,0.013261
design,0.003551
determin,0.006716
detriment,0.007946
deviat,0.020587
differ,0.033326
differenti,0.004896
dilut,0.033724
diminish,0.006547
dinvestiss,0.072722
direct,0.022477
directli,0.015541
director,0.005814
disappear,0.006148
disclosur,0.008700
discount,0.006981
discret,0.011406
dispos,0.007154
distinguish,0.004293
distribut,0.003989
divers,0.004650
diversif,0.016065
diversifi,0.014646
divid,0.011503
dktspfr,0.015749
document,0.009337
doe,0.003271
domest,0.005010
dual,0.020452
durat,0.013774
dynam,0.004533
earn,0.005472
easili,0.004987
east,0.004476
ec,0.017716
economi,0.007951
eec,0.010600
effect,0.008484
element,0.003702
emerg,0.003731
employ,0.003861
enabl,0.004617
enforc,0.005458
enhanc,0.005392
ensur,0.004783
enter,0.004256
entiti,0.014819
equal,0.007929
equit,0.008680
equiti,0.033307
error,0.005536
establish,0.003107
estat,0.012395
estateplan,0.015749
estim,0.004096
etfsa,0.015749
etfsopenend,0.015749
etfsstructur,0.015749
eu,0.006338
europ,0.007895
european,0.010878
exactli,0.005703
exampl,0.018251
exchang,0.012346
exchangetrad,0.040995
exist,0.014475
exit,0.007636
expect,0.004000
expens,0.010399
experienc,0.005226
exposur,0.006470
extent,0.004790
extern,0.002276
factor,0.007382
fail,0.004377
failur,0.005065
fall,0.003973
famili,0.004031
familiar,0.006159
far,0.003947
favour,0.011450
fcp,0.013656
featur,0.003937
fee,0.061327
feescharg,0.015749
figur,0.008623
financi,0.024937
fix,0.036967
fixesicaf,0.015749
flat,0.006658
follow,0.002490
fond,0.019913
forc,0.006240
foreign,0.004052
form,0.007138
fr,0.007686
franc,0.004456
frontend,0.011580
fsa,0.012063
ftse,0.023057
fulfil,0.006295
fund,0.489335
fundsclosedend,0.015749
fundsintroduc,0.031498
fundsopenend,0.015749
fundstechnolog,0.015749
futur,0.011375
gain,0.003787
gear,0.023703
gener,0.013422
geograph,0.010126
given,0.006244
global,0.004134
goal,0.004282
govern,0.002960
gradual,0.005004
greater,0.007842
greatli,0.005098
greec,0.035307
greek,0.022042
group,0.002808
grow,0.003991
growth,0.035464
ha,0.014530
head,0.008037
healthcar,0.007332
heavi,0.005380
hedg,0.007772
held,0.007361
hellen,0.008960
help,0.003408
hi,0.002791
high,0.018913
higher,0.014804
hire,0.006797
histor,0.003497
hold,0.041248
hope,0.005300
horlick,0.014861
howev,0.005053
hybrid,0.006504
icav,0.015749
icvcsintroduc,0.015749
import,0.002655
impos,0.005353
includ,0.010805
incom,0.042914
increas,0.026942
incur,0.007465
inde,0.005293
independ,0.003197
index,0.059346
indic,0.019148
individu,0.019266
industri,0.003553
inflat,0.005862
inform,0.009284
informationadvantag,0.015749
informationdisadvantag,0.015749
informationstructur,0.015749
inher,0.005966
initi,0.020295
instanc,0.004216
instead,0.003646
institut,0.013177
instytut,0.014861
insur,0.006001
intend,0.004819
intermediari,0.007901
intern,0.005456
invest,0.585080
investor,0.136411
investuvannya,0.015749
investyour,0.015749
investytsiyni,0.031498
involv,0.003017
ipo,0.020401
ireland,0.006506
irish,0.007383
isi,0.009237
issu,0.006681
japan,0.005148
japanes,0.005932
jurisdict,0.031591
k,0.004719
kapitalanlagen,0.015749
kingdom,0.004140
known,0.007803
kommanditgesellschaft,0.014861
kompania,0.015749
korporatyvni,0.015749
kua,0.012951
labour,0.005269
lack,0.007937
larg,0.016457
largest,0.004298
law,0.028218
legal,0.017179
leverag,0.016065
levi,0.029257
liabil,0.007314
lic,0.012839
life,0.006691
like,0.002779
limit,0.031785
limitedavail,0.015749
link,0.004526
liquid,0.016736
list,0.008681
littl,0.003983
load,0.021426
loan,0.006038
lose,0.010947
loss,0.009104
lost,0.004522
low,0.003988
lower,0.011536
luxembourg,0.008847
main,0.003294
maintain,0.003628
major,0.005522
make,0.010585
manag,0.190090
managementact,0.015749
managementpass,0.015749
mani,0.018818
manner,0.005022
marconi,0.011246
market,0.112972
marketsu,0.015749
match,0.011068
matter,0.003914
mean,0.002866
measur,0.023860
mechan,0.003843
meet,0.004210
member,0.009961
method,0.009669
mf,0.078724
mid,0.005182
mind,0.004907
minim,0.010985
minimum,0.011353
ministri,0.005595
minu,0.007692
mirror,0.007027
model,0.006483
modestli,0.010661
money,0.041858
moreov,0.005970
movement,0.007177
multipl,0.004002
mutual,0.060384
nation,0.002883
natur,0.013891
nav,0.012366
net,0.032823
netherland,0.006064
new,0.002324
nicola,0.007796
nonperfectlycorrel,0.015749
normal,0.008296
notion,0.004923
number,0.010413
obtain,0.004045
occur,0.003306
oeic,0.027312
offer,0.023218
offset,0.007567
offshor,0.015176
ongo,0.011388
onli,0.009582
open,0.010688
openend,0.109071
oper,0.016415
oppos,0.004349
order,0.014339
origin,0.002884
otherwis,0.009900
outperform,0.018136
outset,0.018394
outweigh,0.008836
overal,0.004763
owner,0.011773
paid,0.026530
parti,0.008043
particip,0.008210
particular,0.006514
partnership,0.006550
passiv,0.035855
past,0.008256
payment,0.005609
payovyi,0.015749
pension,0.007230
peopl,0.002869
percentag,0.017397
perfect,0.011628
perform,0.043901
perhap,0.004837
period,0.006184
person,0.010215
philosophi,0.004430
place,0.002943
placement,0.024504
plan,0.019705
pleas,0.007882
polici,0.007702
policyopenend,0.015749
pool,0.020442
portfolio,0.042951
possibl,0.003043
potenti,0.003863
power,0.003053
predefin,0.009798
prefer,0.004569
premis,0.007000
premium,0.007631
prevail,0.012626
prevent,0.004266
price,0.114863
primari,0.003939
primarili,0.004079
principl,0.003582
privak,0.015749
privat,0.017115
privateavail,0.015749
process,0.005642
product,0.006220
profession,0.004835
profit,0.015467
promot,0.008513
properti,0.021679
propon,0.006253
proport,0.009867
protect,0.007954
provid,0.005295
public,0.015026
publicavail,0.015749
publicli,0.019158
purchas,0.025377
purpos,0.015526
qualifi,0.025101
rang,0.010746
rapidli,0.005031
rate,0.003698
ratio,0.005381
readili,0.006475
real,0.011784
reason,0.003396
receiv,0.003615
recognis,0.005843
reconcili,0.007920
redeem,0.008902
redempt,0.009093
reduc,0.017927
reduct,0.005445
refer,0.013247
reflect,0.016269
region,0.003389
regist,0.011737
regul,0.035844
regular,0.005184
regulatori,0.019650
reinvest,0.009293
reitsa,0.015749
rel,0.003393
relat,0.002551
remain,0.003130
remit,0.010085
remuner,0.019751
replic,0.006680
repo,0.011866
repres,0.009313
requir,0.005958
respect,0.003599
respons,0.006565
restrict,0.004386
result,0.002636
retail,0.020535
retir,0.006439
return,0.022981
richard,0.004675
right,0.020377
risk,0.116420
riskfre,0.009706
rsquar,0.041518
rule,0.017273
run,0.004159
s,0.005368
sa,0.008338
safeguard,0.008117
salabl,0.013656
sale,0.005513
salespeopl,0.012951
say,0.004100
scale,0.004283
scheme,0.028481
sec,0.018421
secondari,0.005389
section,0.014068
sector,0.009923
secur,0.036189
seek,0.004246
segreg,0.008282
select,0.024692
sell,0.058892
sensit,0.006095
separ,0.006915
servic,0.014749
set,0.008795
sg,0.021647
share,0.092200
sharehold,0.007653
sharesunit,0.014861
short,0.008070
sicaf,0.014861
sicav,0.054625
sign,0.004336
similar,0.003145
simpli,0.004297
sinc,0.002633
singl,0.031724
site,0.008873
size,0.008203
small,0.006446
smaller,0.008957
social,0.003350
socit,0.047760
sold,0.033373
sometim,0.003428
sophist,0.006060
sovereign,0.006295
special,0.006588
specif,0.009454
specifi,0.016066
spilnogo,0.015749
split,0.010827
sponsor,0.006603
spread,0.018623
standard,0.007095
start,0.003334
state,0.009218
statist,0.008642
statut,0.015475
stick,0.007920
stock,0.030490
stockbrok,0.022492
strategi,0.039252
stream,0.006313
strong,0.003827
structur,0.040007
style,0.005427
subject,0.010052
subscrib,0.008235
success,0.006986
suffici,0.004869
suggest,0.003687
sum,0.005254
supervis,0.006298
supervisori,0.009855
suppli,0.004294
suppos,0.005787
switzerland,0.006750
systemat,0.010064
taken,0.003856
target,0.009808
tax,0.014850
technolog,0.003797
tend,0.025952
term,0.017422
terminolog,0.012404
theme,0.011667
thereaft,0.006887
therefor,0.021480
thi,0.059104
time,0.009321
track,0.005827
tracker,0.022580
trade,0.038102
tradit,0.003316
transact,0.022685
transfer,0.009014
transpar,0.013482
trust,0.097886
truste,0.018615
trustsintroduc,0.031498
trustsopenend,0.015749
type,0.028501
typic,0.024735
ucit,0.027679
uk,0.024139
ukrain,0.007869
ukspecif,0.015749
underli,0.015006
undertak,0.028601
unincorpor,0.020804
union,0.003914
uniqu,0.004491
unit,0.058447
unithold,0.062997
unitis,0.015749
unitshar,0.015749
unitsshar,0.031498
unlist,0.011805
unmatch,0.011120
unregist,0.011120
unsystemat,0.011580
upravlinnya,0.015749
use,0.012913
usspecif,0.014861
valu,0.060766
valuat,0.007287
vari,0.031063
variabl,0.033704
variat,0.009874
variou,0.005997
vehicl,0.191381
vehiclesar,0.031498
vehiclesmay,0.015749
veri,0.006016
view,0.003375
virgin,0.016134
volatil,0.035039
volum,0.009023
vote,0.004994
wa,0.002159
waiv,0.010858
way,0.005632
wealth,0.005424
whatev,0.006484
whilst,0.006804
whomev,0.012134
wide,0.006784
withprofit,0.014276
work,0.007746
xvii,0.011580
year,0.013291
z,0.006426
