abov,0.006258
abus,0.052581
accept,0.006137
access,0.020292
accord,0.009777
accru,0.014274
accus,0.009804
act,0.016762
activ,0.004878
addit,0.009891
advantag,0.007588
aka,0.013326
alreadi,0.007122
alway,0.006574
amort,0.032794
ani,0.008617
annual,0.015019
anoth,0.014106
anticip,0.010873
appli,0.005226
applic,0.005838
apr,0.016543
arrang,0.007970
articl,0.005810
asset,0.072301
attribut,0.007599
author,0.005504
auto,0.044610
avail,0.011952
averag,0.007302
bank,0.056559
base,0.004259
basic,0.005930
becaus,0.004437
becom,0.004718
belowmarket,0.020478
benefit,0.007153
bond,0.025259
borrow,0.244590
breach,0.013338
build,0.006237
busi,0.019935
c,0.022566
calcul,0.007522
cancel,0.011183
car,0.073028
card,0.044870
carri,0.006364
cash,0.019735
ccncn,0.024902
charg,0.030476
chicago,0.009622
cod,0.016192
code,0.030560
codifi,0.012965
collater,0.014376
colleg,0.008571
combin,0.005630
come,0.005647
commerci,0.015129
common,0.009549
compani,0.012470
compens,0.009980
compon,0.006800
compound,0.008897
concession,0.039872
congress,0.008847
connect,0.006501
consid,0.004605
consider,0.006636
consolid,0.020736
consum,0.047177
context,0.006946
contract,0.023764
convert,0.016099
corpor,0.015495
correspond,0.007168
cost,0.006942
countri,0.010393
court,0.007489
coven,0.014538
creat,0.004830
credit,0.084058
cultur,0.005937
custom,0.007984
d,0.006392
date,0.013199
dealership,0.021149
debt,0.100727
debtor,0.015130
decreas,0.007776
deduct,0.057127
deductibleth,0.024902
default,0.048198
defraud,0.019377
demand,0.021150
depart,0.006923
depend,0.005210
descript,0.007218
develop,0.003949
differ,0.025117
direct,0.010487
directli,0.006344
discharg,0.079530
displaystyl,0.009045
divid,0.006261
doe,0.005343
doesnt,0.011807
durat,0.011246
educ,0.006056
effect,0.009237
employe,0.019923
enforc,0.008913
engag,0.007528
enrol,0.013073
entail,0.011094
entiti,0.032266
equal,0.012948
equiti,0.010878
essenti,0.006608
event,0.012373
evidenc,0.013387
exampl,0.004257
excess,0.009187
exchang,0.006720
execut,0.007201
explicit,0.010381
extra,0.010888
facil,0.009113
fafsa,0.024902
feder,0.015139
financ,0.052733
financi,0.027148
fix,0.015091
float,0.011258
focus,0.006617
foreign,0.006617
form,0.015543
forward,0.009024
frac,0.011376
fractionalreserv,0.018510
frivol,0.018295
fulli,0.007664
fund,0.007009
gain,0.006185
gave,0.007397
gener,0.010959
georg,0.007326
given,0.005098
govern,0.014503
grace,0.013399
grant,0.023380
gross,0.059638
guarante,0.009325
guis,0.015821
ha,0.020339
handl,0.009244
hidden,0.011194
higher,0.012087
home,0.014518
hous,0.020459
howev,0.004125
incent,0.010584
includ,0.010587
incom,0.109012
increas,0.004888
indebted,0.101661
indirect,0.022091
individu,0.031462
inform,0.005054
initi,0.005523
innov,0.008805
insolv,0.032253
instal,0.010032
instanc,0.006884
instant,0.013140
institut,0.037656
intent,0.008555
interestonli,0.021345
intermediari,0.012902
intern,0.017819
interpret,0.006782
involv,0.004928
issu,0.005455
judgment,0.021547
kingdom,0.006761
known,0.004247
l,0.014964
later,0.005054
law,0.005120
legal,0.021040
lend,0.087353
lender,0.329759
lent,0.014048
leverag,0.013117
lien,0.018586
life,0.005463
limit,0.005190
line,0.012165
list,0.004725
loan,0.769128
longer,0.014018
look,0.007017
major,0.009017
make,0.004321
mani,0.007682
market,0.019084
materi,0.005955
minimum,0.009270
monetari,0.018220
money,0.060759
moneylend,0.019181
month,0.015016
monthli,0.057918
mortgag,0.087864
n,0.022895
nation,0.004709
nearli,0.007401
neg,0.007369
new,0.007592
note,0.004899
object,0.005809
oblig,0.037538
obtain,0.006605
offer,0.006319
option,0.008867
order,0.004683
organ,0.018541
outlay,0.016580
overal,0.007778
overdraft,0.019278
owe,0.031028
p,0.012974
packag,0.010773
paid,0.077984
pay,0.015867
payday,0.042299
payment,0.064118
peertop,0.017907
percentag,0.009470
period,0.020198
perkin,0.015545
person,0.038926
pik,0.020794
place,0.009612
plcdot,0.024902
pledg,0.024099
posit,0.005036
practic,0.005213
predatori,0.015735
prime,0.007829
princip,0.022837
prioriti,0.010276
proceed,0.008918
profit,0.008419
promis,0.018314
promissori,0.017566
properti,0.017700
provid,0.017294
purchas,0.024864
purpos,0.012677
pursu,0.008862
rate,0.102664
rational,0.013753
realloc,0.017847
receiv,0.011809
recours,0.015318
recov,0.009513
reduc,0.005854
refer,0.009271
reflect,0.006641
refund,0.017214
regul,0.014633
remain,0.005111
repay,0.130622
repossess,0.019699
repres,0.010139
restrict,0.014326
revenu,0.036066
right,0.005546
risk,0.007604
rule,0.011283
sale,0.009003
satisfi,0.009168
sax,0.019481
score,0.022657
section,0.015315
secur,0.072229
select,0.006720
sell,0.008742
serv,0.006152
set,0.004787
settlement,0.009019
sever,0.004484
shark,0.014870
short,0.006589
shorter,0.011002
similar,0.005136
sinc,0.004301
societi,0.005389
soft,0.010981
sometim,0.005599
sourc,0.010820
specif,0.005146
specifi,0.008745
sponsor,0.010783
stafford,0.018030
start,0.005444
state,0.011290
student,0.029284
subcategor,0.020062
subject,0.005471
subsid,0.025521
subsidi,0.011981
substanti,0.007984
sue,0.015763
sum,0.008580
syndic,0.015519
taken,0.006298
target,0.008008
task,0.007979
tax,0.016167
term,0.016257
thi,0.009651
thing,0.013688
thu,0.015084
time,0.019028
titl,0.015441
tradit,0.005416
treasuri,0.022863
treat,0.007531
type,0.020685
typic,0.023082
uncollect,0.021345
underwrit,0.031879
unencumb,0.020194
unit,0.017353
unlimit,0.012871
unsecur,0.148692
use,0.017572
usual,0.005176
usuri,0.033086
valu,0.005512
vari,0.019022
veri,0.004912
wa,0.003526
way,0.009198
wealth,0.026572
x,0.022847
y,0.036639
