alreadi,0.033237
analysi,0.082507
ani,0.020107
appli,0.024389
approv,0.039192
bear,0.042694
begin,0.053648
better,0.031022
bounc,0.590669
brag,0.095568
brief,0.087202
busi,0.031011
candid,0.042439
case,0.023037
cat,0.292245
circl,0.044397
citat,0.054872
condit,0.025784
consid,0.021491
continu,0.066985
correct,0.037109
date,0.030799
dead,0.231000
declin,0.209935
definit,0.029138
deriv,0.028019
describ,0.022682
dont,0.051496
doubt,0.047560
downward,0.118288
dure,0.042426
earliest,0.037084
economi,0.030299
exclus,0.037902
experi,0.027283
fail,0.033357
fall,0.151423
fast,0.045417
fight,0.041630
financ,0.035155
financi,0.063346
follow,0.037956
great,0.026738
ha,0.015819
hard,0.077876
height,0.047302
histori,0.019760
horac,0.071040
idea,0.026627
includ,0.016469
instanc,0.032129
instead,0.027787
journalist,0.055844
like,0.021185
look,0.032747
low,0.091189
malaysian,0.071714
market,0.178123
media,0.036377
method,0.024562
movement,0.027347
news,0.043287
origin,0.021978
overal,0.036298
past,0.031461
pattern,0.101513
perform,0.027880
phrase,0.143357
polici,0.029348
polit,0.024891
poor,0.039212
popularli,0.059506
posit,0.023504
price,0.202002
prior,0.034349
quot,0.047579
recess,0.051622
recov,0.044397
recoveri,0.048014
refer,0.028845
resurg,0.061694
retrac,0.084442
revers,0.039707
rise,0.058046
sale,0.042016
say,0.031248
second,0.023671
secur,0.091929
sever,0.041852
shaki,0.082486
sharp,0.048747
short,0.030752
signific,0.025623
singaporean,0.087101
small,0.073687
standard,0.027035
stock,0.232357
street,0.045803
subject,0.025535
suffer,0.036636
sulong,0.120022
surpass,0.056669
tape,0.065487
technic,0.107098
term,0.056902
thi,0.015013
time,0.017760
trade,0.029037
trend,0.038340
underli,0.038119
upward,0.111758
usag,0.084204
use,0.049204
valu,0.025727
variat,0.075254
wa,0.016458
wall,0.042502
weak,0.039873
wong,0.081247
year,0.020257
