account,0.158853
ach,0.071572
action,0.023674
advic,0.041933
altern,0.049516
ani,0.016981
arrang,0.031412
australia,0.033490
autom,0.043116
avail,0.023552
awar,0.034860
bank,0.195048
benefit,0.028193
better,0.026199
busi,0.026190
card,0.132634
charg,0.030028
clear,0.028962
comerica,0.095647
commonli,0.077532
countryspecif,0.070110
credit,0.060234
debit,0.259066
depart,0.027287
deposit,0.405307
direct,0.227332
directli,0.025006
doe,0.021058
easili,0.032101
effect,0.036405
electron,0.156774
enabl,0.029715
ensur,0.030783
enter,0.027392
entri,0.036243
europ,0.025407
exampl,0.033562
express,0.024277
facil,0.071832
feder,0.089499
follow,0.016027
fund,0.110503
giro,0.082633
govern,0.038106
hous,0.026877
identif,0.039466
implement,0.027895
inform,0.019919
invoic,0.072381
known,0.016740
law,0.020179
make,0.051098
mastercard,0.173651
mean,0.036892
meaning,0.043533
mobil,0.035577
money,0.059866
need,0.020134
normal,0.026697
number,0.033511
oblig,0.036987
offer,0.024906
onlin,0.029314
pair,0.035693
pay,0.031269
paye,0.409775
payer,0.336493
payment,0.361007
physic,0.021916
prepaid,0.073875
purpos,0.024982
recipi,0.094033
recognis,0.037607
refer,0.036541
remitt,0.059632
requir,0.019175
salari,0.045054
send,0.038092
situat,0.026100
state,0.014832
supplier,0.047735
tax,0.031859
telephon,0.046341
transfer,0.116037
treasuri,0.045054
unit,0.017098
use,0.055406
wage,0.037250
wire,0.048975
