activ,0.007566
addit,0.007671
aftershock,0.092763
agenc,0.011928
aggreg,0.016035
altogeth,0.018797
ani,0.020048
anoth,0.007293
area,0.015062
assess,0.012915
assign,0.013620
author,0.008537
avoid,0.011325
base,0.006607
becaus,0.020647
becom,0.014638
better,0.010310
billion,0.025973
brick,0.022577
british,0.010208
build,0.009675
buy,0.014463
california,0.070129
canada,0.026231
care,0.011503
case,0.007656
caus,0.032693
cea,0.207248
chanc,0.014741
cheaper,0.019716
christchurch,0.031762
citi,0.010575
claim,0.083660
claimant,0.025165
closer,0.015153
collect,0.008933
columbia,0.017032
commiss,0.024385
compani,0.087035
complet,0.008458
compli,0.020192
compulsori,0.019369
computer,0.022463
cover,0.070586
coverag,0.073694
creat,0.022474
crown,0.015863
damag,0.224698
data,0.009774
deduct,0.035442
depend,0.008081
destroy,0.038423
devast,0.017389
deviat,0.017381
devot,0.014477
disast,0.084599
distant,0.017024
doe,0.008287
dozen,0.017131
dr,0.015195
drain,0.042241
earthquak,0.653707
effort,0.010212
engin,0.010626
enrol,0.020276
entir,0.009564
entiti,0.012511
epicent,0.030921
eqc,0.115870
erupt,0.018412
establish,0.007869
estim,0.020753
event,0.019192
eventu,0.020960
exampl,0.006603
exceed,0.015485
expert,0.014565
extend,0.019452
fatal,0.019166
featur,0.009972
filer,0.032252
flood,0.034815
follow,0.006307
foreshock,0.036838
form,0.006027
fund,0.021743
govern,0.029992
governmentown,0.024406
ha,0.021030
hazu,0.036159
high,0.007984
home,0.090074
homeown,0.166647
hurrican,0.021059
hydrotherm,0.025487
includ,0.005473
inform,0.007838
initi,0.017134
insolv,0.025012
insur,0.501643
intend,0.012206
inventori,0.020504
issu,0.008461
japan,0.026078
japanes,0.015026
jer,0.105158
kill,0.013016
land,0.009977
landslip,0.037640
larg,0.006947
larger,0.020810
largescal,0.015360
later,0.007839
law,0.031765
legislatur,0.032255
limit,0.008050
locat,0.009692
loss,0.080706
magnitud,0.016262
major,0.006993
make,0.006702
manag,0.018880
mandatori,0.060779
mass,0.010809
maximum,0.014333
member,0.016820
membership,0.014518
mere,0.012967
method,0.008163
mini,0.053398
money,0.011779
mostli,0.011246
natur,0.028147
nearli,0.011480
need,0.007923
new,0.029438
noncea,0.038623
northridg,0.034169
number,0.006594
occur,0.016748
offer,0.049007
onli,0.006067
opinion,0.014009
option,0.013753
ordinari,0.014373
origin,0.014609
owner,0.014909
paid,0.013439
particular,0.008250
past,0.010456
pay,0.036916
payout,0.026213
peopl,0.007267
person,0.008624
polici,0.087788
policyhold,0.029606
polit,0.008272
pool,0.017258
popul,0.009378
premium,0.019328
primari,0.009977
privat,0.010837
probabl,0.021691
procedur,0.013162
properti,0.036605
proport,0.012496
prorat,0.033433
provid,0.020118
publicli,0.016174
purchas,0.012855
quak,0.090645
quasipubl,0.032803
quickli,0.012302
rare,0.012438
rate,0.018733
ratio,0.027262
record,0.010104
recoveri,0.015958
refer,0.004793
reinsur,0.027869
remov,0.011067
research,0.007776
resid,0.025399
residenti,0.041264
resourc,0.009704
retrofit,0.030381
revis,0.014324
rider,0.024584
risk,0.023589
role,0.008397
satisfi,0.014219
scheme,0.043282
seismic,0.024913
sell,0.027120
sever,0.006954
share,0.009340
signific,0.008516
significantli,0.012302
simul,0.014495
sinc,0.006671
singl,0.017856
sizeabl,0.024963
smaller,0.011343
sold,0.014088
sole,0.013541
specif,0.007981
standard,0.008985
state,0.029186
stop,0.026359
storm,0.018689
strong,0.009693
structur,0.007794
studi,0.007050
themselv,0.009895
thi,0.019959
time,0.005902
today,0.009583
total,0.009308
train,0.011520
trillion,0.037190
tsunami,0.024362
turkey,0.017398
type,0.016041
undertak,0.018110
unit,0.006728
use,0.032706
valu,0.008550
volcan,0.019139
voluntari,0.018457
wa,0.027350
war,0.037907
week,0.014021
withstand,0.022814
wood,0.015394
write,0.010430
written,0.010562
year,0.020198
yen,0.050755
zealand,0.079315
