accommod,0.014137
account,0.007170
actual,0.007791
addit,0.006159
affect,0.007955
agenda,0.014182
alessandro,0.037192
allunit,0.032027
alway,0.008186
analysi,0.007338
andler,0.032027
andriolo,0.032027
ani,0.005365
annual,0.037408
appli,0.019525
applic,0.007270
associ,0.005947
assum,0.008434
averag,0.009093
backord,0.064055
balanc,0.009635
base,0.005304
basic,0.007385
battini,0.032027
baumoltobin,0.032027
best,0.008090
bullwhip,0.032027
busi,0.008275
c,0.021076
calcul,0.009367
camp,0.013302
capit,0.007996
care,0.009236
carri,0.023777
centuri,0.006313
check,0.012746
chicago,0.011982
choi,0.024676
choos,0.010576
classic,0.016246
combust,0.016991
commonli,0.008166
complex,0.007195
constant,0.029329
consult,0.011355
consum,0.009791
control,0.006533
cost,0.518747
credit,0.009516
cretoi,0.032027
criteria,0.012315
curv,0.012098
custom,0.019887
d,0.159217
daniel,0.012231
daria,0.027771
deliv,0.011591
deliveri,0.014212
demand,0.079015
deriv,0.014954
design,0.014445
determin,0.054632
determinist,0.015700
develop,0.014754
direct,0.006530
disappear,0.012502
discount,0.113581
displaystyl,0.214028
dkh,0.096083
dkhsqrt,0.032027
dkqfrac,0.096083
doi,0.013019
doijapplthermaleng,0.032027
doijijp,0.064055
donald,0.013864
dq,0.050641
dynam,0.009219
e,0.023906
econom,0.071270
economi,0.008085
ed,0.008288
edit,0.018532
effect,0.005751
empti,0.014115
engin,0.034128
eoq,0.384081
equal,0.008062
erlenkott,0.032027
evolut,0.009612
exampl,0.010604
express,0.007670
extens,0.031979
extern,0.004629
fabio,0.022783
factori,0.012954
fashion,0.012460
firm,0.021147
fix,0.037587
follow,0.005064
ford,0.050292
formula,0.033166
frac,0.056669
fuel,0.035196
fulli,0.009544
function,0.032408
gasolin,0.018317
gdi,0.026109
georg,0.009124
given,0.006349
good,0.014077
grubbstrm,0.032027
h,0.167092
ha,0.021106
handbook,0.012812
handl,0.011511
harri,0.026628
harriss,0.049352
harvard,0.012369
hdkpd,0.064055
held,0.007485
higher,0.007526
hill,0.012593
hold,0.053379
hppercentag,0.032027
hq,0.023771
hqpdfrac,0.032027
hqqsqrt,0.032027
httpwwwinventoryopscomeconomicorderquantityhtm,0.032027
httpwwwscmfocuscomsupplyplanningeconomicorderquantitycalcul,0.033461
illustr,0.010796
import,0.005399
improv,0.007790
includ,0.004394
increas,0.006087
increment,0.031981
independ,0.006502
indepth,0.018366
inject,0.046893
instanc,0.008573
insur,0.012205
intern,0.022190
interv,0.013338
introduc,0.007426
inventori,0.082315
item,0.058064
journal,0.016285
k,0.163167
known,0.010578
lambert,0.018703
lewin,0.021556
link,0.004602
lot,0.052141
m,0.007569
machin,0.010218
main,0.006700
malakooti,0.026581
manag,0.030318
mane,0.023550
materi,0.007416
mcgraw,0.019925
melon,0.024259
minim,0.033509
minimum,0.034632
model,0.098884
money,0.028374
mr,0.014228
multicriteria,0.026337
multipl,0.016279
n,0.009504
need,0.006362
new,0.004727
newsvendor,0.029577
nonneg,0.019775
note,0.006101
number,0.026471
numer,0.007840
o,0.022320
oldest,0.011448
onli,0.009743
oper,0.013352
optim,0.101025
order,0.209951
orlicki,0.032027
overview,0.010604
p,0.088866
pankaj,0.024826
parallel,0.010965
paramet,0.024401
particularli,0.007421
pdkdeoqheoq,0.032027
percentag,0.023586
person,0.006924
persona,0.020648
pick,0.013775
place,0.029925
plan,0.008014
plossel,0.032027
point,0.018416
presenc,0.009177
price,0.017968
problem,0.012980
produc,0.012628
product,0.082223
propos,0.007487
provid,0.005384
purchas,0.072249
q,0.299009
qfrac,0.024826
qsqrt,0.029032
quadrat,0.017612
quantiti,0.247117
r,0.064966
random,0.011576
rate,0.007520
reach,0.007821
read,0.006684
recent,0.006664
recognis,0.011882
reduc,0.007291
refer,0.003848
refriger,0.018622
regardless,0.011634
relat,0.005189
reorder,0.022081
replenish,0.019294
requir,0.018176
research,0.012487
respect,0.007319
respond,0.010380
revers,0.010595
review,0.008623
revis,0.011501
robert,0.016924
routin,0.013816
samuel,0.013682
schedul,0.051168
scheme,0.011583
scienc,0.006473
scientif,0.007744
second,0.006316
seen,0.007551
seri,0.015334
set,0.005962
setup,0.018013
sever,0.011168
sgarbossa,0.032027
shaw,0.018174
ship,0.010920
shortag,0.013976
similar,0.012792
similarli,0.010147
singleitem,0.032027
size,0.025024
solut,0.009164
solv,0.009857
sometim,0.006972
space,0.008258
springer,0.012964
sqrt,0.034576
stephen,0.011898
stochast,0.014865
stock,0.020668
storag,0.050986
strateg,0.011690
supplier,0.030165
suppos,0.011770
survey,0.010296
t,0.027958
tcfrac,0.030221
tcminsqrt,0.032027
tcpdfrac,0.032027
term,0.005061
therefor,0.007280
thermal,0.013735
thi,0.036057
time,0.014217
timevalu,0.030221
total,0.119579
trippi,0.029032
tsanm,0.032027
type,0.006439
typic,0.007186
uncertain,0.014159
uncertainti,0.024930
unit,0.129662
use,0.008753
usual,0.006445
valu,0.006865
vari,0.007896
variabl,0.029374
ventura,0.026337
version,0.018739
w,0.044937
wa,0.008783
want,0.009889
warehous,0.018899
way,0.005727
whitman,0.021809
wilson,0.040140
year,0.027028
yearli,0.015879
zero,0.011264
