activ,0.010836
agre,0.016374
agreement,0.033155
allow,0.010800
alway,0.014604
anoth,0.010445
asset,0.020077
attach,0.020561
attract,0.017475
avoid,0.016222
base,0.009463
basket,0.165403
bond,0.093521
bondlik,0.050948
broadli,0.021921
buy,0.062149
buyer,0.026136
cac,0.044020
case,0.010966
cash,0.087685
cashsettl,0.049541
certain,0.012004
cfd,0.041290
characterist,0.015117
class,0.029095
common,0.021213
compani,0.027702
consid,0.010230
contract,0.087987
convert,0.053647
correl,0.020447
cost,0.030846
counter,0.023719
countri,0.011544
coupon,0.033817
custom,0.017738
date,0.029323
dax,0.045493
debt,0.020342
definit,0.013870
deriv,0.186738
differ,0.018599
dividend,0.084591
downsid,0.037933
easi,0.021449
effici,0.033074
enhanc,0.019562
entitl,0.021803
equiti,0.555822
equitylik,0.107825
establish,0.011271
exampl,0.018917
exchangetrad,0.111539
exist,0.010502
expir,0.057097
exposur,0.070417
far,0.014321
featur,0.014283
financ,0.033470
flexibl,0.023382
flow,0.066528
frequent,0.015876
ftse,0.041823
fund,0.015571
futur,0.206327
g,0.015278
gain,0.041220
greater,0.014224
hedg,0.028197
holder,0.077027
howev,0.009165
hybrid,0.023594
includ,0.015679
index,0.215292
indic,0.055572
individu,0.011648
instanc,0.030589
institut,0.011950
intellidex,0.057134
investor,0.064547
issu,0.036356
issuer,0.033612
leverag,0.029140
libor,0.074904
like,0.010084
long,0.012258
lower,0.027901
make,0.028802
mani,0.008533
market,0.070660
movement,0.013018
nonindex,0.057134
normal,0.015048
number,0.009444
oblig,0.020848
obtain,0.014674
offer,0.014038
onli,0.008690
option,0.118197
otc,0.072697
parti,0.043768
partli,0.020299
pay,0.035250
perform,0.026543
period,0.011217
physic,0.024707
posit,0.033566
potenti,0.014015
preannounc,0.051790
predetermin,0.031005
prefer,0.016577
price,0.112186
prior,0.016351
product,0.011283
protect,0.014428
provid,0.009605
quantiti,0.017633
rate,0.013415
ratio,0.019524
receiv,0.013117
refer,0.006865
regular,0.018809
rel,0.049241
replic,0.024234
requir,0.010808
return,0.013895
right,0.012320
secur,0.072935
sell,0.038844
set,0.031907
settl,0.019513
settlement,0.020036
share,0.066895
short,0.014639
similar,0.034230
singl,0.025575
singlestock,0.135510
sp,0.029291
specifi,0.019427
specul,0.039759
standard,0.012869
state,0.008360
stock,0.331829
straightforward,0.030251
strike,0.021254
swap,0.378832
sweeten,0.041640
thi,0.014294
time,0.016908
trade,0.055290
transact,0.020574
transfer,0.016351
type,0.034464
typic,0.025638
underli,0.163315
unit,0.009637
upsid,0.039648
use,0.054653
usual,0.022997
valu,0.048987
warrant,0.088416
way,0.020433
wellestablish,0.032095
year,0.009643
yield,0.018666
