accept,0.013199
acquir,0.017124
adam,0.021337
advantag,0.016319
agent,0.017926
albani,0.071645
amass,0.033209
america,0.014734
american,0.035736
appear,0.012177
arrang,0.017140
asset,0.019436
attempt,0.011992
banker,0.028711
bankruptci,0.054886
becaus,0.009543
begin,0.012361
betray,0.030734
birth,0.018679
black,0.017109
board,0.036577
boss,0.035992
bought,0.024223
british,0.014154
broker,0.027837
brought,0.015627
build,0.013415
built,0.031607
busi,0.028582
buy,0.020054
c,0.012132
capac,0.017600
cattl,0.024869
caus,0.011332
chapter,0.019788
charl,0.032523
chicago,0.020693
committe,0.018218
compani,0.053635
conced,0.030993
confid,0.021723
conflict,0.031633
conspir,0.034214
contain,0.012182
continu,0.010289
control,0.056414
corneliu,0.100465
corner,0.027401
corrupt,0.020850
cost,0.014930
crash,0.025257
daniel,0.042245
debt,0.039385
decid,0.016550
declar,0.016402
defeat,0.020092
depend,0.011205
desper,0.030015
develop,0.008493
deviou,0.045905
did,0.012606
die,0.032543
director,0.040838
disclos,0.029669
distribut,0.014012
dollar,0.019843
domin,0.013974
donat,0.025437
drew,0.117026
drover,0.047377
earli,0.010226
embezzl,0.035907
empir,0.014266
engag,0.016190
entertain,0.025139
episod,0.025110
eri,0.608199
eventu,0.014531
exceed,0.021471
exchang,0.014452
favor,0.016886
file,0.022821
financ,0.016200
financi,0.043788
fisk,0.120932
follow,0.008745
forc,0.010958
fortun,0.074401
franci,0.020937
fraud,0.025183
fraudul,0.030415
frederick,0.024664
friday,0.031633
fund,0.015074
gain,0.026602
gordon,0.025499
gordongordon,0.055309
gould,0.357930
great,0.012322
greenback,0.041459
gustavu,0.080975
h,0.015187
hall,0.020743
heavili,0.017625
hi,0.078422
hick,0.033488
high,0.011070
histori,0.027318
historian,0.018422
hostil,0.022674
impass,0.036722
investig,0.015319
involv,0.021197
issu,0.035195
jame,0.015419
jay,0.058570
jim,0.028896
john,0.012435
kennikat,0.051078
kept,0.019698
kerr,0.036919
lake,0.021559
land,0.013834
larg,0.009633
later,0.021741
legal,0.030165
legisl,0.033469
legislatur,0.022361
litig,0.032346
loan,0.021205
lobbyist,0.038012
lord,0.021632
lose,0.019222
loss,0.015986
lost,0.015883
machin,0.017647
man,0.016170
manipul,0.039138
market,0.027361
member,0.011660
men,0.016947
middl,0.015068
million,0.071776
mind,0.017235
mismanag,0.066863
money,0.049000
muckrak,0.044719
multipl,0.014057
myer,0.068558
new,0.032654
newli,0.019228
nicolson,0.038382
ny,0.026447
offici,0.013875
oper,0.011529
opinion,0.019424
opportun,0.017263
panic,0.030661
parti,0.028247
particularli,0.012817
permit,0.018614
person,0.011959
polit,0.011470
port,0.020651
pour,0.027507
press,0.012334
price,0.015514
prison,0.022243
privat,0.015027
prove,0.016174
public,0.031663
quantiti,0.017070
railroad,0.323691
railway,0.173604
rais,0.015458
rapidli,0.017668
read,0.011543
readabl,0.033962
reconstitut,0.035263
refer,0.006646
relinquish,0.030519
result,0.009258
return,0.026903
s,0.009426
satchel,0.047377
saw,0.016265
scarlet,0.037663
scoop,0.041051
senat,0.022801
set,0.010296
share,0.038855
silent,0.027550
sixti,0.028138
skil,0.041895
son,0.017711
spuriou,0.035657
stack,0.028842
state,0.008093
stay,0.020247
steel,0.023169
stock,0.142770
street,0.063322
struggl,0.019390
succeed,0.018911
sum,0.018452
support,0.010998
survey,0.017780
swindl,0.048602
tammani,0.055309
taxat,0.022742
thcenturi,0.021329
threat,0.019402
thu,0.010813
took,0.014450
treasur,0.028685
trio,0.038382
turn,0.012788
tweed,0.104382
unsuspect,0.041252
vain,0.035113
vanderbilt,0.304099
veri,0.010563
viabl,0.025453
volum,0.015845
vote,0.035083
wa,0.045507
wall,0.058759
war,0.052561
washington,0.020365
water,0.014268
watereddown,0.050137
weidenfeld,0.039054
wellresearch,0.050137
western,0.013914
woman,0.023096
worth,0.020944
wrote,0.015760
year,0.009335
york,0.042740
