abil,0.002471
abov,0.002299
academ,0.001345
accept,0.001127
access,0.002485
accommod,0.002085
accord,0.000898
account,0.004231
achiev,0.006779
acquir,0.001463
act,0.006159
action,0.001103
activ,0.025991
addit,0.002726
address,0.001352
advanc,0.001109
advantag,0.012548
advis,0.001815
advisor,0.004602
advisorshar,0.004575
affect,0.003521
aggress,0.002001
agreementsand,0.004725
agricultur,0.002670
alloc,0.003584
allow,0.007145
altern,0.002308
alway,0.002415
america,0.001258
american,0.005088
analyst,0.006115
ani,0.003166
annual,0.001379
anoth,0.000863
appar,0.001533
appear,0.001040
appetit,0.002951
appli,0.000960
applic,0.001072
appreci,0.001993
approv,0.001543
approxim,0.003672
arbitrag,0.008278
arbitrageur,0.003541
arca,0.045488
area,0.003568
argu,0.001194
arithmet,0.002193
arrang,0.001464
array,0.001959
articl,0.002135
assembl,0.001402
assert,0.001543
asset,0.063098
associ,0.000877
asx,0.007525
attempt,0.005122
attent,0.002929
attract,0.004335
attribut,0.001396
august,0.001364
australia,0.001561
author,0.003033
avail,0.005489
averag,0.008049
b,0.001189
backend,0.003686
balanc,0.002843
banco,0.002968
bank,0.006494
bar,0.004060
barclay,0.011899
base,0.006261
basic,0.001089
basket,0.016415
bear,0.010085
becam,0.002969
becaus,0.015490
becom,0.002600
began,0.003244
begin,0.001056
believ,0.002240
benchmark,0.009856
bender,0.003348
benefit,0.003942
beta,0.002215
better,0.001221
bi,0.002539
bid,0.002307
billion,0.003076
bip,0.007581
blackrock,0.007843
bldr,0.004725
block,0.003226
bloom,0.002684
bnp,0.003348
bogl,0.011130
bond,0.035579
book,0.001029
boost,0.002123
bore,0.002431
bostonbas,0.004725
bought,0.012416
bovespa,0.004283
brand,0.002189
broad,0.001454
broadbas,0.006580
broader,0.001805
broadli,0.001812
broker,0.004756
brokerag,0.014027
brokerdeal,0.006801
browserfre,0.004725
bull,0.004998
bullion,0.003067
busi,0.003662
buy,0.011993
buyer,0.002161
c,0.001036
cachet,0.004152
calcul,0.001382
canadian,0.001841
capabl,0.001428
capit,0.008258
care,0.001362
carrel,0.003790
carri,0.001169
case,0.005441
cash,0.010877
casual,0.002747
categori,0.002768
caus,0.000968
cautiou,0.002775
centr,0.001491
certain,0.000992
cetera,0.006887
cetf,0.004725
cftc,0.003686
chang,0.006542
characterist,0.002500
charg,0.004199
charl,0.001389
chicago,0.001767
choic,0.002850
choos,0.001560
chosen,0.001657
circumv,0.002695
cite,0.001517
claim,0.002202
class,0.003609
clear,0.001350
client,0.002089
close,0.004853
closedend,0.010376
collaps,0.001598
collater,0.010565
collect,0.002116
combin,0.003103
come,0.001037
commiss,0.012998
commissionfre,0.004725
commod,0.059866
commoditybas,0.004002
common,0.001754
commonli,0.001204
compani,0.016037
compar,0.004292
competit,0.002853
competitor,0.002247
complex,0.001061
complianc,0.002328
compon,0.002498
compound,0.003269
comput,0.002404
conced,0.002647
conceiv,0.001904
conceptualis,0.003171
concern,0.002037
condit,0.002030
conduct,0.001243
conflict,0.001351
conjunct,0.002027
consequ,0.001233
consid,0.005076
consider,0.001219
constantli,0.002022
construct,0.003370
consum,0.001444
contain,0.001040
content,0.001431
contract,0.004366
contractu,0.002578
contrast,0.003676
contribut,0.004259
convent,0.001404
corpor,0.005693
correspond,0.001317
cost,0.021684
count,0.001654
counterparti,0.014642
countri,0.006683
countryspecif,0.003268
cours,0.001264
cover,0.003583
cramer,0.003208
crash,0.004315
creat,0.002662
creation,0.014526
critic,0.003201
crossreferenc,0.003790
crp,0.004458
crsp,0.004363
crude,0.002278
cube,0.002702
currenc,0.009539
currencybas,0.004213
currencyshar,0.004725
current,0.005572
curv,0.001784
custom,0.001467
daili,0.018665
databas,0.001697
day,0.020801
db,0.009118
deal,0.001168
debt,0.001682
decad,0.001318
decay,0.001994
decemb,0.002662
declin,0.004132
decreas,0.001428
defin,0.000995
definit,0.001147
deliveri,0.002096
demand,0.002590
depend,0.002871
deposit,0.001717
depositari,0.011287
depressionera,0.004097
deriv,0.004412
describ,0.000893
design,0.001065
desir,0.001365
desk,0.002885
destroy,0.001517
deutsch,0.004905
develop,0.002176
deviat,0.012353
dia,0.003162
diamond,0.002202
did,0.001076
differ,0.008460
differenti,0.001469
difficult,0.002530
digitalag,0.004725
direct,0.003853
directli,0.004663
disadvantag,0.002151
disappear,0.001844
disclos,0.007604
discount,0.006284
dispos,0.002146
dissemin,0.004519
distribut,0.004788
distributor,0.009181
divers,0.001395
diversif,0.009640
diversifi,0.002197
divid,0.001150
dividend,0.009328
doe,0.006871
dollar,0.001695
domest,0.001503
dont,0.002027
doubl,0.001606
dow,0.008470
drop,0.004777
dubiou,0.002796
durat,0.002066
dure,0.003340
eaf,0.008427
earli,0.000873
earliest,0.001460
easi,0.003547
easili,0.002992
easyetf,0.004725
eck,0.003560
econom,0.003823
economi,0.001192
educ,0.001112
efa,0.003960
effect,0.005091
efficaci,0.002399
effici,0.009573
efficiencybut,0.004725
effort,0.001209
elimin,0.001510
embed,0.002031
emerg,0.001119
emergingmarket,0.004213
emphasi,0.001584
employ,0.002317
enabl,0.001385
end,0.003820
energi,0.001222
engin,0.001258
enhanc,0.004853
ensur,0.001435
enter,0.003830
entir,0.001132
entiti,0.001482
entitl,0.001803
eonia,0.004575
equal,0.001189
equit,0.002604
equiti,0.015989
error,0.009965
estim,0.002458
et,0.003002
etf,0.925874
etfaustralian,0.004725
etfjohannesburg,0.004725
etflondon,0.004725
etfsaustralian,0.004725
etfslow,0.004725
etftoronto,0.004725
etp,0.004213
euro,0.004444
europ,0.002368
european,0.002175
europeanamerican,0.003960
everi,0.001093
everincreas,0.002951
everyon,0.002016
evid,0.002382
ex,0.002362
exactli,0.001711
exampl,0.010169
exceed,0.001834
exchang,0.041981
exchangetrad,0.052273
execut,0.001323
exempt,0.006811
exist,0.006948
exot,0.002326
expens,0.015600
exposur,0.011647
extend,0.001152
extern,0.000683
exu,0.004363
fact,0.001109
factor,0.002215
failur,0.001519
fall,0.002384
fame,0.002299
famou,0.001443
fashion,0.003676
faster,0.001822
favor,0.001442
featur,0.007087
fee,0.020444
ferri,0.002661
fewer,0.001852
file,0.001949
financ,0.001384
financi,0.008728
firm,0.003120
fix,0.001386
flash,0.004905
flat,0.001997
flexibl,0.003867
focus,0.001215
follow,0.002988
foreign,0.002431
formerli,0.001749
founder,0.001637
frankfurt,0.002581
franklin,0.002136
frequent,0.007878
frontend,0.003474
frontmonth,0.004363
frontrun,0.004725
fsb,0.003852
fulli,0.007040
fund,0.169995
fundament,0.001196
fundcom,0.004725
fundsinvestingcom,0.004725
fundsnasdaq,0.004725
fundsu,0.004725
furthermor,0.001600
futur,0.015926
futurecontract,0.004725
futuresbas,0.004575
fx,0.005404
fxe,0.004725
g,0.001263
gain,0.011363
gap,0.001818
gate,0.002261
gave,0.001359
gear,0.002370
gener,0.008725
genesi,0.002350
gerald,0.002422
gld,0.008304
global,0.012403
goe,0.005042
gold,0.016242
goldman,0.002759
good,0.001038
got,0.002107
govern,0.001776
grade,0.002178
grantor,0.019428
great,0.001052
greater,0.003529
greatest,0.001643
green,0.001606
grew,0.001560
group,0.003370
grow,0.001197
growth,0.002364
guggenheim,0.006648
guidelin,0.002071
ha,0.005605
hall,0.001772
hand,0.003471
happen,0.001476
harvest,0.002070
hazard,0.002133
hedg,0.002332
held,0.005521
help,0.002045
henc,0.001457
hidden,0.004113
high,0.003783
highcost,0.003710
higher,0.002220
histor,0.001049
histori,0.001555
hold,0.012375
holder,0.004246
holdr,0.018901
hors,0.002017
howev,0.008338
huge,0.001737
humphri,0.002974
hydrocarbon,0.002416
iboxx,0.004725
idea,0.001048
ident,0.001337
identifi,0.001129
iiicompli,0.004725
illiquid,0.003290
imf,0.004090
immedi,0.004119
impact,0.001280
implement,0.002600
impli,0.004356
import,0.001593
inadequ,0.002218
incent,0.001944
includ,0.005835
incom,0.001430
increas,0.004490
increasingli,0.001376
incur,0.002239
inde,0.001588
index,0.115736
india,0.001429
indic,0.018384
indirectli,0.002012
individu,0.002890
indo,0.004097
indonesia,0.002212
industri,0.005330
industryetf,0.004725
influenti,0.001502
inform,0.001857
inher,0.001789
initi,0.001014
inkind,0.003507
innov,0.001617
instanc,0.002529
instead,0.002188
institut,0.003953
instrument,0.001438
insuffici,0.002117
insul,0.002542
intend,0.001445
intern,0.001636
interv,0.005903
intraday,0.003686
introduc,0.006573
invers,0.019722
invesco,0.004725
invest,0.086440
investig,0.001308
investor,0.062280
involv,0.000905
invst,0.004725
ireland,0.001952
isbn,0.004416
ishar,0.051485
isnt,0.002534
issu,0.024054
issuer,0.005559
itau,0.004725
itnow,0.004725
iver,0.004458
iwm,0.004725
j,0.001172
jack,0.002208
januari,0.002665
jim,0.002468
john,0.002124
jointventur,0.003852
jone,0.004147
journal,0.003603
jse,0.003790
juli,0.001349
june,0.001360
junk,0.005721
just,0.002178
jw,0.003217
kind,0.002488
know,0.002830
knowledg,0.001174
known,0.003121
koesterich,0.004725
lack,0.003572
larg,0.005760
largecap,0.004002
largest,0.005159
later,0.002786
latest,0.002085
launch,0.012581
laureat,0.002418
lawrenc,0.002089
lawsuit,0.002578
lead,0.002795
led,0.001007
legisl,0.001429
lemk,0.003852
lend,0.002006
letf,0.004725
letter,0.001541
leverag,0.065072
liabl,0.002728
liberti,0.001982
lightli,0.003032
like,0.004170
limit,0.002860
lin,0.002934
line,0.002235
linearli,0.002779
link,0.000678
liquid,0.011716
list,0.002604
literatur,0.001395
littl,0.002390
live,0.001009
load,0.004285
local,0.001057
london,0.001314
long,0.004055
longer,0.001287
longterm,0.009859
look,0.001289
loss,0.010925
lost,0.001356
low,0.010770
lowcost,0.002827
lower,0.011537
lqd,0.004725
lse,0.009436
luxembourg,0.002654
lynch,0.011330
lyxor,0.009450
mainli,0.002592
maintain,0.003266
major,0.001656
make,0.000794
maker,0.002154
manag,0.040258
mani,0.009880
manipul,0.001671
manner,0.003013
march,0.001294
margin,0.003422
marginrul,0.004725
market,0.057270
marketplac,0.002468
match,0.001660
matthew,0.002264
mcguir,0.003474
mdi,0.004152
mean,0.004299
mechan,0.002306
meet,0.001263
mercantil,0.002468
merger,0.002262
merril,0.011924
metal,0.004875
method,0.000967
midcap,0.008095
million,0.002452
minim,0.001647
minimum,0.001703
mint,0.002556
miss,0.001969
money,0.008372
month,0.004138
monthli,0.002128
morgan,0.008866
morningstar,0.003735
movement,0.002153
msci,0.021843
msfxsm,0.004725
multipl,0.002401
multipli,0.004025
muni,0.003490
mutual,0.046115
nasdaq,0.009246
nathan,0.002788
nation,0.001730
natur,0.000833
nav,0.011130
necessarili,0.001528
need,0.005631
neg,0.006769
neglig,0.002323
net,0.026261
network,0.001305
new,0.002092
nich,0.007088
noaction,0.004152
nobel,0.001817
nocost,0.004725
nomura,0.003852
nonleverag,0.009150
nonsecur,0.003921
nontax,0.003640
nonuk,0.009450
nonzero,0.002564
nordicetfsveriges,0.004725
note,0.000900
notic,0.001772
novemb,0.002800
novic,0.003039
number,0.001562
nyse,0.044038
object,0.002134
oblig,0.001724
observ,0.003091
obtain,0.001213
occur,0.000992
offer,0.012771
offici,0.001185
offset,0.004540
oil,0.004675
omx,0.003885
onc,0.002333
onli,0.009343
onlin,0.001366
open,0.004275
openend,0.008924
opposit,0.001284
option,0.014663
order,0.010325
ordinari,0.001702
organ,0.001703
origin,0.000865
otherwis,0.001485
ounc,0.003171
overcom,0.001917
overwhelm,0.002093
ownership,0.003667
p,0.002383
paid,0.001591
pall,0.003762
palladium,0.003074
pariba,0.003735
parti,0.002413
particip,0.008622
particular,0.001954
particularli,0.001094
pass,0.001212
path,0.001583
payoff,0.002691
penni,0.002837
pension,0.004338
peopl,0.001721
percentag,0.008699
percentagepoint,0.004458
perform,0.008781
period,0.006494
permit,0.001590
person,0.001021
philadelphia,0.002374
physic,0.004086
pimco,0.004047
place,0.002649
plan,0.002364
platform,0.001912
platinum,0.002809
plc,0.003025
point,0.003622
poor,0.001543
popular,0.012287
portfolio,0.023625
portfoliosexchang,0.004725
pose,0.001901
posit,0.000925
possibl,0.000913
post,0.004545
potenti,0.005795
power,0.000916
powershar,0.009805
pplt,0.004363
practic,0.000957
preciou,0.004700
premier,0.004482
premium,0.006868
premiumdiscount,0.004725
prevail,0.001894
price,0.034462
primarili,0.001223
princip,0.001398
prior,0.001352
privat,0.001283
problem,0.003830
proce,0.002179
process,0.000846
produc,0.000931
product,0.013997
productsnew,0.004725
profession,0.001450
profit,0.006187
program,0.001126
prohibit,0.001826
prolifer,0.004408
pronounc,0.004325
properti,0.001084
propon,0.001876
proport,0.001480
proportion,0.002638
propos,0.006627
proprietari,0.002677
proshar,0.004363
prospectu,0.003443
protect,0.001193
protract,0.002751
prove,0.004145
provid,0.006355
provis,0.001743
proxi,0.002509
public,0.000901
publicli,0.007663
publish,0.000993
pull,0.002054
purchas,0.013704
purpos,0.002329
qqq,0.008095
qualiti,0.002668
question,0.001124
quickli,0.001457
quit,0.003026
rang,0.003224
rate,0.002219
ratio,0.014532
reach,0.001153
read,0.000986
real,0.001178
realiz,0.007938
realli,0.001826
realloc,0.003279
reason,0.003057
rebal,0.003762
rebalanc,0.010737
receipt,0.007345
receiv,0.002169
recess,0.002032
record,0.001196
redeem,0.016026
redempt,0.027282
reduc,0.003227
refer,0.003406
reflect,0.003660
regard,0.002178
region,0.002033
regist,0.001760
regul,0.012098
regular,0.001555
regulatori,0.005895
reindex,0.014175
reinvest,0.002788
rel,0.002036
relationship,0.001083
relev,0.001485
relief,0.002024
remain,0.000939
replic,0.014029
report,0.003274
repres,0.003725
reput,0.001975
requir,0.004469
reserv,0.001510
residu,0.002191
result,0.000790
retail,0.002053
retir,0.003864
return,0.019536
rev,0.002537
reveal,0.001493
revenu,0.001656
review,0.001272
revolution,0.002384
reward,0.001964
richard,0.001402
riley,0.003247
rise,0.003427
risk,0.011177
roll,0.006356
roughli,0.001592
rule,0.004146
run,0.003743
russ,0.003257
russel,0.005970
rydex,0.009450
s,0.000805
sach,0.002818
said,0.001166
sale,0.004962
sampl,0.005076
satisfi,0.003368
save,0.006450
scene,0.002045
schedul,0.001887
schwab,0.003762
screener,0.004047
scrutini,0.002581
seattl,0.002759
sebi,0.004283
sec,0.030398
second,0.000931
secondari,0.001616
secondlargest,0.002709
sector,0.010420
sectorspecif,0.004097
secur,0.041018
seek,0.002548
seen,0.003342
select,0.003704
selfinvest,0.004363
sell,0.020882
sensit,0.001828
separ,0.002074
seri,0.001131
servic,0.001106
set,0.000879
setup,0.002657
sever,0.004119
share,0.049792
shareclass,0.004725
sharehold,0.018369
shareholderrel,0.004725
sharp,0.001919
shield,0.002226
short,0.010896
shortliv,0.002231
shortterm,0.006192
signific,0.005044
silver,0.009879
similar,0.005661
simpl,0.002511
simpler,0.002107
simpli,0.002579
sinc,0.007902
singl,0.001057
site,0.003993
skew,0.002713
slv,0.008194
smallcap,0.012291
smile,0.002728
socal,0.003189
soft,0.002017
sold,0.015019
someon,0.007384
someth,0.001519
sometim,0.002057
sought,0.001539
sourc,0.000994
sp,0.014535
spdr,0.042136
specialis,0.002289
specialti,0.002244
specif,0.003782
specifi,0.001606
specul,0.001644
spi,0.005369
spider,0.005568
spike,0.002735
split,0.001624
spot,0.001978
spread,0.001396
spuriou,0.003046
stabil,0.002947
stabl,0.001555
standard,0.002128
stanley,0.006244
start,0.002000
state,0.009680
static,0.002021
statu,0.001319
stearn,0.006494
stem,0.001776
sterl,0.002625
steven,0.001991
stock,0.062510
stocklik,0.009450
stop,0.003122
stoploss,0.003820
store,0.001601
strategi,0.014721
strategist,0.003046
street,0.005409
strike,0.001757
strong,0.002296
structur,0.010156
studi,0.001670
style,0.003256
subject,0.004021
subsidiari,0.002389
substitut,0.001756
success,0.002096
suffer,0.001442
suffici,0.001461
superior,0.001759
suppli,0.001288
sure,0.002165
surfac,0.001430
surpass,0.002231
survey,0.001519
suscept,0.002278
swap,0.007230
symbol,0.001434
synthet,0.003919
t,0.001374
tailor,0.002613
target,0.004414
tax,0.019307
taxabl,0.002827
taxat,0.001942
taxdef,0.003640
taxeffici,0.004152
taxexempt,0.003217
techniqu,0.001214
technolog,0.002278
templeton,0.003686
temporarili,0.002178
tend,0.002595
term,0.001493
termin,0.001851
therebi,0.001635
therefor,0.001074
thestreetcom,0.004213
thi,0.013004
think,0.001370
thoma,0.001413
thousand,0.002787
threat,0.001657
thrive,0.002187
thu,0.000923
ticker,0.003348
tight,0.002412
time,0.004195
tini,0.002131
tip,0.002204
tool,0.001265
toolfre,0.004725
toronto,0.004910
total,0.006615
track,0.045461
tradabl,0.003189
trade,0.082309
trader,0.003890
tradit,0.005970
transact,0.006806
transfer,0.001352
transpar,0.022247
treasuri,0.004200
trend,0.001509
tri,0.001243
trillion,0.008810
tripl,0.002177
trojan,0.003198
trust,0.025913
tse,0.010680
tsx,0.004283
turbul,0.004901
turnov,0.005079
twice,0.001883
type,0.008551
typic,0.005301
ucit,0.008304
uk,0.007242
ukresid,0.004725
ul,0.003268
unchang,0.002107
underli,0.030015
undertak,0.002145
underwrit,0.002928
unhing,0.004213
unit,0.019129
unknown,0.001636
unlik,0.002632
unrecogn,0.003162
untest,0.003301
updat,0.003828
usa,0.001764
usbas,0.002987
usd,0.002368
use,0.016788
uso,0.004213
usual,0.001902
valu,0.026334
valuat,0.002186
van,0.001728
vanguard,0.037517
vari,0.002329
varianc,0.002372
varieti,0.001186
variou,0.001799
vector,0.001911
veri,0.004512
viper,0.003790
vix,0.003852
volatil,0.014718
volum,0.001353
vs,0.001908
vti,0.009450
vxf,0.004725
vxu,0.004725
w,0.001325
wa,0.011015
wall,0.001673
warn,0.001900
wast,0.001895
way,0.003379
weak,0.001569
web,0.011993
websit,0.001494
weekli,0.002344
weight,0.006371
went,0.001449
whenev,0.006671
wherea,0.001371
wide,0.002035
wider,0.001799
wiley,0.003867
william,0.001266
wisdomtre,0.004725
wish,0.006989
word,0.001096
work,0.000774
world,0.004006
worldwid,0.001603
worthwhil,0.002870
write,0.002471
written,0.003753
wrote,0.001346
x,0.018190
xetra,0.004283
xgbp,0.004725
xtracker,0.009450
xusd,0.004725
year,0.004785
yearli,0.002342
yield,0.006175
york,0.002434
yyy,0.009150
