access,0.011561
act,0.057300
action,0.010267
activ,0.016675
ad,0.010663
adequ,0.017529
administr,0.023366
adopt,0.023062
agenc,0.039435
aim,0.023863
amf,0.031389
ana,0.027243
andrew,0.016970
ani,0.007364
anticompetit,0.031269
apart,0.015312
appropri,0.013394
apra,0.038116
argu,0.011115
asic,0.033479
assess,0.028465
asset,0.015447
associ,0.016325
ati,0.036483
australia,0.014524
australian,0.034756
author,0.178755
autorit,0.037653
avail,0.010214
bafin,0.040595
bank,0.265845
basel,0.051799
becaus,0.007584
becom,0.008065
bert,0.030711
blur,0.023460
board,0.029070
boe,0.027192
borrow,0.016722
boundari,0.014066
bureau,0.019057
busi,0.022715
capit,0.010974
captur,0.013855
carmen,0.029109
carri,0.010878
carvaj,0.038627
case,0.033749
cbrc,0.042562
center,0.021525
centr,0.027750
central,0.028378
centuri,0.008665
certain,0.009236
cfpb,0.039847
cftc,0.034290
chang,0.007607
china,0.051859
cincinnati,0.029933
circ,0.031269
colleg,0.014649
combin,0.009623
commiss,0.120924
committe,0.014479
commod,0.049140
compani,0.053284
complet,0.009321
compli,0.022251
complianc,0.043323
comptrol,0.057488
concis,0.020556
conduct,0.023135
confid,0.034529
connect,0.011112
consensusbas,0.037653
consist,0.009033
consum,0.040317
contribut,0.009906
corpor,0.066210
cost,0.011866
costbenefit,0.027966
council,0.012306
countri,0.026646
crd,0.039847
credit,0.052244
crime,0.033491
csrc,0.038627
currenc,0.044370
d,0.010926
david,0.011989
deal,0.010873
decad,0.012268
decisionmak,0.019455
decreas,0.013291
degre,0.011053
demand,0.012049
deposit,0.031958
design,0.009913
deskbook,0.041479
develop,0.006750
differ,0.007155
direct,0.017925
director,0.016228
disclosur,0.024284
disrupt,0.017391
dissolv,0.016763
dogmat,0.025276
duopolist,0.037653
eba,0.037653
econom,0.026677
ed,0.022751
effect,0.007894
effici,0.025446
eiopa,0.041479
eli,0.025822
elliott,0.026847
empow,0.022881
encyclopedia,0.013994
enforc,0.030468
england,0.014100
enhanc,0.015050
ensur,0.066749
esma,0.038116
essenc,0.018355
essenti,0.011295
establish,0.008672
eubas,0.040595
european,0.121452
eurozon,0.026800
exampl,0.014555
exchang,0.057433
execut,0.012309
extent,0.013370
extern,0.006353
fca,0.033670
fdic,0.031768
fed,0.021744
feder,0.064688
financ,0.025751
financi,0.510417
finma,0.042562
finra,0.067340
folli,0.030116
follow,0.006950
forc,0.008709
foreign,0.011311
form,0.013283
forum,0.017846
forward,0.015424
franc,0.024878
frictionless,0.032037
fsa,0.033670
function,0.008896
futur,0.021166
g,0.011754
gap,0.016914
gaug,0.021485
geograph,0.014131
germani,0.013083
global,0.034617
govern,0.041314
group,0.007837
guidelin,0.019272
ha,0.011587
halsey,0.036843
handl,0.015800
henderson,0.024368
heyman,0.077255
hoc,0.024312
icfr,0.042562
ii,0.011371
imf,0.019028
importantli,0.019911
increas,0.008355
increasingli,0.012809
indianapoli,0.025242
industri,0.039671
influenc,0.009570
inform,0.025915
institut,0.045973
insur,0.150765
integr,0.010485
intern,0.045685
invest,0.037114
investor,0.016553
iosco,0.075307
isbn,0.020543
issu,0.009323
japan,0.014368
jennif,0.026307
joint,0.015299
jonathan,0.020315
jurisdict,0.035270
kingdom,0.011557
klump,0.043958
labex,0.043958
laboratori,0.014742
law,0.043756
lawyer,0.021077
lay,0.016347
leaf,0.023556
legal,0.011987
level,0.017373
liberti,0.018439
librari,0.013647
link,0.006316
list,0.064619
london,0.012231
lot,0.017891
ma,0.018347
mainli,0.012058
maintain,0.020257
major,0.007706
make,0.007386
manag,0.020806
manner,0.014018
march,0.012045
market,0.152222
mathunzi,0.043958
mechan,0.010726
meek,0.034516
monetari,0.015571
money,0.012981
monitor,0.047124
moodi,0.027295
nation,0.024146
ncua,0.039199
nd,0.013514
nongovern,0.061010
normal,0.011577
notif,0.058371
object,0.029788
observ,0.009586
occ,0.032785
occup,0.015135
oclc,0.020920
offic,0.046766
oper,0.009163
organ,0.031691
ot,0.031512
p,0.022176
particip,0.034376
past,0.011522
pdfdatei,0.041479
pension,0.060542
peopl,0.008008
place,0.008214
pleas,0.021999
point,0.008425
polici,0.010749
possibl,0.008495
pr,0.024663
pra,0.032785
prelud,0.028026
prevent,0.011907
price,0.012330
princeton,0.018389
principl,0.009998
privat,0.011942
process,0.015748
product,0.008681
promin,0.013061
proper,0.014943
protect,0.044404
provid,0.007390
prudenti,0.064646
public,0.008388
publish,0.018489
purpos,0.010834
push,0.015839
r,0.011145
rate,0.010321
read,0.009174
recommend,0.015571
reduc,0.010007
reduct,0.015199
refer,0.005282
refi,0.043958
regul,0.387675
regular,0.014471
regulatori,0.237666
reinhart,0.034290
reli,0.012728
relianc,0.021179
report,0.010152
repress,0.019922
republ,0.012397
requir,0.033263
research,0.008569
reserv,0.028098
resourc,0.010694
respons,0.009162
restrict,0.012243
risk,0.025995
rogoff,0.068149
ronni,0.063025
rule,0.019285
samuel,0.037557
sec,0.025708
sector,0.027698
secur,0.157123
seiten,0.043958
servic,0.041168
set,0.008182
settlement,0.015415
setup,0.024724
sharehold,0.021360
short,0.011263
significantli,0.013557
simpson,0.024632
sinc,0.007351
singapor,0.038745
singl,0.009838
smooth,0.019496
solvenc,0.032323
sometim,0.009570
sp,0.022536
specif,0.008796
stabil,0.041131
standard,0.019803
state,0.019297
stock,0.014183
strengthen,0.016628
strong,0.010682
structur,0.034358
studi,0.007769
subject,0.009352
sup,0.031512
supervis,0.228520
supervisor,0.025670
supervisori,0.082527
swiss,0.020977
switzerland,0.018842
taxpay,0.024543
thi,0.010997
thinktank,0.031900
thirti,0.019821
thrift,0.057211
thu,0.017187
time,0.006504
trade,0.063809
transpos,0.027295
u,0.017153
ultim,0.012715
union,0.054622
uniqu,0.012535
unit,0.022245
univers,0.007614
unwelcom,0.032472
usa,0.016413
use,0.012014
usual,0.008847
varieti,0.011038
variou,0.025107
vehicl,0.016692
virtual,0.014539
wherea,0.012757
world,0.007453
wpc,0.035835
