abl,0.013544
accord,0.042890
act,0.012255
activ,0.010699
adopt,0.014797
advantag,0.083222
advis,0.021674
agent,0.018282
altern,0.027557
asset,0.059469
associ,0.010474
attent,0.017485
auto,0.032615
avers,0.031163
bank,0.139562
benefit,0.015690
bibliographi,0.018804
borrow,0.214590
bring,0.016073
broker,0.028391
build,0.013682
busi,0.014575
capit,0.014083
card,0.024604
carri,0.013959
categori,0.016523
certain,0.011852
channel,0.042752
classic,0.014307
client,0.024939
climat,0.036981
collect,0.025265
compani,0.041027
concentr,0.016949
concern,0.012159
conflict,0.048394
consolid,0.022741
context,0.030472
conveni,0.023125
convert,0.017655
cooper,0.016554
cost,0.060911
creation,0.015765
credit,0.050283
creditor,0.030229
deal,0.013953
debt,0.040169
decreas,0.017056
demand,0.015463
denomin,0.025805
deposit,0.061517
desir,0.016301
develop,0.017324
development,0.024382
differ,0.027546
direct,0.011501
directli,0.041750
disadvantag,0.051369
disintermedi,0.045253
domin,0.014252
econom,0.068470
economi,0.042723
economist,0.019577
educ,0.013284
effici,0.032655
elimin,0.018033
enabl,0.016537
enhanc,0.019314
enjoy,0.019852
environment,0.016764
equiti,0.023860
essenti,0.014495
exchang,0.014740
exist,0.020738
explain,0.014037
extra,0.023882
facilit,0.018799
failur,0.054430
financ,0.099140
financi,0.446596
follow,0.017839
form,0.008523
function,0.022832
fund,0.184492
fundament,0.014279
gener,0.008012
global,0.014807
help,0.012207
heterodox,0.032707
home,0.015922
hypothesi,0.019422
impact,0.015281
inadequ,0.026480
includ,0.015480
increasingli,0.016438
indirectli,0.024029
individu,0.011501
inform,0.011085
input,0.020201
institut,0.106193
instrument,0.017169
insur,0.042994
intermedi,0.021914
intermediari,0.650896
intern,0.009771
introduct,0.014781
invest,0.079379
keith,0.028054
known,0.009316
lack,0.014214
larg,0.029474
leas,0.028142
lend,0.095799
lender,0.180820
lendingborrow,0.053229
liabil,0.078594
line,0.013341
link,0.008105
loan,0.108139
long,0.012103
macmillan,0.050929
mainstream,0.045243
major,0.009889
make,0.009479
market,0.097671
match,0.019823
matur,0.021690
meant,0.038237
microcredit,0.045609
middleman,0.045609
monetari,0.039964
money,0.066634
mortgag,0.027531
multipl,0.014336
mutual,0.019662
need,0.033616
neoclass,0.028209
new,0.008326
note,0.010746
number,0.009325
offer,0.041582
onli,0.008580
oper,0.023518
ostens,0.030198
output,0.019455
overal,0.017060
palgrav,0.027673
parti,0.014404
pension,0.051795
peopl,0.010276
perform,0.026207
person,0.012197
pilbeam,0.050303
prefer,0.016367
premium,0.027333
press,0.012579
prevent,0.015281
privat,0.030652
problem,0.011431
process,0.010104
produc,0.011121
product,0.011140
profit,0.018467
project,0.013225
protect,0.014245
proven,0.022576
provid,0.028450
qualifi,0.022477
rais,0.015765
reconcil,0.079956
reduc,0.025684
refer,0.013557
rel,0.012154
relat,0.009140
risk,0.083398
riskfre,0.034765
riski,0.028747
save,0.077000
saver,0.080255
scale,0.015343
scheme,0.020402
scope,0.019928
sector,0.035544
serv,0.013493
servic,0.039622
shortag,0.024617
shortterm,0.024642
simpli,0.030788
small,0.034633
social,0.012001
societi,0.023640
specialist,0.023408
spender,0.046389
spread,0.016676
steven,0.023771
stock,0.018201
summari,0.022704
suppos,0.020730
surplu,0.049643
term,0.008914
thi,0.014113
togeth,0.013009
transact,0.020313
transform,0.046329
transformationconvert,0.056410
transpar,0.024144
type,0.011342
typic,0.025313
union,0.014019
use,0.038543
valdez,0.041113
variou,0.010740
ventur,0.024847
view,0.024183
want,0.034835
york,0.014530
