accept,0.014248
accompani,0.010970
accord,0.005674
account,0.133668
accrual,0.021400
accuraci,0.024613
acquisit,0.012269
activ,0.022648
actual,0.014525
ad,0.007241
addit,0.005740
address,0.008545
addresse,0.025020
adopt,0.007830
advent,0.012409
affect,0.007415
africa,0.009215
agreement,0.008661
aid,0.017025
alexand,0.010872
allow,0.005643
analys,0.011094
analysi,0.054724
analyst,0.012877
ani,0.005001
annual,0.078453
anyon,0.012371
appli,0.006066
assembl,0.008858
assess,0.019331
asset,0.073432
attempt,0.012945
attract,0.009130
audit,0.153718
auditor,0.096009
australia,0.009863
author,0.006389
awar,0.010266
balanc,0.026943
bank,0.024618
bargain,0.015371
basi,0.014136
basic,0.006883
becam,0.006254
becom,0.005477
blue,0.012196
board,0.039484
bodi,0.006866
book,0.006503
brief,0.010844
britton,0.023440
brochur,0.021950
busi,0.077133
buy,0.010824
buyback,0.023287
canada,0.019630
capit,0.014906
captur,0.009409
caq,0.025020
care,0.008609
case,0.011459
cash,0.045814
caus,0.006116
cba,0.025020
center,0.007309
ceo,0.016360
cfo,0.022264
chang,0.020666
charg,0.008843
chart,0.026108
chief,0.028629
chip,0.015385
clarifi,0.013821
coffe,0.014304
collect,0.020056
combin,0.006535
commiss,0.009124
commit,0.009606
common,0.011083
commonli,0.015222
commun,0.005993
compani,0.159217
compar,0.013557
comparison,0.009610
compens,0.011584
complet,0.012660
complex,0.006706
comprehens,0.030287
comput,0.015189
concern,0.012869
condit,0.012826
consid,0.010690
consider,0.007702
consist,0.006134
consolid,0.060173
contain,0.013150
contextu,0.016811
conting,0.013312
continu,0.011107
control,0.006089
converg,0.012074
corpor,0.044964
cost,0.008058
countri,0.024127
creat,0.028032
criteria,0.011478
cultur,0.006891
current,0.005867
d,0.007420
debat,0.008533
debentur,0.022612
debt,0.031886
decid,0.017865
decis,0.023183
defin,0.006290
describ,0.022566
descript,0.008378
determin,0.012730
develop,0.009168
differ,0.038873
difficult,0.007994
dilig,0.018364
directli,0.007364
disclos,0.016013
disclosur,0.016491
discourag,0.013838
discuss,0.037394
domest,0.009497
drawback,0.017837
driven,0.010670
dure,0.010552
duti,0.010907
earn,0.010372
easi,0.011207
econom,0.024156
edit,0.008637
effect,0.016082
electron,0.036937
employe,0.011562
end,0.006033
ensur,0.009066
enterpris,0.031161
entic,0.019520
entiti,0.046815
equiti,0.075760
era,0.008718
especi,0.006407
estim,0.023296
european,0.013746
event,0.007181
everi,0.006905
exampl,0.009884
exchang,0.015601
excit,0.013453
execut,0.016718
exist,0.005487
expans,0.009310
expenditur,0.012201
expens,0.068990
explain,0.022286
explan,0.009713
extend,0.007278
extens,0.014903
extern,0.008630
eye,0.011031
factor,0.006996
fair,0.044706
figur,0.008172
financ,0.034976
financi,0.559333
fine,0.011797
firm,0.009855
fix,0.008758
flow,0.034760
footnot,0.014710
form,0.022552
formal,0.007383
format,0.016096
foundat,0.007694
framework,0.008454
fresh,0.013254
fundament,0.007556
fundrais,0.020092
futur,0.014374
gaap,0.066156
gener,0.008480
given,0.005918
global,0.007836
gone,0.013094
good,0.006560
googobitscom,0.029852
govern,0.011222
grant,0.009046
graphic,0.012692
great,0.006650
group,0.010645
growth,0.007469
guidelin,0.026175
ha,0.031477
held,0.013953
help,0.012920
highlight,0.012150
html,0.019380
human,0.005685
hundr,0.008965
iasb,0.048273
ifr,0.044104
impair,0.061325
implic,0.010281
import,0.010065
includ,0.028673
inclus,0.012155
incom,0.072305
incur,0.014150
independ,0.006060
indic,0.007259
individu,0.018259
inflat,0.011112
influenc,0.006499
inform,0.082129
infrequ,0.017808
institut,0.006244
integr,0.014241
intend,0.009134
intern,0.046538
internet,0.009680
invest,0.050409
investopediacom,0.025885
investor,0.078692
isbn,0.006975
issu,0.006331
item,0.043296
jorissen,0.028169
june,0.008596
key,0.007508
kingdom,0.007848
knowledg,0.007421
known,0.009860
labor,0.009687
languag,0.014830
larg,0.005199
law,0.011886
lawsuit,0.016288
legal,0.032562
lend,0.012674
letter,0.009738
liabil,0.110912
liabl,0.051708
librari,0.018536
line,0.007060
lineitem,0.028169
link,0.004289
liquid,0.010574
list,0.010970
loan,0.034336
longterm,0.010381
loss,0.025884
mail,0.015454
make,0.030097
mako,0.024776
manag,0.070648
mandat,0.012290
mani,0.013375
manner,0.009520
market,0.029535
materi,0.006912
mda,0.094404
measur,0.006460
merger,0.014294
messag,0.024517
method,0.012218
model,0.006144
narr,0.012981
natur,0.005266
need,0.005929
neg,0.008553
new,0.008812
nonprofit,0.014226
note,0.073934
nowaday,0.014928
number,0.004934
object,0.006743
ocboa,0.028904
offic,0.023819
onli,0.009081
oper,0.024891
opinion,0.020968
order,0.005435
organ,0.026902
overview,0.009883
owe,0.012005
owner,0.022315
ownership,0.011584
paper,0.016278
parent,0.022218
parliament,0.009948
parti,0.007622
particular,0.006174
particularli,0.006917
partner,0.010783
past,0.015650
pdf,0.022833
perform,0.034672
period,0.017583
person,0.058091
photo,0.015265
pl,0.018044
pleas,0.014940
point,0.005721
popular,0.007057
posit,0.040922
postenron,0.028904
potenti,0.014646
preced,0.010716
prepar,0.045869
present,0.022623
previous,0.008623
primari,0.007466
principl,0.020369
prior,0.008543
privat,0.008110
produc,0.005885
profession,0.009165
profit,0.029318
profitori,0.024776
promot,0.008068
prospect,0.024040
prospectu,0.021757
provid,0.045167
public,0.017089
publicli,0.012104
purpos,0.029430
push,0.010756
qualif,0.014373
qualiti,0.008427
quot,0.011834
rafa,0.024776
rang,0.006789
rank,0.009550
read,0.018691
readabl,0.018330
reader,0.012232
reason,0.012876
recent,0.012424
record,0.015123
refer,0.010761
regul,0.025478
relat,0.004836
relev,0.018765
reli,0.008644
reliabl,0.010726
report,0.199952
requir,0.028236
resourc,0.007262
respect,0.006822
respons,0.006222
restrict,0.008314
restructur,0.014169
result,0.019988
retain,0.009433
retriev,0.010657
reus,0.016453
revenu,0.010465
risk,0.008826
rule,0.019645
sale,0.010450
scope,0.010546
second,0.005887
section,0.008888
secur,0.015243
seen,0.007038
sens,0.007381
separ,0.006553
set,0.022228
share,0.013981
sharehold,0.072531
sheet,0.025949
signific,0.012746
sinc,0.004992
singl,0.013362
sort,0.010471
sourc,0.006280
south,0.007818
specif,0.005973
standard,0.067244
state,0.026210
statement,0.568263
stockhold,0.019289
structur,0.011666
studi,0.005276
style,0.010287
submiss,0.015806
subsidiari,0.045296
substanti,0.027804
summar,0.012716
suppli,0.008139
support,0.005936
tabl,0.009608
tax,0.009382
taxat,0.012274
tend,0.016397
thi,0.003734
thought,0.007075
thu,0.005836
time,0.017669
trade,0.007222
trend,0.009536
type,0.006002
typic,0.026792
uk,0.009151
unbias,0.017562
uncefact,0.084507
uncertainti,0.011618
underli,0.009481
understand,0.027107
uniform,0.011575
union,0.014837
unit,0.020142
unlimit,0.014940
unqualifi,0.021078
unusu,0.012104
use,0.065271
user,0.022151
usual,0.024032
valuat,0.027625
variou,0.005683
viabil,0.017028
voluntarili,0.016182
wa,0.012280
way,0.005338
web,0.021648
went,0.009157
wide,0.006430
work,0.004894
world,0.005061
worth,0.011304
write,0.007806
xbrl,0.057808
xml,0.020267
year,0.015115
