abil,0.007436
abov,0.006919
absolut,0.018335
ac,0.014719
acca,0.023831
accept,0.013571
accord,0.010809
account,0.477438
activ,0.005393
actual,0.006917
ad,0.013795
adjust,0.010345
advanc,0.006675
affair,0.008937
agenc,0.008502
aim,0.038590
alexand,0.010355
alway,0.007268
analysi,0.019546
analyst,0.012265
ani,0.004763
anoth,0.005198
anxiou,0.017656
appli,0.011556
ascertain,0.046698
aspect,0.007103
asset,0.129894
associ,0.005279
assum,0.014975
assumpt,0.027625
avail,0.006606
balanc,0.196750
bank,0.015632
base,0.018838
basi,0.020196
basic,0.032782
becom,0.010434
begin,0.019064
bia,0.012427
board,0.018804
bond,0.018617
bookkeep,0.017865
borrow,0.010816
bought,0.049812
britton,0.022326
build,0.006896
busi,0.117548
businessman,0.016727
buy,0.010309
ca,0.011987
capit,0.035494
case,0.005457
cash,0.207280
caus,0.005825
certain,0.005974
certifi,0.028483
chang,0.004921
characterist,0.007523
charter,0.023484
classif,0.019263
classifi,0.008829
clearli,0.009814
close,0.017522
clutter,0.022040
collect,0.006367
come,0.006243
common,0.015835
commun,0.005708
compani,0.048252
compar,0.019370
compet,0.009000
compli,0.014393
compon,0.007518
comput,0.014467
concept,0.006092
concern,0.012258
conclus,0.009727
concret,0.011960
consid,0.015274
consist,0.011686
constant,0.043396
consum,0.008692
consumpt,0.010182
control,0.011600
convent,0.008453
copyright,0.015430
corpor,0.017131
cost,0.099783
countri,0.005745
cover,0.007187
cpa,0.020304
cpi,0.038385
cppa,0.028434
cr,0.102267
credit,0.076036
creditor,0.030474
currenc,0.009566
current,0.027945
d,0.007067
daili,0.040842
date,0.021889
daytoday,0.014897
debit,0.127176
debt,0.010123
decis,0.058885
decisionmak,0.037753
decisionspecif,0.028434
decreas,0.017194
definit,0.006903
deflat,0.016032
depend,0.005760
deriv,0.006638
design,0.006412
determin,0.012125
didnt,0.014345
differ,0.018512
display,0.009922
divid,0.006922
dividend,0.028065
divis,0.007566
dollar,0.010201
doubleentri,0.021207
dr,0.032495
dure,0.020102
earn,0.069155
easili,0.009004
econom,0.005752
economi,0.007178
edit,0.008226
ellen,0.064049
employe,0.022026
end,0.011493
ensur,0.008635
enterpris,0.019787
entiti,0.044591
equal,0.007157
equat,0.008741
equip,0.009397
equiti,0.072160
error,0.009994
european,0.006546
evalu,0.018214
event,0.006840
exampl,0.023536
exceed,0.011037
exchang,0.007430
exist,0.005226
expenditur,0.011621
expens,0.056324
express,0.006810
extern,0.004109
facilit,0.009475
factori,0.011500
fair,0.021291
fall,0.007174
field,0.011479
figur,0.007784
financi,0.427705
firm,0.046937
fix,0.008342
flow,0.057940
follow,0.017984
form,0.012888
format,0.007665
fr,0.013877
framework,0.008052
free,0.006419
function,0.005754
gaap,0.021004
gener,0.020193
given,0.016911
global,0.007463
good,0.012497
goodwil,0.017523
govern,0.016034
graphic,0.012089
guidelin,0.012465
ha,0.007495
hand,0.006964
hca,0.024985
health,0.007835
help,0.030765
high,0.005691
highli,0.007399
histor,0.018940
howev,0.004561
hyperinfl,0.017129
hyperinflationari,0.026258
ia,0.017556
iasb,0.045979
ifr,0.126026
ignor,0.009749
implement,0.007825
import,0.009587
includ,0.007803
incom,0.043043
increas,0.032428
inde,0.009556
indic,0.006914
inflat,0.010584
inflationindex,0.023831
inflow,0.046191
influenc,0.012381
inform,0.072639
input,0.010182
insur,0.010835
intang,0.016509
intern,0.049252
interpret,0.007498
inventori,0.029231
invest,0.008002
investig,0.007875
investor,0.021415
involv,0.016345
isbn,0.006644
isnt,0.015252
issu,0.018093
item,0.030929
job,0.009705
jorissen,0.026830
june,0.024565
jurisdict,0.022814
kept,0.010126
know,0.042577
languag,0.007062
later,0.005588
left,0.014980
lender,0.015190
liabil,0.171668
like,0.015056
liquid,0.010072
local,0.006364
logic,0.009094
long,0.012201
longrun,0.015300
look,0.015516
loss,0.090401
low,0.007201
machineri,0.011587
main,0.011896
mainli,0.007800
mainten,0.033815
make,0.023889
manag,0.060562
manageri,0.015284
mani,0.004246
manner,0.009067
market,0.007033
materi,0.013168
math,0.014564
mean,0.005174
meaning,0.012211
measur,0.043077
meet,0.022806
merchandis,0.016114
misstat,0.022180
monetari,0.040288
money,0.025190
month,0.041505
mortgag,0.013877
nation,0.010412
need,0.011296
neg,0.024442
net,0.009876
nomin,0.009806
nonmonetari,0.018979
normal,0.022467
note,0.005417
number,0.009400
object,0.032113
offer,0.006986
omiss,0.018128
onli,0.017299
open,0.019296
oper,0.005927
opposit,0.015461
order,0.005177
organ,0.025624
origin,0.010413
outflow,0.050806
output,0.009806
outsid,0.014334
owe,0.045739
owner,0.063765
ownership,0.022067
paid,0.028739
pair,0.010012
parti,0.007260
particular,0.023523
partnership,0.011825
passion,0.014108
patent,0.012537
payabl,0.117628
peopl,0.010360
perfectli,0.013053
perform,0.013210
period,0.027913
person,0.006147
pertain,0.012992
philosophi,0.007999
physic,0.006147
plan,0.014230
point,0.010900
polici,0.006952
portion,0.009441
posit,0.066818
possibl,0.010990
potenti,0.006975
power,0.027567
prepaid,0.020723
prepar,0.113592
present,0.010774
preval,0.011862
price,0.007975
principl,0.032336
prior,0.008137
process,0.005093
produc,0.028028
product,0.005615
productionservic,0.056868
profession,0.008730
profit,0.111702
profitloss,0.026258
properti,0.006523
proprietorship,0.020226
prove,0.008314
provid,0.019120
public,0.021703
purchas,0.045816
purpos,0.028032
qualif,0.027380
qualiti,0.008027
question,0.006765
ration,0.027855
read,0.005934
real,0.014183
rearrang,0.014641
receiv,0.026112
record,0.036011
reduct,0.009831
refer,0.006833
regard,0.006555
regulatori,0.011825
relat,0.004607
relev,0.044685
reli,0.008233
reliabl,0.020434
remedi,0.013514
remun,0.024655
repair,0.012164
report,0.105076
repres,0.005605
requir,0.016136
resel,0.019192
resourc,0.006917
respect,0.006498
result,0.028557
retain,0.044928
reveal,0.008987
revenu,0.049842
right,0.012263
rule,0.006237
run,0.022526
said,0.007020
salari,0.025277
sale,0.009953
scene,0.012308
scientif,0.006875
second,0.016823
secur,0.007259
septemb,0.016480
serv,0.006801
servic,0.013314
set,0.005293
setter,0.022326
shall,0.012472
sharehold,0.013817
sheet,0.098864
shoe,0.015781
short,0.007285
shown,0.008240
sign,0.007829
signific,0.006070
simpli,0.007759
sold,0.050210
sole,0.009652
solvenc,0.041815
sometim,0.006190
ssap,0.028434
stabl,0.046792
stakehold,0.061136
standard,0.083264
start,0.006019
state,0.012482
statement,0.296821
statu,0.007942
step,0.008063
stock,0.027523
stockhold,0.018373
store,0.009634
subtract,0.014628
suffici,0.008791
summar,0.024224
summari,0.022888
suppli,0.007752
supplier,0.013390
synonym,0.011867
systemat,0.018170
tabl,0.073215
taken,0.006962
tax,0.008937
templat,0.015671
term,0.035947
theyd,0.047663
thi,0.021341
thing,0.007566
thu,0.011117
time,0.016829
tom,0.013045
topic,0.007545
total,0.013270
trade,0.006879
trademark,0.016702
transact,0.081913
trend,0.009083
trial,0.021702
true,0.015399
type,0.034303
typic,0.012759
understand,0.006454
understood,0.008924
unit,0.052760
unless,0.010656
updat,0.011519
use,0.034970
user,0.021098
usual,0.011445
valu,0.024379
variou,0.005413
veri,0.005430
versa,0.013496
versu,0.011100
vice,0.011009
view,0.012189
wa,0.007798
widespread,0.009136
wikit,0.113736
word,0.006601
work,0.004661
year,0.009598
