access,0.015753
accord,0.011385
account,0.026819
act,0.013012
activ,0.011360
addit,0.011518
advantag,0.017673
advertis,0.026753
advisori,0.027991
aid,0.034161
alway,0.015310
analog,0.020344
ani,0.020068
announc,0.038239
anoth,0.010950
arbitrag,0.139912
attent,0.018566
august,0.017301
author,0.025638
authoris,0.067545
avoid,0.034012
bank,0.032930
bankrupt,0.034488
base,0.009920
beat,0.028879
becam,0.012548
becaus,0.010334
best,0.015131
bidask,0.096856
board,0.019805
boiler,0.041164
bought,0.026232
broker,0.030145
brokerag,0.035562
bucket,0.037710
buri,0.027146
capit,0.014954
captur,0.018879
case,0.022993
cftc,0.140170
christoph,0.024097
churn,0.045369
cif,0.099423
claim,0.013957
clear,0.017114
client,0.026481
cline,0.042938
commiss,0.128154
commod,0.089277
common,0.011119
compani,0.101645
companiesfirm,0.059896
compar,0.013601
complaint,0.030472
conceit,0.043653
conduct,0.015761
contract,0.036896
convict,0.026652
convinc,0.024481
copi,0.022171
cost,0.048506
countri,0.012102
currenc,0.040305
current,0.023547
custom,0.130171
cypru,0.122618
cysec,0.160235
data,0.014677
day,0.027755
deal,0.014815
dealer,0.067976
decis,0.015505
definit,0.014541
defraud,0.090258
devot,0.021738
directli,0.014776
disadvantag,0.027272
doe,0.012443
domain,0.017961
draw,0.018852
drawn,0.021704
dunn,0.037865
earli,0.011074
earn,0.020811
ehrman,0.051936
elderli,0.031007
encourag,0.018198
erxleben,0.052633
essenti,0.015391
exchang,0.203469
execut,0.016772
expect,0.015212
experienc,0.019877
expert,0.021870
extern,0.008657
extrem,0.015882
fair,0.044850
fals,0.022455
fca,0.275270
financi,0.031612
fine,0.047340
finit,0.022898
firm,0.079099
follow,0.009470
forc,0.011866
foreign,0.169538
forex,0.255646
form,0.009049
fraud,0.327265
fraudscam,0.059896
fulltim,0.031530
fund,0.016324
fungibl,0.041846
futur,0.086521
gain,0.028808
gambler,0.126422
game,0.101584
gener,0.017015
given,0.011874
good,0.026326
govern,0.011258
grow,0.015181
guid,0.066959
ha,0.023683
hedg,0.029560
high,0.047953
highcapit,0.059896
higher,0.014075
highyield,0.042448
howev,0.009608
hunter,0.030000
improp,0.034927
improperli,0.040090
includ,0.024656
increas,0.056925
indic,0.014564
individu,0.012212
industri,0.013513
inexperienc,0.038977
inform,0.047082
instead,0.013867
intervent,0.021482
invest,0.117998
involv,0.011477
island,0.017548
issu,0.012704
januari,0.016896
joel,0.034583
kept,0.021332
kingdom,0.015747
lack,0.015093
larg,0.031295
larger,0.015624
leverag,0.152748
levi,0.027817
licens,0.023569
limit,0.012088
link,0.008606
list,0.099055
loos,0.024607
lose,0.041634
lost,0.034400
low,0.030338
lower,0.014625
make,0.040259
maker,0.054607
manag,0.028350
mani,0.017891
map,0.018106
margin,0.043381
market,0.148153
mean,0.021800
michael,0.018214
million,0.031091
money,0.017687
n,0.017774
negativesum,0.059896
net,0.020805
new,0.017681
news,0.043205
nonbank,0.040786
nonriv,0.050731
normal,0.031551
note,0.011411
number,0.019802
obtain,0.030767
odd,0.027921
offer,0.029434
offexchang,0.050731
offic,0.015930
offici,0.015025
onlin,0.017322
open,0.027099
outright,0.030654
past,0.015700
pay,0.018477
peopl,0.010912
player,0.051804
ponzi,0.049255
pool,0.025915
posit,0.023459
possibl,0.011575
practic,0.012142
price,0.016801
probabl,0.016285
problem,0.012137
process,0.010729
profession,0.036779
profit,0.078434
program,0.014276
propos,0.014002
prosecut,0.030681
provid,0.010069
pseudodeal,0.059896
public,0.034289
publish,0.012596
purpos,0.014762
receiv,0.013751
record,0.015171
refer,0.014395
regard,0.013809
regardless,0.021759
regist,0.022319
regul,0.085199
regulatori,0.024910
report,0.013834
resettl,0.034256
result,0.010026
retail,0.182226
return,0.029134
revoc,0.042938
risk,0.035420
rival,0.023781
room,0.023347
ruin,0.057243
rule,0.013138
run,0.015817
russel,0.050457
scam,0.117498
scammer,0.057994
scandal,0.030395
scheme,0.043326
sec,0.070058
secur,0.015292
select,0.015651
sell,0.020361
set,0.011149
shop,0.026857
signific,0.012787
size,0.015599
softwar,0.021223
solicit,0.036082
sourc,0.012600
special,0.012528
spot,0.025079
spread,0.035413
state,0.008764
subject,0.012743
subtract,0.030815
success,0.013284
sum,0.019982
support,0.011910
suppos,0.022011
target,0.018651
task,0.018583
techniqu,0.015394
tend,0.016449
themselv,0.014858
thi,0.022477
thu,0.011709
time,0.008863
tool,0.016040
total,0.013976
trade,0.202872
trader,0.246603
transact,0.043137
transpar,0.051273
treasur,0.093191
type,0.012043
undercapit,0.051306
unit,0.020207
unrespons,0.045878
unscrupul,0.043110
unsophist,0.043467
unusu,0.024286
use,0.016370
variat,0.018777
veteran,0.030497
volum,0.017159
vulner,0.025477
wa,0.008213
ward,0.030654
warn,0.096351
websit,0.037883
wellcapit,0.050731
whatev,0.024660
whistleblow,0.046148
win,0.022524
wincapita,0.059896
work,0.009820
worth,0.022681
zero,0.021066
zerosum,0.041429
