abl,0.004546
accord,0.003598
account,0.004238
acquir,0.005862
act,0.152197
activ,0.046686
addit,0.003641
adjourn,0.014676
advantag,0.005586
advent,0.007870
affect,0.004703
affili,0.156430
aftermath,0.008969
aggress,0.008019
alabama,0.011503
allow,0.010737
alreadi,0.010486
american,0.020389
analys,0.007036
analysi,0.004338
anderson,0.009379
ani,0.003171
anniversari,0.009544
anoth,0.003461
anthoni,0.016998
appli,0.003847
approach,0.008284
appropri,0.005769
archiv,0.006624
argu,0.023939
armonk,0.014502
arthur,0.022025
articl,0.008554
asher,0.013627
asid,0.008208
asset,0.006653
attempt,0.004105
august,0.005469
away,0.005482
b,0.009534
bailout,0.011969
bank,0.525682
banker,0.009828
barney,0.027040
barth,0.011647
becam,0.003966
becaus,0.003266
becom,0.006947
befor,0.014825
began,0.004333
belief,0.005809
believ,0.008976
belong,0.006131
ben,0.009281
benjamin,0.008229
benston,0.017866
bernank,0.013228
big,0.019713
blass,0.016218
blur,0.010104
board,0.025042
bond,0.012396
branch,0.004615
bring,0.005395
broad,0.005828
brought,0.010698
bruce,0.008916
brumbaugh,0.017162
bubbl,0.009097
burn,0.007439
busi,0.014676
buy,0.006865
calomiri,0.034970
cambridg,0.005756
came,0.004752
canal,0.008620
capit,0.004727
carter,0.030791
case,0.003634
caus,0.007758
certain,0.007956
chang,0.013107
changer,0.015189
chapman,0.010471
chapter,0.013548
charl,0.011133
charter,0.007819
chicago,0.021251
chip,0.009758
cite,0.006079
citi,0.005019
citibank,0.028242
citigroup,0.013096
clarendon,0.010571
clarifi,0.008766
classic,0.004802
claudia,0.012854
cliff,0.009732
clinton,0.020089
close,0.003889
coggin,0.017866
columbia,0.008084
combin,0.004145
come,0.012472
comment,0.048738
commerc,0.007243
commerci,0.178210
commod,0.007055
common,0.003514
commun,0.003801
compani,0.036721
compar,0.004299
comparison,0.006095
compet,0.005993
comptrol,0.012380
congress,0.026054
congression,0.020638
connect,0.004786
connecticut,0.010730
conserv,0.005770
consid,0.003390
consum,0.005788
contain,0.004170
contemporari,0.005686
contend,0.008379
control,0.003862
controversi,0.022914
convers,0.005997
corpor,0.011407
court,0.011027
cover,0.004786
creat,0.003555
crisi,0.065990
critic,0.004276
critiqu,0.014771
culmin,0.007702
cultur,0.004371
currenc,0.006370
current,0.003721
custom,0.011756
d,0.014118
dan,0.009416
day,0.004386
dc,0.008049
dead,0.007288
deal,0.028099
debat,0.016236
debatewhat,0.018933
debt,0.006741
decemb,0.005334
decid,0.005665
decis,0.009802
declar,0.005614
declin,0.011039
defin,0.003989
delano,0.013139
democrat,0.005696
deposit,0.075708
depress,0.007222
deregul,0.021487
describ,0.010734
design,0.004269
develop,0.005814
did,0.021577
differ,0.003081
direct,0.011581
directli,0.004671
dismember,0.013922
distinct,0.004477
distinguish,0.005161
distribut,0.009593
divers,0.005591
doddfrank,0.013799
doe,0.003933
doi,0.007696
doijel,0.015869
doijep,0.016036
doijtbx,0.012638
drew,0.008012
drive,0.006246
dure,0.006692
dva,0.017485
e,0.004710
earli,0.003500
econom,0.034472
economi,0.009559
economist,0.013142
ed,0.004899
edit,0.010955
edward,0.006367
effect,0.006800
effort,0.004847
elder,0.008600
elgar,0.011368
elimin,0.018158
elsewher,0.007215
employe,0.014667
engag,0.027712
englewood,0.011626
enterpris,0.006587
entir,0.004539
equiti,0.008008
especi,0.008128
establish,0.003735
eugen,0.017113
evid,0.009545
exist,0.003480
expand,0.004951
experi,0.004303
explain,0.009423
explan,0.006161
exploit,0.006515
explor,0.005332
extens,0.004726
extern,0.002736
f,0.005155
fail,0.010524
favor,0.005780
fdic,0.013683
februari,0.039804
feder,0.117024
feldman,0.012124
felt,0.007388
fenc,0.011647
ferdinand,0.009460
final,0.013580
financi,0.099930
financir,0.015435
firm,0.087513
firzli,0.017162
follow,0.005987
forc,0.007502
francisco,0.008076
franklin,0.008561
freder,0.011122
free,0.004274
french,0.005036
frontlin,0.012178
fund,0.005160
futur,0.009116
g,0.005063
gain,0.009106
gari,0.018674
gave,0.005445
georg,0.005393
glass,0.098998
glasss,0.017162
glasssteagal,0.584735
glba,0.073330
goal,0.005147
golden,0.007583
govern,0.003558
governmentissu,0.029353
grade,0.017457
grammleachbliley,0.029353
great,0.008436
grossman,0.013053
group,0.003375
h,0.005198
hambley,0.018933
happen,0.011830
harmless,0.011825
hazard,0.008547
healthier,0.012672
hear,0.015784
help,0.004097
henri,0.018096
hi,0.010067
histor,0.012612
histori,0.012468
hole,0.008518
hous,0.025102
howev,0.006074
hr,0.011563
huerta,0.015869
hyman,0.012638
identifi,0.004524
import,0.009575
includ,0.010392
incom,0.011464
inconsist,0.008697
increas,0.007197
increasingli,0.005517
inde,0.006363
industri,0.004271
ingo,0.027973
insist,0.007636
instanc,0.010137
instead,0.004383
institut,0.015841
insur,0.043291
interbank,0.012817
intern,0.006559
interpret,0.039944
introduc,0.008780
invest,0.117229
investig,0.020977
investmentbank,0.017866
involv,0.007256
irwin,0.011605
isbn,0.039818
israel,0.007664
issu,0.016064
j,0.014100
jackson,0.009681
jame,0.010556
januari,0.016023
john,0.004256
jordi,0.015570
joseph,0.006167
journal,0.014440
jr,0.015898
jstor,0.018832
julyaugust,0.013683
june,0.010905
justifi,0.007526
kansa,0.011056
kelley,0.013418
known,0.012507
kroszner,0.017866
krugman,0.011712
largest,0.010335
late,0.004332
later,0.003721
laureat,0.019380
law,0.049001
lawrenc,0.008370
lccn,0.011584
lead,0.011199
led,0.004038
legisl,0.040100
lend,0.008038
lesson,0.008782
lewi,0.007853
libecap,0.017866
lifetim,0.008012
limit,0.007642
link,0.005441
list,0.003479
literatur,0.005590
loan,0.014518
long,0.008124
longer,0.005160
loophol,0.036875
loretta,0.016883
lose,0.006580
loui,0.007060
m,0.004474
ma,0.007902
make,0.003181
manag,0.004480
mani,0.008483
march,0.005188
mark,0.005023
market,0.018732
mean,0.006891
member,0.027942
mester,0.018933
minski,0.011444
mishkin,0.015570
missourian,0.018933
mistak,0.008610
modern,0.018763
money,0.005591
mortgag,0.009240
n,0.005618
narrow,0.007064
nation,0.006933
need,0.007522
nelson,0.009453
new,0.030740
news,0.006828
nicola,0.009372
nj,0.009180
nobel,0.007282
nonbank,0.012893
nongovernment,0.040021
noninvest,0.030870
northampton,0.014052
nostrand,0.012854
notabl,0.004800
note,0.007214
numer,0.004635
ny,0.009053
oath,0.010675
object,0.004276
occur,0.003974
oclc,0.009010
offic,0.005035
onc,0.004674
ongo,0.006845
onli,0.011519
oper,0.007893
origin,0.010401
orthodoxi,0.010483
overturn,0.010263
owner,0.007076
oxford,0.011756
p,0.004775
page,0.006133
parker,0.011122
particularli,0.004387
pass,0.034022
past,0.004963
paul,0.005438
pbss,0.016637
pdf,0.021723
pecora,0.085814
percent,0.012566
period,0.003717
permit,0.050977
perspect,0.022393
philadelphia,0.009513
place,0.003538
play,0.004517
point,0.003629
polici,0.013889
polit,0.003926
postfinanci,0.018933
postwar,0.008508
preced,0.013594
prenticehal,0.010857
presid,0.025941
press,0.021111
prevent,0.025644
previou,0.005410
previous,0.010938
primarili,0.004903
princip,0.011208
principl,0.004306
prior,0.005418
privat,0.005144
prize,0.006690
problem,0.007673
product,0.011217
profession,0.005813
prohibit,0.043921
propos,0.017705
protect,0.009562
provid,0.003183
provis,0.104815
public,0.007226
publicli,0.007677
publish,0.011945
pubslish,0.018933
r,0.009601
raghuram,0.015869
rajan,0.015076
randal,0.011189
read,0.007903
receiv,0.008693
reconsid,0.011024
reduc,0.008620
refer,0.009100
reform,0.027827
regul,0.059250
reinstat,0.010342
reject,0.005609
repeal,0.175049
repres,0.011196
reprint,0.017500
requir,0.007163
reserv,0.108921
resolv,0.006608
restrict,0.042186
restructur,0.008986
retriev,0.033798
return,0.004604
review,0.020392
revis,0.006799
revolut,0.005636
revu,0.012672
richard,0.005620
ring,0.007706
risk,0.005598
riskier,0.012638
role,0.007971
ron,0.011138
roosevelt,0.030501
rule,0.004153
s,0.032269
safer,0.011122
salomon,0.025709
san,0.007225
saunder,0.022113
save,0.006461
schuster,0.010977
secondari,0.006479
secretari,0.007433
section,0.056376
secur,0.154688
sell,0.006436
senat,0.078054
separ,0.066509
septemb,0.005486
servic,0.008866
sever,0.006602
shake,0.011483
share,0.013301
sharp,0.007689
sharpli,0.008951
shorten,0.009616
sign,0.015640
signific,0.012126
significantli,0.005839
similar,0.007562
simon,0.007608
situat,0.004875
sl,0.012019
small,0.007749
smith,0.013417
sourc,0.011949
southeast,0.007751
southern,0.005876
specif,0.003788
specifi,0.006438
specul,0.006587
sponsor,0.031754
ssrn,0.012672
st,0.005104
start,0.020041
state,0.016623
statechart,0.015308
steagal,0.094668
stem,0.007117
stern,0.010814
stiglitz,0.011944
stori,0.006418
street,0.014451
structur,0.003699
studi,0.003346
subcommitte,0.012206
subprim,0.012262
supervis,0.007571
support,0.015059
symposium,0.010135
systemat,0.006049
text,0.005462
themselv,0.009393
theoret,0.005192
thi,0.009473
thoma,0.005664
threat,0.006641
time,0.019611
tobi,0.013627
togeth,0.008733
took,0.004946
treasuri,0.008415
tri,0.004984
turn,0.004377
uchitel,0.018933
underwrit,0.105610
undu,0.012638
unit,0.006387
univers,0.026236
unsuccess,0.008143
upheld,0.011089
use,0.002587
usual,0.003810
van,0.006926
vandenberg,0.015869
varieti,0.004754
veri,0.007232
version,0.022156
veto,0.010274
virginia,0.009122
volum,0.005424
w,0.010626
wa,0.041541
wall,0.020114
walmart,0.012854
walter,0.015106
washington,0.006971
watch,0.008072
way,0.006771
weak,0.006290
weaken,0.007931
welfar,0.007293
wherea,0.005494
white,0.018036
wilcox,0.013740
willi,0.010622
wilmarth,0.018933
winthrop,0.014676
work,0.003104
world,0.003210
year,0.025565
york,0.043893
