abov,0.029143
accommod,0.021144
account,0.005362
accur,0.015513
achiev,0.011455
adapt,0.007249
addit,0.009211
address,0.013712
adjac,0.010420
adjust,0.017429
agre,0.006864
aimr,0.020516
algorithm,0.009127
allow,0.018110
altern,0.023400
american,0.020633
analysi,0.005488
analyst,0.020664
analystspecifi,0.022118
analyt,0.008300
ani,0.016050
appli,0.024335
applic,0.010874
approach,0.057637
approxim,0.006204
arbitrag,0.013987
arbitragefre,0.034075
aris,0.014855
asid,0.020767
asset,0.008416
assum,0.012614
assumpt,0.038784
attach,0.008619
avail,0.011130
babbel,0.020516
backward,0.067941
barrier,0.009263
base,0.015868
basket,0.013867
becaus,0.004132
befor,0.009377
behavior,0.006439
bermudan,0.017456
best,0.006050
binomi,0.192327
black,0.014817
blackdermantoy,0.018683
blackpric,0.021711
blackschol,0.058307
bond,0.117616
bondlik,0.021358
bondvalu,0.022118
book,0.005217
bootstrap,0.015270
boxeddescript,0.022118
boyl,0.013644
branch,0.005838
brownian,0.013753
buetow,0.020768
build,0.011618
built,0.041062
bush,0.011323
calcul,0.014010
calculu,0.010261
calibr,0.105730
callabl,0.017532
canon,0.009983
cap,0.022400
capabl,0.007240
capimpli,0.022118
caplet,0.038730
captur,0.007549
carlo,0.010462
case,0.027583
cash,0.009189
categor,0.009346
cb,0.058206
central,0.005154
certain,0.005032
cfa,0.015406
chang,0.008290
chapter,0.008569
chief,0.007656
choic,0.014449
choos,0.015819
chri,0.012377
cir,0.017532
clewlow,0.022118
close,0.004920
coeffici,0.010611
coincid,0.009891
combin,0.026217
commod,0.017850
commonli,0.006106
compar,0.005438
complet,0.005078
compon,0.025332
comput,0.006093
conceptu,0.008851
condit,0.005145
consid,0.004288
consist,0.024609
constant,0.014622
construct,0.039862
cont,0.018142
conting,0.010680
continu,0.013367
converg,0.029062
conversionprobabilityweight,0.022118
convert,0.029986
corpor,0.007215
correspond,0.046731
correspondingli,0.013887
count,0.008387
cox,0.013522
credit,0.007116
crisi,0.007588
crr,0.086845
current,0.009415
curv,0.045238
date,0.012292
david,0.006532
day,0.005549
debt,0.034111
decis,0.012400
decoupl,0.015512
depart,0.006447
depend,0.009704
der,0.009624
deriv,0.078282
derman,0.018806
dermankanichriss,0.022118
describ,0.004526
design,0.010803
determin,0.005107
develop,0.014711
diagram,0.010116
differ,0.023391
direct,0.004883
directli,0.005908
discount,0.042469
discret,0.052041
distinct,0.005663
distress,0.012205
distribut,0.042475
divid,0.011663
dividend,0.011820
dkc,0.088475
dkibt,0.022118
doe,0.004975
downmov,0.044237
downnod,0.021358
drift,0.022677
dure,0.004233
earli,0.008856
easier,0.009479
easili,0.007585
ed,0.030990
edgeworth,0.046323
edgeworthgener,0.022118
effect,0.004301
elliott,0.014628
embed,0.020593
employ,0.011745
employe,0.009277
encount,0.008720
encyclopedia,0.007625
end,0.019363
enhanc,0.008200
ensur,0.007273
equilibriumbas,0.041032
equiti,0.091176
equitylattic,0.022118
equitytyp,0.022118
espen,0.018142
estim,0.006230
european,0.011029
everi,0.022161
evolut,0.007188
evolv,0.007267
exampl,0.007930
exchang,0.006258
exclus,0.007563
exercis,0.045642
exist,0.013208
exot,0.047175
experienc,0.007948
expir,0.023935
exponenti,0.021315
express,0.011473
f,0.006521
fabozzi,0.019071
fact,0.005621
fail,0.006656
fair,0.008967
featur,0.005987
fernand,0.014628
fewer,0.009389
final,0.011453
financ,0.035078
financi,0.012641
finit,0.009156
firm,0.031630
fit,0.016121
fix,0.014054
floor,0.010769
floorlet,0.020516
flow,0.027889
follow,0.011361
form,0.007237
formula,0.024802
forward,0.050425
foundat,0.006173
fraction,0.009266
framework,0.020349
frank,0.009270
free,0.010815
function,0.029083
futur,0.005766
gener,0.010205
gerald,0.012279
given,0.004748
global,0.006287
goldman,0.013987
grow,0.012141
guid,0.006693
ha,0.006313
hand,0.011732
haug,0.017953
held,0.005597
henc,0.007387
histor,0.005318
hjm,0.037871
hoek,0.019878
hold,0.005702
holder,0.010763
hole,0.021551
hullwhit,0.035386
hybrid,0.029673
ibt,0.021358
ident,0.006779
implement,0.013183
impli,0.073603
import,0.004037
includ,0.003286
incom,0.014503
incorpor,0.039007
increas,0.013658
induct,0.010484
initi,0.005144
input,0.008577
institut,0.005009
instrument,0.014580
interestr,0.016851
interestratetre,0.022118
interestsensit,0.019696
interpol,0.011062
isbn,0.055967
issu,0.010160
iter,0.023695
j,0.005945
jame,0.006677
jersey,0.011723
john,0.016154
johnson,0.043272
jointli,0.011422
judici,0.009088
key,0.006024
known,0.007911
kurtosi,0.036907
l,0.006968
larg,0.004171
later,0.014122
lattic,0.212448
le,0.009428
lead,0.004722
liabil,0.011123
libor,0.078501
limit,0.014501
link,0.003441
liquid,0.008484
local,0.005360
logic,0.015320
logmoment,0.022118
lognorm,0.047962
mani,0.003577
map,0.007240
mark,0.006354
markedli,0.013539
market,0.035545
martingal,0.015819
match,0.016833
matur,0.073676
mcgrawhil,0.011437
mean,0.013076
measur,0.010367
method,0.039213
methodolog,0.008377
middlenod,0.022118
middleprob,0.022118
model,0.197196
modelmethod,0.022118
modelvalu,0.022118
modifi,0.015444
moment,0.018008
mont,0.011865
motion,0.007986
multicurv,0.019525
multinomi,0.018345
multipl,0.006087
mutual,0.008348
n,0.078182
nanc,0.020074
neutral,0.034650
new,0.007070
node,0.226676
nodespac,0.022118
nodevalu,0.021711
normal,0.012616
note,0.041067
notionalvalu,0.022118
number,0.031674
observ,0.015670
oi,0.036284
onc,0.005913
onetwothre,0.022118
onli,0.007286
onward,0.010033
oppos,0.013227
optim,0.008394
option,0.421170
origin,0.004386
otherwis,0.007528
outcom,0.016182
output,0.008260
outstand,0.010824
p,0.006041
pair,0.016868
par,0.024288
parallel,0.008200
paramet,0.027372
particularli,0.016650
path,0.040121
pathdepend,0.019365
pattern,0.006752
payoff,0.027288
pdf,0.009159
perform,0.005563
period,0.009405
phelim,0.020516
plu,0.008904
possibl,0.013886
potenti,0.005875
prefer,0.020848
present,0.004537
previous,0.006918
price,0.248585
pricingrisk,0.020516
probabilityweight,0.020768
probabl,0.058609
problem,0.004853
proce,0.022097
proceed,0.008305
process,0.008580
produc,0.014166
propos,0.011198
publish,0.005037
pull,0.020830
pullingtopar,0.022118
putabl,0.020516
quantit,0.008431
quarter,0.009439
question,0.011398
quot,0.009494
rama,0.015902
rang,0.005447
rapidli,0.007651
rate,0.129354
ratebas,0.039757
ration,0.007821
raw,0.009389
rd,0.008126
real,0.005973
realiz,0.008047
reason,0.005165
recent,0.009968
recombin,0.023935
recov,0.026579
recurs,0.037645
redeem,0.013539
refer,0.005756
referencer,0.022118
reflect,0.012370
regard,0.022088
regardless,0.008700
rel,0.010321
relat,0.007761
relatedli,0.017238
relationship,0.005494
relev,0.015056
remain,0.004760
rendleman,0.021358
repay,0.024329
reproduc,0.019529
requir,0.022654
research,0.004669
resourc,0.005826
respect,0.005473
restrict,0.006670
result,0.016037
return,0.011650
ribt,0.088475
richard,0.007110
risk,0.049573
riskfre,0.014761
riski,0.012205
riskneutr,0.032619
robert,0.006328
rootfind,0.019214
ross,0.011776
rubinstein,0.064483
sach,0.014288
schedul,0.009566
schole,0.017238
second,0.009447
secur,0.030575
seek,0.006458
select,0.006258
self,0.009891
sensit,0.009270
seri,0.005733
set,0.008917
sever,0.004175
sharehold,0.011638
shortrat,0.072968
shreve,0.018683
similar,0.014349
similarli,0.015177
simpl,0.012729
simpler,0.010680
simplest,0.010217
simul,0.008703
simultan,0.008394
sinc,0.004005
singl,0.016082
situat,0.012334
skew,0.027507
smaller,0.006811
smile,0.041487
sochacki,0.020768
solut,0.006853
solv,0.022116
sometim,0.010429
son,0.007669
specif,0.009585
specifi,0.024432
speed,0.008191
spot,0.040114
springer,0.019391
st,0.019371
stabil,0.007470
stabl,0.007883
standard,0.026975
start,0.005070
state,0.010514
step,0.142640
steppingbackward,0.022118
stepsiz,0.019525
steven,0.010093
stochast,0.011116
stock,0.007728
strickland,0.018683
strike,0.035640
struck,0.011391
structur,0.018720
su,0.012311
subsequ,0.006251
substitut,0.017802
success,0.005312
sum,0.015980
supersed,0.011572
surfac,0.021759
swap,0.048864
swaption,0.050030
swapvalu,0.022118
techniqu,0.006155
tenor,0.017863
term,0.007570
termin,0.009385
termstructur,0.020768
theoret,0.006568
thereaft,0.020947
therefor,0.005444
thi,0.050934
threedimension,0.011002
thu,0.009365
time,0.035441
timepric,0.021358
timestep,0.291891
timestepwis,0.022118
today,0.011509
toy,0.013112
trace,0.007680
treat,0.007014
tree,0.272292
trinomi,0.100402
true,0.006485
tsiverioti,0.022118
turn,0.011075
twin,0.011784
typic,0.005373
unchang,0.010680
underli,0.053249
underly,0.040572
upmov,0.044237
use,0.058915
usual,0.009640
valid,0.007649
valu,0.092412
valuat,0.155154
van,0.008762
vanilla,0.015371
variabl,0.007322
variant,0.009703
varieti,0.006014
variou,0.009120
various,0.012388
vasicek,0.018345
vertic,0.010362
view,0.005134
volatil,0.223808
wa,0.003284
wherea,0.013901
wiley,0.039208
wileyblackwel,0.014761
world,0.004061
yield,0.054776
york,0.006169
ytm,0.041032
zerocoupon,0.016911
zeroeth,0.020768
