abov,0.006349
accur,0.008449
actual,0.006347
adopt,0.006844
alabama,0.015851
analyst,0.011255
ani,0.008742
anoth,0.004770
appli,0.015906
approach,0.011415
asset,0.009168
assum,0.006870
asymptot,0.029065
averag,0.007408
bank,0.007172
bar,0.089688
base,0.012964
becaus,0.009003
becker,0.015640
binomi,0.013967
bisect,0.018934
blackschol,0.063517
brent,0.017561
brian,0.012232
brownian,0.014982
buyer,0.023871
byrn,0.018356
c,0.137359
calcul,0.083944
cap,0.012200
case,0.015023
cboe,0.020486
ccdot,0.084382
cdot,0.027849
cfsigma,0.026091
cgbar,0.052182
cheaper,0.012896
christoph,0.020994
cj,0.017714
close,0.005359
closedform,0.035222
come,0.005729
commonli,0.013304
commun,0.005237
comput,0.013275
conced,0.014620
confirm,0.008636
conform,0.011056
confus,0.009016
consid,0.004671
constant,0.007964
contract,0.008036
conveni,0.010696
converg,0.010553
convers,0.008264
corp,0.011818
corrado,0.019015
corradomil,0.026091
counterparti,0.016170
cpartial,0.021456
ctheofsigma,0.026091
currenc,0.008778
current,0.015385
cxyz,0.078273
day,0.006045
dearbitrag,0.025262
delta,0.011474
demand,0.007152
depend,0.037001
deriv,0.042638
determin,0.016689
deviat,0.011368
differ,0.029728
directli,0.012873
displaystyl,0.119297
doe,0.005420
doi,0.010605
doifajvn,0.024620
e,0.006491
effici,0.015103
embed,0.011216
equal,0.006568
equat,0.008021
equival,0.007768
esilv,0.026091
estim,0.033935
european,0.006007
evid,0.006576
exampl,0.008639
excel,0.010433
exchang,0.006817
exist,0.004796
expans,0.016275
expect,0.006626
expir,0.026074
expiri,0.033957
extern,0.003771
f,0.063939
fact,0.006123
factor,0.012230
financ,0.007642
financi,0.027541
follow,0.004125
forc,0.005169
form,0.003942
formula,0.009006
forward,0.009155
forwardlook,0.020627
frac,0.011541
free,0.011781
fsigma,0.047302
function,0.031681
futur,0.043970
g,0.027908
gener,0.022235
geometr,0.010605
greek,0.007303
grunspan,0.050525
gsvi,0.049240
h,0.007164
ha,0.006877
hedg,0.025753
held,0.006097
higher,0.024524
histor,0.005793
howev,0.025113
ignor,0.008945
implement,0.007180
impli,0.336754
impliedvolatilitypric,0.026091
import,0.013195
increas,0.004959
index,0.049158
indic,0.012688
inform,0.005127
input,0.046717
instanc,0.006984
instead,0.012081
instrument,0.047647
invers,0.043560
ivx,0.025262
journal,0.019900
known,0.012927
kurtosi,0.020102
larg,0.013632
later,0.005127
level,0.005155
light,0.007108
link,0.003749
lognorm,0.034831
look,0.007118
low,0.006607
mani,0.003896
market,0.045175
mathemat,0.020332
mayhew,0.019763
mean,0.004748
meanrevert,0.023651
measur,0.039528
mere,0.008481
method,0.042716
methodolog,0.009125
mistak,0.011866
model,0.107407
monoton,0.015419
motion,0.008699
motiv,0.008422
nasdaq,0.017019
natur,0.004602
need,0.005182
neutral,0.009436
newton,0.032655
nonconst,0.019557
nondividendpay,0.022098
nonopt,0.026091
normal,0.006871
note,0.009941
number,0.008626
numer,0.012774
o,0.009091
onlin,0.007545
option,0.287874
outofthemoney,0.019871
parametris,0.022349
partial,0.015861
particular,0.010792
particularli,0.006046
pascalau,0.024094
passag,0.010271
past,0.006839
pdf,0.009978
period,0.005122
portfolio,0.023718
possibl,0.010084
practic,0.005289
predict,0.007233
predictor,0.015824
preprint,0.034465
price,0.322026
produc,0.005143
profession,0.008010
provid,0.004386
qqq,0.022349
qqv,0.026091
quantiti,0.008052
quickli,0.008047
quot,0.010343
rapid,0.008567
rate,0.012253
razvan,0.024094
realiz,0.008766
realtim,0.013142
reason,0.011254
recent,0.005429
refer,0.003135
referenc,0.013470
rel,0.011243
requir,0.009871
respect,0.005962
result,0.013102
retriev,0.018630
return,0.019036
riskfre,0.016079
root,0.015840
rougeaux,0.026091
s,0.013340
salkin,0.024620
schonbush,0.025262
scriptstyl,0.034926
second,0.005145
secur,0.019984
seen,0.006151
seller,0.025055
sen,0.015023
serdar,0.024620
share,0.006109
short,0.013370
sigma,0.053788
simpli,0.007120
skew,0.029964
small,0.005339
smile,0.015064
sold,0.009214
solut,0.014931
solv,0.024091
sp,0.013376
spreadsheet,0.016820
ssrn,0.034926
standard,0.011754
state,0.003818
statist,0.028635
stochast,0.012109
stock,0.042092
strike,0.029118
struck,0.012409
structur,0.005098
su,0.013411
subject,0.005551
summer,0.010094
suppli,0.007113
surfac,0.007901
surpris,0.011474
svi,0.024620
t,0.015184
techniqu,0.013411
term,0.016493
test,0.007133
themselv,0.006472
theorem,0.009781
theoret,0.042929
thi,0.016319
think,0.007567
thu,0.005100
time,0.011582
timeseri,0.018855
track,0.009654
trade,0.037873
trader,0.010742
transact,0.028186
type,0.005246
underli,0.107726
uniqu,0.007440
univ,0.014786
use,0.042785
valu,0.100669
vari,0.006432
variabl,0.007976
varianc,0.013099
varieti,0.006551
variou,0.004967
vba,0.022623
vega,0.057721
veri,0.004983
verifi,0.011030
view,0.022370
visual,0.009206
vix,0.021270
volatil,0.696584
vxn,0.025262
way,0.009331
weight,0.008795
x,0.023178
xyz,0.034377
y,0.027877
yield,0.025572
z,0.031938
