abil,0.008130
abl,0.003732
abov,0.003782
accept,0.003709
access,0.012264
accord,0.005909
account,0.006959
accountantsauditor,0.015543
accumul,0.005668
acquisit,0.006388
act,0.020261
action,0.014521
activ,0.005896
actual,0.007562
addit,0.011956
address,0.004449
adequ,0.006198
advanc,0.007298
advantag,0.018345
advisor,0.015139
aftermarket,0.013027
agenc,0.009296
agent,0.005037
aggress,0.006583
agreement,0.009020
aid,0.008865
algorithm,0.005923
align,0.006383
alleg,0.006109
alloc,0.029481
allornon,0.013314
allow,0.023506
altern,0.007593
alway,0.003973
america,0.004140
american,0.003347
analysi,0.007123
analyst,0.013410
andor,0.005170
ani,0.018228
announc,0.004961
antitakeov,0.015543
appoint,0.004857
approach,0.003400
appropri,0.009472
approv,0.005075
argu,0.003930
arrang,0.009633
array,0.006447
arriv,0.004756
articl,0.003511
asia,0.005073
assess,0.005032
assist,0.004405
associ,0.005772
assumpt,0.010067
attempt,0.006740
attent,0.004818
attorney,0.024339
attract,0.004754
auction,0.246770
audit,0.008003
author,0.003326
baa,0.011905
bailout,0.009826
bank,0.047001
banker,0.008068
barney,0.011099
base,0.015447
basi,0.003680
bear,0.005529
becam,0.003256
becaus,0.013409
becom,0.008555
beer,0.008246
befor,0.015213
behavior,0.004179
believ,0.003684
benefit,0.004323
best,0.007853
better,0.012052
bid,0.053141
bidder,0.073871
billion,0.015181
block,0.010614
bodi,0.003575
bold,0.008753
bond,0.005088
book,0.006772
bookrunn,0.045150
boston,0.006568
bought,0.006807
broader,0.005940
broker,0.031292
brokerag,0.009228
brokerdeal,0.011187
build,0.003770
busi,0.008032
buy,0.005635
buyer,0.007110
calcul,0.004546
calendar,0.014611
canada,0.005110
capac,0.004946
capit,0.046568
case,0.008950
castor,0.011429
central,0.003344
certain,0.006531
certif,0.013870
chanc,0.005744
chang,0.002690
cheaper,0.015365
chief,0.004968
china,0.009168
choos,0.015399
circl,0.005749
circumst,0.005481
cite,0.004990
citi,0.004120
class,0.003957
clean,0.013970
clear,0.008882
client,0.061848
close,0.003192
colloqui,0.008304
comanag,0.012567
combin,0.003402
commiss,0.019004
commit,0.015005
common,0.008656
commonli,0.003963
commun,0.003120
compani,0.128121
compet,0.004920
competitor,0.014785
compil,0.006157
complet,0.003296
compon,0.004109
concess,0.022643
concessionearn,0.015543
conclud,0.004880
confer,0.004697
confidenti,0.008901
conflict,0.004444
consid,0.005566
consider,0.008021
contract,0.019149
control,0.003170
convent,0.004621
convert,0.009730
coordin,0.005059
corpor,0.023412
correctli,0.006857
cost,0.008391
counsel,0.015365
countri,0.015703
cours,0.004159
court,0.004526
cover,0.003929
coverag,0.014358
creat,0.008757
crowd,0.007437
crucial,0.005809
csfb,0.014354
custodian,0.010522
custom,0.004825
danger,0.005606
data,0.003808
day,0.021608
deal,0.007689
dealer,0.017640
debt,0.016602
declar,0.004609
defenc,0.005809
definit,0.003773
deliber,0.006388
deliveri,0.027591
demand,0.008521
depart,0.008369
deriv,0.003628
descript,0.004362
design,0.003505
determin,0.016571
develop,0.004773
did,0.007085
differ,0.010120
dilut,0.016641
direct,0.006338
directli,0.011504
disadvantag,0.028309
disclos,0.025014
discount,0.006890
discoveri,0.008939
discret,0.005628
discriminatori,0.019907
discuss,0.003894
dissemin,0.007432
diversifi,0.007227
divid,0.003784
divis,0.004136
document,0.009215
doe,0.003229
domest,0.009890
doubl,0.005283
dpo,0.030100
drove,0.007730
dtc,0.013314
dure,0.019230
dutch,0.082061
dvp,0.014667
e,0.003867
earli,0.014369
earliest,0.004802
earn,0.005400
east,0.004417
economi,0.003924
economist,0.005394
edit,0.004497
effect,0.016748
effort,0.011937
electron,0.004808
elig,0.007187
elimin,0.009937
eliot,0.009689
emerg,0.003682
empir,0.004009
employe,0.006020
enabl,0.004556
encourag,0.004722
end,0.003141
endur,0.007012
energi,0.004022
enforc,0.010773
engag,0.018200
enlarg,0.007339
enter,0.008401
enterpris,0.005408
entir,0.007453
entitl,0.011863
environ,0.003808
equal,0.007825
equiti,0.026298
era,0.004539
establish,0.006132
estim,0.004043
eu,0.006256
europ,0.003896
eventu,0.004083
everyon,0.006633
evid,0.015672
exampl,0.010293
exchang,0.036555
exercis,0.004936
exhibit,0.005424
exist,0.002857
expans,0.004848
expect,0.003947
expens,0.005131
explor,0.004377
exposur,0.006385
extens,0.003880
extern,0.002246
extrem,0.004121
eye,0.005744
face,0.004312
facebook,0.017999
facilit,0.005180
factor,0.003643
fail,0.004320
failur,0.004999
fall,0.007844
far,0.003896
fare,0.008866
favor,0.018982
fee,0.047076
feeearn,0.015543
file,0.025654
final,0.022298
financ,0.009105
financi,0.028713
firm,0.051317
fix,0.018242
flip,0.036801
flipper,0.011482
fluctuat,0.006416
follow,0.014746
followon,0.011838
forecast,0.006769
form,0.016439
format,0.004190
forum,0.006310
fraudul,0.008547
freeli,0.013364
friesen,0.026628
fuel,0.011387
fund,0.008472
futur,0.003742
gain,0.007476
gener,0.013246
given,0.003081
global,0.008160
goe,0.005529
good,0.003415
goodrich,0.012205
googl,0.022163
govern,0.005843
greensho,0.015543
gross,0.012014
group,0.013857
grow,0.003939
growth,0.003889
guid,0.004344
ha,0.012292
health,0.004283
held,0.003632
help,0.016818
henc,0.004793
hi,0.005509
high,0.006222
higher,0.003652
highest,0.014114
histor,0.003451
histori,0.005118
historian,0.005177
hold,0.007401
hong,0.014366
hot,0.020297
howev,0.007480
howstuff,0.015543
hundr,0.004668
idea,0.003448
imag,0.004730
immedi,0.013549
import,0.005240
impress,0.006271
inappropri,0.016196
incent,0.006396
includ,0.012797
incomplet,0.006695
incorpor,0.004219
increas,0.011818
incur,0.007368
independ,0.009467
india,0.004703
indic,0.015118
individu,0.006338
influenc,0.003384
inform,0.012218
initi,0.046736
insid,0.015459
instead,0.003598
institut,0.013004
interact,0.003833
intermedi,0.006038
intermediari,0.007797
intern,0.002692
internet,0.005040
invest,0.065618
investor,0.128776
involv,0.017871
ipo,0.694643
ipoaccept,0.015543
issu,0.049454
issuanc,0.008678
issuer,0.128022
japan,0.005080
jointstock,0.010616
journal,0.003951
judg,0.005673
key,0.007819
kingdom,0.008173
know,0.004655
known,0.023103
kong,0.014491
larg,0.016243
larger,0.004054
largest,0.025455
late,0.003556
later,0.003054
launch,0.010346
law,0.012377
lead,0.033713
leav,0.004350
left,0.004094
legal,0.025432
lengthi,0.008010
level,0.003071
licens,0.006116
like,0.005487
link,0.004467
liquid,0.005506
list,0.014281
litig,0.009090
littl,0.003931
loan,0.005959
london,0.004325
lose,0.005402
loss,0.008985
lost,0.008927
low,0.003936
lowest,0.006109
lucr,0.008471
magic,0.007161
main,0.006503
major,0.008174
make,0.002611
manag,0.033107
managinglead,0.015543
mani,0.018572
mania,0.010403
march,0.004259
market,0.076894
marketplac,0.016241
meaning,0.006675
measur,0.003364
meet,0.004155
member,0.019662
memori,0.005342
mere,0.005052
method,0.031810
million,0.008068
model,0.003199
modern,0.006161
modifi,0.005011
monet,0.020181
money,0.018360
moreov,0.005892
morningstar,0.012288
mostli,0.004382
movement,0.003541
multin,0.007779
multipl,0.007900
nasdaq,0.010139
natur,0.005484
near,0.004223
new,0.022942
newli,0.005403
nobel,0.005978
nongaap,0.015050
nonu,0.010616
north,0.004078
notabl,0.003941
note,0.002961
novemb,0.009213
number,0.005138
object,0.007022
obtain,0.003992
occur,0.003263
offer,0.160409
onc,0.007675
ongo,0.005620
onli,0.009457
open,0.021097
openipo,0.015543
oper,0.003240
opportun,0.014554
opt,0.007989
optim,0.005447
option,0.016078
order,0.008491
outcom,0.005250
overallot,0.015543
overpr,0.011905
overreact,0.011378
overstockcom,0.014667
oversubscrib,0.013478
overthecount,0.009689
ownership,0.018095
paid,0.020947
parent,0.005784
parti,0.015876
particip,0.008103
pass,0.007980
pay,0.019180
payment,0.011071
paywhatyoubid,0.015543
perform,0.007221
perhap,0.004774
period,0.030517
physic,0.003360
piecem,0.011099
place,0.005809
plan,0.015558
plc,0.009953
pollux,0.013860
pool,0.006725
popular,0.011023
portion,0.020644
posit,0.003043
possibl,0.009012
postpon,0.008363
potenti,0.022878
practic,0.006302
preliminari,0.007855
prepar,0.009553
pressur,0.004433
prestig,0.007785
previous,0.008979
price,0.152604
primari,0.007775
principl,0.003535
print,0.011061
printer,0.027433
prior,0.004448
privat,0.029561
prizewin,0.009544
problem,0.006299
proce,0.014340
procedur,0.010258
process,0.022274
profession,0.004772
profit,0.020354
promot,0.004201
proofread,0.011015
proport,0.004869
propos,0.003633
prospectu,0.090628
prospectus,0.013860
prove,0.004545
provid,0.010452
public,0.130510
publicani,0.043063
publicli,0.012605
purchas,0.015027
purpos,0.003831
quaestor,0.012900
quickli,0.014381
quiet,0.051762
rais,0.043441
random,0.005618
rank,0.004972
ravenswood,0.015543
reach,0.003796
read,0.003244
reason,0.006704
receipt,0.008054
receiv,0.007137
recent,0.006468
red,0.020709
reduc,0.003538
refer,0.005603
regim,0.005443
region,0.003344
regist,0.011584
registr,0.021819
regul,0.004422
remain,0.003089
repay,0.023683
report,0.010770
repres,0.009192
republ,0.008767
requir,0.026464
research,0.018181
resist,0.009680
restrict,0.008658
result,0.013009
retail,0.013511
retain,0.019648
retent,0.008689
return,0.003780
revers,0.005142
review,0.004185
reviv,0.005936
richard,0.004614
rise,0.011276
risk,0.013788
robert,0.004107
roman,0.005010
room,0.006058
rosati,0.013860
roughli,0.005239
row,0.007223
s,0.013246
sale,0.021765
salesperson,0.024577
salomon,0.010553
seal,0.007004
sec,0.018180
secondari,0.015957
section,0.004628
secur,0.051590
seek,0.008382
sell,0.132098
sens,0.003843
separ,0.003412
septemb,0.004504
servic,0.003639
set,0.002893
settlement,0.021803
sever,0.016260
shanghai,0.009411
share,0.211111
sharehold,0.022659
shenzhen,0.012671
shoe,0.008627
shortli,0.005813
shown,0.009009
signific,0.009955
similar,0.003104
sinc,0.007798
singapor,0.006850
situat,0.008004
size,0.012144
smaller,0.004420
smith,0.005507
snap,0.010240
snapchat,0.013478
sold,0.038427
sonsini,0.015050
specul,0.005408
spin,0.007209
spitzer,0.011482
spread,0.027570
staff,0.006128
stag,0.044228
start,0.003290
state,0.015922
statement,0.023861
stearn,0.010682
step,0.008816
stimul,0.005817
stock,0.085260
stockmarket,0.012469
strategi,0.004842
street,0.005931
stronger,0.006258
subscrib,0.008128
success,0.010342
suggest,0.003639
supplier,0.007320
swift,0.017315
sylla,0.013165
syndic,0.084415
tabl,0.005003
tap,0.008854
team,0.005428
telecom,0.009510
templ,0.006872
term,0.012282
theglobecom,0.015050
themselv,0.003856
theori,0.006094
therefor,0.007066
thi,0.033054
threeday,0.010553
thu,0.006077
time,0.018400
tobacco,0.007324
today,0.007469
took,0.004061
total,0.003627
tradabl,0.010491
trade,0.052647
tradit,0.013093
transform,0.004255
treasuri,0.013817
treatment,0.004782
trend,0.004965
troubl,0.006825
turn,0.007187
type,0.009376
typic,0.020925
uk,0.004764
uncertainti,0.006049
underpr,0.072751
undersubscrib,0.015543
undertak,0.007056
underwrit,0.317905
underwritten,0.023186
uniform,0.018081
unit,0.020976
unpredict,0.008182
unwelcom,0.011482
upcom,0.008950
upward,0.007236
usa,0.011607
uscanada,0.013478
use,0.025489
usual,0.021898
valu,0.029986
vari,0.003832
variat,0.004872
varieti,0.003903
variou,0.011837
ventur,0.006846
version,0.004547
versu,0.006067
vickrey,0.013165
viewpoint,0.006843
violat,0.011503
virtu,0.006586
volatil,0.006916
volum,0.004452
wa,0.021314
wait,0.007048
wall,0.005504
wari,0.009579
warn,0.012502
way,0.005559
white,0.004935
whiteglov,0.015543
wide,0.006696
wikinvest,0.013165
william,0.004165
wilson,0.006493
win,0.017536
window,0.014611
wineri,0.012782
word,0.003608
work,0.007645
wright,0.007712
year,0.005247
yield,0.005078
york,0.016015
