academ,0.012225
acc,0.032351
accept,0.010247
account,0.249940
act,0.009328
activ,0.008144
advisori,0.020066
africa,0.026509
ag,0.024623
amaro,0.036780
american,0.009247
amf,0.030661
andersen,0.028508
ani,0.007193
announc,0.013706
applic,0.009747
appoint,0.013417
approv,0.014021
april,0.012486
archiv,0.015022
aris,0.013315
arrang,0.013306
arthur,0.016649
articul,0.019712
asbj,0.042938
asbsa,0.042938
asrb,0.040517
assum,0.011307
audit,0.022110
australian,0.016975
author,0.018379
bank,0.035410
barth,0.026414
base,0.014223
bilmog,0.042938
board,0.241366
bodi,0.039503
brazil,0.017587
brief,0.031196
capit,0.010720
cfa,0.027619
cfocom,0.042938
chairman,0.055929
chairmen,0.031869
charter,0.017732
chief,0.013726
china,0.025328
chungwoo,0.042938
clearli,0.014821
commerci,0.012629
commiss,0.013124
committe,0.056573
commun,0.008620
compani,0.020819
composit,0.013666
conclud,0.013483
consider,0.011079
constitut,0.010409
consult,0.030447
contribut,0.009676
contributor,0.019285
cooper,0.025201
council,0.012021
countri,0.008675
creation,0.024000
crisi,0.013604
culmin,0.017468
danjou,0.042938
darrel,0.031160
david,0.035133
decemb,0.012098
delawar,0.054752
depend,0.008698
describ,0.008114
despit,0.011179
deutsch,0.022288
develop,0.026373
discuss,0.010757
draft,0.017014
edelmann,0.042938
employ,0.010528
enforc,0.014880
expans,0.013392
experi,0.009760
expert,0.015678
exposur,0.017640
extern,0.006206
fasab,0.040517
fasb,0.065406
fasbiasb,0.042938
februari,0.012895
feder,0.012637
fell,0.015329
final,0.010266
financ,0.012577
financi,0.079318
finnegan,0.035310
form,0.006487
formerli,0.015899
foundat,0.121745
franc,0.024301
fulltim,0.022602
fund,0.035107
futur,0.010337
gari,0.021174
garnett,0.035637
gave,0.012350
geograph,0.013803
german,0.023973
gilbert,0.020300
glard,0.042938
global,0.011271
gome,0.029896
govern,0.008071
group,0.022968
guid,0.012000
guidanc,0.019137
ha,0.005659
han,0.033923
handbook,0.017177
health,0.011832
highqual,0.025454
hoogervorst,0.085876
howev,0.006888
ia,0.026511
ian,0.020955
iasb,0.590186
iasc,0.124724
iasf,0.042938
icap,0.037731
ifr,0.444064
ifric,0.042938
ifrsia,0.040517
includ,0.011783
incorpor,0.023310
independ,0.034869
institut,0.017962
intern,0.089250
interpret,0.022646
invest,0.024168
ipsasb,0.039652
iran,0.019253
iranian,0.021404
issu,0.009107
j,0.010658
jame,0.011970
januari,0.012112
japan,0.028071
juli,0.024518
kabureck,0.042938
known,0.007091
komitet,0.037731
korea,0.017129
ksr,0.040517
law,0.008548
leisenr,0.042938
link,0.006169
list,0.007890
lloyd,0.021881
luiz,0.034716
lybrand,0.042938
mackintosh,0.032703
malaysian,0.025655
manual,0.017921
march,0.011765
mari,0.032784
market,0.021241
martin,0.015018
masb,0.042938
mcgregor,0.033715
meet,0.011479
member,0.072421
million,0.011144
minist,0.025603
mission,0.014146
mix,0.013647
modernis,0.024460
monitor,0.030687
nation,0.007861
necessari,0.011307
netherland,0.016534
network,0.011861
new,0.012675
news,0.015486
notforprofit,0.026561
nz,0.028982
ochi,0.042938
offici,0.010771
oliveira,0.031573
onlin,0.012418
oper,0.008950
order,0.007818
organ,0.015478
organis,0.026865
origin,0.007862
overseen,0.025337
p,0.010830
pakistan,0.019394
paper,0.011706
pasb,0.042938
patrick,0.020546
phillip,0.021956
philosophi,0.012079
polish,0.019168
practic,0.008704
predecessor,0.017739
prepar,0.013195
previous,0.012402
primari,0.010739
principl,0.009766
process,0.015382
professor,0.014540
promot,0.023211
provid,0.007218
public,0.024581
publicli,0.017410
publish,0.009030
rachunkowoci,0.042938
rais,0.012000
recommend,0.030419
refer,0.005159
reform,0.012621
regul,0.012215
relat,0.006957
report,0.069421
republ,0.012110
requir,0.008122
research,0.016741
respons,0.035798
restructur,0.020380
review,0.023122
robert,0.011345
sasc,0.042938
scienc,0.008678
scott,0.019095
second,0.008468
sector,0.013527
secur,0.010962
select,0.011220
serv,0.010271
set,0.015986
shanghai,0.025997
shape,0.012298
shortfal,0.027033
sinc,0.007180
singapor,0.018923
singl,0.009610
social,0.009135
south,0.022491
standard,0.251474
standardset,0.176550
standardw,0.042938
state,0.012566
stephen,0.015951
structur,0.008390
succeed,0.014681
successor,0.016130
sue,0.026318
suh,0.034445
takatsugu,0.042938
tatsumi,0.037231
taxexempt,0.058477
taxonomi,0.020659
technic,0.012771
thi,0.005371
threetier,0.032185
time,0.006353
tokar,0.042938
truste,0.050751
tweedi,0.106911
ub,0.028433
uk,0.013162
unanim,0.022646
understand,0.009747
use,0.017603
usintern,0.042938
vicechairman,0.033946
vote,0.027235
wa,0.029440
wake,0.019158
warren,0.020971
websit,0.013578
weiguo,0.042938
work,0.007039
yamada,0.032185
zealand,0.034150
zhang,0.024365
