abil,0.031789
analysi,0.027852
avail,0.056486
better,0.031416
borrow,0.046237
busi,0.031405
calcul,0.035551
cash,0.093270
chapter,0.043487
charg,0.144032
compani,0.088401
concept,0.026043
consid,0.021764
coverag,0.449108
debt,0.086553
definit,0.029509
differ,0.019784
displaystyl,0.042750
divid,0.029593
earn,0.253392
ebit,0.407499
ebitda,0.387132
ebitdamboxinterest,0.121548
exist,0.022343
expens,0.040129
explain,0.030246
explan,0.039551
extent,0.036970
extern,0.017569
fall,0.030669
financi,0.096228
free,0.027443
fund,0.033127
gener,0.017264
hand,0.029769
honor,0.049700
incom,0.036800
increas,0.023103
indic,0.029556
leverag,0.061994
link,0.017465
loan,0.046601
lower,0.029679
make,0.020424
mboxebit,0.117688
mboxtimesinterestearnedfrac,0.121548
mean,0.022119
measur,0.052613
meet,0.129989
oblig,0.088705
oper,0.025337
outstand,0.054931
payabl,0.071833
payment,0.129869
rate,0.028541
ratio,0.415359
refer,0.014606
rule,0.026662
servic,0.028458
sign,0.033469
smaller,0.034565
statement,0.074637
thumb,0.070375
tie,0.039651
time,0.071943
timesinterestearn,0.121548
total,0.028363
tradit,0.025597
tutori,0.067382
typic,0.027271
unabl,0.042244
use,0.016610
video,0.044741
vulner,0.051702
warn,0.048881
x,0.035992
