abat,0.009812
abil,0.003934
abl,0.007223
absolutereturn,0.014565
accentu,0.010041
accept,0.007180
access,0.007912
accord,0.008578
account,0.003367
accumul,0.005485
act,0.006536
action,0.003513
activ,0.002853
aftermath,0.007126
aggrav,0.009271
agre,0.004311
agreement,0.008729
agricol,0.022668
aig,0.010963
alan,0.006062
alreadi,0.004165
amass,0.009032
american,0.006479
amid,0.007583
anita,0.010660
announc,0.004801
annual,0.013177
annualis,0.012485
anomali,0.007808
anticip,0.012719
aphor,0.009549
appli,0.006113
approach,0.006581
approxim,0.003896
arbitrag,0.114202
area,0.002840
articl,0.003398
asia,0.009819
asian,0.010895
asset,0.026431
assum,0.003961
attempt,0.003261
audit,0.007746
august,0.017381
austhinkorg,0.015043
avers,0.008310
avoid,0.008542
bailout,0.076079
balanc,0.004525
bank,0.053758
banker,0.015617
barclay,0.018941
barney,0.021483
base,0.012458
basi,0.003561
bay,0.006457
bear,0.016053
beat,0.014506
becam,0.012606
becaus,0.028550
becom,0.008280
befor,0.005889
began,0.003442
begin,0.003362
behalf,0.006359
belief,0.009231
benchmark,0.070601
benign,0.009288
berkshir,0.010306
bet,0.052332
bibliographi,0.005014
bid,0.014694
billion,0.073461
blackschol,0.009155
blow,0.007304
bn,0.034368
board,0.009948
bond,0.113268
book,0.003276
borrow,0.011444
boston,0.012713
bound,0.005159
brainpow,0.013636
broaden,0.014705
brother,0.028910
btp,0.012741
buffett,0.019578
built,0.004298
bulk,0.006112
bulldoz,0.011734
busi,0.015547
buy,0.021817
c,0.006599
came,0.007551
camera,0.007463
capit,0.123939
carol,0.008558
case,0.005774
cashflow,0.010660
casino,0.009395
catastroph,0.006853
categori,0.004406
caus,0.006164
cayman,0.010660
celebr,0.005951
central,0.003237
certain,0.003160
chain,0.010318
chairman,0.006531
challeng,0.004125
chanc,0.005559
chang,0.005207
chapter,0.005382
characterist,0.003980
chase,0.015703
cheap,0.007154
cheaper,0.014870
chifu,0.015043
chose,0.006495
circa,0.007759
class,0.003830
clear,0.008596
client,0.019952
close,0.009270
closer,0.005714
cloutand,0.015043
collaps,0.020349
combin,0.003293
comment,0.005531
commod,0.005605
compani,0.061997
compar,0.003416
complet,0.009569
compos,0.004381
composit,0.009576
compound,0.005204
concentr,0.004519
concern,0.006485
conduct,0.003958
confin,0.012403
connect,0.003802
connecticut,0.025575
consequ,0.011782
consid,0.002693
consist,0.003091
consortium,0.008086
construct,0.010729
consum,0.004599
continu,0.011194
contrast,0.003901
contribut,0.003390
converg,0.036506
convict,0.006693
core,0.009809
corpor,0.004531
cost,0.004060
counsel,0.007435
counterparti,0.009323
countri,0.003039
coupon,0.017807
court,0.004380
cover,0.003802
coy,0.011590
crackedjanuari,0.015043
creat,0.022601
credit,0.026818
creditor,0.032244
crisi,0.028598
critic,0.003397
crouhi,0.014565
crumbl,0.009549
csfb,0.013892
currenc,0.005061
curv,0.022730
cycl,0.004734
dan,0.007481
dash,0.009910
date,0.003860
david,0.004102
day,0.003485
deal,0.011162
debacl,0.011061
debt,0.021424
debttoequ,0.012067
decemb,0.004238
decis,0.003894
declin,0.008770
default,0.021143
defer,0.007980
defin,0.003169
delawar,0.009590
demand,0.004123
demis,0.008163
depend,0.012190
deploy,0.006250
depress,0.022954
deriv,0.021071
design,0.006785
desk,0.027562
determin,0.003207
deutsch,0.015617
devast,0.006557
develop,0.004619
deviat,0.006554
dick,0.008626
did,0.020571
differ,0.009794
difficulti,0.004988
diminish,0.012507
direct,0.003067
directli,0.011133
director,0.005553
discrep,0.007972
dissolv,0.005736
distress,0.007666
district,0.005586
diverg,0.006242
diversifi,0.006994
divis,0.004003
dlc,0.012370
doi,0.006114
dollar,0.010794
domest,0.004785
donald,0.013023
downturn,0.007911
drop,0.005069
duallist,0.027272
dunbar,0.010741
durat,0.006578
dutch,0.039709
earli,0.008343
earn,0.036587
econom,0.006086
economi,0.003797
effect,0.018910
effici,0.004354
effort,0.003851
egghead,0.014194
els,0.005726
emerg,0.003563
emma,0.009570
emphas,0.004880
encourag,0.009141
end,0.003040
endow,0.007043
engag,0.004403
engin,0.008014
enter,0.004065
equiti,0.044539
equival,0.004479
eric,0.019816
eriskcom,0.015043
essenti,0.011596
establish,0.008903
event,0.003618
eventu,0.007904
everi,0.003479
everyon,0.006420
exact,0.005304
exampl,0.002490
exempt,0.007227
exist,0.002765
exit,0.007294
expens,0.024832
experienc,0.004992
expertis,0.006783
explain,0.003743
exploit,0.005176
exposur,0.024720
extend,0.003667
extrem,0.007977
face,0.004173
factor,0.003525
fade,0.007941
fail,0.020904
failur,0.009676
fair,0.022528
fall,0.007591
favour,0.010936
fear,0.010435
februari,0.009035
fed,0.014882
feder,0.030992
fee,0.013017
fentonocreevi,0.015043
fewer,0.005896
financ,0.017625
financi,0.067486
firm,0.024832
fix,0.026481
flatten,0.008959
flight,0.012184
flighttoliquid,0.015043
flow,0.004379
focu,0.004079
follow,0.007135
forc,0.014902
foreign,0.003870
formerli,0.005570
formula,0.005192
fortun,0.013490
fund,0.098397
futur,0.021729
g,0.004022
gain,0.014470
galai,0.013636
game,0.005102
gave,0.008653
gener,0.006410
general,0.010509
geniu,0.016189
gilt,0.012608
given,0.005964
gladwel,0.012263
global,0.007897
gnrale,0.009676
goe,0.005351
goldman,0.035139
got,0.006708
govern,0.014138
greater,0.003745
greenspan,0.019923
greenwich,0.019578
greg,0.008988
grew,0.004969
group,0.005364
ha,0.005948
haghani,0.045129
half,0.012279
handl,0.005407
happen,0.004699
hathaway,0.011165
hawkin,0.010274
hazard,0.006790
head,0.007677
heavili,0.004793
hedg,0.066817
held,0.010546
help,0.006510
hi,0.002666
high,0.003010
higher,0.007070
highli,0.003914
highnetworth,0.012263
hilibrand,0.030086
hill,0.005915
histor,0.003340
histori,0.002476
hit,0.006156
hour,0.005225
hous,0.007977
howev,0.004826
huang,0.009323
human,0.002864
hundr,0.004517
ii,0.003891
illiquid,0.010474
illustr,0.005070
impli,0.013868
import,0.002536
impos,0.005113
includ,0.008256
incom,0.040990
incorpor,0.004083
increas,0.002859
incub,0.009305
incur,0.021392
inde,0.005055
individu,0.009201
industri,0.006788
initi,0.006461
inject,0.022025
institut,0.009439
instrument,0.004578
insur,0.005732
intellig,0.004639
intern,0.002605
interven,0.006389
intervent,0.005395
invent,0.004838
invest,0.050803
investor,0.050984
involv,0.023060
irration,0.009961
isbn,0.028120
island,0.004407
issu,0.015953
issuer,0.008849
italian,0.011158
j,0.007468
jacqu,0.006897
jame,0.008387
japanes,0.005666
john,0.010146
journal,0.003824
jp,0.009047
jpmorgan,0.011522
jr,0.006315
judgement,0.007516
juli,0.012884
june,0.008664
junk,0.009108
just,0.006934
jwm,0.045129
kind,0.007921
known,0.004968
krasker,0.015043
kurtosi,0.011590
l,0.004376
laps,0.008849
larg,0.015719
larger,0.003924
largest,0.004105
late,0.010325
latent,0.008329
later,0.008869
latin,0.009345
launch,0.005006
laurent,0.009509
law,0.002994
lead,0.005932
leahi,0.029130
left,0.003962
legal,0.004102
legend,0.007003
lehman,0.019975
lend,0.006386
level,0.002972
leverag,0.046035
lewi,0.012479
liabil,0.006986
libor,0.009860
libortyp,0.015043
lie,0.004870
like,0.005310
likelihood,0.006893
limit,0.006071
linger,0.009032
liquid,0.106573
llc,0.009654
llp,0.012885
local,0.003366
long,0.012910
longer,0.004099
longerd,0.013218
longterm,0.104624
loomi,0.011457
lose,0.010456
loss,0.069566
lost,0.012959
low,0.007619
lowenstein,0.035203
lower,0.003673
lp,0.028899
ltcm,0.797124
ltcmx,0.015043
lynch,0.045087
m,0.007110
mackenzi,0.020028
magnitud,0.024531
maintain,0.006932
major,0.007911
make,0.005055
malcolm,0.008569
malpractic,0.010274
manag,0.064081
manhattan,0.008558
mani,0.011233
mark,0.007982
market,0.081859
martingal,0.019871
master,0.005304
mathemat,0.003907
matur,0.017352
mcente,0.015043
mcgrawhil,0.007183
mean,0.002737
member,0.003171
memori,0.010341
mere,0.004890
merger,0.021609
meriweth,0.125029
merril,0.047451
merton,0.027418
method,0.003078
michael,0.013723
michel,0.006813
million,0.078086
minimum,0.005422
mit,0.012079
mitchel,0.008329
mn,0.054017
model,0.018577
modern,0.005963
moment,0.005655
money,0.035538
month,0.013175
moral,0.009945
morgan,0.021170
motiv,0.004856
mullin,0.023956
multipl,0.003823
mutual,0.005243
myron,0.021567
nake,0.007934
narciss,0.011522
nation,0.002754
natur,0.002653
nearli,0.004329
necessari,0.007922
need,0.002988
negoti,0.005202
net,0.020900
neutral,0.005440
new,0.031084
newli,0.010459
nichola,0.006686
nicholson,0.010153
nickel,0.007972
nigel,0.009413
nobel,0.011572
note,0.002865
notion,0.009405
nova,0.007493
number,0.002486
numer,0.003682
nyt,0.010700
observ,0.006561
occas,0.006182
occur,0.006316
octob,0.004298
offbal,0.012608
offer,0.011088
offici,0.003773
old,0.004112
older,0.005216
onc,0.014856
oncemighti,0.015043
onli,0.004576
open,0.003402
oper,0.009407
opportun,0.014085
option,0.041493
order,0.013696
orderli,0.008709
organ,0.002711
organiz,0.006511
origin,0.002754
outofthemoney,0.011457
outsid,0.007583
overal,0.004549
overhead,0.008849
owner,0.005622
oxford,0.004670
pacel,0.015043
paid,0.010136
pair,0.010594
panic,0.008339
paradox,0.006356
pariba,0.023785
pariti,0.007154
particip,0.011763
particular,0.003111
partner,0.048905
partnership,0.012512
paul,0.004320
pay,0.004640
payment,0.005357
payout,0.009885
pb,0.008235
percent,0.009984
period,0.002953
perspect,0.004447
peter,0.004532
petersburg,0.008945
phenomenon,0.005119
pick,0.012940
player,0.006505
point,0.005766
portfolio,0.082049
posit,0.035350
possibl,0.011629
poundston,0.012162
pp,0.004646
premium,0.043734
present,0.002850
press,0.010064
prevail,0.006030
previous,0.004345
price,0.067515
princip,0.017810
print,0.005352
privat,0.004087
prize,0.010631
probabl,0.008180
profession,0.009237
profit,0.014774
promis,0.005356
proprietari,0.017050
prove,0.004399
provid,0.005057
public,0.005741
purchas,0.014543
pursu,0.010367
putcal,0.010827
q,0.012767
qualiti,0.008493
quantit,0.005295
quickli,0.004639
raghavan,0.012067
rais,0.033633
random,0.005437
rate,0.014129
ratio,0.010281
reaction,0.009270
read,0.003139
reason,0.003244
recapit,0.011522
receiv,0.003453
recent,0.003130
recruit,0.006664
redempt,0.008685
reduc,0.010273
regard,0.003468
regardless,0.005464
region,0.003237
regist,0.005605
regul,0.008559
reinvest,0.008876
rel,0.012964
relat,0.007312
relationship,0.010351
relianc,0.007248
repo,0.011334
report,0.010423
requir,0.002845
rescu,0.007173
rescuer,0.011978
reserv,0.033654
resign,0.012354
respect,0.003437
respons,0.003135
result,0.002518
retriev,0.005370
return,0.036585
rich,0.010367
rickard,0.012741
rise,0.010913
risk,0.053375
robert,0.015898
roger,0.006062
rosenfeld,0.033658
royal,0.033388
rumour,0.010014
run,0.007945
russia,0.005312
russian,0.021169
s,0.015383
sach,0.026922
said,0.007428
salesmanship,0.013414
salomon,0.091918
sand,0.007463
saw,0.004423
scandal,0.007633
schole,0.032481
scienc,0.003040
scientif,0.007275
second,0.002966
secur,0.080654
seed,0.006414
seek,0.004056
sell,0.020455
sens,0.003719
septemb,0.030515
set,0.005600
seven,0.004743
sever,0.005245
shape,0.021543
share,0.021135
sheet,0.006538
shell,0.042591
shift,0.004380
short,0.050107
shorter,0.006435
shorterd,0.015043
shustak,0.015043
shut,0.007552
siconolfi,0.015043
sign,0.004142
signific,0.012846
significantli,0.004639
similar,0.018025
sinc,0.007547
singapor,0.006629
singl,0.003366
size,0.003917
slightli,0.010905
small,0.012314
smaller,0.004277
smith,0.010660
soan,0.013414
societ,0.007075
societi,0.003152
sociolog,0.005961
socit,0.009123
sold,0.005312
someon,0.011753
sovereign,0.006013
sown,0.011394
sp,0.030849
specifi,0.005115
spectrum,0.005949
spinoff,0.009323
splinter,0.009171
spread,0.008894
st,0.004055
stake,0.015306
stanley,0.013252
start,0.009553
startup,0.008746
statu,0.004201
stearn,0.031015
steepen,0.011892
stein,0.009271
stock,0.009707
stood,0.006767
stori,0.010199
strang,0.007463
strategi,0.060924
strategiesthi,0.015043
street,0.040185
strong,0.003655
studi,0.002658
stunningli,0.012263
suasion,0.012608
substanti,0.009340
substitut,0.005590
success,0.006672
successor,0.005651
suffer,0.004591
suiss,0.021401
summer,0.005820
supervis,0.012031
supervisori,0.009413
supplier,0.007084
support,0.005982
surpris,0.006615
suzann,0.010183
swap,0.015345
switzerland,0.012896
talk,0.005413
tax,0.023640
tech,0.008547
teeter,0.012608
temporari,0.005933
tend,0.020656
term,0.007131
themselv,0.003731
theoret,0.004125
theori,0.014744
therebi,0.005207
therefor,0.013678
thi,0.039517
think,0.008725
time,0.024485
took,0.003930
total,0.014041
trade,0.101903
trader,0.006193
traderslarri,0.015043
tradit,0.009504
tranch,0.011660
transact,0.037919
transform,0.004118
translat,0.004331
treasuri,0.033432
treatment,0.009256
tremend,0.007309
trillion,0.014024
troubl,0.006605
true,0.004073
trust,0.010999
tumbl,0.011061
turn,0.003478
tv,0.006956
typic,0.003375
ub,0.099615
ubss,0.013636
uk,0.004611
unabl,0.005228
unbound,0.008797
uncensor,0.011334
underli,0.004777
unfavor,0.008917
union,0.007477
univers,0.005211
untold,0.010916
unwind,0.021167
use,0.010278
valu,0.035469
valuat,0.034802
vari,0.003708
variou,0.002864
vega,0.008319
vehicl,0.005712
veri,0.005746
vicechairman,0.011892
viciou,0.008823
victor,0.013543
view,0.003224
vivid,0.009220
volatil,0.013387
vw,0.012067
w,0.012663
wa,0.103141
wall,0.031962
wang,0.008145
warrant,0.015519
warren,0.014694
waterhous,0.012485
weather,0.006169
week,0.010575
weiner,0.010963
wherea,0.004365
whi,0.004629
widen,0.015660
wider,0.005728
wield,0.009002
wiley,0.006156
william,0.008062
willing,0.007685
willman,0.014194
winner,0.006926
wipe,0.008145
wizard,0.010153
wooley,0.014194
work,0.002466
world,0.002550
wors,0.006918
worth,0.017089
write,0.003933
x,0.004454
year,0.035546
yield,0.029488
york,0.027123
yorker,0.010183
