abov,0.017989
adjust,0.026896
agreement,0.021448
alloc,0.028041
asset,0.051953
august,0.021352
author,0.031642
averag,0.020988
bank,0.020320
becom,0.013563
befor,0.014470
billion,0.024066
bond,0.048400
bought,0.032375
c,0.016215
calcul,0.043242
cap,0.380247
capit,0.295291
chang,0.012793
choic,0.022297
close,0.045554
come,0.016231
common,0.013723
commun,0.014840
compani,0.232972
compar,0.033572
comprehens,0.024999
consensu,0.028311
contrast,0.019172
corpor,0.022268
cost,0.019954
count,0.025885
countri,0.059745
current,0.014530
cutoff,0.093857
date,0.018969
debt,0.052639
decad,0.020631
decemb,0.020828
defin,0.015576
definit,0.035893
determin,0.015762
differ,0.048129
divid,0.017998
dollar,0.053042
drop,0.049823
econom,0.029908
effect,0.013275
embed,0.031778
enterpris,0.025721
equal,0.018609
equiti,0.125066
ev,0.089514
exact,0.026068
exampl,0.024476
exchang,0.057949
explan,0.024054
express,0.017704
extern,0.010685
factor,0.034652
fall,0.018652
figur,0.020237
filter,0.034059
financ,0.021652
firm,0.048810
float,0.064716
form,0.011168
formula,0.025516
free,0.016690
g,0.039534
gdp,0.027481
given,0.014655
global,0.038809
govern,0.013895
ha,0.029229
heard,0.034744
high,0.014795
histor,0.016413
impact,0.020024
import,0.012462
index,0.023212
indic,0.035950
inflat,0.027517
insur,0.028170
invest,0.020804
januari,0.020852
june,0.021287
larg,0.025749
largecap,0.062610
like,0.013048
link,0.010621
list,0.067916
look,0.020169
m,0.017470
market,0.511964
mc,0.042921
mcntime,0.073921
measur,0.047996
megacap,0.073921
mercantil,0.038620
microcap,0.069753
midcap,0.063320
middlemarket,0.069753
million,0.076743
n,0.043872
nanocap,0.071574
need,0.014683
net,0.025676
nomin,0.050989
note,0.014083
number,0.036659
offici,0.018544
onli,0.011243
opinion,0.025961
oppos,0.020412
outstand,0.233852
overal,0.022356
p,0.055938
percentil,0.055410
perform,0.017171
point,0.028337
popul,0.017379
prefer,0.021448
price,0.186620
public,0.056424
publicli,0.059947
purchas,0.023822
rank,0.070944
refer,0.008882
reflect,0.019090
region,0.015907
rel,0.015927
relat,0.011977
respect,0.016893
rise,0.017875
rose,0.026956
sale,0.051755
septemb,0.021422
share,0.190411
signific,0.031563
sinc,0.012362
site,0.020824
size,0.038505
slightli,0.026794
smallcap,0.064097
sold,0.026107
sometim,0.016093
sp,0.037898
state,0.010817
statist,0.020282
stock,0.190812
structur,0.014444
sum,0.024661
term,0.023364
textstyl,0.052195
thi,0.009247
time,0.032815
topic,0.019615
total,0.068998
trade,0.035768
tradit,0.015567
transact,0.026619
treasuri,0.032857
trend,0.023613
trillion,0.206755
use,0.060610
valu,0.126763
valuat,0.068408
veri,0.014118
wa,0.030410
washington,0.027219
web,0.026803
world,0.025067
worth,0.027992
yearend,0.057301
