ab,0.005578
abandon,0.004159
abl,0.002812
abnorm,0.011083
abov,0.014253
aboveaverag,0.009818
absenc,0.008187
absolut,0.003776
abwawcsigma,0.011053
accept,0.005591
access,0.003081
accord,0.002226
account,0.007867
accur,0.003793
achiev,0.008403
acwbwcsigma,0.011053
ad,0.011366
add,0.004246
addit,0.009010
adjust,0.004262
adopt,0.003072
aim,0.003179
air,0.003420
aka,0.006069
alloc,0.013331
allow,0.008857
alpha,0.005154
alreadi,0.006488
altern,0.011445
amsigma,0.077376
analysi,0.016105
andrew,0.004522
ani,0.013737
appli,0.014282
applic,0.005318
approach,0.012813
appropri,0.003569
argu,0.002962
asigma,0.078546
assembl,0.003476
assess,0.011378
asset,0.358134
assetappropri,0.010618
associ,0.002175
assum,0.006169
assumpt,0.018969
asymmetr,0.018275
attempt,0.010159
attract,0.003582
attribut,0.006923
autoregress,0.008653
avail,0.008165
averag,0.006652
avers,0.012942
award,0.003925
away,0.006784
awbsigma,0.022107
awmwarho,0.022107
b,0.053090
base,0.007761
bc,0.003972
beauti,0.005101
becaus,0.010105
behavior,0.006299
bell,0.005198
benoit,0.008333
besid,0.004593
best,0.005918
beta,0.054918
better,0.006055
bia,0.005119
bias,0.005563
blacklitterman,0.020587
blackschol,0.007129
book,0.002551
borrow,0.013368
boundari,0.007496
brennan,0.008465
brho,0.020892
broadli,0.004494
bsigma,0.010446
budget,0.004202
build,0.002841
built,0.003347
bullet,0.013277
buy,0.008494
bwawbsigma,0.011053
bwcsigma,0.011053
c,0.041114
cal,0.016542
calcul,0.010278
cancel,0.005093
capit,0.023397
capm,0.034947
captur,0.003692
care,0.006756
carlo,0.005117
case,0.002248
cash,0.004494
caus,0.004800
cfrac,0.007777
chanc,0.008657
chang,0.008109
characterist,0.015498
choic,0.003533
circumst,0.004131
coeffici,0.015570
coher,0.004957
collect,0.002623
combin,0.028209
committe,0.003858
common,0.002174
compar,0.002660
compens,0.004545
compon,0.012389
compris,0.003679
comput,0.008940
concept,0.012549
conceptu,0.004328
concern,0.002525
concernsther,0.011053
condit,0.007549
confirm,0.003877
conflat,0.006891
conroy,0.010446
consid,0.002097
constitu,0.004211
constitut,0.002839
constraint,0.004465
contain,0.002580
context,0.006327
continu,0.002179
contrarianvalu,0.011053
contribut,0.010559
convers,0.003710
copula,0.008873
correct,0.003621
correctli,0.015504
correl,0.050309
cost,0.006324
count,0.004102
covari,0.026420
covij,0.022107
crash,0.005349
creat,0.002200
crho,0.020068
crisi,0.003711
criterion,0.005400
critic,0.013228
curv,0.004425
cwawbsigma,0.011053
data,0.008611
decis,0.006065
default,0.005488
defin,0.004936
definit,0.005687
degre,0.002945
demand,0.003211
denot,0.004388
depend,0.004746
deriv,0.016408
describ,0.002213
design,0.002641
desir,0.010155
despit,0.003049
deviat,0.030625
diagram,0.004947
did,0.002669
differ,0.011440
discount,0.031157
discret,0.004242
dispers,0.004936
displaystyl,0.226606
distribut,0.020774
diversif,0.017924
diversifi,0.021788
divid,0.002852
divis,0.003117
document,0.010417
doe,0.004867
doi,0.014285
domin,0.002959
dont,0.010052
drop,0.003947
e,0.148644
easili,0.003709
econom,0.009479
economi,0.002957
economist,0.016261
edg,0.009448
effect,0.002103
effici,0.044078
element,0.002754
elimin,0.003744
ellipt,0.006449
empir,0.003021
engin,0.006241
ensur,0.003557
entireti,0.006190
equal,0.005897
equat,0.021609
equilibrium,0.009051
equival,0.003488
ercrfsigma,0.011053
eri,0.008050
erprfsigma,0.011053
error,0.008235
especi,0.002514
essay,0.004196
establish,0.002310
estim,0.015236
eugen,0.005294
evalu,0.003752
event,0.005636
everi,0.005419
everyon,0.004999
everywher,0.005624
exact,0.004131
examin,0.003389
exampl,0.001939
exceed,0.004547
excel,0.004684
excess,0.008369
exist,0.006460
expect,0.083305
expert,0.004277
explain,0.002915
explicit,0.004728
exposur,0.004812
express,0.016834
extend,0.002856
extens,0.005848
extent,0.003563
extern,0.001693
f,0.060604
fact,0.002749
factor,0.002745
fail,0.006511
fama,0.008397
far,0.002936
favor,0.003576
field,0.002364
figur,0.003206
financ,0.006862
financi,0.021639
fix,0.003436
flow,0.006820
fluctuat,0.004835
follow,0.012966
forc,0.004641
forecast,0.010203
form,0.001769
formula,0.012130
fraction,0.009064
framework,0.006635
frontier,0.071459
function,0.002370
fund,0.047890
fundament,0.005930
furthermor,0.003968
futur,0.005640
gain,0.002817
gaussian,0.025680
gener,0.008319
given,0.030191
govern,0.002201
graph,0.005151
greater,0.002916
ground,0.003369
growth,0.005861
ha,0.015440
half,0.003187
halfcomplet,0.011053
halflin,0.038199
harri,0.009739
held,0.013688
help,0.002534
henc,0.010838
high,0.002344
higher,0.016516
highest,0.003545
histor,0.015606
histori,0.001928
hold,0.025101
horizont,0.005339
hot,0.005099
httpsstatistikeconkitedudownloaddocsecurerminterviewrachevmittnikenglishtranslationpdf,0.011714
human,0.002230
hyperbola,0.041988
hypothesi,0.004033
hypothet,0.005206
ibeta,0.010157
idea,0.005197
ideal,0.003767
ident,0.003315
idiosyncrat,0.007232
ij,0.079298
ijsigma,0.010446
impact,0.003173
implic,0.004034
implicit,0.005423
import,0.005924
improv,0.014247
inadequaci,0.007862
inasmuch,0.007717
includ,0.003214
incorpor,0.003179
increas,0.004453
increment,0.005848
indic,0.008545
individu,0.011942
infinit,0.004534
inform,0.002302
infti,0.014137
initi,0.005031
input,0.004195
insight,0.004295
instead,0.005424
instrument,0.007130
intercept,0.006745
internetbut,0.011053
intertempor,0.008156
interview,0.004787
introduc,0.005432
introduct,0.006139
intuit,0.004954
invers,0.004889
invest,0.032968
investor,0.101462
involv,0.004489
ioperatornam,0.010618
irmtrfepsilon,0.011053
isigma,0.027241
isol,0.003759
isum,0.035304
itfrac,0.010293
iwi,0.009138
iwioperatornam,0.011053
iwisigma,0.011053
iwiwjsigma,0.011053
j,0.066882
jame,0.003265
jneq,0.009722
john,0.002633
journal,0.002978
jrho,0.030881
jstor,0.017477
just,0.002699
justifi,0.004656
jwiwjsigma,0.022107
kelli,0.006630
key,0.008839
kind,0.003084
known,0.001934
kurtosi,0.009025
l,0.003407
labor,0.007602
lagrang,0.006860
later,0.002302
launch,0.003898
lead,0.002309
left,0.006171
leq,0.007569
level,0.013889
leverag,0.005974
lie,0.003792
like,0.010338
likelihood,0.005368
limit,0.007092
line,0.011082
linear,0.004118
linearli,0.006891
link,0.001683
lintner,0.009471
liquid,0.012448
list,0.004305
literatur,0.003458
littl,0.002962
locat,0.005692
locu,0.006290
logic,0.003746
long,0.005026
lose,0.004071
loss,0.020314
low,0.011866
lower,0.008581
lowest,0.004604
lumpi,0.010293
m,0.113507
macroinvest,0.011053
major,0.004107
manag,0.008316
mandelbrot,0.007862
mani,0.006998
margin,0.008484
market,0.089823
markowitz,0.058554
match,0.008232
mathemat,0.018258
mathematica,0.006131
mathematician,0.004738
mathrm,0.006172
matlab,0.007641
matric,0.012783
matrix,0.014576
maxim,0.008804
maximum,0.004209
mean,0.006395
meanvari,0.018396
measur,0.027888
meltdown,0.008102
method,0.004794
michael,0.003562
microsoft,0.006131
minim,0.020427
mit,0.004703
mittnik,0.022107
mm,0.005664
mmquad,0.011053
model,0.048223
modelsthey,0.011053
modern,0.018574
moment,0.004403
money,0.003459
mont,0.005803
montecarlo,0.008972
mood,0.006103
movement,0.005338
mpt,0.192665
mquad,0.010618
msigma,0.031338
mu,0.006137
multipli,0.004989
mutual,0.048996
mwaoperatornam,0.011053
mwasigma,0.011053
nassim,0.007907
natur,0.006199
necessarili,0.003789
need,0.002326
neg,0.013426
neutral,0.008473
new,0.006916
nichola,0.005206
nobel,0.009011
nobodi,0.013546
nonfinanci,0.008212
nonnorm,0.008431
normal,0.006170
note,0.002231
noth,0.008192
nuclear,0.007910
o,0.008163
observ,0.007664
occur,0.009837
odd,0.010921
offer,0.005756
omega,0.006343
onc,0.002892
onli,0.008909
operatornam,0.058881
opportun,0.007312
optim,0.049267
option,0.004039
othernam,0.011053
outcom,0.007914
outsid,0.005905
overal,0.017713
overvalu,0.007345
p,0.050232
packag,0.004907
paid,0.007893
pair,0.016499
paramet,0.008925
parametr,0.013527
paramount,0.006494
particular,0.007268
past,0.003070
pay,0.007227
perfectli,0.016133
period,0.004599
plant,0.006721
platon,0.006178
plot,0.009487
point,0.022453
portfolio,0.580370
portfolioin,0.011053
portfoliotheoret,0.011053
posit,0.016058
possibl,0.020375
postmodern,0.011970
power,0.002271
pra,0.017473
practic,0.009499
predict,0.006495
prefer,0.013595
premium,0.005676
present,0.004438
press,0.002612
pressur,0.003341
price,0.065719
prize,0.004139
probabilist,0.011545
probabl,0.003185
problem,0.011869
process,0.002098
prof,0.013565
profil,0.004792
profstefan,0.011053
project,0.030211
properti,0.002687
proport,0.014679
proportionweight,0.011053
propos,0.002738
provid,0.001969
psqrt,0.009633
psum,0.028899
psycholog,0.007566
pump,0.005582
purchas,0.007550
pure,0.003509
purpos,0.002887
pwasigma,0.022107
q,0.024855
qgeq,0.010618
qin,0.007068
quack,0.008826
quantifi,0.004987
quantiti,0.007230
queri,0.006564
question,0.002787
r,0.157421
ra,0.012769
rachev,0.021237
ran,0.004968
rang,0.005328
rank,0.007495
rarf,0.011053
rarfoperatornam,0.022107
rarfwmwarho,0.011053
rate,0.033008
ratio,0.032024
ration,0.007650
rawaoperatornam,0.011053
rawboperatornam,0.022107
rb,0.007436
rbwaoperatornam,0.011053
rbwcoperatornam,0.011053
rc,0.007330
reach,0.002860
reactor,0.006412
read,0.002444
real,0.002921
realist,0.004837
realiti,0.003829
reassess,0.007080
recent,0.007312
recoverysalvag,0.011053
reduc,0.010667
refer,0.005630
reflect,0.006050
region,0.010083
regress,0.011105
reinforc,0.004794
rel,0.010096
relat,0.001898
relationship,0.005374
relev,0.007363
remedi,0.005567
remov,0.003250
repres,0.009236
requir,0.006648
result,0.009804
retriev,0.004182
return,0.202276
review,0.006308
reward,0.004869
rf,0.007405
rho,0.020045
ri,0.007273
riquad,0.011053
rirfbeta,0.011053
risk,0.245924
riskexpect,0.055269
riskfre,0.158829
riski,0.071636
riskier,0.007819
risktoexpect,0.011053
ritrfalpha,0.011053
rmrf,0.022107
rmrfrho,0.011053
rmrfsigma,0.011053
rmrfwmwasigma,0.011053
rmwaoperatornam,0.011053
roi,0.008001
root,0.003556
routin,0.005053
rp,0.007569
rpsum,0.011053
rpwaoperatornam,0.022107
rtw,0.022107
rtwmu,0.011053
run,0.003093
s,0.005989
sampl,0.008390
say,0.006099
scalabl,0.007777
scienc,0.002367
scl,0.019444
second,0.002310
secur,0.014954
securitiesexcept,0.011053
select,0.003061
self,0.004837
selfconcept,0.024077
selfesteem,0.007405
sell,0.007964
semin,0.005384
sens,0.002896
sensit,0.013602
separ,0.005143
seri,0.002804
set,0.004361
sever,0.006127
sharepric,0.010618
sharp,0.023789
short,0.012005
shortin,0.011053
shortterm,0.005117
shown,0.006789
sigma,0.072448
signifi,0.005680
similar,0.002339
simplest,0.004997
simpli,0.015984
simul,0.008513
sinc,0.009795
size,0.003050
skew,0.006726
slope,0.005656
social,0.002492
softwar,0.004150
sold,0.012411
solv,0.003605
sometim,0.002550
sortino,0.010818
space,0.009061
span,0.004525
specif,0.011720
specifi,0.003983
spend,0.004066
spent,0.004330
squar,0.008301
stabl,0.007711
stake,0.005959
standard,0.015832
stanford,0.004550
start,0.002479
state,0.001714
statement,0.003596
statist,0.006428
stefan,0.006708
stochast,0.010874
stock,0.022678
stockholm,0.006596
strategi,0.007298
structur,0.006867
stuck,0.006830
studi,0.004140
subject,0.004984
subportfolio,0.011053
substitut,0.004353
suit,0.004554
suitabl,0.004349
sum,0.015632
sunk,0.007033
suppli,0.006387
svetlozar,0.021237
symmetr,0.005578
systemat,0.018714
systemlevel,0.009549
t,0.034086
taleb,0.007819
tangenc,0.113656
tangent,0.013603
term,0.005553
test,0.003202
theorem,0.026350
theoret,0.006424
theoretician,0.007390
theori,0.036742
therefor,0.010651
thi,0.045426
thought,0.002776
thu,0.009160
tight,0.005979
time,0.006933
tobin,0.008212
today,0.002814
toler,0.014871
tool,0.003137
tradeoff,0.012633
tradit,0.002467
transfer,0.003352
treasuri,0.005206
treat,0.003430
treynor,0.009722
true,0.009516
twoasset,0.011053
twomoment,0.011053
type,0.004710
unbound,0.006850
uncertainti,0.013677
unconstrain,0.008575
uncorrel,0.008102
uncorrelatedth,0.011053
underli,0.003720
undervalu,0.007390
undiversifi,0.010157
uniqu,0.003340
unit,0.001976
univers,0.002029
unlik,0.003262
unsystemat,0.008613
upper,0.007912
use,0.028814
usual,0.004715
v,0.006986
valu,0.022599
valuat,0.010840
valv,0.006699
vari,0.002888
variabl,0.007162
varianc,0.099986
variancecovari,0.020068
varieti,0.002941
variou,0.004460
vector,0.009476
veri,0.002237
version,0.003427
versu,0.004573
vertic,0.010136
vessel,0.004769
view,0.005022
virtual,0.003874
volatil,0.046912
w,0.207095
wa,0.003212
waapprox,0.011053
want,0.003617
waoperatornam,0.022107
wasigma,0.011053
way,0.010473
weight,0.019744
welldefin,0.005839
welldiversifi,0.010618
wellspecifi,0.010034
whi,0.003604
wi,0.008129
william,0.009417
window,0.005505
wmoperatornam,0.011053
wmsigma,0.011053
wmwarho,0.011053
word,0.005439
work,0.003841
world,0.001986
wqrtw,0.011053
write,0.003063
written,0.003101
wtsigma,0.032454
x,0.003468
y,0.004172
z,0.004779
zero,0.012360
