abov,0.028407
accept,0.003482
accord,0.002773
accordingli,0.006242
accuraci,0.012030
actual,0.003549
actuari,0.008571
advantag,0.004305
affect,0.003624
align,0.005992
alpha,0.224718
altern,0.007128
alternatealpha,0.014591
alway,0.007459
analog,0.004956
analysi,0.010030
analyz,0.004662
ani,0.007333
anomali,0.007574
appear,0.003212
appli,0.011860
applic,0.029812
approach,0.006384
appropri,0.004446
approxim,0.007559
arithmet,0.006772
arriv,0.017859
articl,0.003296
artifact,0.006572
assess,0.004724
assum,0.011527
avail,0.006781
averag,0.269289
avoid,0.004142
base,0.002416
becom,0.002677
beginalignedfrac,0.011457
beginalignedlnleftexp,0.014591
beginalignedsmafrac,0.014591
beginalignedstalpha,0.014591
beginalignedtextit,0.014591
beginalignedxnxcdot,0.014591
better,0.003771
bigger,0.007506
bit,0.006801
bracket,0.007979
bruteforc,0.010830
c,0.003200
calcul,0.051213
case,0.008402
cdot,0.085662
center,0.003572
central,0.012559
characterist,0.007721
choic,0.008802
chosen,0.005118
clarif,0.008834
close,0.005994
cma,0.142743
cman,0.072957
cmanendalign,0.014591
cmanncdot,0.014591
cmanxcdot,0.014591
cmanxnncdot,0.029182
cmanxntextit,0.014591
coeffici,0.019394
come,0.006407
commonli,0.011161
compar,0.003313
complet,0.003094
compon,0.003858
comput,0.018560
concept,0.003126
confus,0.005042
connect,0.003688
consid,0.005225
constant,0.008907
contain,0.003214
context,0.003941
converg,0.017705
convergencediverg,0.013011
convolut,0.026830
cpu,0.009077
creat,0.002740
crossov,0.009009
cumul,0.071109
current,0.017208
cycl,0.013778
data,0.092962
datum,0.213354
day,0.013523
decreas,0.035295
defin,0.009223
definit,0.003542
degre,0.003668
denomin,0.013349
denot,0.005466
depend,0.011824
deriv,0.006812
describ,0.002757
desir,0.004216
deviat,0.012715
differ,0.021375
digit,0.005002
discount,0.012936
discuss,0.010966
displaystyl,0.302790
disproportion,0.015638
distinct,0.003450
distort,0.006325
distribut,0.014786
divid,0.010657
doe,0.009094
domest,0.004642
download,0.007909
drawback,0.008718
drop,0.009834
e,0.025413
earli,0.002697
econom,0.002951
effect,0.010481
effici,0.004223
element,0.003430
elimin,0.004664
ema,0.145294
employ,0.003577
encount,0.005312
engin,0.007774
ensur,0.008862
equal,0.029385
equat,0.004486
error,0.010258
essenti,0.003749
estim,0.015182
event,0.007020
eventu,0.003833
everi,0.006750
ewma,0.013475
examin,0.004221
exampl,0.031403
excel,0.005834
exclud,0.005074
exist,0.002682
exp,0.054363
expand,0.003815
expect,0.003705
explain,0.007262
exponenti,0.090898
express,0.010484
extern,0.002109
factor,0.017099
fall,0.003681
far,0.007314
faster,0.011253
file,0.006020
filter,0.067229
final,0.003488
financ,0.004274
financi,0.015402
finit,0.005578
fix,0.012843
fluctuat,0.024092
follow,0.006921
form,0.008818
formul,0.004618
formula,0.050367
forward,0.005120
frac,0.019363
fraction,0.005645
french,0.003881
frequenc,0.016535
function,0.014764
gaussian,0.007996
gener,0.004145
geometr,0.005931
given,0.014464
graph,0.012834
graphic,0.006203
gross,0.005639
ha,0.011539
half,0.003970
henc,0.004500
high,0.002920
higher,0.017144
highest,0.004416
highlight,0.005938
howev,0.007022
hunter,0.007308
ident,0.004129
imag,0.008882
impli,0.004484
import,0.007379
impuls,0.014784
includ,0.004004
increas,0.002773
independ,0.002962
index,0.004581
indic,0.003548
individu,0.002975
induc,0.005711
infinit,0.016942
influenc,0.003176
infti,0.026414
initi,0.009401
initialis,0.024717
inpmiendalign,0.014591
insid,0.004837
instead,0.003378
intermedi,0.005668
interpret,0.003847
interv,0.006076
intuit,0.006171
invert,0.007795
investor,0.005494
iter,0.007217
just,0.010089
k,0.083082
kalpha,0.052907
kcdot,0.023595
kendalign,0.013768
kernel,0.016803
kind,0.007683
klog,0.013475
kn,0.009687
known,0.002409
ktext,0.013475
ktime,0.051287
l,0.025470
lag,0.007506
laplac,0.016559
larg,0.010165
larger,0.007612
latest,0.032204
lead,0.005754
left,0.007687
lefta,0.014591
leftalpha,0.078070
leftleft,0.014591
lefttntn,0.043774
length,0.014352
let,0.005402
level,0.002883
lieu,0.009095
lifetim,0.006174
like,0.005151
lim,0.035460
link,0.002096
littl,0.003690
lnptleftexp,0.014591
lnptqnetim,0.014591
lnqnendalign,0.014591
local,0.003265
log,0.027022
logalpha,0.014591
long,0.003130
longerterm,0.009428
longterm,0.010148
lowpass,0.023071
m,0.096555
macroeconom,0.006513
major,0.002558
make,0.009807
mani,0.004358
market,0.007218
mathemat,0.007580
mean,0.047796
measur,0.006316
median,0.067562
method,0.005972
metric,0.006475
middl,0.003975
minut,0.011510
mm,0.007055
mma,0.037075
model,0.006006
modifi,0.014113
movement,0.003324
movingaverag,0.013475
multipli,0.006215
n,0.580215
nalpha,0.011705
nday,0.043774
necessarili,0.004719
nendalign,0.013475
new,0.015075
nn,0.009113
nncdot,0.023411
nontim,0.012821
normal,0.015372
note,0.005559
npm,0.013226
npmn,0.014591
npttextit,0.014591
nright,0.010993
nrightn,0.013226
nrightnea,0.014591
nrightnright,0.014591
nsum,0.010460
nto,0.021660
number,0.031356
numer,0.014288
o,0.005084
observ,0.009546
obtain,0.003747
occasion,0.005439
occur,0.003063
odd,0.006801
old,0.011968
older,0.020238
omit,0.037667
onli,0.008877
optim,0.010228
order,0.007970
outsid,0.003678
p,0.125139
palpha,0.062493
paramet,0.011117
particular,0.012071
past,0.003824
pcdot,0.022352
peak,0.005290
perfectli,0.006698
perform,0.006778
period,0.025783
phase,0.004636
pixelis,0.014591
place,0.005453
plu,0.005424
pm,0.021907
pmn,0.052046
pmnnfrac,0.014591
pmnpmn,0.014591
pmpmcdot,0.014591
pmpmdot,0.014591
point,0.081106
posit,0.002857
possibl,0.005639
power,0.005658
prev,0.013768
previou,0.012507
price,0.049116
primari,0.003649
prior,0.004175
probabl,0.007934
problem,0.002956
process,0.010454
product,0.002881
progress,0.003768
properli,0.005814
proport,0.009142
ptalpha,0.014591
ptqquad,0.013475
q,0.030960
qne,0.013768
qnetim,0.014591
qquad,0.010060
question,0.003471
queue,0.018373
r,0.011099
rapid,0.004791
rare,0.013650
ratio,0.004986
reach,0.003563
read,0.018272
receiv,0.003350
recent,0.003036
recommend,0.005168
recommendationnot,0.014591
recov,0.005397
recurs,0.007644
refer,0.001753
regard,0.010092
regress,0.020750
regular,0.004803
rel,0.003143
reliabl,0.005243
remain,0.002899
remov,0.008096
repeat,0.005061
repres,0.008629
requir,0.013801
resist,0.004543
respons,0.009123
result,0.021982
return,0.003548
right,0.015732
rightalpha,0.014128
rightleft,0.013226
rightptfrac,0.014591
rightrighttim,0.043774
righttim,0.012498
rise,0.007056
rma,0.012229
robert,0.003855
robust,0.006351
roll,0.013085
run,0.023120
s,0.044764
said,0.003602
sampl,0.020901
scienc,0.005898
second,0.011511
seen,0.003440
select,0.003812
sequenc,0.004867
seri,0.045410
set,0.013581
share,0.006833
shift,0.012748
shock,0.011989
short,0.007477
shorter,0.006242
shortterm,0.012748
shown,0.012685
signal,0.015135
signific,0.003115
similar,0.002914
similarli,0.004623
simpl,0.031019
simpli,0.003981
simplifi,0.011366
simplist,0.008718
sinc,0.009760
size,0.003800
skiplist,0.014591
sma,0.105350
small,0.008958
smaller,0.008298
smamathrm,0.029182
smm,0.013768
smma,0.014128
smmtextmedianpmpmldot,0.014591
smooth,0.064717
sn,0.016434
snalpha,0.014591
snleftexp,0.014591
solv,0.008982
someth,0.004691
sometim,0.006353
sort,0.005118
space,0.003762
specif,0.005839
specifi,0.004961
spectral,0.007493
spencer,0.008005
spinup,0.013011
squar,0.005170
st,0.015735
stalpha,0.014591
start,0.003089
statist,0.016014
step,0.004138
stkendalign,0.014591
stock,0.014124
stop,0.019284
store,0.009888
straightforward,0.007725
stream,0.005849
sttext,0.014591
subset,0.030603
substitut,0.010845
subtract,0.007506
success,0.009708
suffici,0.004511
suitabl,0.005417
sum,0.048678
summat,0.008413
support,0.002901
suscept,0.007035
sy,0.009687
symmetr,0.006949
t,0.135868
taken,0.003573
technic,0.013020
techniqu,0.003750
tell,0.005496
tend,0.004007
term,0.029977
termstexttot,0.014591
texteapprox,0.014591
textematexttodayalpha,0.014591
textematexttodaypalpha,0.014591
textematexttodaytextematextyesterdayalpha,0.014591
textematextyesterday,0.014591
textit,0.145494
textmmatexttodayntim,0.014591
textmmatextyesterdaytextpric,0.014591
textnumeratormtextnumeratormnpmtotalm,0.014591
textpricetexttoday,0.014591
textpricetexttodaytextematextyesterday,0.014591
textpricetextyesterday,0.014591
texttotalmtexttotalmpmpmn,0.014591
textweight,0.014591
textwmamnpmnpmcdot,0.014591
textwmamtextnumeratorm,0.014591
thi,0.041981
threshold,0.006797
thu,0.002852
time,0.086366
tn,0.009243
tntnexp,0.014591
tntntime,0.029182
today,0.021034
toler,0.006174
total,0.030644
totalm,0.014591
trade,0.010590
transact,0.021017
trend,0.032628
triangl,0.007217
trough,0.009687
type,0.011735
typic,0.006547
u,0.005694
underli,0.009268
understand,0.003312
understood,0.004579
undesir,0.007630
unexpect,0.007126
unnecessari,0.007206
unobserv,0.008367
unreli,0.007819
unweight,0.012652
updat,0.011823
use,0.049849
user,0.005413
util,0.004414
v,0.004351
valu,0.068809
variabl,0.004460
varianc,0.007326
variat,0.022872
veri,0.013934
version,0.004268
view,0.012510
volum,0.012540
w,0.016378
want,0.004505
way,0.007827
weight,0.245933
weightptfrac,0.014591
whatev,0.006007
whi,0.008980
width,0.008206
window,0.034291
wma,0.076931
wmam,0.029182
world,0.002474
wors,0.006710
worst,0.006731
write,0.003815
wtime,0.043774
x,0.064812
xcdot,0.010830
xldot,0.012498
xn,0.027340
xnncdot,0.013768
xnptncdot,0.014591
xnxcdot,0.014591
y,0.072755
yesterday,0.048064
ynalpha,0.014591
ynexp,0.014591
yt,0.041363
ytalpha,0.058365
ytcdot,0.014591
yti,0.013475
ytkalpha,0.014591
zero,0.010264
