abil,0.005702
abrupt,0.006357
absenc,0.003810
accept,0.002601
access,0.011470
accompani,0.004006
account,0.004881
accru,0.006051
act,0.011843
activ,0.010339
actual,0.002652
addit,0.006289
address,0.003120
administ,0.004062
advantag,0.003216
advic,0.009020
advis,0.004189
advisor,0.047785
advisori,0.005095
affect,0.005416
afford,0.004450
aftertax,0.016344
agenc,0.035863
agreement,0.006326
aid,0.003109
airport,0.013695
altern,0.005326
america,0.011618
american,0.009392
amort,0.006951
analysi,0.002498
analyz,0.003483
ani,0.007306
annual,0.009550
anoth,0.001993
answer,0.003690
anticip,0.004609
appli,0.006646
applic,0.007425
appoint,0.006813
appreci,0.004598
approv,0.007120
approxim,0.002824
arbitrag,0.012733
aris,0.003381
arrang,0.003378
art,0.003170
aspect,0.002723
assess,0.007060
asset,0.007662
assign,0.003722
associ,0.004049
assum,0.008613
attract,0.003334
author,0.021001
avail,0.010133
averag,0.006191
awar,0.007499
bank,0.005994
bankruptci,0.010819
bar,0.004684
base,0.005417
basi,0.002581
basic,0.002514
bear,0.003878
becaus,0.007524
becom,0.002000
began,0.002495
begun,0.003973
benefit,0.003032
best,0.002754
better,0.002818
board,0.003605
bond,0.749550
bondssuch,0.010902
borrow,0.020737
bought,0.004775
boundari,0.003488
bracket,0.005962
bridg,0.020643
broker,0.032924
brought,0.003080
budget,0.003911
build,0.013222
built,0.003115
burst,0.005629
buy,0.019766
buyer,0.009975
buyin,0.009722
c,0.007174
calcul,0.003188
canal,0.004964
cap,0.005098
capit,0.027220
care,0.003144
carri,0.005396
case,0.018834
cash,0.008366
casualti,0.005482
categori,0.003193
cd,0.017284
cementandpav,0.010902
center,0.002669
central,0.004692
centuri,0.004298
centuriesth,0.010902
certain,0.018326
challeng,0.002989
channel,0.004131
chapter,0.003900
characterist,0.002884
charg,0.006459
circumst,0.003844
citi,0.020233
cityst,0.005872
civil,0.005742
close,0.002239
code,0.016193
codifi,0.005496
collaps,0.003687
collater,0.006094
collect,0.002441
columbia,0.004655
comanag,0.008815
combin,0.002386
commonli,0.005559
commonwealth,0.004323
commun,0.004377
compani,0.002643
compar,0.014854
comparison,0.007020
complex,0.004898
compli,0.005518
complianc,0.010745
compos,0.003175
condit,0.002342
confer,0.003295
congress,0.003750
connect,0.002756
consid,0.003904
consist,0.004481
constitut,0.010572
construct,0.005184
consum,0.003333
contain,0.004803
continu,0.008113
contrari,0.004377
contribut,0.002456
control,0.002224
core,0.003554
corpor,0.045981
correspondingli,0.006321
cost,0.005886
counsel,0.043111
counterpart,0.004488
counti,0.009963
countiesar,0.010902
countri,0.004405
coupon,0.032266
court,0.012700
cover,0.002756
creat,0.004095
credit,0.022676
crisi,0.003454
critic,0.002462
current,0.006429
custom,0.003384
customarili,0.006878
date,0.002797
davi,0.004854
day,0.005052
deal,0.005393
debt,0.050464
decad,0.006085
decid,0.009787
decis,0.002822
default,0.035757
deficit,0.004646
defin,0.002297
demand,0.002988
demonstr,0.003008
denomin,0.009975
depart,0.002935
depend,0.008835
depress,0.008318
deriv,0.002545
desir,0.006301
determin,0.006974
develop,0.001674
devot,0.011870
did,0.002484
differ,0.005323
direct,0.002222
disclosur,0.024092
discount,0.014499
displaystyl,0.015338
distribut,0.013810
district,0.024294
document,0.016159
doddfrank,0.007946
doe,0.002265
domain,0.003269
downgrad,0.007045
draft,0.004320
drop,0.003674
dure,0.001927
earli,0.010078
earn,0.007576
economi,0.002752
educ,0.005135
effect,0.001957
elect,0.005945
electron,0.006745
els,0.004150
emin,0.005733
emma,0.020808
enact,0.004467
energi,0.002821
ensu,0.004927
ensur,0.006622
entail,0.004703
entiti,0.013678
entitl,0.004160
equal,0.005489
equival,0.003246
especi,0.002340
establish,0.002150
estim,0.002836
event,0.005245
everincreas,0.006809
exampl,0.005415
exchang,0.014244
exclud,0.007582
exempt,0.078578
exercis,0.003462
exist,0.002004
expenditur,0.004456
expens,0.003599
expir,0.010895
explos,0.004467
extens,0.002721
extern,0.001575
face,0.006050
facil,0.011589
factor,0.002555
fair,0.004081
faith,0.008058
fall,0.002751
famili,0.002790
far,0.002732
farmer,0.004265
fdicinsur,0.009883
featur,0.005451
feder,0.051342
fee,0.009434
fiduciari,0.007045
file,0.004498
financ,0.057483
financi,0.028771
firm,0.003599
fitch,0.007516
fix,0.009596
flow,0.003173
focal,0.006044
focus,0.002805
follow,0.008619
form,0.003294
formal,0.002696
forward,0.003825
free,0.007385
frequent,0.003029
fund,0.026743
futur,0.007874
gain,0.005243
gave,0.003135
gener,0.024777
given,0.008646
good,0.002396
govern,0.028691
government,0.013531
grant,0.003303
great,0.002428
greater,0.002714
greatli,0.007058
gross,0.012641
group,0.009720
grow,0.002763
grown,0.004150
growth,0.010911
guam,0.007045
ha,0.007185
halt,0.009821
hand,0.002670
harder,0.005356
harrisburg,0.028017
head,0.002782
held,0.005096
help,0.007078
high,0.002182
higher,0.017934
highway,0.005439
hire,0.004705
histor,0.007262
histori,0.003590
hold,0.005191
holder,0.058795
hospit,0.008499
hous,0.005782
hover,0.007566
howev,0.006996
hr,0.006658
httpemmamsrborg,0.010902
httpwwwcitymayorscomfinancebondshtml,0.010902
idea,0.002418
identifi,0.002605
ii,0.002820
immedi,0.006335
impact,0.002953
import,0.003676
improv,0.002652
inciner,0.008351
includ,0.016456
incom,0.066018
increasingli,0.003177
indentur,0.006567
independ,0.002213
index,0.003423
indic,0.005302
indiffer,0.005955
individu,0.006668
industri,0.009839
inform,0.010712
infrastructur,0.007297
infrastructurerel,0.010902
instanc,0.002918
institut,0.002280
insur,0.016619
intermedi,0.004235
intern,0.003777
interpret,0.002875
introduc,0.002528
invest,0.024547
investor,0.049269
involv,0.002089
ir,0.024092
irc,0.008965
irregular,0.005041
island,0.006388
issu,0.090190
issuanc,0.140008
issuer,0.192424
italian,0.004043
item,0.007906
januari,0.003075
jersey,0.005336
jolt,0.008172
journal,0.005543
kentucki,0.006635
key,0.008227
known,0.007202
labor,0.003538
larg,0.003797
larger,0.002844
largest,0.008927
latent,0.006037
law,0.019534
lead,0.004299
led,0.002325
left,0.002872
legaci,0.004530
legal,0.032704
length,0.003574
level,0.008618
levi,0.005063
liaison,0.006796
like,0.001924
limit,0.004400
line,0.002578
link,0.001566
liquid,0.015448
list,0.002003
litig,0.006376
littl,0.002757
loan,0.012540
local,0.039043
locat,0.005298
longer,0.020800
longterm,0.007582
low,0.002761
lower,0.013310
lowest,0.004285
m,0.012883
main,0.002280
maintain,0.002512
mainten,0.004322
major,0.001911
make,0.005496
manag,0.002580
maneuv,0.006178
mani,0.026054
manual,0.004550
margin,0.007896
mariana,0.006658
marker,0.005542
market,0.072813
marketplac,0.005696
marketwid,0.010068
materi,0.005049
mathemat,0.002832
matur,0.037730
maximum,0.003917
mayor,0.005465
mean,0.001984
measur,0.007079
meet,0.005829
member,0.002298
memorandum,0.006366
met,0.003684
method,0.002231
militari,0.002914
million,0.002829
minimi,0.008619
minimum,0.019648
mislead,0.005447
modern,0.004321
momentum,0.004736
money,0.019318
monolin,0.010556
month,0.003182
moodi,0.006770
mortgag,0.010642
motiv,0.003519
msrb,0.019444
multifamili,0.009234
multipl,0.005541
municip,0.460946
need,0.006497
net,0.007574
network,0.003011
new,0.017701
newspap,0.004460
nineteenth,0.004506
nondat,0.010068
northern,0.010103
note,0.006231
notic,0.008177
number,0.001802
oblig,0.039783
occurr,0.004659
offer,0.013394
offici,0.010940
onc,0.008075
ongo,0.003942
onli,0.006633
open,0.002466
oper,0.006818
opinion,0.011487
oppos,0.003010
opt,0.005604
order,0.001985
organ,0.003930
origin,0.003993
outsid,0.002748
outstand,0.004927
overhead,0.006414
overrul,0.007402
overse,0.010745
pa,0.005614
pab,0.010556
pacif,0.008351
paid,0.003673
panic,0.006044
paperwork,0.007785
parti,0.002784
particip,0.002842
particular,0.002255
partli,0.003873
partner,0.003938
pass,0.002798
pattern,0.003073
pay,0.020180
payment,0.034947
peerreview,0.005761
peopl,0.001986
percentag,0.004014
period,0.010703
permit,0.003669
pertain,0.004981
petit,0.005328
placement,0.011308
platform,0.013234
play,0.005202
pledg,0.005108
point,0.002089
polic,0.004006
pollock,0.007424
poor,0.003562
port,0.008141
possess,0.003237
post,0.003496
postissu,0.010556
potenti,0.010698
power,0.019026
predat,0.004585
prefer,0.003163
previous,0.003149
prewar,0.006186
price,0.018349
primari,0.008180
princip,0.025817
prior,0.003120
privat,0.026659
probabl,0.002964
problem,0.002209
proce,0.015088
procedur,0.003597
process,0.009764
profession,0.013389
profit,0.007138
project,0.035786
promin,0.003239
promis,0.031054
promot,0.002946
promulg,0.005267
properti,0.010005
proport,0.003415
propos,0.002548
prospect,0.004389
protect,0.008260
provid,0.012830
provis,0.012071
public,0.029127
publicli,0.013262
publicus,0.010902
puerto,0.005942
purchas,0.024594
purpos,0.016123
qualifi,0.008688
quantiti,0.003364
r,0.019351
railroad,0.021268
rais,0.018282
rapid,0.010740
rare,0.003399
rate,0.071683
rc,0.020468
rcfrac,0.010288
reason,0.004702
receiv,0.012515
recent,0.006806
record,0.005523
recoveri,0.004361
recruit,0.004830
redevelop,0.007785
reduc,0.004964
refer,0.002620
referendum,0.009097
reform,0.006409
regard,0.002513
regul,0.015508
regularli,0.004460
reinvest,0.006433
relat,0.003533
relationship,0.002500
remain,0.002166
remedi,0.005181
renaiss,0.004332
renam,0.004548
rent,0.005044
repair,0.004664
repay,0.049836
repres,0.004298
requir,0.014437
resourc,0.002652
respond,0.003533
respons,0.002272
restrict,0.015182
result,0.003650
retail,0.004738
retrad,0.009883
return,0.013257
revenu,0.057334
review,0.005871
rico,0.006186
right,0.002351
rise,0.002636
risk,0.019342
rm,0.018681
rmrc,0.010902
rmrct,0.010902
rmt,0.008815
road,0.007611
role,0.009180
roughli,0.003675
rule,0.011958
rulemak,0.008303
s,0.009291
said,0.002691
sale,0.019083
salespeopl,0.008965
samoa,0.006443
save,0.003720
schedul,0.004354
school,0.010662
seaport,0.013225
second,0.002150
secondari,0.011192
section,0.019478
sector,0.003434
secur,0.047321
seek,0.005879
sell,0.022237
semiannu,0.007643
separ,0.002393
septemb,0.003159
serv,0.018256
servic,0.010210
sever,0.011405
sewag,0.006878
sewer,0.007446
sharp,0.004428
short,0.002793
shorter,0.009328
shortterm,0.009525
signific,0.002327
significantli,0.003362
similar,0.008709
sinc,0.003646
singl,0.002440
singlefamili,0.008214
situat,0.002807
size,0.002839
skill,0.003512
skip,0.006719
small,0.004462
smaller,0.006200
sold,0.019252
sole,0.003701
solut,0.003119
sometim,0.004747
sourc,0.006880
sovereign,0.008716
sp,0.005589
span,0.004212
special,0.015963
specialpurpos,0.008214
specif,0.002181
specifi,0.011121
spent,0.004030
standard,0.002455
state,0.046268
statement,0.013389
statu,0.006090
statut,0.005356
statutori,0.012160
step,0.003091
stock,0.021107
strain,0.004532
strateg,0.003979
strategi,0.003396
stream,0.004370
street,0.008321
structur,0.004260
student,0.003103
subject,0.013917
subsequ,0.002845
subsid,0.005409
subsidi,0.005079
suit,0.004238
support,0.002167
suprem,0.011202
surround,0.003339
syndic,0.019736
t,0.022207
tabl,0.003509
taken,0.002669
task,0.003382
tax,0.140500
taxabl,0.052200
taxat,0.004483
taxexempt,0.074242
team,0.019039
technolog,0.002628
temporari,0.004300
tend,0.002994
term,0.010337
territori,0.006383
test,0.002980
tfrac,0.006147
therefor,0.007435
thereund,0.010068
thi,0.013638
thing,0.005802
tie,0.003556
time,0.025813
today,0.005238
togeth,0.007543
toll,0.011625
trade,0.010550
tradeabl,0.008303
trader,0.004488
tradit,0.011480
transcontinent,0.007402
transfer,0.003120
transfere,0.010556
transform,0.002984
treatment,0.010062
tremend,0.005298
triborough,0.020576
trillion,0.005082
trust,0.003986
tunnel,0.005505
twentieth,0.004301
type,0.024114
typic,0.022016
unabl,0.003789
unanticip,0.007446
underwrit,0.094600
uniqu,0.003109
unit,0.009195
unlik,0.006073
unlimit,0.005456
upfront,0.007643
urban,0.007649
use,0.011919
usual,0.006582
util,0.016493
v,0.006502
valu,0.002337
valuabl,0.004280
valuat,0.005044
vari,0.005376
variabl,0.003333
varieti,0.008213
variou,0.004151
veri,0.006247
verifi,0.004609
versu,0.004256
villag,0.004166
virgin,0.005584
vote,0.003457
voter,0.014674
voterapprov,0.010902
wa,0.014950
wall,0.003860
war,0.007770
wast,0.004373
water,0.008438
websit,0.006895
week,0.003832
wholl,0.010902
wholli,0.005305
wide,0.002348
widespread,0.007006
work,0.005362
world,0.005545
worth,0.004128
wrong,0.004288
wrote,0.003106
wwwirsgov,0.010902
year,0.018402
yield,0.021372
york,0.008425
zero,0.003834
