abil,0.008454
abov,0.007866
absenc,0.011296
accept,0.007714
access,0.008501
accord,0.006144
account,0.007236
acquisit,0.013285
act,0.007022
activ,0.018393
actual,0.007863
addit,0.018648
adequaci,0.041490
advantag,0.009537
advic,0.013372
advisor,0.015741
agenc,0.028998
alan,0.013026
alloc,0.012261
allow,0.012220
alm,0.043892
altern,0.023686
ani,0.010830
appli,0.006568
applic,0.014676
approxim,0.016747
april,0.009400
area,0.012205
arrang,0.010017
asia,0.021100
asian,0.035117
asid,0.014013
asset,0.147667
associ,0.006002
author,0.006918
authoris,0.018226
avail,0.007511
b,0.008138
backup,0.043513
bank,0.177716
bankbas,0.028824
bankrel,0.031298
base,0.005353
basi,0.007653
becaus,0.005577
betterdevelop,0.029301
bidoff,0.027378
billion,0.021047
bodi,0.007434
break,0.010212
broker,0.048806
brokerdeal,0.023265
bubbl,0.015531
build,0.007840
busi,0.016704
buy,0.023441
capabl,0.009771
capit,0.064562
case,0.018613
cash,0.012402
cashier,0.025056
categori,0.047341
central,0.006955
certain,0.013583
certif,0.014422
channel,0.012249
check,0.025729
choic,0.009750
civ,0.129298
claim,0.007532
classif,0.010949
classifi,0.020075
client,0.014291
closedend,0.047324
collaps,0.010931
collect,0.021716
commiss,0.009880
commun,0.006489
compani,0.188075
competit,0.029276
conduc,0.018715
constitut,0.007836
consult,0.011460
conting,0.014414
contract,0.009955
contractu,0.070548
contrast,0.008383
contribut,0.014569
corpor,0.019475
correl,0.011568
countri,0.026125
cover,0.024514
creat,0.012141
credit,0.057626
creditinform,0.032324
creditreport,0.032324
crisi,0.040967
crossbord,0.018822
crunch,0.020839
currenc,0.032627
current,0.006353
damag,0.010710
date,0.016590
deal,0.007995
death,0.017385
debt,0.046035
default,0.015144
deficit,0.013775
depend,0.006548
deposit,0.035250
deriv,0.015092
describ,0.006108
destabil,0.018487
devalu,0.016903
develop,0.024818
differ,0.005261
differenti,0.010049
direct,0.006590
disciplin,0.009145
disclosur,0.017857
discount,0.042987
distinguish,0.008811
divid,0.007870
doe,0.006715
easili,0.010237
econom,0.045774
economi,0.024481
educ,0.007612
eea,0.022146
effect,0.005804
effici,0.009356
electron,0.009999
emi,0.051862
enabl,0.009476
enhanc,0.011067
enter,0.008735
entir,0.007750
entiti,0.020276
equip,0.010682
equiti,0.041016
establish,0.012753
estat,0.012720
eu,0.039030
eurofff,0.032324
europ,0.016204
european,0.022327
exacerb,0.016543
exampl,0.032108
exchang,0.016893
exist,0.011883
exit,0.015673
expand,0.008452
exposur,0.039839
extern,0.004672
facil,0.034361
facilit,0.021544
fail,0.017967
feasibl,0.014518
feeforservic,0.026581
fiduciari,0.020887
financ,0.047341
financi,0.315621
firm,0.021343
fix,0.009484
focu,0.008766
focus,0.008317
follow,0.005111
forc,0.006404
foreign,0.008317
form,0.014651
fragil,0.017131
frequent,0.008982
fuel,0.011840
fund,0.158577
gener,0.032139
gfdr,0.032324
global,0.008485
govern,0.018228
grant,0.009795
greatli,0.010463
greenspan,0.021405
growth,0.024262
guarante,0.011720
ha,0.017042
happen,0.010098
heavili,0.010300
hedg,0.031905
held,0.007554
high,0.019409
hold,0.015392
homeown,0.022506
hous,0.017142
howev,0.010371
identifi,0.007723
ill,0.012406
immedi,0.009392
import,0.005449
improv,0.015725
incentiv,0.024484
includ,0.035483
incom,0.019573
increas,0.006144
individu,0.039543
industri,0.021879
inform,0.025408
infrastructur,0.010818
initi,0.006942
instabl,0.013815
instanc,0.008653
institut,0.135224
instrument,0.029515
insur,0.209410
intermedi,0.025115
intern,0.005599
introduc,0.007495
inventori,0.033231
invest,0.145555
investor,0.048691
ipo,0.020935
issu,0.013712
issuer,0.019016
japan,0.010566
known,0.005338
korea,0.012895
labor,0.010489
lack,0.024436
land,0.008084
larg,0.022519
later,0.006353
leas,0.032252
led,0.006894
left,0.008515
lend,0.041171
lender,0.017269
liabil,0.030024
licens,0.050880
life,0.020600
limit,0.019570
link,0.004644
liquid,0.045801
loan,0.037179
locat,0.007853
longerterm,0.020887
loss,0.028028
main,0.013524
mainten,0.012814
major,0.005666
make,0.010863
maker,0.058940
manag,0.030599
market,0.071958
marketbas,0.019604
marketmak,0.026351
mean,0.005882
meet,0.008642
member,0.006814
merg,0.012864
merger,0.015478
microloan,0.029851
minim,0.011273
modaraba,0.031298
money,0.019091
mortgag,0.015775
multifacet,0.020745
multipl,0.016430
mutual,0.056333
nation,0.005918
natur,0.011404
nbfc,0.193947
nbfcsd,0.064649
nbfcsnd,0.064649
nbfcsndsi,0.032324
nbfi,0.597027
nc,0.020477
necessari,0.008512
need,0.006420
net,0.011227
network,0.008929
new,0.014313
non,0.015394
nonbank,0.154080
nondeposit,0.057649
norm,0.037166
note,0.006158
notifi,0.020033
number,0.016030
oblig,0.011795
offer,0.023827
offset,0.015531
openend,0.061053
oper,0.026953
opportun,0.010089
order,0.011772
organ,0.005826
organis,0.020225
overh,0.022662
overlook,0.016500
packag,0.013540
particip,0.008426
particular,0.013371
passport,0.017598
pawn,0.023265
payday,0.053163
payment,0.080587
pension,0.059359
plan,0.008088
point,0.006195
pool,0.027971
popul,0.007599
popular,0.007641
portfolio,0.014692
portion,0.010733
potenti,0.007929
premium,0.015662
prepar,0.009933
price,0.018134
primari,0.016169
prime,0.009840
princip,0.009567
privat,0.017564
process,0.005790
profit,0.010582
promis,0.011508
properti,0.007415
prospect,0.013015
protect,0.016326
provid,0.065210
provis,0.011929
prudenti,0.023768
psd,0.048709
public,0.024673
purchas,0.020833
quot,0.025628
rais,0.009034
rang,0.007352
real,0.008062
reason,0.006971
receiv,0.007421
recoveri,0.012931
refer,0.003884
regul,0.110351
regulatori,0.026887
reluct,0.015833
report,0.044795
requir,0.024459
research,0.006301
resourc,0.023591
restrict,0.009002
result,0.005410
retail,0.014048
retir,0.026434
return,0.023584
rise,0.007816
risk,0.038231
riskpool,0.032324
role,0.020414
save,0.066184
sector,0.050919
sectori,0.026828
secur,0.016505
sell,0.054942
separ,0.007096
serv,0.007732
servic,0.136228
set,0.012034
sever,0.005635
shadow,0.030270
share,0.075693
sharehold,0.031415
shock,0.026559
shop,0.014494
short,0.008282
shortterm,0.014120
sinc,0.010811
skyrocket,0.021136
sort,0.011339
south,0.008465
southeast,0.013234
special,0.033806
specif,0.025872
specul,0.011247
speedi,0.023458
spread,0.009555
stabil,0.010082
state,0.014190
stock,0.031289
strengthen,0.012227
structur,0.012632
studi,0.005713
subject,0.013754
suggest,0.007568
supervis,0.025852
supplement,0.013384
support,0.006427
surplu,0.014223
tailor,0.017877
target,0.020131
tax,0.010159
taxexempt,0.022011
technolog,0.007794
tend,0.008877
term,0.005108
termin,0.012666
tfcsterm,0.032324
thi,0.012130
thu,0.012639
time,0.009566
total,0.015085
trade,0.015640
transact,0.034920
transform,0.017698
type,0.032498
typic,0.007252
uganda,0.018637
unbundl,0.055377
underbank,0.030501
underwrit,0.040067
union,0.008033
unit,0.010905
unquot,0.032324
unsupervis,0.022078
url,0.021635
usual,0.006505
valu,0.013857
variou,0.006154
vehicl,0.036824
ventur,0.028476
wa,0.008865
wealth,0.011132
work,0.005299
world,0.010961
wreak,0.023768
year,0.005455
