abandon,0.016609
abov,0.022767
airlin,0.022633
allow,0.008842
alsoedit,0.027994
alway,0.023913
american,0.020148
asset,0.016437
base,0.007747
basic,0.010786
becaus,0.016141
becom,0.008582
befor,0.018313
binomi,0.025040
bizyahoocom,0.048870
blackschol,0.028468
buy,0.033921
buyerth,0.046777
caus,0.009584
chanc,0.034572
chang,0.008095
charg,0.013857
cheaper,0.023120
choos,0.015447
closer,0.017769
concept,0.010022
converg,0.018919
convers,0.014817
cost,0.012627
current,0.018389
date,0.012003
datei,0.046777
decay,0.019748
decreas,0.014143
demand,0.012822
depend,0.009476
differ,0.007613
displaystyl,0.065808
dure,0.008267
enhanc,0.016015
equat,0.014381
estim,0.012168
european,0.010769
exce,0.022585
exercis,0.074282
exerciseth,0.044139
expect,0.023760
expir,0.186987
expiri,0.091319
extern,0.006761
extrins,0.058662
fact,0.010978
factor,0.010963
fair,0.017513
favor,0.014281
financ,0.027403
finish,0.019897
formula,0.016146
fuel,0.017134
function,0.009466
futur,0.011261
gain,0.011249
gener,0.006644
given,0.009273
graph,0.041143
greater,0.011646
ha,0.006165
half,0.025455
henc,0.014426
higher,0.054961
higherthanmarket,0.044139
holder,0.021021
howev,0.007504
hurrican,0.024694
import,0.007885
incorpor,0.012697
increas,0.008891
increasingli,0.013630
instrument,0.042712
insur,0.035651
inthemoney,0.140976
intrins,0.156616
investor,0.052845
iv,0.120420
k,0.070090
known,0.007725
ks,0.030975
larger,0.012201
life,0.009936
line,0.011063
linksedit,0.028226
longer,0.012748
lose,0.016257
lower,0.022843
market,0.034710
max,0.037777
maxk,0.042402
maxsk,0.042402
method,0.009572
model,0.009628
monetari,0.016569
money,0.027627
nake,0.024671
neg,0.053613
nonlinear,0.021176
numer,0.022902
occur,0.009820
option,0.693519
outofthemoney,0.178133
owner,0.017483
pay,0.028860
posit,0.018320
potenti,0.011475
predict,0.012968
premium,0.067996
price,0.275546
prior,0.013387
probabl,0.038154
profit,0.015313
purchas,0.030148
ration,0.030549
reason,0.010088
red,0.015580
refer,0.011242
referencesedit,0.027687
reflect,0.012080
requir,0.008849
risk,0.027662
rule,0.010260
s,0.039862
second,0.009225
secur,0.011942
seen,0.011029
seller,0.022459
sensit,0.018104
shown,0.013555
simpli,0.012765
sk,0.034718
soar,0.025357
specif,0.009360
spot,0.039171
stimul,0.017507
stock,0.060372
strike,0.087006
t,0.013611
theta,0.026897
thi,0.029257
thought,0.033261
thu,0.018290
time,0.083061
tv,0.173046
underli,0.133709
unexpect,0.022846
upsid,0.032461
use,0.006392
valu,0.340910
valueedit,0.135874
volatil,0.083256
work,0.007669
worth,0.017713
worthless,0.029510
zero,0.049356
