abov,0.005092
abstract,0.007000
access,0.011008
accord,0.003977
ad,0.005076
addit,0.008048
address,0.005990
adler,0.012221
advantag,0.006174
advis,0.016082
ahead,0.027860
aid,0.017903
alevel,0.014166
alphabet,0.019158
alphanumer,0.070427
altern,0.010223
american,0.004507
ani,0.003505
annual,0.006110
anoth,0.007652
ap,0.012017
apa,0.037452
applic,0.023754
appropri,0.006376
arab,0.036737
arrang,0.051882
articl,0.014183
assist,0.005931
atom,0.013912
attach,0.007531
attempt,0.004537
author,0.008958
bare,0.029395
base,0.003466
basil,0.012066
becaus,0.014443
befor,0.008193
begin,0.023385
besid,0.008206
bhead,0.060495
blank,0.011844
block,0.014290
blueprint,0.012386
bodi,0.004813
book,0.022793
bracket,0.011443
brief,0.007602
britannica,0.039021
build,0.005075
busi,0.010814
capabl,0.006326
capit,0.015674
captur,0.006596
career,0.007880
categori,0.012259
charact,0.006638
chead,0.015123
chess,0.011741
chicago,0.007829
chunk,0.012804
claiborn,0.014776
code,0.006216
cole,0.011180
collaps,0.007077
collect,0.004686
colleg,0.020922
combin,0.009162
come,0.004595
common,0.003885
commun,0.008402
comparison,0.006737
compel,0.010041
complet,0.008875
compos,0.006095
composit,0.053288
comput,0.015972
computer,0.011785
concept,0.004483
confer,0.006324
confus,0.007231
congress,0.007199
conjunct,0.008979
consequ,0.005463
contain,0.023048
content,0.069741
context,0.005652
corpor,0.012608
counterpart,0.008616
cours,0.028001
cover,0.015870
coverag,0.009665
creat,0.011790
creation,0.011697
creativ,0.008302
curious,0.014250
current,0.004113
custom,0.006497
d,0.005201
decim,0.032159
defin,0.004409
describ,0.011864
design,0.004719
desir,0.012094
develop,0.019281
differ,0.006812
differenti,0.013012
digit,0.014350
discret,0.007578
discuss,0.005242
display,0.029210
dissert,0.021887
distinguish,0.005704
distribut,0.010603
divid,0.005095
divis,0.005569
document,0.068239
doe,0.008695
doubl,0.028456
draft,0.049756
dramat,0.007256
dure,0.007397
e,0.005206
eas,0.008906
easili,0.013255
edit,0.024219
editor,0.016470
effect,0.003758
elimin,0.006689
ellen,0.011785
encyclopdia,0.020068
encyclopedia,0.033313
end,0.008459
energi,0.005415
engin,0.005575
entir,0.010035
entri,0.037414
environ,0.005128
especi,0.004492
essay,0.014993
establish,0.004128
esyllabu,0.015123
everi,0.009681
exact,0.007380
exampl,0.017323
exhaust,0.009045
exist,0.011540
expand,0.005472
extract,0.007446
fact,0.014735
famili,0.005356
featur,0.005231
fiction,0.008251
field,0.004224
flow,0.012184
follow,0.013236
form,0.012647
format,0.033852
fourth,0.007217
fowler,0.012804
franklin,0.018926
free,0.004725
gap,0.008052
garson,0.014522
gener,0.014862
given,0.004148
goal,0.005689
goranson,0.015062
graphic,0.008897
guardian,0.010221
guffey,0.015123
guid,0.011697
ha,0.008274
hand,0.005125
handbook,0.008372
handl,0.007522
handwritten,0.052489
head,0.010680
help,0.013586
hierarch,0.094902
hierarchi,0.008429
highli,0.005445
histor,0.004646
histori,0.006890
human,0.003985
idea,0.004642
ideal,0.006730
identifi,0.010001
ii,0.005413
improv,0.010180
includ,0.034459
inclus,0.008521
incorpor,0.011360
incorrectli,0.011191
index,0.006571
inform,0.024675
insert,0.009596
instanc,0.005602
instead,0.004845
instruct,0.007787
integr,0.049919
intend,0.006403
intermedi,0.008129
intern,0.003624
introduct,0.005483
isol,0.006716
ital,0.051125
item,0.091056
januari,0.011806
jon,0.023095
jr,0.008786
just,0.004823
kind,0.005509
knowledg,0.046823
lab,0.018073
label,0.007442
lack,0.005273
languag,0.005198
larger,0.005458
law,0.004166
lawyer,0.010034
lectur,0.007519
legisl,0.006331
letter,0.081922
letteri,0.015123
level,0.095116
like,0.007387
limit,0.008447
line,0.004949
list,0.038454
literatur,0.024714
liz,0.014428
load,0.009490
lower,0.015329
lowercas,0.117178
main,0.013133
maintain,0.004821
major,0.003668
manag,0.034668
mani,0.025005
manual,0.061143
map,0.018978
mapper,0.014671
mar,0.009463
mari,0.007989
master,0.007380
matter,0.005201
medium,0.015767
member,0.004412
merriamwebst,0.027172
messag,0.008593
middl,0.005701
mind,0.013042
mla,0.028856
model,0.004307
modifi,0.006747
mortim,0.013858
movi,0.009457
need,0.008314
new,0.006177
ninth,0.010824
node,0.010424
nonfict,0.012066
note,0.015947
number,0.024215
numer,0.071723
nyt,0.014886
object,0.004727
observ,0.004563
oftcit,0.014620
onc,0.005167
onli,0.009549
onlin,0.024209
oper,0.004362
opportun,0.006531
order,0.019053
organ,0.030175
organiz,0.009059
outlin,0.854822
overview,0.013857
overwhelm,0.009272
owl,0.012921
p,0.015836
page,0.006779
paper,0.051351
paragraph,0.011799
parentchild,0.014428
parenthes,0.038077
parenthesi,0.088030
particular,0.004328
path,0.007011
penguin,0.010399
peopl,0.003812
period,0.016435
person,0.009049
phenomena,0.006602
phrase,0.008332
place,0.007821
plan,0.026184
plot,0.008475
point,0.020056
practic,0.008485
preced,0.007512
prefer,0.006072
prefix,0.117213
prepar,0.012862
present,0.035684
primari,0.005234
prior,0.005989
problemat,0.009556
proceed,0.007256
process,0.026240
processor,0.033574
product,0.016531
professor,0.014173
program,0.014964
project,0.009813
propdia,0.030247
properti,0.004801
prose,0.011214
provid,0.007036
public,0.011980
publish,0.013203
purdu,0.026571
purpos,0.020631
quantit,0.007367
quot,0.008296
quotat,0.010532
rangarajan,0.015002
rare,0.006525
read,0.008735
rearrang,0.021552
reason,0.004513
recommend,0.029652
record,0.005300
refer,0.017603
refin,0.007889
regular,0.006889
relat,0.003390
relationship,0.009600
relev,0.006577
repeat,0.014517
report,0.004833
requir,0.003958
research,0.016319
retriev,0.007471
revers,0.041540
review,0.016904
revis,0.007515
rhetor,0.009737
robust,0.009109
roman,0.047220
romani,0.013858
round,0.007966
sampl,0.022482
schedul,0.008358
scheme,0.015138
scholar,0.019159
scholarli,0.044509
scholast,0.010893
scope,0.007393
script,0.009913
second,0.012382
section,0.056081
sentenc,0.077378
separ,0.013783
sequenc,0.013963
set,0.003895
seventh,0.010147
sever,0.003648
shield,0.009861
shown,0.006064
silent,0.010424
similar,0.004179
singl,0.028103
small,0.004282
smaller,0.005951
societi,0.004385
softwar,0.014830
sometim,0.018224
sort,0.007341
sourc,0.022012
special,0.026263
specif,0.004187
specifi,0.014232
speech,0.007540
standard,0.009428
start,0.004430
state,0.006124
statement,0.006425
step,0.011869
stick,0.010524
storag,0.008328
store,0.007090
stori,0.014189
structur,0.024535
strunk,0.015123
student,0.023828
style,0.086538
stylebook,0.015002
subcategori,0.011968
subitem,0.045186
subject,0.031166
subsubitem,0.015123
subtop,0.028014
suggest,0.004899
summar,0.035658
summari,0.050537
support,0.004161
surround,0.006409
syllabu,0.027172
synopsi,0.013430
systemat,0.006686
tabl,0.020207
talk,0.007531
task,0.006492
taxonom,0.011356
technic,0.006224
ted,0.011381
term,0.013228
text,0.006037
textual,0.032986
th,0.008026
thereof,0.010757
thesi,0.025984
thi,0.020942
tie,0.006826
time,0.006193
togeth,0.004826
tool,0.044834
topic,0.099957
topicsubtop,0.015123
trade,0.005063
traffic,0.009247
tree,0.043257
treelik,0.014776
type,0.021039
typic,0.004695
unit,0.003530
univers,0.007249
unless,0.007843
uppercas,0.041683
usag,0.014682
use,0.111533
usual,0.029482
util,0.006331
valu,0.004485
vari,0.010319
varieti,0.005255
verbal,0.010069
veri,0.003997
version,0.006122
view,0.004485
volum,0.005995
vs,0.008450
wa,0.002869
way,0.007484
websit,0.006618
white,0.013290
wide,0.004507
wikipedia,0.011249
william,0.005608
word,0.014575
work,0.027449
world,0.003548
write,0.109447
writer,0.043099
written,0.011082
year,0.003532
