abov,0.006735
abraham,0.003089
absolut,0.002231
access,0.001819
accident,0.003402
accord,0.001315
accordingli,0.002960
accur,0.002240
achiev,0.001654
acm,0.003872
actual,0.001683
ad,0.001678
addison,0.004248
addit,0.001330
admit,0.002773
affect,0.003437
aftershock,0.005363
age,0.001647
ahren,0.020758
ak,0.004017
algorithm,0.018458
allow,0.001308
alpha,0.024357
altern,0.001690
american,0.001490
analys,0.002571
andor,0.002301
ani,0.002318
anoth,0.002530
anscomb,0.004960
appear,0.003046
appendix,0.004064
appli,0.002812
applic,0.007854
approach,0.001513
appropri,0.010542
approx,0.004264
approxim,0.021510
area,0.006531
argu,0.001749
argument,0.008839
aris,0.004291
armi,0.002262
arriv,0.025408
art,0.002012
assum,0.005466
assumpt,0.017927
astronom,0.002961
astronomi,0.002953
asymptot,0.003854
author,0.001480
avail,0.003215
averag,0.035363
avoid,0.001964
b,0.013937
base,0.004584
bayesian,0.007313
bear,0.002461
becaus,0.008357
beer,0.003670
befor,0.002709
beginalignedel,0.006699
beginalignedprxkxkexp,0.006919
bernoulli,0.011704
beta,0.016220
bgeq,0.006272
bin,0.007313
binom,0.017582
binomi,0.051859
biolog,0.001881
biostatist,0.004755
bivari,0.028714
blachman,0.006919
bnlambda,0.006919
bnp,0.004903
boersma,0.006080
bomb,0.003002
book,0.003014
bortkevitch,0.006919
bortkiewicz,0.017228
bound,0.023731
brace,0.004241
brew,0.004226
bumpedup,0.006919
busi,0.001787
c,0.006071
calcul,0.014167
california,0.002432
care,0.001995
case,0.011953
casu,0.005135
causal,0.002957
cavalri,0.003887
cbsum,0.006919
cdot,0.007385
cell,0.006853
center,0.001694
centr,0.004368
certain,0.005815
chang,0.001197
charg,0.004099
chernoff,0.010941
chi,0.011415
chisquar,0.019688
choic,0.002087
circuit,0.002996
circumst,0.002440
civil,0.003644
clark,0.003075
class,0.003523
cleq,0.006272
clevenson,0.006919
close,0.001421
code,0.002055
coeffici,0.009197
colleagu,0.002871
combinatori,0.003743
come,0.001519
compar,0.003142
compet,0.002190
complet,0.007336
complex,0.001554
complic,0.002407
compound,0.007181
comput,0.014083
condit,0.005946
confid,0.010870
conjectur,0.003355
conjug,0.003645
connect,0.001749
consid,0.002478
constant,0.006336
contain,0.001524
context,0.001868
continu,0.001287
contribut,0.004678
convent,0.002057
converg,0.011194
convers,0.002191
convict,0.003078
corp,0.003134
correct,0.002139
correl,0.009905
correspond,0.003857
count,0.019384
counter,0.002872
countri,0.001398
coverag,0.003195
cramrrao,0.006529
creat,0.001299
crimin,0.002691
criminel,0.006919
crlb,0.006919
cumbersom,0.004374
cumul,0.023605
cup,0.003566
current,0.004080
custom,0.002148
d,0.025799
data,0.001695
day,0.008016
death,0.001860
decay,0.005842
decompos,0.003443
deduc,0.003172
definit,0.003359
degre,0.003479
deni,0.004925
denot,0.012962
densiti,0.005127
depend,0.008411
deriv,0.011307
describ,0.001307
design,0.001560
detect,0.002333
determin,0.001475
develop,0.001062
deviat,0.021105
diamet,0.003471
dieter,0.013782
differ,0.001126
direct,0.001410
directli,0.001707
discret,0.022552
dispers,0.002915
displaystyl,0.377225
distanc,0.002262
distribut,0.226137
diverg,0.002871
divid,0.001684
divis,0.001841
dk,0.004606
dkelambda,0.006919
dna,0.005483
dnath,0.006919
dobinski,0.006529
doe,0.002875
doesnt,0.003176
doi,0.005625
doiamjbsp,0.006919
doibf,0.004330
donald,0.002995
doubl,0.002352
dpoisx,0.020758
dpoisxlambda,0.006919
drawn,0.005014
dtextkllambda,0.006919
dure,0.006114
e,0.117070
earth,0.006024
earthquak,0.012959
easi,0.002597
easili,0.002191
ebeta,0.006272
effici,0.004005
efrac,0.031519
egt,0.013058
egtsum,0.006919
elambda,0.046396
electr,0.002114
electron,0.006421
eleft,0.006919
element,0.001626
ell,0.018475
els,0.002634
emerg,0.001639
en,0.006286
endarrayright,0.006919
engin,0.001843
english,0.001781
enlarg,0.006534
entri,0.002474
entropi,0.006942
equal,0.017419
equat,0.004254
equival,0.004120
erlang,0.004851
erron,0.003663
error,0.007296
esqrt,0.012160
estep,0.006529
estim,0.034199
et,0.002198
euclidean,0.003575
euler,0.007151
evalu,0.004432
evan,0.003575
event,0.104868
eventuum,0.006919
everi,0.006402
everyday,0.002732
exact,0.004880
exactli,0.002505
examin,0.002001
exampl,0.027493
examplessuch,0.006919
exce,0.003340
excel,0.011068
exist,0.001271
exp,0.021483
expect,0.026361
experi,0.001572
explambda,0.006919
exponenti,0.003078
exposur,0.005685
express,0.009943
extend,0.001687
extrem,0.001834
f,0.033914
fact,0.006496
factor,0.001621
factori,0.008396
falpha,0.011999
fals,0.005188
famili,0.003542
famou,0.008452
far,0.001734
faster,0.002668
fchi,0.006919
fear,0.002400
field,0.002793
financ,0.002026
finit,0.005290
fix,0.006090
fklambda,0.013839
fkptfelambda,0.006919
fli,0.002855
float,0.003028
flood,0.045294
floor,0.003111
fluctuat,0.014281
fmathrm,0.021455
focus,0.001780
follow,0.018600
form,0.001045
format,0.001865
formula,0.004777
fortran,0.004594
fortuito,0.006919
fpn,0.006919
frac,0.058156
fraction,0.002677
freedom,0.002159
french,0.003681
frequent,0.001922
ftextpoissonklambda,0.006919
function,0.032208
futur,0.001665
g,0.024054
gallagh,0.004670
gamma,0.043902
gammaln,0.006919
gammapoisson,0.006919
gaussian,0.003792
gener,0.014742
given,0.041154
glambda,0.006529
goal,0.022576
goe,0.004922
good,0.003041
gosset,0.005594
gradual,0.002198
grain,0.008915
graini,0.019170
graph,0.003043
greater,0.003445
group,0.002467
gt,0.014222
gtfrac,0.006699
gtmathbf,0.006919
guin,0.004383
guvexptheta,0.006919
h,0.009500
ha,0.006384
happen,0.012970
hardi,0.004006
hat,0.011481
henc,0.008536
hi,0.002452
high,0.001384
higher,0.006504
histori,0.001139
hit,0.019822
hmathbf,0.011189
hold,0.001647
homogen,0.003080
hors,0.002954
horsekick,0.006919
hospit,0.002697
hour,0.007210
hypothesi,0.002382
icu,0.005241
ident,0.001958
idot,0.017070
ieleftdleftfrac,0.006919
ient,0.006919
iesqrt,0.006529
iff,0.005021
ihat,0.006272
ii,0.007160
iid,0.005397
iidotsc,0.006919
iklambda,0.006919
ilambda,0.005927
ileftbeginmatrixkiendmatrixright,0.006919
ileftfrac,0.005799
illumin,0.003213
immedi,0.002010
impli,0.004252
inadmiss,0.005397
includ,0.002848
increas,0.002630
independ,0.022477
index,0.002172
individu,0.008464
infect,0.006208
infer,0.005257
infin,0.007151
infinit,0.002678
infkimid,0.006919
inform,0.001359
informat,0.003957
infrac,0.005594
init,0.017781
inki,0.027678
inkibeta,0.006919
inkin,0.006919
inkirightfrac,0.006919
inkirightlnlambda,0.006919
inlambda,0.006919
inln,0.006529
inlnkiendalign,0.006919
instanc,0.001852
instant,0.003535
insur,0.002636
integ,0.016400
integr,0.001650
intens,0.006814
interarriv,0.006919
intermedi,0.002688
internet,0.002243
interv,0.126793
intervalelambda,0.006919
introduc,0.003208
introduct,0.001813
invers,0.008664
investig,0.005749
involv,0.001325
inxi,0.006529
inxienlambda,0.006919
inxirightsim,0.006919
inxisim,0.006919
inxitim,0.006919
iplambda,0.006919
ipxirightxiqquad,0.006919
issu,0.001467
isum,0.010427
ith,0.004851
ixi,0.006170
j,0.015459
jager,0.006080
jnlambda,0.013839
jnxjk,0.006919
joachim,0.008593
joint,0.002408
josephovich,0.006919
journal,0.001759
jright,0.006919
jrightright,0.006529
judgment,0.002898
jugement,0.006529
jump,0.003157
junhao,0.006919
k,0.277869
kek,0.011019
kelambda,0.013839
kfchi,0.006919
kfrac,0.014453
ki,0.022735
kick,0.004256
kikirightnlambda,0.006919
kill,0.004515
kind,0.003643
kk,0.004740
kkbinom,0.006919
kkfrac,0.006170
kkkleftfrac,0.006919
kksum,0.006529
kl,0.004960
klambda,0.012340
kleftfrac,0.011721
kleq,0.012160
kminkkbinom,0.006919
know,0.002072
known,0.004571
knpapprox,0.006919
knuth,0.019921
kp,0.004960
kquad,0.006272
kright,0.012160
krightleq,0.006919
ksqrt,0.005799
ksum,0.005799
kullbackleibl,0.005860
l,0.020130
la,0.002282
ladislau,0.016091
lambda,0.423409
languag,0.001718
larg,0.016872
largest,0.001888
later,0.001359
law,0.011020
lead,0.001364
lebesgu,0.004697
left,0.010936
leftalpha,0.006170
leftbeginarraylkfklambda,0.006919
leftfrac,0.007501
leftifrac,0.006529
leftkfrac,0.006919
leftkleftfrac,0.006919
leftkln,0.006529
leftkpiright,0.006919
leftlambda,0.006390
leftsum,0.005331
length,0.006806
leq,0.035769
let,0.020497
letter,0.002257
level,0.001367
lfloor,0.018241
lgamma,0.006390
librari,0.002148
like,0.002442
likelihood,0.015855
limit,0.008378
linear,0.002432
littlewood,0.005160
llambda,0.006919
ln,0.038774
locat,0.001681
log,0.006407
logarithm,0.011101
loggamma,0.006529
lomnitz,0.006919
london,0.001925
look,0.001887
loss,0.001999
lossesclaim,0.006919
low,0.001752
lower,0.008447
ludi,0.006390
m,0.027800
magnitud,0.011284
mail,0.017910
mainpoisson,0.006919
make,0.002325
manag,0.001637
mani,0.005167
margin,0.002505
mass,0.007500
match,0.017020
matchfrac,0.027678
mathbf,0.011521
mathemat,0.003594
mathematica,0.007243
mathematician,0.002798
mathrm,0.072919
matir,0.011999
matlab,0.004513
matter,0.001719
maxim,0.005200
maximum,0.009945
mean,0.031480
meaning,0.002971
measur,0.005990
median,0.007119
member,0.001458
membran,0.003237
mensura,0.005927
meteor,0.031917
meter,0.003077
method,0.001416
mid,0.006830
min,0.012104
minimax,0.004885
minimumvari,0.006272
minut,0.008187
mislead,0.003457
mk,0.004421
mksum,0.006919
mle,0.017070
mode,0.005148
model,0.019939
moivr,0.010373
molecul,0.002468
molecular,0.002389
moment,0.010405
monitor,0.002472
mu,0.054378
multinom,0.013839
multinomi,0.010600
multipl,0.003517
multivariatepoissondistribut,0.006919
mutat,0.009524
n,0.180695
natur,0.002441
nd,0.002127
near,0.001879
need,0.001374
neg,0.009913
neglig,0.003402
nlambda,0.011999
nleftsum,0.006919
nois,0.013043
nomin,0.002386
noninteg,0.005470
nonneg,0.004272
normal,0.014579
note,0.006591
notic,0.002595
np,0.016537
nright,0.005213
nsum,0.009920
nt,0.004338
nth,0.009188
nu,0.004083
number,0.082356
numer,0.005081
o,0.048222
obey,0.006525
observ,0.007545
obtain,0.003554
obviou,0.002888
occur,0.024695
occurr,0.029574
onc,0.008542
onetoon,0.004064
onli,0.009472
oper,0.001442
operatornam,0.039128
opportun,0.002159
order,0.001259
origin,0.001267
otherwis,0.004349
outcom,0.002337
overcom,0.002808
overflow,0.081363
p,0.139632
paramet,0.044811
parameter,0.004471
partial,0.008413
particular,0.002862
particularli,0.001603
partit,0.006334
pass,0.001776
patient,0.008355
pendentibu,0.006919
perform,0.001607
period,0.005434
pexactli,0.006919
phenomena,0.002183
phenomenon,0.002354
philosoph,0.002006
phone,0.006525
photograph,0.003146
photon,0.006681
piec,0.010099
pirho,0.006919
pixel,0.004421
pk,0.004755
pktext,0.069195
place,0.001293
plambda,0.013839
plotx,0.006919
pm,0.003463
pmathbf,0.005742
pmf,0.005860
pn,0.004218
pndkfrac,0.006919
po,0.008282
poi,0.128935
point,0.014589
poisnp,0.006919
poisson,0.481809
poissondistribut,0.045705
poissonlambda,0.013839
polynomi,0.006976
popul,0.004880
popular,0.001635
portion,0.002297
posit,0.004065
possibl,0.002674
posterior,0.012403
pp,0.002137
pr,0.015529
practic,0.001402
precis,0.004319
predict,0.003836
previous,0.001998
price,0.001940
prime,0.002106
prior,0.003960
prntkfklambda,0.006919
probabilit,0.011380
probabl,0.079016
problem,0.001402
process,0.009915
prod,0.013710
produc,0.001364
product,0.001366
program,0.003298
prolifer,0.003227
prompt,0.002870
pronunci,0.003476
properti,0.004762
proport,0.006503
propos,0.001617
prove,0.008093
provid,0.002326
prussian,0.007936
prxkfchi,0.006919
prxkfrac,0.006919
pseudorandom,0.004980
pti,0.005270
public,0.001320
publish,0.002910
pwa,0.005363
pwsn,0.006919
px,0.018904
pxgeq,0.006529
pxleq,0.006699
pxygeq,0.013839
python,0.004127
qquad,0.004770
quad,0.004374
quantil,0.016091
r,0.008772
race,0.002575
radiat,0.002625
radioact,0.009652
raikov,0.006919
ramalingam,0.006529
random,0.055023
rang,0.003147
rape,0.003891
rare,0.017261
rate,0.019497
ratio,0.002364
rd,0.002347
read,0.001444
real,0.001725
reason,0.002984
receiv,0.007943
receptor,0.003541
recherch,0.004365
reciproc,0.003123
recurr,0.003572
reduc,0.001575
refer,0.002494
region,0.004467
regress,0.013120
reject,0.002049
rel,0.001490
relat,0.006726
relationship,0.001587
reliabl,0.002486
remain,0.002750
replac,0.001694
report,0.003196
requir,0.002618
research,0.001348
respect,0.001581
respons,0.001442
result,0.003474
return,0.006731
review,0.001863
rfloor,0.019170
rho,0.003946
right,0.004476
rightfrac,0.005021
rightkendalign,0.006919
rightright,0.005509
risk,0.002045
river,0.002273
ronald,0.002970
room,0.002697
root,0.002100
round,0.002634
roundoff,0.005742
royal,0.002194
rule,0.001517
s,0.017690
safe,0.002718
said,0.003416
sampl,0.042125
satisfi,0.002466
say,0.005404
scale,0.003764
scienc,0.002797
scientif,0.001673
scipi,0.011721
scipystatsdistributionspoissonpmfx,0.006919
scriptstyl,0.004631
seali,0.005690
search,0.002128
second,0.008188
seen,0.003263
seismic,0.004321
seismolog,0.004402
seminumer,0.006699
sens,0.001710
sequenc,0.004616
sequenti,0.003601
server,0.003931
set,0.007728
seu,0.005000
sever,0.001206
shall,0.003035
shanmugam,0.006919
shape,0.003963
sharp,0.002810
short,0.001772
shot,0.006467
shown,0.004010
siam,0.004203
sigma,0.010698
sign,0.001905
signal,0.002392
silver,0.002893
sim,0.008626
similar,0.002763
simon,0.005560
simpl,0.007355
simultan,0.002425
sinc,0.005785
singl,0.003097
size,0.005406
skellam,0.006529
slight,0.003454
slightli,0.002508
small,0.018409
smaller,0.001967
soccer,0.004421
societi,0.001449
softwar,0.004903
soldier,0.005266
sole,0.002349
solut,0.001979
solv,0.004259
sometim,0.010545
sorti,0.005160
sourc,0.002911
space,0.012489
spacetim,0.003532
special,0.004342
specif,0.002769
specifi,0.004705
spend,0.002402
sport,0.002748
sqrt,0.026145
squar,0.004903
stabil,0.006474
stabl,0.002277
standard,0.010910
state,0.001012
stationari,0.013420
statist,0.011391
stein,0.004264
step,0.007849
stigler,0.004594
stirl,0.004535
stock,0.002232
strand,0.003299
stretch,0.002917
strike,0.002574
student,0.007878
stutter,0.005331
subdivis,0.003399
subinterv,0.029999
success,0.003069
suffici,0.014976
sum,0.036935
support,0.001375
suppos,0.005085
sur,0.003715
switchboard,0.010727
synonym,0.002888
t,0.066444
tabl,0.006681
tail,0.013401
target,0.002154
task,0.002146
team,0.002416
telecommun,0.003016
telephon,0.006327
telescop,0.003556
tend,0.001900
tenlambda,0.006919
term,0.006561
test,0.001891
text,0.003992
textrm,0.015482
textstyl,0.004885
tfrac,0.011704
themselv,0.001716
theorem,0.007782
theori,0.004069
theoriz,0.003148
therefor,0.007864
theta,0.055703
thi,0.025967
thing,0.001841
threshold,0.006447
thu,0.001352
thumb,0.004006
time,0.025597
timeinterv,0.005927
tinfti,0.005363
tkk,0.006919
tlambda,0.005999
tmathbf,0.024519
togeth,0.001595
total,0.008073
touchard,0.006080
track,0.002560
traffic,0.003057
transact,0.004983
transform,0.015154
trial,0.013203
true,0.005621
tsigma,0.004941
turn,0.001599
twice,0.002758
typeh,0.006919
u,0.035102
ugart,0.006390
ulrich,0.008921
unaid,0.004594
unbias,0.008141
uncondit,0.003926
uniform,0.010732
union,0.001719
unit,0.002334
univari,0.010001
unlik,0.001927
unprov,0.004711
untransform,0.006272
upper,0.004673
use,0.021748
usual,0.001392
utheta,0.006529
uv,0.003936
v,0.008253
valu,0.031147
var,0.009094
vari,0.001705
variabl,0.035963
varianc,0.020844
variancestabil,0.006919
variat,0.002169
variou,0.001317
veri,0.009251
version,0.004048
view,0.001483
violat,0.002560
volum,0.007929
vtheta,0.006919
wa,0.007590
want,0.004273
war,0.001643
way,0.002474
web,0.002508
wesley,0.003962
whenev,0.003256
wide,0.001490
widehat,0.011380
william,0.001854
wilsonhilferti,0.006919
wish,0.002558
word,0.001606
work,0.002269
world,0.002346
written,0.001832
wrong,0.002721
x,0.231538
xi,0.003566
xielambda,0.006919
xifrac,0.005799
xisim,0.019588
xksim,0.013839
xlabnumb,0.006919
xlambda,0.023442
xleq,0.010176
xmu,0.005088
xn,0.004321
xoperatornam,0.005470
xp,0.005000
xsim,0.060804
xx,0.008379
xxdot,0.006080
xxk,0.006529
xxxtext,0.013839
xyi,0.006919
xysim,0.006699
xyyxyy,0.006919
y,0.061610
year,0.023358
yearsfrac,0.034597
yeast,0.003868
yi,0.008643
yimid,0.006919
yisim,0.006919
yiyj,0.006919
ylabprob,0.006919
yleftsum,0.006919
ylimc,0.006919
ymid,0.006919
ysim,0.013058
yxx,0.006529
yyy,0.006699
z,0.014117
zalpha,0.017582
zero,0.007301
zeroinfl,0.006919
zerotrunc,0.006529
zgeq,0.006529
zidek,0.006919
zsim,0.006919
