abov,0.007906
abraham,0.004834
absorb,0.004115
accept,0.002584
access,0.002848
account,0.036367
accru,0.006010
act,0.014116
action,0.002529
actual,0.010538
ad,0.005254
addit,0.008330
advanc,0.002542
advantag,0.003195
aex,0.009516
afford,0.004420
african,0.003608
agenc,0.003238
agre,0.012414
agreedupon,0.014661
agreement,0.003142
agricultur,0.009178
alloc,0.004107
allow,0.004094
alreadi,0.002998
aluminium,0.005767
aluminum,0.006470
alway,0.005536
ani,0.014513
annual,0.006324
anoth,0.001979
appli,0.004401
applic,0.002458
appropri,0.003299
april,0.003149
arbitrag,0.069564
arbitrageur,0.008117
arditti,0.009656
argentina,0.005106
argument,0.013834
articl,0.002446
asset,0.136996
associ,0.006032
assum,0.011406
august,0.003128
avail,0.002516
averag,0.003074
avoid,0.003074
away,0.006271
backward,0.010239
bad,0.004222
balanc,0.016289
baltic,0.005821
bank,0.002976
banker,0.005621
bankrupt,0.006235
base,0.012555
basi,0.007692
basic,0.002497
basingstok,0.006981
becam,0.004537
becaus,0.007473
becom,0.009934
befor,0.006359
began,0.007435
bia,0.004733
billion,0.003525
bjrk,0.009656
blackschol,0.013181
board,0.017904
bombay,0.007209
bond,0.042542
born,0.003506
borrow,0.004119
boston,0.004576
boundari,0.003465
bours,0.007352
break,0.010264
brent,0.007288
bring,0.006171
broker,0.032702
brokerag,0.012859
build,0.010506
bulb,0.006523
bullion,0.007030
busi,0.002798
butter,0.006817
buy,0.027486
buyer,0.069355
cac,0.008343
calcul,0.009502
caller,0.008394
callrat,0.010000
canadian,0.008439
cancel,0.009418
cannon,0.005773
capit,0.002703
care,0.003123
case,0.012471
cash,0.054014
cashsettl,0.018780
categori,0.003172
cattl,0.004869
caus,0.004437
cbot,0.026062
central,0.002330
centuri,0.004269
certain,0.009101
cftc,0.025342
chang,0.007496
charact,0.013741
charg,0.003208
chicago,0.024310
chosen,0.003798
citi,0.002871
cl,0.006470
clear,0.027848
clearer,0.006763
client,0.009575
close,0.015571
closedout,0.010000
clx,0.010000
cme,0.071033
coal,0.009695
cocoa,0.006342
code,0.012867
coffe,0.005188
coin,0.003442
collater,0.012107
colloqui,0.005785
commerci,0.003185
commiss,0.016550
commit,0.006969
commod,0.137200
common,0.002010
commonli,0.002761
compani,0.010501
compar,0.002459
comparison,0.003486
complet,0.002296
complex,0.002432
compon,0.002863
composit,0.003446
compound,0.007493
comprehens,0.003662
concern,0.002334
consid,0.005817
consist,0.004450
constant,0.006611
consum,0.003310
consumm,0.007352
contain,0.004770
contango,0.017975
continu,0.002014
contract,0.393578
contractu,0.005908
contrast,0.005617
controversi,0.003276
conveni,0.004439
converg,0.008760
convers,0.003430
convex,0.011728
copper,0.009234
corn,0.005199
corner,0.005364
corpor,0.003262
correct,0.010044
cost,0.020463
cotr,0.009816
cotreport,0.009816
cotton,0.010166
counterparti,0.046981
countri,0.002188
coupon,0.006409
cours,0.002897
covari,0.006106
cover,0.016425
creat,0.014236
creation,0.003026
credit,0.025741
crop,0.012332
crude,0.020885
csv,0.008622
currenc,0.036436
current,0.002128
custom,0.020172
d,0.002691
daili,0.069998
data,0.010614
date,0.033347
day,0.035127
daytoday,0.005673
decad,0.003022
decemb,0.006102
deep,0.003701
default,0.030442
deficit,0.004615
defin,0.004563
definit,0.005258
degre,0.002722
deliber,0.004450
deliv,0.019595
deliver,0.043489
deliveri,0.144170
delta,0.004762
demand,0.020779
depend,0.013163
deposit,0.019682
deriv,0.027809
describ,0.002046
desk,0.013227
determin,0.009236
deutsch,0.005621
deviat,0.004718
diesel,0.006737
differ,0.022915
differenti,0.006733
dilig,0.006661
direct,0.002207
disastr,0.005815
discount,0.004800
discuss,0.002713
dispar,0.005109
displaystyl,0.019044
distinct,0.002560
diversif,0.005523
divid,0.002636
dividend,0.010689
djima,0.010000
doe,0.008999
dow,0.006470
draw,0.003408
drop,0.007298
dubai,0.007152
dure,0.005742
dynam,0.003117
e,0.005388
earlier,0.005916
earn,0.007525
easi,0.004065
easier,0.004286
easili,0.003429
econom,0.002190
ed,0.002802
edibl,0.006460
educ,0.002550
effect,0.007778
effici,0.003134
electr,0.003310
elimin,0.003461
emini,0.009656
emiss,0.004750
enabl,0.003174
energi,0.011209
ensur,0.013155
enter,0.002926
entir,0.002596
entitl,0.004132
equal,0.010904
equit,0.005968
equiti,0.054965
equival,0.003224
erod,0.005762
error,0.003806
establish,0.006409
estim,0.005634
eurex,0.008394
euribor,0.008987
eurodollar,0.008622
euronext,0.016405
euronextliff,0.008503
europ,0.002714
european,0.002493
europeanstyl,0.007703
euroyen,0.009816
event,0.005210
everi,0.015029
exampl,0.025099
excel,0.004330
exceltradingmodelscom,0.009390
exchang,0.198085
exchangetrad,0.035235
excit,0.004880
execut,0.003032
exercis,0.006878
exist,0.011943
exit,0.005251
expand,0.005663
expect,0.030254
expens,0.003575
experi,0.002461
expert,0.003954
expir,0.032466
expiri,0.028188
exposur,0.013346
express,0.002593
extend,0.002640
extens,0.002703
extern,0.001565
extrem,0.002871
f,0.017692
face,0.006009
facilit,0.003608
fact,0.007625
failur,0.003483
fairli,0.004534
fall,0.002732
far,0.005428
farmer,0.008474
feasibl,0.004863
februari,0.003252
feder,0.012749
feed,0.009191
fia,0.008622
figur,0.002964
final,0.010356
financ,0.006344
financi,0.037151
fine,0.012838
firstev,0.007330
fix,0.009531
follow,0.003424
forc,0.004291
foreign,0.005573
forerunn,0.005684
format,0.002919
formerli,0.012029
formula,0.003738
forth,0.004351
forward,0.167195
forwardhold,0.010000
frankfurt,0.005915
fred,0.005551
free,0.004890
freeli,0.009310
freight,0.006333
french,0.002880
friday,0.012387
fstftt,0.010000
ftetleftstright,0.010000
ftse,0.007927
ftt,0.035951
fttstertt,0.009816
fttsttime,0.010000
fuel,0.003966
fulfil,0.008657
function,0.004383
fund,0.020660
fundaccount,0.010000
fution,0.010000
futur,0.578789
futuresforward,0.009816
futuressettl,0.010000
g,0.002895
ga,0.010804
gain,0.033855
gasolin,0.006193
gener,0.003076
given,0.002146
global,0.005685
glossari,0.005217
goe,0.011556
gold,0.011166
good,0.004759
goodfaith,0.009172
govern,0.008142
grain,0.027905
group,0.017378
guarante,0.019632
guard,0.004474
guid,0.003026
guidelin,0.004747
h,0.002973
ha,0.011418
half,0.002946
hampshir,0.006590
hand,0.005304
happen,0.003383
harvard,0.004182
harvest,0.009490
harvestsneed,0.010000
heat,0.007549
hedg,0.021378
hedger,0.043437
held,0.005061
help,0.002343
high,0.002167
higher,0.012723
highli,0.002817
histor,0.002404
hold,0.005156
holder,0.043799
holland,0.005576
hour,0.003761
hous,0.017229
howev,0.017372
huge,0.003981
hybrid,0.004472
ice,0.018676
identifi,0.007762
illeg,0.004313
illinoi,0.005239
illiquid,0.007540
imm,0.015925
immedi,0.003146
imperfect,0.005269
imposs,0.003619
inact,0.005581
includ,0.011887
incom,0.003278
increas,0.010292
increasingli,0.003155
increment,0.005406
incur,0.005133
independ,0.002198
index,0.088414
india,0.006554
indic,0.005266
individu,0.013247
industri,0.007329
inflow,0.005864
influenc,0.002357
inform,0.002128
infrastructur,0.003624
initi,0.039538
innov,0.003707
insignific,0.006193
instantan,0.005616
institut,0.004530
instrument,0.013184
intang,0.012575
intent,0.003602
intercontinent,0.013749
interim,0.005136
intern,0.009378
interpos,0.007999
interv,0.009019
interven,0.004599
intraday,0.008447
introduc,0.005022
introduct,0.008513
invest,0.015238
investingcom,0.009276
investor,0.028546
involv,0.008300
isbn,0.010121
issu,0.002296
item,0.003926
itemfor,0.010000
j,0.013441
jakarta,0.006904
januari,0.003054
japan,0.007079
jfx,0.009816
jgb,0.010000
jone,0.004752
json,0.008828
judg,0.003952
juic,0.006737
juli,0.003091
june,0.003118
just,0.002495
jute,0.015717
k,0.006490
kansa,0.006324
keith,0.005385
kind,0.005702
known,0.014307
korea,0.004320
krx,0.009656
larg,0.007544
later,0.002128
launch,0.003604
law,0.002155
lce,0.010000
lead,0.002135
led,0.002309
lend,0.004597
let,0.004009
level,0.004279
leverag,0.005523
liabl,0.006252
life,0.006901
liff,0.017511
like,0.007645
limit,0.004371
line,0.002561
link,0.003112
lioui,0.009816
liquid,0.015344
list,0.011939
littl,0.002738
livestock,0.015153
lodg,0.006075
london,0.021092
long,0.009294
lose,0.007527
loss,0.059469
lossgain,0.020001
lot,0.004407
low,0.002742
lower,0.013221
m,0.002559
macmillan,0.004888
main,0.004530
mainli,0.002970
maintain,0.009980
mainten,0.012878
major,0.001898
make,0.014557
manag,0.010251
mani,0.012939
manner,0.003453
march,0.005934
margin,0.262749
marginequ,0.009816
mark,0.028730
market,0.150001
marketplac,0.011315
marketseg,0.009816
marktomarket,0.008159
martingal,0.007152
matter,0.005383
matur,0.008327
maximum,0.007782
mean,0.007882
meat,0.009931
mechan,0.002642
meet,0.005790
mercantil,0.028288
merchant,0.004250
merg,0.008619
metal,0.022346
method,0.004432
mid,0.003563
milk,0.005285
minim,0.007553
minimum,0.007806
minneapoli,0.006661
minor,0.003311
minut,0.004271
mitig,0.020574
model,0.002228
modern,0.002146
modifi,0.003491
moment,0.008142
monetari,0.007672
money,0.022385
month,0.015807
montreal,0.012839
mortgag,0.005285
movement,0.009870
mutual,0.007549
mx,0.007927
n,0.003213
nasdaq,0.007064
nation,0.005948
natur,0.005731
ncdex,0.009172
nearer,0.013372
nearest,0.005767
nearli,0.003116
need,0.004302
negoti,0.011236
new,0.009590
nickel,0.005739
night,0.004389
nikkei,0.008159
noarbitrag,0.008247
noncommerci,0.007064
noncompetit,0.007927
nondividend,0.009276
nonexchang,0.009656
nonreport,0.009076
nonu,0.007396
note,0.006189
noth,0.003786
notion,0.003385
novemb,0.006418
number,0.003580
nymex,0.008828
nyse,0.007209
object,0.004892
oblig,0.015806
occur,0.009093
octob,0.003094
offer,0.005321
offset,0.005203
oil,0.028572
oilse,0.008447
oilstorag,0.009816
onion,0.006889
onli,0.014824
open,0.019597
opportun,0.006760
opposit,0.008833
opt,0.005566
option,0.112015
orang,0.005348
order,0.001971
orient,0.003728
origin,0.005949
osaka,0.007646
ose,0.008343
otc,0.006889
otherwis,0.003403
outstand,0.004894
overal,0.003275
overnight,0.006235
overse,0.005336
overthecount,0.020251
overtook,0.007152
owner,0.008095
ownership,0.004202
paid,0.010945
palladium,0.007047
paper,0.002952
parti,0.063602
partial,0.006583
particip,0.008468
particular,0.006719
path,0.007256
patric,0.007703
pay,0.020044
payingreceiv,0.010000
payment,0.030855
perceiv,0.003598
percent,0.003593
percentag,0.007974
perfect,0.003997
perform,0.030186
perhap,0.003326
period,0.006378
petroleum,0.009199
physic,0.014048
place,0.004047
plan,0.005419
platinum,0.006439
play,0.002583
plenti,0.022506
point,0.004151
poncet,0.009172
pork,0.006674
portfolio,0.014766
posit,0.042414
post,0.006945
potenti,0.002656
pour,0.005385
power,0.002099
practic,0.008781
prearrang,0.008294
predict,0.012009
prefer,0.003142
premium,0.010494
prenticehal,0.006210
present,0.004103
preserv,0.003458
press,0.004830
prevent,0.002933
previou,0.003094
previous,0.003128
price,0.255165
principl,0.002463
prior,0.006198
privat,0.005884
probabl,0.005888
process,0.001939
produc,0.008539
product,0.014970
profit,0.024816
pronounc,0.004956
propan,0.008117
proport,0.006785
provid,0.001820
publish,0.002277
punish,0.004513
purchas,0.027918
purpos,0.002669
q,0.004595
quantiti,0.003342
quarter,0.004267
quick,0.005070
quickli,0.006679
quit,0.003467
quot,0.004292
r,0.008237
rate,0.066114
ratea,0.009656
ratio,0.003700
ration,0.007072
raw,0.004245
rd,0.003674
reach,0.002644
read,0.002260
realiz,0.010916
realtim,0.005454
reason,0.002335
receiptdeliveri,0.010000
receiv,0.012431
recent,0.004506
redhead,0.009516
reduc,0.009861
reevalu,0.006419
refer,0.007807
referenc,0.011182
refin,0.004082
reflect,0.013983
regul,0.018484
regularli,0.004429
relat,0.007018
relationship,0.014904
releas,0.003252
remain,0.002152
remov,0.003004
replenish,0.006523
repor,0.010000
report,0.012506
repres,0.010673
requir,0.030729
reserv,0.006922
resourc,0.005269
respect,0.007424
respons,0.004514
restor,0.003680
restrict,0.003016
result,0.007250
return,0.007901
revers,0.003582
rice,0.014724
right,0.007005
risen,0.005481
risk,0.096060
riskfre,0.006674
riskless,0.007962
riskneutr,0.014748
rnp,0.009656
rofex,0.009816
role,0.004559
roll,0.004855
rom,0.022776
romyeartradedur,0.010000
rosario,0.007268
rtt,0.009172
rule,0.007126
s,0.012919
safeguard,0.005581
safex,0.009816
said,0.005347
sale,0.003791
samurai,0.007674
saw,0.003184
say,0.002819
scenario,0.004713
school,0.002647
season,0.004205
secur,0.019353
seek,0.008760
seen,0.002553
sell,0.033131
seller,0.072795
separ,0.002377
septemb,0.003138
seri,0.002592
set,0.024190
settl,0.025889
settlement,0.045571
sgx,0.009276
shallow,0.005504
share,0.002535
ship,0.003692
shore,0.004948
short,0.013873
shortfal,0.006817
shortterm,0.004730
sign,0.002981
significantli,0.003339
silk,0.005406
silver,0.009056
simex,0.010000
similarli,0.010293
simpl,0.008633
simpli,0.014776
sinc,0.003622
singapor,0.009545
singlestock,0.017123
situat,0.005576
small,0.004432
social,0.002303
soft,0.013872
sometim,0.009430
south,0.002836
soy,0.007288
soybean,0.006804
sp,0.022207
speak,0.003472
specif,0.004333
specifi,0.033140
specul,0.033912
split,0.003722
spot,0.049877
spotnext,0.010000
spread,0.009604
springer,0.004383
sptsx,0.009656
st,0.002919
stabl,0.003564
standard,0.014636
start,0.002292
state,0.003169
steel,0.004536
steven,0.004563
stock,0.041930
stop,0.003578
storag,0.004309
strictli,0.004271
strike,0.016114
struggl,0.003796
style,0.003731
subject,0.004607
substanti,0.006724
success,0.002401
suffici,0.003348
sugar,0.004413
sum,0.003612
suppli,0.035430
supplier,0.005099
suppos,0.003979
sustain,0.003542
swap,0.022093
swing,0.011951
sydney,0.005673
t,0.081929
taken,0.002651
tbill,0.008503
term,0.011979
terminbrs,0.010000
tfx,0.009076
th,0.004153
themselv,0.002686
theoret,0.005939
therefor,0.002461
thi,0.052831
thing,0.002881
threshold,0.005044
thu,0.016937
tick,0.006625
time,0.028844
tin,0.005652
tini,0.004885
tmx,0.009516
tocom,0.019313
today,0.010407
tokyo,0.022957
topic,0.002873
topix,0.009516
total,0.005054
track,0.016028
tradabl,0.014619
trade,0.128377
trader,0.075795
tradit,0.006841
transact,0.027297
transfer,0.006198
treasuri,0.009626
trend,0.003459
tri,0.002850
tru,0.008987
true,0.005864
truedup,0.010000
trueup,0.009656
trust,0.003959
ts,0.006737
tse,0.008159
tuesday,0.007228
tulip,0.007826
turn,0.002503
type,0.010887
typic,0.019438
u,0.004225
unabl,0.007527
unbias,0.006370
uncorrel,0.007490
underli,0.072227
understand,0.002458
unfavor,0.006419
uniqu,0.006176
unit,0.003653
unlik,0.009048
unreal,0.027001
unregul,0.006399
unwound,0.008622
updat,0.004387
use,0.019238
usual,0.006538
util,0.003276
v,0.003229
valdez,0.007892
valu,0.044104
vari,0.010679
variabl,0.003310
variat,0.020369
variou,0.006185
vein,0.005394
verasun,0.010000
veri,0.004136
versu,0.012682
volatil,0.014456
volum,0.006204
wa,0.007424
waiv,0.007466
walk,0.004626
want,0.003343
way,0.005809
weekli,0.005373
wheat,0.005150
wherea,0.006285
whobe,0.010000
wire,0.015697
wish,0.004004
withheld,0.007098
word,0.005028
world,0.003672
worldwid,0.007348
writer,0.003717
x,0.009620
xml,0.007352
year,0.005483
yield,0.010614
york,0.013947
z,0.004418
zero,0.007617
zinc,0.005706
