abandon,0.016770
abil,0.009264
abl,0.002835
abov,0.028735
absorb,0.004487
academ,0.013447
accept,0.005635
access,0.003105
accommod,0.005212
account,0.010574
achiev,0.002823
acquir,0.003655
act,0.010261
action,0.011031
activ,0.006718
actual,0.011490
adapt,0.021444
add,0.004280
addit,0.006812
address,0.013519
adjust,0.012888
adopt,0.003097
advanc,0.005544
advantag,0.003484
aerospac,0.006449
africa,0.003645
agenc,0.007061
aim,0.003205
alfr,0.004599
alloc,0.008958
allow,0.015624
alreadi,0.003269
alter,0.004026
altern,0.014420
alway,0.006036
american,0.025430
amram,0.010529
analog,0.004010
analysi,0.021645
analyst,0.040749
analyt,0.004092
anderson,0.005849
andrea,0.005972
ani,0.013846
annual,0.003447
anoth,0.002158
antholog,0.012747
antikarov,0.011432
antonio,0.005845
appear,0.002599
appli,0.028793
applic,0.029486
appreci,0.004980
approach,0.033580
appropri,0.025185
apt,0.007304
arbitrag,0.013790
argument,0.007542
arif,0.009710
aris,0.010985
arnold,0.005705
articl,0.010670
arundel,0.034298
assess,0.003823
asset,0.024895
assum,0.015547
assumpt,0.022944
aswath,0.028206
attempt,0.002560
attend,0.004282
auburn,0.008722
author,0.002527
avail,0.005487
avinash,0.008763
b,0.011891
base,0.005867
becaus,0.004074
becom,0.002166
befor,0.002311
benefit,0.003284
bespok,0.009710
best,0.005965
bilkic,0.011432
binomi,0.012642
blackschol,0.014372
blackscholeslik,0.011432
bond,0.003865
book,0.002572
boston,0.009979
brach,0.009896
brennan,0.017066
broaden,0.005771
budget,0.012708
built,0.006747
burchett,0.010238
busi,0.079323
c,0.007770
calcul,0.003453
cambridg,0.003589
campbel,0.006069
capac,0.003757
cape,0.005693
capit,0.023584
capm,0.008806
captur,0.007443
carlo,0.025790
case,0.015864
casestudi,0.009546
cash,0.054364
cashflow,0.008368
categori,0.003458
caution,0.006380
ceas,0.004578
centuri,0.002327
certain,0.002480
certainti,0.005721
certaintyequival,0.011432
ch,0.005783
challeng,0.003237
chan,0.006957
chanc,0.004363
chang,0.028610
character,0.003438
characterist,0.021870
cheapest,0.008064
chief,0.003774
choic,0.003561
chuvakhin,0.011807
cite,0.007582
claim,0.005503
classic,0.002994
clear,0.003373
clearli,0.004075
close,0.007276
coauthor,0.006215
cobasflor,0.011432
code,0.007015
coin,0.003753
collan,0.022865
columbia,0.005041
combin,0.005169
commit,0.003799
commitmentnpv,0.011432
commonli,0.006021
compani,0.005725
complex,0.005305
complic,0.004108
compon,0.003122
composit,0.003758
compound,0.004085
compris,0.011126
concept,0.002529
conceptu,0.004363
condit,0.017756
confer,0.007137
conflict,0.003376
consequ,0.003082
consid,0.010571
consider,0.024373
consist,0.002426
constant,0.010812
constitut,0.014312
conting,0.031593
continu,0.002196
contract,0.021820
contrast,0.012250
convent,0.003510
copeland,0.008307
corpor,0.032013
correct,0.003650
correctli,0.005209
correspond,0.013164
correspondingli,0.013692
cortazar,0.011432
cost,0.019124
coupl,0.004195
cours,0.006319
creat,0.008870
creation,0.003300
credit,0.003508
croatia,0.006500
current,0.002320
curricula,0.006780
custom,0.003665
d,0.005869
damag,0.003912
damodaran,0.027132
daryl,0.008896
data,0.005786
datarmathew,0.020751
david,0.003220
dcf,0.018421
debt,0.004204
decid,0.007066
decis,0.051963
decreas,0.003570
defer,0.012528
degre,0.002969
delay,0.004630
delta,0.015578
demand,0.009710
depend,0.002392
deposit,0.004292
der,0.004744
deriv,0.005513
describ,0.004462
descript,0.003314
design,0.002662
despit,0.003074
determin,0.010070
determinist,0.005788
deutscher,0.008399
develop,0.018131
dia,0.007903
differ,0.017297
differenti,0.003670
difficult,0.006324
difficulti,0.011746
dimens,0.008342
dimension,0.005608
direct,0.002407
directli,0.005826
disciplin,0.006681
disclaim,0.008498
discount,0.041874
discov,0.003192
discoveri,0.003395
discuss,0.017749
distinct,0.002792
distinguish,0.006437
distribut,0.005982
divers,0.003486
dividend,0.011654
dixit,0.017887
don,0.006017
dr,0.004498
duke,0.005717
dure,0.004173
dynam,0.003399
e,0.008813
earli,0.004366
earn,0.004102
easili,0.003739
econom,0.004777
economi,0.002980
ed,0.003055
eduardo,0.015056
effect,0.004240
ehud,0.008896
electr,0.007218
embed,0.010152
empir,0.003045
employ,0.026057
encod,0.005315
endingnod,0.011432
energi,0.003055
engin,0.003145
enhanc,0.004042
enjoy,0.004155
ensur,0.003585
entail,0.010187
entrepreneuri,0.006789
entri,0.012666
environ,0.002893
equat,0.010890
equiti,0.004994
equival,0.010547
eric,0.005184
error,0.004150
especi,0.002534
essenti,0.006068
establish,0.006988
estim,0.009214
european,0.002718
evalu,0.003782
event,0.008521
eventu,0.003102
everi,0.002731
evid,0.002976
evolut,0.010631
exampl,0.019548
exce,0.005701
excess,0.012654
exchang,0.003085
exclus,0.003728
exercis,0.056253
exist,0.004341
expand,0.018525
expans,0.007365
expect,0.014994
expenditur,0.014478
expens,0.007796
expiri,0.007683
explain,0.002938
explicit,0.004766
explicitli,0.004443
explor,0.003325
expon,0.006192
expos,0.004372
exposur,0.009701
express,0.002828
extend,0.008637
extens,0.002947
extern,0.001706
face,0.006552
facil,0.008367
fact,0.005542
factori,0.028655
fail,0.003281
fall,0.002979
far,0.005919
farmer,0.004619
favor,0.003605
favour,0.008584
featur,0.002951
feed,0.005010
fernandez,0.008682
fernando,0.006780
fiction,0.009310
field,0.004767
film,0.017707
filmmak,0.007561
final,0.002823
financ,0.027669
financi,0.056088
finit,0.004514
firm,0.023390
fisher,0.005758
fisheri,0.005933
flexibl,0.106310
flow,0.044684
fm,0.007055
focus,0.003038
follow,0.005601
forc,0.004678
forecast,0.005142
forgo,0.014992
form,0.005352
formul,0.003737
formula,0.004075
framework,0.023407
free,0.007998
frequent,0.003281
fuel,0.004325
fund,0.003218
fuqua,0.010529
futur,0.025584
fuzzi,0.013579
g,0.009472
gamba,0.010238
game,0.004005
gap,0.004543
gener,0.016771
georgia,0.005578
gilbert,0.005582
given,0.014045
gong,0.007839
gonzalo,0.008464
good,0.005189
gordon,0.005443
govern,0.002219
graduat,0.004373
gregori,0.011354
gri,0.009710
gross,0.004563
group,0.004210
growth,0.002954
guess,0.006545
guid,0.003300
ha,0.017119
hackman,0.010000
haircut,0.008763
han,0.004664
handl,0.008488
harvard,0.009120
harvey,0.005918
hausman,0.010000
hbr,0.009546
hedg,0.029137
help,0.002555
henc,0.010925
hi,0.006278
high,0.002363
highdimension,0.024582
higher,0.011098
hillebrand,0.011432
hilliard,0.010529
histor,0.002621
histori,0.001944
hold,0.002811
holder,0.005306
howev,0.009471
human,0.002248
ia,0.007290
idea,0.002619
ident,0.006684
identifi,0.005642
ies,0.010529
ignor,0.004048
iiviii,0.011432
impact,0.006397
implement,0.006499
impli,0.003628
implicitli,0.006186
import,0.009953
imposs,0.003946
improv,0.002872
incent,0.004859
includ,0.004860
incom,0.007149
increas,0.004488
increasingli,0.006881
indic,0.002871
individu,0.002407
industri,0.007992
influenc,0.002570
influenti,0.003753
inform,0.002320
infrastructur,0.003951
initi,0.012679
innov,0.004042
input,0.029599
instead,0.005467
institut,0.002469
intech,0.010238
intens,0.003876
interestingli,0.015122
intern,0.004090
interproject,0.010904
interrel,0.011394
intract,0.007137
intraproject,0.011432
intrins,0.004941
intro,0.008722
introduct,0.006188
invalid,0.011717
invest,0.049846
investor,0.013339
involv,0.006787
irrevers,0.006442
irv,0.006289
isbn,0.024832
issu,0.020036
j,0.008793
jerri,0.006428
jimmi,0.006915
john,0.002654
join,0.003471
jonathan,0.010913
journal,0.012007
jrgen,0.006641
judici,0.004480
k,0.003538
karpoff,0.011432
keith,0.005872
key,0.005940
kholodnyi,0.011432
known,0.011700
kulatilakanalin,0.011432
lackner,0.010904
land,0.008860
late,0.002701
lattic,0.017455
latticebas,0.009271
layman,0.007903
lead,0.004656
leader,0.006824
lean,0.006373
lectur,0.004242
length,0.003871
leno,0.032713
leonard,0.006012
lesli,0.013185
level,0.002333
licens,0.009292
life,0.012541
lifecycl,0.006957
like,0.004168
likewis,0.004621
limit,0.016681
link,0.001696
liquid,0.008365
list,0.004339
literatur,0.003486
logic,0.003776
lookup,0.008221
lost,0.003390
lot,0.004805
low,0.002990
lower,0.002883
lsb,0.010529
luehrman,0.022284
luke,0.007149
m,0.002790
mad,0.006360
main,0.004940
mainli,0.003239
mainstream,0.004735
maintain,0.002720
major,0.002070
make,0.015873
maker,0.005382
manag,0.095010
manageri,0.006347
mani,0.008817
manufactur,0.007441
marco,0.006771
margareth,0.010703
margrab,0.010114
marion,0.007721
mariu,0.008399
mark,0.003132
market,0.046730
martha,0.007277
martingal,0.007798
materi,0.002734
mathemat,0.006134
matter,0.002934
mauboussin,0.022865
mauer,0.010703
max,0.004768
mba,0.008368
mckinsey,0.034729
measur,0.007666
merton,0.014347
method,0.045912
michael,0.021544
mikael,0.018195
miller,0.005446
miner,0.004319
mit,0.018963
mix,0.015011
mller,0.006717
model,0.053468
modifi,0.003807
monetarili,0.009335
money,0.003486
mont,0.029248
moor,0.005265
moreov,0.004476
motion,0.003937
movi,0.010672
msc,0.007198
multidimension,0.006584
multipl,0.003000
multiyear,0.008763
mun,0.008307
mutual,0.004115
myer,0.007318
natasa,0.011432
natur,0.008331
navarra,0.009800
nearterm,0.008167
need,0.002345
neg,0.003383
net,0.004101
neufvil,0.011432
neutral,0.021353
new,0.010456
nikolai,0.006925
nobel,0.009083
node,0.005881
non,0.005623
noninfring,0.011432
nonrecover,0.021058
normal,0.003109
note,0.013497
notion,0.003691
npv,0.076799
npvq,0.011432
number,0.005855
numer,0.002890
oblig,0.008617
observ,0.005150
offer,0.002901
onc,0.008746
onli,0.008980
oper,0.014768
opportun,0.014741
oppos,0.003260
option,0.814248
optionbas,0.010238
optionembed,0.011142
optionpr,0.011432
optionsbas,0.010375
organ,0.002128
organiz,0.015334
origin,0.008649
otalora,0.011432
otherwis,0.007422
outcom,0.007977
outlay,0.007612
output,0.028506
overal,0.007142
overview,0.007818
owner,0.017653
ownership,0.004582
pablo,0.007346
page,0.007650
paid,0.003978
paradigm,0.004727
parallel,0.008085
paramet,0.008996
park,0.004560
parti,0.006030
partial,0.003589
particular,0.004884
particularli,0.008208
partner,0.004265
passiv,0.005376
patent,0.020826
payoff,0.020179
perceiv,0.003923
perhap,0.003626
peril,0.007113
period,0.002318
perpetu,0.005285
pictur,0.004367
pilichowski,0.011432
pindyck,0.020751
pioneer,0.008151
plant,0.003387
plot,0.004781
point,0.015842
polici,0.002887
popular,0.008374
portfolio,0.032201
portfolion,0.011432
posit,0.009249
possibl,0.006846
postgradu,0.006538
power,0.002289
practic,0.004787
practition,0.014086
practitionersdu,0.011432
prefer,0.006852
premium,0.022885
present,0.008948
press,0.013166
presuppos,0.007010
price,0.072867
princeton,0.019758
principalag,0.008763
prize,0.008345
probabilityweight,0.010238
probabl,0.006420
problem,0.016749
proceed,0.008188
process,0.006345
procur,0.012360
produc,0.016295
product,0.011659
prof,0.088876
professor,0.015994
profit,0.011596
project,0.149493
promis,0.004204
properli,0.004704
proport,0.003699
proprietari,0.006691
prospect,0.004754
provid,0.001985
proxi,0.012540
public,0.004506
publish,0.002483
pucrio,0.011142
purpos,0.002910
quantiti,0.007288
quarterli,0.005470
question,0.008428
quickli,0.003641
quo,0.006239
r,0.005987
rainbow,0.006967
rappaport,0.009044
rate,0.027726
ration,0.011567
rd,0.008012
react,0.004957
read,0.002464
readili,0.009710
real,0.235607
realis,0.011442
realiz,0.003967
reallif,0.007211
realopt,0.011432
realworld,0.005895
reason,0.005093
recent,0.007371
reduc,0.005376
refer,0.001418
referenc,0.006096
reflect,0.006098
regard,0.008166
rel,0.005088
relat,0.026784
relatedli,0.008498
releas,0.007092
relev,0.029690
remain,0.004693
replic,0.010016
reprint,0.005456
requir,0.024571
rescu,0.005630
research,0.006905
resolv,0.008243
resourc,0.017235
respect,0.002698
respond,0.011480
respons,0.002461
restart,0.007464
restrict,0.003288
result,0.003953
return,0.002871
revenu,0.012418
richard,0.003505
right,0.015277
rigid,0.005279
risk,0.052370
riskfre,0.007277
riskneutr,0.016081
rnpv,0.010703
ro,0.006683
roa,0.008993
robert,0.009359
ronn,0.011142
rov,0.151715
rule,0.010360
run,0.003118
s,0.004024
salvag,0.007434
san,0.004506
sarkar,0.008943
scale,0.009634
scenario,0.015419
school,0.034642
schwartz,0.014133
scope,0.008342
scot,0.007374
second,0.002328
secur,0.018088
select,0.003085
sell,0.012041
sequel,0.041805
sequenc,0.007878
sequenti,0.006146
seri,0.008480
seriou,0.003974
servic,0.002764
sever,0.006176
shannon,0.007055
share,0.008295
shut,0.005928
sick,0.005571
sidak,0.011432
signific,0.002520
sillerpagaza,0.011432
similar,0.009432
simul,0.021454
sinc,0.005924
singl,0.002642
size,0.009225
sloan,0.007186
smit,0.020228
societi,0.002474
sold,0.008340
solut,0.006757
sometim,0.007712
somewhat,0.004186
son,0.003781
sophist,0.004543
sort,0.004142
sourc,0.009935
southern,0.003665
space,0.003044
specialis,0.005721
specif,0.004725
speech,0.004254
spend,0.004099
spent,0.004364
spot,0.009888
spreadsheet,0.007612
squar,0.012551
stage,0.003448
stanc,0.005443
standard,0.026597
start,0.007499
state,0.003455
statement,0.003625
statesr,0.011432
static,0.005051
statu,0.003298
stay,0.004322
stede,0.010000
stern,0.020232
steven,0.004975
stewart,0.006270
stochast,0.010960
stock,0.007619
strateg,0.017240
strategi,0.040464
strategist,0.007612
street,0.004506
strike,0.004392
strong,0.002869
studi,0.004173
style,0.040689
subject,0.002512
substitut,0.004388
success,0.002618
suiss,0.008399
suppli,0.003219
support,0.002347
switch,0.019395
t,0.010307
taken,0.002891
task,0.003663
teach,0.003868
technic,0.021072
techniqu,0.027312
technolog,0.008541
teichner,0.011432
term,0.011196
termin,0.004626
test,0.003228
texa,0.005575
texer,0.011432
text,0.003406
thawar,0.011432
theoret,0.006475
theori,0.006944
therefor,0.013420
thi,0.053174
thoma,0.007064
thought,0.002798
thu,0.002308
tie,0.003851
time,0.024461
timothi,0.006308
tj,0.008115
today,0.008510
todayparticularli,0.011432
tool,0.003162
torr,0.007149
total,0.005510
town,0.004055
tradabl,0.007970
trade,0.014283
tradeabl,0.008993
transfer,0.003379
treat,0.010373
treatment,0.003632
tree,0.004067
trend,0.003771
trigeorgi,0.045731
triniti,0.006493
turn,0.008190
tutori,0.006545
type,0.004748
typic,0.015895
ucla,0.007263
unabl,0.004103
uncertain,0.010440
uncertainti,0.073531
uncertaintyr,0.011432
uncommon,0.006053
underli,0.071253
underpin,0.005758
understand,0.005361
undertak,0.005360
unfavour,0.015224
unit,0.003983
univers,0.018407
universittsverlag,0.009800
unlik,0.003288
upfront,0.016556
use,0.040339
usual,0.016635
util,0.003572
vacant,0.007186
valeri,0.007881
valu,0.086055
valuabl,0.023179
valuat,0.169370
valuetocost,0.011432
van,0.004319
variabl,0.007219
variou,0.011240
vassili,0.010000
ventur,0.005201
view,0.002531
vladimir,0.005619
vol,0.004244
volatil,0.084065
vs,0.004768
w,0.003313
wa,0.006476
wacc,0.009800
wait,0.005354
waldron,0.009402
wall,0.004181
wherea,0.006853
whi,0.003633
whitepap,0.010238
wide,0.002543
wiesbaden,0.008569
wiley,0.009664
william,0.006328
wisconsin,0.006545
wish,0.004366
work,0.003871
world,0.002002
worth,0.008942
wrote,0.003364
x,0.003496
year,0.003985
yearli,0.005854
yettob,0.011432
york,0.009124
young,0.003666
zagreb,0.008643
