abil,0.001815
abl,0.003333
abn,0.005760
abolit,0.006931
accept,0.001656
access,0.005476
accord,0.003958
account,0.001553
acquir,0.006447
acronym,0.003996
act,0.016587
activ,0.001316
addit,0.005339
adher,0.002668
adjust,0.002525
advantag,0.006144
advis,0.002667
affo,0.006941
afford,0.002833
africa,0.004285
african,0.004625
ag,0.003980
agent,0.002249
aim,0.005652
akd,0.006941
allow,0.005248
altern,0.001695
amend,0.002782
america,0.003698
american,0.001494
amid,0.003499
ani,0.002325
annual,0.006080
annum,0.004147
anywher,0.003229
apart,0.004835
appli,0.001410
approach,0.001518
approv,0.009066
approxim,0.003596
arab,0.004874
arabia,0.003227
areit,0.013882
arif,0.005708
arun,0.005414
ascensio,0.006941
asia,0.004530
asset,0.036587
associ,0.012889
asuntojen,0.006941
asx,0.011053
attract,0.012738
august,0.010024
australia,0.009173
australian,0.013720
author,0.010399
authoris,0.003913
avail,0.001612
avoid,0.007883
awar,0.004774
away,0.002009
balanc,0.004176
bank,0.007632
base,0.001149
basi,0.001643
becaus,0.004790
becom,0.001273
befimmo,0.006941
befor,0.001358
begin,0.001551
behalf,0.002934
belgian,0.003704
belgium,0.006245
benefit,0.007722
bernheim,0.005414
bien,0.005450
billion,0.018078
board,0.004590
bodi,0.003192
bond,0.004544
boyd,0.004370
boyhil,0.006941
brazil,0.005686
brazilian,0.003667
breakdown,0.003275
british,0.005329
brixton,0.006291
broad,0.002136
brought,0.001961
broyhil,0.006941
brussel,0.003834
bubbl,0.003335
budget,0.004980
build,0.003367
bulgaria,0.007212
bursa,0.005202
burst,0.003583
busi,0.005380
came,0.001742
campaign,0.002391
canada,0.002282
canadian,0.008113
capit,0.036392
capitamal,0.006941
carson,0.004444
case,0.005329
cash,0.005326
cashth,0.006941
center,0.005098
centr,0.002190
certain,0.002916
certif,0.003096
certificado,0.006549
challeng,0.001903
champion,0.003307
chang,0.002402
chapter,0.002483
character,0.002021
charg,0.004112
china,0.002047
cigar,0.005081
cite,0.002228
class,0.003534
classif,0.002351
climat,0.002275
close,0.005703
closedend,0.005081
closeend,0.006410
cma,0.005658
code,0.006185
cofinimmo,0.006941
collabor,0.002447
collect,0.006217
com,0.004454
come,0.001524
comisso,0.005945
comment,0.002552
commerci,0.008166
commiss,0.016972
commonli,0.005309
comofi,0.006941
compani,0.067309
compar,0.001576
compli,0.007027
complianc,0.003420
compliant,0.008794
comprehens,0.002347
concept,0.001487
concern,0.002992
conduit,0.004310
configur,0.002944
conglomer,0.003980
congress,0.002387
congressmen,0.005487
conserv,0.002115
consid,0.001242
consist,0.002852
constitut,0.001682
construct,0.001650
contain,0.001528
continu,0.001291
contribut,0.001564
control,0.001415
convert,0.002172
corpor,0.027182
corporatelevel,0.006549
correspond,0.001934
cost,0.009368
countri,0.014025
countriesmarket,0.006941
coupon,0.004108
cousin,0.003504
cover,0.001754
cpi,0.004685
creat,0.007821
creation,0.009699
credit,0.004124
crisi,0.008797
curb,0.003870
current,0.001364
cvm,0.006099
d,0.001725
deal,0.001716
debt,0.007414
debtinstru,0.006941
debut,0.004239
dec,0.004202
decemb,0.005867
deduct,0.003083
defin,0.001462
deleverag,0.005878
demand,0.001902
democrat,0.002088
depart,0.001868
depress,0.002647
deriv,0.003240
describ,0.001311
design,0.004696
detriment,0.003502
develop,0.006395
did,0.003164
difc,0.026198
differ,0.001129
difficult,0.001858
direct,0.002830
directli,0.001712
director,0.005125
dispos,0.003153
distinct,0.001641
distinguish,0.001892
distribut,0.017584
diversifi,0.009682
dividend,0.044532
dmoz,0.002822
doe,0.001442
domest,0.002208
domicil,0.009802
door,0.003332
dot,0.003444
doubl,0.002359
doug,0.004584
dow,0.004147
drop,0.002339
dubai,0.032091
dure,0.001226
dwight,0.004188
earli,0.001283
earn,0.002411
easi,0.005211
easier,0.002747
econom,0.001404
economi,0.001752
eden,0.004326
educ,0.001634
effect,0.003739
effici,0.006027
eisenhow,0.008929
elect,0.001892
elimin,0.002218
emir,0.025601
enabl,0.004069
enact,0.011377
end,0.004208
engag,0.004063
engin,0.001849
enjoy,0.004885
entiti,0.002177
entitl,0.002648
entitylevel,0.006549
entrepreneur,0.003231
entri,0.004963
epra,0.055529
epranareit,0.006941
equal,0.001747
equiti,0.020551
equival,0.004133
era,0.002027
eriden,0.006941
especi,0.001489
establish,0.019170
estat,0.180272
europ,0.006959
european,0.009588
evolut,0.002083
examin,0.002008
excess,0.002479
exchang,0.041716
excis,0.004089
exclud,0.004827
exempt,0.006670
exist,0.007655
expand,0.001815
expans,0.002164
expect,0.003525
experienc,0.002303
extens,0.001732
extern,0.001003
face,0.001925
fahari,0.006941
fail,0.005787
fast,0.002626
favor,0.004238
fear,0.002407
februari,0.002084
feder,0.012257
fewer,0.005441
ffo,0.006941
fibra,0.048587
fideicomiso,0.006941
fidel,0.003889
fii,0.018568
file,0.002863
financ,0.028463
financi,0.016485
finland,0.006861
finnish,0.007908
flexibl,0.002840
flowthrough,0.005945
focu,0.003764
follow,0.002195
forc,0.001375
forefront,0.004035
foreign,0.007144
form,0.003146
fortun,0.003112
forward,0.002435
framework,0.003931
franc,0.005892
free,0.003134
freezon,0.006941
french,0.001846
friction,0.003380
ftse,0.015243
fund,0.034051
fundo,0.006018
gain,0.003338
gcc,0.004596
gear,0.003482
gecina,0.006941
gener,0.005915
german,0.003875
germani,0.006197
ghana,0.019377
given,0.001376
global,0.020042
govern,0.006523
governmentissu,0.005380
grace,0.003616
great,0.001546
greater,0.001728
greatest,0.002414
greit,0.027764
gross,0.008047
group,0.004950
grow,0.007037
growth,0.003473
guidelin,0.003043
gulf,0.003103
ha,0.014637
habib,0.004801
haldan,0.004277
half,0.001888
hammerson,0.006941
hand,0.003400
harjoittavien,0.006941
head,0.001771
health,0.001912
held,0.003244
help,0.001502
hfc,0.011635
high,0.001389
highest,0.002101
histori,0.002285
hold,0.003305
holder,0.006238
home,0.005877
hong,0.025662
hospit,0.008116
hotel,0.006606
hous,0.001840
howev,0.002227
hui,0.004620
hybrid,0.002866
ii,0.001795
immun,0.003003
imobilirio,0.006941
impact,0.001880
implement,0.003820
import,0.001170
improv,0.005065
includ,0.010476
inclus,0.002826
incom,0.060943
incomeproduc,0.030948
incometaxexempt,0.013882
increas,0.009235
incur,0.006580
independ,0.001409
index,0.019616
india,0.008402
indian,0.002271
indic,0.001687
indirectli,0.002956
individu,0.007076
indonesia,0.003249
industri,0.006264
inflow,0.003758
inform,0.002728
infraestructura,0.006291
initi,0.005963
inmobiliario,0.006941
institut,0.002903
instruct,0.005166
insur,0.005290
intend,0.002123
intern,0.009618
introduc,0.014485
introduct,0.001818
invest,0.126975
investimento,0.006018
investor,0.052277
involv,0.001330
ipo,0.013486
ireit,0.013882
ireland,0.005735
isa,0.004301
islam,0.006851
issu,0.008833
issuanc,0.003875
issuer,0.004083
j,0.001723
jaitley,0.006941
januari,0.007832
japan,0.009075
japanes,0.007844
joel,0.004007
johannesburg,0.005103
join,0.002040
jointli,0.006620
jone,0.003046
journal,0.001764
jreit,0.027764
juli,0.007926
julkinen,0.006549
june,0.003997
kenya,0.011450
key,0.005237
kick,0.004269
kiinteistrahastolaki,0.006941
kind,0.001827
kingdom,0.003649
knowledg,0.001725
known,0.006878
kong,0.025885
korea,0.002769
laki,0.006941
land,0.005208
larg,0.001208
largecap,0.005878
largescal,0.002672
largest,0.009472
late,0.004764
later,0.001364
latest,0.003063
launch,0.016171
law,0.019345
lay,0.002581
leas,0.003462
legisl,0.016800
lend,0.002946
level,0.002743
liabil,0.009670
liberti,0.002911
licens,0.010925
like,0.002450
limit,0.001400
line,0.001641
link,0.003989
liquid,0.007376
list,0.038263
litic,0.013882
llp,0.005945
local,0.007767
locat,0.001686
london,0.003862
long,0.001489
look,0.001893
loss,0.004012
low,0.001757
lower,0.001694
lpt,0.012583
m,0.003280
main,0.004356
mainli,0.001904
major,0.002433
make,0.008164
malaysia,0.013405
manag,0.014784
mani,0.003110
march,0.003804
market,0.053223
max,0.002802
maximum,0.002494
mccall,0.005612
meet,0.003711
member,0.001463
mexican,0.014615
mexico,0.005722
million,0.003603
minimum,0.010007
minist,0.002069
mix,0.002206
mobilirio,0.006410
modern,0.001375
moment,0.002609
monetari,0.002458
mortgag,0.027100
mostli,0.001956
movement,0.001581
msci,0.005347
multipl,0.001764
mutual,0.012096
n,0.002059
nairobi,0.004726
naismith,0.006549
nareit,0.013882
nasdaq,0.004527
nation,0.002541
nav,0.005450
net,0.004822
new,0.005122
nigeria,0.007343
nigerian,0.004335
nonetheless,0.002868
nonfreezon,0.006941
nonlist,0.005878
nonsouth,0.006941
north,0.001821
notabl,0.001759
notif,0.004608
novemb,0.004114
nowaday,0.003471
numer,0.003398
octob,0.007933
oeic,0.006018
offer,0.008527
offic,0.007384
oner,0.005127
onli,0.006334
open,0.001570
oper,0.015916
opportun,0.002166
orava,0.006549
order,0.002527
organ,0.001251
osakeyhti,0.006549
osakeyhtiiden,0.006941
otherwis,0.002181
outflow,0.004134
outpac,0.004633
outsid,0.003499
overal,0.002099
owner,0.012971
ownership,0.005387
oyj,0.006549
paid,0.004677
pakistan,0.015675
pakistani,0.004167
parallel,0.002376
parliament,0.002313
parti,0.005317
participacin,0.006549
particular,0.001435
partner,0.010029
partnership,0.017320
pass,0.008909
passport,0.003778
passthrough,0.005945
past,0.001819
pay,0.014988
payabl,0.004102
pension,0.003186
percent,0.013821
period,0.002725
permit,0.002336
person,0.006003
philippin,0.006580
physic,0.001500
pick,0.002985
placement,0.003599
plan,0.003473
platform,0.002808
polici,0.001697
polit,0.001439
poor,0.002267
portal,0.003307
portfolio,0.009464
portland,0.004378
posit,0.001359
possibl,0.002682
post,0.002225
practic,0.001407
presenc,0.001988
presid,0.001902
prevent,0.001880
price,0.009735
primari,0.001736
primarili,0.008988
prime,0.002113
privat,0.007543
process,0.002486
profit,0.004544
promot,0.001876
properti,0.054142
propos,0.003245
prospect,0.002794
provid,0.012835
provis,0.002561
public,0.014569
publicli,0.016886
publish,0.002919
purchas,0.006710
purpos,0.010264
push,0.002501
qualif,0.003342
qualifi,0.013828
quot,0.013758
r,0.001759
ra,0.003783
race,0.002583
rais,0.005819
rang,0.004736
rate,0.006519
ratio,0.002371
reach,0.001695
real,0.112531
realest,0.015455
realiz,0.002332
realti,0.005658
receiv,0.001593
recogn,0.001788
recognis,0.002575
recognit,0.002286
reduc,0.006320
reequit,0.006941
refer,0.004170
reform,0.004080
regal,0.011053
regim,0.014583
registr,0.003247
regul,0.015797
regulatori,0.008660
reit,0.920476
reita,0.020823
reitag,0.006941
reitaktiengesellschaft,0.006941
reitlik,0.006941
relat,0.002249
relax,0.003188
remain,0.001379
remic,0.006720
renam,0.002895
rent,0.003211
rental,0.004134
reoc,0.006941
repatri,0.004059
repres,0.004104
requir,0.007878
resid,0.002209
residenti,0.021540
resist,0.002161
respond,0.002249
respons,0.001446
restrict,0.009666
result,0.003485
retail,0.006033
retroact,0.004326
return,0.005064
revenu,0.014600
right,0.001496
rise,0.001678
royalti,0.003804
rule,0.015225
s,0.002366
sa,0.003675
said,0.003427
sale,0.002429
sapphir,0.005450
saudi,0.006800
sb,0.004454
scheme,0.017573
scpi,0.006941
se,0.003468
sec,0.008118
second,0.001368
secondari,0.002375
secp,0.006549
section,0.006200
sector,0.004373
secur,0.028354
securit,0.004849
securitis,0.005708
seen,0.003273
segment,0.002857
segro,0.013882
sell,0.002359
separ,0.001523
septemb,0.002011
seri,0.001661
servic,0.006500
set,0.003876
seven,0.002188
sever,0.002420
share,0.014628
sharehold,0.033729
sharia,0.004108
sheet,0.006033
shelter,0.006504
shi,0.003980
shop,0.006224
short,0.001778
shown,0.002011
sift,0.004937
sign,0.003822
signific,0.005927
significantli,0.002140
siic,0.013882
similar,0.005544
sinc,0.009286
singapor,0.015295
singl,0.001553
skye,0.006410
slough,0.005450
slow,0.002396
small,0.001420
smaller,0.001973
social,0.001476
soilbuild,0.006941
sometim,0.001511
sourc,0.002920
south,0.005453
sovereign,0.002774
sp,0.003558
space,0.003579
special,0.004355
specif,0.001388
specifi,0.002360
specificgener,0.006941
specul,0.002415
spread,0.002051
sreit,0.041646
stabil,0.002164
stabl,0.002284
standard,0.001563
stanlib,0.006941
state,0.005078
statist,0.001904
statu,0.003877
steadi,0.002975
step,0.001968
stock,0.040313
stockexchang,0.013441
street,0.002648
strengthen,0.002625
strictli,0.002737
strong,0.001686
structur,0.018988
struggl,0.002433
subchapt,0.005817
subject,0.002953
subscript,0.003770
subsidiari,0.007021
substanti,0.002154
success,0.001539
sunlight,0.003619
support,0.001380
swap,0.003540
syariah,0.006099
sylvain,0.005450
taiwan,0.003266
taubman,0.006291
tax,0.056723
taxabl,0.049848
taxat,0.005708
taxpay,0.003875
tenant,0.004035
test,0.001897
thailand,0.003507
therefor,0.001577
thi,0.007814
thoma,0.002076
threeyear,0.003808
thu,0.001357
till,0.003504
timberland,0.011224
time,0.004108
togeth,0.001600
tokyo,0.003678
tool,0.001858
topperform,0.006410
total,0.019436
trade,0.013434
tradit,0.001461
transfer,0.003972
trillion,0.006471
true,0.001879
trust,0.086281
truste,0.004102
type,0.006978
typic,0.004672
uae,0.008889
uk,0.010638
understand,0.001575
unibailrodamco,0.013882
union,0.003450
unit,0.015221
unlik,0.001933
unlist,0.005202
uno,0.005286
unrealis,0.006189
unrel,0.003319
unrestrict,0.008294
unsecur,0.005016
updc,0.006941
upreit,0.013882
usd,0.003479
use,0.006639
valor,0.004919
valu,0.005951
valuat,0.003211
varieti,0.001743
variou,0.002643
vehicl,0.013179
verohuojennuksesta,0.006941
version,0.002030
vieujot,0.006941
virginia,0.003344
vuokraustoimintaa,0.006941
wa,0.019036
wall,0.002458
want,0.002143
warehous,0.008191
way,0.004964
went,0.002129
wit,0.002827
work,0.001138
workspac,0.005380
world,0.004707
wwwbursamalaysiacom,0.006941
wwwreita,0.006941
wwwreitaorg,0.006941
xian,0.004816
y,0.002472
year,0.015230
yield,0.004535
zone,0.002399
