abov,0.011889
absenc,0.008536
accommod,0.010782
accur,0.015821
actual,0.005942
advanc,0.011469
al,0.031858
alpha,0.075238
altern,0.005966
alway,0.006243
analyt,0.016930
andrew,0.009430
anoth,0.004465
approach,0.010687
approxim,0.037967
arbitrag,0.042794
arbitragefre,0.069505
arithmet,0.011337
assum,0.012865
assumpt,0.007910
asymptot,0.108845
attempt,0.005296
avail,0.011351
averag,0.013871
b,0.006150
bartlett,0.016175
base,0.004045
becom,0.013445
best,0.006170
beta,0.125970
bgm,0.019750
black,0.022668
boundari,0.031265
c,0.053582
calibr,0.053915
captur,0.007699
case,0.018754
cev,0.062771
cftextmidalpha,0.097708
cftextmidcftextmidfrac,0.048854
chosen,0.008568
clariti,0.013463
cleftfrightfbeta,0.024427
close,0.010035
code,0.007256
coeffici,0.010822
colloc,0.040547
complic,0.008499
comput,0.012428
condit,0.015743
consid,0.004373
constant,0.007456
conveni,0.020027
correct,0.007552
correl,0.034969
correspond,0.006808
cover,0.006174
current,0.004801
d,0.121433
deep,0.008349
denot,0.009151
densiti,0.027152
deriv,0.017108
describ,0.009232
develop,0.003750
dftsigma,0.070954
diana,0.015197
differenti,0.007594
discount,0.010828
displaystyl,0.403796
distribut,0.024753
dleftzeta,0.024427
doe,0.005074
drawback,0.014595
dsigma,0.060820
dt,0.014789
dwt,0.054655
dwtdztrho,0.024427
dxcxfrac,0.024427
dynam,0.021094
dzeta,0.024427
easi,0.018340
effect,0.004386
effici,0.007070
enter,0.006601
equal,0.012298
equat,0.007509
equiti,0.010331
equival,0.007273
especi,0.010486
et,0.031047
european,0.011248
evolut,0.007331
exact,0.017228
expans,0.030475
expect,0.006204
expir,0.012205
express,0.023401
extend,0.005955
extens,0.024390
f,0.279354
fact,0.005733
fast,0.009243
financ,0.014310
financi,0.006446
fine,0.009653
fix,0.007166
fk,0.017442
fkdzeta,0.024427
follow,0.011587
forc,0.009679
form,0.011072
formula,0.059022
forward,0.077141
frac,0.097247
free,0.022061
ft,0.010552
ftextmid,0.073281
ftextmidleftfrac,0.024427
function,0.009887
gain,0.005874
gamma,0.095373
gener,0.013878
geometr,0.009929
geometri,0.009847
geq,0.017581
given,0.014528
guarante,0.017714
ha,0.009658
hagan,0.116701
heat,0.008514
hedg,0.012055
highli,0.006356
howev,0.003918
hyperbol,0.013023
illpos,0.020087
impl,0.046099
implement,0.013444
impli,0.075065
includ,0.006703
industri,0.005511
initi,0.005246
int,0.013463
integr,0.005826
introduc,0.011327
intuit,0.010331
k,0.080523
kbeta,0.023049
kernel,0.014065
kffrac,0.023049
known,0.004034
kumar,0.015110
larg,0.004254
leftfbeta,0.024427
leftfkright,0.022142
leftfrac,0.026483
leftleftfrac,0.039500
lend,0.010370
leq,0.063136
lesniewski,0.048854
libor,0.032024
lmm,0.024427
log,0.033928
logfkdzeta,0.024427
lognorm,0.048915
longdat,0.020923
low,0.006186
manag,0.017342
market,0.036252
match,0.008583
mathemat,0.006345
max,0.009863
maxftk,0.024427
mean,0.013335
measur,0.005286
method,0.014996
mid,0.096452
midpoint,0.016895
model,0.150835
modifi,0.007875
moment,0.009182
n,0.007248
natur,0.004309
near,0.006636
neg,0.062993
normal,0.032168
note,0.004653
numer,0.005979
observ,0.005327
obtain,0.006273
obviou,0.010195
onlin,0.007064
option,0.058956
origin,0.004473
p,0.024646
paper,0.006659
paramet,0.102359
patrick,0.011688
payoff,0.013915
pde,0.032267
point,0.004682
polynomi,0.012314
popular,0.005774
portfolio,0.011102
posit,0.004783
possibl,0.009441
potenti,0.005992
practic,0.004952
practition,0.009713
prescrib,0.011302
preserv,0.007801
price,0.034259
priori,0.012406
probabl,0.033207
problem,0.004950
procedur,0.008060
process,0.013126
project,0.011454
quit,0.007822
quot,0.009683
rate,0.068829
real,0.006092
recent,0.005083
reduc,0.005560
refer,0.008806
refin,0.018416
reli,0.007073
repres,0.004815
rho,0.125401
ride,0.012761
right,0.026337
rightfrac,0.035454
rightvarepsilon,0.048854
risk,0.021667
riskneutr,0.016633
robust,0.010632
s,0.016652
sabr,0.550576
satisfi,0.008707
say,0.006359
set,0.009094
shift,0.035568
short,0.006258
sigma,0.188840
significantli,0.007533
simpl,0.006491
sinc,0.004085
singl,0.005467
skew,0.014026
small,0.009997
smallstrik,0.024427
smile,0.056415
socal,0.008243
soft,0.010430
solut,0.041936
solv,0.007518
solver,0.015474
somewhat,0.008660
special,0.005109
sqrt,0.026370
stand,0.007677
state,0.003574
stay,0.008942
stochast,0.102036
stock,0.007881
strike,0.027261
structur,0.004773
style,0.008417
suitabl,0.009068
summari,0.009831
swap,0.012458
t,0.220345
talpha,0.074840
tdzt,0.070954
term,0.011580
test,0.006678
textimplalpha,0.024427
textimpltextnalpha,0.024427
tftbeta,0.047302
tftsbeta,0.024427
thi,0.021389
thu,0.004775
time,0.010843
timedepend,0.031495
treatment,0.007515
tune,0.013270
typic,0.005480
unifi,0.008551
use,0.010014
valu,0.026180
valuat,0.011302
varepsilon,0.016349
variabl,0.014935
veri,0.018661
version,0.007146
volatil,0.195646
volvol,0.024427
w,0.034273
wa,0.003349
wide,0.005261
wiener,0.014103
woodward,0.016133
worth,0.009249
wt,0.016394
x,0.014466
year,0.008245
z,0.049835
zero,0.034365
zeroth,0.017653
zeta,0.064048
zt,0.019311
