access,0.021692
account,0.009232
accur,0.040066
act,0.232940
ad,0.010003
addit,0.015860
affili,0.017932
aftermath,0.019535
aggreg,0.016577
agre,0.011818
allow,0.015590
ani,0.041451
anoth,0.007539
appli,0.008380
assist,0.011687
attempt,0.008941
audit,0.021234
author,0.008826
avail,0.009582
averag,0.023417
avoid,0.011708
b,0.041532
bad,0.016080
bank,0.011336
base,0.006830
bate,0.026070
becom,0.015132
befor,0.008072
benjamin,0.017923
blue,0.101088
bolster,0.022861
broad,0.012695
busi,0.010655
buyer,0.037729
buyout,0.057822
capit,0.010295
case,0.023745
certain,0.025993
certifi,0.020655
chang,0.007137
chiefli,0.020525
circumst,0.014542
civil,0.021719
claus,0.021087
codifi,0.020789
cohen,0.020840
commerc,0.063107
commiss,0.012604
commit,0.013270
common,0.007655
commonli,0.010514
commun,0.008278
compani,0.059984
complet,0.026233
compli,0.020874
complianc,0.020321
confid,0.016196
confus,0.014250
congress,0.028373
conjunct,0.017693
consid,0.007384
consolid,0.016624
constitut,0.019994
control,0.016824
copiou,0.028617
copyright,0.022378
corcoran,0.034927
countri,0.008332
crash,0.018831
creat,0.007744
d,0.010250
deal,0.010200
deem,0.017135
defin,0.008689
definit,0.010011
defraud,0.031071
demand,0.011304
depress,0.015731
descript,0.011574
differ,0.006712
dilig,0.025368
direct,0.008407
disclos,0.110606
disclosur,0.068344
discuss,0.010331
document,0.036673
doe,0.017134
doi,0.016763
dougla,0.018711
draft,0.016341
drive,0.013604
dure,0.014577
e,0.010260
edgar,0.022283
effort,0.021114
embrac,0.017196
enact,0.050694
enforc,0.014291
engag,0.012071
enorm,0.016418
ensu,0.018636
ensur,0.025047
et,0.013103
examin,0.011931
exampl,0.006827
exce,0.019911
exceed,0.016008
excess,0.014731
exchang,0.032327
execut,0.011547
exempt,0.079257
exist,0.015160
exposur,0.016941
extern,0.005960
extrem,0.021869
fact,0.048394
fault,0.020477
feder,0.060686
file,0.085077
financi,0.021765
follow,0.006520
foreign,0.021222
form,0.031153
franklin,0.018647
fraud,0.018776
fulli,0.024579
furthermor,0.013968
gener,0.011714
georg,0.011748
given,0.008175
goal,0.011212
govern,0.015503
great,0.009187
greater,0.010267
ha,0.010870
harbor,0.122391
held,0.009637
help,0.008924
hi,0.007308
high,0.008253
howev,0.006615
illeg,0.065700
impos,0.056074
imposs,0.013783
improv,0.010030
inaccur,0.022098
includ,0.039610
incorpor,0.011193
independ,0.008372
indic,0.010027
individu,0.008407
inform,0.048623
insid,0.013671
institut,0.017251
instrument,0.037654
interst,0.097336
intrast,0.032602
introduct,0.010806
invest,0.034817
investor,0.062118
issuer,0.266868
jame,0.011496
journal,0.020968
jstor,0.020509
k,0.012358
key,0.010372
kind,0.010857
known,0.006810
l,0.011997
landi,0.032168
law,0.139566
lead,0.008131
left,0.010863
legal,0.011245
legisl,0.024954
length,0.013521
level,0.008149
liabil,0.076607
liabl,0.023810
lie,0.013352
limit,0.041613
link,0.005925
llc,0.026466
locat,0.010019
long,0.008848
m,0.009745
mail,0.021348
maintain,0.009501
major,0.007229
make,0.020788
manag,0.009759
march,0.011300
market,0.061201
materi,0.019098
matter,0.020500
maximum,0.014817
mean,0.030018
meant,0.013976
meet,0.011025
merger,0.039492
merit,0.058337
met,0.013934
mind,0.012850
minimum,0.014863
mislead,0.020605
month,0.024078
municip,0.016604
nasdaq,0.026900
nation,0.015101
new,0.012173
nonu,0.028166
notic,0.015465
number,0.006816
o,0.014369
obtain,0.010591
offer,0.192521
omit,0.021291
onc,0.010182
onli,0.012545
oper,0.008596
opinion,0.014482
oppos,0.011387
order,0.007509
outsid,0.020790
outstand,0.018636
owner,0.015413
particip,0.010749
period,0.016193
perman,0.013205
permit,0.027757
person,0.080248
philosophi,0.034804
physic,0.008916
place,0.007706
potenti,0.020232
practic,0.008360
preced,0.014804
preempt,0.027526
prescrib,0.019081
presid,0.011300
previous,0.011911
price,0.011567
primari,0.010314
primarili,0.010680
princip,0.012206
prior,0.011802
privat,0.022407
probabl,0.011212
process,0.007386
promulg,0.019925
propos,0.009640
prospectu,0.120221
prospectus,0.036773
protect,0.010414
provid,0.020798
provis,0.015219
pub,0.023370
public,0.023607
purpos,0.020327
pursuant,0.051716
qualifi,0.032863
qualit,0.018117
read,0.008606
reason,0.008894
receiv,0.009467
recent,0.008581
recoveri,0.016497
refer,0.009911
refil,0.032380
regardless,0.014980
regist,0.138300
registr,0.347335
regul,0.105586
relev,0.012961
reli,0.011940
relianc,0.019869
remov,0.011441
report,0.028574
requir,0.148223
resal,0.145591
resel,0.027835
respect,0.009424
restrict,0.057427
review,0.033311
roosevelt,0.022144
rule,0.090459
s,0.014056
safe,0.097216
sale,0.144363
sec,0.265291
secgov,0.041238
seclawcom,0.036237
section,0.049116
secur,0.452732
seek,0.011119
sell,0.056074
seq,0.033618
share,0.009656
sharehold,0.020039
shortli,0.015423
sign,0.022710
simpli,0.011253
size,0.010740
sky,0.117678
socal,0.013916
sold,0.058257
specif,0.016503
stat,0.029225
state,0.066380
statement,0.151936
statut,0.040520
stock,0.039917
strictli,0.016265
subject,0.026320
subsequ,0.010762
substanti,0.012803
sue,0.025276
support,0.008200
takeov,0.042697
telephon,0.018853
theori,0.008084
therefor,0.009374
thi,0.020634
thing,0.010974
thoma,0.012337
time,0.006102
titl,0.012379
trade,0.019953
transact,0.059400
true,0.011166
truth,0.014673
turn,0.009534
type,0.008291
underwrit,0.051116
uniqu,0.011759
unit,0.041737
unless,0.030910
unlik,0.011485
usc,0.026292
use,0.028177
v,0.012297
veri,0.015752
vgi,0.038913
violat,0.015259
virtual,0.013639
volum,0.035441
wa,0.016964
weakli,0.023585
websit,0.013041
week,0.014495
weekli,0.040922
william,0.011051
wish,0.015249
written,0.010919
yale,0.037707
year,0.006960
