abbrevi,0.014038
academ,0.008632
accord,0.005763
account,0.013576
action,0.007081
activ,0.011502
actual,0.007376
advers,0.013499
allow,0.005731
alpha,0.013341
analysi,0.006947
analyt,0.010507
andrew,0.011705
ani,0.015238
appli,0.006161
approach,0.046432
arb,0.095232
arbitrag,0.513495
argu,0.007667
articl,0.013700
asset,0.031964
assign,0.010352
assum,0.007984
attent,0.009398
august,0.017516
autobiograph,0.019731
autom,0.038692
avail,0.028181
avellaneda,0.026291
awar,0.010428
b,0.007634
bamberg,0.045934
bank,0.016670
base,0.020088
beat,0.014619
becaus,0.015694
becom,0.011126
began,0.006939
behavior,0.016304
bertram,0.042514
bet,0.017580
beta,0.014215
betaneutr,0.030321
birth,0.010240
blame,0.013805
bookstab,0.030321
bottomup,0.018584
bought,0.013279
break,0.009579
broadli,0.011633
candid,0.010721
capit,0.022710
captur,0.009557
care,0.017488
case,0.005819
categori,0.017762
center,0.007423
chang,0.010495
china,0.017885
climb,0.015753
close,0.006228
cointegr,0.076239
combin,0.006637
comment,0.011150
commerci,0.008918
common,0.005628
compet,0.009597
competit,0.009153
complex,0.006812
comput,0.015427
concept,0.012993
condit,0.006513
confirm,0.010036
conjectur,0.014702
consid,0.005429
consider,0.007823
consist,0.006230
constrain,0.013535
construct,0.007209
context,0.008189
continu,0.005640
contrarian,0.022845
contribut,0.006832
convert,0.009490
copula,0.022967
corpor,0.009133
correct,0.009374
correl,0.032554
cost,0.008185
countri,0.012253
currenc,0.010201
d,0.007536
daili,0.010888
data,0.014859
day,0.021075
decid,0.009072
default,0.028411
degre,0.007624
demon,0.016472
demonstr,0.008368
departur,0.014297
depend,0.006142
deriv,0.014157
describ,0.017190
design,0.013675
desir,0.008761
determinist,0.029727
develop,0.009312
differ,0.009870
difficult,0.008119
diffus,0.012718
distancebas,0.024934
distinct,0.007170
distribut,0.007681
document,0.017976
driver,0.014269
drop,0.010218
dure,0.016077
e,0.007544
earli,0.022424
eclips,0.015021
econom,0.006133
ed,0.023539
effect,0.021780
effici,0.017552
elimin,0.029078
emerg,0.007183
empir,0.015641
entrant,0.019249
equiti,0.038474
event,0.043764
evid,0.007643
evolv,0.009200
execut,0.008490
exist,0.011147
expect,0.023102
experienc,0.030187
explain,0.007545
exploit,0.020867
exposur,0.024913
extern,0.004382
face,0.008412
fact,0.007116
factor,0.056853
fad,0.021409
fairli,0.012695
fashion,0.011796
filter,0.013970
final,0.007249
financ,0.026644
financi,0.008001
finit,0.011591
firm,0.020020
follow,0.004794
forc,0.006007
formula,0.010466
forthcom,0.018146
fourierrel,0.025165
framework,0.008586
fulli,0.018072
fund,0.099165
fundament,0.007675
gener,0.012920
gerri,0.023093
global,0.007959
great,0.006754
greater,0.007548
greatli,0.009814
ha,0.011989
heavi,0.020717
heavili,0.019325
hectic,0.025972
hedg,0.074820
held,0.007086
hi,0.005373
high,0.030344
highfrequ,0.020239
highli,0.023670
histor,0.013465
hold,0.007219
httpssrncomabstract,0.052582
hundr,0.018212
idea,0.006726
immedi,0.008810
implement,0.025033
impli,0.009317
import,0.005111
impos,0.010307
includ,0.012481
increas,0.005763
indic,0.014745
individu,0.012364
industri,0.006840
infeas,0.020408
infin,0.031337
inform,0.005958
infotechaxioma,0.030321
infrastructur,0.010147
insid,0.010052
institut,0.012684
invalid,0.015044
invers,0.012655
invest,0.051200
investor,0.034254
involv,0.029051
ito,0.022098
jegadeesh,0.028001
jh,0.020294
joe,0.017183
journal,0.015417
juli,0.008656
june,0.017463
kalman,0.021568
khandani,0.030321
kolman,0.027038
larg,0.010561
leadlag,0.030321
learn,0.008417
lee,0.013626
lehmann,0.043646
level,0.005991
like,0.005351
limit,0.006119
link,0.008713
liquid,0.042962
literatur,0.017904
lo,0.027484
local,0.006786
long,0.039034
longterm,0.010544
loss,0.026291
low,0.023036
m,0.007165
ma,0.012655
machin,0.009674
macro,0.017458
magazin,0.011600
mainstream,0.012159
major,0.005315
maker,0.013821
manag,0.007175
mani,0.009057
margin,0.010980
market,0.097498
marketbas,0.018389
marketplac,0.015841
martingal,0.020026
match,0.021309
mathemat,0.007876
mean,0.016553
measur,0.006562
mechan,0.007398
method,0.012410
mid,0.029931
mispric,0.046186
model,0.068650
momentum,0.013171
morgan,0.042672
movement,0.006908
mscibarraaptnorthfieldrisk,0.030321
muller,0.019547
multifactor,0.022195
n,0.008997
narrow,0.011313
necessari,0.007984
new,0.004475
newportprinceton,0.030321
noarbitrag,0.023093
nonstationari,0.023361
number,0.015036
numer,0.007422
obstacl,0.014459
obtain,0.007787
occur,0.012731
onli,0.009223
open,0.006859
oper,0.006320
opportun,0.009463
oppos,0.008372
optim,0.021253
order,0.005521
outperform,0.034917
p,0.022944
pair,0.085415
particular,0.006271
particularli,0.007026
partner,0.021905
past,0.023844
pdt,0.025681
perform,0.014086
period,0.011906
perspect,0.008965
peter,0.009135
phase,0.038538
physica,0.020709
piec,0.011064
pioneer,0.010466
place,0.005666
point,0.005811
poorer,0.016366
portfolio,0.055126
posit,0.023751
possibl,0.005859
pp,0.009366
practic,0.006146
predict,0.016812
present,0.005744
pressur,0.008648
presum,0.012824
price,0.025515
prime,0.009230
principl,0.020689
probabl,0.008243
process,0.005431
profit,0.019852
proport,0.009498
proprietari,0.034366
provid,0.005097
publish,0.006376
quant,0.024718
quantit,0.032021
quarterli,0.014046
quickli,0.009351
rang,0.006896
rank,0.009699
reason,0.006539
receiv,0.013922
recov,0.011216
reduc,0.034513
reduct,0.031452
refer,0.014574
reflect,0.007830
region,0.006524
regulatori,0.012610
rel,0.006533
relat,0.004912
relationship,0.027820
reminisc,0.017531
repeat,0.010516
respons,0.006319
restrict,0.016889
retriev,0.010825
return,0.051619
returnrevers,0.030321
revers,0.030093
reviv,0.011579
richard,0.009001
risk,0.125515
riskreduct,0.028611
robust,0.013198
run,0.008007
scope,0.010711
score,0.093490
second,0.011960
sector,0.009552
secur,0.030965
securityspecif,0.027038
sell,0.010307
sens,0.022492
seri,0.021776
set,0.011288
sever,0.010573
shaw,0.034411
short,0.069920
shortterm,0.052981
shortthat,0.030321
signal,0.020968
signific,0.025893
similar,0.030276
simpl,0.016114
simpler,0.013521
simul,0.011018
situat,0.007807
size,0.015793
small,0.006205
sold,0.010708
solut,0.008675
sourc,0.012757
speak,0.019447
spuriou,0.019547
ssrn,0.040589
stabil,0.009457
standard,0.006829
stanley,0.040067
start,0.006418
stat,0.085953
statarb,0.606420
statist,0.249583
statisticaleconometr,0.030321
stock,0.156533
stockspecif,0.030321
stockssom,0.030321
strategi,0.132246
stress,0.010398
studi,0.005359
subject,0.006450
substanti,0.009413
success,0.006724
summer,0.011731
sure,0.013895
taken,0.007425
technic,0.009018
techniqu,0.007792
technolog,0.007311
term,0.014375
test,0.008289
themselv,0.007521
theoret,0.008314
theori,0.005943
therebi,0.010495
thi,0.022757
thorp,0.062320
thousand,0.008942
thu,0.005927
time,0.026920
tool,0.016239
trade,0.146712
trader,0.012483
transform,0.008300
tri,0.015963
true,0.008210
turnov,0.016298
type,0.006096
underli,0.019260
underperform,0.021332
understood,0.009516
unless,0.011363
unprofit,0.019592
unusu,0.012294
updat,0.012284
use,0.024861
usual,0.006102
valu,0.006499
vari,0.014951
variou,0.011545
veri,0.005791
version,0.008870
volatil,0.013491
wa,0.012473
wane,0.016544
way,0.005422
weak,0.010073
week,0.010658
wholemarket,0.030321
wiley,0.012408
wilmott,0.023503
withdraw,0.012188
wk,0.050330
word,0.007039
work,0.004971
world,0.005141
worldwid,0.010287
