ad,0.039593
assum,0.042980
bate,0.103181
brownian,0.093722
constant,0.049820
corr,0.268437
correl,0.058413
d,0.365120
delta,0.071779
displaystyl,0.172215
dnu,0.147949
drift,0.077265
dsmu,0.150726
dteta,0.163214
dz,0.129960
dzdzrho,0.163214
e,0.040608
expect,0.041453
financ,0.047807
fit,0.054929
follow,0.025807
heston,0.124309
impli,0.050156
jump,0.148976
lambda,0.088381
lognorm,0.108945
mathemat,0.042397
merton,0.099161
model,0.167972
motion,0.054421
nu,0.385242
observ,0.035594
operatornam,0.102549
overlin,0.119476
price,0.045782
process,0.058471
q,0.069261
refer,0.019613
return,0.039694
s,0.139087
sdq,0.163214
sdtsqrt,0.163214
sdzealpha,0.163214
secur,0.041670
sqrt,0.088101
standard,0.036765
stochast,0.075753
suggest,0.038213
surfac,0.049425
svj,0.163214
t,0.142478
thi,0.020416
time,0.024151
varepsilon,0.109243
volatil,0.145250
z,0.332984
