abc,0.130418
abov,0.019410
access,0.020978
activ,0.003782
actual,0.004851
ad,0.004837
addit,0.007669
address,0.005707
advantag,0.005883
afterlunch,0.019940
allornon,0.017080
allow,0.011308
altern,0.004870
alway,0.015291
analog,0.006773
ani,0.010021
anoth,0.010937
aon,0.033778
appli,0.004052
area,0.003764
ask,0.006266
attempt,0.004323
auction,0.032748
automat,0.007737
avail,0.032434
averag,0.005661
away,0.011547
base,0.006605
becaus,0.006881
becom,0.021952
befor,0.007806
beforelunch,0.019940
begin,0.004456
behav,0.008129
behavior,0.005361
best,0.045336
better,0.010308
bid,0.048695
bidoff,0.016889
bond,0.006528
book,0.021719
borrow,0.007585
bought,0.008733
bracket,0.010904
broker,0.070252
buy,0.159064
buyer,0.009121
buystop,0.059821
calcul,0.005832
cancel,0.078038
capit,0.004978
case,0.007654
central,0.004291
certainti,0.019324
chang,0.010353
chapter,0.007134
charl,0.005862
close,0.028672
combin,0.008730
commiss,0.012189
commod,0.007430
common,0.007403
commonli,0.005084
competitor,0.009483
complet,0.004228
compliant,0.012632
complic,0.006938
compos,0.011616
condit,0.025703
constrain,0.008901
constraint,0.007601
continu,0.003709
control,0.012203
controversi,0.006033
coveringth,0.019940
creat,0.003744
currenc,0.006709
current,0.023517
custom,0.006190
dark,0.015834
day,0.027721
deadlin,0.012478
declin,0.005813
deeper,0.009149
defin,0.008403
definit,0.004841
delay,0.007819
deriv,0.004655
design,0.004496
differ,0.012983
difficult,0.005339
direct,0.012196
directli,0.004919
discret,0.007221
discretionari,0.024957
display,0.034791
doe,0.008285
doesnt,0.018308
dollar,0.007154
downtick,0.038614
drop,0.013439
dure,0.003524
effect,0.003580
electron,0.012336
enabl,0.005845
encourag,0.006058
end,0.008060
enter,0.053887
entir,0.004781
equal,0.005019
erollov,0.019940
estedt,0.019940
exact,0.007032
exampl,0.033012
exceed,0.007740
exchang,0.052106
execut,0.150760
exist,0.003665
face,0.005532
fall,0.020126
fallen,0.008956
fastmov,0.028058
featur,0.004985
fewer,0.007816
financi,0.005262
firstcomefirstserv,0.019940
fok,0.099702
follow,0.006306
forc,0.007901
foreign,0.005131
frequent,0.005541
futur,0.004800
gain,0.004795
gener,0.011329
gfd,0.018816
given,0.003953
goe,0.028373
good,0.004382
goodtilcancel,0.019940
gtc,0.019940
guarante,0.007230
ha,0.015769
half,0.005425
happen,0.006229
harri,0.008289
held,0.004660
henc,0.006150
hesh,0.012289
hidden,0.008679
high,0.015964
higher,0.014057
highest,0.006035
hold,0.004747
howev,0.003198
iceberg,0.027323
immedi,0.040558
improv,0.004850
indefinit,0.009260
inher,0.007553
instanc,0.016014
instead,0.009233
instruct,0.059363
insuffici,0.008936
intent,0.006633
intermarket,0.017290
investor,0.075092
ioc,0.041108
isbn,0.004659
issu,0.004229
jump,0.018201
kill,0.013013
known,0.003293
larg,0.006945
larri,0.010786
later,0.007838
leav,0.005580
level,0.007880
like,0.007039
limit,0.193168
limitonopen,0.019940
line,0.004716
liquid,0.021190
loc,0.014946
local,0.004463
lock,0.017069
long,0.008556
loo,0.016122
loss,0.040343
low,0.005050
lower,0.019476
maker,0.018179
market,0.246612
marketiftouch,0.059821
marketonopen,0.019940
maxim,0.007493
mean,0.003628
mechan,0.004865
met,0.006738
midpric,0.056448
minut,0.007864
moc,0.017781
model,0.004104
modern,0.003952
moo,0.015555
mount,0.007681
multipl,0.005067
nation,0.003651
near,0.005417
necessarili,0.006449
need,0.003961
neg,0.005713
new,0.005886
nm,0.032089
nonzero,0.021642
notheld,0.019940
number,0.003296
occur,0.004186
oco,0.035044
offer,0.019598
onc,0.014770
onli,0.021231
open,0.054130
optim,0.013977
option,0.006875
order,0.591854
oso,0.033099
otc,0.012686
otherwis,0.012534
outright,0.010205
overthecount,0.012429
oxford,0.012381
paid,0.006718
pair,0.007021
paradigm,0.007983
paramet,0.015192
partial,0.012122
particip,0.010395
particularli,0.004620
pay,0.012302
peg,0.056431
pegtomidpoint,0.019940
percentag,0.007342
perfect,0.007361
persist,0.007470
place,0.018631
placement,0.010341
platform,0.008068
pm,0.009979
pool,0.017255
posit,0.007809
possibl,0.015415
predatori,0.012200
prespecifi,0.015024
press,0.004446
price,0.436289
primari,0.004987
prioriti,0.063741
problem,0.004040
profit,0.039168
properti,0.004574
protect,0.030214
purchas,0.006426
quantiti,0.018462
quit,0.006385
quot,0.007904
quotat,0.010036
rare,0.006218
reach,0.034088
read,0.004161
real,0.004973
realist,0.008234
realiz,0.006700
receiv,0.018312
recent,0.004149
refer,0.004792
reg,0.031529
regul,0.005672
regular,0.006564
rel,0.004296
relev,0.006267
requir,0.011316
reset,0.012659
respect,0.004557
rest,0.005614
result,0.003337
return,0.004849
reveal,0.006303
right,0.008600
rise,0.014465
role,0.004197
rout,0.028857
rule,0.017496
s,0.003398
sale,0.020941
satisfi,0.014216
schwab,0.015877
second,0.003932
secur,0.030546
sell,0.169465
seller,0.009574
sellstop,0.119643
send,0.022481
sent,0.013283
session,0.009116
set,0.014847
share,0.023347
short,0.015327
shorthop,0.019940
shortsel,0.017080
similar,0.007964
similarli,0.006318
simpl,0.015896
simplest,0.008506
singlepric,0.039881
size,0.010386
small,0.004080
softwar,0.007065
sold,0.007042
sometim,0.004341
soon,0.012230
specif,0.019950
specifi,0.040682
split,0.006854
spread,0.017684
standard,0.008983
step,0.005654
stepper,0.017522
stipul,0.010085
stock,0.167284
stop,0.217419
stoplimit,0.099702
stoploss,0.016122
submit,0.008353
support,0.007930
surfac,0.006038
sweep,0.010214
therefor,0.004532
thi,0.032427
ticksensit,0.059821
time,0.014753
titl,0.005986
touch,0.035207
trade,0.096485
trader,0.073888
trail,0.098466
transact,0.021541
tri,0.010498
trigger,0.040562
turnaround,0.013704
type,0.028066
typic,0.004474
u,0.007781
understand,0.004526
undisplay,0.019307
unless,0.007473
unlik,0.011107
uptick,0.035563
use,0.038149
usual,0.012039
valu,0.017097
vari,0.004916
venu,0.020187
veri,0.007617
wa,0.005468
want,0.024628
way,0.003565
whatev,0.008209
wherebi,0.007535
wish,0.036868
worri,0.009826
wouldnt,0.012945
xyz,0.039410
year,0.003365
zealand,0.007929
