ad,0.007399
addit,0.005865
address,0.008730
adjust,0.011097
advanc,0.007160
agre,0.008741
agreement,0.017699
aim,0.008279
allow,0.017297
altern,0.007450
america,0.008125
american,0.013138
amort,0.019446
analog,0.010360
analyst,0.026315
analyt,0.010570
ani,0.015329
anoth,0.005576
anticip,0.012895
appli,0.012396
applic,0.006924
approach,0.020017
aris,0.009458
arrang,0.009452
atthemoney,0.047286
axi,0.013296
babbel,0.026126
backu,0.022748
backward,0.014420
bank,0.058691
base,0.025259
basel,0.017970
basic,0.007033
bdt,0.028167
believ,0.007230
bermudan,0.044459
binomi,0.016328
black,0.028304
blackdermantoy,0.023792
blackschol,0.018563
blackswapt,0.030501
blanco,0.022327
bond,0.009985
brigo,0.022862
busi,0.023642
buy,0.022118
buyer,0.013952
calcul,0.008921
cap,0.014263
capit,0.007615
caplet,0.024661
carlo,0.013324
case,0.005854
categori,0.008934
certain,0.006408
chase,0.015920
citigroup,0.021096
collater,0.017050
collect,0.006830
combin,0.006677
commerci,0.008971
commonli,0.007776
compar,0.006926
complex,0.006852
complic,0.010612
consist,0.006267
construct,0.014503
contract,0.028182
core,0.009944
corpor,0.027564
correspond,0.017003
counterparti,0.056710
cover,0.007710
creat,0.005728
credit,0.009062
currenc,0.020524
curv,0.011521
customis,0.022862
d,0.007581
damiano,0.022531
date,0.039135
david,0.008319
day,0.014134
depend,0.006179
deriv,0.021362
describ,0.005764
desk,0.018628
determin,0.006503
devil,0.016587
dimension,0.014487
discount,0.054083
dollar,0.010942
downnod,0.054397
dr,0.023238
dure,0.005390
earli,0.005639
earlier,0.008331
ed,0.031572
eduardo,0.019446
empir,0.007867
end,0.012329
enter,0.057699
equal,0.007678
equiti,0.012901
euro,0.014345
european,0.028090
evid,0.007688
exampl,0.010099
exchang,0.015940
exercis,0.009687
exist,0.005606
exot,0.030037
expect,0.015493
expir,0.030481
expos,0.011293
exposur,0.037592
extern,0.004408
f,0.008305
fabio,0.021697
fabozzi,0.024286
failur,0.009810
fall,0.007696
final,0.007292
financ,0.017868
financeinterest,0.027198
financi,0.016098
financialeducom,0.025833
fix,0.053694
float,0.053405
forward,0.064215
franci,0.011545
frank,0.011805
frequenc,0.011521
fund,0.016625
futur,0.007343
grant,0.018485
gray,0.015041
grid,0.030529
hazzard,0.026447
hedg,0.060212
hennoverbeck,0.027648
higher,0.007167
hing,0.018025
hold,0.007262
hole,0.013722
howev,0.004893
hullwhit,0.045062
human,0.005808
impli,0.009373
import,0.005142
includ,0.004185
incom,0.027703
inflat,0.011354
institut,0.006379
instrument,0.009283
interbank,0.041294
interestsensit,0.025082
invest,0.017168
isbn,0.021381
jacquelin,0.021028
japanes,0.011490
john,0.013715
josh,0.022042
jp,0.018343
larg,0.010624
largest,0.008325
later,0.011989
lattic,0.045090
latticebas,0.023949
lead,0.006014
leg,0.074814
legal,0.008317
length,0.020001
level,0.012054
libor,0.019993
link,0.004382
logic,0.009755
longstaff,0.025082
lower,0.014895
m,0.014416
main,0.006380
major,0.016041
make,0.020501
man,0.008917
manag,0.021655
marc,0.016642
margin,0.011045
market,0.067899
marketplac,0.015935
martingal,0.020145
matur,0.046912
measur,0.006601
mention,0.009757
mercurio,0.022981
method,0.006242
mfi,0.026126
mitig,0.014487
model,0.056502
money,0.036028
monitor,0.010899
monograph,0.015733
month,0.008904
morgan,0.014308
mortgag,0.029772
movement,0.006949
multipl,0.007751
nd,0.009377
new,0.004501
node,0.091156
note,0.017432
notion,0.009535
npv,0.022042
oblig,0.011129
observ,0.013303
onli,0.009278
option,0.136715
optionvalu,0.030501
otc,0.019404
overthecount,0.019012
owner,0.068401
paid,0.010276
parti,0.007788
particip,0.007950
particularli,0.007068
pay,0.018818
payer,0.081003
payment,0.043452
pedro,0.016165
period,0.005988
permit,0.010265
point,0.005846
portfolio,0.027727
post,0.009781
practic,0.012366
predominantli,0.012829
premium,0.029558
prepay,0.021952
price,0.034223
prior,0.017458
prof,0.035319
properli,0.012153
protect,0.015405
quantit,0.010737
quarterli,0.014130
question,0.021772
rang,0.006937
rate,0.136078
rd,0.010348
readoff,0.029532
receiv,0.035013
refer,0.010995
rel,0.006571
requir,0.011540
result,0.005105
return,0.007417
right,0.026309
rise,0.014751
risk,0.018037
s,0.010396
santaclara,0.030501
schedul,0.012182
school,0.007457
schwartz,0.018254
secur,0.015574
sell,0.010368
seller,0.014645
shing,0.024661
short,0.039075
signific,0.006511
similar,0.006091
smile,0.035221
soa,0.022427
son,0.009767
specifi,0.010371
speed,0.010431
spreadsheet,0.019663
springer,0.012346
st,0.008223
standard,0.020611
start,0.006457
step,0.060548
sterl,0.016948
stern,0.017421
straddl,0.019619
strike,0.022693
structur,0.005959
style,0.031531
surfac,0.009236
swap,0.373363
swaption,0.785777
technolog,0.007354
tenor,0.022748
term,0.014460
themselv,0.007566
theori,0.017937
therefor,0.006933
thi,0.015261
thomashocom,0.028781
thomsonreut,0.028167
time,0.036106
timestep,0.021865
today,0.007328
tool,0.008168
trade,0.022137
trader,0.012557
treat,0.008932
tree,0.052538
treenod,0.059065
trinomi,0.021309
type,0.018398
typic,0.034217
underli,0.087185
univers,0.010566
use,0.029176
user,0.011316
usual,0.006138
valu,0.071918
valuat,0.112904
variat,0.009562
varieti,0.015318
variou,0.005807
verlag,0.016378
volatil,0.067859
want,0.009417
wherebi,0.011525
wiley,0.024964
world,0.005171
written,0.008076
xl,0.024661
yen,0.019404
yield,0.009965
york,0.007856
zero,0.010727
zeroeth,0.026447
zin,0.024468
