aapta,0.014197
abil,0.003713
abl,0.003408
abound,0.008832
abov,0.006910
academ,0.032337
academia,0.006959
acceler,0.010381
accept,0.003388
access,0.003734
accompani,0.005217
account,0.009535
accumulationdistribut,0.014197
accuraci,0.005852
act,0.012337
action,0.016579
activ,0.016157
actual,0.003453
adapt,0.008594
adher,0.005459
adjust,0.005165
adopt,0.003724
advanc,0.003333
advancedeclin,0.028394
advent,0.011804
advoc,0.009265
affili,0.006173
aforement,0.007639
aggreg,0.005707
al,0.009258
algorithm,0.016231
allow,0.010735
alreadi,0.011794
alway,0.010887
american,0.006115
amsterdam,0.006864
analysi,0.315565
analyst,0.122489
analystsifta,0.014197
analyt,0.004920
analyz,0.004536
andrew,0.016442
ani,0.016649
ann,0.012641
anomal,0.008208
anomali,0.007369
anoth,0.007787
anticip,0.012004
aol,0.032815
apophenia,0.014197
appar,0.004607
appear,0.009377
appli,0.005770
applic,0.012892
apprais,0.008098
approach,0.034164
approxim,0.007355
apta,0.012310
archetyp,0.007907
area,0.002680
argu,0.003590
aronson,0.011074
art,0.004128
artifici,0.009114
asia,0.004633
aspect,0.014187
assess,0.009193
asset,0.029934
assetflow,0.014197
associ,0.018454
assum,0.003738
assumpt,0.022989
astrolog,0.007807
ataa,0.014197
attempt,0.018470
attitud,0.005540
audio,0.007082
august,0.008201
australia,0.004690
australian,0.011225
author,0.009115
autom,0.006039
automat,0.005509
avail,0.006597
avenu,0.007807
averag,0.060465
averagebas,0.014197
avoid,0.004031
b,0.007149
backanalyz,0.014197
backtest,0.078666
balanc,0.008542
balenovich,0.011783
band,0.011736
bank,0.003902
bar,0.006100
base,0.021163
basic,0.013094
bassetti,0.014197
bear,0.005050
bearish,0.011304
becaus,0.019596
befor,0.008337
began,0.003249
begin,0.003173
behavior,0.049623
behold,0.010061
believ,0.013462
best,0.003586
bia,0.012410
bibliographi,0.004732
bid,0.006934
biolog,0.003859
biosign,0.014197
black,0.008783
blend,0.006821
blue,0.005800
board,0.014083
bodi,0.016327
bolling,0.036931
book,0.012370
bought,0.006217
bounc,0.008733
bradford,0.009091
breadth,0.030918
breakout,0.022010
bridg,0.005376
bring,0.004045
broad,0.004370
brock,0.019576
brokerag,0.025288
bucket,0.008938
bull,0.007509
bullbear,0.011675
bullish,0.055026
burton,0.017105
busi,0.003668
buy,0.025739
buyer,0.012989
buyhold,0.014197
buysel,0.012024
c,0.003114
caginalp,0.047133
calcul,0.008305
canada,0.004668
canadian,0.005531
candl,0.025788
candlestick,0.071396
capabl,0.004291
capm,0.010588
captur,0.008949
care,0.004094
cast,0.005536
cat,0.006913
caxton,0.012161
cc,0.007946
ceil,0.008077
central,0.006110
centuri,0.011194
chalk,0.009639
chalkboard,0.012869
chan,0.008364
chang,0.019657
channel,0.021519
chapter,0.005079
character,0.012401
characterist,0.003756
charl,0.012522
chart,0.192458
charter,0.011726
chines,0.004684
chong,0.010347
choppi,0.013396
circl,0.005251
claim,0.009925
class,0.003614
classic,0.003601
classif,0.009618
close,0.026247
closedend,0.031178
closedform,0.009583
cluster,0.005980
cmt,0.011675
coexist,0.006889
cofound,0.007487
cognit,0.010334
coin,0.004513
colbi,0.010874
collect,0.012717
combin,0.027973
combo,0.013111
commod,0.021161
compani,0.003441
compar,0.012895
comparison,0.009141
complet,0.012042
complex,0.003189
compon,0.003753
composit,0.013556
comprehens,0.009602
comput,0.025283
computer,0.007995
computerassist,0.009639
computeris,0.010487
concept,0.012167
concern,0.003060
conclud,0.017832
condit,0.015250
confid,0.005576
configur,0.006021
connect,0.003588
connor,0.010260
consequ,0.003706
consid,0.015253
consider,0.003663
consist,0.008752
constantin,0.007889
construct,0.006751
contain,0.006254
continu,0.021129
contract,0.004372
contradict,0.017468
contradictori,0.015392
contrari,0.005700
contrarian,0.032091
contrast,0.007364
controversi,0.004295
convent,0.008442
convergencediverg,0.012660
convict,0.006317
correct,0.004389
correctli,0.006263
correl,0.010162
cost,0.019162
counter,0.005894
covel,0.012869
cover,0.007177
craig,0.007729
creat,0.005332
criteria,0.005459
crossov,0.008766
cup,0.007317
currenc,0.009553
current,0.005581
curv,0.005363
cycl,0.013406
cyclic,0.006770
d,0.010586
daili,0.015294
data,0.097409
datasnoop,0.014197
david,0.003872
day,0.023026
dead,0.005465
decad,0.011887
decid,0.004248
decis,0.011025
declin,0.004138
defect,0.006434
defin,0.005983
definit,0.010340
degre,0.003569
delbert,0.011899
demark,0.028394
demonstr,0.003918
denot,0.005319
depend,0.005752
deriv,0.013257
desanti,0.014197
describ,0.005366
descript,0.007969
design,0.009605
despit,0.007392
detect,0.004787
determin,0.015136
develop,0.017440
deviat,0.024744
did,0.003235
differ,0.016176
differenti,0.004413
difficult,0.007604
difficulti,0.004707
dimension,0.006743
dimensionless,0.019640
dip,0.008671
direct,0.017367
director,0.005241
disciplin,0.012050
discount,0.006293
discov,0.003838
dismiss,0.011615
disput,0.004384
distinct,0.006714
distribut,0.007193
disus,0.018305
dividend,0.007006
doe,0.017697
doubl,0.004826
doublebottom,0.014197
doubt,0.005625
dougla,0.006441
dow,0.059381
downtrend,0.049902
downward,0.013992
dr,0.010816
drawback,0.008483
driver,0.006681
drummond,0.010177
dubiou,0.008403
dure,0.005018
dutch,0.005353
dynam,0.008173
earli,0.010499
earlier,0.003878
earn,0.014798
easi,0.005329
easier,0.005619
econom,0.014360
economist,0.014781
edit,0.012322
editor,0.005586
edward,0.009548
effect,0.025495
efficaci,0.014421
effici,0.016437
efficientmarket,0.028917
electron,0.008783
element,0.003337
elimin,0.004538
elliott,0.026013
elsewher,0.005410
emerg,0.003363
emh,0.077524
emot,0.010782
emphas,0.004605
emphasi,0.004760
empir,0.014648
employ,0.020886
encompass,0.004913
encyclopedia,0.004519
end,0.005738
endors,0.006211
engin,0.003782
enhanc,0.004861
enjoy,0.004996
enter,0.003836
entir,0.017020
entri,0.010152
entryexit,0.013111
environ,0.006957
equal,0.003574
equat,0.008729
equilibrium,0.005484
error,0.009981
essenti,0.014593
establish,0.005601
estim,0.007386
et,0.009022
eugen,0.012832
european,0.003268
evalu,0.004547
event,0.006830
everyth,0.005225
evid,0.035787
evolut,0.004261
evolv,0.004307
exactli,0.005141
exam,0.007524
examin,0.016430
exampl,0.018803
excess,0.020287
exchang,0.037099
exclus,0.013450
exhibit,0.004954
exist,0.005219
expans,0.004428
expect,0.014423
experi,0.006454
experienc,0.004711
expert,0.005183
explain,0.010598
explan,0.004619
exploit,0.004885
exponenti,0.006317
extend,0.003461
extens,0.003544
extent,0.004318
extern,0.004104
extract,0.005051
extrem,0.007529
eye,0.005246
fact,0.003332
factor,0.009982
fallaci,0.007459
fallen,0.006376
fama,0.020355
far,0.003558
featur,0.003549
feder,0.016714
fell,0.010137
fibonacci,0.009377
field,0.011464
figur,0.011660
filter,0.019624
final,0.003394
financ,0.037427
financi,0.037466
finit,0.005427
firm,0.004687
fisher,0.006923
fiveyear,0.006390
flag,0.006266
flat,0.006002
floor,0.006383
flow,0.008265
focus,0.007306
follow,0.008979
forc,0.002812
forecast,0.049464
foreign,0.014613
form,0.012870
format,0.003827
forward,0.004981
fox,0.007228
frame,0.005363
framework,0.004020
francisco,0.006056
friendli,0.006464
froud,0.012310
function,0.002873
fund,0.015477
fundament,0.071875
fusion,0.006541
futur,0.027344
gann,0.012024
gap,0.005463
gaug,0.006939
gener,0.022182
geometr,0.005771
geometri,0.005723
gerwin,0.014197
given,0.019702
global,0.003726
goal,0.003860
golden,0.005686
gordon,0.006545
greater,0.007069
greatli,0.004595
green,0.004826
griffioen,0.013396
group,0.012657
grown,0.005404
guid,0.011903
ha,0.028069
half,0.003862
halfway,0.008749
hamilton,0.006964
hand,0.003477
handl,0.005103
hang,0.007517
happen,0.004435
hardcov,0.009132
harpercol,0.013746
harpercollin,0.008832
harri,0.005902
head,0.003622
headandshould,0.014197
help,0.015361
henc,0.008757
hi,0.002516
high,0.028416
higher,0.020017
highli,0.003694
hill,0.011165
histor,0.012609
histori,0.007012
hold,0.010140
home,0.004007
homma,0.014197
horizon,0.013681
horizont,0.006471
hous,0.007529
howev,0.009110
hu,0.008596
huge,0.005219
human,0.010815
humanselect,0.014197
humphrey,0.018305
hundr,0.004263
hurst,0.010303
hyo,0.014197
hypothes,0.005580
hypothesi,0.058659
ichimoku,0.014197
idea,0.003149
ident,0.004018
identif,0.005527
identifi,0.016962
ifta,0.014197
ignor,0.024338
illus,0.006929
immedi,0.004125
impact,0.003845
implement,0.003907
impli,0.008725
import,0.009573
improv,0.003453
inabl,0.006775
includ,0.007792
incomplet,0.006115
inconclus,0.008174
inconsist,0.006521
incorpor,0.003853
increas,0.016191
increment,0.014177
independ,0.005764
index,0.066872
indic,0.120830
individu,0.005789
industri,0.022422
ineffici,0.006498
inequ,0.005904
influenc,0.012363
influenti,0.004513
inform,0.044639
input,0.015252
inputoutput,0.008733
inspir,0.009286
instanc,0.003800
institut,0.008908
instrument,0.004321
intellig,0.004378
intermarket,0.024621
intern,0.009836
interpret,0.018719
interrupt,0.006980
intersect,0.006324
interv,0.005912
intervent,0.005092
intraday,0.011074
intramarket,0.014197
invalid,0.007044
invari,0.006205
invest,0.015982
investig,0.003932
investor,0.096236
involv,0.005441
irrat,0.021686
irregular,0.006565
irwin,0.017404
isbn,0.039810
isol,0.004556
issu,0.003011
j,0.010572
jan,0.012334
japanes,0.016044
jiang,0.010260
john,0.012767
jone,0.006230
joseph,0.004624
journal,0.007218
judgment,0.005947
justin,0.008510
k,0.004254
keith,0.007060
kept,0.005056
kernel,0.008174
key,0.003571
kim,0.015686
kind,0.007476
kingdom,0.003732
kinko,0.013396
knowledg,0.024706
known,0.011723
konecni,0.013396
la,0.004683
laboratori,0.004761
ladi,0.007473
larg,0.009890
largescal,0.005466
late,0.006496
later,0.008371
laurent,0.008975
lawrenc,0.006276
lead,0.008398
learn,0.003941
leav,0.003973
led,0.003028
left,0.003740
level,0.028055
like,0.007518
likelihood,0.006506
likewis,0.005557
limit,0.005730
linda,0.007738
line,0.030220
linear,0.004991
link,0.002040
list,0.002608
littl,0.007181
lo,0.038607
locat,0.003449
logic,0.004540
long,0.003046
look,0.019368
low,0.028764
lower,0.020800
lui,0.014608
lun,0.010260
m,0.016776
macd,0.060124
machin,0.004529
magazin,0.005431
mage,0.020694
magic,0.006541
magnitud,0.005788
main,0.011880
mainli,0.003894
major,0.009955
make,0.023856
maker,0.006471
malkiel,0.056121
mamayski,0.014197
man,0.008301
manag,0.010079
mani,0.027566
manner,0.009055
manual,0.005925
mark,0.007533
market,0.245819
marketplac,0.007417
martin,0.004965
masteri,0.008456
match,0.004989
mathemat,0.025816
matter,0.003528
mcclellan,0.026793
mcgraw,0.017665
mckinlay,0.042592
mean,0.010334
measur,0.009218
mechan,0.006928
mention,0.004541
method,0.031960
methodolog,0.004965
michael,0.004317
mid,0.004671
middl,0.003867
mit,0.005700
mix,0.004512
model,0.017533
moder,0.005374
modern,0.016883
moment,0.005337
momentum,0.043171
money,0.008385
monitor,0.005073
month,0.008289
moreov,0.005381
mostli,0.008005
movement,0.038819
movingaverag,0.013111
mta,0.039333
multimedia,0.008352
multipl,0.010824
munehisa,0.014197
murphi,0.008377
myth,0.005991
n,0.004213
nation,0.005199
natur,0.010018
nd,0.004364
nearterm,0.009820
necessarili,0.009184
need,0.005640
neg,0.004068
negat,0.007466
negoti,0.004910
neill,0.021394
nelson,0.007088
net,0.014794
network,0.031375
neural,0.056733
new,0.010477
news,0.005120
newslett,0.008403
newspap,0.011615
nois,0.013380
nonlinear,0.019281
nonparametr,0.019394
nonrandom,0.009502
note,0.010819
novemb,0.004207
novic,0.009132
number,0.004693
numer,0.010426
ny,0.006788
object,0.006413
obscur,0.006498
obstacl,0.006770
obvious,0.007495
occasion,0.005292
occur,0.005961
offer,0.006976
offic,0.003776
ohlc,0.026222
onbal,0.014197
onc,0.007010
onli,0.017275
open,0.019270
openclos,0.012475
openend,0.008938
openform,0.014197
openhighlowclos,0.013746
opportun,0.008862
optimist,0.007907
option,0.004895
order,0.005170
organ,0.005117
origin,0.007799
oscil,0.033944
outcom,0.009592
outofsampl,0.026222
outperform,0.016349
outsid,0.007157
overcom,0.005761
overfit,0.010874
overlay,0.037044
overwhelm,0.012580
pair,0.004999
panel,0.006913
paper,0.034837
parabol,0.018706
parallel,0.004861
paramet,0.005408
park,0.010965
particip,0.025906
particular,0.005872
particularli,0.003289
pass,0.003644
past,0.033494
pattern,0.128084
paus,0.008702
pay,0.004379
pe,0.008390
peak,0.005147
penetr,0.006266
pennant,0.012024
peopl,0.005172
perceiv,0.004717
percent,0.004711
percentag,0.005227
perfect,0.005241
perform,0.026383
period,0.019512
permit,0.004778
persist,0.005319
pessimist,0.008717
peter,0.004277
phase,0.004511
phenomenon,0.009663
pierc,0.008077
pioneer,0.004900
pit,0.007431
pivot,0.006990
place,0.005306
plot,0.005749
point,0.035376
poll,0.006529
popular,0.016781
portfolio,0.012906
posit,0.036143
possibl,0.010975
potenti,0.006965
poterba,0.012475
power,0.019270
practic,0.017269
preced,0.005096
precis,0.004431
predict,0.066913
prefer,0.004119
premis,0.012621
prenticehal,0.008141
prepar,0.004362
presenc,0.004068
present,0.002689
press,0.003166
prevent,0.003845
previou,0.016226
price,0.362404
pricebas,0.012310
pricedbas,0.014197
pricevolum,0.014197
primarili,0.003677
princeton,0.005939
princip,0.004202
principl,0.016146
pring,0.013396
print,0.010103
prior,0.012189
probabilist,0.006996
probabl,0.011580
problem,0.017262
problemat,0.006483
procedur,0.004684
process,0.012715
produc,0.005598
product,0.002803
profession,0.021795
professor,0.004807
profit,0.037182
program,0.003383
project,0.003328
prompt,0.011777
prone,0.007431
proper,0.004826
properti,0.003257
propos,0.003319
provid,0.007160
pseudosci,0.008208
psycholog,0.009170
public,0.005418
publish,0.023886
pure,0.008507
putcal,0.020436
qualiti,0.004008
quantit,0.014993
question,0.006756
quotat,0.021436
ralph,0.007235
ran,0.006021
random,0.071843
randomli,0.014544
rang,0.035521
rapidli,0.004535
raschk,0.014197
rate,0.013334
ratio,0.033961
ration,0.027816
reach,0.010401
read,0.017779
real,0.003541
realiti,0.004640
realli,0.005489
realworld,0.007088
receiv,0.003259
recent,0.029543
recogn,0.007316
recognit,0.014029
recogniz,0.007936
record,0.003596
recurs,0.007438
red,0.004728
redeem,0.008025
reduc,0.003232
refer,0.003412
reflect,0.018332
regard,0.006546
region,0.003055
regress,0.013459
regular,0.004674
regulatori,0.005904
reject,0.004205
rel,0.033649
relationship,0.019539
relev,0.008924
reli,0.008221
remain,0.005643
remark,0.005232
remov,0.003939
render,0.005595
renormalis,0.012310
repeat,0.024622
repli,0.007017
report,0.009837
reportedli,0.006775
repres,0.022389
reprint,0.006561
research,0.022142
resembl,0.005381
reserv,0.004537
resist,0.035368
respect,0.009733
respons,0.002959
result,0.019012
resum,0.006525
retrac,0.009988
retriev,0.005068
return,0.027622
revers,0.028181
review,0.007645
richard,0.012644
right,0.006123
rise,0.003433
riskcorrect,0.014197
robert,0.011253
robust,0.006179
rollo,0.010099
rose,0.005177
rsi,0.010697
rule,0.028028
rulebas,0.009173
rvi,0.013396
rwh,0.014197
rwi,0.014197
s,0.019357
said,0.014021
sampl,0.010168
san,0.005418
sar,0.008994
say,0.014785
scale,0.003861
scalp,0.009953
scenario,0.006179
schaback,0.014197
scientif,0.006866
screen,0.006300
scrutini,0.007755
search,0.004366
secondari,0.004858
secur,0.025373
seek,0.003828
segment,0.011690
select,0.007419
selfdef,0.010303
sell,0.028957
seller,0.013633
semin,0.013051
seng,0.010439
sent,0.004728
sentiment,0.039784
separ,0.003116
sequenc,0.004736
sequenti,0.007390
seri,0.006797
set,0.018500
setup,0.007985
sever,0.012376
shape,0.004066
share,0.003324
sharpshoot,0.012660
shop,0.006366
short,0.014550
shortterm,0.012403
shoulder,0.007965
shown,0.004114
sideway,0.021284
sign,0.003909
signal,0.039272
signific,0.018186
significantli,0.013136
signifific,0.014197
similar,0.008505
sinc,0.002374
singapor,0.012513
singl,0.003177
situat,0.003655
size,0.011092
slope,0.013709
small,0.011621
smaller,0.004037
smart,0.007459
smooth,0.012593
snoop,0.036074
societi,0.014874
softwar,0.015091
sometim,0.003090
somewhat,0.005033
sort,0.004980
sourc,0.002986
sp,0.007278
span,0.005484
spars,0.014314
spawn,0.007569
special,0.002969
specif,0.011363
specifi,0.004827
spectacular,0.008267
specul,0.009879
spentout,0.014197
spot,0.011889
sta,0.011074
stale,0.010642
stand,0.008924
standard,0.009594
start,0.003005
state,0.016620
statist,0.046745
stay,0.005197
stochast,0.006589
stock,0.196979
stop,0.009381
strategi,0.044230
street,0.010836
strength,0.028894
strictli,0.005599
strip,0.006230
strong,0.013800
stronger,0.011433
strongli,0.004576
structur,0.002774
studi,0.047676
subject,0.006041
subsequ,0.003705
success,0.015744
succinct,0.010061
suffici,0.004389
suggest,0.026592
summat,0.008186
summer,0.005493
super,0.007704
superimpos,0.008733
support,0.028231
survey,0.027384
swing,0.007834
systemat,0.022681
t,0.004131
ta,0.008267
tactic,0.006313
taken,0.003476
tale,0.006826
tape,0.038732
target,0.004421
team,0.004958
technic,0.447626
technician,0.136665
techniqu,0.036488
technolog,0.003423
telegraph,0.007349
telephon,0.006490
telex,0.013746
tell,0.005348
temporari,0.005599
tend,0.023394
tendenc,0.005331
tenet,0.006990
term,0.011218
test,0.042698
texa,0.006703
th,0.013613
tharp,0.013111
theori,0.025048
therefor,0.006454
thi,0.037295
think,0.008235
thoma,0.004247
thought,0.003365
threeday,0.009639
thu,0.005551
tick,0.026059
ticker,0.020123
tickertap,0.012869
time,0.050420
today,0.010233
togeth,0.003274
tomorrow,0.016993
tool,0.022812
topbottom,0.012869
topolog,0.006533
track,0.005253
trade,0.123653
trader,0.081834
tradit,0.008969
trail,0.007789
train,0.004100
transact,0.030675
transform,0.011660
translat,0.004087
transmit,0.005817
trend,0.195016
trendfollow,0.013746
trendlin,0.012161
triangl,0.007022
triplesmooth,0.014197
trix,0.014197
trough,0.009426
true,0.003844
truth,0.005051
tsaasf,0.014197
turn,0.003282
turtl,0.008220
type,0.011418
typic,0.003185
ultim,0.004106
uncondit,0.016112
uncov,0.006752
underli,0.009018
understand,0.009669
uniqu,0.004048
unit,0.007184
univers,0.002459
unlik,0.003954
unpredict,0.007473
unsuit,0.008442
unveil,0.008098
updat,0.011503
uptrend,0.065555
usabl,0.007285
use,0.085366
user,0.010534
usual,0.008572
valid,0.004534
valu,0.015216
valuat,0.026277
valuationth,0.013746
van,0.005193
vari,0.010500
variabl,0.004340
variou,0.008109
vega,0.007852
veloc,0.012487
veri,0.005423
version,0.012460
vertic,0.006142
vigor,0.006869
volatil,0.031586
volum,0.036605
volumebas,0.014197
w,0.011952
wa,0.035043
walk,0.084911
wall,0.005027
wang,0.007688
wave,0.009576
way,0.010155
weak,0.004716
weakform,0.013111
websit,0.004489
wellheel,0.013396
wellknown,0.005573
went,0.004355
west,0.004077
western,0.003571
whc,0.013396
wherea,0.008240
wherebi,0.010729
whi,0.004368
white,0.004508
wide,0.018348
widen,0.007390
widespread,0.004561
wiener,0.008197
wilder,0.016112
william,0.007609
willing,0.007253
window,0.013346
wont,0.008255
word,0.003295
work,0.032588
write,0.003712
wrote,0.004045
wyckoff,0.025739
year,0.009585
yesterday,0.018706
york,0.003657
zag,0.014197
zealand,0.011291
zig,0.013396
zigzag,0.010392
