aaa,0.006775
abl,0.002649
abov,0.016112
academ,0.006283
accord,0.004194
accur,0.010721
achiev,0.002638
acquir,0.006833
act,0.002397
activ,0.002093
actual,0.013422
addit,0.006366
adjac,0.004800
advanc,0.002590
advantag,0.006511
advertis,0.004928
agre,0.003162
aka,0.005717
allornoth,0.008151
allow,0.012515
alpha,0.004855
altern,0.005390
amass,0.006625
america,0.002939
american,0.019012
americanstyl,0.008786
analysi,0.005057
analyst,0.004760
analyt,0.007648
ancient,0.006078
ani,0.025880
anonym,0.005553
anoth,0.006052
appli,0.006727
applic,0.005010
approach,0.009656
approxim,0.005717
arca,0.008852
aris,0.003421
asian,0.003996
assembl,0.006549
asset,0.042654
associ,0.008196
assum,0.005811
assumpt,0.003573
attempt,0.002392
authorit,0.005854
avail,0.007692
averag,0.006266
avoid,0.006266
award,0.003697
b,0.002778
bacheli,0.008314
balasubramanian,0.009696
bank,0.003033
baroneadesi,0.008723
barri,0.005553
barrier,0.008535
base,0.005483
basic,0.012722
becam,0.002311
becaus,0.005711
befor,0.010800
benchmark,0.011508
benefit,0.006138
bermudan,0.008042
best,0.002787
bilater,0.004810
binari,0.005050
binomi,0.029535
bjerksund,0.008723
black,0.020480
blackschol,0.067158
blackscholesmerton,0.008607
bloss,0.010002
board,0.007297
bond,0.021675
book,0.002403
borrow,0.012593
bought,0.014498
breakeven,0.016808
breakthrough,0.005397
broad,0.003397
brown,0.004291
bullbear,0.009074
busi,0.005702
butterfli,0.024825
buy,0.076020
buyer,0.065623
buywrit,0.039360
buzz,0.007791
bxm,0.009840
c,0.009682
calcul,0.009682
calculu,0.004727
callabl,0.016155
came,0.002769
capit,0.002754
carlo,0.014461
case,0.010590
cash,0.008467
cashsecur,0.010002
categori,0.003232
cboe,0.034658
cdot,0.005889
central,0.002374
centuri,0.004350
certain,0.004637
certainti,0.005346
chang,0.015278
characterist,0.002919
chicago,0.008257
choic,0.003328
chosen,0.003870
class,0.014048
classifi,0.006853
clear,0.015765
close,0.015867
closedform,0.022344
clumsi,0.007607
combin,0.012078
commod,0.008223
common,0.008194
commonli,0.011253
compani,0.002675
compar,0.002505
compens,0.004282
complex,0.012395
complic,0.011518
comput,0.002807
concept,0.002364
concis,0.005160
condit,0.004741
condor,0.007849
conform,0.004676
consid,0.005927
consider,0.002847
constant,0.006736
construct,0.007870
contain,0.002430
contemporari,0.003314
continu,0.004105
contract,0.071372
convert,0.006907
convey,0.010230
corpor,0.006648
correctli,0.004868
correspond,0.012302
cost,0.005957
counter,0.009162
counterparti,0.034194
cover,0.008368
cox,0.006229
cranknicholson,0.010002
crash,0.010078
creat,0.002072
credit,0.016393
cross,0.003697
currenc,0.007425
current,0.006507
custom,0.003425
d,0.054856
date,0.036812
david,0.003009
day,0.017897
dccdot,0.010002
dcdelta,0.010002
dealer,0.018784
debit,0.007050
decad,0.003079
decompos,0.005492
decreas,0.010009
default,0.005169
defin,0.004650
degre,0.002774
deliv,0.003993
delta,0.029117
depend,0.013413
deriv,0.033489
derivativesbas,0.010002
describ,0.006256
desir,0.003188
despit,0.002872
determin,0.002352
develop,0.010166
dhuv,0.010002
dietmar,0.008786
differ,0.025146
differenti,0.010291
dilut,0.005907
discount,0.014674
discoveri,0.003173
discret,0.011988
discuss,0.002764
displaystyl,0.073740
dividend,0.027229
doe,0.013754
dpi,0.009074
dramat,0.003826
drop,0.003718
ds,0.013186
dsgamma,0.019393
dsigma,0.045792
dskappa,0.030008
dt,0.026724
dtgamma,0.009568
dure,0.005850
dynam,0.006352
earli,0.006120
econom,0.008929
economi,0.002785
ed,0.005711
edit,0.006385
effect,0.003963
effort,0.002824
element,0.002594
embed,0.004743
employ,0.002705
employe,0.017096
enabl,0.003234
encyclopedia,0.003513
end,0.002230
enforc,0.003824
engag,0.003230
engin,0.002939
enhanc,0.003778
ensur,0.003351
entail,0.004760
entir,0.002645
entitl,0.004211
equat,0.016962
equiti,0.004667
equival,0.003285
ernst,0.004945
especi,0.004737
espen,0.008358
establish,0.004353
estat,0.008684
estim,0.020093
eurex,0.008553
euronextliff,0.008664
european,0.007621
evalu,0.003534
eventu,0.002899
exampl,0.016441
exchang,0.043252
exchangetrad,0.028723
execut,0.003089
exercis,0.122663
exist,0.006085
exot,0.005433
expect,0.025223
expir,0.137845
expiri,0.028723
explain,0.002745
explicit,0.008908
expos,0.004085
express,0.005285
face,0.003061
factor,0.012931
fair,0.004131
fall,0.005568
fast,0.004175
feldman,0.007066
fewer,0.004325
film,0.004137
final,0.002638
financ,0.009696
financi,0.034944
finit,0.033749
fischer,0.012307
fix,0.022663
flexibl,0.009031
follow,0.013958
forfeit,0.007657
form,0.016672
formula,0.011427
forward,0.003871
foundat,0.002844
fourth,0.003805
frac,0.019524
frank,0.004270
free,0.002491
frequent,0.003066
fulfil,0.013232
futur,0.021253
gaarder,0.008723
gamma,0.010771
gener,0.014106
given,0.002187
good,0.002425
grant,0.003343
grante,0.008404
greater,0.002747
greek,0.009266
gregori,0.010611
groundbreak,0.006214
guarante,0.008002
guid,0.003083
ha,0.015998
hagen,0.007583
harvest,0.009670
haug,0.008271
hcker,0.010002
hedg,0.049013
help,0.002387
henderson,0.006117
heston,0.016808
hi,0.007822
higher,0.007779
highest,0.003340
hill,0.004338
histor,0.002450
histori,0.001816
hold,0.028900
holder,0.044630
hous,0.008778
howev,0.008851
idea,0.002448
ignor,0.003783
immedi,0.003206
implement,0.018220
impli,0.003391
implicit,0.005108
import,0.005580
incent,0.009082
includ,0.018169
incom,0.006681
increas,0.012584
incur,0.005230
independ,0.002240
index,0.045045
indianapoli,0.006336
individu,0.004499
ingrid,0.008190
inher,0.004180
input,0.011854
insight,0.004046
instanc,0.005907
instead,0.005109
institut,0.004616
instrument,0.013434
insur,0.004205
integr,0.002632
intermediari,0.022143
intern,0.001911
interrelationship,0.006345
interv,0.004595
intract,0.006669
intrins,0.004618
invest,0.015527
investor,0.008310
involv,0.002114
iron,0.003906
isbn,0.007735
issu,0.002340
issuer,0.006491
j,0.002739
joachim,0.006851
joann,0.007709
john,0.002480
journal,0.016832
just,0.002543
kappa,0.014502
keith,0.005487
kind,0.005810
kleinert,0.008452
know,0.003304
known,0.009112
krag,0.009696
land,0.005519
larg,0.011531
larger,0.014392
later,0.006506
lattic,0.005437
latticebas,0.008664
leap,0.005803
led,0.002353
leftcdot,0.009158
lemma,0.006327
let,0.008171
level,0.006541
liabil,0.005124
liberti,0.004628
librari,0.003425
life,0.007032
likelihood,0.005056
limit,0.004454
line,0.005219
list,0.008110
littl,0.002790
live,0.002357
loan,0.008461
london,0.003070
long,0.023676
look,0.003010
lose,0.019175
loss,0.038272
loui,0.004114
lower,0.008083
mainten,0.004374
major,0.005803
make,0.011125
manag,0.010445
mani,0.009888
mari,0.004212
mark,0.002927
market,0.084612
marketmak,0.008995
marri,0.004571
match,0.003877
mathemat,0.008599
mathematician,0.004463
matthew,0.005287
matur,0.004242
maximum,0.007930
mechan,0.002692
meet,0.005900
merton,0.013408
method,0.015807
michael,0.003355
middl,0.003006
miletu,0.006763
millman,0.009696
minim,0.003848
minimum,0.003977
minu,0.005389
mnchen,0.007657
model,0.113564
modern,0.002187
money,0.013034
mont,0.016400
month,0.003221
monthli,0.004970
moran,0.007632
mortgag,0.010771
motion,0.003679
movement,0.002514
multivari,0.006229
myron,0.015821
nake,0.005819
narrowli,0.005667
nassim,0.007448
nd,0.003392
near,0.005996
necessari,0.002905
necessarili,0.003569
need,0.010959
net,0.011498
neutral,0.015964
new,0.001628
nichola,0.004904
nineteenth,0.009122
nobel,0.004244
node,0.005496
nondividendpay,0.009346
nonlinear,0.004995
nonlinearli,0.008921
normal,0.011625
note,0.006306
number,0.010944
numer,0.008104
nyse,0.007345
oblig,0.040265
obligationto,0.020005
observ,0.002406
obtain,0.002834
occ,0.008230
occas,0.004535
occur,0.004633
oclc,0.005251
offer,0.008134
offseason,0.010002
offset,0.010603
old,0.003016
oldenbourg,0.009346
oliv,0.015509
onc,0.005449
ongo,0.003989
onli,0.016784
onlin,0.003191
onsel,0.009840
open,0.002496
option,0.760940
optionbas,0.009568
optionsbas,0.009696
order,0.004018
orderli,0.006389
origin,0.004041
otc,0.035101
otherwis,0.010404
outlay,0.007114
outright,0.011295
overal,0.003337
overthecount,0.027513
overview,0.003653
overwhelm,0.004889
owner,0.024746
ownership,0.004282
paid,0.033459
panic,0.006117
paperback,0.006138
paramet,0.021018
parcel,0.019780
pariti,0.005248
parti,0.008453
partial,0.006708
particular,0.002282
particularli,0.010228
pass,0.005665
passiv,0.005024
path,0.011090
pay,0.010212
payment,0.003930
payoff,0.031430
pdffile,0.009568
perform,0.007689
period,0.008666
philadelphia,0.005544
philosoph,0.003200
physic,0.002385
pi,0.005241
pin,0.018550
play,0.002632
plot,0.013406
plu,0.004102
pnl,0.008921
point,0.006345
polit,0.002288
polym,0.005479
portfolio,0.035109
posit,0.012965
possibl,0.006397
potenti,0.010827
pp,0.017043
practic,0.004474
precis,0.003444
predict,0.006118
premium,0.117630
prepay,0.007942
preset,0.007763
press,0.004921
prevent,0.002989
previouslypurchas,0.020005
price,0.315723
princip,0.006532
principl,0.002509
prior,0.003158
privat,0.002998
privileg,0.004771
prize,0.007799
procedur,0.003641
produc,0.008702
product,0.002179
profession,0.003387
profil,0.004514
profit,0.057800
proper,0.003751
protect,0.008360
provid,0.003710
publish,0.004641
purchas,0.021336
putcal,0.007942
putwrit,0.009840
quantit,0.003884
quantiti,0.006811
quantum,0.004217
quarter,0.004348
quit,0.003533
quot,0.008748
r,0.002797
random,0.003988
rang,0.002509
rate,0.023319
read,0.002303
readili,0.004537
real,0.008256
realis,0.010693
realiz,0.007415
reason,0.004759
receiv,0.005066
reduc,0.005024
refer,0.005304
reflect,0.002849
refus,0.003869
regardless,0.004008
regim,0.003864
regul,0.006278
regulatori,0.004589
reign,0.004585
reilli,0.008501
relat,0.003575
relationship,0.002531
remain,0.002193
rent,0.005105
repay,0.005604
replic,0.004680
repres,0.002175
reput,0.004614
requir,0.008349
research,0.002151
residu,0.010236
resourc,0.002684
respect,0.005043
restrict,0.003073
result,0.007388
return,0.010734
richard,0.003275
right,0.033314
rightbut,0.020005
rightcdot,0.008190
rise,0.010673
risk,0.075043
riskadjust,0.008077
riskless,0.008114
robert,0.005831
role,0.002322
rollgeskewhaley,0.008723
ross,0.005425
roundedoff,0.010002
roy,0.005437
rubinstein,0.007427
s,0.016926
satisfi,0.003933
scenario,0.009606
scheme,0.003991
schneewei,0.010002
schole,0.047653
scientif,0.002668
script,0.005227
season,0.004285
second,0.002176
secondari,0.015104
secur,0.039442
sell,0.093779
seller,0.063579
sensit,0.004270
separ,0.002422
septoct,0.009248
set,0.006162
settl,0.003768
settlement,0.007739
sever,0.003847
share,0.020671
sheet,0.004795
short,0.025446
shown,0.003197
shrink,0.005814
signific,0.002355
similar,0.008814
similarli,0.003496
simpl,0.005864
simpli,0.009034
simplifi,0.004298
simul,0.008019
simulationbas,0.009248
sinc,0.009227
singapor,0.004863
singl,0.002469
situat,0.005682
sl,0.007005
small,0.004516
smile,0.006371
sold,0.007794
solut,0.012629
solv,0.006792
someth,0.007096
somewhat,0.003912
sophist,0.008492
southwestern,0.005759
sp,0.016971
special,0.004616
specif,0.024288
specifi,0.018760
specul,0.003839
spot,0.027722
spread,0.009786
spring,0.012487
spurgin,0.010002
stabil,0.003441
stabl,0.003631
standard,0.019885
start,0.002336
statist,0.003027
stensland,0.008723
step,0.003129
stephen,0.004099
stochast,0.030729
stock,0.206507
straddl,0.014195
strangl,0.007607
strategi,0.044690
strike,0.094415
strong,0.002681
strongest,0.005354
struck,0.005248
structur,0.002156
studi,0.001950
style,0.022815
suggest,0.002583
suit,0.004290
summer,0.004269
swap,0.005628
swaption,0.015366
swedish,0.005033
symbol,0.006700
t,0.016054
tailor,0.012206
taken,0.002702
taleb,0.007365
techniqu,0.022688
tender,0.006153
term,0.013950
th,0.004232
thale,0.006153
theatric,0.006800
theoret,0.015130
theori,0.002163
therefor,0.005016
theta,0.031725
thi,0.012423
thoma,0.003301
thompson,0.005479
thu,0.002157
ticker,0.023460
tieren,0.010002
time,0.029391
timestep,0.007910
today,0.002651
togeth,0.002544
tool,0.002955
topic,0.002928
total,0.002574
track,0.004083
tractabl,0.006800
trade,0.077420
trader,0.095406
tradit,0.006971
transact,0.039736
transfer,0.003158
transpar,0.004723
tree,0.019007
tri,0.002904
trinomi,0.015418
type,0.011093
typic,0.004951
underli,0.133178
understand,0.005010
unit,0.001861
unless,0.004135
unlik,0.006146
unlimit,0.011045
unrestrict,0.006593
unwant,0.006146
use,0.042222
user,0.004094
usual,0.011104
valu,0.052037
valuat,0.066376
vanilla,0.007081
vari,0.008161
varieti,0.008312
variou,0.006302
venkatesh,0.009696
veri,0.004215
verlag,0.005925
version,0.003228
view,0.002365
volatil,0.063831
vote,0.003499
vs,0.004455
wa,0.012105
way,0.003946
week,0.003878
wellcapit,0.009346
wellknown,0.008664
whaley,0.017003
wherebi,0.004169
whi,0.003395
wide,0.002376
william,0.002957
winter,0.004573
wont,0.006416
work,0.003618
world,0.001871
write,0.008656
writer,0.026513
written,0.002921
x,0.013070
xyz,0.036348
yield,0.007210
