advanc,0.061287
ancient,0.179736
antiqu,0.051341
anyon,0.054091
appli,0.026523
aqueduct,0.169469
archimed,0.073411
area,0.024641
aspect,0.032608
athen,0.068576
attribut,0.038568
bath,0.069659
bbc,0.056444
bc,0.088521
bronz,0.060210
built,0.037294
byzantin,0.061546
cast,0.050895
catapult,0.087603
centuri,0.051458
chart,0.057075
cistern,0.097836
cityst,0.070306
classic,0.033105
clock,0.062713
coinag,0.071060
collect,0.029230
construct,0.062065
continu,0.024281
convers,0.041345
creat,0.024512
credit,0.038781
currenc,0.043915
despis,0.084146
develop,0.100212
devic,0.044788
did,0.029748
documentari,0.061586
drainag,0.077495
dure,0.046138
earli,0.024132
elabor,0.050205
encompass,0.045169
engin,0.034771
eupalino,0.130522
europ,0.032716
exist,0.023992
experiment,0.040301
exploit,0.089828
extens,0.032581
extern,0.018866
facil,0.046248
failur,0.041979
familiar,0.051049
field,0.026348
flood,0.056958
fountain,0.085771
galleri,0.066346
gear,0.065479
greek,0.328811
groundwat,0.081203
growth,0.032656
ha,0.034406
held,0.030503
help,0.056490
heron,0.089702
histori,0.021488
howev,0.020938
improv,0.031748
incent,0.053714
includ,0.053729
innov,0.044689
inspir,0.042686
invent,0.167919
involv,0.025011
isbn,0.060998
kosata,0.241071
kotsana,0.261044
labor,0.084710
larg,0.022732
late,0.029863
laurium,0.108328
led,0.027838
like,0.046077
link,0.018754
list,0.023983
lose,0.045362
low,0.033055
machin,0.041644
mainli,0.035805
mani,0.038988
manual,0.054478
mathemat,0.033905
mediev,0.092003
metal,0.089778
month,0.038105
need,0.025927
number,0.021576
occur,0.027401
oper,0.027208
ore,0.061788
organ,0.023524
peac,0.041593
peopl,0.023778
period,0.051252
philosoph,0.037855
point,0.025017
press,0.029107
prime,0.039735
produc,0.025732
profit,0.042729
protect,0.032961
provid,0.021942
publish,0.027450
purgatori,0.099974
rain,0.062800
read,0.027241
recreat,0.060579
reevalu,0.077374
refer,0.015684
remov,0.036213
resourc,0.031753
roman,0.126218
rotari,0.086208
samo,0.082174
sanitari,0.087361
scale,0.035500
scienc,0.079139
screw,0.169071
seek,0.035195
sewerag,0.103928
shown,0.037824
silver,0.054576
site,0.036769
skill,0.042052
smelt,0.081047
societi,0.027349
sometim,0.028416
sophist,0.050223
state,0.019099
statu,0.072914
steam,0.065014
stormwat,0.102486
suppli,0.035586
support,0.025954
survey,0.041959
tabl,0.042010
tactic,0.058046
technic,0.038822
techniqu,0.033545
technolog,0.251783
th,0.050060
torsion,0.084734
toy,0.071453
tunnel,0.065906
underground,0.060504
unfamiliar,0.075785
urban,0.045785
use,0.107018
wa,0.035796
war,0.031008
wash,0.136636
wastewat,0.090879
water,0.235706
watermil,0.103189
weapon,0.048474
western,0.032835
winter,0.054091
