academi,0.010996
access,0.015796
accord,0.011416
activ,0.011391
ad,0.007284
adher,0.011546
aim,0.008151
alamannici,0.030029
album,0.018611
american,0.012935
ancient,0.024811
anglosaxon,0.017829
ani,0.005030
annal,0.918988
annalist,0.069834
annl,0.030029
annu,0.022509
annuair,0.028336
annual,0.008768
apostolorum,0.029076
appli,0.012204
arrang,0.018612
ask,0.009436
attent,0.009308
attribut,0.008873
augment,0.014699
aulu,0.023001
austrasia,0.026388
author,0.006427
autumn,0.030376
baltimor,0.016807
baroniuss,0.030029
base,0.004973
basilica,0.019684
bayn,0.022397
bc,0.010183
becam,0.018874
befor,0.005878
began,0.013745
begin,0.006711
belgici,0.030029
belgrad,0.020044
believ,0.007118
berlin,0.012258
bertin,0.026388
bertiniani,0.029076
biochemistri,0.013681
bishop,0.014087
bmont,0.030029
born,0.009723
briefli,0.012767
britannica,0.027997
c,0.006587
calendar,0.014114
cambria,0.026778
cambridg,0.027389
cardin,0.015113
carolingian,0.019024
cato,0.017857
centuri,0.023678
chamberss,0.027732
charl,0.017658
chief,0.009599
chimi,0.022183
chines,0.019818
chisholm,0.018792
christian,0.017868
christlich,0.026778
chronicl,0.072599
chronolog,0.013745
cicero,0.051524
circumstanti,0.021886
cite,0.009641
citi,0.015922
clinic,0.012023
come,0.006593
commentarii,0.048181
common,0.011149
compil,0.035685
comput,0.015279
concern,0.006473
concis,0.014042
conclud,0.009429
contemporari,0.009018
content,0.009097
context,0.008110
contin,0.011881
continu,0.005586
council,0.008407
critic,0.006782
cultur,0.006932
cyclopdia,0.023001
date,0.030824
day,0.006957
decad,0.008381
descript,0.008428
deserv,0.016331
develop,0.004611
dictionari,0.011178
did,0.006844
didascalia,0.030029
discours,0.012625
discuss,0.007523
distinct,0.014202
distinguish,0.008185
divis,0.023974
domest,0.009553
drawn,0.010881
drili,0.030029
dunlop,0.027732
dure,0.005307
dynasti,0.011989
e,0.007471
earli,0.016656
earlier,0.008202
earliest,0.009278
easter,0.070561
ecclesiastici,0.029076
ed,0.023313
emperor,0.012242
encyclopdia,0.028797
end,0.006069
england,0.009632
english,0.015462
entri,0.021475
equal,0.007559
equat,0.009232
equinox,0.020269
equival,0.008941
especi,0.006445
establish,0.011848
et,0.019084
etymolog,0.011817
europ,0.007527
event,0.057792
exampl,0.014914
exhibit,0.010479
extern,0.004340
fact,0.007048
faculti,0.012822
famili,0.007686
flaccu,0.028336
flaccuss,0.030029
flechner,0.030029
follow,0.004748
form,0.013611
frankish,0.019733
french,0.007988
frequent,0.008344
fulda,0.030029
fuldens,0.030029
fuller,0.034774
futur,0.007229
gelliu,0.025169
gener,0.008530
genet,0.010082
genr,0.014016
german,0.025149
gibson,0.018340
greek,0.008405
grotiuss,0.028336
ha,0.003958
hailess,0.030029
hayden,0.022183
hi,0.010644
histor,0.020003
historein,0.030029
histori,0.034608
historia,0.017040
hopkin,0.014624
hous,0.015925
howev,0.004817
hugh,0.013929
human,0.005718
ieee,0.016175
iii,0.011351
impli,0.009228
import,0.015187
improb,0.019636
includ,0.008241
indistinguish,0.016786
inform,0.005901
innisfallen,0.030029
inquir,0.017486
inspicer,0.030029
insular,0.034922
intern,0.005201
intrins,0.012568
introduc,0.006963
ireland,0.049627
jahrbcher,0.028336
japan,0.009816
jdisch,0.027732
jew,0.013955
jewish,0.024610
john,0.006751
joseon,0.020388
journal,0.015269
kind,0.007906
king,0.018908
kingdom,0.007895
known,0.009919
korea,0.011979
la,0.009906
larg,0.005230
late,0.006870
latin,0.018655
laureschamens,0.030029
lavoisi,0.017197
law,0.005978
leav,0.008404
link,0.004315
literatur,0.008866
livi,0.020839
local,0.006721
loos,0.024674
lorsch,0.026038
magistr,0.015588
mainli,0.008238
major,0.005264
malay,0.016827
malcolm,0.017106
margaret,0.014499
marginalia,0.027732
master,0.010590
mathemat,0.007800
maximi,0.025169
maximu,0.020909
medicin,0.018921
mediev,0.021167
melayu,0.023741
method,0.006145
missionari,0.014051
model,0.006181
modern,0.011903
monast,0.051455
monk,0.014677
moral,0.009927
muciu,0.030029
n,0.008911
narr,0.026116
natur,0.005297
nearest,0.015994
new,0.004432
nicaea,0.020328
nisan,0.026388
note,0.017163
noteworthi,0.016766
observ,0.006549
occur,0.006304
old,0.008210
open,0.006793
order,0.005468
organ,0.005412
ostertafeln,0.030029
oxford,0.027969
p,0.015149
parodi,0.018276
particularli,0.006958
passag,0.011821
passion,0.014900
passov,0.022397
patronag,0.032317
peerreview,0.031738
peopl,0.005470
period,0.011791
persia,0.014775
person,0.006493
physiqu,0.020770
pictor,0.028336
piso,0.027221
place,0.005611
polit,0.006227
pontif,0.038990
pontifex,0.023136
pontificum,0.027221
pp,0.009276
present,0.005689
press,0.026787
primari,0.007511
probabl,0.008164
properli,0.023931
publiu,0.046003
quot,0.011904
rd,0.010188
read,0.006267
reason,0.006476
rebu,0.026778
receiv,0.006894
recopi,0.028336
record,0.053245
refer,0.007217
regard,0.013846
regist,0.011190
reign,0.012478
renaiss,0.011932
represent,0.009103
republ,0.016939
research,0.005854
restrict,0.008363
revu,0.020099
roman,0.009679
rome,0.012321
roy,0.014798
royal,0.019043
run,0.007930
sainteannedebeaupr,0.030029
scaevola,0.030029
schwartz,0.017972
scienc,0.012138
scope,0.010608
scotland,0.027127
scribner,0.019146
sejarah,0.026038
serviu,0.055464
similarli,0.009514
social,0.006388
sometim,0.006537
son,0.009616
sourc,0.012634
speak,0.009630
spring,0.033984
st,0.008096
state,0.017577
statist,0.008239
strictli,0.011844
stuart,0.013929
style,0.010348
subject,0.012777
sunday,0.016667
syriac,0.019024
tabari,0.024480
tabl,0.028996
tablet,0.016010
tacituss,0.029076
term,0.014237
testament,0.015733
text,0.025991
th,0.023035
thcenturi,0.011580
thereaft,0.013131
thi,0.003756
thucydidess,0.028336
time,0.004443
titl,0.009014
topic,0.007968
ts,0.018682
ulster,0.022183
und,0.014775
unexplain,0.018646
univers,0.020806
unoffici,0.015409
use,0.016414
ussher,0.024480
usual,0.012087
v,0.008955
vari,0.007403
variou,0.028587
verriu,0.060059
vol,0.021587
wa,0.020589
wale,0.027962
war,0.007134
waverley,0.024480
weight,0.010122
western,0.007554
white,0.028605
work,0.024617
writer,0.010307
written,0.023854
year,0.035479
york,0.007735
