abil,0.029627
abl,0.027199
absenc,0.013195
acced,0.022454
acceler,0.027610
access,0.009931
accord,0.014355
account,0.050723
accumul,0.041309
activ,0.014324
actual,0.018372
addit,0.007261
adjust,0.027478
agenc,0.033875
agricultur,0.042674
alreadi,0.010456
altern,0.009223
analyst,0.016288
announc,0.024107
annual,0.022052
annum,0.022562
anoth,0.006903
approach,0.008260
april,0.021961
arab,0.013257
arabia,0.017558
arm,0.011444
articl,0.008530
asset,0.013269
assist,0.010702
associ,0.007011
attract,0.011549
august,0.010907
auster,0.040722
author,0.016163
averag,0.042884
backward,0.017852
balanc,0.056800
bank,0.072660
bankingsector,0.035631
barrel,0.020072
base,0.018762
basic,0.008706
batter,0.026963
becam,0.007911
becaus,0.013030
befor,0.007391
began,0.025926
begin,0.008439
billion,0.135226
birth,0.012752
bond,0.012361
boost,0.016969
borrow,0.114914
bounc,0.046457
bpd,0.030530
break,0.011930
briskli,0.031982
budget,0.040641
budgetari,0.022823
busi,0.019513
came,0.009477
capac,0.048063
capit,0.047137
capitul,0.024022
carri,0.009344
case,0.007247
caus,0.007736
causal,0.016138
ceas,0.014642
central,0.040628
chanc,0.013954
chang,0.013070
characterist,0.009991
charg,0.022372
check,0.015028
chronic,0.017817
climb,0.019619
close,0.007756
collaps,0.025540
combin,0.008266
commerci,0.011106
commit,0.012150
compens,0.014652
competit,0.011399
complex,0.008483
compound,0.013063
comprehens,0.025540
concern,0.008139
condit,0.008112
confid,0.059322
congress,0.012990
constraint,0.014394
consum,0.011544
continu,0.007024
control,0.023108
cost,0.010193
countri,0.038148
cover,0.009545
credibl,0.018043
credit,0.022439
creditor,0.040469
creditr,0.063297
creditworthi,0.025790
crise,0.035774
crisi,0.071785
crisisfre,0.035631
crowd,0.018068
crude,0.018206
currenc,0.025409
current,0.022267
curtail,0.021032
cut,0.012308
dampen,0.023537
day,0.008748
debt,0.067221
debtserv,0.034871
decad,0.042156
declin,0.044032
decreas,0.011417
deficit,0.128740
deflat,0.021291
demand,0.010350
demirel,0.034228
depend,0.015299
deposit,0.041178
depreci,0.020717
depress,0.014405
design,0.025547
despit,0.019662
devalu,0.059238
develop,0.034790
did,0.017212
difficulti,0.025043
disarray,0.025713
disput,0.011661
disrupt,0.014939
distinct,0.008929
doctrin,0.013903
dollar,0.027094
domain,0.011323
domest,0.096103
doubt,0.014963
downgrad,0.048799
draw,0.011885
drop,0.012725
dure,0.066739
earli,0.020944
earn,0.013119
eas,0.032139
easi,0.014175
econom,0.129859
economi,0.209719
effect,0.006781
eightyseven,0.035631
elect,0.010295
elimin,0.012071
embargo,0.020957
emerg,0.008946
emir,0.019896
emphasis,0.037617
empir,0.029219
encourag,0.022945
end,0.053422
enterpris,0.039416
entir,0.009053
entrept,0.030292
equal,0.009505
equival,0.022486
estim,0.009822
etat,0.032742
eventu,0.009920
evid,0.009518
exchang,0.039468
expand,0.009874
expans,0.011777
expect,0.009590
expenditur,0.061734
experi,0.008583
export,0.115242
exportl,0.056325
extend,0.009206
extern,0.021832
externalpay,0.035631
face,0.010476
facil,0.013379
factori,0.015272
fail,0.010494
fall,0.009527
farreach,0.021510
faster,0.014561
fear,0.013097
fee,0.065350
fell,0.053924
felt,0.014735
feridun,0.065484
financ,0.055302
financi,0.009964
fiscal,0.063299
flexibl,0.015453
flight,0.015291
flour,0.022490
flow,0.010992
follow,0.011941
forc,0.014962
foreign,0.097164
foreigncurr,0.099543
form,0.011410
fragil,0.040025
free,0.008525
fund,0.020582
gdp,0.070188
gener,0.005363
given,0.007486
global,0.019824
gnp,0.022901
goal,0.010266
good,0.024895
govern,0.149053
governor,0.041100
grade,0.017408
greenwich,0.024572
grew,0.049892
gross,0.029187
grow,0.028713
grown,0.014374
growth,0.113371
guid,0.010553
guidelin,0.016554
gulf,0.033769
half,0.010274
heart,0.013700
heavili,0.012033
held,0.008824
help,0.024514
hi,0.006692
high,0.015115
higher,0.026620
histori,0.012433
hold,0.008990
hope,0.012708
hostil,0.015479
howev,0.030287
httplcweblocgovfrdc,0.025137
hypothesi,0.013001
ii,0.029304
iii,0.014274
iller,0.031982
imbal,0.019358
imf,0.032691
impact,0.020457
impend,0.023358
implement,0.020783
import,0.025463
importsubstitut,0.059299
impress,0.015235
improv,0.027554
includ,0.005181
incom,0.011432
incorpor,0.010249
increas,0.050242
industri,0.051116
industrialis,0.021108
industryl,0.035631
inflat,0.070282
insist,0.015228
institut,0.007898
instrument,0.011492
insuffici,0.016922
intern,0.052325
interven,0.016039
intervent,0.027086
invest,0.042508
investig,0.010458
iraq,0.083515
issu,0.024027
iv,0.016201
januari,0.021303
jobless,0.028162
journal,0.009600
juli,0.021561
jump,0.017233
kirkuk,0.032344
kirkukyumurtalk,0.035631
known,0.006236
kuwait,0.021108
labor,0.012253
lack,0.009515
larg,0.013153
largescal,0.014540
late,0.034558
led,0.024161
left,0.009947
lender,0.020173
lent,0.020625
level,0.037309
liber,0.033751
librari,0.011723
light,0.010287
limit,0.007620
liquid,0.013375
lira,0.133802
livestock,0.017613
loan,0.043432
local,0.008451
locat,0.009174
long,0.008101
longoverdu,0.034871
loss,0.032741
lost,0.010843
low,0.009563
macroeconom,0.016857
main,0.007899
mainli,0.010358
maintain,0.017400
mainten,0.014968
major,0.013239
make,0.012690
maker,0.017213
manag,0.008936
mani,0.011279
manufactur,0.047596
march,0.020694
mark,0.020036
market,0.074719
materi,0.008743
md,0.018469
mean,0.006871
measur,0.049035
mediterranean,0.016321
merchandis,0.042798
mete,0.055787
mid,0.012424
militari,0.020187
million,0.049002
minist,0.056289
ministri,0.013416
modest,0.018219
monet,0.024513
monetari,0.013375
money,0.011150
mount,0.014545
narrow,0.014089
nation,0.006913
need,0.007500
neglig,0.018565
neutral,0.013657
nomin,0.013023
northern,0.011664
northwest,0.017065
novemb,0.011191
observ,0.016469
obtain,0.009698
occur,0.007927
offic,0.010043
offici,0.018945
oil,0.037361
oilfield,0.026381
onc,0.018646
onequart,0.023630
onli,0.022974
onward,0.015817
open,0.008541
oper,0.007871
opportun,0.011785
ottoman,0.052939
outflow,0.022490
outmod,0.027893
output,0.026046
overcam,0.023447
overcom,0.015323
overh,0.026472
overheat,0.032344
overvalu,0.047355
pace,0.016838
packag,0.031635
paid,0.012721
particularli,0.017500
partli,0.013416
pattern,0.021291
pay,0.011648
payment,0.067242
percent,0.350879
perform,0.017542
perhap,0.011598
period,0.081550
persian,0.031352
pipelin,0.122424
place,0.007056
planner,0.019801
pledg,0.017691
plummet,0.022747
point,0.007237
polici,0.092334
polit,0.007831
politician,0.029937
poorqual,0.029852
port,0.014099
posit,0.014789
possibl,0.014595
post,0.012109
postwar,0.016969
pressur,0.032310
prewar,0.021426
price,0.042368
primari,0.009444
prime,0.068973
privat,0.030777
privatesector,0.050409
problem,0.015303
process,0.006763
produc,0.014888
product,0.037285
profit,0.012361
program,0.054001
promot,0.010206
prompt,0.015662
proportion,0.021082
propos,0.008827
protect,0.009535
protection,0.022862
public,0.028822
publicsector,0.025636
publish,0.007941
pursu,0.013012
quarter,0.029763
question,0.008984
quit,0.012091
rais,0.021106
ran,0.016016
rang,0.008588
rapid,0.049598
rapidli,0.012062
rate,0.132999
reach,0.036886
real,0.056508
reason,0.008143
receipt,0.019565
recent,0.007857
recov,0.013967
recoveri,0.015106
reduc,0.008596
reduct,0.013056
reestablish,0.017283
refer,0.004537
reflect,0.009751
reform,0.066597
relat,0.006118
remain,0.030018
remark,0.013917
renew,0.013269
replac,0.009246
report,0.008721
republ,0.021299
request,0.013791
requir,0.007143
research,0.014722
reserv,0.036204
resid,0.012021
resign,0.031012
restor,0.012832
result,0.069528
resumpt,0.023447
resurg,0.019409
return,0.009183
revenu,0.026476
rise,0.009131
risen,0.019114
rose,0.041309
rout,0.013661
run,0.019943
s,0.070792
saudi,0.018496
school,0.009231
second,0.014894
sector,0.071378
secur,0.009640
seek,0.010182
sell,0.025672
sens,0.009336
seriou,0.038134
serv,0.009032
servic,0.061886
share,0.008842
sharp,0.061345
sharpli,0.053556
shed,0.019342
shift,0.010996
shortterm,0.032990
signifi,0.018309
sinc,0.006314
sizabl,0.021264
skenderun,0.033672
sleyman,0.033672
slightli,0.013687
slow,0.039113
slowdown,0.022709
small,0.007727
somewhat,0.013387
sourc,0.007943
specul,0.013138
spend,0.026217
spur,0.017736
stabil,0.035332
stagnat,0.018913
standbi,0.026860
start,0.015987
state,0.027628
statist,0.010360
staunch,0.023822
step,0.010708
strategi,0.023527
street,0.014410
stronger,0.015204
structur,0.007378
studi,0.013347
subject,0.008033
submit,0.015817
subperiod,0.030783
subsequ,0.009855
subsidi,0.017591
substitut,0.014033
succeed,0.012910
suffer,0.011526
suffici,0.023350
sugar,0.015387
suppli,0.020590
surplu,0.033230
suscept,0.018206
sustain,0.012352
switch,0.015506
tansu,0.032344
target,0.011758
tax,0.059342
techniqu,0.009704
therebi,0.013071
thi,0.051958
tight,0.038551
time,0.011175
tl,0.025790
took,0.009865
total,0.026434
tourist,0.016829
trade,0.045677
transact,0.013597
translat,0.021743
trigger,0.015362
tripledigit,0.034871
turgut,0.033181
turkey,0.395277
turkish,0.164552
uae,0.024180
unabl,0.013123
underdevelop,0.021108
undermin,0.016738
undersecretari,0.028026
unemploy,0.044373
unit,0.012739
univers,0.006540
unus,0.022115
use,0.010320
usual,0.015199
wa,0.082847
wage,0.027753
wall,0.013371
wane,0.020603
war,0.044854
weak,0.025088
websit,0.011941
wherea,0.010958
wide,0.008133
won,0.012783
worker,0.011755
world,0.038415
worst,0.034837
year,0.038240
yumurtalk,0.035631
zal,0.171143
