abhisit,0.050815
abolish,0.003325
abov,0.004074
abroad,0.006911
abruptli,0.005026
accept,0.001997
access,0.004403
accommod,0.003695
accord,0.027053
account,0.035612
acknowledg,0.003068
acquisit,0.003440
act,0.001818
action,0.003910
activ,0.006351
ad,0.004061
adapt,0.005068
add,0.003034
addit,0.009659
address,0.004792
adjust,0.003046
administr,0.013350
administrationpolit,0.007899
adult,0.003115
advis,0.003216
aec,0.006307
affair,0.002631
affect,0.004159
affirm,0.003841
afp,0.006244
africa,0.002584
afta,0.007016
age,0.001993
agenc,0.005007
aggreg,0.003365
ago,0.003083
agrarian,0.004314
agre,0.002399
agreement,0.021862
agricultur,0.035480
ahead,0.003715
aid,0.011937
airport,0.003505
al,0.002729
allegedli,0.004097
alli,0.005878
allianc,0.002976
alloc,0.003175
allow,0.003165
alon,0.005443
america,0.004460
american,0.001803
amid,0.004220
amiti,0.006376
ammar,0.006666
andaman,0.006275
annual,0.007333
annum,0.005002
anoth,0.009183
anticommunist,0.005113
appli,0.001701
appoint,0.002616
appreci,0.003531
approach,0.001831
approv,0.002733
approxim,0.004337
april,0.012173
arab,0.002939
area,0.011064
arnold,0.008090
articl,0.005674
asean,0.020834
asia,0.016394
asian,0.021222
asid,0.003629
ask,0.002630
assembl,0.002484
assert,0.002733
assess,0.005421
asset,0.005883
associ,0.003109
attack,0.002565
attempt,0.005445
attract,0.005121
august,0.002418
australiathailand,0.007588
austria,0.003681
author,0.007167
autom,0.010683
automobil,0.003987
automobileexport,0.007899
automot,0.018251
avail,0.003890
averag,0.028524
avianflu,0.007899
avoid,0.009508
awar,0.002879
ayutthaya,0.006307
backlog,0.006412
badli,0.004326
baht,0.239559
balanc,0.002518
bangkok,0.046478
bank,0.055233
bankrupt,0.004820
barrel,0.017801
base,0.001386
baselin,0.005060
basi,0.003964
basket,0.014542
becam,0.010524
becaus,0.002888
befor,0.006555
began,0.011496
begin,0.001871
begun,0.003051
believ,0.001984
benefici,0.003521
benefit,0.002328
best,0.002114
bestknown,0.004183
bet,0.004854
bhumibol,0.007356
bibf,0.015177
big,0.005811
biggest,0.003602
billion,0.062689
bitter,0.004341
bloomberg,0.005159
board,0.013841
boi,0.005700
bond,0.002740
boom,0.003640
boonyaratglin,0.007465
bore,0.004307
born,0.002710
borrow,0.006369
bowr,0.007016
boycot,0.004854
break,0.002645
breakspear,0.007731
brief,0.003041
bring,0.002385
britain,0.002703
british,0.004285
brotherinlaw,0.005474
brunei,0.005018
bubbl,0.004022
budget,0.012014
burden,0.007325
bureau,0.003629
bureaucrat,0.012756
burglari,0.006489
burma,0.004769
busi,0.012978
butyl,0.007016
c,0.001836
cairn,0.005634
calcul,0.004897
calm,0.004514
cambodia,0.014039
cambodian,0.005700
cambodianvietnames,0.007259
came,0.002101
camp,0.003477
campaign,0.002884
canada,0.002752
cancel,0.003640
capac,0.002664
capit,0.012541
capita,0.045345
car,0.003396
career,0.003152
carri,0.002071
case,0.001606
caught,0.003958
caus,0.006861
ceas,0.003246
cent,0.007974
center,0.006149
central,0.003603
centuri,0.009901
certain,0.005277
cessat,0.005060
chairman,0.003634
challeng,0.002295
chang,0.002897
chanocha,0.007090
characterist,0.002215
charg,0.004960
chatichai,0.007465
chavalit,0.014342
cheap,0.003981
cheaper,0.004138
chemic,0.002447
chiang,0.010844
china,0.022222
chinathailand,0.007899
chines,0.011050
choonhavan,0.015177
chuan,0.013061
chulanont,0.007465
circuit,0.003625
cite,0.002688
citi,0.004439
citizenship,0.004006
civilian,0.003341
claim,0.003901
clampdown,0.007171
class,0.004263
classic,0.004246
close,0.003439
clumsilyrun,0.007899
coal,0.007495
coalit,0.006228
coastal,0.003503
coconut,0.004708
cold,0.006127
collaps,0.002831
combin,0.003665
commerc,0.003202
commerci,0.012312
commit,0.002694
commun,0.006722
communist,0.003170
compani,0.010148
compar,0.005703
comparison,0.005390
competit,0.020220
complet,0.001775
compli,0.004237
compos,0.002438
comprehens,0.005662
conceal,0.004588
concentr,0.002515
concern,0.001804
conclud,0.002628
concurr,0.003963
conduct,0.002203
confid,0.006576
connect,0.004232
consecut,0.008691
conserv,0.002551
consid,0.004497
consider,0.002160
consist,0.001720
consolid,0.003375
constitut,0.010148
constraint,0.003191
construct,0.003981
consum,0.007678
consumpt,0.020986
contact,0.002697
continu,0.004672
contract,0.015471
contribut,0.016980
controversi,0.002533
cooper,0.002456
corn,0.004019
corporatedebt,0.007899
cost,0.004519
council,0.004687
countri,0.065973
countryfrom,0.007899
coup,0.028005
cours,0.002240
court,0.012190
cover,0.002116
creat,0.003144
creation,0.002339
crime,0.006378
crisi,0.045094
critic,0.011344
crop,0.006356
crossbord,0.004874
crude,0.004036
cubic,0.017748
curfew,0.006050
currenc,0.022534
currencyprotect,0.007899
current,0.008228
custom,0.010396
cut,0.010916
daili,0.003006
damag,0.005548
danger,0.006038
data,0.010257
databas,0.018043
daughter,0.003527
day,0.011638
deal,0.006212
dealer,0.004750
debt,0.014904
decad,0.004673
decemb,0.023589
decid,0.002505
decis,0.006501
declar,0.004965
declin,0.009762
decreas,0.012656
deem,0.003478
deficit,0.014271
defin,0.003528
deliber,0.003440
deliv,0.003029
demand,0.002294
democraci,0.002863
democrat,0.025187
departur,0.003947
depend,0.003392
depos,0.004227
depreci,0.009186
depress,0.003193
describ,0.004746
design,0.001888
despit,0.013078
deutsch,0.004345
devalu,0.048158
devast,0.003649
develop,0.026997
dhanarajata,0.007899
dhanarajatincreas,0.007899
dhurakij,0.007899
did,0.001908
differ,0.001362
difficult,0.002241
digit,0.002870
dignitari,0.005911
diplomaci,0.004326
direct,0.006827
directli,0.002065
director,0.003090
disk,0.004415
dispar,0.003950
displac,0.003298
displeas,0.006025
dissert,0.004378
dissolv,0.009578
distribut,0.002120
divid,0.002038
doe,0.001739
dollar,0.030036
domest,0.026634
domin,0.008461
don,0.004266
doubl,0.002845
dpu,0.007899
drive,0.005523
driven,0.005985
drop,0.016928
drug,0.006063
dure,0.023675
earli,0.004643
earn,0.002908
easi,0.003143
east,0.002379
eastern,0.002568
econom,0.098230
economi,0.099336
economist,0.005811
ed,0.002166
educ,0.005914
ee,0.016952
effect,0.004510
elect,0.027391
electr,0.017912
electron,0.012948
element,0.001968
elevenfold,0.007588
emerg,0.003966
employ,0.036950
employe,0.006485
enabl,0.002454
enact,0.006861
encourag,0.007630
end,0.013536
energi,0.008666
enforc,0.005802
engag,0.004901
engin,0.002230
enhanc,0.002866
enter,0.006787
enterpris,0.011652
entitl,0.003194
entrepreneur,0.003897
eoi,0.007731
equip,0.002766
era,0.004890
especi,0.005391
establish,0.009909
estat,0.003294
estim,0.023955
et,0.002660
ethanol,0.005010
ether,0.004807
ethnic,0.003053
europ,0.002098
european,0.001927
eurozon,0.010208
everi,0.001936
evolv,0.002540
exacerb,0.004284
exceed,0.009749
exchang,0.010938
exclud,0.002911
exempt,0.004022
exorbit,0.006213
expand,0.006567
expans,0.005222
expect,0.006378
expens,0.002764
experienc,0.011113
expert,0.006113
export,0.076652
exportdepend,0.007588
exportori,0.005543
extend,0.002041
extent,0.002546
extern,0.002420
face,0.006968
facil,0.002966
faction,0.003655
factor,0.001962
factori,0.010158
fail,0.002326
fall,0.004224
famili,0.002142
farm,0.003087
favor,0.005112
fdi,0.005270
fear,0.002903
februari,0.007543
feder,0.004928
feet,0.011337
fell,0.017933
fewer,0.003281
field,0.010140
fifth,0.003295
financ,0.007356
financi,0.048605
financialinstitut,0.007899
firm,0.002764
firstquart,0.007899
fiscal,0.021051
fish,0.014437
fit,0.002817
fix,0.004912
flag,0.003695
float,0.007329
flood,0.014613
flow,0.002437
focu,0.009081
follow,0.005295
food,0.004763
forc,0.006634
foreign,0.056011
foreignown,0.006025
forest,0.009547
forestri,0.012898
form,0.003794
formerli,0.003099
forward,0.008812
foundat,0.004315
franc,0.004738
free,0.013231
freetrad,0.011301
friedrich,0.003384
frontlin,0.005385
frozen,0.004390
fta,0.012100
fti,0.007899
fuel,0.009200
fund,0.009126
furthermor,0.002835
futur,0.006046
fy,0.005077
ga,0.002784
gambl,0.004583
gasolin,0.004788
gave,0.002408
gdp,0.192966
gdplower,0.007899
gener,0.021404
germani,0.002491
global,0.010988
gni,0.006050
gone,0.003672
good,0.011039
govern,0.084978
government,0.006926
governmentspend,0.007899
governor,0.003037
gpp,0.007016
gradual,0.005320
grant,0.002536
great,0.003730
greater,0.002084
greatli,0.002710
grew,0.024889
gross,0.019413
group,0.007463
grow,0.004244
grown,0.006374
growth,0.069124
guarante,0.006071
gypsum,0.011738
ha,0.022069
half,0.009111
handl,0.003009
happi,0.003659
hard,0.002716
harder,0.004113
harm,0.006380
harri,0.003480
hdd,0.014181
hdi,0.005772
headlin,0.010300
heavi,0.002860
heavili,0.010671
hedg,0.004131
held,0.009782
help,0.009058
hi,0.017805
hide,0.003917
high,0.010054
highest,0.002534
highincom,0.010770
hightech,0.019914
hightechnolog,0.006001
histori,0.002756
hold,0.001993
holder,0.003762
home,0.002363
hotel,0.007968
hour,0.008724
hous,0.004439
household,0.003291
howev,0.010744
hub,0.004295
human,0.003188
idea,0.003714
identifi,0.002000
ignor,0.002870
ii,0.002165
illeg,0.010003
ilo,0.004365
imag,0.002548
imd,0.027793
imf,0.047112
imfguid,0.007899
immigr,0.003293
impact,0.004535
imped,0.004459
implement,0.006912
import,0.015525
importsubstitut,0.013147
impress,0.003377
improv,0.008145
inadequ,0.003929
inappropri,0.004361
includ,0.016082
inclus,0.006817
incom,0.012673
incompat,0.004217
increas,0.019096
increasingli,0.002439
incumb,0.004437
indebt,0.005077
index,0.007886
india,0.010134
indian,0.002739
indic,0.002035
indirect,0.003595
indirectli,0.003566
indochina,0.005198
indonesia,0.003919
industri,0.050999
industrialis,0.004679
inequ,0.006963
infertil,0.005373
inflat,0.009349
influenti,0.002661
influx,0.004270
inform,0.003290
infrastructur,0.016811
initi,0.001798
innov,0.002866
inprincipl,0.007588
inspir,0.002738
instabl,0.003578
institut,0.015760
insurmount,0.006075
integr,0.003994
intern,0.015951
internet,0.002714
introduc,0.003882
invalid,0.004153
invest,0.040054
investor,0.009458
ipr,0.006666
iron,0.002963
isan,0.038475
isi,0.009821
israel,0.003389
issu,0.001775
isuzu,0.007171
itc,0.004925
item,0.003035
januari,0.014170
japan,0.021892
japanes,0.003153
jitsuchon,0.007899
job,0.011430
johann,0.003541
join,0.002461
joint,0.002913
juli,0.014341
june,0.002410
junta,0.009293
just,0.001929
kaen,0.007899
kaeo,0.007465
kanchanaburi,0.007588
kepler,0.004454
khai,0.007016
khon,0.007588
khorat,0.007356
kilowatt,0.006213
king,0.002635
kingdom,0.017609
km,0.003114
known,0.001382
korea,0.003339
kwh,0.005051
labor,0.016300
labour,0.011204
lack,0.002109
laid,0.003122
land,0.006281
landslid,0.014091
lao,0.004720
larg,0.005832
largest,0.006855
late,0.003831
lateaugust,0.007899
latek,0.007899
later,0.003290
latest,0.003695
latin,0.002600
launch,0.002786
law,0.003333
lead,0.003301
leader,0.004838
learn,0.004648
led,0.017856
leekpai,0.037944
legal,0.009132
legitimaci,0.004234
lender,0.004472
level,0.001654
lg,0.005890
liber,0.002494
licens,0.003294
light,0.002280
like,0.002955
limit,0.006758
line,0.005940
link,0.002405
linz,0.006450
list,0.004615
littl,0.002117
lloyd,0.004266
loan,0.022468
local,0.003747
log,0.003876
logist,0.007984
london,0.002329
long,0.003592
longer,0.002281
longterm,0.002911
loom,0.005026
lose,0.002909
loss,0.007259
lost,0.002404
lotu,0.005422
low,0.014841
lowest,0.006581
lowincom,0.004978
luang,0.033331
m,0.007914
machineri,0.003411
macroeconom,0.003737
mai,0.005772
main,0.008756
mainli,0.004593
maintain,0.009645
major,0.008806
make,0.012661
maker,0.003816
makro,0.007171
malaysia,0.008084
malaysian,0.005002
male,0.003103
mall,0.005260
mani,0.011253
manufactur,0.029020
map,0.002530
marakanond,0.015799
march,0.004588
mark,0.002221
market,0.022778
marketbas,0.005077
marketori,0.005385
marshal,0.018333
massiv,0.002943
master,0.005904
maximum,0.003008
md,0.012284
measur,0.012683
media,0.005074
medicin,0.002637
mediums,0.005150
meet,0.004476
member,0.003530
membership,0.003047
merchant,0.013142
merger,0.004008
metal,0.002879
meter,0.003723
methyl,0.004807
middl,0.002280
middleincom,0.005829
midth,0.003413
migrant,0.025911
militari,0.024617
million,0.039112
miner,0.006125
minimum,0.003017
minist,0.027456
ministership,0.012979
ministri,0.014872
minor,0.002560
mistrust,0.005385
mix,0.002660
miyazawa,0.007356
moder,0.003169
modernis,0.004769
momentum,0.007273
monarchi,0.003546
monetari,0.008896
mongkolsuthre,0.007899
month,0.014664
mouth,0.003922
mueang,0.007465
mukdahan,0.007899
multin,0.004189
multipl,0.002127
multipleexchanger,0.015177
myanmarreport,0.007899
nakhon,0.007171
narathiwat,0.007731
narr,0.003640
nation,0.036789
nationsel,0.007899
natur,0.002953
naturalga,0.013896
ncpo,0.007465
nd,0.005147
ndbiggest,0.007899
ne,0.004674
nearli,0.012047
need,0.003326
neg,0.002398
negoti,0.005791
neighbor,0.003120
neighbour,0.003379
neoliber,0.004652
nesdb,0.039499
net,0.002908
neutral,0.003027
new,0.006178
newest,0.010948
newli,0.002910
news,0.003019
nilnopkoon,0.007899
nissan,0.006573
nixon,0.004925
nomin,0.014437
noncognit,0.006666
nong,0.006666
nonperform,0.012003
nonregist,0.006948
north,0.002196
northeast,0.003940
note,0.003189
novemb,0.017368
number,0.011071
obstacl,0.003992
occup,0.002882
occupi,0.002773
occur,0.003515
ocean,0.002846
octob,0.011960
offic,0.028947
offici,0.008400
oil,0.013805
oilpric,0.007731
oilprocess,0.007899
oliv,0.003922
oneday,0.005911
onethird,0.004203
onli,0.005093
onlin,0.002421
onward,0.007014
open,0.001893
oper,0.003490
oppos,0.002311
opposit,0.004552
order,0.001524
organ,0.003017
organis,0.002619
otherwis,0.002631
oust,0.012967
outbreak,0.003764
outlook,0.023795
output,0.005774
outsid,0.002110
overal,0.012659
overse,0.004125
owe,0.003366
ownaccount,0.007588
ownership,0.003248
packag,0.003507
pad,0.005169
paid,0.002820
parliament,0.005580
parti,0.027791
particularli,0.003880
partner,0.003024
partyl,0.014342
past,0.002194
payment,0.005963
pdf,0.003201
peac,0.002667
peak,0.015177
peer,0.003857
peg,0.009477
peopl,0.012201
percent,0.333406
percentag,0.003082
perform,0.007779
period,0.021368
persia,0.004119
persist,0.003136
person,0.007240
personnel,0.003418
petroleum,0.007112
phanom,0.007356
phao,0.015462
phase,0.002660
pheu,0.014518
phibul,0.023699
phibulsongkram,0.055299
phin,0.007356
pilot,0.004097
plan,0.023045
play,0.001997
player,0.003620
plaza,0.015536
pledg,0.003922
point,0.006418
polic,0.009230
polici,0.022519
polit,0.015626
poor,0.008205
poorest,0.014023
popul,0.019682
popular,0.001979
poramete,0.007899
port,0.006251
posit,0.009836
possibl,0.003235
post,0.005369
postwar,0.003762
poverti,0.022843
power,0.016233
prayut,0.021272
preced,0.003005
predict,0.002321
predomin,0.003618
preindustri,0.005218
prem,0.019351
prepar,0.002572
present,0.003172
preserv,0.002673
presid,0.002294
press,0.001867
pressur,0.007163
presum,0.003541
previou,0.007176
previous,0.002418
price,0.007045
primari,0.002093
prime,0.035682
princip,0.002478
principl,0.001904
prioriti,0.003345
privat,0.006823
privileg,0.003620
problem,0.020358
procedur,0.002762
process,0.002999
produc,0.009903
product,0.034719
profession,0.010281
profit,0.002740
program,0.003990
project,0.009814
promin,0.002487
promot,0.009051
proport,0.002622
prosper,0.009838
protect,0.008456
protest,0.008844
prothaksin,0.015177
proven,0.006701
provid,0.004222
provinc,0.020527
provinci,0.003836
public,0.003195
publish,0.005282
pundit,0.006573
pursu,0.005769
q,0.024869
qlf,0.007899
qq,0.006716
quadrillion,0.006050
qualiti,0.004727
quarter,0.023096
quarteronquart,0.007465
question,0.003984
questionnair,0.005060
radio,0.003247
rai,0.006001
railway,0.003753
rais,0.002339
rak,0.006825
rama,0.005558
ramangkul,0.007899
rang,0.003808
rank,0.029461
ranong,0.007899
rapid,0.005498
rate,0.057009
rd,0.005681
reach,0.006133
reaction,0.002579
read,0.001747
readili,0.003442
real,0.004176
realis,0.004056
reason,0.001805
rebound,0.004762
receiv,0.005766
recent,0.005226
recess,0.003600
recogn,0.002157
reconven,0.006666
recov,0.003096
recover,0.005869
recoveri,0.013396
recreat,0.003885
red,0.002788
reduc,0.005717
reexamin,0.005018
refer,0.001006
refineri,0.004663
reflect,0.004324
reform,0.014765
refus,0.002935
regain,0.015457
regard,0.001930
regim,0.011726
regimel,0.007899
region,0.018015
regist,0.003119
regulatori,0.003481
reject,0.002480
rel,0.001803
relat,0.004069
relax,0.003845
reli,0.004848
reloc,0.004147
remain,0.003327
remov,0.004645
renew,0.002941
repay,0.004252
repetit,0.004104
replac,0.008200
report,0.015469
reportedli,0.003995
repres,0.006601
republ,0.004722
requir,0.001583
rerngchai,0.007899
research,0.004896
reserv,0.024081
residenti,0.008660
resign,0.006875
resourc,0.002036
respect,0.009566
respond,0.002713
rest,0.002357
restaur,0.004468
restrict,0.006995
restructur,0.007947
result,0.005605
retail,0.014554
retreat,0.003885
retriev,0.005977
return,0.008144
reveal,0.002646
revenu,0.005870
revitalis,0.006101
revolut,0.002492
rice,0.026560
richard,0.002485
right,0.001805
rise,0.004048
risen,0.004237
risk,0.004950
river,0.002750
road,0.005844
robberi,0.005543
robert,0.002212
robot,0.014917
role,0.001762
rose,0.012211
roughli,0.002822
round,0.003187
rout,0.003028
royal,0.005309
royalti,0.004588
rubber,0.004365
rule,0.001836
rural,0.003253
ruralurban,0.007016
s,0.008561
sa,0.004432
safeti,0.003242
said,0.008268
salari,0.003721
sale,0.005861
samak,0.022396
samsung,0.006025
sawn,0.007016
scale,0.002277
scarciti,0.004203
schedul,0.006687
schneider,0.010417
scoreboard,0.027538
scrap,0.004813
sea,0.002566
seaboard,0.005829
seafood,0.005501
seagat,0.007588
season,0.003251
second,0.013209
secondbiggest,0.007090
secondlargest,0.019203
secret,0.003104
secretarygener,0.005150
sector,0.065939
secur,0.002137
seek,0.009030
seen,0.001974
seiz,0.003458
sell,0.002845
selloff,0.007016
septemb,0.019409
serfdom,0.010607
serv,0.002002
servic,0.025482
set,0.006233
settl,0.005718
seven,0.010560
seventeen,0.004726
seventi,0.004708
sever,0.007298
sez,0.027076
shadow,0.023519
share,0.003920
sharehold,0.004068
shark,0.004840
sharp,0.003400
sheer,0.004861
shift,0.002438
shinawatra,0.041690
shirt,0.033621
short,0.004290
shortag,0.010960
shortterm,0.003657
shown,0.002426
shrimp,0.005208
siam,0.035604
siames,0.017608
siamwalla,0.007899
sign,0.006915
signific,0.007149
sinc,0.021001
singapor,0.018448
singaporean,0.006075
sisaket,0.007588
sister,0.007728
site,0.002358
situat,0.002155
sixteenfold,0.007731
skill,0.002697
slave,0.003308
slaveri,0.003689
slow,0.005781
slowli,0.003227
slump,0.005010
small,0.006853
smartphon,0.005131
sme,0.024513
social,0.012468
socialist,0.003132
societi,0.001754
sold,0.002956
soldier,0.003185
solidst,0.004994
solv,0.007730
somchai,0.037327
somsak,0.007356
songkhla,0.007588
sonthi,0.007465
soon,0.005135
sought,0.002727
sourc,0.007044
south,0.002192
southcentr,0.006275
southeast,0.017138
soybean,0.005260
special,0.010506
specialist,0.006948
specif,0.001675
specul,0.014565
speech,0.003016
spend,0.005812
spent,0.003094
spike,0.004847
spot,0.007010
srisdi,0.023699
sriyanonda,0.023699
ssd,0.006666
st,0.002257
stagnat,0.004193
stake,0.004259
stand,0.002631
standard,0.003771
state,0.015926
statecontrol,0.006001
stateown,0.008244
statist,0.006891
steel,0.003507
stem,0.003147
stimul,0.003133
stimulu,0.004100
stock,0.013506
stori,0.002838
strain,0.003480
strengthen,0.003166
strict,0.003253
strongli,0.002698
struggl,0.014675
studi,0.001479
subject,0.001781
subordin,0.003864
subsector,0.006184
subsist,0.003855
succeed,0.011449
success,0.009284
suffer,0.012777
suffici,0.002588
sugarcan,0.004769
suggest,0.001960
summari,0.003369
sundaravej,0.022396
supant,0.015799
suppli,0.006847
supplier,0.003942
support,0.014982
surayud,0.007465
surpass,0.003952
surplu,0.007367
surround,0.005128
survey,0.002691
sustain,0.008216
suvarnabhumi,0.007465
switch,0.003437
t,0.002436
tabl,0.008084
taiwan,0.003940
tak,0.006884
taken,0.002050
talk,0.003012
tapioca,0.006213
tariff,0.007691
task,0.002597
tax,0.005262
tdri,0.015799
technic,0.002490
technolog,0.006056
telecommun,0.007299
televis,0.006311
term,0.007938
tertiari,0.004234
tesco,0.006948
textil,0.007571
th,0.017660
thai,0.366354
thailand,0.651556
thaksin,0.107569
thaksinom,0.015799
thanksinom,0.007899
thb,0.031599
thbu,0.063199
themselv,0.004153
thermal,0.003590
thi,0.014661
thirdlargest,0.005501
threaten,0.003183
threefold,0.005086
threeyear,0.004593
thrust,0.004925
tie,0.002731
timber,0.012579
time,0.008671
tinsulanonda,0.022070
togeth,0.001930
toll,0.004463
ton,0.011389
took,0.008749
total,0.019536
tourism,0.019543
tourist,0.011194
toyota,0.005667
trade,0.052661
trader,0.006893
tradit,0.001763
transit,0.002437
transport,0.002400
trap,0.003668
trat,0.007588
treati,0.011695
trend,0.005348
tri,0.008815
trigger,0.010217
trillion,0.031221
trust,0.003060
tsunami,0.010226
turmoil,0.008731
turn,0.001935
turnov,0.004500
twentieth,0.006606
twothird,0.007673
typic,0.001878
uae,0.005361
ubon,0.007356
udon,0.007356
uncertainti,0.003258
undergon,0.004369
underground,0.007761
undermin,0.003711
underway,0.004500
unemploy,0.009838
unifi,0.002930
unit,0.012710
univers,0.002900
unknown,0.002898
unless,0.003137
unlik,0.002331
unment,0.006573
unpaid,0.004820
unpreced,0.003976
unreal,0.005218
unrel,0.004003
unrest,0.003883
unskil,0.004970
unstabl,0.003735
unsuccess,0.003600
unveil,0.004775
updat,0.003391
use,0.002288
user,0.003106
usthailand,0.015799
util,0.005066
v,0.002496
valu,0.008972
valuead,0.005169
vehicl,0.006358
vejjajiva,0.022070
verg,0.004947
veri,0.001599
versu,0.003268
victori,0.012971
vietnam,0.015177
vietnames,0.009371
villa,0.004874
vimolsiri,0.007899
virapong,0.007899
virtual,0.002769
volum,0.004796
vulner,0.003561
wa,0.065437
wage,0.003076
want,0.002585
war,0.015911
wartim,0.004459
watch,0.003569
water,0.002159
watermanag,0.007899
way,0.001497
weak,0.002781
wealth,0.002883
weapon,0.003109
weight,0.002822
welcom,0.003864
went,0.007704
west,0.002404
western,0.006318
win,0.003148
wipe,0.004533
wive,0.004963
women,0.002664
won,0.014171
wongsawat,0.022396
wont,0.004867
work,0.010981
worker,0.041702
workforc,0.019687
world,0.035488
worth,0.009510
wright,0.008307
wto,0.004407
year,0.036739
yearonyear,0.006275
yearoveryear,0.007016
yellow,0.019662
yen,0.005326
yingluck,0.035084
yongchaiyudh,0.022070
york,0.002156
younger,0.003478
youngest,0.004820
yoy,0.061851
zone,0.020257
