abandon,0.004057
abolish,0.018153
abolit,0.005704
aboutfac,0.010357
abov,0.005561
abroad,0.004716
access,0.006010
accompani,0.004198
accord,0.006515
account,0.002558
accus,0.004355
acera,0.010781
acero,0.010357
achiev,0.008196
acquir,0.007075
acronym,0.006578
act,0.002482
activ,0.034674
actor,0.005006
ad,0.002771
adapt,0.003458
addit,0.017577
address,0.009811
advoc,0.007456
affect,0.008514
afford,0.004664
aftermath,0.005412
agenc,0.003416
agent,0.003703
agrarian,0.005888
agre,0.003274
agreement,0.013260
agricultur,0.080704
agricultura,0.018629
agua,0.009677
aim,0.006202
air,0.003336
airesmendoza,0.010781
al,0.007450
alacaluf,0.010781
albeit,0.010979
alemana,0.010781
alessandri,0.020714
alga,0.006008
allend,0.032511
allow,0.004319
alreadi,0.009492
alto,0.007300
amarga,0.010781
america,0.009131
american,0.009843
anaconda,0.009033
anchor,0.005909
ancient,0.003146
andean,0.007041
ani,0.001914
anib,0.009576
annex,0.004941
annual,0.016681
anoth,0.012533
ant,0.005893
anwandt,0.010781
apart,0.007960
apicultur,0.009907
appli,0.006965
appoint,0.007140
appreci,0.009638
approv,0.003731
araucana,0.027293
archipelago,0.033077
area,0.015099
arena,0.006003
argentin,0.020383
argentina,0.043102
argu,0.014446
arica,0.009677
armi,0.011207
arquero,0.010781
arriv,0.010488
articl,0.005162
artifici,0.003667
arturo,0.016135
asian,0.008275
assest,0.010551
asset,0.004015
associ,0.002121
assum,0.003008
astound,0.008010
attempt,0.004954
attract,0.006989
attribut,0.003376
austral,0.017129
australia,0.003775
australian,0.009034
author,0.002445
authoritarian,0.005572
averag,0.009732
avoid,0.006488
away,0.006616
aylwin,0.010357
balanc,0.003437
balmaceda,0.010551
banco,0.007178
banditri,0.009097
bank,0.034549
banknot,0.006606
bankrupt,0.006578
bankruptci,0.017007
bargain,0.005883
barley,0.006634
base,0.009462
battl,0.004101
bchi,0.010040
becam,0.026331
becaus,0.001971
becom,0.008385
beer,0.006061
befor,0.006709
began,0.007845
begin,0.002553
begun,0.045803
believ,0.002708
benavent,0.010357
benefit,0.003178
bengoa,0.010781
benjamn,0.010781
besid,0.004480
better,0.011812
bibliographi,0.003808
biggest,0.004916
biobo,0.010188
bit,0.005326
bolivia,0.020196
bone,0.004911
boom,0.019873
border,0.003857
borrow,0.008692
bosqu,0.010781
botija,0.010781
bought,0.010008
boy,0.046446
brazil,0.004679
breakthrough,0.005588
breweri,0.007982
bring,0.003255
british,0.008772
brother,0.004391
brought,0.003228
bruce,0.005380
budget,0.008198
budi,0.010357
bueno,0.013907
build,0.002771
built,0.003264
bulk,0.018570
buln,0.010551
burden,0.004998
busi,0.020665
buy,0.004142
ca,0.004817
california,0.008034
californian,0.016880
callao,0.008702
cambio,0.008971
came,0.020074
campaign,0.003937
campo,0.008097
canada,0.007513
canal,0.015607
cane,0.006379
canoeus,0.010781
capit,0.022821
capita,0.004760
carl,0.004379
carlo,0.004991
carri,0.008482
cart,0.006894
caso,0.009576
castro,0.007094
cattl,0.025687
caus,0.032775
cave,0.005273
cea,0.008480
cellar,0.008856
cent,0.005441
centr,0.003606
central,0.019669
centrallyplan,0.009576
centro,0.007712
centuri,0.051803
cepal,0.020714
cereal,0.019400
certain,0.004801
certif,0.015293
chaarcillo,0.021563
chacra,0.010357
chang,0.013842
chango,0.010781
channel,0.004329
character,0.006653
charqui,0.010781
cheap,0.005434
cheaper,0.005647
chemic,0.003339
chicago,0.047023
chico,0.025321
chief,0.003652
chile,0.533317
chilean,0.553261
chileanargentin,0.010781
chilihuequ,0.010781
chilln,0.010188
chilo,0.075167
chono,0.010781
chuquicamata,0.010357
circul,0.004589
citi,0.048466
civil,0.003008
claim,0.005325
class,0.005818
clear,0.003264
climat,0.007490
close,0.002347
coalit,0.004250
coast,0.004003
coastal,0.014345
code,0.003394
codelco,0.010551
coin,0.010897
coincid,0.004718
collaps,0.023184
collectiv,0.006849
colon,0.013962
coloni,0.021762
colonizacin,0.010781
column,0.004983
combin,0.002501
come,0.002508
command,0.003680
commerc,0.017485
common,0.002121
commun,0.002293
communist,0.004326
compaa,0.018476
compani,0.016619
compar,0.007783
comparison,0.003678
compet,0.003616
competit,0.010348
complaint,0.005812
complement,0.005172
compon,0.003021
concentr,0.006865
concepcin,0.043273
concequ,0.010781
concern,0.002462
concertacin,0.009787
condit,0.014727
conduct,0.003006
confectioneri,0.008971
congress,0.007861
conjunct,0.004902
connect,0.002888
connecticut,0.006475
conquer,0.018999
conquest,0.018907
conquistador,0.007586
conserv,0.003482
consid,0.010229
consider,0.008844
conspir,0.007067
constant,0.003487
constitucin,0.009907
constitut,0.005539
construct,0.005433
consum,0.006986
contain,0.002516
contemporari,0.006862
contempornea,0.010781
context,0.003086
continu,0.014879
contract,0.003519
contractionari,0.008856
contrast,0.008890
contribut,0.005149
control,0.032631
convert,0.025033
copiap,0.031071
copper,0.097434
corfo,0.061132
corpor,0.006883
corral,0.008856
correspond,0.003184
costli,0.016401
counter,0.004743
countri,0.027703
countrysid,0.011501
coup,0.009555
coupmak,0.010357
cours,0.006115
creat,0.008583
creation,0.003193
credit,0.010184
creditor,0.006122
crise,0.054125
crisi,0.072404
critic,0.005161
crop,0.004337
crown,0.009087
crustacean,0.006966
cultiv,0.008961
curalaba,0.010551
currenc,0.030754
current,0.002245
curs,0.006871
cut,0.003724
cuyo,0.010551
cycl,0.017981
dairi,0.006458
damag,0.007571
day,0.002647
deal,0.008478
death,0.003072
debat,0.009798
debt,0.028476
decad,0.009566
decemb,0.006438
decis,0.008873
declar,0.003388
declin,0.023316
decre,0.015114
decreas,0.006909
deepen,0.018914
deficit,0.009738
deflat,0.012884
degener,0.006141
degre,0.005745
del,0.052965
demand,0.009396
democraci,0.003907
democracia,0.008401
democrat,0.003437
demograph,0.004710
denounc,0.005682
depend,0.006944
deposit,0.004153
depress,0.030511
deregul,0.012967
despit,0.014873
destroy,0.007337
destruct,0.012456
detat,0.008702
deterior,0.005166
deton,0.007208
devalu,0.011949
devast,0.004981
develop,0.019299
dictatorship,0.011338
did,0.015625
diego,0.005941
difficult,0.003059
diffus,0.004792
diminish,0.004749
dip,0.006978
direct,0.006988
directli,0.002818
director,0.004218
disastr,0.006135
discov,0.003089
discoveri,0.009857
disobey,0.008067
disproportion,0.006122
disput,0.003528
disrupt,0.004520
distribut,0.011578
district,0.021216
divers,0.003374
diversifi,0.010625
divid,0.005563
divis,0.006081
doctor,0.004186
dollar,0.004099
domain,0.003426
domest,0.007269
domin,0.002886
doubl,0.003884
downturn,0.006008
dramat,0.007923
drastic,0.005251
dri,0.009189
drop,0.011551
dual,0.004946
duco,0.010357
dure,0.024233
dwell,0.006207
e,0.005685
earli,0.008450
earliest,0.003530
earthquak,0.021399
easi,0.004289
easy,0.010781
eclac,0.007902
econom,0.113259
economa,0.028187
economi,0.100956
economist,0.023792
ecuador,0.006752
ed,0.008870
edicion,0.027099
editor,0.004496
editori,0.006020
eduardo,0.007284
educ,0.002690
edwin,0.005572
effect,0.004103
effort,0.005850
egypt,0.004460
el,0.015235
elect,0.006230
electrosiderrgica,0.010781
elimin,0.003652
emerg,0.005413
emphas,0.003706
empir,0.002947
employ,0.008404
employe,0.004425
empresario,0.010357
en,0.010380
enact,0.004681
enap,0.010781
encomendero,0.009787
encomienda,0.041459
end,0.032329
energi,0.002956
engag,0.006689
england,0.010995
enjoy,0.004021
enorm,0.004549
enter,0.006175
enterpris,0.015902
epidem,0.005862
epoch,0.012064
equit,0.006297
era,0.016685
eros,0.005695
essenti,0.002936
establish,0.031556
estancia,0.010357
estel,0.008912
et,0.007261
europ,0.002863
european,0.010522
evalu,0.003659
event,0.002748
everi,0.002642
exampl,0.001891
excess,0.016326
exchang,0.005971
exclud,0.003973
exhaust,0.004938
expand,0.011951
expans,0.007127
expect,0.005803
expedit,0.009555
expenditur,0.004670
expens,0.003772
experi,0.002597
experienc,0.018959
explain,0.002843
exploit,0.011795
explor,0.009654
export,0.135609
express,0.005473
expropri,0.007054
extens,0.005704
extern,0.003303
extract,0.028459
extrem,0.009089
f,0.003111
face,0.009510
facilit,0.003807
fact,0.002681
factor,0.005356
factori,0.009242
faculti,0.004878
fail,0.003175
failur,0.014699
fall,0.002883
far,0.008591
farcau,0.010781
farmer,0.026823
fast,0.008647
faster,0.004406
favor,0.003488
favour,0.012460
fell,0.004079
felt,0.004458
fernando,0.006561
ferrocarril,0.010357
fertil,0.008854
ffrenchdavi,0.021563
fiat,0.034769
fibr,0.006773
field,0.004613
fight,0.007926
final,0.002731
financ,0.030120
financi,0.027137
financiera,0.009482
firewood,0.008190
fiscal,0.019153
fish,0.003940
fittest,0.007508
fitzroya,0.031071
fjord,0.007122
flare,0.007122
flight,0.004627
flow,0.003326
flux,0.005556
focu,0.003098
focus,0.002940
follow,0.021680
forc,0.013582
foreign,0.026460
forest,0.008686
form,0.005179
format,0.003080
foster,0.004828
franc,0.006466
free,0.015478
freedom,0.003565
freemarket,0.006653
frei,0.008912
frequent,0.003174
friedman,0.005837
frigat,0.007178
fruit,0.004475
fuego,0.041459
fuel,0.004185
fulli,0.003405
gabriel,0.017100
gain,0.008243
gather,0.003937
gdp,0.025485
gener,0.008114
german,0.006379
germani,0.013602
given,0.002265
glade,0.009907
global,0.002999
godoy,0.009907
gold,0.062837
gonzalo,0.008190
good,0.005021
got,0.005095
govern,0.045101
gradual,0.014522
grant,0.013849
grassland,0.006569
great,0.010181
greatest,0.003974
greec,0.004269
grew,0.018870
group,0.014260
grow,0.002896
grower,0.008038
growth,0.054316
guarda,0.009395
guayaquil,0.008480
guerra,0.008480
guid,0.003193
ha,0.015059
haber,0.007566
hacienda,0.057336
half,0.012435
halt,0.005146
hamper,0.005986
happen,0.003569
hardest,0.007284
harm,0.004354
harsh,0.010747
hasti,0.016317
heavi,0.003903
heavili,0.003641
help,0.009890
herd,0.012052
hernn,0.008127
heterogen,0.005677
hi,0.006075
high,0.016008
higher,0.002684
highincom,0.007349
hill,0.004492
hire,0.009862
hispanicmediterranean,0.010781
histori,0.007524
historia,0.025934
historian,0.011417
hit,0.004675
holder,0.005134
homeless,0.006929
horno,0.010188
hostil,0.004683
howev,0.005498
httplcweblocgovfrdc,0.007606
huachipato,0.010781
huarp,0.010781
huella,0.010357
huillich,0.021563
huntergather,0.012609
hurri,0.008010
husbandri,0.019709
husbandryori,0.010781
ibez,0.009787
idea,0.002534
iii,0.004319
imbal,0.005857
immigr,0.017977
impact,0.009285
implement,0.012577
import,0.028893
imposit,0.006491
imposs,0.003818
imprenta,0.010357
inaugur,0.005217
includ,0.012542
incom,0.024214
incorpor,0.009304
increas,0.039092
increasingli,0.003329
indebit,0.010781
independ,0.027836
indic,0.002778
indigen,0.054037
indirect,0.004907
industri,0.069602
ineffici,0.005229
inequ,0.004751
inflat,0.042533
inflationfight,0.010188
inflow,0.006187
influenc,0.007462
inform,0.002245
infrastructur,0.003823
inhabit,0.003926
inheritor,0.008480
initi,0.017177
inject,0.005576
inland,0.005419
insid,0.003787
instabl,0.004883
instal,0.004457
instead,0.005290
institucion,0.009576
intern,0.019791
interpret,0.003013
interv,0.004758
intervent,0.016391
intracoloni,0.010781
introduc,0.007947
introduct,0.002994
invas,0.004118
invest,0.012862
invit,0.004654
involv,0.008757
inward,0.012884
ironwork,0.008127
irrig,0.011418
isbn,0.018689
island,0.003347
isol,0.003666
issu,0.014541
itali,0.004064
itata,0.010551
jacobo,0.009395
januari,0.006446
jesuit,0.006326
jl,0.007757
jo,0.016121
john,0.002568
join,0.003359
jorg,0.006701
juan,0.011120
juli,0.003262
julio,0.007453
june,0.003290
junta,0.006341
kemmer,0.028729
kennecott,0.010781
keynesian,0.012400
kg,0.011766
kill,0.003728
kingdom,0.009012
kitchen,0.006929
km,0.004250
knockdown,0.008971
known,0.003774
la,0.037693
label,0.004063
labor,0.011123
labour,0.038228
labourintens,0.008097
laboursatur,0.010781
labrador,0.007780
lack,0.008637
laissezfair,0.006500
lake,0.004453
land,0.025720
landless,0.007453
landown,0.005980
larg,0.035819
larger,0.005960
largescal,0.004399
largest,0.009356
late,0.007842
later,0.002245
latifundia,0.026255
latin,0.010646
law,0.009098
lead,0.004505
leagu,0.004632
leather,0.006458
led,0.019495
left,0.009029
legaci,0.004747
legal,0.006231
legitim,0.004690
lend,0.004850
lengthi,0.005888
level,0.009031
liber,0.020425
liberalizi,0.010781
librari,0.003547
licenc,0.006466
like,0.008067
lima,0.027963
limit,0.004611
lincoln,0.006410
line,0.002702
link,0.001641
liquid,0.004047
littl,0.008669
live,0.002441
livestock,0.005329
llama,0.008257
lo,0.010356
loan,0.030664
local,0.007671
log,0.005290
lom,0.024875
london,0.009537
long,0.004903
loss,0.013209
lower,0.011159
lozano,0.010040
lucr,0.024909
lui,0.011756
lumaco,0.010781
luxuri,0.005664
macaronesia,0.009482
machin,0.007291
mackenna,0.010781
macroeconom,0.010201
magallan,0.010357
magellan,0.007253
main,0.009560
mainli,0.003134
make,0.005759
manag,0.008112
mani,0.006826
manifest,0.004343
manipul,0.004042
manner,0.003643
manuel,0.006037
manufactur,0.007201
mapuch,0.077479
maritim,0.004860
mark,0.006062
market,0.039566
martn,0.007208
mass,0.006192
massiv,0.012052
materi,0.007937
maul,0.008803
mayo,0.007417
mcbride,0.009482
meager,0.008257
mean,0.002079
meant,0.007744
measur,0.004945
meat,0.005239
mechan,0.002788
mediterranean,0.004938
meet,0.003054
mercado,0.008521
merchant,0.013452
met,0.007721
method,0.002338
mid,0.015038
middl,0.003112
midth,0.013974
migrat,0.008068
militari,0.009162
million,0.002965
milton,0.005605
miner,0.016719
mineralrich,0.008702
minimum,0.004118
minist,0.010219
minor,0.003493
miracl,0.005893
mock,0.007094
mode,0.004250
model,0.007055
modern,0.009058
modernis,0.013017
modest,0.005512
mollusc,0.006906
momentarili,0.008327
monetari,0.012142
monetarist,0.029600
money,0.016870
monopoli,0.019349
mortal,0.005046
mount,0.004401
mountain,0.008123
mouth,0.005353
mud,0.006597
muert,0.010040
mule,0.007366
mxico,0.008564
nacion,0.018828
nascent,0.006334
nation,0.031380
nativ,0.011706
nativo,0.010781
natur,0.002015
navig,0.004714
near,0.006208
nebraska,0.007453
necessarili,0.003695
necklac,0.008363
neg,0.003273
neglect,0.004938
neoliber,0.031744
neomercantil,0.010188
new,0.021923
newli,0.003972
newspap,0.004673
newsweek,0.008067
nitrat,0.052417
nomad,0.005832
nonconvert,0.008702
nonmetal,0.007566
nort,0.024116
north,0.014988
northern,0.007059
northward,0.006418
note,0.002176
notion,0.003571
novelti,0.006682
number,0.003777
numer,0.008391
object,0.002580
oblig,0.004169
obtain,0.005869
occup,0.003933
occur,0.007196
octob,0.003264
offici,0.005732
oil,0.011305
old,0.009371
onc,0.005642
onli,0.017379
onward,0.023931
open,0.007754
oper,0.002381
oppos,0.003155
opposit,0.009319
option,0.011818
order,0.010402
ore,0.005408
orerich,0.010040
orero,0.021563
organ,0.002059
orient,0.007867
origin,0.002092
osvaldo,0.009907
otero,0.009907
outcompet,0.007734
outcrop,0.007690
outlaw,0.006061
outlin,0.003674
output,0.003940
outright,0.005847
outskirt,0.032154
outsourc,0.006475
overal,0.013821
overli,0.006043
overtook,0.007546
owner,0.004270
ownership,0.004433
pacfico,0.009787
pacif,0.039383
pacto,0.009907
paisaj,0.010781
palestin,0.005952
pampa,0.008440
panama,0.006161
papelero,0.010781
paper,0.003115
partial,0.006946
particular,0.004726
particularli,0.005295
pass,0.008799
past,0.002995
patagonian,0.008608
patricio,0.019814
patriot,0.005509
pave,0.005339
pay,0.010574
peak,0.004142
pedro,0.006055
pehun,0.010781
peon,0.009677
peopl,0.006244
perceiv,0.003796
percent,0.022751
perform,0.002654
period,0.056082
peripher,0.005812
perman,0.003658
peru,0.137041
peruvian,0.042250
peso,0.030109
petrodollar,0.009166
petroleum,0.004853
phase,0.003630
phenomenon,0.003888
pillag,0.007626
pincheira,0.010781
pinochet,0.031822
pinto,0.024292
place,0.008540
plan,0.011436
plank,0.015755
plant,0.003277
plantat,0.005416
plu,0.004247
poblamiento,0.010781
point,0.006570
polici,0.053084
polit,0.002369
poor,0.007465
popul,0.024175
popular,0.005402
port,0.021331
portal,0.005445
portion,0.003793
posit,0.002237
possessor,0.008291
possibl,0.004416
post,0.007328
potenti,0.002802
poto,0.008608
potrerillo,0.010781
poverti,0.013361
power,0.006646
practis,0.028478
praeger,0.007647
pragmat,0.026385
prebisch,0.009677
predict,0.003167
prehispan,0.017606
prepar,0.003511
present,0.004329
presid,0.018785
press,0.002548
pressur,0.003258
prevent,0.006190
previou,0.009794
previous,0.003300
price,0.016025
primarili,0.002959
prime,0.010435
primit,0.004790
princip,0.003381
privat,0.009312
problem,0.009261
process,0.004093
prochil,0.010781
produc,0.006757
product,0.042871
profit,0.003740
profound,0.004938
program,0.002723
programm,0.004161
progress,0.002950
proletario,0.010781
promin,0.003394
promot,0.009264
proport,0.003579
prospect,0.009201
prospector,0.008291
protect,0.005770
protectionist,0.013812
protest,0.012070
prove,0.003341
provid,0.003841
provinc,0.008004
public,0.017442
publish,0.002402
pueblo,0.007877
pull,0.004968
puls,0.005769
punta,0.008363
purchas,0.011046
purn,0.010781
purpos,0.002816
push,0.004117
qualiti,0.003225
question,0.005437
quickli,0.003523
quota,0.011851
radic,0.019843
railroad,0.005572
railway,0.005123
rais,0.031932
ral,0.007734
rapid,0.007503
rate,0.026829
raw,0.008958
rd,0.003876
reach,0.005580
real,0.011399
reason,0.007392
rebellion,0.004902
recent,0.004755
recess,0.019657
recogn,0.002944
reconstruct,0.004302
recov,0.008453
recoveri,0.009141
recycl,0.005842
reduc,0.007803
reduct,0.003950
reestablish,0.005229
refer,0.001373
refineri,0.012728
reform,0.043662
refriger,0.006643
regard,0.002634
regim,0.008002
region,0.014752
regul,0.003250
reinforc,0.004675
reject,0.003384
rel,0.014771
relat,0.001851
relationship,0.002620
remain,0.006812
remind,0.006193
reorient,0.007178
replac,0.008393
report,0.002638
repres,0.004504
reprivat,0.019814
republ,0.003222
republican,0.009809
requir,0.002161
reserv,0.007303
resign,0.004692
resourc,0.008339
respond,0.003703
respons,0.002381
rest,0.003216
restrict,0.003182
restructur,0.005423
result,0.009562
resurfac,0.007253
retriev,0.004079
return,0.008336
revalu,0.015656
reventn,0.010781
revenu,0.012017
revers,0.003780
reviv,0.008726
ricardo,0.012482
rich,0.011811
riot,0.005486
rise,0.008288
risk,0.003378
river,0.007507
ro,0.006466
rodrguez,0.007400
role,0.004810
rose,0.033332
rout,0.020668
royalist,0.006838
ruiztagl,0.010551
rule,0.002506
run,0.003017
rural,0.013321
rush,0.035984
russia,0.008070
rust,0.007400
s,0.048684
saez,0.009677
salazar,0.016194
sale,0.003999
saltpet,0.009097
saltpetr,0.106451
salvador,0.006326
san,0.004360
sanfuent,0.010781
santiago,0.053379
sater,0.010551
saw,0.010080
sbif,0.010781
scale,0.006215
scarciti,0.017209
scare,0.015253
schatan,0.010781
scholar,0.003486
scienc,0.002309
seaborn,0.008190
sebo,0.010781
second,0.009013
sector,0.021598
secur,0.002917
sedentari,0.020683
selfemploy,0.006978
selfsuffici,0.011538
sensit,0.004422
serena,0.038305
sergio,0.015172
seri,0.002735
seriou,0.003846
servic,0.005350
set,0.002126
settl,0.015609
settler,0.015499
seven,0.010809
seventh,0.005540
sever,0.013944
share,0.016053
sharp,0.009281
sheep,0.005532
sheepherd,0.009907
shift,0.009982
ship,0.011687
shipbuild,0.006742
shipment,0.006304
shipyard,0.032041
shock,0.018776
shoe,0.006341
short,0.002927
shortag,0.009972
shortliv,0.005394
showcas,0.007238
siglo,0.017503
sign,0.006292
signific,0.009757
significantli,0.003523
silva,0.014329
silver,0.062108
similar,0.002281
simpl,0.003036
sinc,0.024840
singl,0.002557
situat,0.008826
size,0.002975
slashandburn,0.008521
slaughterhous,0.008751
slave,0.009030
slow,0.003945
slowli,0.004404
small,0.004676
smuggler,0.008363
social,0.017016
socialist,0.008549
sociedad,0.024670
societi,0.002394
socioeconom,0.005520
soil,0.004329
solar,0.004558
soldier,0.004348
solv,0.003516
somewhat,0.004050
soup,0.007586
sourc,0.007210
south,0.014962
southcentr,0.008564
southern,0.017732
soviet,0.004138
spain,0.012182
span,0.004414
spaniard,0.039313
spanish,0.078517
spars,0.005759
spearhead,0.006672
special,0.002389
specif,0.002286
spend,0.011899
sprang,0.006978
spread,0.003377
squander,0.008327
staff,0.004504
stagnant,0.006721
standard,0.005147
stark,0.006450
start,0.012094
state,0.043471
statement,0.003508
statesbas,0.009787
statism,0.008480
steadili,0.005040
steel,0.004786
stem,0.004295
storag,0.004547
strait,0.005997
strategi,0.003559
stratif,0.006783
strong,0.002776
strongest,0.005544
strongli,0.003683
struck,0.005434
structur,0.002232
structuralist,0.007164
struggl,0.008011
studi,0.002019
subject,0.002430
subsequ,0.002982
subsidi,0.005322
subsist,0.005261
substanti,0.003547
substitut,0.008492
succeed,0.007813
success,0.015204
suet,0.032344
suffer,0.006975
suffici,0.003532
sugar,0.013968
suggest,0.002675
superintendencia,0.009907
suppli,0.009345
support,0.011360
suppress,0.004375
sur,0.006135
surpass,0.021579
surplu,0.005027
surround,0.003499
survey,0.003673
surviv,0.003295
sustain,0.007475
switzerland,0.004897
taken,0.005595
tame,0.006978
tancredo,0.010040
tarapac,0.009677
tariff,0.026242
task,0.003544
tax,0.035912
tear,0.006129
technif,0.010551
techniqu,0.002936
tempor,0.005035
tendenc,0.008581
tender,0.006371
tenfold,0.007546
tenient,0.009314
tequila,0.010551
territori,0.016723
textil,0.010333
th,0.039440
thenpresid,0.008097
therapi,0.019468
therebi,0.003955
thi,0.030014
thing,0.003040
thoma,0.003418
thought,0.002708
thousand,0.003369
threat,0.004008
threaten,0.004344
thu,0.002233
tierra,0.031715
time,0.015216
tini,0.005154
tinto,0.008803
titl,0.003430
tobacco,0.005384
took,0.014925
tool,0.003059
topic,0.003031
total,0.002666
town,0.003924
trabajador,0.009097
trade,0.066342
tradit,0.002406
traffic,0.005048
tragedi,0.006426
transandin,0.010781
transfer,0.003269
transform,0.006255
transport,0.009827
treasuri,0.005078
trigger,0.004648
tripartit,0.006721
trove,0.009576
truli,0.004788
turn,0.002641
type,0.004594
unadjust,0.009787
unbear,0.008401
undamp,0.010357
undervalu,0.021624
undevelop,0.007015
unemploy,0.026853
unequ,0.005936
union,0.008518
unit,0.030837
univers,0.005937
universidad,0.007417
universitaria,0.020080
unlik,0.003182
unnecessari,0.005643
unpopular,0.006073
unpreced,0.010853
unsuit,0.006794
upper,0.003858
urban,0.004008
urbanist,0.009166
uruguay,0.006534
use,0.014052
usual,0.002299
valdivia,0.105638
valley,0.013257
valparaso,0.008608
valu,0.012245
vanish,0.005605
vari,0.002816
various,0.005909
vecino,0.010781
veri,0.006546
viceroyalti,0.022880
victor,0.005143
victori,0.004425
vicua,0.009238
view,0.002449
vigor,0.005528
villalobo,0.029361
visit,0.011517
vital,0.004267
vitivincola,0.010781
w,0.006412
wa,0.122210
wage,0.012596
walk,0.004881
wane,0.006234
war,0.070577
watch,0.004871
way,0.004086
weaken,0.004786
wealth,0.015740
wealthi,0.004986
weapon,0.008486
websit,0.003613
went,0.003504
westport,0.007150
wheat,0.119551
whilst,0.004936
wholesal,0.005947
wholli,0.005560
wide,0.004922
william,0.003062
wine,0.043018
wineboom,0.010781
winegrow,0.010357
winemak,0.007828
wit,0.004654
women,0.003636
wood,0.017637
work,0.003746
worker,0.010671
world,0.005811
worldintegr,0.010781
worldwid,0.003876
worst,0.010541
wrestl,0.007223
write,0.002987
x,0.003383
xix,0.008038
xx,0.006917
y,0.032554
yaghan,0.010357
year,0.009642
zone,0.003949
