abolish,0.003136
abov,0.001921
abroad,0.003259
absolut,0.007636
accept,0.001884
access,0.006229
accord,0.006003
account,0.005302
accredit,0.007602
accus,0.003009
acr,0.008033
acronym,0.004546
act,0.003430
acta,0.009577
action,0.003688
activ,0.007487
actual,0.001920
ad,0.021068
addit,0.001518
adher,0.003035
adjac,0.006869
administr,0.012590
admiss,0.008006
adopt,0.002071
age,0.001879
agenc,0.004722
agent,0.002558
ager,0.012872
agreement,0.006872
agrippina,0.007291
ahead,0.003503
aim,0.002143
air,0.004610
aircraft,0.003333
airport,0.016529
alli,0.008316
allow,0.001492
alreadi,0.004372
altar,0.005001
altogeth,0.003720
amateur,0.004098
ambassador,0.007365
american,0.003400
ancient,0.004348
angelico,0.006937
ani,0.002645
annex,0.003414
announc,0.007560
annuario,0.014313
anomal,0.004565
anoth,0.002887
antenna,0.004515
antiqu,0.003105
anyon,0.003272
apart,0.011001
apostol,0.038243
apostolica,0.013875
appel,0.004515
appendix,0.013913
appleton,0.005055
appoint,0.019737
approach,0.001727
approv,0.007734
approxim,0.004090
architect,0.003990
architectur,0.002830
area,0.019377
argentina,0.003723
arm,0.019144
armi,0.005162
armistic,0.004788
arrang,0.004893
arrest,0.003298
arriv,0.004831
art,0.009184
articl,0.008918
artist,0.003149
assembl,0.002342
assist,0.002237
associ,0.004398
atla,0.003518
atm,0.009862
attack,0.002419
attempt,0.001711
atti,0.006846
audienc,0.010162
audit,0.004065
auditorgener,0.007156
august,0.006841
author,0.011828
authorit,0.004188
automat,0.003063
avail,0.003669
aviat,0.003948
avignon,0.011611
axi,0.003441
bank,0.013022
banknot,0.004565
baroqu,0.005078
base,0.002615
basic,0.001820
basilica,0.082807
bbc,0.003414
bc,0.002677
bear,0.002808
becam,0.009924
becaus,0.002724
becom,0.004345
befor,0.004636
begni,0.007156
behalf,0.006675
believ,0.001871
belong,0.005114
benedict,0.004631
benito,0.010157
bergoglio,0.007644
bernini,0.007291
bertello,0.007895
best,0.001994
bibliographi,0.002631
billion,0.002570
birth,0.005333
bishop,0.014815
black,0.002442
block,0.002695
bodi,0.003631
bodyguard,0.010852
bomb,0.020557
book,0.001719
border,0.005331
borgo,0.014900
born,0.002556
botticelli,0.006492
bound,0.002707
boundari,0.005052
bramant,0.006687
branch,0.001924
brigad,0.009079
britain,0.002549
british,0.016164
broadband,0.004732
broadcast,0.003511
brought,0.004461
budapest,0.004991
budget,0.002832
bueno,0.004805
build,0.011490
built,0.011279
bulk,0.003208
buri,0.003578
busi,0.004080
c,0.001731
cabinet,0.006089
caligula,0.012872
cambridg,0.004800
came,0.005944
camera,0.003917
camerlengo,0.015790
camp,0.003279
capac,0.002512
captur,0.002488
carbon,0.005908
cardin,0.067553
carri,0.003907
case,0.001515
cassibil,0.007450
castel,0.011411
casualti,0.003970
categori,0.004625
cathol,0.032190
catholic,0.008123
caus,0.001617
ceas,0.003061
ceil,0.004491
cell,0.002606
cemeteri,0.008892
center,0.003866
centr,0.002492
central,0.008495
centuri,0.009338
cept,0.007156
ceremoni,0.006691
certain,0.008294
certif,0.003522
cessat,0.004772
chadwick,0.005535
challeng,0.002165
championship,0.004912
chancellor,0.004298
chang,0.002732
channel,0.002991
chapel,0.018607
charact,0.002504
charg,0.007016
chariot,0.004991
charl,0.002321
chief,0.002523
chines,0.002605
chose,0.003409
chosen,0.002769
christian,0.011744
christma,0.004270
church,0.013692
ciampino,0.007895
circu,0.033572
citi,0.246998
citizen,0.037206
citizenri,0.005270
citizenship,0.049113
citt,0.031669
citya,0.007644
cityembassi,0.007895
cityrel,0.006763
cityst,0.017011
civil,0.008316
civilian,0.003150
civita,0.006333
civitati,0.015790
claim,0.003679
clergi,0.020643
cleric,0.004387
climat,0.010352
close,0.004865
cm,0.003812
code,0.004690
coin,0.012550
coinag,0.004298
cold,0.002889
collect,0.001768
collector,0.004298
colleg,0.002631
come,0.001733
command,0.002543
comment,0.002903
commiss,0.024132
commissionus,0.007895
commit,0.012703
common,0.002931
commun,0.003170
compani,0.001914
compar,0.001792
complet,0.005022
complianc,0.003890
compound,0.002731
compris,0.002479
concentr,0.002372
concern,0.006807
conciliazion,0.007895
conclus,0.002701
concordat,0.005888
conduct,0.006233
confer,0.002386
confin,0.003254
confirm,0.002613
confisc,0.008514
conflict,0.004515
confus,0.002728
congreg,0.004382
connect,0.005987
consequ,0.002061
consid,0.002827
consist,0.009734
consort,0.005443
constantinian,0.019478
constitut,0.001914
construct,0.013140
consult,0.002799
contain,0.001739
content,0.002391
continu,0.007344
control,0.011274
convent,0.004694
convict,0.003513
cornelia,0.006120
corp,0.039339
corpo,0.012872
corpor,0.002378
corrado,0.005754
cost,0.002131
council,0.006631
counterpart,0.003250
countri,0.012762
court,0.006897
cover,0.007983
creat,0.007413
creation,0.004413
crime,0.021054
crimin,0.003070
criticis,0.003568
crucifi,0.006083
csa,0.005595
cultur,0.012759
curia,0.011777
currenc,0.005312
current,0.004655
cybel,0.007450
da,0.003227
data,0.001934
date,0.010130
day,0.003658
ddel,0.007895
deacon,0.005376
deal,0.001952
death,0.002123
decad,0.002203
decemb,0.004449
decid,0.004725
decis,0.006131
declar,0.007024
decor,0.011807
decre,0.003481
dedic,0.002911
deem,0.003280
defenc,0.017706
defens,0.002660
deficit,0.003364
del,0.018299
deleg,0.013691
della,0.033184
dello,0.006763
demand,0.002164
demograph,0.003254
denomin,0.007223
depart,0.008502
depend,0.003199
depriv,0.003893
deputi,0.003246
deriv,0.001843
descend,0.002934
describ,0.001492
detent,0.009303
dew,0.005554
di,0.007545
did,0.007198
dioces,0.004796
dioxid,0.003562
diplomaci,0.008160
diplomat,0.037441
direct,0.001609
director,0.008744
disast,0.003348
disband,0.008427
diseas,0.002539
disput,0.002438
distinct,0.013069
distinguish,0.002152
district,0.002932
divis,0.002101
dmoz,0.003210
document,0.014042
doe,0.003280
domain,0.002367
domenico,0.006047
dominion,0.004140
domu,0.019478
drain,0.004180
drank,0.005805
dri,0.003175
drop,0.002660
durant,0.005616
dure,0.015350
duti,0.005769
earli,0.008758
earlier,0.002156
easi,0.002964
eastern,0.002422
ecclesiast,0.008693
econom,0.001597
economi,0.005979
ed,0.002043
effect,0.005671
egypt,0.003082
elder,0.003586
elect,0.004305
elev,0.003256
elsewher,0.003008
embassi,0.018069
emiss,0.006926
emmanuel,0.004788
emperor,0.006437
empir,0.002036
employ,0.001935
enact,0.003235
enclav,0.009067
enclos,0.007928
encompass,0.002732
encourag,0.002398
encyclopedia,0.002513
end,0.003191
engag,0.002311
english,0.002032
enjoy,0.005557
ensur,0.002397
enter,0.004267
entir,0.003786
entiti,0.017334
entitl,0.003013
entranc,0.004109
entri,0.002823
entrust,0.013976
environment,0.004692
envoy,0.004336
episcop,0.005150
equip,0.002609
era,0.002305
ernesto,0.005201
essenti,0.004057
establish,0.007787
et,0.002508
etruscan,0.005392
euro,0.025993
eurodenomin,0.007291
europ,0.003958
european,0.005453
eutelsat,0.006937
event,0.003798
everi,0.005478
everyday,0.003117
ex,0.003948
excav,0.007847
exceed,0.003064
exclus,0.002493
execut,0.013265
exercis,0.010030
exist,0.005805
expand,0.002064
express,0.003782
extend,0.003850
extent,0.002401
extern,0.001141
extraterritori,0.012095
f,0.002149
facil,0.002797
fact,0.001853
factbook,0.003657
famou,0.007233
far,0.001979
faster,0.003044
fc,0.004902
fear,0.002738
featur,0.003947
februari,0.011856
fee,0.010248
femal,0.002930
field,0.001593
fight,0.002738
financ,0.002312
financi,0.010417
fiona,0.006242
firefight,0.005409
firm,0.002606
fiveyear,0.010662
flood,0.003445
fm,0.004717
focus,0.002031
follow,0.003745
footbal,0.003905
footnot,0.003890
foottraff,0.007895
forc,0.015642
foreign,0.010158
forest,0.003001
form,0.004771
formal,0.007811
fortif,0.004392
fountain,0.010376
fra,0.005754
franc,0.002234
franci,0.008966
francisco,0.003368
free,0.003565
freight,0.004617
french,0.004200
frequenc,0.005965
fresco,0.005329
frontier,0.006880
ft,0.006821
fulfil,0.003156
fulli,0.002352
function,0.015978
functionari,0.005574
funer,0.004270
furthermor,0.002674
gaetano,0.006013
gaii,0.007156
gandolfo,0.013692
garden,0.038397
gasparri,0.007895
gaug,0.003858
gaul,0.005067
gave,0.002270
gazett,0.004710
gendarmeri,0.022064
gendarmeria,0.014313
gener,0.013457
geograph,0.010152
geographi,0.002872
georg,0.002249
german,0.011020
germani,0.004699
gestur,0.004317
ghirlandaio,0.007450
giacomo,0.005535
giardini,0.007644
giovanni,0.004239
giusepp,0.004695
given,0.004695
global,0.002072
globe,0.003554
god,0.002731
goddess,0.004392
good,0.001735
govern,0.011872
government,0.006532
governor,0.028645
govpub,0.005479
gradual,0.002508
grain,0.003390
grand,0.003031
grant,0.004785
great,0.001758
greed,0.004830
ground,0.002270
group,0.004223
guarante,0.002862
guard,0.045667
guardia,0.006242
guest,0.008242
guglielmo,0.005805
guid,0.004413
ha,0.023934
habit,0.003308
habitu,0.004725
hagu,0.009661
halberd,0.006286
half,0.006444
hall,0.005922
hand,0.005801
head,0.014103
health,0.002175
heat,0.002751
hectar,0.009194
height,0.003111
held,0.005535
heliopoli,0.007291
heliport,0.006242
herbermann,0.005574
hereditari,0.003735
heritag,0.003192
hi,0.011194
highest,0.007169
highli,0.002054
highway,0.003938
hill,0.006209
histor,0.003506
histori,0.005199
hold,0.007519
holi,0.191653
holland,0.004065
holocaust,0.004491
home,0.002228
honorari,0.004023
hors,0.006742
hospit,0.003077
host,0.002853
hot,0.003436
hous,0.008374
household,0.003104
howev,0.006332
hub,0.004051
hungari,0.003864
hv,0.006242
igc,0.007040
igo,0.005860
ii,0.010212
iia,0.005729
iii,0.008953
immun,0.006832
imperi,0.003040
import,0.002662
impos,0.002683
inabl,0.003767
includ,0.021667
incom,0.002390
incorpor,0.006429
increas,0.001500
independ,0.011220
index,0.002479
individu,0.004829
industri,0.001781
influenc,0.001718
inform,0.001551
infrastructur,0.002642
insid,0.005234
instead,0.001827
institut,0.006605
instruct,0.002938
instrument,0.002403
intellectu,0.002677
intellig,0.002435
intent,0.002626
interfer,0.003185
interior,0.003062
intern,0.020514
internet,0.005120
interpol,0.003646
interrupt,0.003881
introduc,0.001830
invas,0.002845
investig,0.002186
ior,0.007156
ireland,0.003261
isbn,0.009224
issu,0.008373
issuanc,0.004408
istituto,0.006047
itali,0.056171
italian,0.099563
itso,0.006763
itu,0.008189
iv,0.006775
ix,0.004558
januari,0.008908
jew,0.003669
john,0.005325
jorg,0.004631
ju,0.015942
judg,0.002881
judgment,0.003307
judici,0.008988
juli,0.004508
juliu,0.003970
june,0.002273
jurid,0.005242
jurisdict,0.006334
just,0.001819
kent,0.004680
kessing,0.006286
kill,0.002576
kilometr,0.007236
kind,0.002078
king,0.009942
kingdom,0.008303
known,0.001303
ktav,0.006763
laid,0.002945
land,0.001974
languag,0.013728
larg,0.008250
larger,0.002059
late,0.001806
later,0.003103
lateran,0.075472
latin,0.024523
launder,0.009749
law,0.014146
lawn,0.005616
lay,0.008808
laymen,0.005426
le,0.003108
lead,0.001556
leadership,0.002830
leav,0.002209
led,0.001683
left,0.002079
legal,0.002153
legat,0.005426
legisl,0.011944
leo,0.003905
leonardo,0.004270
lesser,0.003198
letter,0.002575
level,0.003120
librari,0.007353
light,0.002151
limit,0.004780
line,0.003734
link,0.002269
lira,0.011190
list,0.007253
live,0.016870
local,0.003534
locat,0.011510
london,0.002196
lone,0.004474
long,0.005082
loop,0.003592
lose,0.002744
loss,0.002282
losservator,0.015790
lot,0.003213
low,0.001999
loyalti,0.003780
maderno,0.007156
main,0.006606
mainli,0.004331
major,0.004152
make,0.001326
male,0.002926
manag,0.001868
mani,0.004716
manufactur,0.002488
march,0.010817
marconi,0.005637
mario,0.004521
marshi,0.006383
martha,0.009731
martial,0.004201
martyrdom,0.005805
mass,0.002139
master,0.005568
materi,0.001828
mausoleum,0.005554
mcgillqueen,0.006047
mean,0.005747
meant,0.002675
medal,0.003831
media,0.002393
medic,0.002402
mediev,0.002782
mediterranean,0.003412
mediumwav,0.006687
meet,0.004221
member,0.018310
membership,0.002873
memento,0.012484
mercenari,0.004463
mere,0.002566
messag,0.003242
metr,0.007421
metrelong,0.006937
metropolitan,0.003964
michelangelo,0.011032
middl,0.002151
midmay,0.006333
midth,0.003218
mild,0.004026
mile,0.006065
militari,0.008442
million,0.004098
minist,0.002353
minor,0.002414
minut,0.003114
mission,0.005202
mist,0.005574
modern,0.006259
modifi,0.002545
molest,0.006083
mon,0.010046
monarch,0.003445
monarchi,0.006688
money,0.004663
moneylaund,0.006158
monsignor,0.006617
month,0.002305
montreal,0.004680
monument,0.007470
morley,0.005360
mosaic,0.004346
mostli,0.004451
motu,0.005392
mount,0.003041
multilingu,0.004960
muner,0.007895
museum,0.028313
mussolini,0.020314
narcot,0.004813
narrow,0.002946
nation,0.011565
natur,0.001392
near,0.002145
nearbi,0.009632
nearli,0.002272
necessari,0.002079
necessarili,0.005107
necropoli,0.006552
need,0.001568
nero,0.011190
neroni,0.007895
network,0.004362
neutral,0.014277
new,0.013984
newli,0.002744
news,0.002847
newspap,0.003229
newsva,0.007895
nicea,0.006617
nichol,0.005255
nichola,0.003509
nineteenth,0.003263
nobil,0.008138
nobl,0.006785
nomin,0.005446
nonhereditari,0.006383
nonterritori,0.007291
normal,0.006238
north,0.004142
northern,0.002438
notabl,0.002001
note,0.003008
noth,0.002760
novemb,0.002339
numer,0.001932
numismat,0.005660
nunciatur,0.006617
nuncio,0.013374
oath,0.004451
obelisk,0.005948
observ,0.005165
obtain,0.002027
occas,0.003245
occupi,0.002615
octob,0.006767
offenc,0.009208
offend,0.004366
offic,0.012599
offici,0.043574
officii,0.007450
officio,0.005270
offset,0.003793
old,0.004317
oldest,0.002822
onli,0.016812
onlin,0.002283
open,0.008930
openstreetmap,0.006158
oper,0.004937
oppos,0.002180
opposit,0.004293
orchard,0.010658
order,0.005750
organ,0.011384
organis,0.002470
origin,0.005783
orsini,0.006687
oust,0.004076
outcrop,0.005314
outlin,0.002539
outsid,0.009951
overse,0.007781
owe,0.003175
owen,0.004327
ownership,0.003063
pact,0.003917
pagan,0.004009
paint,0.003313
palac,0.048494
palatin,0.005574
pamphlet,0.004408
panel,0.003844
papaci,0.010203
papal,0.085910
par,0.004003
parent,0.002938
particip,0.006174
particularli,0.003659
passetto,0.007895
passport,0.017194
pastor,0.004121
patrimoni,0.005805
patrol,0.012590
paul,0.015874
pave,0.003689
pdf,0.003019
pell,0.005595
peninsula,0.003470
penitenziaria,0.007156
peopl,0.008630
perform,0.001834
period,0.003100
perman,0.002528
perpetr,0.004577
person,0.011949
persona,0.005090
personnel,0.003224
perugino,0.007895
peter,0.045199
pharmaci,0.004673
philatel,0.006199
photovolta,0.005637
phrygian,0.006492
piazza,0.011777
pickpocket,0.013692
piedmontl,0.007895
pietro,0.005443
pio,0.005980
piu,0.044468
place,0.011803
plan,0.003951
planet,0.002960
plant,0.002265
poet,0.003607
point,0.001513
polic,0.026113
polici,0.003861
polit,0.003274
politician,0.003129
polizia,0.007156
polytheist,0.005023
pomerium,0.007450
pontif,0.066633
pontiff,0.012166
pontificali,0.007895
pontificio,0.014313
pope,0.157768
popey,0.007156
popul,0.007424
porta,0.005888
portion,0.002621
portugues,0.003321
posit,0.004638
possess,0.002344
possibl,0.004577
post,0.002531
postag,0.009496
postal,0.032133
postwar,0.003548
power,0.015309
pp,0.002438
practic,0.001600
pratellum,0.007895
preced,0.002834
predat,0.003321
prefect,0.005033
prefectur,0.004772
prefix,0.008040
prepar,0.002426
prerog,0.004780
present,0.002991
presid,0.021634
press,0.003521
pretrial,0.006383
prevent,0.002138
previou,0.002255
previous,0.004561
prey,0.004076
priest,0.003542
prime,0.002403
primordi,0.004205
princip,0.007010
print,0.002809
prioriti,0.003154
prison,0.009525
privat,0.002145
probabl,0.002146
proceed,0.002737
product,0.001559
project,0.001851
promin,0.002345
promulg,0.003814
properti,0.018113
proport,0.002473
propos,0.003691
proprio,0.007450
protect,0.013957
protest,0.002780
provid,0.009291
provis,0.002913
pub,0.004474
public,0.012053
publish,0.004981
punish,0.003290
pure,0.002365
purs,0.005595
pursu,0.002720
qualiti,0.002228
quartermast,0.006846
question,0.003757
quirin,0.022350
quit,0.002528
r,0.002001
radio,0.015313
raid,0.003562
railway,0.010620
raini,0.004960
ran,0.003348
random,0.002853
rang,0.001795
raphael,0.005113
rare,0.004924
rariti,0.005201
reach,0.003856
reaffirm,0.004503
reason,0.003405
receiv,0.001812
reclam,0.005175
recogn,0.012206
recognis,0.002929
record,0.001999
recruit,0.010494
refer,0.003795
refrain,0.004366
refug,0.008095
refus,0.002768
regard,0.005460
region,0.001699
regist,0.011768
reign,0.003280
reject,0.004677
relat,0.010234
releas,0.002371
religi,0.004847
religion,0.009666
remain,0.004707
remnant,0.003793
renaiss,0.009411
render,0.003111
renov,0.004748
renown,0.004047
replac,0.001933
report,0.003647
repres,0.001556
republ,0.002226
request,0.005767
resid,0.040218
resist,0.002458
resolv,0.005511
respect,0.003608
respons,0.011519
rest,0.004445
result,0.002643
retir,0.003228
return,0.003840
review,0.002125
ricci,0.005255
right,0.008512
rion,0.007450
river,0.005187
robert,0.002086
robustli,0.005888
role,0.001662
roman,0.027995
romano,0.011411
romansh,0.007450
rome,0.119860
roof,0.004617
routin,0.003405
royal,0.002503
rule,0.008659
ruler,0.003170
run,0.002085
russia,0.002788
sacerdotalmonarch,0.007895
sacr,0.003633
safeguard,0.004069
said,0.005848
saint,0.019035
sale,0.011055
san,0.003013
sancta,0.021470
sanguini,0.006687
sardinia,0.005329
satellit,0.006620
scatter,0.003503
scenario,0.003436
scene,0.003417
scienc,0.001595
scientif,0.001909
sculptur,0.008532
scv,0.015790
sea,0.002420
second,0.003114
secretari,0.018598
secretariat,0.017762
section,0.009403
secular,0.006567
secur,0.022173
sede,0.007040
sedi,0.013526
seiz,0.003261
semioffici,0.005888
send,0.002967
senior,0.003144
sens,0.001952
sensit,0.003055
sentenc,0.003243
separ,0.003466
septemb,0.006864
serv,0.011331
servic,0.033274
set,0.001469
settlement,0.002768
seven,0.002489
sever,0.002753
shoplift,0.006937
short,0.002022
shortwav,0.005409
shrine,0.004673
sicili,0.004361
sick,0.003725
sign,0.004348
signific,0.001685
similar,0.003153
simpli,0.002154
sinc,0.011883
sistin,0.025745
site,0.011120
situat,0.006099
size,0.006168
small,0.009694
smallest,0.003436
snatch,0.005888
soldier,0.003004
soldieri,0.006846
soli,0.006013
sometim,0.003437
somewhat,0.002799
son,0.002528
sought,0.002572
south,0.002067
sovereign,0.015780
sovereignti,0.003184
space,0.002035
spanish,0.002855
special,0.009908
specif,0.001579
spina,0.006242
spirit,0.002983
spiritu,0.006084
spoke,0.003644
sporad,0.004213
sport,0.003136
spous,0.004856
spur,0.003708
squar,0.025178
st,0.027671
staff,0.009338
stamp,0.023432
standard,0.003556
start,0.003342
state,0.090118
station,0.002884
stato,0.019309
statu,0.015437
statut,0.003879
step,0.002239
sti,0.006242
stone,0.002949
stop,0.002608
strain,0.003282
strategi,0.002459
stream,0.003164
strictli,0.003114
structur,0.001542
su,0.004058
subordin,0.003644
success,0.001751
suggest,0.005545
summer,0.003054
supervis,0.003157
suppli,0.002152
support,0.003139
suppos,0.002901
suprem,0.002704
surplu,0.003474
surround,0.002418
swiss,0.045212
switzerland,0.003384
symbol,0.002397
symmachu,0.007156
systemat,0.002522
tactic,0.003511
taken,0.003866
team,0.005515
technic,0.002348
telecommun,0.017209
telephon,0.007219
televis,0.008928
temper,0.003983
tempor,0.006959
term,0.008734
territori,0.055469
text,0.004555
th,0.003028
theocraci,0.005516
theoret,0.002165
thereaft,0.003452
thi,0.017777
thousand,0.004657
thu,0.006174
tiber,0.025745
ticket,0.004440
time,0.010514
titl,0.007110
titta,0.007895
tld,0.006552
tomb,0.008410
took,0.006188
total,0.005527
touch,0.003485
tour,0.003809
tourist,0.010556
tract,0.003765
tradit,0.003325
traffic,0.003488
tragedi,0.004440
train,0.004560
transact,0.002843
transform,0.002161
transmiss,0.003261
transport,0.011318
travel,0.002331
treasur,0.004094
treati,0.044120
tri,0.002078
trial,0.003013
tribun,0.008204
troop,0.002980
type,0.001587
ucb,0.005516
unabl,0.002744
uncertain,0.003490
uncompromisingli,0.007156
undisturb,0.005574
unesco,0.007173
unhealthi,0.004884
unicamer,0.004026
unif,0.003755
uniform,0.003061
uninhabit,0.004172
union,0.005886
uniqu,0.004503
unit,0.005327
univers,0.004102
unlik,0.004397
unmarri,0.005228
unrel,0.003775
unusu,0.003201
updat,0.003198
upsidedown,0.005888
upu,0.004023
urban,0.002769
use,0.016184
usual,0.006356
v,0.002354
va,0.004590
vacanc,0.009881
variou,0.004509
vatica,0.007895
vatican,0.837996
vaticana,0.014081
vaticani,0.007895
vaticano,0.047372
vaticanu,0.026211
vaticum,0.007895
vatikano,0.007895
veri,0.001507
version,0.002309
vest,0.003463
vestig,0.004839
vi,0.015020
vice,0.003057
victor,0.003554
view,0.001692
viii,0.004205
villa,0.004597
vincifiumicino,0.007895
vineyard,0.005805
violat,0.002921
viridarium,0.007895
visibl,0.002918
visitor,0.003611
vitelliu,0.006846
vote,0.002504
voulg,0.007644
vtkn,0.007895
vulner,0.003358
wa,0.056299
walkway,0.006383
wall,0.027959
want,0.002437
war,0.018757
water,0.002036
weaken,0.003307
websit,0.012484
welldevelop,0.004392
went,0.002421
west,0.006801
whenev,0.003715
wherea,0.004582
wherebi,0.002983
white,0.002507
wide,0.005102
wikimedia,0.007360
wikivoyag,0.005113
winter,0.003272
wipo,0.004192
word,0.001832
work,0.011650
worker,0.004916
workforc,0.003713
world,0.025435
worldwid,0.002678
worri,0.003890
worship,0.003578
x,0.002337
xi,0.004069
xii,0.033349
xvi,0.004666
xxiii,0.005860
yd,0.012667
year,0.006663
york,0.004067
youtub,0.004172
