abl,0.002116
ablebodi,0.006370
aboard,0.014764
abroad,0.003638
absenc,0.003080
accept,0.002103
access,0.009273
accommod,0.007781
accompani,0.006478
account,0.001973
accur,0.002854
activ,0.006687
actual,0.004288
ad,0.002138
adam,0.013602
adamstown,0.023581
addit,0.005085
adjac,0.003834
administr,0.007028
admiralti,0.011215
adult,0.003280
adventist,0.035114
adventur,0.004203
affair,0.002770
affect,0.002189
aftermath,0.004175
age,0.023082
agenc,0.002635
agricultur,0.002490
ahead,0.003911
aid,0.002513
ailen,0.007745
air,0.002573
airport,0.007381
airstrip,0.006020
alcohol,0.015386
alexand,0.003210
allow,0.001666
alongsid,0.003484
alreadi,0.002441
amateur,0.009151
american,0.005695
amnesti,0.004830
analysi,0.002019
ani,0.005906
anim,0.002345
annex,0.003811
annual,0.007721
anoth,0.003223
anyon,0.003653
anywher,0.004101
apicultur,0.007643
appar,0.002860
appeal,0.006241
appear,0.003881
applic,0.012006
appoint,0.008263
approach,0.001928
april,0.002563
archaeologist,0.004618
archipelago,0.004253
area,0.011649
arm,0.002671
array,0.003656
arriv,0.016183
arrowroot,0.015286
arundinacea,0.007745
ashor,0.011122
assault,0.008591
asset,0.003097
assign,0.003009
assist,0.002498
associ,0.001636
assort,0.005178
assum,0.002321
assur,0.003817
asthmat,0.007990
atla,0.003928
atol,0.010767
attempt,0.003822
attend,0.009591
attract,0.005392
auckland,0.017699
author,0.001886
avail,0.002048
averag,0.010011
avocado,0.006921
b,0.002219
ba,0.004458
babi,0.004380
bake,0.005868
banana,0.013702
band,0.003643
bandwidth,0.005538
baptism,0.005494
baptist,0.004892
bar,0.003787
baron,0.004458
base,0.005840
battl,0.003164
bautista,0.013582
bay,0.015135
bean,0.004694
becam,0.005540
becaus,0.003041
becom,0.001617
bee,0.014214
beekeep,0.013752
began,0.004034
believ,0.002089
benefica,0.008317
benefit,0.002451
benign,0.005442
berri,0.005516
best,0.002226
bibl,0.008103
bibliographi,0.002938
big,0.009177
bike,0.006344
bird,0.020693
birdlif,0.006344
birthday,0.004957
board,0.005829
boat,0.012082
bob,0.004699
boil,0.004519
book,0.009600
born,0.002854
bounti,0.139021
bountyan,0.008317
box,0.003787
brand,0.004083
bread,0.004728
breadfruit,0.012963
breadstick,0.008317
breed,0.016206
brigantin,0.007550
bring,0.005023
britain,0.002846
british,0.033838
briton,0.005549
broadcast,0.003920
broke,0.003464
build,0.006413
builder,0.004915
built,0.002518
bunker,0.006424
c,0.003867
caf,0.005807
cal,0.006224
callsign,0.006676
came,0.002212
campu,0.004793
canal,0.004013
cancel,0.003833
cano,0.005201
cantaloup,0.008317
capabl,0.002664
capit,0.002200
capricorn,0.006396
captain,0.028585
captur,0.002778
cargo,0.013545
carolin,0.005301
carrot,0.006246
carteret,0.015491
carv,0.004484
catapult,0.005916
caught,0.016669
caus,0.003612
celebr,0.003487
centr,0.005564
centuri,0.005212
certain,0.001852
channel,0.003340
charg,0.013056
charit,0.004976
charl,0.010366
chart,0.003854
charter,0.014561
chicken,0.004809
child,0.006499
children,0.027830
chri,0.004555
christian,0.018357
christma,0.004768
chronomet,0.006574
church,0.018344
cigarett,0.005217
citizenship,0.004217
citru,0.005538
civil,0.002321
claim,0.002054
classic,0.002235
claymor,0.024953
clean,0.003961
clearanc,0.010418
cliff,0.004531
climat,0.005778
close,0.003621
cloth,0.003537
cnn,0.005899
coconut,0.004957
cod,0.005549
code,0.007855
coin,0.002802
collector,0.004799
coloni,0.011193
colour,0.003862
combat,0.003552
come,0.005806
command,0.005678
commission,0.008323
committe,0.002903
common,0.004909
commonwealth,0.003495
commun,0.008848
compani,0.002136
competit,0.002661
complet,0.003738
compris,0.002768
compulsori,0.004280
comput,0.002242
concern,0.001900
confer,0.002664
connect,0.002228
consider,0.002274
consist,0.003622
constitut,0.002136
consum,0.002694
consumpt,0.003156
contact,0.005679
continu,0.001639
contract,0.002714
contribut,0.001986
convict,0.007844
cook,0.003815
copper,0.003758
coprosma,0.008317
coral,0.004473
corn,0.004232
cost,0.011897
council,0.012339
count,0.003086
countri,0.001781
coupl,0.003131
cover,0.008913
coxswain,0.007990
craft,0.004071
crake,0.007186
creat,0.001655
creol,0.010467
crew,0.029792
crop,0.003346
crown,0.003505
cruis,0.009587
cultur,0.004070
curio,0.007186
customarili,0.005561
cut,0.002873
danc,0.004340
dark,0.003499
data,0.002159
day,0.010211
daytoday,0.004618
decad,0.002460
decemb,0.004967
decid,0.002637
decis,0.002281
declin,0.005139
decolon,0.004970
decreas,0.002665
dedic,0.009753
deep,0.003013
defenc,0.009883
degre,0.002216
delect,0.007745
dem,0.006020
democraci,0.006029
demograph,0.003633
depart,0.004746
deriv,0.004115
descend,0.016379
design,0.001987
desir,0.002547
despit,0.009179
dessert,0.006676
detent,0.005193
develop,0.001353
diaspora,0.004903
did,0.004018
die,0.007779
diesel,0.010968
differ,0.001434
difficult,0.007081
dinner,0.005393
discov,0.009533
discoveri,0.007604
diseas,0.005670
diseasefre,0.007860
dish,0.010250
display,0.003075
distanc,0.002882
distress,0.004492
dive,0.004903
divin,0.003599
doctor,0.003229
doe,0.003662
dollar,0.003162
dolphin,0.005250
domain,0.005286
doubl,0.005993
doubt,0.006985
drastic,0.004051
dri,0.003544
drier,0.005763
drive,0.002907
drunken,0.006270
dub,0.004353
duci,0.086464
dunde,0.006542
durabl,0.004559
dxpedit,0.014631
earliest,0.002723
east,0.005010
econom,0.008916
economi,0.006675
ed,0.002281
editor,0.003468
educ,0.006227
edward,0.002964
effect,0.001582
electr,0.010777
element,0.002072
elizabeth,0.007753
emigr,0.008192
employ,0.002161
enact,0.003612
encarnacin,0.015491
encount,0.003209
endang,0.004527
endem,0.013616
enforc,0.003054
english,0.006808
enjoy,0.003102
enrol,0.004480
ensur,0.002677
entir,0.008454
entri,0.006303
establish,0.005216
european,0.006088
event,0.002120
eventu,0.006947
everi,0.002038
exactli,0.003192
exampl,0.001459
exceed,0.003421
exclus,0.005567
exhaust,0.003810
expect,0.004477
expeditiontyp,0.008317
experi,0.002003
explor,0.002482
export,0.005978
express,0.004222
extend,0.004298
extens,0.004400
extern,0.001274
extinct,0.018521
extrem,0.002337
eye,0.006514
f,0.004800
face,0.002445
fact,0.002068
failur,0.002835
fairi,0.005484
faith,0.003257
fall,0.002224
fallen,0.003959
famili,0.011281
far,0.002209
farm,0.003251
farran,0.008317
fauna,0.004156
favourit,0.010968
fco,0.006713
februari,0.002647
fee,0.003813
femal,0.003271
fern,0.005505
fernand,0.005383
ferri,0.004964
fertil,0.003415
fifteenyearold,0.007745
film,0.003304
final,0.004215
fish,0.033441
fiveweek,0.007643
fletcher,0.017377
fli,0.003637
flightless,0.006832
flora,0.004404
flotilla,0.006424
flour,0.005250
flower,0.007913
focu,0.002390
focus,0.002268
folger,0.013842
follow,0.002787
food,0.002507
foot,0.003785
footpath,0.007990
forc,0.005239
foreign,0.009072
form,0.006659
formal,0.002180
formerli,0.006527
forti,0.004350
fortnum,0.008317
forward,0.003093
fourwheel,0.006832
franci,0.003336
free,0.001990
freetoair,0.007248
freight,0.010310
french,0.007034
fresh,0.003913
friday,0.005041
fruit,0.006905
ft,0.003808
fund,0.002402
futur,0.002122
galleri,0.004480
galpago,0.006370
gambier,0.006832
gather,0.003037
gb,0.006002
gener,0.003756
gentl,0.005355
geograph,0.002833
geographi,0.003207
geolog,0.003329
georg,0.002511
giant,0.007620
girl,0.004302
glochidion,0.008317
glynn,0.007550
gold,0.003029
good,0.005811
googl,0.008379
govern,0.029824
governmentsponsor,0.005932
governor,0.015990
grant,0.005342
grapefruit,0.006921
grid,0.004411
group,0.011002
grow,0.002234
grown,0.003355
guid,0.002463
guild,0.004825
gun,0.008182
ha,0.016265
habit,0.003694
habitat,0.004063
hall,0.009917
handicraft,0.005310
handl,0.003168
harbour,0.008961
harm,0.003359
harper,0.004488
harvest,0.003862
harwel,0.015286
hatti,0.007550
head,0.002249
help,0.003815
henderson,0.083072
henri,0.002808
herald,0.004898
hercul,0.005736
heritag,0.003563
hi,0.006249
high,0.007057
highlight,0.003587
hill,0.006932
histor,0.001957
histori,0.004353
hm,0.023134
hold,0.002098
holiday,0.004101
home,0.009952
honey,0.021033
host,0.003186
hotspot,0.005695
hour,0.009185
hous,0.004674
household,0.003466
howev,0.011312
human,0.003357
humid,0.004640
humpback,0.007018
hundr,0.005294
iba,0.006921
identifi,0.002106
ii,0.006840
ill,0.003383
illeg,0.003510
imag,0.002682
import,0.013374
inaccess,0.004847
incarn,0.005096
includ,0.018143
incom,0.005337
incorpor,0.002392
incorrect,0.004148
india,0.002667
infam,0.005028
infect,0.003954
inform,0.003464
inhabit,0.015145
initi,0.003786
injur,0.004418
innov,0.003018
inquiri,0.003475
insight,0.003232
instal,0.003438
instanc,0.002359
intent,0.002932
interior,0.003419
interisland,0.006511
intern,0.006107
internet,0.008574
introduc,0.002043
invent,0.002835
invest,0.002480
involv,0.003378
iron,0.003120
irv,0.004694
isaac,0.003771
isl,0.004473
island,0.353801
islet,0.010310
itu,0.004571
jacqui,0.007860
jag,0.006832
jame,0.012287
januari,0.007459
job,0.006017
john,0.011890
johnson,0.003981
joshua,0.004903
juan,0.008579
juli,0.012583
june,0.005076
jurisdict,0.003536
just,0.006094
juvenil,0.005118
kari,0.005949
kbit,0.014497
kermadec,0.007248
kill,0.005752
kilometr,0.020197
king,0.005550
kingdom,0.011587
km,0.013116
known,0.007278
kumura,0.008317
la,0.005815
labour,0.005898
lack,0.002221
laid,0.003287
land,0.013228
landbird,0.015491
languag,0.010947
larg,0.001535
largest,0.002405
late,0.006050
later,0.005197
latitud,0.004418
launch,0.002933
law,0.005264
layman,0.005899
lead,0.001738
leader,0.002547
leav,0.004933
lectur,0.006334
left,0.004644
legal,0.002403
lemon,0.005722
length,0.005780
lesser,0.003571
liais,0.007018
licenc,0.004989
licens,0.003468
lime,0.005209
limeston,0.004976
limit,0.003557
link,0.001266
list,0.006478
littl,0.002229
live,0.015067
lobster,0.005967
local,0.019728
locat,0.006425
london,0.007358
long,0.001891
longboat,0.055371
longer,0.004804
longitud,0.004970
lost,0.002531
lui,0.004534
magma,0.005473
maim,0.007018
main,0.003688
maintain,0.004062
mainten,0.006988
majesti,0.005089
major,0.007726
make,0.007406
male,0.006534
manag,0.002086
mandarin,0.006058
manganes,0.005258
mangareva,0.037329
mango,0.012793
mani,0.002633
manual,0.003679
maranta,0.008317
march,0.009661
marden,0.007860
marin,0.016672
mark,0.004677
marri,0.003651
marriag,0.003682
mason,0.005041
matter,0.002191
maundi,0.007860
mayhew,0.006676
mayor,0.013255
meal,0.004964
measur,0.001907
meat,0.004041
media,0.002671
medic,0.002682
meet,0.007070
member,0.001858
men,0.032411
mention,0.002819
meridian,0.005527
metr,0.004143
mi,0.036725
mid,0.002900
midshipman,0.007745
midth,0.003593
migrant,0.031829
migrat,0.006224
mike,0.004836
mile,0.003385
militari,0.002356
mineralsinclud,0.008317
minim,0.003074
minimum,0.003177
minist,0.002628
ministri,0.003131
miro,0.007071
miscellani,0.019723
miser,0.005516
mission,0.002904
missionari,0.012373
mode,0.003279
model,0.001814
moi,0.006294
molass,0.006370
monitor,0.003149
month,0.005146
monthli,0.003970
moral,0.002913
morayshir,0.007643
morn,0.004232
mostli,0.002485
movi,0.003983
mr,0.007831
multipl,0.002240
murder,0.003699
murphi,0.010402
mutin,0.054022
mutini,0.035431
mv,0.016420
nanwe,0.008317
nation,0.008069
nativ,0.003010
natur,0.001554
navi,0.010458
navig,0.003637
near,0.002394
nearli,0.005073
ned,0.005736
need,0.001750
nehe,0.008317
nest,0.004511
network,0.004870
new,0.013010
newli,0.003064
news,0.019075
nicolson,0.006117
noddi,0.006832
nonselfgovern,0.005984
nordhoff,0.024953
norfolk,0.034499
norfuk,0.007643
normal,0.002321
norman,0.012311
northwest,0.003983
notabl,0.002235
noth,0.003082
novemb,0.005224
number,0.001457
numer,0.006473
nz,0.047598
nzm,0.015980
observ,0.007689
obtain,0.002263
occas,0.003622
occasion,0.003285
occur,0.001850
ocean,0.008991
octob,0.007556
oeno,0.069712
offenc,0.005140
offer,0.002165
offic,0.009377
offici,0.004422
offisland,0.023237
offshor,0.004247
old,0.002410
oncestrict,0.008317
oneway,0.005778
ongo,0.003187
onisland,0.008317
onli,0.018770
opapa,0.008317
oper,0.011025
orang,0.004353
ordain,0.005319
order,0.004815
origin,0.001614
orn,0.007550
ornitholog,0.005899
outer,0.003721
outgrow,0.006921
outlin,0.002835
outsid,0.002221
overrun,0.005225
oversea,0.017370
owe,0.007089
oxfordshir,0.006344
pacif,0.010127
paint,0.003699
panama,0.004753
pandora,0.006641
papaya,0.013282
papeet,0.007248
parti,0.002250
particip,0.002297
particular,0.001823
pasifika,0.008317
pass,0.006788
passag,0.003470
passeng,0.013001
passengercargo,0.008317
passionfruit,0.008317
passport,0.004799
past,0.002310
pastor,0.004600
path,0.005906
pave,0.004119
paw,0.012154
pay,0.002719
pea,0.004995
peac,0.008427
peak,0.006392
pedro,0.004671
peopl,0.009635
perenni,0.004995
perform,0.002047
peril,0.005310
period,0.005191
perman,0.008468
permit,0.005933
person,0.003811
persuad,0.004209
petrel,0.013282
pew,0.005868
philip,0.003580
physic,0.003811
pick,0.003791
pie,0.005899
pilhi,0.008317
pineappl,0.018117
pitcairn,0.861318
pitcairnens,0.008317
pitkern,0.039302
place,0.003294
placid,0.007248
plan,0.002205
plant,0.007586
play,0.002102
plenti,0.004579
plight,0.005736
plun,0.016635
pm,0.013234
pn,0.010748
point,0.001689
polic,0.003239
polit,0.001828
polynesia,0.010516
polynesian,0.031451
poorli,0.003856
popul,0.035230
popular,0.002083
populnea,0.007248
pornographi,0.005967
portugues,0.003707
possess,0.002617
possibl,0.001703
postag,0.005301
potato,0.004436
potenti,0.004324
power,0.003418
pp,0.010891
prayer,0.008802
precis,0.002751
prefer,0.002557
prefix,0.004488
preschool,0.012154
presenc,0.002525
press,0.003931
primari,0.002204
primarili,0.002283
princ,0.003604
princip,0.005218
prior,0.007568
prison,0.003544
pristin,0.005632
privat,0.004789
produc,0.008689
product,0.005222
programm,0.003210
prohibit,0.006815
project,0.006199
prosecut,0.004515
protect,0.008904
provid,0.008891
ptkrn,0.008317
public,0.008410
purchas,0.002840
qrzcom,0.008317
quad,0.005572
qualifi,0.007024
qualiti,0.002488
queen,0.007010
queir,0.014631
radio,0.017096
raini,0.005538
ramp,0.005967
rang,0.006014
rapensi,0.008317
rare,0.002748
rate,0.002069
rd,0.002990
reach,0.004305
read,0.001839
reapprov,0.008317
reason,0.005703
receiv,0.002023
recent,0.001834
recognis,0.003270
recolonis,0.007388
recreat,0.004091
red,0.002936
rediscov,0.013841
rediscoveri,0.005170
redtail,0.007745
reduc,0.002006
reed,0.010069
refer,0.001059
regard,0.002032
regist,0.003284
regularli,0.003605
relat,0.001428
relationship,0.002021
relax,0.004049
reli,0.002552
religion,0.005395
remain,0.005255
remark,0.003248
rent,0.004078
repopul,0.006224
report,0.014251
repres,0.003475
request,0.003219
requir,0.008337
reserv,0.005634
resid,0.036482
resourc,0.006433
respect,0.006043
respons,0.003674
rest,0.007445
restrict,0.004910
result,0.001475
retain,0.002785
retir,0.003604
retold,0.006574
return,0.008575
reveal,0.002786
revenu,0.009270
review,0.002373
revolut,0.002624
reynoldsmoreton,0.008317
rice,0.003995
rich,0.003037
right,0.003801
road,0.015384
robert,0.006987
rock,0.006634
role,0.003711
rout,0.003189
royal,0.008384
run,0.002327
s,0.007511
sabbath,0.012359
sail,0.016026
sailor,0.004531
saint,0.003542
sale,0.009257
samesex,0.005632
san,0.006727
sandi,0.005201
satellit,0.018479
saturday,0.010585
save,0.003008
scarc,0.004056
school,0.012930
schooner,0.006481
scienc,0.001781
scratch,0.005170
scriptur,0.004262
sea,0.008108
seabird,0.012041
seal,0.003972
seaport,0.005346
search,0.002711
season,0.003423
second,0.001738
secondlargest,0.005054
sector,0.002777
seen,0.002078
selfcontain,0.005792
selfpublish,0.006481
sell,0.005993
send,0.003312
senior,0.003510
sent,0.002936
sentenc,0.007242
separ,0.001935
septemb,0.005108
seriou,0.002967
serv,0.006325
servic,0.006191
set,0.004922
settl,0.003010
settlement,0.012364
settler,0.011957
seven,0.011118
seventhday,0.023799
sever,0.006147
sexual,0.010442
shallow,0.008961
shape,0.002524
share,0.002064
shark,0.005096
sharp,0.003580
shearwat,0.007465
ship,0.048089
shirley,0.005883
shore,0.012082
shorelin,0.005837
short,0.002258
shortwav,0.006039
sight,0.007861
signific,0.001881
silver,0.003685
simon,0.003542
sinc,0.011793
singl,0.003945
sir,0.003327
site,0.007449
sixmonth,0.005852
sixteen,0.004836
skipper,0.006791
sloop,0.006396
slope,0.004256
small,0.012627
smallest,0.003836
smoke,0.004380
snapper,0.007745
social,0.001875
societi,0.014776
soil,0.003340
sole,0.002992
someon,0.003443
son,0.002822
sourc,0.007417
south,0.004617
southeast,0.003608
southeasternmost,0.007745
southern,0.002736
souvenir,0.006270
spanish,0.003188
sparrow,0.006319
spear,0.005266
speci,0.016267
special,0.001843
spent,0.003258
spini,0.006791
spoken,0.007931
spous,0.005422
spread,0.005211
sq,0.013203
squar,0.009370
staff,0.003475
stain,0.009716
stamp,0.008720
state,0.002579
station,0.006441
statu,0.004924
stay,0.009680
steep,0.004723
stephen,0.003274
steve,0.004531
stick,0.004432
store,0.002986
stori,0.002988
street,0.006727
strenuou,0.006179
studi,0.006231
substanti,0.002736
success,0.001955
sue,0.005402
suffer,0.002690
suffici,0.002725
sugarcan,0.005021
suggest,0.002063
suitabl,0.003272
summer,0.006820
sunset,0.011168
suppli,0.002403
support,0.005258
surnam,0.005337
surrend,0.004061
survey,0.008501
surviv,0.005085
survivor,0.004579
sv,0.005984
swallow,0.005021
sweet,0.009184
swim,0.004788
sydney,0.004618
syllabu,0.005722
t,0.002564
tabl,0.002837
tagu,0.007550
tahitian,0.032262
tail,0.004268
tapa,0.007315
tapau,0.008317
taro,0.005899
task,0.002734
taught,0.003286
tauranga,0.008140
tay,0.006832
teacher,0.006756
technician,0.004713
tedsid,0.008317
telephon,0.008060
televis,0.003322
temper,0.008894
temperatur,0.005960
temporari,0.003476
tenday,0.007315
tension,0.003348
term,0.001393
tern,0.006607
territori,0.018062
th,0.001690
thcenturi,0.003399
thespesia,0.007860
thi,0.006615
thoma,0.002637
thought,0.002089
threeday,0.005984
thursday,0.011076
tie,0.002875
timber,0.004415
time,0.009130
toilet,0.006096
tomato,0.005054
took,0.004605
topaz,0.007860
toplevel,0.004788
tortois,0.011527
total,0.006170
totegegi,0.008317
tour,0.004253
tourism,0.024006
tourist,0.015714
track,0.003261
trade,0.006397
train,0.002545
transpacif,0.006396
transport,0.007581
travel,0.007809
trawl,0.013023
tree,0.003036
tri,0.004640
trial,0.010091
trip,0.008147
tropic,0.007524
tropicbird,0.006921
true,0.002386
trust,0.003222
tuamotu,0.007186
tuesday,0.005883
tul,0.015286
turn,0.004076
turner,0.004733
turpen,0.024953
turtl,0.005103
tv,0.008152
twoyear,0.004793
type,0.001772
typic,0.001977
uk,0.008106
uklun,0.007860
unauthoris,0.006179
undertak,0.004001
underwat,0.004753
unesco,0.004004
uninhabit,0.004658
uniqu,0.002513
unit,0.013382
univers,0.003053
unlik,0.002455
unpaid,0.005075
unsuccess,0.003791
upwel,0.006396
use,0.007227
user,0.003270
usual,0.003548
valley,0.010227
var,0.005792
vari,0.002173
varieti,0.011067
vase,0.006179
veget,0.007038
veri,0.001683
vessel,0.010767
viabil,0.005028
video,0.003244
view,0.003778
viewabl,0.006921
visa,0.004793
visibl,0.003258
visit,0.035542
visitor,0.004032
volcan,0.004229
voltag,0.004809
vote,0.002795
voyag,0.004032
vp,0.006002
w,0.007420
wa,0.033845
wade,0.005695
wahoo,0.007127
walk,0.003765
walkietalki,0.007990
war,0.002094
warbler,0.013937
warm,0.003767
warren,0.004305
watch,0.003758
watchroom,0.008317
water,0.006822
watermelon,0.013023
wear,0.003995
weather,0.010845
websit,0.002787
west,0.002531
western,0.002217
wet,0.004401
whale,0.009184
whaler,0.005807
white,0.002798
wide,0.003797
wikimedia,0.004109
wilkin,0.005393
wind,0.003502
winter,0.010959
women,0.011222
wood,0.006803
woodcarv,0.007388
work,0.005780
world,0.008967
worth,0.003337
wreck,0.005266
wrote,0.002511
xplore,0.007745
yacht,0.005620
yam,0.005657
yanke,0.006481
year,0.014877
yearround,0.005868
yellow,0.004140
young,0.010949
younger,0.003662
zealand,0.031548
zinchav,0.008317
zone,0.006094
