abandon,0.012741
abl,0.004308
abolish,0.007126
abolit,0.017916
aborigin,0.010234
abraham,0.008009
abu,0.018560
accept,0.004281
accord,0.010231
account,0.004016
accus,0.006839
achiev,0.008581
acr,0.018255
act,0.003898
action,0.004190
addisonwesley,0.009684
addit,0.006900
address,0.005135
admir,0.008081
admiralti,0.011414
adnan,0.014626
adult,0.006676
african,0.017933
afrotrinidadian,0.015557
age,0.008542
agricultur,0.005069
ahead,0.007962
aim,0.004870
al,0.017550
albert,0.006931
aleong,0.016930
alleg,0.007052
alli,0.006299
allianc,0.006378
allow,0.003391
alvin,0.021047
amend,0.007192
american,0.015456
amerindian,0.080604
amidst,0.010826
amnesti,0.039332
ana,0.011119
andr,0.017804
anglodutch,0.012042
ani,0.003005
announc,0.005727
annual,0.005239
ant,0.009255
anthoni,0.016108
antil,0.010587
antonio,0.017763
anuncata,0.016930
appoint,0.005606
apprentic,0.011141
apprenticeship,0.033888
april,0.005217
arabisra,0.011647
arauca,0.016930
arawak,0.035283
arawakan,0.015037
area,0.006774
arena,0.009426
arima,0.028369
aripero,0.033860
arouca,0.016930
arrest,0.022486
arriv,0.032941
ashford,0.016930
ask,0.005638
asphalt,0.012966
assembl,0.010648
assist,0.005085
assoc,0.014506
attack,0.021995
attempt,0.015561
attract,0.010975
august,0.036278
augustin,0.009159
author,0.007680
authoris,0.010116
avenu,0.009866
b,0.004517
bahadur,0.012913
bakr,0.024291
bank,0.004932
baptist,0.019916
barbado,0.010703
barrack,0.011439
barrel,0.009537
basdeo,0.033860
basil,0.010345
battl,0.006441
bay,0.007701
bbld,0.012913
bean,0.009556
bear,0.006382
becam,0.030072
becaus,0.003095
beccani,0.016930
becom,0.006584
began,0.024638
begin,0.012029
bellavista,0.016930
bermuda,0.010900
berrio,0.015766
berro,0.015557
beveren,0.016930
birth,0.006059
black,0.027750
blanchisseus,0.016930
book,0.003908
boom,0.007801
boston,0.007581
bound,0.006153
brea,0.030075
break,0.005668
brian,0.008411
bridg,0.006794
british,0.068875
broom,0.013665
brought,0.010138
build,0.004351
built,0.015380
bunse,0.016930
burden,0.007849
busi,0.004635
butler,0.041211
buy,0.006505
cacao,0.049323
caciqu,0.013590
calcul,0.005247
calcutta,0.011439
came,0.004503
campaign,0.006182
campu,0.009757
canadian,0.006991
capildeo,0.033860
capt,0.026267
captain,0.008312
captur,0.028276
capuchin,0.025337
carenag,0.016569
carib,0.044479
caribbean,0.023573
carindo,0.016263
carmichael,0.014184
carri,0.004440
cascad,0.009900
catalan,0.011206
catalonian,0.015766
cathol,0.006650
cedula,0.033860
censu,0.008076
cent,0.008544
center,0.004392
centuri,0.010610
chaguarama,0.015999
chairman,0.007790
champ,0.013316
chang,0.003105
chant,0.010539
charl,0.005275
chicago,0.006712
chief,0.005735
chin,0.011647
chines,0.005920
chocol,0.011319
chose,0.007747
christian,0.005337
christoph,0.014436
circumcis,0.012181
circumv,0.010234
citizen,0.005636
civil,0.004724
claim,0.004181
clark,0.007974
class,0.004568
clear,0.005126
clergi,0.018765
cliff,0.009222
close,0.003685
coalit,0.006674
coast,0.012572
coastal,0.007509
cocoa,0.042033
cocoaproduc,0.016263
collaps,0.012135
colon,0.007308
coloni,0.102523
colonist,0.018835
color,0.006861
colour,0.039310
columbu,0.037671
combust,0.019037
commit,0.011547
committe,0.005909
commod,0.006685
commonwealth,0.007115
commun,0.007203
commut,0.009151
compani,0.026098
compar,0.004074
compel,0.008608
compens,0.006962
complet,0.003804
compon,0.004744
compris,0.005635
concepcin,0.013590
concern,0.003867
condit,0.003854
congress,0.006172
connect,0.009071
conquest,0.007422
conrad,0.010477
consequ,0.004684
construct,0.012797
contact,0.005780
contin,0.021296
continu,0.016689
contract,0.016578
control,0.007320
convers,0.011367
cooli,0.014184
cooper,0.005265
corp,0.008127
corrupt,0.013527
cotton,0.008422
couleur,0.015766
council,0.020092
countri,0.018126
coupl,0.006374
courish,0.050791
courland,0.087040
court,0.015675
creol,0.010652
cricket,0.022501
crijnssen,0.016569
crime,0.006834
crisi,0.005684
crop,0.006810
crown,0.021405
culmin,0.007299
cultiv,0.014072
cultur,0.004142
cumucurapo,0.033860
d,0.004459
darwent,0.084651
day,0.020785
deal,0.004437
death,0.009649
debat,0.005128
decemb,0.035387
declar,0.015962
deem,0.007455
defect,0.008131
delay,0.007036
demand,0.004918
democrat,0.005397
demonstr,0.004951
dens,0.007841
depress,0.006844
descend,0.013335
descent,0.015806
descript,0.005035
desert,0.007833
desper,0.009736
despit,0.009342
destini,0.009811
destroy,0.017282
deterior,0.008113
determin,0.003825
deutsch,0.018627
develop,0.011020
die,0.010556
differ,0.002920
difficulti,0.005949
disagr,0.007833
discov,0.009702
discoveri,0.010319
diseas,0.005770
dissolv,0.006842
distil,0.009866
distilleri,0.014506
distinctli,0.010066
district,0.006663
dockyard,0.013253
domin,0.009066
dominica,0.011881
dorado,0.039761
dr,0.027339
drill,0.036511
driven,0.006413
drown,0.010977
durat,0.007845
dure,0.009513
dutch,0.074425
earli,0.016586
earth,0.005206
east,0.015297
econom,0.010888
economi,0.009059
ed,0.009286
edward,0.006033
effort,0.004593
el,0.031899
elderli,0.009288
elect,0.058701
elit,0.007364
elizabeth,0.007890
elli,0.010041
emancip,0.009490
emerg,0.012752
empir,0.009255
encomienda,0.013020
encourag,0.005451
end,0.021757
engin,0.004779
england,0.017265
english,0.009238
enter,0.004848
entrepreneur,0.008353
era,0.005240
eric,0.047270
erron,0.009499
erupt,0.008281
escap,0.006658
espagnol,0.016263
establish,0.038935
estat,0.021181
estim,0.004667
ethnic,0.006544
european,0.016523
event,0.004316
eventu,0.014141
everi,0.004150
evid,0.004522
excoloni,0.015557
exempt,0.008620
expect,0.004556
experi,0.004078
explor,0.010106
express,0.004297
exslav,0.029013
extend,0.004374
extern,0.002593
extremist,0.011184
eye,0.006630
f,0.004885
face,0.004978
fact,0.008422
facto,0.008040
fail,0.009973
fair,0.006717
famou,0.010958
farmer,0.007020
father,0.005831
fbi,0.011850
fear,0.006223
featur,0.004485
februari,0.010777
feder,0.015842
fee,0.007762
feet,0.008099
fell,0.006405
felt,0.007001
femal,0.006658
fernando,0.020605
fever,0.009453
fight,0.006223
final,0.012869
financ,0.005255
financi,0.004734
finish,0.007631
fisheri,0.009015
fitzgerald,0.012217
fiveyear,0.008076
flavour,0.011514
fleur,0.014891
flush,0.012410
focu,0.004865
follow,0.011348
forc,0.003554
foreign,0.004616
form,0.013554
formal,0.004437
format,0.004837
fort,0.078694
fourteen,0.009644
franchis,0.009575
free,0.036459
freed,0.018286
freedom,0.005598
french,0.042956
frenchmen,0.012410
frenchspeak,0.011761
fresh,0.007966
friar,0.023029
fuel,0.019716
fulfil,0.007171
futur,0.004319
gaiutra,0.016263
game,0.006085
garrison,0.008986
gave,0.015482
gedd,0.013316
gen,0.010462
gener,0.010193
geolog,0.006777
georg,0.015334
gertrud,0.012370
ghost,0.009634
gisbas,0.015368
given,0.010671
gobin,0.016263
gokool,0.033860
gome,0.012492
govern,0.040470
governor,0.032548
governorgener,0.010142
gradual,0.005701
granada,0.011057
grand,0.006888
grandfath,0.010168
granger,0.013133
grant,0.021747
great,0.015988
grenada,0.023640
grievanc,0.010826
ground,0.005160
group,0.015995
grown,0.006830
guadeloup,0.011593
guanaguanar,0.016930
guarante,0.006505
guard,0.007412
guayri,0.016930
guiana,0.032816
guidebook,0.012668
guild,0.009822
gull,0.013133
gulshair,0.016930
guyana,0.010703
h,0.009853
ha,0.007094
haji,0.012623
half,0.024409
halifax,0.012292
hand,0.021971
head,0.004578
heathfield,0.016263
held,0.016772
hi,0.028619
high,0.010773
highpric,0.015196
hill,0.014109
hindu,0.008222
histori,0.026585
historian,0.005976
holi,0.007509
home,0.010128
hosay,0.016930
hostag,0.031571
hour,0.006232
hous,0.009515
howev,0.008634
hundr,0.010777
hunt,0.014315
ideal,0.005770
ii,0.009282
immedi,0.005213
immigr,0.042345
import,0.006049
improp,0.010462
incent,0.007383
includ,0.014771
incom,0.005432
incorpor,0.004870
increas,0.013641
indentur,0.075660
indentureship,0.016930
independ,0.018213
indi,0.045005
india,0.010859
indian,0.064578
indic,0.004362
indigen,0.021213
indotrinidadian,0.031999
industri,0.004048
influenc,0.007812
inform,0.003525
infrastructur,0.006004
inhabit,0.012330
initi,0.003853
instead,0.004153
instruct,0.006676
interrog,0.010571
invalid,0.008902
invest,0.005049
isbn,0.025155
isla,0.010790
island,0.126156
isol,0.005758
issu,0.003805
jacob,0.015993
jail,0.030388
jamaat,0.072533
jamaica,0.030543
jamaican,0.012812
jame,0.010003
januari,0.010122
jean,0.014710
jeffrey,0.009214
jo,0.016877
joe,0.010168
join,0.005275
joint,0.006244
jonathan,0.008291
joseph,0.005844
juan,0.017462
juli,0.020490
jump,0.016376
kairi,0.016930
kamla,0.015557
kashmiriborn,0.016930
kept,0.006390
kill,0.005854
kingdom,0.009434
kirk,0.011366
known,0.002963
kurlanski,0.014626
la,0.017756
labor,0.005822
labour,0.060030
lake,0.013987
lampsinsberg,0.016930
land,0.017950
landslid,0.010066
lara,0.014286
larg,0.015624
largest,0.004897
lassal,0.014891
later,0.010578
laugh,0.011703
launch,0.005971
laventil,0.033860
law,0.007143
le,0.007063
lead,0.003537
leader,0.031108
leadership,0.012866
leav,0.005021
led,0.045921
lee,0.008063
leeward,0.010703
legal,0.004892
legisl,0.005428
len,0.008993
lesser,0.007269
libr,0.011593
lifestyl,0.008444
like,0.003166
limit,0.010863
linda,0.009778
line,0.004243
link,0.002578
litho,0.014393
live,0.007667
local,0.008031
locat,0.004359
london,0.024961
long,0.007699
longrumor,0.016930
loss,0.010371
low,0.004543
loyal,0.009037
lum,0.015999
lure,0.011366
m,0.016961
madeira,0.012668
mainli,0.004921
major,0.009436
make,0.006029
man,0.026228
mani,0.010718
mara,0.010275
march,0.014749
margarita,0.041471
margin,0.012994
marginalis,0.011881
marin,0.013574
mark,0.009520
market,0.008875
marston,0.013665
martiniqu,0.011514
massacr,0.025934
matter,0.004459
maxwel,0.008841
mayo,0.011647
md,0.008775
meah,0.016930
meantim,0.010603
meighoo,0.016263
member,0.026479
men,0.016492
mention,0.005739
merrimac,0.016930
migrat,0.019004
militari,0.009592
minist,0.058841
mission,0.041379
missionari,0.008395
model,0.003693
modern,0.032005
month,0.005238
montreal,0.010636
montserr,0.016569
mostli,0.005058
movement,0.012264
mr,0.015941
mucurapo,0.016930
mulatto,0.025337
multiethn,0.011514
murder,0.007529
muslim,0.013260
muslimeen,0.046672
mutin,0.024435
mutini,0.010302
n,0.005324
naipaul,0.015368
nar,0.147545
narcot,0.010938
narrow,0.006694
nation,0.019711
nativ,0.006127
naval,0.007478
nazaret,0.016930
near,0.014623
nearbi,0.007296
neighbor,0.006688
neighbour,0.014484
neukurland,0.016930
new,0.026482
newson,0.016263
nichola,0.007974
nieuwwalcheren,0.016930
nomin,0.006188
nonviol,0.010220
north,0.004707
notabl,0.004549
note,0.003418
nought,0.016263
novemb,0.005317
nuestra,0.014088
number,0.008897
obtain,0.009216
occasion,0.006688
occur,0.003766
octob,0.010253
odyssey,0.010447
offer,0.008817
offic,0.014316
offici,0.004501
oil,0.071009
old,0.004905
onli,0.016374
open,0.008117
oper,0.003740
oppos,0.004954
opposit,0.014634
order,0.003267
organis,0.005613
origin,0.006571
orinoco,0.012913
orua,0.016930
outbreak,0.008067
overthrow,0.008608
owner,0.006706
pa,0.009238
panday,0.067721
panyol,0.016263
paramin,0.016930
pari,0.006483
paria,0.016569
pariah,0.014626
parliament,0.017938
parliamentarian,0.011141
parti,0.032071
partial,0.005453
partnership,0.007462
pass,0.009211
passag,0.007063
passiv,0.008169
patrick,0.017170
peac,0.011435
peaceabl,0.014393
pearl,0.009151
pearlfisheri,0.016930
peninsula,0.007886
peopl,0.026149
period,0.024658
persadbissessar,0.015999
person,0.003879
petroleum,0.022863
phillip,0.018349
pioneer,0.006193
pirat,0.009444
pitch,0.020258
place,0.003352
plantat,0.051029
planter,0.021877
plaza,0.011098
plural,0.007624
plymouth,0.012181
pnm,0.127663
pod,0.012145
point,0.006877
polic,0.006593
polici,0.004387
polit,0.022325
ponc,0.012535
poorli,0.007849
popul,0.037963
popular,0.004241
port,0.026797
portion,0.011914
portugues,0.007546
posit,0.003513
postal,0.009127
postblack,0.016930
power,0.017395
precolumbian,0.020955
predict,0.004974
prepar,0.005513
presid,0.014749
press,0.004001
price,0.015098
priest,0.016099
primarili,0.004647
prime,0.054621
princ,0.007336
prior,0.010269
privi,0.020718
probabl,0.014634
problem,0.003635
proclam,0.009747
produc,0.003537
product,0.010629
programm,0.006534
properti,0.004116
proport,0.005620
proportion,0.010017
propos,0.004194
prosper,0.007028
protest,0.018953
proud,0.011141
proudbailey,0.016930
provid,0.003016
provis,0.006621
proxim,0.007857
publish,0.007546
pursima,0.016930
qualif,0.008638
quartier,0.014393
queen,0.007135
quo,0.009481
r,0.004549
radic,0.006232
raffiqu,0.016930
raid,0.008094
raleighwho,0.016930
randolph,0.012370
rapidli,0.005731
reach,0.004381
read,0.003744
rearrest,0.030737
receiv,0.004119
recent,0.003733
reclaim,0.010066
reconstruct,0.006756
record,0.004544
recoveri,0.007177
recruit,0.023847
redman,0.030075
reduc,0.008169
reestablish,0.016425
refer,0.004312
refin,0.006763
refus,0.006292
regain,0.008281
regiment,0.019431
region,0.003860
reid,0.010669
reindentur,0.016930
reinforc,0.014685
reject,0.005315
relat,0.002907
releas,0.010777
reloc,0.008888
reluct,0.008788
remain,0.035658
reorganis,0.011119
repay,0.009112
replac,0.004393
report,0.008288
represent,0.005439
republ,0.015181
request,0.006553
resid,0.005712
resign,0.007367
resist,0.005587
resolut,0.013191
respond,0.005815
respons,0.011218
restor,0.006097
result,0.012013
resurg,0.009222
retain,0.005670
return,0.008727
revolut,0.005341
rex,0.011489
richard,0.005326
riot,0.017229
river,0.005894
rivir,0.014286
road,0.012525
robinson,0.017682
roman,0.005783
rosa,0.021801
royal,0.005688
rudranath,0.016930
ruin,0.008573
ruknaddeen,0.016930
rule,0.011807
rum,0.011489
rust,0.011620
s,0.015289
said,0.004430
salari,0.007974
sampson,0.013076
san,0.020541
santa,0.025634
santosgranero,0.016930
santsima,0.015999
savana,0.015999
savaneta,0.016569
savonetta,0.016263
saw,0.010552
sawh,0.016263
schedul,0.007166
sea,0.005501
search,0.011037
seat,0.057424
second,0.014154
secular,0.014924
secur,0.004580
sedeo,0.050791
sent,0.005976
seora,0.014286
septemb,0.010399
seri,0.004295
seriou,0.006040
serv,0.004291
servant,0.008312
servic,0.004200
set,0.006679
settl,0.049022
settlement,0.088088
settler,0.040565
seven,0.016973
sever,0.006256
shah,0.009981
shook,0.023952
shortag,0.015659
shortliv,0.008471
shukrijumah,0.016930
sight,0.008000
signific,0.003830
silk,0.008958
sinanan,0.015999
singl,0.004015
sir,0.027091
sit,0.015864
site,0.005054
situat,0.004619
slave,0.099266
slaveown,0.014088
slaver,0.013448
slaveri,0.015814
societi,0.007519
soodeen,0.016930
sookoo,0.016930
soon,0.005502
soughtaft,0.013193
sourc,0.003774
south,0.014097
spain,0.025506
spanish,0.084360
specif,0.003590
split,0.006167
st,0.014511
stabil,0.005596
standard,0.004041
standoff,0.012110
star,0.006654
stark,0.030388
state,0.010502
statu,0.005011
steadili,0.007915
sterreschan,0.016930
stollmey,0.033860
strain,0.007458
strike,0.006674
struck,0.008533
structur,0.003505
student,0.005107
subsequ,0.004682
succeed,0.006134
success,0.011937
suffrag,0.008821
sugar,0.014623
sugarcan,0.010220
suicid,0.008603
suppli,0.009783
support,0.003567
suppress,0.006871
surrend,0.041333
surviv,0.005175
survivor,0.009322
sussex,0.011319
sworn,0.009556
sympathi,0.009833
tacarigua,0.016930
taken,0.004393
tallest,0.011912
tax,0.005639
tension,0.006815
term,0.005670
teteron,0.033860
th,0.010322
thcenturi,0.006919
themselv,0.008901
thi,0.026933
thirteen,0.009001
threat,0.006293
thu,0.007015
time,0.007964
timelin,0.007063
titular,0.011540
tobago,0.439105
togeth,0.004137
took,0.004687
topiawari,0.016930
total,0.004186
tower,0.008775
town,0.024648
trade,0.013022
traffick,0.009969
transfer,0.005134
treati,0.012532
tree,0.006181
tri,0.009446
trinidad,0.605954
trinidadian,0.048791
trip,0.008291
troch,0.016263
troi,0.014626
tt,0.011037
tub,0.013253
uk,0.005500
ulf,0.013908
unabl,0.012471
unarm,0.011790
unc,0.142631
undergradu,0.007992
union,0.013376
uniqu,0.010232
unit,0.018159
univers,0.012431
unresolv,0.010194
upheld,0.010508
use,0.002451
v,0.005350
valiama,0.016930
valid,0.017190
venezuelan,0.022546
verteuil,0.033860
victori,0.006949
video,0.006604
view,0.011537
villag,0.013713
vincent,0.009509
violenc,0.007146
vlissingen,0.033860
voic,0.007151
vote,0.011380
voyag,0.016415
wa,0.135319
walcheren,0.015999
walter,0.021473
war,0.021313
wave,0.006051
way,0.003208
wealthiest,0.010508
week,0.006306
weight,0.006048
went,0.011007
west,0.051523
westminst,0.010005
white,0.011394
whitehal,0.013665
william,0.052891
win,0.013494
windward,0.011250
winp,0.016930
wish,0.013269
witch,0.010826
withdraw,0.014425
withdrew,0.016866
woman,0.007492
women,0.011421
won,0.060743
work,0.017650
worker,0.011171
world,0.009126
yasin,0.014626
year,0.042396
yellow,0.008427
zeeland,0.014184
