accept,0.005629
acclim,0.018648
accompani,0.008668
accord,0.013451
action,0.011018
activ,0.008948
addit,0.009072
administr,0.018808
affair,0.007414
afghanistan,0.011503
ago,0.017376
agre,0.020280
agreement,0.020532
aid,0.006726
airfield,0.014381
airlin,0.011413
albert,0.009113
alcohol,0.030881
allegedli,0.011546
alli,0.008281
allow,0.008917
ammunit,0.027880
angam,0.045678
anglogerman,0.018782
annex,0.030602
annual,0.006887
appeal,0.008350
appoint,0.007370
approach,0.010320
april,0.006859
aquacultur,0.015540
arab,0.008281
area,0.008906
arm,0.007149
armi,0.023137
arrang,0.014619
arrear,0.015921
arrest,0.009854
arriv,0.021653
asset,0.008289
asylum,0.012986
attack,0.007229
attempt,0.005114
attent,0.007311
august,0.006813
australia,0.109112
australian,0.065277
auweyida,0.022839
auxiliari,0.012653
axi,0.010283
babi,0.011722
background,0.007700
badli,0.012189
ban,0.018068
banish,0.028662
bank,0.019452
bankrupt,0.013582
bbc,0.010200
beachcomb,0.019978
becam,0.019767
began,0.026993
bernard,0.010530
board,0.023399
boat,0.010778
bomb,0.010236
border,0.007964
born,0.007637
bpc,0.043567
brigadi,0.015277
britain,0.007616
british,0.018110
broke,0.009271
brought,0.013329
buada,0.021382
built,0.013480
bureau,0.020452
burk,0.013600
canberra,0.014564
cano,0.027838
cantilev,0.019770
capita,0.009827
captain,0.021855
captiv,0.011597
captur,0.007435
cargo,0.012082
carri,0.005837
catch,0.010901
caus,0.009666
censu,0.010618
centr,0.014891
centuri,0.009299
ceremoni,0.009995
certain,0.009912
chang,0.004082
chief,0.030162
china,0.027828
christian,0.007017
chuuk,0.038459
civil,0.006211
clan,0.023744
clark,0.010484
clodumar,0.042764
close,0.009690
coconut,0.013267
codenam,0.015277
coexist,0.011445
collaps,0.007977
combin,0.005164
command,0.015195
commiss,0.007209
commission,0.011137
common,0.004379
commonwealth,0.009354
compani,0.017155
compens,0.009153
complaint,0.012000
conclud,0.007407
condit,0.015202
confisc,0.012719
constitut,0.005718
contact,0.007599
continu,0.004388
control,0.009623
convent,0.007013
convict,0.010496
coral,0.011970
corpor,0.014211
cost,0.006367
cotruste,0.022839
countri,0.009532
courier,0.015788
court,0.020608
creat,0.008860
crew,0.011389
crime,0.008985
cruiser,0.015207
damag,0.023448
day,0.010930
deal,0.023338
death,0.006343
debat,0.006742
decad,0.006583
decemb,0.019939
declar,0.006995
declin,0.006876
deibo,0.022839
deni,0.008396
depart,0.012700
deport,0.012465
depot,0.014761
deroburt,0.022839
descent,0.010390
desper,0.012800
destroy,0.007573
detent,0.013898
develop,0.003622
diamantina,0.021382
dictat,0.010357
did,0.016129
diplomat,0.025813
discov,0.006378
disput,0.007285
disrupt,0.009332
dollar,0.008462
dowiyogo,0.063103
dozen,0.010130
dure,0.012507
dymphana,0.022839
eamgum,0.022839
eamwidamit,0.022839
eamwidara,0.022839
eamwit,0.022839
eano,0.022839
earli,0.008722
eber,0.015349
economi,0.005954
ed,0.006104
elli,0.013202
embassi,0.010797
emeo,0.022839
emir,0.012429
encount,0.008588
end,0.004767
engag,0.006905
english,0.006072
environment,0.014020
eoraru,0.022839
epidem,0.012103
escap,0.008754
establish,0.018613
european,0.016293
exchang,0.006163
execut,0.006605
exhaust,0.010195
exploit,0.016234
export,0.007998
extern,0.003409
fabriciu,0.018067
failur,0.007586
fast,0.008926
favor,0.007201
fearn,0.019978
fell,0.008421
femal,0.008754
fertilis,0.015313
fifth,0.009285
figur,0.006457
final,0.011279
financi,0.006224
finit,0.009017
firearm,0.026981
firth,0.016595
fish,0.016270
flag,0.031236
flourish,0.009596
flown,0.014619
follow,0.011189
food,0.020131
forc,0.014020
foreign,0.006069
fourth,0.008135
free,0.005325
fresh,0.010473
freshwat,0.012323
fruit,0.009239
fund,0.006428
gain,0.005672
gave,0.013569
gdp,0.008769
gener,0.003350
german,0.072433
germani,0.035103
gilbert,0.022304
gilbertes,0.020205
govern,0.022169
grant,0.007147
guinea,0.011009
gun,0.010948
gunboat,0.015620
ha,0.003109
habit,0.009885
hail,0.012526
hammer,0.013619
harri,0.009805
hawk,0.012381
held,0.005512
heyday,0.015138
hi,0.004180
hiatu,0.015277
high,0.004721
highest,0.014280
histori,0.011650
hma,0.018174
hour,0.008193
hous,0.006254
howev,0.003784
human,0.008984
hunger,0.025656
hunter,0.023629
ibija,0.022839
identifi,0.005636
ii,0.024408
illeg,0.009395
immigr,0.009278
impress,0.009517
includ,0.003236
incorpor,0.006402
independ,0.009577
indonesia,0.011044
influenza,0.029582
infrastructur,0.007894
initi,0.005066
innumer,0.014974
institut,0.004933
intern,0.020429
introduct,0.006181
irish,0.011058
irutsi,0.022839
iruwa,0.022839
isbn,0.005511
island,0.193501
issu,0.005003
iwi,0.018400
j,0.005855
januari,0.026616
japanes,0.071087
john,0.010606
join,0.006935
jone,0.031056
judgment,0.009881
june,0.006792
justic,0.015759
juvenil,0.013696
kept,0.008401
kill,0.007696
king,0.014852
kingdom,0.018605
kinza,0.021382
knowledg,0.005864
known,0.011687
komet,0.045678
labour,0.007892
lagoon,0.014761
land,0.017699
late,0.005397
later,0.013908
launder,0.014564
law,0.004696
lax,0.015039
leagu,0.009564
leav,0.006601
led,0.015093
legal,0.012864
leprosi,0.017425
lieuten,0.012441
link,0.003389
list,0.004334
live,0.015120
load,0.010696
local,0.005279
maintain,0.005435
major,0.008270
make,0.007927
mandat,0.009711
mani,0.007046
manofwar,0.020205
march,0.012927
marin,0.008923
marri,0.009771
marshal,0.010330
matter,0.005863
medic,0.007177
meet,0.006306
men,0.014455
merchant,0.009257
micronesian,0.034094
mid,0.007761
millennium,0.009728
million,0.018366
minedout,0.022839
minim,0.008226
mismanag,0.014257
missionari,0.022075
modern,0.004675
modernday,0.011094
money,0.020897
monitor,0.008429
morn,0.022651
mostli,0.013300
munit,0.014282
narcot,0.014381
nation,0.017276
nativ,0.024168
nauru,0.833301
nauruan,0.205136
navi,0.009329
nawodo,0.022839
nazi,0.010868
need,0.004685
new,0.024371
news,0.008507
norfolk,0.015386
norway,0.010954
norwegian,0.012114
note,0.004493
observ,0.005144
occas,0.009694
occup,0.008121
occupi,0.015627
ocean,0.008020
oceania,0.011910
octob,0.013480
offer,0.005795
offic,0.012547
oil,0.007779
onawero,0.022839
onetim,0.015138
onli,0.007175
oper,0.004917
organ,0.004251
orion,0.015424
outbreak,0.010606
outofcourt,0.043567
outsid,0.005946
pacif,0.045170
pandanu,0.017867
paradis,0.013961
parliament,0.007861
particular,0.004878
pass,0.012110
patrick,0.011287
pay,0.021830
peac,0.007517
peopl,0.017189
perform,0.005479
perhap,0.007245
permit,0.007938
phosphat,0.228981
pinnacl,0.015500
plan,0.005902
pleasant,0.013856
point,0.004521
polit,0.004891
polynesian,0.028054
popul,0.005545
posit,0.004619
power,0.004573
prc,0.014458
presid,0.032318
prevent,0.012779
price,0.006616
primarili,0.006109
prison,0.009486
promis,0.008398
prospector,0.017118
protector,0.022117
protest,0.008306
provid,0.007931
purchas,0.007601
purpos,0.005813
pursu,0.008128
r,0.005980
rais,0.013184
ranibok,0.022839
rasch,0.019978
reach,0.005760
read,0.004923
recent,0.004908
recognit,0.007769
reduc,0.005369
reduct,0.008156
reef,0.012441
reelect,0.011546
reestablish,0.010797
refer,0.002834
reform,0.006933
refuge,0.031837
regain,0.010887
rehabilit,0.012222
relat,0.007643
reliabl,0.008475
remedi,0.011211
remov,0.006544
repatri,0.013795
replenish,0.014210
report,0.010896
repres,0.013949
republ,0.019958
reputedli,0.016537
rescu,0.011248
reserv,0.015077
result,0.003948
return,0.017210
right,0.005086
robert,0.006232
roc,0.015071
roughli,0.007951
round,0.008979
royal,0.007479
royalti,0.025855
rule,0.005174
ruler,0.009470
run,0.012458
russian,0.008298
s,0.004020
safehous,0.021783
salari,0.010484
sale,0.008257
sank,0.014094
scheme,0.008531
sea,0.007232
second,0.009304
seeker,0.014820
seizur,0.012640
selfgovern,0.011241
septemb,0.006835
serv,0.005642
servant,0.010927
servic,0.005522
set,0.004391
settl,0.016112
settlement,0.024816
settler,0.010666
sever,0.012338
shell,0.009540
ship,0.072386
shipload,0.021382
shipment,0.013016
shortli,0.008822
sign,0.012990
signific,0.005035
sinc,0.003944
sm,0.014331
smallest,0.010267
social,0.005018
solda,0.022839
solut,0.006749
sourc,0.004962
standard,0.005313
star,0.017497
start,0.009987
state,0.024162
statist,0.012944
stevenson,0.015006
stewart,0.012526
stint,0.017867
storag,0.009387
store,0.007992
strike,0.017550
stripmin,0.022839
sturde,0.022839
subject,0.005018
subsist,0.010861
suffer,0.007200
suitabl,0.008757
sunk,0.014163
suppli,0.025725
suppress,0.009034
surrend,0.032604
surviv,0.006803
suscept,0.011373
taiwan,0.011101
taken,0.005776
tampa,0.018284
tax,0.007414
team,0.008238
thereaft,0.010314
thi,0.014753
thirti,0.010636
time,0.006980
timelin,0.009285
today,0.005667
toddi,0.022839
told,0.010005
took,0.018488
tow,0.015921
trace,0.007564
trade,0.005706
trader,0.019423
tradit,0.009935
traffick,0.013107
train,0.006812
tran,0.012103
transact,0.008494
transport,0.006762
treat,0.006907
tribe,0.038846
trienza,0.022839
troop,0.035617
trust,0.017247
truste,0.027880
trusteeship,0.015620
tuberculosi,0.014027
turn,0.005453
twelv,0.031220
twelvepoint,0.021783
twentieth,0.009307
twoyear,0.012828
uk,0.007230
ultim,0.006823
unit,0.031832
univers,0.004085
use,0.012893
v,0.007034
ventur,0.010390
veri,0.004505
vernon,0.014820
virtual,0.007801
visit,0.007925
visitor,0.010790
vote,0.007481
wa,0.071161
war,0.056040
warship,0.012913
wasteland,0.016977
water,0.006085
weapon,0.008760
weasel,0.018521
welfar,0.009086
whale,0.024579
white,0.007489
wide,0.005081
wilhelm,0.009931
william,0.006321
woman,0.009849
work,0.003867
world,0.035996
year,0.019906
yield,0.007706
zealand,0.046901
