academ,0.035987
access,0.008311
achiev,0.007556
actual,0.007687
affect,0.007849
agenda,0.013993
alexand,0.011508
alon,0.010272
american,0.006805
anachron,0.022153
analys,0.011743
analysi,0.014481
andor,0.010511
ani,0.010587
annal,0.032234
annual,0.009227
anywher,0.014702
appli,0.012842
applic,0.014347
approach,0.027651
area,0.005965
argu,0.015981
art,0.009189
articl,0.021416
articleabstract,0.027400
ashley,0.022077
ask,0.009929
aspect,0.007894
associ,0.046942
avail,0.007342
away,0.009150
b,0.007956
bairoch,0.026764
bank,0.017373
barker,0.020372
baten,0.026764
becaus,0.005452
begin,0.007062
believ,0.014982
berkeley,0.014145
bibliographi,0.010533
blackwel,0.015141
boldizzoni,0.026226
book,0.013767
britain,0.010203
british,0.016174
bureau,0.013699
busi,0.048988
c,0.013863
calcul,0.009242
california,0.011110
cambridg,0.048036
cameron,0.018791
capit,0.031557
capita,0.013165
career,0.011899
case,0.012130
centr,0.009974
centuri,0.024916
chair,0.013624
chang,0.016407
charl,0.009290
chicago,0.023645
chines,0.010427
cipolla,0.024346
class,0.008046
claud,0.015715
clio,0.023686
cliometr,0.119678
cliometrica,0.083303
cliometrician,0.027400
closur,0.015666
coin,0.010045
combin,0.013835
come,0.006938
complex,0.007099
compon,0.016710
concern,0.013622
concis,0.014776
confer,0.028651
congress,0.021741
consequ,0.008250
constitu,0.011361
consumpt,0.011316
contenti,0.017241
convers,0.010009
costa,0.017185
counterfactu,0.042300
countri,0.012769
cours,0.008456
cover,0.007988
craft,0.014594
critic,0.007136
crucial,0.011810
cultur,0.007295
data,0.023229
databas,0.022702
databaseseri,0.028178
dataweb,0.027767
debtdefl,0.025985
decad,0.017639
decis,0.008180
deepen,0.017436
deflat,0.035635
demeulemeest,0.028178
demograph,0.013027
demonstr,0.008721
deng,0.021268
depart,0.034027
depress,0.012054
descript,0.008869
develop,0.043671
dictionari,0.023526
diebolt,0.027767
differ,0.005143
dimens,0.011163
directori,0.016286
disciplin,0.017880
discov,0.008544
discret,0.011443
discuss,0.007916
disequilibrium,0.041029
disput,0.009759
distinct,0.007472
distribut,0.008005
doi,0.064225
domin,0.015968
dora,0.023808
douglass,0.044307
e,0.007862
earli,0.011684
econom,0.722359
econometr,0.034370
econometrica,0.020713
economi,0.031909
economicstest,0.028178
economist,0.054833
ed,0.016354
educ,0.014883
ehe,0.026764
ehnet,0.048693
eighth,0.016300
emerg,0.007486
empir,0.016301
employ,0.007748
encyclopaedia,0.018453
encyclopedia,0.030181
energi,0.008177
entangl,0.017977
enterpris,0.010995
environment,0.009391
episod,0.014346
era,0.009229
essay,0.011319
establish,0.006233
europ,0.007920
european,0.014551
event,0.007601
eventu,0.008302
evolut,0.009484
evolv,0.009588
exampl,0.005231
excerpt,0.016144
exert,0.013403
exist,0.005808
explain,0.015727
explanatori,0.016463
explor,0.008900
extend,0.007704
extern,0.004567
f,0.008604
fact,0.007416
featur,0.007899
field,0.057411
financ,0.009255
financi,0.025017
firstpag,0.028178
fisher,0.015411
fogel,0.021928
follow,0.004996
food,0.008989
forc,0.006260
form,0.009548
forthcom,0.018911
forum,0.012828
franc,0.008942
francesco,0.018347
french,0.008406
friedman,0.016144
galambo,0.025985
gdp,0.023494
gener,0.017953
german,0.008821
germani,0.009405
glasgow,0.018347
global,0.016590
gra,0.023235
graduat,0.023409
great,0.021119
greek,0.008845
groningen,0.022836
growth,0.023718
gustav,0.015982
ha,0.024989
harri,0.013136
harvard,0.012203
health,0.008707
heavili,0.010070
help,0.006838
heroic,0.018296
heyday,0.020280
hi,0.033603
higher,0.007425
histoir,0.018761
histor,0.084198
histori,0.463025
historian,0.105254
historicalstatisticsorglink,0.028178
historyth,0.025161
hour,0.021952
howev,0.015207
hugh,0.014657
ieha,0.028178
ignor,0.010834
impact,0.008560
imperi,0.012168
import,0.005327
inaugur,0.014430
includ,0.026016
incom,0.009567
inde,0.010620
independ,0.006415
india,0.009562
individu,0.006442
inflat,0.011763
influenc,0.013759
initi,0.006786
insepar,0.018618
insight,0.011586
institut,0.019828
insur,0.012042
integr,0.007537
intern,0.005473
interpret,0.008333
interwar,0.017685
introduct,0.008280
involv,0.006055
involveddefl,0.028178
irv,0.016830
isbn,0.022151
issu,0.033513
j,0.007844
jeanluc,0.021583
jonathan,0.014603
journal,0.048202
joyr,0.028178
jrg,0.021717
jstor,0.047146
julia,0.018675
kadish,0.027067
kent,0.018732
kindleberg,0.023935
known,0.010437
kuznet,0.022394
labor,0.010254
larg,0.005503
larri,0.017093
late,0.007230
law,0.006290
led,0.013479
light,0.017218
limit,0.006377
link,0.027243
list,0.005806
live,0.006751
london,0.008792
longer,0.008612
lou,0.021717
lse,0.147252
m,0.007468
maddison,0.023686
mail,0.016358
mainstream,0.012672
major,0.011079
make,0.010619
mani,0.018878
manifest,0.012012
markowitz,0.022564
mathemat,0.008208
max,0.012760
meanwhil,0.012626
meet,0.008448
memori,0.065170
merton,0.019198
method,0.019400
middl,0.008609
miller,0.014577
milton,0.015501
minor,0.009662
model,0.013008
modern,0.006263
mokyr,0.023235
moment,0.011879
monetari,0.011193
muschallik,0.028178
muse,0.019299
myth,0.013334
mytholog,0.014603
n,0.009377
narrowli,0.016228
nation,0.005785
neal,0.019439
necessari,0.008321
neglect,0.013658
neoclass,0.015802
new,0.032648
nfr,0.025549
nobel,0.072929
north,0.016581
northwestern,0.015852
notabl,0.008012
note,0.006020
number,0.005223
numer,0.007735
oecd,0.015456
onli,0.014419
open,0.007148
oppos,0.008725
order,0.005754
origin,0.005786
overlap,0.011605
oxford,0.068674
p,0.007970
paleolith,0.017279
palgrav,0.031003
panic,0.035035
paradox,0.013353
pari,0.011418
past,0.016566
pastfrom,0.028178
paul,0.009076
pdf,0.012085
period,0.006204
person,0.006832
perspect,0.009343
peter,0.009521
phd,0.013492
phenomena,0.019939
poetri,0.014568
polici,0.007727
polit,0.006553
poor,0.010324
popul,0.007429
posit,0.012376
pp,0.009761
present,0.011973
press,0.021140
primarili,0.016369
prize,0.055834
prizewin,0.019403
proceed,0.010957
process,0.005660
product,0.006240
profession,0.009702
professor,0.010701
program,0.015063
programm,0.046034
proper,0.010742
prospect,0.012723
provis,0.011662
public,0.012060
publish,0.019937
pure,0.009467
quantit,0.044495
r,0.008012
rang,0.007187
read,0.006595
realm,0.011995
recent,0.026302
redefin,0.016797
refer,0.011391
region,0.013600
regul,0.008989
regular,0.010403
reiter,0.018347
relat,0.010239
relationship,0.007248
relev,0.009932
remain,0.006280
renew,0.011104
research,0.030802
retain,0.009986
retrospect,0.016714
review,0.051051
revolv,0.015478
right,0.006814
rise,0.007641
risk,0.009343
robert,0.008349
rondo,0.024650
root,0.009592
roser,0.027400
roy,0.015571
s,0.016157
say,0.016454
schmoller,0.025350
scholar,0.009643
scholarship,0.013578
school,0.030903
scienc,0.025546
seen,0.007450
separ,0.041625
seri,0.007564
servic,0.014797
sharp,0.012834
simon,0.012697
sinc,0.005284
situat,0.008136
social,0.033614
societi,0.039728
solid,0.011358
sort,0.011084
sought,0.010295
special,0.013219
specialist,0.013113
split,0.010861
spread,0.009341
stabil,0.009856
standalon,0.018703
standard,0.007118
stanley,0.013919
start,0.013379
state,0.009248
statist,0.026010
statu,0.008826
structur,0.006174
student,0.008995
studi,0.055850
subject,0.006722
subsum,0.017664
summer,0.012226
survey,0.020316
systemat,0.010096
t,0.018390
teach,0.010352
techniqu,0.008121
technolog,0.007619
temin,0.023131
tend,0.008678
tendenc,0.047468
term,0.004993
th,0.030299
theori,0.043362
thi,0.023717
thought,0.014979
time,0.004675
tirthankar,0.026226
today,0.007592
togeth,0.007287
topic,0.033540
total,0.007373
tradit,0.006654
train,0.009125
treat,0.009254
trend,0.020188
twenti,0.012998
type,0.006353
uk,0.029060
undergradu,0.014076
understood,0.019836
undertaken,0.013618
unit,0.021321
univers,0.082103
use,0.021591
util,0.009560
v,0.047115
variou,0.012032
vast,0.010612
view,0.006773
violenc,0.012586
visualis,0.039708
vol,0.022716
von,0.010718
wa,0.021666
war,0.007507
warn,0.012708
warrant,0.016300
way,0.005650
web,0.011457
wide,0.006806
widespread,0.010153
william,0.016936
wit,0.012872
women,0.010057
won,0.053491
work,0.005180
world,0.037505
worldwid,0.010721
write,0.016526
wrote,0.009004
xv,0.019584
xvi,0.018675
yale,0.028894
year,0.016000
york,0.008139
