abl,0.007004
ablebodi,0.004216
abolish,0.004634
abov,0.001419
abroad,0.004816
absenc,0.002038
absolut,0.001881
abund,0.002249
accept,0.004177
access,0.006138
accompani,0.002144
accord,0.008872
accus,0.004448
achiev,0.004185
acquir,0.001806
act,0.006337
acta,0.003538
action,0.006813
activ,0.002213
actor,0.002556
ad,0.005661
addit,0.002244
address,0.001670
adjac,0.002538
administr,0.004652
admir,0.002627
adolphu,0.004680
adopt,0.010713
advanc,0.008218
aestii,0.011669
affair,0.009169
affect,0.002898
afford,0.002381
aftermath,0.002763
age,0.018056
aggress,0.002471
ago,0.002149
agrarian,0.003007
agre,0.005016
agreement,0.011850
agricultur,0.001648
ahead,0.002589
aibofolk,0.005834
aiboland,0.011669
ain,0.003927
ainervin,0.011669
air,0.001703
airplan,0.003253
airport,0.002442
alcohol,0.012730
aldi,0.005127
aleksand,0.004419
alexand,0.004249
alien,0.005198
aliv,0.002771
allestonian,0.005834
alli,0.012290
allianc,0.002074
alloc,0.004426
allow,0.007720
alongsid,0.002306
altar,0.003696
altern,0.004275
altogeth,0.002749
ambassador,0.002721
amber,0.003497
ambiti,0.002870
amend,0.002338
amnesti,0.003197
analysi,0.002673
anatol,0.004290
ancestor,0.002383
ancient,0.009641
andor,0.001940
andr,0.002894
andropov,0.019991
andru,0.014527
ani,0.008797
anim,0.003104
annex,0.005046
anniversari,0.002941
announc,0.005587
annum,0.006972
anomal,0.003373
ansip,0.027527
antheil,0.005834
anticommunist,0.003563
anticorrupt,0.003744
antiparliamentari,0.005649
antiqu,0.002295
antisoviet,0.004551
anvelt,0.005834
appear,0.006423
appli,0.001185
applic,0.001324
appoint,0.001823
apprehens,0.003616
appropri,0.001777
approv,0.013336
approxim,0.009068
april,0.015270
archaeolog,0.002374
archbishop,0.006917
archbishopr,0.004612
architectur,0.002091
arctic,0.003068
area,0.011015
areasnorthern,0.005834
argu,0.001475
arm,0.005305
armi,0.026707
arnold,0.002819
arrest,0.007312
arriv,0.007141
art,0.001696
artefact,0.007089
arti,0.004612
artifact,0.005255
artist,0.002327
ascend,0.002906
ask,0.007333
aspect,0.001457
aspir,0.002788
assembl,0.005194
assent,0.003491
assert,0.001905
assign,0.001992
associ,0.003250
assum,0.001536
asva,0.005834
atroc,0.003345
attach,0.002099
attack,0.010728
attempt,0.003795
attent,0.001808
attitud,0.002276
attract,0.001784
attribut,0.001724
august,0.023594
augustu,0.003281
authent,0.002809
author,0.012487
authoritarian,0.005690
autonom,0.004485
autonomi,0.020857
autumn,0.005901
avail,0.001355
averag,0.003313
avita,0.005834
avoid,0.004969
awaken,0.009418
axe,0.006068
ballot,0.003104
balt,0.004166
baltic,0.106633
balticgerman,0.005834
baltisch,0.005649
ban,0.006703
band,0.002411
baptism,0.003636
barbarossa,0.004252
base,0.003865
batori,0.011011
battalion,0.003298
battl,0.008378
battleground,0.004009
bc,0.021763
becam,0.022003
becaus,0.004026
becom,0.005352
befor,0.004568
began,0.021365
begin,0.020863
belaru,0.003422
belong,0.001889
better,0.001508
bibl,0.002681
bibliographi,0.001944
bibliotheca,0.004166
bird,0.002282
birth,0.001970
bishopr,0.031784
blockad,0.006125
bloodi,0.006279
bloodsh,0.008071
boar,0.004119
boat,0.002665
boatshap,0.011298
bodi,0.004025
bolshevik,0.010527
bolshevist,0.005388
bomber,0.006709
bone,0.010033
book,0.002541
boom,0.002537
border,0.015759
born,0.001889
bound,0.002001
branch,0.001422
brandenburg,0.004035
breast,0.003281
brethren,0.007408
brezhnev,0.008990
brief,0.002119
briefli,0.002480
broad,0.001796
broadcast,0.005189
broke,0.002293
broken,0.002229
bronz,0.013457
brother,0.015698
brotherhood,0.003589
build,0.002830
built,0.010002
burden,0.002552
burgher,0.008990
burial,0.021278
burnt,0.003437
busi,0.001507
c,0.001279
cabinet,0.006749
california,0.002051
came,0.013179
camp,0.007269
campaign,0.002010
candid,0.008252
candidaci,0.003873
candidatur,0.004551
capit,0.001456
capitul,0.007423
care,0.001682
carri,0.002887
cartel,0.010889
carv,0.002968
case,0.001119
cassiodoru,0.009883
cast,0.004550
castl,0.006073
catherin,0.003190
cathol,0.002162
caught,0.005516
caus,0.002390
ccdcoe,0.005834
ce,0.002454
ceas,0.004524
cede,0.005733
celestin,0.004842
celtic,0.003442
cemeteri,0.022999
cenotaph,0.005127
center,0.002857
centr,0.036832
central,0.003766
centreleft,0.004048
centreright,0.003905
centrist,0.007439
centuri,0.025302
ceram,0.012597
certain,0.001225
certif,0.002603
chairman,0.002533
challeng,0.001599
chanc,0.008624
chang,0.005048
char,0.004134
charact,0.001850
character,0.003397
characteris,0.002685
charg,0.001728
chernenko,0.010577
chief,0.001865
choral,0.004351
chose,0.002519
christian,0.006943
christoph,0.002347
chronicl,0.005642
chude,0.005834
church,0.018213
circl,0.002158
circul,0.002343
circular,0.002610
circumst,0.004115
cist,0.005202
citi,0.015468
citizen,0.025661
citizenship,0.002791
civil,0.006145
civilian,0.002328
claim,0.006798
class,0.004456
clay,0.002860
clear,0.006668
clearli,0.002013
climat,0.001912
close,0.001198
closer,0.002216
club,0.002597
coadjutor,0.005127
coalit,0.023875
coast,0.006132
coastal,0.007325
coin,0.005564
cold,0.002135
collabor,0.004115
collaps,0.009865
comb,0.013900
combat,0.004702
come,0.003843
comfort,0.002845
command,0.003758
commemor,0.002999
commiss,0.003566
committe,0.009609
common,0.002166
commonwealth,0.013883
commun,0.004685
communist,0.006628
compar,0.003974
comparison,0.003756
compet,0.003693
competit,0.001761
compil,0.002311
complain,0.002908
complet,0.003711
complex,0.001310
compli,0.002953
compos,0.005098
compris,0.001832
compromis,0.002575
concern,0.006288
conclud,0.001832
conclus,0.001996
concret,0.002454
condemn,0.002523
condit,0.001253
conduct,0.001535
conduit,0.003622
confeder,0.002673
confid,0.002291
configur,0.002474
confirm,0.007725
congreg,0.003238
congress,0.006021
connect,0.004424
conquer,0.009701
conqueror,0.003293
conquest,0.007241
conscript,0.003223
consensu,0.002234
consent,0.002749
consequ,0.003046
conserv,0.001778
consid,0.006268
consist,0.002397
conspiraci,0.003183
constant,0.001780
constitu,0.004195
constitut,0.012730
consul,0.005916
consumpt,0.004178
contact,0.001879
contemporari,0.001752
continu,0.008683
contrari,0.002342
contrast,0.001513
control,0.015472
controversi,0.005295
conven,0.006178
convert,0.003652
convict,0.002596
cooper,0.001712
cord,0.006395
cordedwar,0.005649
corner,0.002890
correspond,0.003252
council,0.006533
counti,0.013329
countri,0.028293
countryan,0.005834
countrysid,0.008809
coup,0.012198
courland,0.009434
cours,0.003122
court,0.001699
crackdown,0.003616
crash,0.002664
crater,0.003368
creat,0.004383
creation,0.003261
credenti,0.006673
cremat,0.003863
crew,0.002817
crime,0.006667
crimean,0.003665
crisi,0.001848
criteria,0.002243
critic,0.001317
crop,0.002214
crossroad,0.003412
crown,0.002320
crusad,0.036477
cultur,0.036368
current,0.002293
custom,0.005434
customspost,0.005834
cut,0.007607
cyber,0.003905
cyberattack,0.010577
czar,0.004443
daili,0.002095
damag,0.001933
dane,0.011363
danish,0.019832
data,0.001429
date,0.014972
david,0.001591
day,0.009462
dead,0.002245
deal,0.004329
death,0.001568
debat,0.003335
decemb,0.004931
decid,0.008729
decis,0.007551
declar,0.017302
declin,0.001700
decor,0.005817
decre,0.002572
decreas,0.005292
defeat,0.006358
defect,0.002644
defenc,0.002180
defend,0.004008
defens,0.005898
defin,0.002458
delay,0.002288
deleg,0.002529
deliber,0.002398
deliv,0.004223
demand,0.001599
democraci,0.005986
democrat,0.010531
demograph,0.002405
demonstr,0.004830
deni,0.002076
denmark,0.026278
depict,0.002234
deport,0.021582
deputi,0.002399
descend,0.002168
describ,0.001102
design,0.005263
despit,0.006076
destroy,0.009366
devast,0.002543
develop,0.008063
dialect,0.002635
diaspora,0.003245
dictat,0.002561
dictatorship,0.002894
did,0.013298
die,0.010299
differ,0.003798
difficult,0.003124
diplomat,0.012770
direct,0.003568
disagr,0.002547
disappear,0.004555
disappoint,0.003074
disarm,0.003629
disast,0.002474
disband,0.003113
discourag,0.002704
discov,0.001577
discuss,0.002923
disillusion,0.004234
disloy,0.004645
dismiss,0.002386
disput,0.001801
disrupt,0.002308
dissidentl,0.005834
dissolut,0.002699
district,0.004333
divers,0.001722
divid,0.008523
divis,0.007763
doctrin,0.002148
document,0.003459
domest,0.003712
domin,0.002948
dominion,0.003059
dorpacki,0.005649
dorpat,0.034984
dozen,0.002505
draft,0.004624
drain,0.003089
dramat,0.002023
drew,0.002468
drop,0.001966
drought,0.002924
dtat,0.008625
ducatu,0.005388
duchi,0.010475
durat,0.002551
dure,0.023718
duti,0.002131
dweller,0.003761
earli,0.009708
earlier,0.006374
earliest,0.005408
east,0.004974
eastern,0.007160
ecclesiast,0.006424
ecofin,0.005288
econom,0.010622
economi,0.004418
ecp,0.019766
ed,0.003019
edgar,0.012610
edit,0.005064
educ,0.008244
edward,0.001962
eek,0.005202
eesti,0.004680
effect,0.002095
eighteenth,0.002756
eighth,0.003009
elder,0.005300
elect,0.052495
elector,0.009255
electron,0.001804
elig,0.002698
elit,0.011974
elsewher,0.004446
emerg,0.008293
emperor,0.004757
emphas,0.001892
emphasi,0.001956
empir,0.013544
employe,0.002259
enclosur,0.003616
encourag,0.001772
end,0.011792
endors,0.002552
endow,0.002731
enemi,0.002410
energet,0.002922
engag,0.001707
english,0.001502
enjoy,0.002053
enlarg,0.002754
enlighten,0.011775
enslav,0.003086
ensu,0.002636
enter,0.006307
enthusiasm,0.003289
entir,0.004196
entiti,0.003659
entrap,0.004182
environ,0.001429
epic,0.002899
epidem,0.002993
equal,0.002937
era,0.028969
eric,0.002561
erik,0.016210
ernst,0.002614
ervin,0.004581
escap,0.006496
especi,0.002504
espionag,0.003497
essr,0.005834
est,0.002996
establish,0.019567
estat,0.009183
esthonian,0.005834
estim,0.007588
estonia,0.695410
estonian,0.501021
estonianlanguag,0.005834
estoniarussia,0.011011
estophil,0.023338
ethnic,0.012770
eu,0.014089
eur,0.003704
euro,0.019208
europ,0.017549
european,0.021493
europeanlevel,0.005834
eurozon,0.014228
evacu,0.005897
eve,0.003156
event,0.001403
eventu,0.003065
everybodi,0.003402
everywher,0.002801
evid,0.001470
exactli,0.002112
exampl,0.001931
excel,0.002333
exchang,0.003049
exclud,0.002028
exclus,0.001842
execut,0.004901
exercis,0.005559
exil,0.004926
exist,0.003217
exit,0.002829
expand,0.003051
expect,0.007409
expens,0.001926
expert,0.002130
explicitli,0.002195
explor,0.001643
export,0.001978
express,0.001397
exsoviet,0.004717
extend,0.001422
extent,0.003549
extermin,0.007065
extern,0.000843
face,0.001618
facil,0.004134
facilit,0.001944
fact,0.001369
faction,0.007642
facto,0.005229
faculti,0.002491
fail,0.003243
fair,0.002184
fall,0.005888
fallen,0.002620
far,0.001462
fare,0.003328
fascist,0.003197
fast,0.002207
fatal,0.002803
fate,0.008169
fatherland,0.003949
favor,0.003562
favour,0.002120
featur,0.001458
februari,0.021027
feder,0.003434
felt,0.002276
ferdinand,0.002915
ferri,0.003285
fertil,0.002260
festiv,0.008035
field,0.001177
fierc,0.002965
fifth,0.002296
fight,0.010118
figur,0.001597
figurehead,0.003805
final,0.002790
financ,0.001709
financi,0.004619
finland,0.046141
finn,0.011445
finnic,0.009596
finnish,0.016618
fled,0.010441
flee,0.002765
fleet,0.002593
fli,0.002407
flint,0.003486
flourish,0.002373
focu,0.001582
focus,0.001501
follow,0.018451
foothold,0.003538
forbad,0.003509
forc,0.012715
forcibl,0.003149
foreign,0.009008
forest,0.004435
form,0.024683
formal,0.005772
format,0.004719
formerli,0.002160
forth,0.002344
forti,0.002879
fortifi,0.003156
fortress,0.009458
fought,0.007338
foundat,0.001503
founder,0.002021
franchis,0.003113
frederick,0.018212
free,0.007904
freed,0.002973
freedom,0.005461
freeli,0.002508
french,0.001552
frequent,0.001621
friendship,0.002864
fulfil,0.002332
fulli,0.003477
fullsiz,0.004612
function,0.001180
furnish,0.003281
fusion,0.002688
futur,0.004214
gain,0.008418
game,0.001979
gateway,0.003315
gather,0.002010
gave,0.005034
gdp,0.002169
gener,0.004143
genocid,0.003120
gentri,0.014944
geograph,0.001875
geographi,0.002122
geopolit,0.003156
georg,0.004986
german,0.073294
germani,0.020838
germanoccupi,0.004842
germanspeak,0.007331
gerret,0.005834
given,0.005783
glacial,0.003402
glaciat,0.003680
glasnost,0.004290
global,0.003063
goal,0.001586
golden,0.002336
good,0.005128
gorbachev,0.011184
got,0.002601
gotland,0.004941
govern,0.050449
governmentsponsor,0.003927
governor,0.008467
grade,0.002689
graduat,0.002161
grain,0.002505
grand,0.002240
grant,0.007072
grassroot,0.003563
gratitud,0.003696
grave,0.011244
graveston,0.004842
graveyard,0.008209
great,0.007798
greater,0.001452
greatli,0.001888
greek,0.001633
green,0.003966
greenwood,0.003230
greet,0.003392
grenadi,0.004842
grew,0.003854
ground,0.003356
groundwork,0.003257
group,0.006241
grow,0.002957
guarante,0.002115
guard,0.002410
guerrilla,0.002931
gulag,0.004216
gulf,0.002608
gustav,0.002950
gustavu,0.012813
ha,0.007690
haapsalu,0.011669
hail,0.006196
half,0.003175
hand,0.001429
hang,0.003089
hanseat,0.007994
hard,0.001892
harju,0.011011
harjumaa,0.017503
harria,0.023338
harrien,0.005834
harrienwierland,0.011298
hatch,0.003550
head,0.008933
health,0.003215
healthcar,0.005432
heel,0.003843
heighten,0.003336
heinrich,0.002862
held,0.008181
help,0.006313
helsinki,0.010492
henc,0.001799
henri,0.001858
hi,0.029988
higher,0.002742
highest,0.003532
hiiu,0.005834
hiiumaa,0.005834
hire,0.002518
histor,0.002591
histori,0.018251
historian,0.005830
hit,0.002387
hitler,0.003142
hofleut,0.005834
hold,0.002778
holi,0.007325
holiday,0.002714
holocaust,0.003319
holstein,0.004469
homeland,0.002983
hoover,0.003644
hope,0.005890
host,0.002108
hostil,0.007175
hotel,0.002776
household,0.002294
howev,0.010295
huang,0.003616
huge,0.002144
human,0.006666
humanist,0.002801
hundr,0.001752
hunger,0.003173
ice,0.002515
idea,0.003883
ident,0.006605
identif,0.002271
identifi,0.001394
ii,0.025659
iii,0.013233
illeg,0.006971
imag,0.001775
immedi,0.001695
immigr,0.009180
impact,0.003161
imperi,0.004493
implement,0.001605
impli,0.001792
implor,0.004495
import,0.005901
impos,0.003966
imposs,0.001950
improv,0.004257
inabl,0.002784
incap,0.003107
incid,0.002281
incit,0.003464
includ,0.008005
incom,0.001766
increas,0.004436
increasingli,0.005100
incur,0.002765
indent,0.004234
independ,0.052119
indic,0.007093
indigen,0.004598
indirect,0.002505
indrek,0.005834
industri,0.001316
infantri,0.003117
influenc,0.007621
inform,0.004586
infrastructur,0.001952
inhabit,0.004009
inherit,0.004277
initi,0.010024
insan,0.003557
insid,0.001934
inspir,0.001908
instal,0.002275
instead,0.004052
institut,0.003661
instruct,0.002171
integr,0.001391
intellectu,0.001978
intend,0.003570
intent,0.001940
interim,0.002767
intern,0.005053
interwar,0.006531
intimid,0.003302
introduc,0.006764
invad,0.009226
invas,0.014721
invest,0.003284
investig,0.001616
invit,0.002376
involv,0.003354
iron,0.014458
iru,0.011011
isamaa,0.005505
isbn,0.005453
island,0.025640
islandshad,0.005834
issu,0.006187
item,0.002115
iv,0.002503
ivan,0.009304
ja,0.003427
jaakson,0.005834
jaan,0.009780
jagiellon,0.004997
jam,0.003843
jame,0.001626
januari,0.023042
jeanjacqu,0.003437
jervia,0.005834
jew,0.029824
jewelleri,0.003961
jewish,0.021517
johan,0.016774
john,0.001311
join,0.032593
jone,0.002560
jr,0.002449
jri,0.011011
jrist,0.005834
jrvamaa,0.005834
juhan,0.029172
juli,0.006663
june,0.026883
jure,0.006906
justic,0.001949
kaali,0.005834
kalamaja,0.005834
kaleva,0.005834
kaleviliiva,0.005834
kalevipoeg,0.005505
kalla,0.016516
karl,0.002169
kelam,0.005834
kenmarti,0.005834
kettler,0.010405
kevin,0.003025
kgb,0.004252
khanat,0.003805
khrushchev,0.007687
kie,0.005388
kihelkond,0.005834
kill,0.013326
kind,0.001536
king,0.014694
kingdom,0.007670
klooga,0.005834
knee,0.003526
knight,0.002888
knighthood,0.004182
know,0.001747
known,0.007708
kolmikliit,0.005834
komite,0.005834
konstantin,0.007876
kopli,0.005834
kroon,0.005388
krooni,0.005834
kunda,0.020236
kurks,0.005834
laak,0.005834
laar,0.053881
labour,0.003904
lack,0.004410
lagedi,0.005834
laid,0.004352
lake,0.002274
lammasm,0.005834
land,0.016052
landeswehr,0.005649
landlord,0.003359
landown,0.003053
lane,0.002948
languag,0.011594
lapp,0.005127
larg,0.006097
larger,0.001521
largest,0.001592
late,0.010679
later,0.008027
latest,0.002575
latin,0.005436
latvia,0.044229
latvian,0.004104
launch,0.001941
laur,0.004997
lauristin,0.005834
law,0.009292
lawmak,0.007018
lbeck,0.008792
lead,0.002300
leader,0.008430
leadership,0.004183
leagu,0.014194
led,0.007466
left,0.006147
legal,0.006364
legat,0.008019
legion,0.003402
legisl,0.003530
legislatur,0.004717
legitim,0.002394
legitimis,0.004035
lembitu,0.005649
length,0.001913
lennart,0.013485
leonid,0.003616
let,0.002160
lett,0.009361
letter,0.001903
level,0.001152
liber,0.008691
librari,0.001811
lie,0.001889
lieven,0.004717
life,0.003718
liit,0.005834
like,0.002059
limit,0.003532
lindaniss,0.005834
line,0.002759
linguist,0.002266
link,0.001676
linna,0.005505
linnahal,0.005834
list,0.004288
listen,0.002723
literaci,0.002829
literatur,0.005167
lithuania,0.032857
lithuanian,0.003778
litr,0.008269
liv,0.011011
live,0.004986
livonia,0.092913
livonian,0.080196
lnemaa,0.011669
loan,0.002236
local,0.022199
locat,0.004252
london,0.003246
long,0.001251
longestserv,0.004842
longterm,0.002028
look,0.003183
lose,0.002027
loss,0.003372
lost,0.008377
low,0.002955
lower,0.001424
lowest,0.002293
luka,0.004419
luki,0.005127
luther,0.003354
lutheran,0.031226
lyffland,0.011669
lyndaniss,0.005649
maakond,0.005505
maapev,0.023338
magic,0.002688
magnitud,0.002378
magnu,0.037005
main,0.002441
mainland,0.007513
mainli,0.001600
mainstream,0.002339
maintain,0.001344
major,0.011251
make,0.004902
manag,0.001380
mani,0.006971
manmad,0.003098
manor,0.008019
manori,0.004252
map,0.001763
march,0.014389
margin,0.004225
mariana,0.007126
maritima,0.005127
marju,0.005834
mark,0.012383
marker,0.002965
market,0.001443
marri,0.002416
marsh,0.003306
mart,0.028944
martin,0.002040
mass,0.009486
materi,0.001351
mati,0.004997
mayor,0.005849
mean,0.001061
measur,0.001262
mecklenburg,0.005059
media,0.005305
mediev,0.004112
meet,0.003119
mel,0.004022
member,0.022141
membership,0.006370
men,0.010726
menshevik,0.004310
mention,0.009332
mep,0.008180
mere,0.003793
merg,0.002322
meri,0.025295
mesalu,0.005834
mesolith,0.007575
met,0.001971
meteorit,0.003595
metsavennad,0.011669
mid,0.001919
middl,0.011127
middleclass,0.003298
midth,0.002378
migu,0.005834
mild,0.002975
militari,0.018715
millennium,0.007219
miner,0.002134
minim,0.002034
minimum,0.002103
minist,0.033050
ministri,0.002072
minor,0.014273
mint,0.003156
missionari,0.002730
mix,0.001854
mobil,0.004095
mobilis,0.003520
moder,0.017669
modern,0.002312
modest,0.002815
moldova,0.003728
molotov,0.004551
molotovribbentrop,0.021451
moment,0.002193
monast,0.003332
money,0.001722
monk,0.002851
month,0.001703
monument,0.002760
moravian,0.008365
mortal,0.002576
moscow,0.011048
mostli,0.003289
motiv,0.001883
mound,0.003602
movement,0.014623
mp,0.008530
mudthrow,0.005834
multicultur,0.003442
municip,0.002349
murder,0.002448
muscovi,0.040457
muscovian,0.017503
muscovit,0.004581
music,0.002118
naissaar,0.005834
narva,0.020236
narvatyp,0.005834
nation,0.019229
nationali,0.005834
nationalist,0.004999
nationwid,0.002929
nato,0.014577
natur,0.005146
navi,0.002307
nazi,0.018817
nd,0.003587
near,0.006340
nearbi,0.004745
nearli,0.006716
necessari,0.001536
necessarili,0.001887
negoti,0.018161
neighbor,0.002174
neolith,0.008618
nestor,0.004581
network,0.004835
neutral,0.008440
new,0.022390
newli,0.006085
newspap,0.002386
nigel,0.003651
night,0.004729
noarootsi,0.005834
nobil,0.012028
nobl,0.002507
nomin,0.008049
nonconfront,0.004798
nonetheless,0.002411
nordic,0.003328
north,0.006123
northern,0.043256
northwest,0.002636
notabl,0.002958
noth,0.002040
notwithstand,0.003422
novemb,0.015562
number,0.002893
nva,0.004798
nystad,0.005202
object,0.003953
obtain,0.011988
occasion,0.002174
occup,0.026115
occupi,0.013529
occur,0.002449
oconnor,0.003696
octob,0.003334
oesel,0.005834
offens,0.005373
offer,0.007168
offic,0.003103
offici,0.010245
old,0.001595
oldest,0.006256
oliva,0.004890
olmpia,0.005834
olymp,0.005821
onc,0.001440
onefifth,0.003761
onethird,0.002929
onli,0.014199
onlin,0.005062
open,0.007919
oper,0.006081
oppos,0.003222
opposit,0.006345
oprichnina,0.005649
option,0.002011
order,0.012749
ore,0.002762
organ,0.006309
organis,0.001825
orient,0.002008
origin,0.001068
orp,0.005834
orthodox,0.005192
orz,0.011011
osilia,0.005834
osilian,0.005834
osmussaar,0.005834
ostens,0.003123
osteolog,0.004645
ostland,0.005649
ottoman,0.002726
outlaw,0.003095
outrag,0.003319
outsid,0.001470
outstand,0.002636
overwhelm,0.002585
overwork,0.004330
ownership,0.002264
p,0.001471
pabrik,0.005834
pact,0.014474
pagan,0.008889
paid,0.001965
pajur,0.005834
pakri,0.011669
paragraph,0.003289
pari,0.002108
parish,0.016153
parliament,0.021388
parliamentari,0.024286
parm,0.005127
parnawa,0.011298
parnawski,0.005649
parti,0.116211
partial,0.001773
particip,0.004562
particularli,0.001352
pass,0.007488
passag,0.002296
passeng,0.002868
passport,0.003176
path,0.001954
patria,0.034480
patrol,0.003101
pawn,0.004199
pe,0.003448
peac,0.014874
peak,0.002115
peasant,0.010752
peasantri,0.010827
pebbl,0.003824
peninsula,0.002564
pennick,0.005834
pension,0.008035
peopl,0.042517
perceiv,0.001938
percent,0.003872
percentag,0.004296
perestroika,0.011814
period,0.024056
perish,0.003285
permiss,0.002680
perpetu,0.005223
persist,0.004371
person,0.003784
persuas,0.003036
pertain,0.002665
petersburg,0.003469
pew,0.003884
phase,0.001853
pictur,0.002158
piiskopkond,0.011669
pirita,0.005834
place,0.011993
plan,0.002920
plant,0.001673
platform,0.002360
pleistocen,0.003520
pm,0.002920
point,0.001118
poland,0.036873
polici,0.008560
polish,0.007814
polishlithuanian,0.028734
polishswedish,0.005388
polit,0.020570
politician,0.002312
poll,0.002683
polotsk,0.005059
poorli,0.002552
pope,0.002711
popul,0.012345
popular,0.009655
port,0.004357
portal,0.002780
portion,0.001937
posit,0.004570
possess,0.003464
possibl,0.003382
post,0.001871
poststalin,0.005834
postwar,0.002622
potteri,0.012125
pouch,0.004104
power,0.004525
pp,0.003604
preambul,0.005834
preemin,0.003204
preemptiv,0.004104
prehistori,0.002776
premiership,0.004199
prepar,0.005378
preroman,0.009512
preschool,0.004022
present,0.003316
presentday,0.009931
presid,0.019185
presidenti,0.006782
presidentreg,0.005834
press,0.011710
pressur,0.001664
presum,0.002467
pretext,0.003688
prevail,0.002338
preval,0.002434
previou,0.006668
prewar,0.003310
price,0.001636
primari,0.001459
prime,0.026643
princess,0.003234
princip,0.005180
print,0.004152
prior,0.005009
prison,0.004692
privat,0.001585
prnu,0.021552
pro,0.028909
probabl,0.004759
process,0.001045
proclaim,0.005001
procommunist,0.004941
produc,0.001150
product,0.001152
professor,0.001975
profil,0.002386
program,0.002781
programm,0.004249
proindepend,0.004022
promot,0.003154
propag,0.002463
propos,0.002727
prospect,0.002349
proswedish,0.005834
protect,0.004420
protest,0.004109
protoestonian,0.005834
prove,0.001706
proven,0.002335
provid,0.003923
provinc,0.010218
provision,0.008404
provok,0.005658
prudenc,0.003961
prussia,0.003273
prussian,0.003345
pskov,0.004997
pt,0.006587
ptolemi,0.003007
public,0.003340
publica,0.054272
publish,0.002454
pull,0.002537
pulli,0.005288
puppet,0.003302
pur,0.004645
purpos,0.002876
pursu,0.006031
pursuit,0.002492
push,0.002102
putin,0.003863
pythea,0.004890
quadrangular,0.005834
quartz,0.003711
question,0.001388
quick,0.002731
quickli,0.007197
quit,0.003736
quot,0.002312
radic,0.002026
radio,0.002263
raid,0.005264
railway,0.002616
ralf,0.004252
rampart,0.004612
rank,0.001866
rannarootslas,0.005834
rapidli,0.001863
rare,0.001819
rate,0.002740
ratif,0.003458
ratifi,0.005634
ration,0.001905
rauch,0.004522
raun,0.011669
reach,0.007124
reactiv,0.002641
readi,0.002576
real,0.002910
realiz,0.001960
reason,0.001258
rebel,0.002547
rebellion,0.010013
receiv,0.006697
recent,0.001214
recogn,0.007517
recognis,0.006494
recognit,0.007687
recruit,0.002585
red,0.013603
redistribut,0.002915
reduc,0.001328
reelect,0.002855
reestablish,0.013353
refer,0.000701
referenc,0.003012
referendum,0.021907
reflect,0.001506
reform,0.041161
refuge,0.005249
refus,0.002046
regain,0.005386
regard,0.002690
regim,0.004086
regiment,0.003159
region,0.007533
regist,0.008696
registr,0.002730
regrant,0.005834
regularli,0.002386
rein,0.007089
reject,0.001728
rel,0.002514
relat,0.004726
religi,0.005372
religion,0.005357
reloc,0.005781
remain,0.009276
remot,0.002373
renam,0.007302
render,0.004598
renew,0.002050
renounc,0.006298
reoccup,0.004997
reoccupi,0.008365
repeat,0.002023
replac,0.001428
repli,0.002883
report,0.001347
repres,0.004600
represent,0.001768
republ,0.052658
request,0.002131
requir,0.002207
research,0.001137
reserv,0.003729
resid,0.009287
residenti,0.003017
resign,0.007187
resist,0.005450
resolut,0.002144
respons,0.002432
restor,0.007931
result,0.011719
resum,0.002681
retir,0.002385
retook,0.008239
retreat,0.008124
return,0.004256
reus,0.003215
reval,0.042310
revala,0.005834
revalia,0.005834
revelia,0.005834
revolut,0.010421
rhetor,0.002714
ridala,0.005834
riga,0.021652
right,0.008807
rightconserv,0.011011
riguldi,0.005834
riigikogu,0.051270
riot,0.002801
rise,0.004232
riva,0.004522
river,0.001916
road,0.002036
rodopi,0.004351
role,0.002456
roman,0.013165
rotalia,0.005834
roughli,0.001966
routledg,0.004997
row,0.002711
rtel,0.022022
ruhnu,0.011298
rule,0.016638
ruler,0.004685
ruralfolk,0.005834
russia,0.037091
russian,0.065686
russianspeak,0.004551
russif,0.017493
russocrimean,0.005834
ruutsoo,0.005834
rvala,0.011669
rzeczpospolita,0.011011
s,0.012927
saareln,0.005834
saaremaa,0.049550
saccala,0.005834
sack,0.002917
saga,0.003582
sage,0.002763
said,0.001440
sail,0.002651
saint,0.004688
sakala,0.005649
salari,0.005186
sale,0.004085
salvat,0.003028
save,0.001991
saviour,0.004373
savisaar,0.023338
saw,0.005147
sc,0.003538
scandal,0.002960
scandinavia,0.006507
scandinavian,0.006587
scatter,0.002589
school,0.004279
scienc,0.001179
scientist,0.001603
scope,0.002061
score,0.005140
sea,0.005366
seat,0.033197
second,0.003452
sector,0.001838
secular,0.007279
secur,0.002979
seek,0.001573
segment,0.002402
seizur,0.003126
sel,0.004997
select,0.001524
sell,0.001983
selwiek,0.011298
send,0.002192
sentenc,0.002396
sentiment,0.002724
septemb,0.025362
serf,0.003728
serfdom,0.007392
seri,0.001396
sermon,0.003514
serv,0.004187
servic,0.008196
session,0.002667
settl,0.001992
settlement,0.022507
seven,0.007359
sever,0.006103
sfsr,0.004551
share,0.001366
shell,0.002359
shelter,0.002733
ship,0.003978
shipbuild,0.003442
shock,0.002396
shore,0.007997
short,0.001494
shortli,0.004364
shortliv,0.002754
shot,0.002726
shown,0.001690
siberia,0.013383
sicherheitspolizei,0.005834
sieg,0.008718
sigismund,0.004216
sign,0.009639
signal,0.004034
signific,0.001245
significantli,0.001799
siim,0.016516
siimann,0.005834
silenc,0.003126
similar,0.004660
simultan,0.002044
sinc,0.009757
site,0.004930
situat,0.003004
slightli,0.002114
slovenia,0.003345
small,0.003582
smaller,0.003318
smelt,0.003622
smith,0.002067
snake,0.003098
socal,0.005906
social,0.018619
socialdemocrat,0.004090
socialist,0.006548
socialliber,0.010254
societi,0.007335
soil,0.002210
sold,0.002060
soldier,0.008881
sometim,0.001270
somewhat,0.002068
song,0.007763
soomepoisid,0.005834
soon,0.005368
sought,0.001900
south,0.003056
southern,0.018110
sovereign,0.004664
sovereignti,0.007059
soviet,0.141607
sovietera,0.008887
spark,0.002582
speak,0.003742
speaker,0.005011
spearhead,0.003407
specif,0.002334
spectrum,0.002307
sphere,0.002183
sphereofinflu,0.005834
spirit,0.002204
split,0.004010
spoke,0.002693
spoken,0.002624
sponsor,0.002446
sport,0.002317
sprang,0.003563
spread,0.006899
spring,0.002200
squar,0.002067
ss,0.008997
st,0.009438
stabil,0.003639
stabilis,0.003323
stabl,0.001920
stalin,0.006416
stall,0.003245
stamp,0.002886
stanc,0.002689
stand,0.001833
standard,0.001314
start,0.013586
state,0.023906
statehood,0.007218
statement,0.001791
station,0.004263
statist,0.003201
statu,0.003259
stave,0.004035
stay,0.002135
steep,0.003126
stefan,0.003341
step,0.003309
stettin,0.004890
stipul,0.002950
stockholm,0.003285
stone,0.013075
strateg,0.002129
stratif,0.003464
strength,0.001979
strict,0.002267
strong,0.008507
stronghold,0.009529
struck,0.002774
structur,0.001140
student,0.001660
studi,0.001031
subcultur,0.003744
subdivis,0.005733
submarin,0.002948
submit,0.007332
subrenat,0.005834
succeed,0.005984
success,0.003882
suffer,0.003561
suggest,0.001366
suitabl,0.002166
summer,0.002257
supper,0.004290
support,0.013922
suppress,0.002234
suprem,0.013987
surround,0.001786
surviv,0.001682
sutlepa,0.005834
swede,0.032610
sweden,0.046311
swedish,0.037257
sweep,0.002988
swept,0.003190
swift,0.003249
sword,0.006395
taagepera,0.005505
taavi,0.005834
tacitu,0.007994
taken,0.002857
talk,0.002099
tallinn,0.127570
tannberg,0.005834
tarand,0.011011
target,0.001816
tartu,0.031467
taught,0.002175
teach,0.001911
teacher,0.002236
technic,0.001735
technolog,0.001406
telecommun,0.002543
televis,0.002199
tell,0.002197
temporarili,0.002689
tens,0.006896
term,0.003688
terra,0.007273
terribl,0.006746
territori,0.020495
terror,0.002597
teuton,0.008180
text,0.001683
th,0.023496
thaden,0.005649
thaw,0.003843
thcenturi,0.002249
themselv,0.008684
theolog,0.002378
therapi,0.002485
therebi,0.002019
therefor,0.002652
thi,0.016786
think,0.003384
thoma,0.001745
thoroughli,0.003092
thought,0.001382
thousand,0.003441
threat,0.004093
threaten,0.006656
threeyear,0.003201
threshold,0.005436
throne,0.005506
thu,0.001140
thule,0.004373
thwart,0.003458
tie,0.005710
tiit,0.017503
time,0.011223
timelin,0.002296
titl,0.001751
tni,0.004890
tnu,0.004997
toenu,0.005834
togeth,0.001345
toivo,0.011669
toler,0.002468
took,0.015243
tool,0.003124
total,0.005445
tower,0.002853
town,0.008015
townspeopl,0.004612
trace,0.001871
trade,0.002823
trader,0.002402
tradit,0.002457
traditionalist,0.003595
transform,0.006389
transit,0.001698
translat,0.001679
treasur,0.003025
treati,0.024453
trend,0.001863
tri,0.004607
trial,0.004453
tribal,0.002721
tribe,0.007206
tribun,0.003031
trick,0.003261
tripartit,0.003432
troop,0.019822
troubl,0.002561
truce,0.003417
tsar,0.003609
tunn,0.005834
turn,0.005396
turnout,0.013192
tv,0.008094
twelv,0.005148
type,0.002346
u,0.004553
ugandi,0.005834
ugaunia,0.005834
ukrain,0.002915
ultim,0.003375
ultimatum,0.014154
ultradunensi,0.005649
uluot,0.017503
unanim,0.003077
uncommon,0.002991
und,0.002870
underground,0.002704
understand,0.003973
underw,0.005662
ungannian,0.005834
unicamer,0.002975
unifi,0.006127
uninterest,0.003834
uninterrupt,0.003665
union,0.069600
uniqu,0.001663
unit,0.018699
univers,0.008085
unless,0.002186
unlik,0.001625
unrest,0.002706
unsolv,0.003086
unveil,0.003328
upper,0.003941
upris,0.008129
upset,0.003298
ural,0.003905
urban,0.002046
use,0.007175
usher,0.002988
ussr,0.022552
usurp,0.003464
v,0.001739
vacuum,0.002546
vaher,0.005834
vaivara,0.005834
vanguard,0.003563
vap,0.020508
varbola,0.005834
vasa,0.004645
vast,0.001959
vastli,0.003051
veliki,0.005059
venu,0.002953
veri,0.002228
vernacular,0.003373
version,0.001706
vess,0.005649
vessel,0.002375
vhi,0.011011
viceconsul,0.005505
victori,0.004519
vidzem,0.005649
view,0.001250
vihterpalu,0.005834
viik,0.005288
vik,0.004997
vike,0.003273
villag,0.002229
vindic,0.003696
violenc,0.002323
violent,0.002409
vironia,0.011669
vironian,0.005834
virumaa,0.017503
visibl,0.002156
visit,0.001960
voivodeship,0.013937
vol,0.002097
volunt,0.016139
voluntarili,0.003162
von,0.009895
vormsi,0.005834
vote,0.020354
voter,0.018323
vulner,0.002481
w,0.001637
wa,0.101610
waffen,0.005127
waffenss,0.005505
wake,0.002603
waldemar,0.004522
wall,0.002066
walnut,0.004182
wane,0.006367
want,0.001801
war,0.051287
ware,0.003407
warm,0.002493
warship,0.003194
watch,0.002487
wave,0.003935
way,0.004173
week,0.002050
wehrmacht,0.004495
welfar,0.002247
wellpolish,0.005834
wenden,0.005649
wendeski,0.005649
went,0.003579
west,0.008377
western,0.017613
westview,0.003589
wheat,0.002774
wherea,0.001693
whi,0.001795
wide,0.002513
widen,0.003036
wiek,0.005834
wierland,0.005834
wild,0.002503
wilhelm,0.002456
win,0.006582
windmag,0.005834
window,0.002742
wing,0.007969
winner,0.002686
wish,0.004315
withdraw,0.004690
withdrew,0.002742
wojewdztwo,0.015866
women,0.001857
won,0.013827
work,0.002869
world,0.012860
worship,0.002644
writer,0.002002
written,0.003089
xiv,0.019763
yacht,0.003719
yale,0.002667
year,0.012802
yearold,0.002843
young,0.001811
yuri,0.003480
zenith,0.003550
