abandon,0.011909
abil,0.004385
abl,0.008053
abolish,0.006661
aborigin,0.009565
abov,0.004081
absenc,0.011720
abus,0.006857
acceler,0.006131
access,0.017642
accord,0.012750
achiev,0.004010
acquir,0.005192
acr,0.025595
act,0.010930
activ,0.015904
actual,0.008159
acut,0.008366
ad,0.008136
addit,0.006449
address,0.004800
adelaid,0.011489
adequ,0.006687
adjust,0.006101
administ,0.006249
administr,0.004457
adopt,0.030793
affect,0.004165
affluent,0.010278
afterward,0.007021
agre,0.004806
agreement,0.004865
agricultur,0.042643
aid,0.004782
alan,0.006757
allow,0.022190
alon,0.005451
alp,0.041190
amalgam,0.009264
america,0.004467
american,0.003611
ani,0.008428
anl,0.014364
ann,0.007466
appli,0.006815
appoint,0.010480
approach,0.003668
appropri,0.005109
approv,0.005476
area,0.009498
argentina,0.007907
argu,0.004240
arid,0.009296
aris,0.005200
art,0.004876
assign,0.005725
assist,0.014259
associ,0.006228
assum,0.004416
asx,0.013353
attack,0.005139
attain,0.006452
attempt,0.007272
attract,0.010258
attribut,0.009910
australasia,0.010601
australia,0.459895
australian,0.298342
author,0.010767
avail,0.015586
averag,0.004761
backer,0.011489
badli,0.008666
balanc,0.015135
baleen,0.012702
ballarat,0.014954
bank,0.096809
bare,0.015704
barrier,0.006486
base,0.011110
basi,0.011911
basic,0.003866
basket,0.009709
bathurst,0.013081
bay,0.014397
becam,0.042161
becaus,0.005786
becom,0.006153
beef,0.009318
befor,0.009848
began,0.053734
begin,0.003747
bendigo,0.014541
benefici,0.007053
benefit,0.013993
best,0.008472
bhp,0.013918
biggest,0.007216
billion,0.005459
black,0.005187
blue,0.013702
board,0.016635
bond,0.010980
boom,0.072922
borrow,0.006379
boundari,0.005366
branch,0.008175
break,0.005298
breakdown,0.007912
bretton,0.021031
brief,0.006092
bring,0.004778
brisban,0.048087
britain,0.037905
britannia,0.011929
british,0.085835
broader,0.006408
broadli,0.006434
broken,0.006408
brought,0.004738
build,0.016270
built,0.014375
bunker,0.012222
burst,0.008658
busi,0.008666
butlin,0.030403
button,0.010224
cambridg,0.010197
came,0.008418
campbel,0.008620
canberra,0.010354
capit,0.050242
capita,0.006987
captain,0.015538
car,0.006802
carlton,0.012772
case,0.003218
cash,0.006434
cattl,0.015081
caught,0.007928
caus,0.027488
ceas,0.006502
celebr,0.006635
censu,0.007548
center,0.004106
centr,0.015880
central,0.003608
centuri,0.013223
chair,0.007230
chang,0.023219
character,0.004882
cheap,0.007975
check,0.006674
chemic,0.004901
cheshir,0.012999
chiefli,0.008346
children,0.005294
church,0.005816
circul,0.006735
citi,0.008892
claim,0.011723
class,0.004270
clerk,0.008870
close,0.010334
cloth,0.006730
cmb,0.025545
coal,0.007507
coalit,0.006238
coin,0.010662
coinag,0.009130
collaps,0.045371
colon,0.006831
coloni,0.159710
colonist,0.008802
come,0.003682
command,0.010803
commenc,0.031153
commerc,0.006415
commiss,0.010251
commissariat,0.013453
commit,0.005396
commod,0.018747
commonwealth,0.026602
commun,0.006733
compani,0.020327
compar,0.003808
comparison,0.005399
competit,0.010125
complex,0.007535
comprehens,0.005671
compromis,0.007402
concentr,0.010077
concern,0.007229
conclud,0.005266
condit,0.021616
confin,0.013826
conflict,0.004795
conscript,0.009264
consequ,0.017513
conserv,0.030666
consid,0.003002
consider,0.008654
construct,0.011961
consult,0.005945
consum,0.010253
consumer,0.010558
content,0.005080
context,0.004529
contin,0.006635
continu,0.034318
contract,0.005165
contribut,0.018896
contributor,0.007532
control,0.023947
convert,0.005248
convict,0.067158
coolgardi,0.015486
corner,0.008308
corp,0.015192
corpor,0.005051
corrupt,0.006321
cost,0.004527
count,0.005872
counter,0.006962
counterpart,0.006904
counti,0.022987
countri,0.010165
coupl,0.011916
court,0.004883
craftsmen,0.010052
crash,0.007658
creat,0.012597
credit,0.014948
crise,0.007944
crisi,0.042508
criticis,0.007578
cross,0.005619
crown,0.013337
crush,0.007877
culmin,0.013645
cultiv,0.006576
currenc,0.016927
curtin,0.026163
cut,0.016399
cutback,0.011929
cycl,0.005278
d,0.004168
daili,0.006022
dairi,0.009479
date,0.004303
day,0.003885
deal,0.004148
debt,0.005970
decad,0.014041
decemb,0.014175
decis,0.004341
declin,0.024444
deem,0.006968
defi,0.009737
deficit,0.007146
deflat,0.009455
deflationari,0.011454
demand,0.009194
democrat,0.005045
depend,0.010192
depress,0.044782
depth,0.006760
deregul,0.047580
deriv,0.003915
describ,0.003169
design,0.003781
desir,0.004846
despit,0.017464
devalu,0.017539
devast,0.007310
develop,0.033477
dictat,0.022091
did,0.022933
diemen,0.026906
differ,0.008189
difficult,0.008981
direct,0.006838
discov,0.004534
discoveri,0.014467
diseas,0.005393
diseaseresist,0.014541
dismiss,0.006860
displac,0.006606
disrupt,0.006635
district,0.012456
diversifi,0.007797
dollar,0.054149
domest,0.021340
domin,0.008474
doubl,0.005700
dow,0.010020
downturn,0.008819
draw,0.005278
dri,0.006744
drive,0.005532
driver,0.007892
drought,0.008406
dure,0.047424
dynam,0.004827
earli,0.012402
earlier,0.004580
easi,0.012591
eastern,0.015436
eastward,0.009491
eber,0.010912
econom,0.169626
economi,0.148177
economist,0.005820
educ,0.011847
edward,0.005639
eec,0.011287
effect,0.021081
effort,0.012879
eighthour,0.012446
elect,0.009144
emancip,0.008870
emancipist,0.015486
emerg,0.007946
empir,0.012976
employ,0.020559
enabl,0.009832
encourag,0.015285
end,0.044062
england,0.005379
english,0.004317
enjoy,0.023607
enorm,0.033384
ensur,0.005092
entangl,0.009540
enter,0.004531
enterpris,0.035010
entir,0.004020
entri,0.005996
environ,0.004109
environment,0.004983
equal,0.004221
era,0.004897
erect,0.008406
especi,0.010799
essenti,0.004309
essington,0.015824
establish,0.043008
estim,0.008724
europ,0.004203
european,0.015444
eventu,0.008812
exacerb,0.008582
exampl,0.002776
exchang,0.052585
expand,0.021926
expans,0.067997
expect,0.021296
expedit,0.007012
expenditur,0.006854
experi,0.003812
experienc,0.016696
expir,0.008379
exploit,0.005770
export,0.039807
exposur,0.006889
extend,0.004088
extern,0.002424
extract,0.005967
extrem,0.004446
face,0.013958
fact,0.007872
factor,0.007861
fail,0.004660
failur,0.016181
fair,0.006278
fall,0.004231
famili,0.004292
famous,0.008052
fare,0.009565
farm,0.006185
farreach,0.009553
favour,0.018288
fed,0.008295
feder,0.039485
fell,0.011974
felt,0.006544
fenc,0.010316
fertil,0.006498
figur,0.004591
fiji,0.009821
final,0.004009
financ,0.019648
financi,0.013276
fine,0.013254
firestick,0.014736
fiveday,0.013453
fix,0.014760
flat,0.007089
fleet,0.014908
float,0.022022
flood,0.007318
flow,0.004881
fluctuat,0.013845
focus,0.004315
follow,0.018561
food,0.004770
footwear,0.011193
forc,0.003322
foreign,0.047467
forestal,0.010762
form,0.017736
formerli,0.006209
forti,0.008276
fortun,0.007519
foster,0.007086
foundat,0.004322
fraser,0.030619
fred,0.008597
free,0.018932
freedom,0.005232
freeli,0.014418
fremantl,0.012999
french,0.004461
frenzi,0.012772
fuell,0.020989
function,0.003393
fund,0.036564
futur,0.008074
g,0.004484
galleri,0.008524
gbp,0.012222
gd,0.011224
gdp,0.012468
gear,0.008413
gener,0.011909
geograph,0.005391
georg,0.004777
germani,0.009982
gibbon,0.010188
gidley,0.014541
gipp,0.015201
given,0.003324
global,0.008804
gold,0.109522
goldfield,0.040677
good,0.018427
gough,0.011884
govern,0.220657
governor,0.054760
gradual,0.005328
grant,0.040654
grante,0.012772
grassland,0.019285
great,0.011208
greater,0.008350
greatli,0.010856
grew,0.005539
gross,0.006481
grow,0.038256
growth,0.083917
gruen,0.013559
guinea,0.007827
ha,0.006631
half,0.004562
hall,0.006289
hand,0.004107
handl,0.006027
happen,0.005239
hard,0.005440
harvest,0.007348
hawk,0.017605
head,0.004279
health,0.004621
heavili,0.021376
height,0.006609
held,0.003919
help,0.003629
herdsmen,0.013353
hi,0.011888
high,0.030208
higher,0.019704
highest,0.010152
hill,0.013188
hire,0.007237
histor,0.003723
histori,0.013804
historian,0.005585
hobart,0.012446
hold,0.007985
holiday,0.007802
home,0.004733
hopelessli,0.012446
hors,0.007160
host,0.006061
hostil,0.006874
howard,0.015379
howev,0.021522
huge,0.012329
hundr,0.005036
huntergath,0.027118
ian,0.008184
idea,0.003720
ideal,0.010787
immedi,0.019491
immens,0.007965
immigr,0.026386
impact,0.022714
imperi,0.006457
implement,0.023075
import,0.016963
impos,0.005700
imprud,0.013081
incent,0.006901
includ,0.018409
incom,0.025386
increas,0.057377
increasingli,0.014660
independ,0.003404
index,0.005266
indigen,0.019827
indirectli,0.014287
individu,0.003419
industri,0.075672
inflat,0.056184
inflationari,0.019007
influx,0.034213
infrastructur,0.028062
initi,0.003601
inject,0.016369
inland,0.015909
inner,0.006663
innov,0.005741
institut,0.021046
instrument,0.005104
intend,0.005131
intern,0.029048
interrupt,0.008245
introduc,0.015553
introduct,0.004394
intrud,0.010171
invest,0.080234
investor,0.018945
isbn,0.003918
issu,0.007114
jackson,0.017150
januari,0.004730
japan,0.016445
japanes,0.006317
job,0.005724
john,0.007540
jone,0.007359
judgment,0.007024
just,0.003865
kalgoorli,0.015486
keat,0.011020
king,0.005279
kingdom,0.026454
km,0.012477
known,0.013848
labor,0.048977
laboratori,0.005624
labour,0.033665
lack,0.008451
land,0.171973
larg,0.020445
larger,0.004374
largescal,0.012915
largest,0.004577
late,0.011511
later,0.006591
law,0.006677
leader,0.009692
learn,0.004655
leav,0.004693
led,0.060805
left,0.008835
legal,0.009146
lent,0.009160
level,0.013255
levi,0.015576
lewi,0.006956
liber,0.009993
liberalis,0.009696
librari,0.010413
life,0.003562
like,0.002960
limit,0.023691
line,0.011899
link,0.007229
liquid,0.005940
loan,0.012859
local,0.003753
locat,0.004074
london,0.009332
long,0.010794
lord,0.006559
low,0.008494
lower,0.008189
lumber,0.010536
m,0.003963
macquari,0.036666
main,0.017541
mainland,0.014397
maintain,0.015456
major,0.020579
make,0.008453
maker,0.007644
malcolm,0.009553
man,0.004902
manag,0.035719
mani,0.017532
manpow,0.009737
manufactur,0.036992
margin,0.012145
marin,0.006343
maritim,0.014266
mark,0.008898
market,0.066368
mass,0.004544
massiv,0.005896
mclean,0.012119
mean,0.003051
meant,0.011367
measur,0.007259
meet,0.004483
melbourn,0.149354
melvil,0.011757
membership,0.006103
menzi,0.037906
menziess,0.015486
mercantil,0.008761
metal,0.005767
mid,0.011036
migrant,0.008650
mile,0.012882
militari,0.004482
millennia,0.008074
million,0.008705
miner,0.006135
minimum,0.006044
minist,0.004999
mix,0.005330
mobilis,0.010119
model,0.006903
modern,0.009971
monday,0.010224
monetari,0.011880
money,0.019809
moreton,0.031648
mortgag,0.008184
motor,0.007146
mountain,0.035771
movement,0.026747
munit,0.020307
n,0.004976
napoleon,0.007557
nation,0.033776
nationalis,0.029295
natur,0.005916
necessari,0.008832
need,0.006662
neglect,0.007248
network,0.004632
new,0.081682
nineteen,0.029824
nineteenth,0.006931
noel,0.010536
nomin,0.005783
noncommiss,0.012507
north,0.008799
northern,0.005180
northward,0.009420
northwestern,0.008413
notori,0.008794
novemb,0.004970
nsw,0.011884
nulliu,0.027118
number,0.011088
occup,0.005774
occupi,0.011110
oceania,0.008467
octob,0.004791
offic,0.013381
offici,0.016827
oil,0.022123
old,0.004585
olymp,0.008366
omin,0.012570
onli,0.010203
open,0.015174
oper,0.006991
oppon,0.013767
opportun,0.010468
oppos,0.009261
opposit,0.004559
order,0.009161
organ,0.003022
origin,0.003070
outlay,0.010811
output,0.005783
outsid,0.004227
outward,0.017063
oversea,0.019827
oversight,0.008777
overtaken,0.010786
overvalu,0.010515
paid,0.005650
panic,0.009296
paper,0.004572
papua,0.009696
paradis,0.009926
parcel,0.030060
pariti,0.007975
parti,0.025693
particular,0.003468
particularli,0.011658
partner,0.006057
pastor,0.061273
pastoralist,0.010912
pastur,0.010393
paul,0.004816
pay,0.010346
payment,0.011945
peak,0.006080
peg,0.037966
penal,0.037186
peopl,0.006110
percept,0.005898
period,0.046095
perman,0.010740
permiss,0.007703
permit,0.005643
petrol,0.010912
philip,0.006811
phillip,0.034301
physic,0.003625
place,0.006267
plan,0.020982
platform,0.006785
plough,0.011163
point,0.003214
polici,0.061511
polit,0.020867
pool,0.007255
poorer,0.009052
popul,0.043369
popular,0.003964
port,0.031308
portrait,0.008986
posit,0.006568
possess,0.004979
possibl,0.009723
postwar,0.045217
pound,0.111513
power,0.009755
practic,0.003399
pragmat,0.007745
predominantli,0.007053
prefer,0.014597
preoccupi,0.010494
present,0.003177
press,0.007479
pressur,0.014349
prevent,0.004542
price,0.028224
primari,0.004194
primarili,0.004343
prime,0.005105
princeton,0.007015
princip,0.004963
principl,0.007628
prior,0.004799
privat,0.059230
privatis,0.009988
privileg,0.007252
problem,0.003398
process,0.021027
produc,0.013224
product,0.043053
profit,0.043920
profound,0.014497
program,0.003997
progress,0.012992
project,0.003931
prolong,0.008080
promis,0.005970
promot,0.009065
prompt,0.006956
properti,0.019236
proport,0.005253
propos,0.003920
prospect,0.006752
prosper,0.019706
protect,0.012705
protectionist,0.010136
prove,0.004904
provid,0.016915
provis,0.006189
public,0.016000
punctuat,0.009910
purchas,0.016213
purpos,0.004133
pursu,0.005778
push,0.006042
qanta,0.026335
qualiti,0.004734
quantiti,0.005175
quartercenturi,0.012845
queensland,0.010373
quickli,0.005172
quit,0.005370
rabbit,0.009836
rail,0.007997
railway,0.015039
rais,0.004686
ran,0.014226
rang,0.019071
rapid,0.044054
rate,0.035440
ration,0.021904
rationalis,0.011637
readili,0.006895
real,0.008365
reason,0.003616
reassess,0.010136
rebuild,0.008481
recal,0.007793
receipt,0.008689
receiv,0.003850
recent,0.003489
recept,0.007975
recess,0.072128
recognis,0.006221
recommend,0.005940
reconstruct,0.018945
recov,0.006203
reduc,0.007635
reduct,0.011597
redund,0.008914
refer,0.004030
reflect,0.008661
reform,0.054225
refriger,0.009751
regim,0.005872
region,0.007217
regul,0.028625
reid,0.009972
reject,0.004968
rel,0.014453
relat,0.002717
relationship,0.007693
relax,0.015407
reluct,0.008214
remain,0.009998
remov,0.013958
renew,0.005893
rent,0.007759
repeat,0.011633
repertoir,0.010536
replac,0.008213
report,0.007746
requir,0.006344
reserv,0.016079
resid,0.005339
residenti,0.008673
resili,0.009243
resourc,0.008159
respond,0.005435
respons,0.003495
restrain,0.009565
restraint,0.027156
restrict,0.004670
restructur,0.015919
result,0.014035
resumpt,0.010413
retain,0.005299
retent,0.009374
retir,0.006857
retract,0.010316
return,0.044863
rich,0.011557
right,0.014465
rise,0.016221
river,0.005509
robert,0.008862
role,0.003530
rose,0.018346
rule,0.007357
rum,0.010738
run,0.013286
rural,0.006517
rush,0.035210
s,0.091462
sale,0.017612
satisfi,0.005978
save,0.017168
saw,0.014794
scale,0.004561
scheme,0.006065
school,0.004100
seal,0.007557
seamen,0.012021
second,0.006614
secretari,0.006584
sector,0.052833
secur,0.004281
seek,0.004522
seeker,0.010536
select,0.004382
sell,0.005700
senat,0.006913
senior,0.006679
separ,0.007363
septemb,0.004859
serum,0.010536
serv,0.004011
servic,0.011779
set,0.015608
settl,0.011455
settlement,0.105857
settler,0.045499
sever,0.011695
share,0.007854
sharpli,0.007928
shearer,0.013353
sheep,0.016240
shift,0.009767
shill,0.044655
ship,0.011436
shore,0.007662
shortag,0.021954
shortterm,0.007325
sign,0.004617
signific,0.003580
significantli,0.005172
similar,0.003349
simpli,0.004576
simultan,0.005877
sinc,0.008413
sinclair,0.022152
sir,0.012661
site,0.004724
size,0.004367
skill,0.016209
small,0.003431
snook,0.012920
snowi,0.024662
social,0.003567
socialist,0.006274
societi,0.017569
sold,0.017768
solv,0.005161
soon,0.005143
sort,0.005882
sourc,0.014111
south,0.096626
southeast,0.006866
southward,0.009385
southwest,0.007872
special,0.003507
specul,0.017505
spend,0.029108
spike,0.009709
spread,0.009915
squar,0.005942
squat,0.012446
squatter,0.035271
squeez,0.019976
stabil,0.005230
stabl,0.005519
stage,0.004897
stagflat,0.033581
standard,0.015110
start,0.017751
state,0.014724
steadi,0.014376
sterl,0.149097
stimul,0.012553
stock,0.032466
stonemason,0.013353
store,0.005682
strategi,0.010449
stream,0.006722
strict,0.006517
strike,0.024954
strong,0.004075
stronger,0.006752
struggl,0.005879
subject,0.003567
subsequ,0.008753
subsid,0.008320
substanti,0.010413
substitut,0.006232
suburb,0.019474
succeed,0.005733
success,0.014877
sudden,0.008030
suffer,0.005118
suit,0.013039
superior,0.006242
supplant,0.008959
suppli,0.009144
supplier,0.015795
support,0.016673
surpass,0.007918
surplu,0.007379
surround,0.010272
surviv,0.009674
suspend,0.006971
sustain,0.005485
swath,0.010965
swiftli,0.010373
swine,0.011716
sydney,0.052716
symbol,0.005091
symbolis,0.011385
systemat,0.005358
taa,0.014954
tabl,0.005397
tariff,0.030814
task,0.005202
tasmania,0.034258
tax,0.015812
taxat,0.020686
tcf,0.014541
technolog,0.008087
telecommun,0.007310
telegraph,0.008681
televis,0.006321
telstra,0.013353
tend,0.004605
tenur,0.034012
term,0.029152
terra,0.020907
territori,0.004909
textil,0.007583
th,0.009647
thi,0.083912
thoma,0.005016
thu,0.006557
tie,0.010941
tighter,0.010335
time,0.024815
titl,0.005034
took,0.008762
total,0.011739
touch,0.007402
trace,0.005377
trade,0.068972
tradesmen,0.012119
tradit,0.010595
transform,0.004591
transport,0.024040
trend,0.005357
tripl,0.007726
troubl,0.007363
troublesom,0.010393
turn,0.003877
twi,0.028729
twice,0.006684
typic,0.003762
uncertainti,0.006527
unchang,0.007478
uncontrol,0.009751
underli,0.005326
underlin,0.009836
unemploy,0.045982
uniform,0.006502
union,0.016670
unit,0.019802
univers,0.008714
unleash,0.010515
unlimit,0.008392
unpreced,0.007965
unskil,0.009956
urban,0.017648
use,0.009166
ussr,0.008102
util,0.005073
vacant,0.010206
valu,0.025162
valuat,0.015519
van,0.012270
varieti,0.012633
vast,0.011263
vehicl,0.006368
ventur,0.007386
veri,0.006405
victoria,0.098943
victorian,0.009005
vietnam,0.007600
view,0.007189
violenc,0.006679
virtual,0.005546
w,0.009411
wa,0.216165
wage,0.061629
wakefield,0.011562
wakefieldian,0.015824
wale,0.132730
war,0.043825
wartim,0.017864
water,0.008652
way,0.005997
wealth,0.017326
wealthi,0.007318
wealthier,0.010601
weight,0.005653
wellb,0.007502
went,0.010288
west,0.009631
western,0.025313
whale,0.052422
whalebon,0.015201
wheat,0.015951
whi,0.005160
white,0.015974
whitlam,0.107626
wholesal,0.017458
wide,0.010836
wider,0.006386
william,0.008988
williamstown,0.015824
withdraw,0.006741
won,0.005677
wood,0.012943
wool,0.073445
woolgrow,0.015824
work,0.008248
workchoic,0.015201
worker,0.015662
workforc,0.007887
world,0.025591
wors,0.007712
worst,0.015472
year,0.025474
zealand,0.006668
zone,0.011593
