abandon,0.006732
abc,0.003444
abl,0.003034
aboard,0.003528
abolish,0.010040
abov,0.003075
abroad,0.002608
absolut,0.004075
abund,0.002436
accept,0.007541
access,0.004986
accompani,0.002322
account,0.001414
accur,0.002046
acquir,0.001956
act,0.026087
action,0.001476
activ,0.004794
actual,0.003074
adapt,0.001912
addit,0.001215
address,0.001809
adject,0.003283
administ,0.004709
administr,0.020156
adopt,0.001657
advantag,0.003729
advent,0.002627
adventist,0.012587
advisori,0.008860
affair,0.003972
affirm,0.002899
afma,0.005728
afp,0.004713
afternoon,0.004029
age,0.004513
agenc,0.001889
ago,0.002327
agreement,0.005501
agricultur,0.005356
aid,0.001802
ailen,0.005553
aim,0.001715
air,0.003690
airbas,0.004278
airport,0.005292
airstrip,0.004316
alik,0.003237
aliv,0.003001
allow,0.002389
alon,0.002054
alreadi,0.003500
ambul,0.008369
amend,0.007599
america,0.001683
american,0.002722
amynthor,0.005728
analog,0.002146
ancestri,0.003298
ancient,0.001740
anderson,0.012523
andrew,0.004879
anglican,0.010772
ani,0.008469
anim,0.001681
announc,0.008069
annual,0.001845
anoth,0.001155
anson,0.004840
anyon,0.002619
appar,0.002050
appeal,0.006711
appear,0.001391
appli,0.008989
appoint,0.003949
approach,0.001382
april,0.003675
aquat,0.003237
arabl,0.003674
araucaria,0.005152
archaeolog,0.010288
area,0.013124
argu,0.001598
argument,0.002018
aris,0.001959
arisen,0.006561
arm,0.001915
armi,0.004132
arrang,0.007833
arriv,0.021272
arthur,0.002450
ask,0.001985
aspect,0.004736
assembl,0.022504
assent,0.003782
assert,0.002063
asset,0.002220
assist,0.005373
associ,0.001173
assum,0.003328
athol,0.021919
atla,0.002816
attack,0.001936
attend,0.004584
attract,0.001932
augment,0.003093
august,0.001825
australasian,0.004083
australi,0.004713
australia,0.104404
australian,0.164897
author,0.004057
automat,0.002452
autonomi,0.005020
auxiliari,0.003390
avail,0.002936
averag,0.003588
awar,0.002173
away,0.001829
babi,0.003140
bailout,0.007990
ball,0.002966
band,0.005224
bank,0.001737
basalt,0.003962
base,0.002093
basi,0.001496
bat,0.003554
bate,0.007990
baueri,0.011457
bay,0.016277
becam,0.003972
becaus,0.002180
becom,0.006957
beef,0.003511
befor,0.006185
began,0.007232
begin,0.001412
behalf,0.005343
belief,0.001939
benefit,0.003515
best,0.001596
bibliographi,0.002106
bird,0.014836
birdlif,0.004548
bizziebe,0.005728
blackbird,0.004761
blend,0.003036
blow,0.003068
bodi,0.002907
boobook,0.005728
born,0.004092
botan,0.003537
bottl,0.003541
bounti,0.012458
box,0.002715
branch,0.001540
breed,0.008714
brisban,0.004530
britain,0.002040
british,0.009704
broadcast,0.002810
brought,0.003571
brownii,0.011457
buffett,0.008225
build,0.004598
bureau,0.002739
burnt,0.011170
busi,0.001632
butterfli,0.003554
c,0.008317
caledonia,0.003916
came,0.001586
camp,0.002624
campaign,0.002177
campbel,0.003248
canberra,0.015608
cancel,0.002748
candid,0.004469
cane,0.003528
cannabi,0.015667
canopi,0.004218
capac,0.002011
capit,0.007889
captain,0.005855
care,0.005467
carri,0.004691
carrot,0.004478
cascad,0.010461
case,0.002426
cast,0.002464
cat,0.003077
catherin,0.003455
cathol,0.007027
caus,0.001294
causer,0.011106
cctld,0.004761
ceas,0.007351
celebr,0.005000
censu,0.014224
census,0.004371
cent,0.003009
centr,0.007979
central,0.005439
centrelink,0.005635
centuri,0.009966
ceremoni,0.002678
cetacean,0.004229
cfa,0.004065
chagrin,0.004813
chalinolobu,0.005728
chang,0.008750
channel,0.002394
chaplain,0.004530
chapter,0.002261
characteris,0.002908
charismat,0.003758
charter,0.002609
check,0.002515
chief,0.014141
children,0.001995
chimney,0.004290
choic,0.001906
christian,0.005640
church,0.017536
cia,0.002882
circl,0.002337
circuit,0.005474
circumst,0.002228
cite,0.002029
citizen,0.017868
citizenship,0.012096
civil,0.003328
civilian,0.005044
claim,0.004418
clark,0.005618
classif,0.002140
clear,0.001805
clearanc,0.003734
cliff,0.009745
climat,0.008286
climber,0.004840
close,0.005192
closer,0.002400
closur,0.003133
coastlin,0.006035
code,0.001877
colleen,0.004898
colon,0.002574
coloni,0.020062
colonis,0.003286
colour,0.002769
combin,0.001383
come,0.002775
commerci,0.003717
commit,0.004067
committe,0.004163
common,0.005866
commonwealth,0.032581
commun,0.010149
compani,0.004596
compar,0.001435
competitor,0.003005
complet,0.001340
complex,0.001419
comprehens,0.002137
compulsori,0.003068
concern,0.001362
condit,0.002715
conduct,0.001663
confirmatori,0.004840
congreg,0.007015
consequ,0.001649
consid,0.001131
consist,0.007792
constabl,0.004065
constitut,0.007660
constrain,0.002821
construct,0.001502
consult,0.004481
contain,0.001392
contin,0.002500
continu,0.002351
contractu,0.003448
contribut,0.001424
control,0.009024
conven,0.003346
convict,0.028120
cooffici,0.005245
cook,0.005471
coral,0.003207
cordag,0.005413
cost,0.001706
costli,0.003024
council,0.017693
count,0.006639
countri,0.001276
cours,0.001691
court,0.020245
cover,0.017573
cow,0.003346
creat,0.001186
creol,0.003752
crime,0.002407
crimin,0.004915
crimson,0.004690
criteria,0.004860
crop,0.002399
cross,0.002117
cth,0.010304
cuisin,0.003298
cultiv,0.004956
cultur,0.007294
currenc,0.002126
current,0.003726
curriculum,0.003005
custod,0.005479
custodiet,0.005479
custom,0.001962
cyathea,0.010959
danc,0.003111
dar,0.004357
databas,0.002270
date,0.003243
david,0.005171
day,0.002928
deal,0.004689
death,0.006797
debt,0.004500
deceas,0.003444
decemb,0.003561
decid,0.005673
decis,0.004908
declar,0.001874
declin,0.003684
decolon,0.003563
decreas,0.001910
defenc,0.011810
degre,0.003178
deliv,0.002287
deliveri,0.002804
democraci,0.002161
demograph,0.005210
demonstr,0.001744
denomin,0.002891
depart,0.005104
depend,0.001280
deplet,0.003028
deploy,0.002626
deposit,0.002297
depot,0.003954
descend,0.014091
describ,0.001194
descript,0.001773
destroy,0.002029
detain,0.007338
detent,0.007447
determin,0.001347
devast,0.002755
develop,0.004852
devis,0.002661
dictionari,0.002352
did,0.002880
diddl,0.005728
diemen,0.020279
differ,0.001028
differenti,0.001964
difficult,0.001692
digit,0.002166
diplomat,0.002305
direct,0.001288
directli,0.001559
directori,0.003257
disadvantag,0.002877
disagr,0.002759
disappear,0.004934
displac,0.002489
disput,0.001951
disrupt,0.002500
distinct,0.001494
distribut,0.001601
divis,0.001681
dmoz,0.002570
document,0.001873
doe,0.003938
doij,0.021653
dollar,0.002267
dolphin,0.003764
domain,0.001895
domest,0.004021
doublyconvict,0.005635
dove,0.004290
downward,0.003114
driver,0.002974
duchess,0.004512
duck,0.003995
dure,0.010052
duti,0.002309
e,0.003144
earli,0.002336
east,0.007184
econom,0.006392
economi,0.006381
ecoregion,0.003459
edit,0.003656
educ,0.007441
eez,0.014140
effect,0.004539
effort,0.001617
egg,0.002825
eighteen,0.003467
elect,0.006892
elector,0.005012
elig,0.008767
elsewher,0.002408
embrac,0.002635
emerg,0.002994
emigr,0.005873
emili,0.008148
employ,0.001549
employe,0.002447
empress,0.003887
empti,0.002785
encompass,0.002187
encount,0.002300
end,0.001277
endem,0.026033
enforc,0.004380
england,0.004054
english,0.011389
enrol,0.009637
entir,0.003030
entitl,0.002411
entri,0.002259
environ,0.004645
episod,0.002869
equal,0.001590
equival,0.003763
era,0.001845
erod,0.003362
especi,0.001356
establish,0.004987
estat,0.002486
ethnic,0.002305
european,0.004365
europeanonli,0.005728
europeantahitian,0.005728
evacu,0.003193
evan,0.003265
eventu,0.001660
evergreen,0.004415
exceed,0.002453
exchang,0.001651
exclus,0.003991
execut,0.001769
exist,0.006970
experi,0.001436
export,0.004286
expos,0.002340
extend,0.006163
extern,0.003653
extinct,0.013279
extrem,0.001675
f,0.006883
face,0.001753
facil,0.008957
fact,0.001483
factbook,0.005855
fall,0.003189
falter,0.004152
famili,0.003235
far,0.001584
farm,0.004661
farmland,0.003734
fatal,0.003036
fauna,0.002980
favour,0.002297
featur,0.001579
februari,0.009490
feder,0.018600
feet,0.002852
fell,0.002256
fellowship,0.003352
femal,0.002345
fern,0.007894
ff,0.004102
fieldwork,0.003947
figur,0.001730
fijian,0.004647
filipino,0.004003
final,0.001511
financ,0.001851
financi,0.005003
finger,0.003393
fish,0.008718
fisheri,0.003175
flag,0.005579
flax,0.008459
fleet,0.005618
fletcher,0.004152
floor,0.002841
flora,0.006315
flown,0.003916
fm,0.007552
focu,0.001713
follow,0.001998
forc,0.011268
foreign,0.001626
forest,0.012011
forgotten,0.003298
form,0.011458
formal,0.004689
formerli,0.002340
fourteenth,0.003758
franci,0.002392
free,0.004280
freeli,0.002716
frequenc,0.002387
fresh,0.005612
fruit,0.002475
fuel,0.002314
function,0.001278
fund,0.001722
furthermor,0.002140
futur,0.003042
g,0.003379
ga,0.002101
gain,0.001519
galleri,0.003212
gallow,0.005197
gannet,0.005197
garden,0.002794
gari,0.006233
garrison,0.003165
gather,0.002177
gene,0.002423
gener,0.005385
geoffrey,0.003265
geographi,0.002299
gerygon,0.011457
gidley,0.005479
given,0.002505
goat,0.003286
golden,0.002531
good,0.004166
goof,0.005728
gould,0.003717
gouldii,0.005728
govern,0.041577
governor,0.018343
gradual,0.002008
grant,0.007660
graze,0.003507
great,0.001407
greater,0.001573
green,0.006445
grew,0.002087
grey,0.003329
grose,0.005479
ground,0.003635
group,0.005634
grow,0.008009
grown,0.002405
growth,0.001581
guid,0.001766
h,0.003470
ha,0.025822
half,0.003439
hall,0.002370
hand,0.003095
harbour,0.006424
hardcor,0.004869
hardgrav,0.011271
harvest,0.002769
haven,0.003162
hazzard,0.005479
head,0.001612
headquart,0.002767
health,0.013932
heavili,0.004027
held,0.004430
helen,0.003528
hemp,0.008436
herbac,0.004548
heritag,0.005110
heterophylla,0.005728
hi,0.003360
hiatu,0.004093
high,0.005059
highest,0.003825
histor,0.004209
histori,0.012485
hm,0.006634
hoar,0.004278
hold,0.004514
holder,0.002840
hole,0.002843
holiday,0.005880
home,0.005351
homestead,0.004343
hospit,0.004926
hous,0.006703
howard,0.002897
howe,0.008771
howev,0.010138
httpwwwpiscorguk,0.005728
hugh,0.002931
hula,0.005635
humpback,0.005032
hundr,0.001898
hunt,0.010084
hybrid,0.002609
hyland,0.004813
ian,0.003084
iba,0.004962
ident,0.001788
identif,0.002460
identifi,0.003020
ii,0.004904
iiii,0.004813
illeg,0.002517
immigr,0.017401
impact,0.001711
imparja,0.005728
imperi,0.002433
impetu,0.003223
import,0.007458
impos,0.002148
imposs,0.002112
impress,0.002549
improv,0.001537
includ,0.014742
incom,0.009566
increas,0.001201
independ,0.005132
index,0.001984
indic,0.001536
indigen,0.002490
individu,0.002577
induc,0.002473
industri,0.004277
infest,0.004195
influenc,0.005503
inform,0.002483
infrastructur,0.010575
inhabit,0.004343
inland,0.002997
inquiri,0.002491
instal,0.002465
instruct,0.002351
insur,0.002408
integr,0.001507
intellig,0.001949
intern,0.004378
internet,0.002049
introduc,0.005861
introduct,0.006624
involv,0.001211
ipso,0.004761
irrig,0.003157
isbn,0.007383
island,0.555456
isol,0.002028
issu,0.005361
iv,0.005423
jackson,0.003231
jame,0.005285
januari,0.005348
japanes,0.002380
jetti,0.018588
john,0.004262
joint,0.002199
joseph,0.002058
judg,0.002306
juli,0.012630
june,0.012739
just,0.001456
justic,0.004222
justifi,0.002512
kermadec,0.010394
key,0.003179
kilometr,0.014480
kindergarten,0.004343
king,0.001989
kingdom,0.004984
kingston,0.029218
kippi,0.005635
kk,0.004329
km,0.018807
kmh,0.012222
known,0.006262
kppen,0.004163
labor,0.002050
lack,0.001592
land,0.015806
languag,0.015698
larg,0.005503
larger,0.001648
largescal,0.002433
largest,0.003449
late,0.001445
latest,0.002789
launch,0.002103
law,0.016355
lay,0.004700
lead,0.001246
leaf,0.003386
leav,0.007074
led,0.005391
leeward,0.003770
left,0.006659
legal,0.003446
legisl,0.030593
length,0.002072
lettuc,0.004530
level,0.001248
levi,0.005870
liana,0.005479
liber,0.001882
librari,0.003924
licenc,0.007153
lieuten,0.003333
lieutenantgovernor,0.005245
life,0.005370
like,0.001115
limit,0.007652
line,0.001494
link,0.000908
lisl,0.014989
list,0.004645
literaci,0.006128
literatur,0.001865
littl,0.001598
live,0.004051
load,0.005731
local,0.035361
localintern,0.005728
locat,0.016890
lodg,0.003545
london,0.005275
long,0.002711
longer,0.001722
longtitl,0.005728
lord,0.004943
loss,0.001826
lot,0.002572
lotteri,0.003947
low,0.001600
loyalti,0.003026
lucia,0.004074
magistr,0.013122
mail,0.003271
main,0.003966
mainland,0.032554
mainli,0.001733
maintain,0.005824
majesti,0.003648
major,0.007755
make,0.001061
male,0.002342
mammal,0.005287
man,0.001847
manag,0.001495
mani,0.010382
march,0.010390
marcu,0.003301
margaret,0.003051
mari,0.002412
marin,0.004781
mark,0.001676
mass,0.001712
massiv,0.002222
master,0.002228
matter,0.004712
maximum,0.004541
mccullough,0.004713
mean,0.003450
meant,0.002141
medic,0.015384
medicar,0.020325
medicin,0.003982
meet,0.003379
melanesian,0.008507
melbourn,0.011256
member,0.003997
memorandum,0.003690
memori,0.002172
men,0.003872
merval,0.005553
method,0.001293
methodist,0.007775
metr,0.002970
mi,0.021064
michen,0.004869
migrant,0.006519
migrat,0.006693
mild,0.006446
mile,0.007282
militari,0.001689
millimetr,0.004012
million,0.003280
miner,0.002311
minimum,0.002277
minist,0.020725
mink,0.004713
minor,0.005797
mission,0.006246
mix,0.002008
mixtur,0.002611
model,0.005203
moister,0.005352
money,0.001866
month,0.001845
morayshir,0.005479
morgan,0.002964
mostli,0.001781
mount,0.007303
mp,0.006159
mph,0.012061
multipleentri,0.005728
murraybrown,0.005728
museum,0.020145
mutin,0.012910
myth,0.005333
n,0.005626
nation,0.015042
nativ,0.012950
natur,0.002229
nautic,0.007679
navi,0.004998
near,0.001717
nearbi,0.002570
necessari,0.003328
need,0.002510
neighbour,0.005101
nepean,0.016906
new,0.031714
nf,0.004495
nicknam,0.003314
nineteenth,0.002612
nobb,0.022213
nonaustralian,0.010959
nonmainland,0.005635
nonself,0.004605
nonselfgovern,0.004290
nonviol,0.003600
norfk,0.017186
norfolk,0.750282
norfuk,0.027399
normal,0.003329
north,0.004974
northern,0.001952
northwest,0.002856
note,0.001203
notic,0.004740
noun,0.003286
novel,0.004622
novelist,0.007200
novemb,0.005618
nrfk,0.005728
nsw,0.004478
number,0.002089
object,0.001427
observ,0.002756
obtain,0.001623
occupi,0.004187
ocean,0.008595
octob,0.003611
offenc,0.003685
offic,0.005042
offici,0.011097
offshor,0.003044
oil,0.002084
older,0.006574
onc,0.001560
onli,0.010573
oper,0.001317
opinion,0.002219
opposit,0.001718
option,0.002179
order,0.005753
ordin,0.003079
ordinari,0.004554
ordinarili,0.003654
organis,0.007908
origin,0.004629
ornament,0.003495
outdoor,0.003764
outlin,0.004065
outsid,0.003186
overrid,0.003643
oversea,0.004981
overturn,0.003425
overwhelm,0.002800
overwhelmingli,0.003386
owl,0.003902
pacif,0.021783
page,0.002047
palm,0.006508
pan,0.003452
papilio,0.005109
par,0.003204
parakeet,0.010826
parent,0.002351
park,0.014644
parliament,0.018955
parti,0.006455
particip,0.001647
particular,0.001307
particularli,0.001464
partnership,0.002628
pass,0.012978
passport,0.006881
past,0.001656
pastim,0.004446
pastur,0.007833
patient,0.002543
pave,0.002953
paw,0.008714
pay,0.009747
pdf,0.009667
peac,0.002013
penal,0.035034
peopl,0.005756
percent,0.027265
perform,0.001468
period,0.002481
perman,0.012142
permiss,0.002903
permit,0.004253
persecut,0.003009
persist,0.002367
person,0.002732
personnel,0.002580
pest,0.010992
peter,0.007616
petit,0.003088
petrel,0.014284
petti,0.003695
pharmaceut,0.002844
philip,0.002566
phillip,0.022621
phone,0.002980
photo,0.003231
photograph,0.002874
pictur,0.002337
pig,0.006228
pigeon,0.003813
pine,0.024912
pitcairn,0.062231
pitt,0.003909
place,0.004723
plain,0.002728
plan,0.004744
plant,0.007252
plebiscit,0.004003
plu,0.004698
point,0.002422
polic,0.009289
polici,0.001545
polit,0.003931
polynesian,0.015032
pool,0.002734
popul,0.023772
popular,0.004482
port,0.004719
posit,0.002475
possibl,0.001221
post,0.008106
postal,0.009645
postcod,0.004761
power,0.006127
pp,0.007808
practic,0.001281
preambular,0.005728
precipit,0.005507
predominantli,0.002658
prehistor,0.005788
prehistori,0.006015
prepar,0.001942
preserv,0.006054
press,0.002818
prevail,0.002533
previous,0.003650
primari,0.004742
prior,0.001808
prison,0.002541
privat,0.001717
problem,0.001280
process,0.001132
produc,0.003737
product,0.001248
program,0.001506
prohibit,0.002443
properti,0.001449
propos,0.007387
protect,0.004787
protest,0.004450
prove,0.001848
proven,0.002529
provid,0.007437
public,0.001205
punish,0.002634
purpos,0.006230
pursuant,0.003962
pursuit,0.002699
quadrant,0.004152
qualif,0.003042
qualiti,0.001784
queen,0.002513
queensland,0.007818
qui,0.004512
r,0.001602
rabbit,0.003706
radic,0.002195
radio,0.004902
railway,0.002833
rain,0.006081
rainforest,0.010772
rais,0.005298
ran,0.002680
rang,0.001437
rare,0.005912
rat,0.003178
rate,0.002967
raymond,0.003121
rd,0.002144
reach,0.001543
read,0.001319
realiti,0.006197
reason,0.002726
recalcitr,0.004567
receiv,0.004352
recent,0.006575
recidivist,0.005635
recognis,0.007034
record,0.009604
recreat,0.005866
redbrown,0.005553
reddi,0.004586
redtail,0.011106
reduc,0.002877
reduct,0.002185
reef,0.003333
reenter,0.003887
refer,0.001518
referendum,0.007909
reform,0.014861
refuel,0.004329
regard,0.001457
region,0.006799
regist,0.002354
regular,0.002080
regularli,0.002585
regulatori,0.002628
reinvigor,0.004316
rel,0.001361
relat,0.002047
relationship,0.001449
relax,0.002903
relief,0.002707
reliev,0.003178
religi,0.001939
religion,0.009671
reloc,0.003130
remain,0.010048
remaind,0.005636
remedi,0.003003
remnant,0.012146
remot,0.012855
remov,0.003506
renam,0.002636
repeal,0.006873
replac,0.007737
report,0.002919
represent,0.001915
repriev,0.005245
reprint,0.002920
request,0.002308
requir,0.009564
research,0.001232
resettl,0.007228
resid,0.054324
resolut,0.002323
resourc,0.003074
respit,0.004761
respons,0.007903
rest,0.001779
restrict,0.003520
result,0.004231
retain,0.001997
return,0.012295
rev,0.003393
revenu,0.008862
review,0.008508
revis,0.002269
revok,0.007328
rhopalostyli,0.011457
ridg,0.003326
right,0.005451
rise,0.001528
ritual,0.002832
road,0.004411
robert,0.001669
robertson,0.003595
robin,0.003268
role,0.001330
roll,0.002833
roman,0.006111
rome,0.002592
root,0.001918
rosella,0.005728
rosindel,0.005728
roughli,0.004260
row,0.002936
royal,0.004007
rto,0.004690
rubber,0.003295
run,0.003337
russia,0.004463
s,0.003231
safe,0.004966
said,0.001560
sailcloth,0.005553
sale,0.002212
satellit,0.002649
satisfi,0.002252
saturday,0.003794
say,0.001645
sb,0.004055
scheme,0.006857
school,0.012360
scientif,0.003056
sea,0.003875
seabird,0.008633
seafar,0.004112
seashor,0.004430
season,0.004908
seat,0.004494
second,0.004985
section,0.007527
secur,0.001613
seen,0.001490
sei,0.004713
selfgovern,0.042164
selfsuffici,0.003191
send,0.004749
sent,0.006315
sentenc,0.007789
separ,0.011099
septemb,0.001831
sergeant,0.004142
seri,0.001512
seriou,0.006382
serv,0.003023
servic,0.013316
servicemen,0.004446
servitud,0.004055
session,0.002889
set,0.002352
settl,0.010792
settlement,0.053189
settler,0.014288
seven,0.005978
seventhday,0.017062
sever,0.004407
shark,0.003654
sharper,0.004415
shearwat,0.010705
ship,0.012929
shop,0.005667
shore,0.005775
short,0.001619
shortterm,0.002760
shown,0.001831
shrub,0.003852
sight,0.002818
sign,0.003480
signific,0.006746
significantli,0.001949
similar,0.001262
sinc,0.005284
sir,0.002385
sit,0.002794
site,0.001780
sixteen,0.003467
sixtytwo,0.005245
sizeabl,0.007909
skill,0.002036
slaughter,0.007015
slenderbil,0.011106
slightli,0.002290
slope,0.006102
small,0.011640
smaller,0.001797
smallscal,0.003265
smith,0.002239
smooth,0.002803
snell,0.012725
social,0.004033
soldier,0.002404
sole,0.002145
solomon,0.006491
somewhat,0.002240
son,0.002023
sooti,0.004898
south,0.034758
southern,0.003923
southwest,0.005933
soviet,0.002289
spare,0.003289
speak,0.006080
speci,0.015550
special,0.001321
specifi,0.002148
specul,0.002198
speed,0.002161
spend,0.002193
spent,0.007008
spiritu,0.002435
spoken,0.002843
sport,0.002510
sq,0.006310
squar,0.002239
st,0.005111
staf,0.003567
staff,0.004983
stamp,0.003126
stand,0.005959
starl,0.004869
start,0.001337
state,0.006473
station,0.004618
statist,0.005202
statu,0.012356
stay,0.002313
steadili,0.002788
steep,0.003386
steer,0.003491
step,0.001792
stillvalid,0.005728
stock,0.002039
stori,0.002142
strictli,0.002492
strong,0.003071
student,0.003597
studi,0.004467
subclass,0.003873
subhuman,0.004626
subject,0.005378
submerg,0.003752
subscrib,0.003304
subsidis,0.004102
subspeci,0.011402
subtrop,0.023077
suffer,0.001929
suffrag,0.003107
suggest,0.004438
suicid,0.003030
suitabl,0.002346
sunday,0.003507
supplement,0.010467
suppli,0.003446
support,0.007540
suprem,0.004328
surf,0.004046
surgeri,0.002980
surnam,0.003826
surpris,0.002779
surrend,0.005823
surround,0.001935
survey,0.002031
surviv,0.001822
sustain,0.002067
swallowtail,0.005352
swim,0.003433
sydney,0.016555
symbol,0.001918
tahitian,0.018504
taken,0.003095
tale,0.003038
tallest,0.004195
tarzan,0.005069
tasmania,0.012910
tax,0.015890
taxat,0.005197
taylor,0.002659
teach,0.002070
telephon,0.008667
televis,0.004764
temperatur,0.004273
term,0.001997
tern,0.004737
ternlet,0.005728
terrain,0.003150
terrestri,0.002877
territori,0.042549
tertiari,0.003196
text,0.001823
th,0.006059
thanksgiv,0.004813
thcenturi,0.002437
thi,0.007905
thirteenth,0.003563
thoma,0.001890
thorn,0.003794
threaten,0.004806
threequart,0.003752
thrush,0.005109
thu,0.002471
tie,0.002061
tim,0.006659
time,0.009351
toad,0.004241
today,0.003036
togeth,0.001457
tonn,0.003495
took,0.004953
toplevel,0.003433
total,0.002949
tourism,0.009835
tourist,0.008450
tow,0.004265
town,0.002170
trace,0.002026
tract,0.006027
tradit,0.005323
train,0.003650
transfer,0.005425
transit,0.001840
translat,0.001819
transmitt,0.003629
transport,0.007247
travel,0.013063
treat,0.003701
treatment,0.003888
tree,0.006531
treefern,0.011457
trial,0.002411
triller,0.005728
tropicbird,0.009924
truste,0.003734
tv,0.005844
twenti,0.002599
type,0.001270
typic,0.001417
uk,0.005811
unalt,0.004430
unanim,0.003333
understand,0.002869
understori,0.005032
undertak,0.002869
undertaken,0.002723
unhappi,0.003706
uninhabit,0.003339
unit,0.013858
univers,0.003284
unless,0.002368
unloadingload,0.005728
unpav,0.004737
unpopul,0.005553
unrestrict,0.003776
unspecifi,0.007665
use,0.011227
usual,0.003815
utc,0.007200
utilis,0.003475
valid,0.004036
van,0.009247
vari,0.001558
variat,0.001981
varieti,0.001586
variou,0.001203
veget,0.010092
veri,0.002414
vertic,0.002734
vest,0.005544
vet,0.004290
victoria,0.003107
victorian,0.006787
view,0.004063
visa,0.027495
visit,0.004247
visitor,0.014455
vocat,0.003545
vol,0.002271
volcano,0.006252
volunt,0.002913
voluntarili,0.006851
vote,0.014030
voter,0.008505
voyag,0.005782
wa,0.060663
wale,0.047077
war,0.004504
wast,0.002535
watch,0.002694
water,0.001630
waterway,0.003629
wattl,0.005109
wave,0.008525
way,0.001130
weather,0.002591
websit,0.001998
wedgetail,0.011271
wednesday,0.004122
weed,0.007639
weight,0.002130
welfar,0.007303
westminst,0.003524
whale,0.036218
whaleboat,0.005728
whaler,0.004163
wheel,0.003183
whistler,0.005069
white,0.012040
whitechest,0.011457
whiteey,0.016240
whiteneck,0.005728
wide,0.001361
wider,0.002406
wikimedia,0.002946
wildlif,0.003011
wind,0.002511
wine,0.002974
wineri,0.005197
wish,0.002336
work,0.006216
worker,0.001967
world,0.007500
worldwid,0.002144
worst,0.005830
wound,0.002899
wright,0.003135
year,0.011733
york,0.001627
young,0.001962
zealand,0.035184
zealandia,0.005069
zone,0.010922
