aback,0.007066
aboard,0.025087
abort,0.003976
absente,0.010737
absorb,0.002845
accentu,0.004998
accept,0.001787
access,0.001969
accompani,0.005504
account,0.010059
accur,0.004850
accus,0.002854
achil,0.005179
acknowledg,0.002745
acquir,0.004637
acr,0.003809
act,0.009761
action,0.010494
activ,0.007102
actual,0.005465
addit,0.010081
adject,0.003890
administ,0.008371
administr,0.003980
admir,0.020238
admiralti,0.009528
advanc,0.001758
adventur,0.003571
advertis,0.003345
advic,0.003098
aerolinea,0.007251
affair,0.002353
afford,0.003057
aftermath,0.007095
afterward,0.006271
agenc,0.002239
aggress,0.003172
ago,0.005516
agre,0.006438
agreement,0.019556
agricultur,0.010579
aid,0.002135
aidesdecamp,0.007251
air,0.030615
aircraft,0.028455
airfield,0.009131
airlin,0.021741
airplan,0.008352
airport,0.006271
airstrip,0.010230
ajax,0.011610
albatross,0.005368
albemarl,0.011926
albermarl,0.007251
alejandro,0.005069
alert,0.007969
alexandra,0.005196
allegedli,0.003665
allianc,0.002662
allot,0.004323
allow,0.007078
almirant,0.006678
alreadi,0.002073
altern,0.001829
alway,0.001914
ambigu,0.003345
amelior,0.004615
america,0.011970
american,0.017741
amerindian,0.004806
ammunit,0.004425
amok,0.006493
amphibi,0.004873
analys,0.002783
analysi,0.001716
anarchi,0.004288
anchor,0.007746
anchorag,0.014727
andr,0.003715
ani,0.008782
annex,0.003238
announc,0.004781
anomali,0.003887
anoth,0.002738
anson,0.022944
antarct,0.021530
antarctica,0.004244
anthem,0.004137
anthoni,0.003361
antonio,0.007414
anyon,0.003103
appear,0.008244
appoint,0.009360
appreci,0.003158
apprehens,0.004641
approach,0.004914
approxim,0.003879
april,0.010889
ara,0.010869
arch,0.004354
archipelago,0.007226
area,0.015552
arena,0.003934
argentin,0.213762
argentina,0.148316
argentinian,0.005250
argentino,0.006215
arm,0.029507
armi,0.002448
arrest,0.009385
arriv,0.032082
arrowhead,0.005268
arsen,0.004042
artifact,0.003373
ascens,0.004526
asia,0.002444
ask,0.004706
asp,0.005736
assembl,0.002222
assert,0.019563
assign,0.002557
assist,0.006367
associ,0.005562
assum,0.003944
atlant,0.015083
attempt,0.027604
attend,0.002716
attent,0.004642
attitud,0.002922
attribut,0.013277
august,0.008652
auspici,0.005434
australi,0.005585
author,0.016028
authoris,0.004222
avail,0.003480
avert,0.004641
avoid,0.002126
await,0.008499
awar,0.002575
away,0.010842
ayr,0.005434
b,0.003771
ba,0.003787
background,0.002444
bad,0.002920
bahia,0.005642
bajo,0.005920
ban,0.008604
bare,0.007012
barnard,0.045493
barrack,0.019098
barrist,0.005769
base,0.021086
basi,0.001773
battalion,0.004233
batter,0.005347
battl,0.010753
battlecruis,0.006915
bay,0.022503
beagl,0.009449
becam,0.032948
becaus,0.007752
becom,0.002748
beef,0.008322
befor,0.016125
begain,0.007251
began,0.006855
begin,0.001673
begun,0.002729
behalf,0.009498
belief,0.002297
believ,0.003550
belong,0.004850
bemus,0.006493
berkeley,0.006704
biotic,0.004104
biscuit,0.006054
bitterli,0.005179
blackout,0.005099
blacksmith,0.005250
blair,0.004615
bleaker,0.007251
blockad,0.003930
blue,0.003059
blueprint,0.004432
board,0.017334
boat,0.013687
boca,0.004677
bodi,0.001722
bog,0.004972
boggi,0.006788
boiler,0.005146
bonfir,0.011610
boom,0.003256
bougainvil,0.005130
bought,0.006559
bound,0.002568
brachyuru,0.006915
brandi,0.005703
bransfield,0.006915
brave,0.004481
brazil,0.003067
brazilian,0.003957
breakdown,0.003533
breakwat,0.006007
breed,0.006884
brent,0.005040
brenton,0.006342
breton,0.005084
brick,0.004238
brief,0.002720
briefli,0.006368
brig,0.005642
brigsloop,0.006414
brisban,0.037580
britain,0.038690
british,0.182072
brize,0.006414
broken,0.008586
bronx,0.005532
brook,0.003778
brother,0.011514
brotherinlaw,0.004896
brought,0.008463
buen,0.006158
bueno,0.045577
build,0.012714
buildup,0.004227
built,0.017118
buri,0.003394
burnt,0.004412
busi,0.009674
busiest,0.005287
butcher,0.004785
buy,0.005430
buyer,0.003425
byron,0.004785
c,0.001642
cabin,0.005115
cabo,0.005458
california,0.002633
callaghan,0.005963
came,0.005638
camp,0.018662
campaign,0.002580
canal,0.003409
canid,0.010737
canning,0.005532
cano,0.004419
canopu,0.012210
capac,0.002383
cape,0.010832
capit,0.005609
capt,0.010964
captain,0.065918
captur,0.011802
car,0.006075
card,0.006532
care,0.002159
cargo,0.007672
cari,0.010464
carlo,0.006542
carlota,0.011926
carpent,0.004496
carri,0.012972
carrier,0.006905
casa,0.004909
case,0.001437
cast,0.008760
catch,0.003460
cathedr,0.004072
cattl,0.043775
caus,0.003068
cavendish,0.013897
cawkel,0.007251
celebr,0.005925
cemeteri,0.004217
centenari,0.004806
centrepiec,0.005805
centuri,0.016238
certain,0.003146
chalfont,0.021753
chang,0.003888
channel,0.005675
charg,0.004437
charl,0.008807
charra,0.006788
charter,0.006185
cheerless,0.007251
chelsea,0.010428
chenett,0.007251
cheviot,0.021753
chief,0.002394
children,0.007093
chile,0.007437
chilean,0.004590
chose,0.006467
chosen,0.002627
christ,0.003668
chronicl,0.007241
chronomet,0.005585
chrysocyon,0.006915
church,0.010390
cisnero,0.005672
cite,0.012022
citi,0.003970
citizen,0.007058
citizenship,0.003583
civil,0.001972
civilian,0.005977
claim,0.029667
class,0.003813
clayton,0.004972
clean,0.003365
clear,0.002139
clement,0.004127
cleveland,0.004534
clifton,0.005558
climat,0.004909
clio,0.005613
close,0.006153
closer,0.002844
closest,0.003480
cloud,0.003288
cloudi,0.005736
coal,0.010057
coast,0.023615
coastwatch,0.006493
coat,0.003405
code,0.002224
coffin,0.005012
coincid,0.006185
coincident,0.004754
cold,0.005481
collect,0.001677
colonel,0.007869
coloni,0.049924
colonis,0.031156
colonist,0.015723
colour,0.003281
combin,0.001639
come,0.004933
command,0.033770
commanderinchief,0.003992
commemor,0.007698
commenc,0.010433
comment,0.005507
commerci,0.004405
commiss,0.006867
commission,0.003535
commit,0.004819
committe,0.009866
common,0.001390
commun,0.004510
comodoro,0.006414
compani,0.023602
compel,0.003593
compens,0.008718
competit,0.002260
complain,0.003733
complet,0.003176
compon,0.001980
concentr,0.002250
concern,0.001614
concess,0.003636
conclud,0.009406
conclus,0.005123
concordia,0.005532
condemn,0.006477
condit,0.004826
condor,0.005327
conduct,0.003941
confirm,0.004957
confisc,0.004038
conflict,0.006424
confus,0.002587
connect,0.001893
conor,0.006915
conscript,0.004137
consecr,0.009842
consejo,0.005506
consequ,0.001955
conserv,0.009129
consid,0.010727
consider,0.005796
consist,0.003077
consort,0.005163
constantli,0.003205
constitut,0.005446
construct,0.017805
consul,0.015188
consult,0.002655
consum,0.002289
contain,0.001649
context,0.002022
contin,0.005925
conting,0.003339
continu,0.022291
contract,0.004613
contradict,0.006142
contribut,0.005062
control,0.006110
controversi,0.004531
conven,0.003965
convinc,0.003060
cook,0.003241
copi,0.002772
cordial,0.004518
corpor,0.002255
corridor,0.004329
cosmo,0.003890
council,0.004193
counterproduct,0.004774
counti,0.003421
countri,0.006052
countrymen,0.005327
countrysid,0.003769
cours,0.004008
court,0.004361
courtesi,0.004946
cove,0.005115
covert,0.004573
covertli,0.005307
cowboy,0.005506
craft,0.006917
crash,0.003419
crdoba,0.004985
creat,0.004219
creation,0.002092
creditor,0.004013
creek,0.009373
creol,0.004446
crew,0.021695
crime,0.002852
crisi,0.002372
cristina,0.005347
critic,0.001691
cross,0.002509
crown,0.008934
crude,0.003610
cruis,0.008145
cruiser,0.004828
cumberland,0.005347
current,0.002944
d,0.001861
daili,0.002689
dale,0.004405
damag,0.009925
dampier,0.005585
daranda,0.014502
dardo,0.007251
darwin,0.032178
data,0.001835
davi,0.010002
david,0.002042
day,0.013881
dc,0.003184
death,0.004027
decemb,0.008440
decid,0.011204
decis,0.003877
deck,0.004985
declar,0.006662
declin,0.013099
decolonis,0.009818
deepwat,0.010359
defenc,0.013995
degre,0.003766
del,0.020829
delay,0.002936
deleg,0.003246
deliv,0.005420
demand,0.002052
demis,0.004063
democrat,0.004506
denounc,0.003724
depart,0.010080
departur,0.007062
depend,0.010620
deploy,0.003111
depot,0.004686
depred,0.005920
depriv,0.003693
deputi,0.009237
derail,0.005558
desarrollada,0.006788
descend,0.002783
describ,0.004245
descript,0.006305
design,0.003377
desir,0.002164
desol,0.005506
despit,0.007799
destefani,0.036255
destin,0.006435
destroy,0.009618
destruct,0.010885
detach,0.007484
deter,0.004212
determin,0.001596
devalu,0.003916
develop,0.019549
diall,0.006215
diana,0.004659
dickson,0.015298
did,0.011948
die,0.002203
diesel,0.004659
differ,0.002437
difficulti,0.002483
dignitari,0.005287
dine,0.004806
dinner,0.004581
diplomat,0.016390
direct,0.004580
director,0.002764
dirigida,0.006788
disadvantag,0.003409
disarm,0.004659
discov,0.018224
discoveri,0.019382
discuss,0.003752
disembark,0.005268
dismiss,0.003063
disprov,0.003972
disput,0.004625
dissatisfact,0.004244
distinct,0.001770
diversifi,0.006964
divert,0.004038
divid,0.001823
divis,0.001992
dna,0.002967
dockyard,0.005532
document,0.002219
domain,0.002245
domin,0.003784
don,0.003816
donat,0.006888
doubt,0.008902
draft,0.002967
dramat,0.007790
drastic,0.006884
dreari,0.006342
drift,0.003545
drive,0.004941
dugal,0.007251
duke,0.003626
duncan,0.017109
dure,0.015883
dusicyon,0.006915
dutchman,0.005287
duti,0.005472
eagl,0.013139
earli,0.011076
earlier,0.004091
earliest,0.002313
earth,0.002173
east,0.025540
econom,0.012119
economi,0.009452
edit,0.002166
edmund,0.003522
educ,0.003527
effect,0.002689
effort,0.005751
egmont,0.050743
eighteen,0.008217
elect,0.002041
eleph,0.003829
elimin,0.002394
eliza,0.005307
elizabeth,0.003293
elsewher,0.002853
embargo,0.004156
embrac,0.003122
emerg,0.001774
emphasi,0.002510
employ,0.001836
employe,0.005801
enabl,0.002195
enact,0.006137
encamp,0.005347
encount,0.005453
encourag,0.009101
end,0.009081
endur,0.003378
enemi,0.006188
enforc,0.002595
engag,0.006576
engin,0.001995
england,0.004804
english,0.009640
enlarg,0.003535
enter,0.004047
enterpris,0.010423
enthus,0.006580
entir,0.008978
entitl,0.005715
entri,0.002677
environment,0.002225
erect,0.003753
ernest,0.003561
ernesto,0.004933
error,0.007897
escud,0.006788
establish,0.035457
estado,0.004861
esteban,0.005585
esteem,0.004557
estero,0.006580
estvo,0.006007
european,0.008621
event,0.005404
eventu,0.001967
everi,0.001732
everyon,0.003196
everyth,0.002756
evid,0.009438
exactli,0.002711
exchang,0.005870
exclus,0.002364
execut,0.004194
exempt,0.003598
exist,0.001376
exit,0.003631
expand,0.003916
expans,0.004671
expecit,0.007251
expect,0.001902
expedit,0.031314
expeditionari,0.009336
expel,0.003337
expens,0.009889
experienc,0.004970
exploit,0.030924
explor,0.016874
express,0.001793
extend,0.001825
extens,0.001869
exterior,0.004090
extern,0.001082
extinct,0.003147
extrem,0.003971
f,0.002039
faa,0.005585
face,0.004155
facil,0.010614
fact,0.001757
facto,0.003356
factor,0.001755
factori,0.003029
fahrenheit,0.004909
fail,0.002081
failur,0.002408
fairli,0.003135
falkland,0.534980
fals,0.002807
fame,0.003644
famil,0.005880
famili,0.011501
famou,0.004573
famous,0.003595
fan,0.003894
far,0.001877
farm,0.022096
farmer,0.002930
fatal,0.003598
favour,0.002722
februari,0.006747
felt,0.005844
feral,0.025062
ferdinand,0.003742
fernandez,0.005506
ferri,0.008434
fewer,0.002935
fic,0.013831
fid,0.006342
field,0.003023
fierc,0.003806
fiftyseven,0.006007
fig,0.013602
fight,0.007792
figurehead,0.004885
final,0.001790
financ,0.004387
finish,0.003185
firm,0.002472
firmli,0.003618
fish,0.018079
fisher,0.003652
fisheri,0.015052
fishsalt,0.007251
fit,0.005040
fitzgerald,0.010199
fitzroy,0.015121
flag,0.016528
flagpol,0.006054
flashpoint,0.006493
fled,0.003350
flew,0.004306
fli,0.006179
flight,0.021229
float,0.006556
florida,0.003633
flourish,0.003046
flown,0.004641
focus,0.001927
foinaven,0.006915
folk,0.003578
follow,0.022499
food,0.002130
foot,0.003216
forbid,0.003980
forc,0.053414
foreign,0.007708
forest,0.002846
form,0.005657
formal,0.007409
format,0.008076
forti,0.003695
foster,0.003164
fourman,0.006414
fox,0.015252
foxlik,0.006915
fpso,0.006915
franc,0.006357
free,0.001690
freedom,0.004673
freez,0.003836
french,0.015937
frequent,0.004161
friend,0.002940
friendli,0.003409
frigat,0.009410
frontpag,0.006158
fruit,0.002933
frustrat,0.003797
ft,0.003235
fuego,0.016304
fuel,0.002743
fuerza,0.005841
fulli,0.002231
fur,0.016362
furious,0.006342
furnish,0.004212
futur,0.009014
ga,0.002490
gain,0.001800
gallego,0.005703
gang,0.016380
garcia,0.004795
garden,0.003310
garner,0.004127
garrison,0.033758
gather,0.007741
gaucho,0.046734
gave,0.010770
gearbox,0.006493
gelnuevohac,0.007066
gener,0.003191
gentoo,0.006678
geograph,0.002407
georg,0.006400
georgia,0.010614
german,0.004181
germani,0.002228
giant,0.003236
gibraltar,0.004489
gibraltarian,0.006158
gift,0.003341
giovenco,0.007251
given,0.007423
gleadel,0.007251
global,0.001965
goe,0.002663
gold,0.005148
golden,0.002999
gome,0.015643
good,0.004937
goos,0.033512
govern,0.054899
governor,0.035322
graf,0.015921
grand,0.002875
grant,0.013615
grass,0.014921
graze,0.004156
great,0.006673
greatli,0.004848
green,0.012728
grew,0.007421
grey,0.007891
ground,0.002154
group,0.010682
grow,0.005694
growth,0.001873
grumman,0.006007
gt,0.010261
guard,0.009282
guglielmo,0.005506
gun,0.010427
gunshot,0.005307
guzmn,0.022233
h,0.004112
ha,0.010857
half,0.006112
halfmil,0.006678
hand,0.001834
handl,0.005383
hang,0.003965
happen,0.004679
harass,0.004025
harbor,0.003704
harbour,0.045680
harrier,0.006007
harriet,0.004839
haskard,0.007251
hate,0.004249
haul,0.004896
haunt,0.004946
hawkin,0.025575
hazard,0.003380
head,0.003822
headlin,0.004606
heard,0.003519
heavi,0.002558
heavili,0.002386
hebe,0.007066
heckl,0.006915
heighten,0.004283
help,0.001620
henc,0.002309
henri,0.002385
herm,0.010230
hero,0.007021
heroin,0.004659
herona,0.021753
hi,0.070346
highli,0.001948
highprofil,0.004557
higton,0.007251
hijack,0.023873
hill,0.008834
hire,0.003232
histori,0.004931
historia,0.004249
historian,0.004988
hit,0.006129
hm,0.047171
hoist,0.005268
hole,0.003369
holiday,0.003484
home,0.002113
honor,0.003062
hope,0.010081
horn,0.007507
hors,0.003197
hospit,0.002919
hostag,0.013177
hostil,0.006140
hotel,0.007128
hound,0.005482
hous,0.025815
household,0.002944
howard,0.010301
howev,0.016819
howick,0.006788
hq,0.005558
hu,0.004534
huge,0.005506
human,0.001426
hundr,0.002249
hunt,0.032863
hunterchristi,0.007251
hut,0.004828
hypothesi,0.002578
ian,0.003654
iata,0.006788
icon,0.003984
idea,0.001661
ident,0.002119
identifi,0.003578
ignacio,0.004998
ignor,0.002567
illeg,0.005965
illustri,0.010780
imag,0.004558
immedi,0.008704
immigr,0.005891
impati,0.005327
implic,0.002579
import,0.005050
impress,0.003021
improv,0.010929
inaugur,0.003419
incid,0.014645
includ,0.020552
inconceiv,0.005163
inconveni,0.004764
incorpor,0.002032
increas,0.009964
increasingli,0.002182
incur,0.003549
incurs,0.004021
independ,0.004561
india,0.002266
indian,0.012252
indic,0.003642
indirectli,0.003190
indispens,0.004132
industri,0.005068
inform,0.005886
infrastructur,0.005012
initi,0.019300
inn,0.009508
inspir,0.002449
instal,0.017527
instead,0.005201
instruct,0.005573
insuffici,0.003356
intellig,0.002309
intend,0.009166
intensif,0.004972
interchang,0.003388
intercoloni,0.006493
interior,0.002905
intern,0.007783
internacional,0.006493
internet,0.004856
interpret,0.001974
intersect,0.003335
intervent,0.002685
introduc,0.013891
introduct,0.005887
invad,0.008881
invas,0.021594
invest,0.002107
invinc,0.015921
invit,0.006101
involv,0.001435
irish,0.003510
iron,0.005302
isabella,0.026344
isl,0.003800
isla,0.013511
island,0.484883
isol,0.002403
issu,0.009530
isthmu,0.009842
itiner,0.005099
j,0.003718
jackson,0.003829
jacqu,0.003433
jame,0.008351
janeiro,0.004873
januari,0.012675
japan,0.002447
japanes,0.002821
jason,0.022671
jaw,0.004399
jean,0.003070
jet,0.007241
jetti,0.005506
jewett,0.066085
jim,0.003912
jl,0.005084
jo,0.007044
john,0.008418
johnson,0.003382
join,0.004403
joint,0.002606
jorg,0.004392
jose,0.008759
journal,0.001903
journey,0.010320
jp,0.004503
juan,0.010933
jubile,0.015164
judi,0.005146
judici,0.002841
judiciari,0.003293
juic,0.004659
juli,0.010690
june,0.006469
juno,0.005196
junta,0.008312
jurisdict,0.003004
just,0.001726
keppel,0.006215
kept,0.002667
kidnapp,0.006158
kill,0.007330
kilometr,0.006863
kind,0.001971
kingdom,0.003937
kit,0.004606
km,0.002785
knit,0.005130
knitwear,0.006580
known,0.009894
la,0.007411
lack,0.003774
lade,0.012553
lafon,0.038489
lafonia,0.036255
laid,0.008380
lan,0.005069
land,0.041208
landfal,0.005412
landlord,0.008624
lane,0.003784
langsdorf,0.006915
languag,0.001860
larg,0.014347
larger,0.001953
largest,0.006132
late,0.005140
later,0.041212
latin,0.002326
latitud,0.026277
laughingli,0.007251
launch,0.004984
laurio,0.007251
law,0.002981
lay,0.002784
layout,0.004146
le,0.008844
lead,0.001476
leader,0.006492
leadership,0.005370
leagu,0.006073
leap,0.003938
leav,0.018862
led,0.007986
left,0.013809
legaci,0.003111
legisl,0.002265
length,0.002455
letter,0.009772
level,0.004439
lexington,0.044516
licenc,0.004238
licens,0.002946
lieuten,0.015799
life,0.001590
light,0.002040
lighthous,0.004885
lightn,0.004244
like,0.003965
likewis,0.002931
limit,0.001511
line,0.012398
lineag,0.003662
linger,0.004496
link,0.010760
lion,0.007705
littl,0.007576
live,0.001600
lnea,0.006276
lo,0.003394
lobbi,0.007607
local,0.015085
locat,0.009097
loch,0.005703
lock,0.006410
lodg,0.012605
log,0.003467
lombardo,0.006788
london,0.014586
long,0.009640
longboat,0.005880
longer,0.004082
longest,0.003547
longitud,0.008445
longleg,0.006342
look,0.010216
lord,0.032219
loss,0.004329
lost,0.002150
loui,0.036302
love,0.002937
lovegrov,0.007251
low,0.003793
lowcay,0.021753
lt,0.045577
lucr,0.004081
lui,0.015411
m,0.005309
macbrid,0.006414
madariaga,0.006788
magellan,0.023771
maidenland,0.007251
mail,0.007753
main,0.003133
mainland,0.012858
mainli,0.004108
maintain,0.005176
mainten,0.002968
major,0.013128
make,0.005033
male,0.002775
malouin,0.021199
malvina,0.012109
man,0.006568
manag,0.005316
mane,0.011013
mani,0.012303
map,0.009055
mara,0.008577
march,0.004104
marconi,0.005347
mare,0.004985
margaret,0.010847
mari,0.005717
maria,0.003657
marin,0.005665
maritim,0.003185
mark,0.001986
market,0.003704
marmont,0.007066
maroon,0.010614
marri,0.003102
martin,0.002619
mass,0.002029
massiv,0.007899
mast,0.004850
master,0.002640
matter,0.001861
matthew,0.014353
maximilian,0.004959
mean,0.005451
meant,0.005076
measur,0.008104
medal,0.003633
medic,0.006836
meet,0.016017
member,0.003157
memorandum,0.004373
men,0.011473
menem,0.006215
mercenari,0.004233
merchant,0.011756
mere,0.002434
merit,0.003531
mess,0.005458
mestivi,0.014502
methodolog,0.002619
mi,0.006240
michael,0.002277
mid,0.002464
midsumm,0.005769
midth,0.003053
miguel,0.008510
mile,0.002876
militari,0.022020
million,0.003887
minefield,0.006105
miner,0.005479
minimum,0.002699
minist,0.004465
ministri,0.002660
minut,0.002953
miser,0.009373
missil,0.003856
mission,0.009869
missionari,0.003504
mistak,0.003405
moccasin,0.007066
moder,0.002834
modern,0.002968
modernday,0.003522
monitor,0.002676
monopoli,0.006341
montevideo,0.021739
month,0.015304
moodi,0.055802
moor,0.006679
mother,0.002851
mount,0.020193
mouth,0.003508
movement,0.001706
mpn,0.006678
mr,0.003326
mud,0.004323
mullet,0.006158
murder,0.003142
musket,0.004764
mutini,0.017201
mutton,0.005805
mv,0.004650
nanci,0.008382
nanina,0.029004
narr,0.003256
nation,0.010969
nativ,0.002557
natur,0.005284
naval,0.028094
navi,0.023694
near,0.012207
nearli,0.004310
necessari,0.003944
need,0.002975
neg,0.002145
negoti,0.010360
net,0.002601
network,0.006206
new,0.023212
newfound,0.004795
newli,0.005207
newspap,0.003063
night,0.003035
nissen,0.006215
nonetheless,0.006190
nonsens,0.004266
north,0.005894
norton,0.003856
notabl,0.001898
note,0.002853
notori,0.003927
novemb,0.013316
nowaday,0.003745
nuclear,0.015171
number,0.014855
numer,0.003666
object,0.001691
obra,0.006342
obrian,0.006276
observ,0.001633
obstacl,0.003571
obtain,0.011540
obviou,0.003125
occasion,0.008374
occup,0.005156
occupi,0.002480
ocean,0.007639
octob,0.010699
offer,0.001840
offic,0.013942
offici,0.005636
offload,0.005412
offshor,0.003608
oil,0.017289
old,0.002047
onc,0.003698
onesid,0.005232
onetoon,0.004399
oneway,0.004909
onli,0.019364
onshor,0.005146
onslow,0.012210
open,0.011858
oper,0.024977
opportun,0.004674
opposit,0.002036
orang,0.003698
order,0.010909
organ,0.001349
organis,0.002342
origin,0.004114
otherwis,0.004707
outer,0.003161
outfit,0.005130
outpost,0.004312
outsid,0.003775
oversea,0.005902
ownership,0.002906
oxfordshir,0.005390
pacheco,0.011285
pacif,0.002868
pact,0.003715
paleozoogeograph,0.007251
paltri,0.005920
pamphlet,0.004181
panama,0.008076
paper,0.002041
para,0.004623
paramount,0.004151
park,0.002892
parliamentari,0.005667
parti,0.011473
partial,0.002276
particularli,0.005206
partli,0.002660
partner,0.002705
pasco,0.006915
pass,0.005767
passag,0.002948
passeng,0.018410
passport,0.004077
past,0.003926
patagonia,0.022128
patagonian,0.016927
patent,0.003302
patrick,0.003583
patriot,0.003610
patrol,0.003980
pattern,0.002111
pay,0.002310
peac,0.002386
peat,0.030158
pebbl,0.004909
peck,0.010199
pelt,0.005532
pembrok,0.006007
penal,0.008303
penguin,0.007443
peninsular,0.009318
pension,0.006876
peopl,0.004093
pepper,0.004392
period,0.010292
perman,0.011990
permiss,0.017200
peron,0.006215
peronista,0.006788
persist,0.005611
person,0.003238
petit,0.007320
petrol,0.004873
phantom,0.004909
philanthropist,0.004959
pig,0.003690
pigafetta,0.011760
pilot,0.007331
pinedo,0.014133
piraci,0.021930
pistol,0.010614
pitaluga,0.007251
place,0.009796
plain,0.003233
plan,0.009370
plane,0.014902
plant,0.006445
plaqu,0.009570
plata,0.005163
plate,0.028918
play,0.001786
pleasant,0.017596
plimsol,0.006678
plotter,0.005327
plunder,0.004249
pm,0.003747
point,0.005741
pole,0.006855
polic,0.013760
polici,0.001831
polit,0.004659
popul,0.015845
popular,0.001770
por,0.005250
port,0.125830
portofcal,0.006276
portray,0.003221
portugues,0.015750
posit,0.007332
possess,0.011118
possibl,0.005789
post,0.007204
postal,0.007619
postwar,0.013461
postwwii,0.005585
potenti,0.007348
powder,0.004217
power,0.005808
practic,0.001518
precolumbian,0.004373
predat,0.003150
predecessor,0.003094
preeuropean,0.010575
prefabr,0.005920
prepar,0.006904
presenc,0.015020
present,0.005675
presid,0.006156
press,0.001670
pressur,0.010680
prevent,0.006085
previou,0.004279
price,0.002100
prime,0.004559
princ,0.003062
princess,0.008303
princip,0.004433
prior,0.004286
prison,0.009035
privat,0.010173
prize,0.007939
probabl,0.002036
problem,0.006070
proclaim,0.003210
produc,0.001476
product,0.004436
project,0.001755
promis,0.010665
promissori,0.010230
promot,0.002024
proof,0.002893
propaganda,0.003794
proper,0.002545
properti,0.005154
proport,0.002346
propos,0.003501
protect,0.003782
protest,0.013185
prove,0.013139
provid,0.012589
provinc,0.018362
provis,0.002763
proviso,0.005327
provisoria,0.007251
public,0.004287
publicada,0.006678
publish,0.004724
puerto,0.020408
punta,0.005482
pure,0.002243
purpos,0.003691
pursu,0.005161
push,0.002698
queen,0.011912
quickli,0.004619
quit,0.004796
racecours,0.019480
radio,0.005810
raf,0.027954
raid,0.016893
rais,0.006278
ran,0.003176
ranch,0.004754
rangatira,0.014502
rapid,0.002459
rapidli,0.002392
ration,0.002445
ravin,0.005769
reach,0.003657
react,0.003144
read,0.003126
reaffirm,0.004271
real,0.001867
realis,0.007257
realli,0.002895
rear,0.004025
reassert,0.004474
rebellion,0.003213
rebuk,0.005232
receiv,0.017193
recent,0.004675
recept,0.003561
recognis,0.002778
recommenc,0.006054
recommend,0.005305
recov,0.002770
recoveri,0.002995
recreat,0.003475
reduc,0.003409
reestablish,0.003427
refer,0.004499
refriger,0.004354
refuel,0.005130
refug,0.011518
refus,0.010504
regard,0.001726
regiment,0.008110
region,0.003223
regular,0.004930
reject,0.006655
rejoic,0.005672
rel,0.001613
relacion,0.012829
relat,0.008493
relationship,0.001717
relay,0.004181
reli,0.004336
reliabl,0.002690
relianc,0.003608
reliev,0.015064
remain,0.017860
remark,0.002760
remot,0.003046
remov,0.002077
renam,0.012497
render,0.002951
reneg,0.005196
reoccup,0.006414
repair,0.012815
replac,0.005501
repli,0.003701
replic,0.003176
report,0.027674
repositori,0.004238
repres,0.008857
repris,0.014004
request,0.005470
requir,0.004250
rescu,0.021427
research,0.001459
reserv,0.002393
resid,0.021457
resign,0.003075
resist,0.002332
resolut,0.002753
resolv,0.002614
resourc,0.009109
respect,0.008557
respond,0.004854
respons,0.009365
restor,0.005090
restrict,0.006257
result,0.016296
resum,0.003442
retreat,0.003475
return,0.030962
revenu,0.002625
revert,0.003938
revisit,0.004161
reviv,0.008579
richard,0.006669
right,0.014534
rio,0.012340
rise,0.001810
risen,0.003790
rivadavia,0.006342
river,0.022143
rivero,0.038057
rn,0.004373
road,0.018298
robberi,0.004959
robinson,0.003690
rockhopp,0.012553
role,0.003153
rope,0.004342
ross,0.014728
roughli,0.002524
rout,0.002709
row,0.006960
royal,0.037992
rr,0.009591
ruin,0.003578
rule,0.003285
rump,0.005214
run,0.003955
runway,0.009410
rush,0.011792
russel,0.003154
s,0.024251
said,0.001849
sail,0.020423
sailor,0.011548
saint,0.006018
saintmalo,0.006007
salmon,0.004549
salt,0.003083
salut,0.004998
salvador,0.004146
samson,0.005482
samuel,0.003199
san,0.002857
sandwich,0.008963
sang,0.005163
sank,0.008949
sansn,0.007251
sanson,0.006678
santiago,0.008746
sapper,0.018023
sarand,0.013161
saunder,0.004373
saw,0.008809
say,0.001949
scale,0.002036
scholarship,0.003217
school,0.012816
schooner,0.005506
scientif,0.001810
scot,0.004677
scotch,0.006105
scottish,0.003454
scuttl,0.005368
sea,0.016073
seal,0.053998
sealer,0.050743
sealink,0.006915
seamen,0.005368
sebald,0.019742
sebaldin,0.007251
sebaldina,0.007251
second,0.011816
secondari,0.002562
secondlargest,0.004294
secret,0.002776
secretari,0.005880
seek,0.002019
seen,0.003531
seiz,0.003094
select,0.003913
selfgovern,0.003568
selfrefit,0.007251
send,0.002814
sens,0.001851
sent,0.027438
sentenc,0.006153
separ,0.008220
septemb,0.010851
sergeant,0.004909
seri,0.005378
seriou,0.005042
servic,0.017533
set,0.012546
setback,0.004171
settlement,0.081413
settler,0.020318
seven,0.011807
sever,0.009139
shackleton,0.038374
shallow,0.003806
shear,0.004227
shed,0.011508
sheep,0.047139
sheepfarm,0.006493
shelter,0.003508
shepherd,0.004615
shetland,0.005585
shift,0.002180
ship,0.127674
shiprepair,0.014502
shop,0.006715
shore,0.017109
shorn,0.005769
short,0.003837
shortli,0.008402
shot,0.003499
shoulderflash,0.007251
shower,0.004896
sibbel,0.007251
sight,0.016697
sign,0.006186
signag,0.006054
signal,0.005178
signific,0.001598
significantli,0.002309
sila,0.011539
similar,0.001495
similarli,0.002372
simpl,0.001990
sinc,0.008766
sir,0.008480
site,0.012658
situat,0.001928
size,0.001950
slacken,0.005920
slept,0.005613
slip,0.012411
slow,0.002585
slump,0.004481
small,0.007662
smaller,0.002129
smith,0.018575
smoke,0.003721
socal,0.002527
societi,0.004707
sod,0.006414
soil,0.002837
sold,0.002644
soldier,0.014249
soledad,0.032903
solitud,0.005268
sometim,0.001630
son,0.004796
soon,0.009186
sought,0.007319
sound,0.013185
sour,0.009449
sourc,0.003150
south,0.039227
southcentr,0.005613
southern,0.013947
sovereignti,0.039264
space,0.001931
spain,0.018630
spaniard,0.004294
spanish,0.043337
spanishlanguag,0.006678
spark,0.003314
speci,0.002303
special,0.004699
specul,0.002605
spee,0.032074
speedwel,0.007251
spencer,0.004108
spent,0.005536
sperm,0.004132
spiritu,0.002885
spitfir,0.005805
split,0.002574
spur,0.007035
squadron,0.021220
squalid,0.006580
squid,0.004650
st,0.006057
staff,0.002952
stage,0.002187
stagnat,0.007501
stamp,0.003704
stand,0.002353
stanley,0.128649
star,0.002777
start,0.004756
state,0.012054
station,0.035570
statu,0.004183
stay,0.005482
steam,0.003730
steamship,0.004946
steep,0.004013
steepl,0.012430
steinhardt,0.006342
stem,0.005630
stock,0.004832
stop,0.002474
storag,0.005960
store,0.010149
storekeep,0.006580
stori,0.005077
storm,0.007017
storni,0.007251
stott,0.006414
strait,0.003930
strateg,0.002733
street,0.002857
strengthen,0.005665
strong,0.003639
struck,0.003561
structur,0.002926
studi,0.001323
stunt,0.009770
subject,0.001593
submarin,0.011353
subsequ,0.003909
subsidis,0.004861
substanti,0.002325
succeed,0.002560
success,0.003321
successor,0.002813
suceso,0.007251
suffer,0.004571
suggest,0.005260
suitabl,0.005560
summer,0.002897
sunday,0.004156
sunk,0.004496
sunset,0.004744
superior,0.005575
supermarin,0.005963
suppli,0.010209
support,0.002978
suppos,0.002752
suppress,0.002868
suprem,0.002564
surfac,0.002267
surplu,0.003295
surrend,0.006900
surrenderedthey,0.007251
surround,0.004587
survey,0.016852
surviv,0.004320
survivor,0.027236
suspicion,0.004025
sutton,0.004921
switch,0.006150
symbol,0.002273
tabarin,0.014502
tabernacl,0.005805
tabloid,0.005585
tactic,0.006661
taken,0.014671
talk,0.013475
tallow,0.005841
tarjeta,0.006915
tarmack,0.007251
task,0.011617
taxat,0.003079
teacher,0.002870
team,0.002615
technic,0.002227
technolog,0.001805
tehuelch,0.006915
telecommun,0.003264
telegram,0.005307
telegraph,0.003876
telegraphi,0.005268
telephon,0.017119
telephoni,0.009970
temper,0.003778
temperatur,0.002531
temporari,0.005907
tension,0.005689
termin,0.002934
terri,0.004233
territori,0.006576
th,0.012925
thatcher,0.018295
thcenturi,0.002887
themselv,0.013004
thereaft,0.006549
thermomet,0.004526
thi,0.038408
thinktank,0.005434
thoma,0.004480
thousand,0.002208
threat,0.002627
thrust,0.004405
thu,0.001464
thule,0.005613
tiein,0.005736
tierra,0.015590
till,0.007562
timber,0.003750
time,0.018838
timelin,0.002948
togeth,0.003454
told,0.006352
ton,0.003396
toni,0.003880
took,0.027392
toppl,0.004467
total,0.001747
touch,0.003305
tour,0.003613
tourism,0.005827
tourist,0.006675
town,0.005143
trade,0.010870
tradit,0.006308
train,0.002162
transfer,0.002143
translat,0.002156
transport,0.006441
trap,0.003281
travel,0.011057
treatment,0.002303
tree,0.007739
trend,0.002392
tri,0.005914
trial,0.002857
trident,0.005841
trip,0.006921
troubl,0.003288
trypot,0.007066
turf,0.005880
turn,0.005194
tussac,0.014502
tussock,0.012109
twelv,0.003303
twenti,0.003080
twentieth,0.002954
twentyon,0.004998
twiceweekli,0.006342
twinscrew,0.007251
typic,0.001680
tyssen,0.021753
uk,0.032139
ultim,0.002166
unabl,0.002602
unavail,0.004095
unawar,0.012218
uncommon,0.003839
uncontrol,0.004354
undercarriag,0.006276
underman,0.006678
undermin,0.003319
undertak,0.006799
uneconom,0.005130
unev,0.006915
unharm,0.005532
uninhabit,0.007914
union,0.003722
unit,0.017685
unknown,0.007779
unnam,0.004659
unproduct,0.004534
unseaworthi,0.013356
unsuccess,0.006442
unsuit,0.004453
unusu,0.009109
unviabl,0.012553
unwil,0.004354
upcom,0.004312
upland,0.005268
urgent,0.004260
uruguay,0.004283
use,0.016374
usn,0.006105
uss,0.008413
vanguard,0.004573
variou,0.002851
vast,0.002514
ventur,0.006597
verbal,0.003603
vernet,0.235140
verrier,0.006105
vessel,0.009147
viabl,0.003446
vicin,0.004042
victoria,0.003682
view,0.003210
villa,0.008721
virgin,0.003836
virtual,0.002476
viscount,0.005179
visit,0.047810
volunt,0.010357
von,0.002540
voyag,0.017129
wa,0.173552
wage,0.002752
waldron,0.017889
wale,0.006973
wall,0.005303
want,0.004624
war,0.065829
ward,0.003832
wareffort,0.006678
warehous,0.004419
warrah,0.021753
warship,0.008199
wartim,0.003988
water,0.003863
waterfront,0.005368
way,0.005356
weapon,0.008343
weather,0.009214
weddel,0.035778
week,0.005264
weekli,0.003715
weert,0.013831
welcom,0.010370
welfar,0.005769
went,0.009188
west,0.019355
whale,0.031213
whalebon,0.006788
whaler,0.009867
whenev,0.003524
whilst,0.012941
white,0.002377
whittington,0.066780
widow,0.004222
wife,0.003228
wild,0.003213
wildlif,0.007137
william,0.010034
wine,0.003524
winter,0.006207
wireless,0.004059
wisdom,0.003316
wish,0.011077
withdraw,0.012041
withdrawn,0.003880
withdrew,0.003519
wolf,0.015344
women,0.002383
wood,0.002890
wooden,0.004021
wool,0.004099
word,0.003477
work,0.004911
world,0.012697
worst,0.006909
wreck,0.013424
writer,0.002570
written,0.001982
wrong,0.002945
y,0.005334
yaghan,0.006788
yahgan,0.007251
year,0.024016
york,0.007716
yorkshir,0.005390
youll,0.005506
young,0.004651
ypf,0.006158
zealand,0.002978
zoobas,0.007251
