adjectiv,0.009283
administr,0.004206
agenc,0.004732
airport,0.006626
american,0.327228
anglogerman,0.012602
anthem,0.008743
archipelago,0.015272
area,0.002988
arm,0.004796
art,0.004602
articl,0.010726
asm,0.011863
atla,0.014107
atol,0.019332
aunuu,0.014934
bce,0.006657
begin,0.007074
bibliographi,0.010551
bicamer,0.008171
bird,0.006192
bougainvil,0.010843
boundari,0.005064
branch,0.015430
cabinet,0.006103
cannabi,0.009808
capit,0.007902
central,0.003405
chain,0.005427
coastlin,0.007557
coat,0.007197
code,0.014104
committe,0.005213
common,0.005876
commun,0.006354
comt,0.009015
consist,0.003252
constitut,0.007673
contact,0.005099
contain,0.006972
convent,0.004705
cook,0.006851
counti,0.122935
countri,0.022385
court,0.004609
crimin,0.006155
cultur,0.003653
currenc,0.005325
data,0.003878
decemb,0.008918
democraci,0.005412
demographi,0.008171
demonym,0.009518
depend,0.003206
district,0.023511
divis,0.008423
dmoz,0.006436
dollar,0.005678
domain,0.004746
eastern,0.009711
econom,0.003201
economi,0.003995
elect,0.004315
endonym,0.019231
enforc,0.005484
english,0.008149
environ,0.003878
establish,0.003122
european,0.003643
execut,0.004431
extern,0.002287
extrem,0.004196
faamatai,0.013265
faasamoa,0.014113
factbook,0.007332
faleasao,0.015826
fauna,0.007462
featur,0.003956
fitiuta,0.015826
flag,0.006986
follow,0.002502
fono,0.024387
footbal,0.007828
form,0.002391
freedom,0.004938
ft,0.006837
galaup,0.013404
gdp,0.005883
gener,0.002247
geograph,0.005087
geographi,0.005758
govern,0.023799
governor,0.005742
group,0.002821
guid,0.008846
head,0.008077
hemispher,0.014248
heritag,0.012797
high,0.006335
histori,0.005211
hous,0.012590
human,0.003014
hundr,0.004753
includ,0.002171
independ,0.003213
index,0.004969
infrastructur,0.005296
intellig,0.004881
intern,0.008224
internet,0.010264
interpol,0.007309
ioc,0.008156
islam,0.005207
island,0.037094
iso,0.029203
ituau,0.015826
jacob,0.007053
jeanfranoi,0.010777
john,0.003558
judici,0.006005
juli,0.004518
kilometr,0.007252
km,0.011775
la,0.005221
land,0.003958
languag,0.003931
largest,0.008639
lata,0.014346
law,0.006301
lealataua,0.015826
leasina,0.015826
legisl,0.004788
lgbt,0.008836
link,0.002274
locat,0.011536
louisantoin,0.013404
low,0.004008
lower,0.003864
m,0.007480
main,0.009932
mammal,0.006620
manua,0.039045
maoputasi,0.015826
member,0.003336
membership,0.005760
mi,0.006594
mile,0.006078
militari,0.004230
mountain,0.005626
music,0.005747
nation,0.008693
natur,0.002791
nd,0.004865
nomin,0.005458
nonpartisan,0.009984
north,0.004152
novemb,0.004690
ocean,0.021526
oceania,0.007991
octob,0.004522
offici,0.011911
ofu,0.015826
ofuolosega,0.015826
olosega,0.015826
olymp,0.015791
order,0.002881
organ,0.005705
outlin,0.015271
outlinedraftstop,0.031653
overview,0.010480
pacif,0.030307
page,0.020507
pago,0.052060
park,0.006112
parti,0.004041
peopl,0.002883
period,0.003107
point,0.003033
polic,0.005816
polit,0.009846
polynesia,0.009441
polynesian,0.009411
popul,0.011162
postal,0.008051
presid,0.004336
presidenti,0.006132
pronunci,0.007952
prous,0.013723
provid,0.002660
rank,0.005063
refer,0.003803
region,0.006811
religion,0.009688
repres,0.006239
right,0.006825
river,0.005199
roggeveen,0.013265
rose,0.011542
samoa,0.916631
samoan,0.066810
samoarel,0.015826
saol,0.015826
second,0.003121
secretariat,0.008901
selfgovern,0.007542
senat,0.006524
settl,0.005405
sinc,0.002646
site,0.013375
south,0.016580
southeast,0.006479
southern,0.004912
spc,0.010507
sport,0.006286
sq,0.007902
squar,0.005607
standard,0.003565
state,0.018527
sua,0.012796
subbureau,0.011534
superfund,0.013015
swain,0.022971
symbol,0.004805
ta,0.009215
tau,0.009138
territori,0.027797
th,0.006070
time,0.004683
titl,0.009502
tokelau,0.011534
tonga,0.009753
topic,0.016798
toplevel,0.008597
transport,0.004537
travel,0.004673
tualatai,0.015826
tualauta,0.015826
tutuila,0.027814
unincorpor,0.010453
union,0.003933
unit,0.016018
univers,0.002741
upper,0.005345
upu,0.008065
usd,0.007933
utc,0.009015
vaifanua,0.015826
villag,0.018145
west,0.004544
western,0.011944
wikimedia,0.007377
wikiproject,0.027113
wikivoyag,0.010250
wildlif,0.007542
william,0.004241
world,0.008050
zone,0.005470
