aaa,0.005583
abandon,0.006457
abil,0.002378
abl,0.013099
ablebodi,0.006571
abolish,0.003611
abov,0.004425
abraham,0.004059
abroad,0.007506
absolut,0.005863
abund,0.003505
academ,0.005177
academicharvard,0.008397
acceler,0.006648
accept,0.008679
access,0.004782
accid,0.004166
accompani,0.003341
accord,0.005185
account,0.018321
accumul,0.006631
achiev,0.013046
acquir,0.002815
act,0.007901
action,0.006371
activ,0.005173
actual,0.004424
ad,0.002205
adam,0.003507
adapt,0.002752
addit,0.003497
aden,0.006352
adjust,0.003308
administr,0.004833
adopt,0.004770
adult,0.003383
advanc,0.010673
advantag,0.008048
adventur,0.013008
advertis,0.004061
ae,0.005902
aerospac,0.004966
affair,0.002857
affect,0.009034
affluent,0.005573
afford,0.003711
afghanistan,0.004434
africa,0.005613
age,0.021645
agenc,0.005438
agent,0.002946
aggress,0.003851
agrarian,0.004686
agricultur,0.028259
ahead,0.008070
aid,0.002592
aircraft,0.015355
alan,0.003664
aldcroft,0.007884
alewat,0.008580
alford,0.015242
alik,0.004657
alistair,0.006626
aliv,0.004318
alli,0.006384
allianc,0.006465
allmet,0.007294
allow,0.013750
alloy,0.004809
alltim,0.005809
alm,0.006173
alon,0.008867
alreadi,0.005036
alter,0.003100
altern,0.002220
alway,0.009296
amalgam,0.005023
amen,0.009735
america,0.019378
american,0.031333
amsterdam,0.004396
analys,0.003379
anger,0.004511
ani,0.009139
announc,0.002902
annual,0.005310
anoth,0.006649
anthoni,0.004081
anticip,0.003844
antiindustri,0.007701
antithesi,0.006191
apart,0.009502
appeal,0.003218
appear,0.008007
appli,0.007390
applic,0.004128
approach,0.013924
approxim,0.007066
april,0.015865
apriljun,0.007412
archiv,0.003181
area,0.013733
argu,0.011496
arguabl,0.004212
aristocraci,0.004872
arkwright,0.014825
armi,0.017837
arnold,0.004393
arrang,0.002817
arriv,0.005564
artifici,0.002918
artisan,0.004768
ascend,0.004529
ashton,0.006598
ashworth,0.007139
asia,0.005935
asian,0.003292
asset,0.015976
assign,0.003104
assist,0.002577
associ,0.005065
ate,0.011106
atla,0.004052
atlant,0.003662
attempt,0.005914
attitud,0.007096
attle,0.006656
attract,0.002781
attribut,0.002686
attun,0.006397
audienc,0.003901
august,0.007879
auster,0.009805
australia,0.009012
austrian,0.004140
author,0.001946
automat,0.003528
automobil,0.004330
autumn,0.004598
avail,0.008451
averag,0.015490
avoid,0.002581
away,0.007898
b,0.004578
ba,0.004598
backdrop,0.005614
bad,0.007091
bahama,0.005593
balanc,0.010942
ball,0.004268
bank,0.024995
banker,0.004719
barbado,0.005424
bare,0.008514
barker,0.005862
barley,0.005279
barrier,0.010550
base,0.010542
basi,0.010764
basic,0.004193
baten,0.007701
bath,0.004852
battl,0.006528
bbc,0.007864
beat,0.004384
becam,0.038100
becaus,0.015688
becom,0.008341
beef,0.005052
befel,0.007294
befor,0.012459
began,0.031216
begin,0.012192
behemoth,0.007701
belgium,0.004090
believ,0.004311
belt,0.004543
benefactor,0.006173
benefici,0.003824
benefit,0.020232
berghahn,0.007351
berlin,0.003711
bermuda,0.005524
besid,0.003565
best,0.006891
bevin,0.008108
big,0.006311
bigger,0.004677
biggest,0.003912
bilater,0.003963
billion,0.047364
biographi,0.004020
bit,0.004238
black,0.005625
blackpool,0.008108
blair,0.022415
blame,0.004140
bland,0.006420
blast,0.010203
bless,0.004939
bloc,0.004181
blow,0.004415
bn,0.005193
board,0.006013
bodi,0.002091
boe,0.022499
boer,0.006021
bond,0.002976
boom,0.011861
boost,0.012258
boot,0.006069
borneo,0.005656
borrow,0.010376
bought,0.003982
brand,0.004212
brassey,0.015093
bread,0.009755
break,0.008618
breakdown,0.012871
bretton,0.005701
brexit,0.006716
bridg,0.003443
brief,0.003303
briefli,0.003865
brighton,0.006925
bring,0.002590
bristol,0.005468
britain,0.343516
british,0.239682
briton,0.028623
broadberri,0.008108
broadcloth,0.008397
broke,0.003573
brook,0.004587
brought,0.015414
brown,0.010609
bruce,0.004282
brunel,0.014185
bubbl,0.008737
budget,0.006524
build,0.008821
buildinga,0.008242
built,0.015588
buoyant,0.006289
burnett,0.006210
burst,0.004694
busi,0.077530
businessmen,0.015211
buy,0.006593
bygon,0.007351
byproduct,0.004625
c,0.005983
cadr,0.005656
cain,0.012138
cake,0.005990
calcul,0.002659
callaghan,0.021720
callahan,0.007139
calm,0.004902
cambridg,0.005528
came,0.022821
camp,0.003776
campbel,0.004673
canada,0.020927
canal,0.020700
cannon,0.004847
capabl,0.002748
capac,0.005786
capit,0.034052
capita,0.003788
capitalist,0.012370
captiv,0.004470
captur,0.002866
car,0.036884
carbon,0.003401
card,0.003965
career,0.003424
cargo,0.013972
caribbean,0.007964
carmak,0.032433
carri,0.004500
cartel,0.005656
case,0.005235
cash,0.013954
cast,0.010636
catalyst,0.004557
cater,0.005120
caught,0.008597
caus,0.007452
cecil,0.005450
cent,0.034642
centr,0.017220
central,0.005870
centralis,0.005450
centrepiec,0.007048
centrist,0.005797
centuri,0.073488
certain,0.005731
chain,0.003118
challeng,0.007480
chamber,0.003703
champion,0.004333
chanc,0.003360
chancellor,0.019801
chandler,0.011358
chang,0.026752
channel,0.003445
character,0.002647
charcoal,0.005496
charl,0.010693
charter,0.007510
cheap,0.008649
cheaper,0.004494
cheapli,0.005690
chemic,0.002657
chief,0.005813
china,0.005363
choos,0.003002
chri,0.004698
christma,0.004918
chronic,0.004290
chrysler,0.006925
churchil,0.010359
circul,0.003652
circumv,0.005186
citi,0.009642
citycentr,0.008580
civil,0.004788
civilian,0.007257
claim,0.006356
clapham,0.013433
class,0.025467
cleaner,0.005945
clear,0.005196
clearli,0.003138
clement,0.005011
climb,0.004724
close,0.011206
closur,0.009016
cloth,0.040142
coal,0.122111
coalesc,0.005120
coalfuel,0.008580
coalit,0.003382
coalmin,0.007621
coars,0.005563
coast,0.003185
cobden,0.007188
cokefir,0.008580
coleman,0.005945
collaps,0.012300
collectiv,0.005450
colon,0.003703
coloni,0.051957
colour,0.003984
combin,0.005971
combust,0.004823
come,0.007986
command,0.002928
comment,0.006687
commerci,0.008023
commiss,0.002779
commit,0.011703
committe,0.005990
common,0.003376
commonwealth,0.007211
commun,0.003650
communist,0.003443
compani,0.048496
compar,0.026842
compet,0.002878
competit,0.016470
competitor,0.004324
compil,0.003601
complet,0.003856
complic,0.003163
compon,0.002404
compris,0.002855
concentr,0.002731
concept,0.003896
concern,0.003919
concis,0.004252
conclud,0.002855
conclus,0.009331
condit,0.009767
conduct,0.004785
conductor,0.005034
confid,0.014284
confirm,0.009029
conflict,0.005200
confront,0.007713
congest,0.005690
conquer,0.003779
conscript,0.005023
consecut,0.018879
consensu,0.010447
consequ,0.007121
conserv,0.060966
consid,0.001628
consider,0.007038
consist,0.001868
constantli,0.003891
constitut,0.002204
construct,0.017295
consum,0.016679
consumer,0.005724
consumpt,0.016281
contact,0.002929
contemporari,0.002730
content,0.002754
contest,0.003673
context,0.002455
contin,0.007195
continu,0.033831
contract,0.019603
contrast,0.009433
contribut,0.010245
control,0.048226
controversi,0.008253
convent,0.005406
convert,0.005691
cook,0.003936
cope,0.004480
copi,0.003365
core,0.002964
corn,0.004365
cornwal,0.005889
coron,0.005250
corpor,0.016434
cost,0.031909
costli,0.004350
cottag,0.012459
cotton,0.025609
council,0.002545
count,0.003184
countri,0.034907
countrysid,0.004576
courtauld,0.008397
cover,0.009194
cpgb,0.007990
craft,0.004199
craftsmen,0.005450
crash,0.012456
creat,0.020492
credibl,0.004344
credit,0.013508
creep,0.005875
crew,0.004390
crise,0.012922
crisi,0.017286
critic,0.002053
crompton,0.008108
crop,0.006903
cross,0.003047
crossman,0.008108
crowd,0.004350
crown,0.007231
crunch,0.005862
crystal,0.007833
culmin,0.003699
cultur,0.002099
currenc,0.006118
current,0.001787
curtail,0.005064
cut,0.026675
cycl,0.002861
cypru,0.004653
d,0.006780
damag,0.018077
danger,0.003279
darbi,0.007092
dark,0.003610
darl,0.006716
darlington,0.007477
date,0.007000
daunton,0.007990
davi,0.008096
david,0.002480
day,0.004213
deal,0.004498
dealer,0.005159
dealership,0.007477
dean,0.004550
death,0.002445
debat,0.007797
debt,0.016187
decad,0.025378
decemb,0.007686
decid,0.002720
decis,0.004707
declar,0.005393
declin,0.047713
decreas,0.013746
decrepit,0.007412
deep,0.009324
defeat,0.016515
defenc,0.003398
defens,0.003064
defici,0.008856
deficit,0.007750
deflat,0.005126
deflationari,0.006210
degre,0.002286
deindustri,0.013253
deindustrialis,0.007412
deirdr,0.006397
deliveri,0.004035
demand,0.042372
democrat,0.008206
demonstr,0.007528
depart,0.004895
depend,0.005526
depress,0.058969
depriv,0.004484
deregul,0.005159
describ,0.006873
descript,0.002552
design,0.004101
desir,0.002627
despair,0.005724
despit,0.011836
dessert,0.006887
destin,0.003907
destruct,0.003304
detract,0.012887
deutsch,0.004719
devalu,0.009509
devast,0.003963
develop,0.029321
devic,0.006240
devis,0.007659
devolut,0.006120
devon,0.006887
diamond,0.004238
did,0.041448
diet,0.020640
differ,0.004440
difficult,0.007305
digit,0.003117
diminish,0.003779
dip,0.011106
direct,0.009269
directli,0.002243
disappear,0.007099
disappoint,0.004791
disast,0.003856
disciplin,0.002572
discont,0.014387
discontinu,0.004238
discoveri,0.002614
dispos,0.004130
disput,0.005616
distract,0.005011
distress,0.004633
distribut,0.006910
district,0.003376
disturb,0.003920
divers,0.002685
divert,0.004902
divid,0.002213
dividend,0.004487
divorc,0.004690
docker,0.008397
document,0.005390
documentari,0.004290
dog,0.004179
doi,0.003696
doijeeh,0.008397
dollar,0.013048
domest,0.026034
domin,0.013784
doubl,0.018545
doubt,0.003603
downfal,0.005441
downturn,0.019127
downward,0.013442
draftanimalbas,0.008580
drag,0.004833
dramat,0.006305
drank,0.006686
drink,0.004140
driven,0.006500
drop,0.027578
dure,0.053034
durham,0.011724
dutch,0.010286
duti,0.003322
e,0.004524
eager,0.010241
earli,0.047072
earlier,0.014902
earliest,0.002809
eas,0.011608
easi,0.003413
east,0.010336
eastern,0.002789
eaten,0.005070
ec,0.010228
econom,0.191301
economi,0.215776
economist,0.006311
ed,0.014118
eden,0.011335
edg,0.003667
editor,0.003578
educ,0.010706
edward,0.015288
edwardian,0.006748
eec,0.024480
eef,0.007990
effect,0.014696
effici,0.021054
effort,0.006983
efta,0.006518
egypt,0.007099
eighteen,0.004988
eileen,0.006748
elabor,0.003497
elect,0.044623
electr,0.011117
electron,0.002812
elit,0.007464
elitist,0.006155
elizabeth,0.003998
els,0.003461
embark,0.004724
emerg,0.012925
emin,0.004781
emphas,0.008849
emphasis,0.004529
empir,0.075051
employ,0.022295
employe,0.003521
enabl,0.021324
enact,0.011177
enclosur,0.005635
encount,0.003310
encourag,0.005525
end,0.064320
energi,0.002353
enforc,0.006302
engag,0.002661
engin,0.033912
england,0.064166
english,0.021068
enhanc,0.006226
enjoy,0.009599
enlighten,0.003670
enorm,0.003620
enrich,0.004399
ensu,0.008218
ensur,0.005522
enter,0.017200
enterpris,0.006327
entertain,0.004132
entir,0.002180
entiti,0.002851
entitl,0.006940
entrepreneur,0.025400
entrepreneuri,0.010456
entrepreneurship,0.010165
envi,0.005656
ephraim,0.006331
equal,0.006866
equip,0.015025
era,0.023901
erm,0.028371
ernest,0.004324
especi,0.035131
essenti,0.004673
establish,0.010762
estat,0.003578
ethic,0.009280
eu,0.018298
euro,0.008553
europ,0.029628
european,0.031402
eurozon,0.011087
event,0.002187
eventu,0.009555
everi,0.008413
everyon,0.003880
evid,0.006876
exacerb,0.004653
examin,0.005261
exampl,0.013548
exceed,0.024708
excerpt,0.004645
excess,0.003248
exchang,0.009504
exchequ,0.006249
exclus,0.002871
exclusionari,0.006518
exert,0.003856
exhaust,0.003930
exist,0.003342
exit,0.008817
expand,0.030909
expans,0.014180
expect,0.006928
expel,0.004052
expens,0.009005
experi,0.004133
experienc,0.018105
experiment,0.002807
expert,0.006640
explain,0.004525
explan,0.002958
explor,0.002561
export,0.067835
expos,0.003366
express,0.004355
extend,0.004434
extens,0.004539
extern,0.002628
extraordinari,0.004387
extrem,0.004822
exuber,0.006544
eye,0.003360
face,0.012614
facilit,0.006060
fact,0.004268
factor,0.017049
factori,0.029421
fade,0.004800
fail,0.005054
failur,0.032169
fair,0.003404
fairli,0.003807
fall,0.022943
fallen,0.016335
famili,0.011637
famin,0.004501
far,0.004558
farm,0.006707
farreach,0.005179
fascist,0.004983
fashion,0.003537
fashoda,0.007477
fast,0.006881
faster,0.010519
fastest,0.014238
favor,0.002776
favorit,0.004955
favour,0.016526
fear,0.003153
feasibl,0.004083
featur,0.002273
februari,0.002730
fed,0.004497
feder,0.002676
feed,0.007717
fei,0.006626
fell,0.019477
felt,0.003548
fend,0.006021
fibr,0.005390
fieldhous,0.007990
fight,0.006307
fighter,0.009130
figur,0.034849
final,0.013044
financ,0.015980
financi,0.057588
finish,0.015470
finlay,0.007139
firm,0.015009
fiscal,0.007621
fit,0.003060
fix,0.002667
flax,0.006085
fleet,0.012124
flexibl,0.003721
fli,0.003751
floud,0.023366
flourish,0.003699
flow,0.002646
fluctuat,0.003753
focus,0.004679
follow,0.025879
food,0.028454
foot,0.007810
footwear,0.012138
forc,0.018014
ford,0.004759
forecast,0.019799
foreign,0.021057
foreigngovernmentback,0.008580
forerunn,0.004772
forest,0.003456
form,0.009616
formal,0.006747
format,0.002451
foundat,0.004687
founder,0.003150
fourth,0.006271
frame,0.010304
franc,0.033449
franci,0.006884
free,0.024636
freetrad,0.006137
freezer,0.007294
freight,0.031906
french,0.019350
frequent,0.005053
frigat,0.005713
fring,0.004809
fruit,0.014246
ftse,0.026624
fuel,0.006661
fuell,0.017070
fulfil,0.007269
fulli,0.005419
fulltim,0.004786
fund,0.009912
fundament,0.011508
fundspay,0.008580
furnac,0.016488
furthermor,0.003080
futur,0.013134
g,0.004862
ga,0.003023
gain,0.017493
gap,0.010496
gasolin,0.005200
gaull,0.006053
gave,0.007846
gdp,0.033803
gener,0.025830
gentlemen,0.012421
gentri,0.011645
geoffrey,0.004698
georg,0.007771
german,0.007614
germani,0.051419
given,0.007210
glasgow,0.005279
glass,0.003961
global,0.026255
globalis,0.005875
globe,0.004093
glori,0.005058
gloriou,0.005477
goal,0.014833
gold,0.021878
golden,0.018209
good,0.031972
gordon,0.008383
gourvish,0.008397
govern,0.123059
government,0.003761
governor,0.009897
gradual,0.008667
grain,0.007810
grant,0.008266
great,0.042539
greater,0.009055
greatest,0.006325
greatli,0.011773
greec,0.003397
green,0.003090
grew,0.033038
grievanc,0.016460
gross,0.007028
ground,0.002615
group,0.003242
grow,0.027656
grown,0.006922
growth,0.091000
growthreduc,0.008580
guild,0.004977
h,0.009986
ha,0.025167
half,0.022266
halt,0.008190
halv,0.005166
hand,0.008908
handicap,0.005679
hannah,0.005931
happen,0.002840
hard,0.008849
hargreav,0.006748
harold,0.030191
harsh,0.008553
harvest,0.007968
harvey,0.004557
haul,0.005945
head,0.011601
health,0.007516
heat,0.003169
heath,0.029585
heavi,0.024850
heavili,0.002897
help,0.021644
henri,0.008690
herbert,0.003891
hereditari,0.004301
hi,0.009669
hide,0.004254
high,0.018199
higher,0.017093
highest,0.011009
highli,0.009464
highstrength,0.007477
hirepurchas,0.008580
histori,0.077844
historian,0.039372
historiographi,0.018246
hit,0.011163
hobbi,0.005635
hold,0.004329
holiday,0.012692
holidaymak,0.007788
hollow,0.005159
holocaust,0.005173
home,0.012832
homeownership,0.007788
hong,0.004202
hope,0.006120
hopeless,0.006037
hopkin,0.008856
horizont,0.004144
horrel,0.008242
horrock,0.007294
hors,0.003882
horsepow,0.006850
hospit,0.003544
hour,0.012633
hourli,0.005975
hous,0.016877
housebuild,0.008580
household,0.025027
housew,0.006571
housewif,0.006850
howev,0.043760
hudson,0.020559
huge,0.006685
huguenot,0.006249
human,0.005194
hume,0.004677
hundr,0.002730
hung,0.005603
hungri,0.005889
hurt,0.004711
idea,0.002017
identifi,0.004345
ii,0.007056
illeg,0.003621
imf,0.007872
immedi,0.005284
immigr,0.003576
immin,0.010332
impact,0.012315
imperi,0.024509
impetu,0.004637
implement,0.002502
implic,0.003131
import,0.030658
impos,0.018545
impot,0.006420
impress,0.007337
improv,0.028752
impur,0.005228
inadequ,0.004268
incap,0.004843
incent,0.003742
incid,0.007112
includ,0.016219
incom,0.011011
inconvenienc,0.008397
incorrectli,0.004862
increas,0.067405
increasingli,0.018547
inculc,0.006331
incur,0.004310
inde,0.012224
independ,0.011076
indi,0.013684
india,0.035772
indian,0.014876
indic,0.004422
indigo,0.005772
indirectli,0.003873
individu,0.001853
industri,0.221561
industrialis,0.020331
industrialist,0.010731
inevit,0.003959
inexpens,0.019530
inflat,0.060926
inflationari,0.010306
influenc,0.001979
influenti,0.005781
influx,0.009275
inform,0.005360
infrastructur,0.006086
initi,0.009764
inn,0.005772
innov,0.015566
input,0.003256
insati,0.007240
insecur,0.005159
insid,0.003014
inspir,0.005947
instabl,0.007772
instal,0.003546
instead,0.006315
institut,0.011411
insuffici,0.008149
insur,0.003465
integr,0.010844
intens,0.002985
interconnect,0.004344
intercontinent,0.005772
intercursu,0.008580
intern,0.014175
interven,0.003862
interwar,0.005089
intric,0.005000
introduc,0.012650
introduct,0.011913
invad,0.003594
invas,0.003277
invent,0.035094
invest,0.030708
investor,0.003424
invok,0.004315
involv,0.008711
iraq,0.004022
ireland,0.011270
irish,0.004262
iron,0.064379
ironmak,0.007477
ironwork,0.006468
irrevers,0.004961
isambard,0.007701
isbn,0.002124
island,0.007991
issu,0.007714
itali,0.003234
item,0.006593
j,0.011285
jacob,0.004052
jamaica,0.005159
jame,0.012674
januari,0.015390
japan,0.014861
jenni,0.011920
jewel,0.005441
job,0.024830
joel,0.005250
john,0.016354
johnson,0.004106
join,0.002673
jone,0.003990
joseph,0.002961
journal,0.004623
jstor,0.013566
juli,0.005192
jump,0.004149
june,0.002618
just,0.012574
k,0.002724
kay,0.005433
kenya,0.005000
kept,0.012953
key,0.004574
keyn,0.004972
keynesian,0.004934
kill,0.002966
kindleberg,0.006887
king,0.011450
kingdom,0.043031
kinnock,0.014825
knew,0.004233
known,0.013515
kong,0.004238
krogh,0.005848
labor,0.005901
labour,0.149071
labourl,0.008242
lack,0.009165
lag,0.018711
laissez,0.006420
lanark,0.007884
lancashir,0.006850
land,0.020468
landslid,0.010203
languag,0.002258
languish,0.006443
laps,0.005349
larg,0.045925
larger,0.004743
largescal,0.007002
largest,0.009927
late,0.037448
later,0.019657
latin,0.011297
launch,0.006052
lavish,0.005975
law,0.009051
lay,0.003381
lazonick,0.008242
lead,0.030478
leader,0.026275
leas,0.004536
leav,0.007634
leaver,0.007788
led,0.054301
leed,0.005848
leeuwen,0.006964
leeward,0.005424
left,0.014371
legal,0.004959
leisur,0.014787
leland,0.006289
lend,0.003860
lendleas,0.013563
length,0.002981
lengthi,0.004686
lesli,0.005076
lessen,0.004777
lesser,0.007367
level,0.026952
leyland,0.007092
liber,0.013545
liberalis,0.005257
life,0.005794
like,0.006419
limit,0.001835
line,0.008602
linen,0.005902
link,0.005226
lion,0.004677
lipson,0.007351
liquid,0.003220
literaci,0.004408
littl,0.006899
live,0.021371
liverpool,0.011335
lloyd,0.004633
loan,0.020917
local,0.008140
locat,0.011046
lock,0.007783
lockout,0.007351
locomot,0.020431
london,0.032890
long,0.009754
longer,0.007434
longest,0.012922
longterm,0.018972
look,0.004961
loom,0.010919
loos,0.003735
lord,0.003556
lose,0.009480
loss,0.026280
lossesand,0.008580
lost,0.018278
low,0.034541
lowcost,0.005441
lower,0.006660
lowermiddleclass,0.008242
lowest,0.007147
lowinterest,0.006850
lse,0.006053
lucr,0.009911
luxuri,0.018032
m,0.004297
macdonald,0.005477
machin,0.017406
machinebas,0.007788
machineri,0.025938
macmillan,0.016418
magazin,0.003478
magnu,0.005242
main,0.009510
mainland,0.003903
mainli,0.004988
maintain,0.010475
major,0.049415
make,0.009167
malais,0.006331
man,0.002658
manag,0.034430
mani,0.024444
manipul,0.003217
manoeuvr,0.006120
manori,0.013253
manpow,0.005279
manual,0.011385
manufactur,0.077364
march,0.007474
margaret,0.021951
maritim,0.003867
mark,0.016886
markedli,0.005139
market,0.051728
marri,0.003766
marriag,0.003798
marshal,0.003982
martin,0.003180
mass,0.009856
materi,0.025265
max,0.003671
maxim,0.010251
mccloskey,0.006626
mean,0.004964
meant,0.015408
meanwhil,0.003633
measur,0.007871
meat,0.012508
mechan,0.006656
mechanis,0.006492
media,0.005511
mediev,0.009614
mediterranean,0.007860
meet,0.009724
member,0.007668
membership,0.009928
men,0.011144
mend,0.005772
mention,0.002908
mercantil,0.047504
merchant,0.039253
merchantsand,0.007884
mere,0.005911
merg,0.007237
merger,0.004353
mervyn,0.021145
messr,0.007884
method,0.009304
metric,0.004035
mg,0.005496
michael,0.008295
mid,0.008975
middl,0.017340
middleclass,0.010279
midth,0.003707
mile,0.010477
militari,0.007291
million,0.143957
milward,0.007005
miner,0.033264
minim,0.009513
minimis,0.005398
minimum,0.003277
minist,0.013554
minor,0.002780
miracl,0.004690
misconcept,0.005279
mistak,0.004135
mix,0.002889
mob,0.005459
mobil,0.012765
model,0.003743
moder,0.003442
modern,0.023428
modernis,0.005179
modu,0.006102
mokyr,0.006686
momentum,0.003949
monetari,0.006441
monetarist,0.005889
money,0.021481
month,0.015927
moodi,0.005646
moral,0.003005
mortgag,0.004437
mosley,0.007048
mostli,0.010254
mother,0.006925
motor,0.007750
motorist,0.006781
motorway,0.006598
mount,0.007005
movement,0.008287
mp,0.004431
mr,0.004039
mule,0.011724
multin,0.004550
multipli,0.003873
munit,0.033032
myth,0.003837
napoleon,0.012293
narrow,0.010178
nation,0.069924
nationalis,0.031767
nationwid,0.004565
natur,0.003208
navi,0.028768
nd,0.002795
near,0.004940
nearli,0.020935
necess,0.003764
necessari,0.004788
need,0.027092
neg,0.015632
negoti,0.009434
neighbour,0.003670
neighbourhood,0.005302
neil,0.009545
net,0.006316
netherland,0.003501
network,0.002511
new,0.048314
newcastl,0.006249
newcomen,0.006626
newfound,0.005822
newli,0.003161
nichola,0.004041
nicknam,0.004768
nineday,0.008242
ninefold,0.008242
ninemonth,0.007621
nobleman,0.006268
nomin,0.003135
non,0.004330
nonconform,0.006443
nonviol,0.005179
normal,0.004789
north,0.014313
northeast,0.004279
northern,0.014044
nostalg,0.007240
notabl,0.006916
note,0.005196
novemb,0.010779
nuanc,0.005333
number,0.028558
numer,0.006677
nutrit,0.004315
oat,0.005822
object,0.002053
oblig,0.003317
obrien,0.006005
obsolesc,0.006069
obtain,0.004670
occup,0.006261
occur,0.009544
ocean,0.003091
octob,0.012990
oecd,0.022237
offer,0.002234
offic,0.014510
offici,0.013686
offset,0.008737
oil,0.017993
old,0.019888
older,0.003152
oliv,0.004260
onc,0.004490
oneindustri,0.008580
onethird,0.004565
onli,0.019362
onlin,0.010518
ontim,0.007701
onward,0.003808
open,0.012341
oper,0.015163
opinion,0.012773
opium,0.010814
opportun,0.008514
oppos,0.007532
opposit,0.004944
optim,0.006373
option,0.003135
order,0.018212
organ,0.001638
organis,0.002844
origin,0.006660
orthodoxi,0.005034
ostens,0.004867
oswald,0.005667
outbi,0.007990
outpac,0.006069
output,0.053311
outright,0.004653
outsid,0.004584
outstrip,0.005713
overal,0.005499
overlap,0.003339
oversaw,0.005186
overse,0.004480
oversea,0.035835
overtaken,0.011697
overwhelm,0.004028
owe,0.007313
owner,0.020391
ownership,0.021170
oxford,0.005645
p,0.004587
pa,0.004682
pace,0.004054
pacif,0.003482
paid,0.018380
palac,0.004296
palestin,0.004737
pari,0.003285
parish,0.005034
pariti,0.008649
parliament,0.009090
parliamentari,0.003440
parti,0.058047
particip,0.002370
particular,0.003761
particularli,0.023177
partner,0.006569
pass,0.004668
passeng,0.004470
past,0.007150
pastri,0.006781
pattern,0.002563
paul,0.002611
pave,0.008498
pay,0.019635
payer,0.006037
payment,0.006476
pc,0.004877
peac,0.008692
peak,0.016484
peden,0.008242
pell,0.006443
penni,0.005459
pension,0.004174
peopl,0.024847
percent,0.012070
percentag,0.006696
perform,0.008448
perhap,0.005585
period,0.046416
perman,0.005823
permiss,0.004176
perpetu,0.004070
persist,0.003406
person,0.009830
perspect,0.002688
peter,0.005479
peugeot,0.007621
phase,0.005778
phenomenon,0.006188
phosphomagnet,0.008580
pick,0.003910
pig,0.004480
pile,0.005302
pilkington,0.007788
pioneer,0.003138
pit,0.004759
place,0.015292
plan,0.009101
plant,0.005217
plantat,0.008620
play,0.004338
plenti,0.014172
plu,0.006760
plung,0.005139
point,0.008714
polici,0.033351
policymak,0.004918
polit,0.041485
politician,0.003604
poll,0.020909
pollard,0.006781
poor,0.035648
poorli,0.003978
pope,0.004225
popul,0.025652
popular,0.023645
pork,0.005603
port,0.010185
portugues,0.003824
pose,0.003659
posit,0.016025
possess,0.008099
possibl,0.008786
post,0.008747
postwar,0.032689
potato,0.004576
potenti,0.002230
pound,0.043187
pour,0.009044
poverti,0.010632
power,0.054657
pp,0.011235
practic,0.011060
practis,0.004532
prebudget,0.008108
preced,0.006528
predict,0.010083
predomin,0.003930
preemin,0.004994
prefer,0.002638
premier,0.004313
prepar,0.005588
present,0.003445
presid,0.004983
press,0.008110
pressur,0.012967
prevent,0.004926
previou,0.010392
previous,0.018385
prewar,0.005159
price,0.017854
pride,0.004741
primari,0.002274
primarili,0.004710
prime,0.013840
princeton,0.003803
principl,0.002068
print,0.003235
printer,0.005349
prior,0.002602
prioriti,0.007266
privat,0.029644
privatis,0.021662
probabl,0.002472
problem,0.014740
process,0.016287
produc,0.016133
product,0.082600
profession,0.002791
professor,0.003079
profit,0.023813
programm,0.003311
progress,0.007044
project,0.004263
promin,0.002701
promis,0.003237
promot,0.004915
prompt,0.007543
pronounc,0.004162
properti,0.006258
proport,0.014242
propos,0.002125
prosper,0.046302
protect,0.018370
protection,0.005505
protest,0.006403
prove,0.026589
provid,0.018343
provinc,0.003184
provis,0.003355
prudent,0.005701
public,0.024291
publish,0.001912
pugh,0.014096
pull,0.007907
pump,0.017333
punish,0.003790
pupil,0.008988
purchas,0.008790
puritan,0.011249
purpos,0.002241
pursu,0.003133
q,0.050161
quantit,0.009602
quarter,0.075255
quarterli,0.012637
queen,0.003615
question,0.004327
quit,0.002911
quota,0.004715
r,0.006916
race,0.006769
radic,0.006316
radio,0.003527
raf,0.005656
raffl,0.006850
rail,0.004336
railway,0.097851
railwaymen,0.008397
rais,0.007623
rajah,0.007546
ralph,0.009267
ramsay,0.006085
rang,0.004136
rank,0.002908
rapid,0.008957
rapidli,0.008713
rare,0.005670
rate,0.059782
ration,0.008907
raw,0.032079
reach,0.017764
read,0.003795
real,0.006803
realis,0.013217
realiz,0.003055
realloc,0.006309
realm,0.006903
reap,0.005690
reason,0.003922
rebellion,0.003901
rebound,0.005173
reced,0.005433
receiv,0.008350
recent,0.007568
recess,0.097771
reciproc,0.004104
reclaim,0.005101
recommend,0.003220
record,0.013819
recov,0.006727
recoveri,0.018187
reduc,0.020699
reelect,0.017802
reequip,0.007351
reestablish,0.012486
reexamin,0.005450
refer,0.001092
refin,0.003427
reflect,0.007044
reform,0.008018
refriger,0.015861
regard,0.004192
region,0.009783
regul,0.007760
reign,0.003778
reinforc,0.003721
reject,0.005387
rejuven,0.005990
rel,0.017632
relaps,0.006249
relat,0.007366
relationship,0.004171
relax,0.012530
releas,0.002730
reli,0.005265
religi,0.002791
remain,0.023492
remaind,0.004054
reminisc,0.005257
remot,0.003699
renew,0.003195
reorgan,0.009137
reorganis,0.005635
reorient,0.005713
repaid,0.005809
repair,0.011670
repairmen,0.008580
repar,0.005450
repay,0.004618
repeal,0.009890
replac,0.020039
report,0.006300
repres,0.003584
reput,0.011406
requir,0.001720
requisit,0.005309
rescu,0.004336
research,0.008863
reserv,0.017436
resign,0.007467
resolv,0.006347
resort,0.008109
resoundingli,0.007621
resourc,0.008848
respond,0.005893
respons,0.005685
rest,0.005120
restaur,0.004852
restrict,0.010129
restructur,0.004315
result,0.027396
retail,0.003951
rethink,0.015621
retir,0.003718
return,0.033170
revenu,0.003187
reverber,0.006374
review,0.007344
revis,0.016326
reviv,0.003472
revolut,0.067671
rex,0.005822
rh,0.005614
rhode,0.005005
rhodesian,0.006626
ribbon,0.006155
rice,0.004121
rich,0.028200
richard,0.008098
richardson,0.005317
rife,0.006397
rift,0.005017
right,0.005882
riot,0.004365
rise,0.043975
risen,0.018410
risk,0.005377
rival,0.018051
rivalri,0.004501
river,0.005974
road,0.006347
roadway,0.012749
robert,0.002402
roderick,0.017391
roebuck,0.007139
role,0.017227
rollsroyc,0.007701
room,0.003544
roosevelt,0.004882
root,0.005520
rose,0.023210
roster,0.006964
rostow,0.007546
routin,0.003922
routledg,0.007787
rover,0.005917
royal,0.014415
ruin,0.004344
ruinou,0.006815
rule,0.007978
run,0.012006
rural,0.017668
russian,0.003199
s,0.089884
safeti,0.003521
said,0.004490
sail,0.004132
sailor,0.004673
sale,0.006366
salt,0.003743
samuel,0.003884
sara,0.005809
sarawak,0.006397
satisfi,0.003241
saul,0.005272
save,0.003102
saw,0.048130
say,0.004734
scale,0.002473
scene,0.003936
scheme,0.006577
scholarli,0.003867
school,0.015561
scienc,0.001837
scientif,0.002198
scope,0.003212
scotland,0.032855
scott,0.004043
scottish,0.004194
scrap,0.005228
scrappag,0.017160
scurvi,0.006626
sea,0.008363
seam,0.012205
search,0.002796
seasid,0.006887
seat,0.006467
second,0.030486
section,0.002707
sector,0.051563
secur,0.006964
seek,0.002451
seen,0.012863
seiz,0.003756
seldom,0.004961
select,0.004752
selfgovern,0.004333
selfsustain,0.005875
sell,0.003090
semiskil,0.007477
send,0.003417
sens,0.006745
separ,0.003992
septemb,0.026350
seri,0.010883
seriou,0.006121
servic,0.031933
servicemen,0.006397
serviceprovid,0.008580
set,0.018619
settlement,0.003188
settler,0.004111
setup,0.005114
seven,0.002867
seventh,0.004408
seventi,0.005114
sever,0.012682
shape,0.005208
share,0.014904
sharp,0.003693
sharpli,0.012896
sheep,0.004402
shift,0.013240
ship,0.015501
shipbuild,0.005365
shipment,0.005017
shipyard,0.006374
shoe,0.010093
shop,0.008154
short,0.004659
shortag,0.023808
shortterm,0.003972
shower,0.005945
shrank,0.010919
shrink,0.004791
shrunk,0.005945
shun,0.005624
shut,0.004565
shuttl,0.005317
sick,0.012871
sidney,0.005264
sight,0.004054
sign,0.005007
signal,0.003143
signific,0.013588
significantli,0.005608
silk,0.009079
silver,0.003802
similar,0.003631
sinc,0.038015
singapor,0.004007
singl,0.006105
singular,0.004007
sir,0.003432
site,0.002561
situat,0.004682
sixti,0.009251
size,0.004736
sked,0.008242
skeg,0.008580
skill,0.014647
slave,0.010779
slaveri,0.004007
slide,0.004746
slight,0.004539
slightli,0.006591
slip,0.005023
slippag,0.006686
slogan,0.005200
slow,0.028255
slowdown,0.005468
slower,0.004368
slowli,0.010515
slum,0.006289
slump,0.010883
small,0.011164
smart,0.004777
smell,0.004966
smith,0.003221
smoke,0.004518
smuggl,0.004939
smugglingwhich,0.007990
snuf,0.008108
soar,0.024645
soaredit,0.008580
social,0.034821
societi,0.001905
sold,0.006422
soldier,0.013840
sole,0.003086
solid,0.003268
solut,0.010407
solv,0.005597
somaliland,0.005931
somerset,0.006374
sometim,0.003959
somewhat,0.003223
soon,0.011154
sophist,0.006997
sort,0.003189
sourc,0.001912
south,0.016670
sovereign,0.003634
spadavecchia,0.008580
spanish,0.003288
spare,0.004732
spark,0.008048
special,0.003803
specialis,0.004405
specif,0.001819
specifi,0.003091
speech,0.003276
spend,0.028409
spent,0.003361
spice,0.004902
spin,0.025305
spiral,0.009307
spirit,0.003436
split,0.006250
spread,0.010751
spring,0.006860
spun,0.005713
spur,0.004271
ss,0.004673
st,0.014708
stabil,0.005672
stabl,0.008978
stage,0.010622
stagnant,0.005349
stagnat,0.027325
stake,0.004625
stamford,0.006964
stand,0.011431
standard,0.024578
start,0.028874
state,0.030603
statecontrol,0.006518
statement,0.002791
stateown,0.004477
station,0.003322
statist,0.009979
stay,0.006657
steadi,0.011692
steadili,0.008023
steam,0.045291
steamdriven,0.007884
steamship,0.012011
steel,0.057134
steelwork,0.008242
step,0.002578
stephen,0.003378
stephenson,0.012171
sterl,0.015157
steven,0.003831
stiff,0.005146
stimul,0.017015
stimuli,0.004653
stimulu,0.004454
stock,0.011735
stockpil,0.006102
stockport,0.008242
stockton,0.007294
stood,0.012272
stop,0.003004
stopgo,0.007990
store,0.003080
strateg,0.003318
strategi,0.005665
stream,0.003644
street,0.003470
strength,0.009252
strengthen,0.003439
stress,0.012473
strife,0.005011
strike,0.050738
strong,0.022096
stronger,0.003661
structur,0.008883
struggl,0.009563
stuck,0.005302
student,0.002588
studi,0.004821
subject,0.003869
subsequ,0.009492
subsid,0.004511
subsidi,0.016944
substanti,0.002822
succeed,0.015544
success,0.020166
successor,0.003415
sudan,0.009364
suez,0.010574
suffer,0.022204
sugar,0.007410
suggest,0.017031
suit,0.003535
sum,0.006066
summar,0.003873
summer,0.007036
sunderland,0.007048
superb,0.006492
superior,0.006769
supervis,0.003636
supplant,0.004857
suppli,0.029749
support,0.021696
surfac,0.002753
surpass,0.004293
surplus,0.005390
surpris,0.003998
surprisingli,0.005076
survey,0.002923
sustain,0.008923
sweep,0.004657
switch,0.003733
synthesi,0.003395
syrup,0.006781
systemat,0.002905
tackl,0.004682
taken,0.006679
takeoff,0.012383
talent,0.004494
talli,0.005945
tallow,0.007092
target,0.005662
tariff,0.029238
tart,0.007294
task,0.002821
tawney,0.014185
tax,0.034295
taxat,0.007477
taxpay,0.005076
taylor,0.003826
tea,0.004862
technic,0.005409
techniqu,0.011684
technolog,0.015347
teeter,0.007621
telecom,0.005563
telegraph,0.014121
telephon,0.008314
televis,0.020566
temporari,0.007172
term,0.022991
termin,0.003563
terri,0.005139
territori,0.002661
text,0.002623
textil,0.053451
th,0.066261
thank,0.004181
thatcher,0.066640
thcenturi,0.003506
theme,0.010103
themselv,0.002255
theori,0.012477
therebi,0.006295
therefor,0.008267
theresa,0.006598
thi,0.062558
thinker,0.003676
thirteen,0.004561
thirti,0.004100
thoma,0.005440
thought,0.002155
thousand,0.013408
thread,0.004852
threat,0.003189
threaten,0.003457
threeday,0.006173
threeseat,0.007788
thu,0.010665
tie,0.005932
tighter,0.005603
timber,0.004554
time,0.034982
titl,0.002729
tobacco,0.008569
tobago,0.005563
togeth,0.002096
tom,0.004171
ton,0.045357
toni,0.009422
took,0.016629
tool,0.004870
toolmak,0.006815
topic,0.004825
tori,0.006085
total,0.016974
tourism,0.003537
tourist,0.008105
town,0.018736
trace,0.005831
track,0.003364
trackag,0.007990
trade,0.114391
trader,0.003743
tradit,0.007659
traffic,0.004017
train,0.015755
transfer,0.005204
transform,0.007467
transit,0.005294
transport,0.010427
travel,0.005370
treat,0.002662
treati,0.003175
tremend,0.004418
tri,0.009574
trinidad,0.005294
tripl,0.008378
triumphantli,0.007351
ts,0.005656
tuc,0.021720
tudor,0.017881
tumbledri,0.008580
tunnel,0.004591
turn,0.016818
turnov,0.004887
twenti,0.003740
twentieth,0.003587
twice,0.007249
twoincom,0.008242
twoway,0.005724
type,0.005484
uganda,0.005242
uk,0.105919
ukip,0.007546
ultim,0.005260
unabl,0.028441
unattach,0.006964
unbeliev,0.006331
underfund,0.007294
underground,0.004215
underlin,0.010666
undermin,0.004030
underpin,0.004434
undersel,0.007884
understand,0.004128
understood,0.002853
undertaken,0.003918
undi,0.007701
unemploy,0.153153
unexpect,0.004440
unfavour,0.005862
unfett,0.006137
unifi,0.003183
uniform,0.003525
unilev,0.007477
union,0.033896
unit,0.046014
univers,0.012600
unlik,0.005064
unparallel,0.006374
unpreced,0.008637
unpredict,0.004786
unrest,0.004217
unsatisfactori,0.005459
unskil,0.005398
unstead,0.008580
unstopp,0.006887
unusu,0.003686
upcom,0.010471
upheav,0.004955
upper,0.003070
upturn,0.006397
upward,0.004233
urban,0.015948
usabl,0.004665
usd,0.004557
use,0.034791
util,0.008253
utilis,0.005000
v,0.002711
vacat,0.005221
vacuum,0.003968
vagabond,0.006887
valu,0.003898
van,0.003326
vanadium,0.006229
vari,0.002241
varieti,0.002283
variou,0.003462
vast,0.006107
vauxhal,0.007788
veget,0.010890
venisonand,0.008580
ventur,0.004005
veri,0.006946
verit,0.006331
veto,0.004934
victori,0.014087
victorian,0.009765
vie,0.005573
vii,0.004625
viii,0.004843
villag,0.006949
violenc,0.003621
virginia,0.004381
virtual,0.003007
visibl,0.003361
vision,0.003293
visit,0.003055
vital,0.006792
vitamin,0.004994
vivendi,0.007477
vocat,0.010203
voic,0.003624
vol,0.016341
volker,0.006716
volum,0.007814
volunt,0.004191
vote,0.008651
voter,0.004079
vulner,0.003867
w,0.005103
wa,0.255608
wage,0.033415
wageearn,0.007621
wale,0.016933
walkout,0.007139
wall,0.006439
walt,0.005748
want,0.002807
war,0.082088
warn,0.007313
wartim,0.004843
wash,0.019037
water,0.018766
waterfal,0.005133
watt,0.004857
way,0.009755
wc,0.006420
weak,0.003020
weaken,0.015235
wealth,0.015657
wealthi,0.011904
weber,0.004649
wednesday,0.005931
week,0.022373
weekli,0.009023
welfar,0.014010
wellorgan,0.006443
wellregard,0.007092
welsh,0.005433
went,0.016735
west,0.018278
western,0.006862
wheat,0.004324
wheel,0.013740
wherea,0.007916
wherebi,0.006872
whip,0.005889
white,0.008661
wide,0.005875
widen,0.009465
wider,0.013850
widerang,0.005309
widespread,0.014608
william,0.004873
willingli,0.005889
wilson,0.030388
wiltshir,0.006850
win,0.006838
wine,0.004279
winston,0.005126
winter,0.026377
wit,0.007407
withdrawn,0.004711
withdrew,0.004273
women,0.014470
won,0.006156
wonder,0.004405
wood,0.003509
wool,0.034844
woolen,0.028022
woollen,0.013631
word,0.004221
work,0.028325
workabl,0.005772
worker,0.033969
workforc,0.012829
workingclass,0.017244
workshop,0.009002
world,0.069378
worldfar,0.008580
worldwid,0.012340
wors,0.004181
worst,0.004194
worth,0.003443
wound,0.004171
woven,0.005583
write,0.002377
wrong,0.003576
wrought,0.011249
xii,0.005486
yale,0.004157
yarn,0.006626
ye,0.004852
year,0.079805
yearold,0.008862
yield,0.002970
york,0.007026
yorkshir,0.006544
young,0.011294
zero,0.006396
