access,0.005647
accord,0.012244
account,0.004807
achiev,0.005134
acknowledg,0.007870
acquir,0.006648
activ,0.008145
ad,0.010417
addit,0.004129
administr,0.011413
adopt,0.005632
adult,0.007990
advanc,0.005041
adventur,0.010239
advocaci,0.011046
aerial,0.011494
affect,0.005333
aframomum,0.019147
africa,0.019885
africacentr,0.021472
african,0.128771
age,0.025558
agenc,0.006421
agre,0.006153
agricultur,0.006066
ahead,0.009528
ahmadiyya,0.014452
aid,0.012246
allafricacom,0.018186
alli,0.007538
allow,0.004058
alreadi,0.005946
altern,0.005244
altitud,0.011046
alvis,0.019464
alway,0.005488
america,0.005720
american,0.004624
amlcar,0.038295
ancestri,0.011207
angola,0.012380
ani,0.007194
anim,0.005713
anti,0.014256
antiaircraft,0.014851
antimalari,0.016860
antimalaria,0.016860
appar,0.006967
appoint,0.026838
approxim,0.011124
april,0.018732
archipelago,0.010360
area,0.020269
arm,0.039048
armi,0.014041
arrest,0.017940
articl,0.009701
artilleri,0.011156
asian,0.007775
assassin,0.019320
assembl,0.012743
assembleia,0.017225
associ,0.003987
assum,0.005654
atla,0.009570
atlant,0.017298
attack,0.019742
audienc,0.009212
author,0.004595
autnomo,0.019147
autonom,0.016506
aveng,0.014711
averag,0.018289
azul,0.017821
bacai,0.038928
bakongo,0.018868
balanta,0.042944
bambara,0.017657
base,0.003556
batista,0.016178
bbc,0.009285
beat,0.010353
becam,0.008997
becaus,0.003704
becom,0.003939
befor,0.004203
began,0.004914
begin,0.009597
belgium,0.009660
belief,0.013176
belong,0.013908
bernardo,0.014371
bijago,0.021472
birth,0.021755
bisaw,0.021472
bissago,0.021472
bissau,0.149801
bissauguinean,0.079317
bissor,0.020790
blackey,0.019147
blow,0.010426
board,0.007100
bolama,0.018618
bolamanet,0.021472
border,0.007249
borderlin,0.013874
born,0.006952
boy,0.019397
brief,0.007800
bring,0.006118
britannica,0.010009
british,0.005495
brosca,0.021472
brother,0.008253
bsa,0.016446
buri,0.009731
busi,0.011096
c,0.004710
cabral,0.048793
cacheu,0.019829
cadamosto,0.019829
calabash,0.020261
calm,0.011578
campaign,0.007399
candid,0.022777
cann,0.016446
capabl,0.006491
cape,0.031059
capit,0.010721
capita,0.008946
carnat,0.014851
case,0.004121
cashew,0.017225
cassava,0.013780
cathol,0.015917
caus,0.008799
central,0.013862
centuri,0.042327
cereal,0.012153
ceremoni,0.009099
certain,0.004511
cfa,0.013811
challeng,0.005888
charg,0.006361
chief,0.013728
child,0.015833
children,0.006779
chili,0.016543
china,0.006332
chines,0.014170
cholera,0.026515
christian,0.025552
church,0.007447
cia,0.009793
citi,0.011385
civil,0.016963
civilian,0.008569
claim,0.015011
climat,0.014076
coast,0.030093
coastal,0.035946
coastlin,0.010253
cocain,0.013780
cofound,0.011324
collect,0.009617
colon,0.017493
coloni,0.034082
combin,0.009401
common,0.011958
commonli,0.005474
commun,0.030175
compar,0.014627
complex,0.004824
complic,0.007471
compris,0.013488
compulsori,0.010426
conced,0.012032
concentr,0.006451
condit,0.004612
conduct,0.005650
confus,0.007420
congo,0.011249
consid,0.003844
consider,0.005540
consolid,0.008656
constitu,0.015440
constitut,0.010411
continu,0.003994
control,0.021901
controversi,0.006496
cook,0.009294
cooper,0.018903
council,0.006011
countri,0.143174
coup,0.071827
court,0.006253
cover,0.005428
coverag,0.009917
creol,0.063744
crioulo,0.020790
cuba,0.020989
cuisin,0.011207
cultur,0.004957
cumer,0.019829
current,0.008441
custom,0.006666
d,0.005337
da,0.017552
damag,0.007114
danc,0.010573
date,0.005510
day,0.009950
death,0.034645
decemb,0.006050
declar,0.012735
defend,0.007376
deforest,0.012122
delay,0.008420
demograph,0.008852
deni,0.007642
denomin,0.009822
depend,0.004350
depos,0.021684
depress,0.008191
descent,0.009458
describ,0.008115
despit,0.016771
deterior,0.009709
develop,0.009891
di,0.010260
diabet,0.011664
did,0.014682
die,0.012634
diet,0.019497
diogo,0.015582
direct,0.004377
director,0.015854
disciplin,0.006075
dish,0.012485
disrupt,0.008495
distinct,0.005077
distrust,0.012137
disturb,0.009258
divers,0.006340
diversif,0.010951
divid,0.010455
divis,0.005714
djambadon,0.021472
dmoz,0.008731
doctor,0.007868
domain,0.006439
domest,0.006831
downturn,0.011292
dri,0.008635
drought,0.010763
drug,0.023327
dtat,0.021162
dure,0.011385
earli,0.007939
earth,0.006231
easili,0.006800
east,0.012205
eaten,0.011974
econom,0.039094
economi,0.010841
educ,0.010113
effect,0.003856
eighteen,0.011781
elect,0.099523
elector,0.008515
empir,0.022154
encourag,0.006523
encyclopdia,0.010295
english,0.011056
enrol,0.032744
enter,0.011605
entir,0.005148
environment,0.012762
epidem,0.011018
epublik,0.021472
eros,0.010703
escap,0.007969
establish,0.016944
estado,0.013939
estim,0.027927
ethnic,0.031330
europ,0.005382
european,0.024719
eustach,0.020790
event,0.005165
execut,0.006012
exodu,0.012397
expect,0.005453
experi,0.004881
expert,0.007840
explor,0.012095
explos,0.008798
export,0.021844
extend,0.005235
extent,0.006531
extern,0.003103
extrem,0.005693
f,0.005846
factbook,0.019895
faction,0.009375
factor,0.005032
faculti,0.018337
faith,0.007935
fala,0.019829
fall,0.005418
famou,0.006557
farm,0.007919
fate,0.010022
featur,0.010735
femal,0.031876
fespaco,0.021472
festiv,0.019715
fewer,0.016834
fiction,0.008465
film,0.064401
fiscal,0.008998
fish,0.007405
fiveyear,0.019331
flemishfrench,0.021472
flora,0.010729
fluctuat,0.008863
folk,0.020521
follow,0.016976
foothold,0.013023
forc,0.012762
forecast,0.009351
foreign,0.016575
forestsavanna,0.019464
form,0.006488
formerli,0.007950
fortifi,0.011615
foss,0.016446
fought,0.018005
foundat,0.005534
fouryear,0.010798
franc,0.006076
francophoni,0.031035
fraud,0.009776
french,0.011424
frenchspeak,0.014075
friendli,0.009776
fruit,0.008410
ft,0.009276
fula,0.017097
funer,0.011615
fuse,0.010449
futur,0.005169
gabu,0.039658
gain,0.005163
ganda,0.019147
gdp,0.007982
gener,0.015249
genit,0.013384
genr,0.030066
geocarpum,0.021472
geograph,0.006902
geographi,0.007812
gi,0.011875
gineebisow,0.021472
girl,0.010479
gome,0.044852
gomess,0.021472
govern,0.028253
govpub,0.014900
gradual,0.006822
grain,0.009221
grave,0.010345
greatli,0.006950
gross,0.016597
ground,0.006176
groundnut,0.033289
group,0.019143
grown,0.008174
guard,0.008871
gueinean,0.021472
guerrilla,0.021579
guid,0.006001
guinbissau,0.019829
guinea,0.150331
guineabissau,0.716074
guineabissaurel,0.020790
guinean,0.046178
gumb,0.058392
gunmen,0.016095
ha,0.025471
half,0.011684
harmattan,0.019829
harmon,0.010317
harvest,0.009408
hausa,0.016446
head,0.027396
headlin,0.013209
health,0.011834
held,0.025091
hemispher,0.009665
hi,0.003805
higher,0.010091
highest,0.012999
highli,0.005587
histori,0.007070
hivinfect,0.019147
hold,0.015337
hot,0.009346
howev,0.010333
httpswwwciagovlibrarypublicationstheworldfactbookindexhtml,0.013161
human,0.004089
humor,0.011494
ial,0.088288
imbal,0.011008
imfback,0.020261
improv,0.005222
includ,0.032410
incorpor,0.005828
increas,0.008162
independ,0.039234
index,0.013485
indic,0.005221
indigen,0.008462
infect,0.019266
inform,0.008439
infrastructur,0.014372
ingredi,0.011146
initi,0.009223
inland,0.020370
instabl,0.036709
institut,0.004491
instrument,0.006535
intellig,0.006622
intensifi,0.010404
interim,0.030555
interior,0.024987
intern,0.011158
invest,0.006043
islam,0.028261
island,0.012581
isol,0.006890
issu,0.009108
januari,0.012114
joint,0.007473
joo,0.013333
journal,0.005459
judici,0.008148
juli,0.006130
june,0.024734
junglelik,0.021472
justia,0.019147
justic,0.007172
kept,0.007647
key,0.010801
kill,0.035032
kilometr,0.019680
kingdom,0.022581
km,0.007987
known,0.003546
kriol,0.038928
kumba,0.038928
kunder,0.021472
kuruma,0.021472
kussund,0.021472
la,0.014167
labor,0.006967
land,0.005370
languag,0.074672
larg,0.011219
larger,0.005601
largest,0.005860
later,0.004220
latin,0.013338
latitud,0.010763
law,0.008549
lead,0.008467
leader,0.006204
leadership,0.007698
leav,0.012018
led,0.004579
left,0.005656
leftlean,0.015454
legisl,0.012993
legitim,0.008813
level,0.004243
librari,0.006666
lie,0.020856
life,0.004561
line,0.005078
link,0.009256
lisbon,0.012432
list,0.003945
literaci,0.010411
littl,0.010861
live,0.018351
local,0.009611
long,0.009214
longer,0.005852
longitud,0.012107
low,0.010876
lower,0.005243
lowest,0.025319
lu,0.012363
lyric,0.012789
macau,0.014182
macroeconom,0.009585
macrotyloma,0.021472
main,0.017967
mainland,0.009217
mainli,0.005890
mainstream,0.008610
major,0.015057
malam,0.036373
malaria,0.012689
male,0.015917
mali,0.023977
mamadu,0.019464
manag,0.005081
mancanha,0.021472
mandinga,0.021472
mandinkaspeak,0.021472
mangrov,0.013907
mani,0.022449
manjaco,0.021472
mansab,0.019829
march,0.017651
massacr,0.010345
master,0.007572
materi,0.004972
matern,0.022671
media,0.006508
medicin,0.006764
melegueta,0.018392
member,0.027162
merchant,0.008426
mestio,0.041581
metr,0.010092
mi,0.017892
mid,0.007065
midwiferi,0.015649
midwiv,0.015582
militari,0.074617
millet,0.013660
millimetr,0.013631
minist,0.012803
minor,0.019698
mislead,0.010729
mix,0.013649
modern,0.004255
monetari,0.015212
monitor,0.007673
monsoonlik,0.021472
mortal,0.047415
mortu,0.064417
mosaic,0.011821
mostli,0.018160
movement,0.009785
multimemb,0.016264
multiparti,0.018206
music,0.062383
muslim,0.007935
mutil,0.014182
mutini,0.012330
n,0.012743
na,0.010729
nacion,0.011794
narcost,0.019464
nation,0.043247
nationwid,0.010780
nativ,0.022000
near,0.005833
nega,0.062371
negoti,0.007426
neighbor,0.008003
neighbour,0.017334
neonat,0.014411
net,0.007458
new,0.003169
newborn,0.012467
news,0.023232
newspap,0.008783
nha,0.020261
ni,0.012485
nonalign,0.011715
north,0.016900
northeast,0.010105
northern,0.006633
novemb,0.025455
novo,0.013437
ntturudu,0.021472
number,0.010648
nut,0.024496
occupi,0.007112
occur,0.009015
ocean,0.007301
octob,0.006135
offic,0.005711
offici,0.032319
offshor,0.010345
ohada,0.019464
oil,0.007081
older,0.007445
onc,0.010603
onion,0.013660
onli,0.006532
opposit,0.005838
order,0.011729
organ,0.011610
organis,0.006717
oumar,0.018618
oust,0.011086
outlin,0.006906
overal,0.006493
overfish,0.014851
overgraz,0.015649
overthrew,0.011974
pact,0.010654
paigc,0.170974
palm,0.011056
papel,0.019147
parliamentari,0.024376
parti,0.038381
past,0.005628
pea,0.012168
peac,0.006842
peanut,0.013719
peopl,0.015647
pepper,0.025189
percapita,0.013719
percentag,0.015812
pereira,0.030214
period,0.029510
persist,0.016089
person,0.004642
personnel,0.008768
physician,0.008950
pintcha,0.019829
place,0.012037
plain,0.009271
plantain,0.015517
pleasur,0.010549
pledg,0.010060
point,0.008231
polici,0.005250
polit,0.035624
polyrhythm,0.020261
popul,0.075722
popular,0.010152
popularli,0.010645
port,0.008017
portion,0.014259
portogol,0.019829
portug,0.028434
portugues,0.225795
portuguesebas,0.060784
post,0.006885
postcoup,0.018186
potato,0.010807
poverti,0.016739
pr,0.036141
practic,0.017412
pregnanc,0.011821
pregnant,0.024830
preliminari,0.010851
present,0.004068
presid,0.094141
presidenti,0.033280
prestigi,0.011566
preval,0.008958
prevent,0.011633
primari,0.016111
prime,0.013073
prior,0.006145
privat,0.005833
prize,0.007588
problem,0.004351
product,0.008480
profil,0.017567
program,0.005117
promot,0.005803
pronounc,0.009828
proport,0.006726
prospect,0.008645
prosper,0.008410
public,0.008194
quantiti,0.006626
raimundo,0.019829
rainfal,0.011197
raini,0.026982
rapid,0.007051
rapidli,0.006859
rate,0.035293
ratio,0.007337
reach,0.015731
read,0.004481
rebellion,0.009212
rebuild,0.010860
receiv,0.004929
recognis,0.007966
recognit,0.007072
recov,0.007942
refer,0.007740
reform,0.006311
refus,0.007530
regard,0.009900
regi,0.015454
regim,0.007519
region,0.013862
regist,0.008001
relat,0.010437
religion,0.019715
remaind,0.028725
renew,0.007545
renown,0.011008
repblica,0.015053
report,0.034715
republ,0.018168
resid,0.027344
respect,0.004907
restrict,0.005980
result,0.014377
retrovir,0.018868
return,0.005222
revis,0.007710
revolut,0.006392
revolutionari,0.008211
revolv,0.010518
rhythmic,0.013660
rice,0.009731
rise,0.010384
risk,0.006348
ritual,0.009622
rival,0.008525
river,0.021163
roman,0.013842
ruin,0.010260
rule,0.009420
ruler,0.008621
runoff,0.011768
s,0.010978
sahara,0.011974
sanh,0.079317
school,0.010499
screen,0.009528
season,0.016677
seat,0.007635
second,0.004234
secondari,0.007347
sect,0.010807
section,0.006393
sector,0.020294
secur,0.005482
seed,0.009155
seek,0.005790
seneg,0.024830
septemb,0.018667
septemberoctob,0.016178
serv,0.025681
set,0.007994
setback,0.011959
settl,0.007333
settlement,0.007530
settler,0.019419
sever,0.018718
sign,0.011825
signific,0.004584
sinc,0.014363
situat,0.005529
size,0.011184
slave,0.033942
slept,0.016095
small,0.013182
social,0.022841
socialistinspir,0.017996
societi,0.004499
soil,0.008136
soldier,0.024513
solv,0.006608
sometim,0.004674
sound,0.007561
soup,0.014256
south,0.022494
southern,0.006664
soviet,0.007778
speak,0.041315
speaker,0.018443
special,0.004491
specif,0.004296
spice,0.011578
sq,0.021441
squar,0.015216
st,0.005788
stabil,0.013394
staff,0.016931
stage,0.006271
standard,0.004836
stapl,0.022738
start,0.009091
state,0.012568
statist,0.011783
stew,0.015274
stillfragil,0.021472
stop,0.007094
strong,0.005217
structur,0.008391
style,0.007399
subdivid,0.009840
substanti,0.006666
subterranea,0.021472
subtitl,0.014075
success,0.014286
suffer,0.006554
suffici,0.006639
summari,0.008642
sunni,0.011335
suppli,0.005854
suprem,0.007353
supremo,0.016749
surinam,0.013631
surround,0.013152
swamp,0.013114
sweet,0.011187
swift,0.011959
swisspeac,0.021472
syncret,0.012809
syncretist,0.017097
tagm,0.019464
taiwan,0.010105
tamper,0.013907
taught,0.008006
technic,0.006386
technician,0.011483
temperatur,0.007259
term,0.010179
terrain,0.021407
territori,0.018856
th,0.037059
thesi,0.008886
thi,0.021488
thousand,0.006332
time,0.009532
tina,0.016975
tinga,0.021472
tini,0.009687
tomato,0.012313
took,0.011219
topic,0.005697
tourism,0.008354
town,0.007374
trade,0.031169
trader,0.026521
tradit,0.018088
traffick,0.023863
transit,0.006251
transmiss,0.008871
transport,0.006156
transship,0.014110
travel,0.006340
tri,0.011304
tribun,0.011156
trigger,0.008735
ture,0.010860
turmoil,0.011197
turn,0.004964
twothird,0.009840
ucb,0.015001
udju,0.021472
ukest,0.021472
umban,0.020261
unabl,0.007462
undergon,0.011207
unharm,0.015861
unicamer,0.010951
unicef,0.014851
unidentifi,0.015001
unilater,0.011260
union,0.016008
uniqu,0.012246
unit,0.007244
univers,0.007438
unknown,0.007435
unlik,0.005980
unmark,0.015217
unrest,0.029879
upris,0.009972
use,0.014671
usual,0.004321
varieti,0.016175
veget,0.008572
venetian,0.012871
verd,0.025785
verdean,0.018392
veri,0.008202
vice,0.008313
vieira,0.099867
vigna,0.019464
violenc,0.008552
voic,0.008559
voyag,0.019645
w,0.006025
wa,0.100111
wai,0.016095
war,0.015303
warm,0.009177
websit,0.013581
week,0.007547
west,0.030830
western,0.005401
wide,0.004625
widespread,0.020698
wikimedia,0.010009
wikivoyag,0.013907
wind,0.008532
women,0.020503
won,0.029078
wood,0.008286
word,0.004984
world,0.029126
wouldb,0.014493
yam,0.013780
year,0.032617
yonta,0.021472
younger,0.008922
zone,0.007422
