abc,0.001793
aberdeen,0.002254
abl,0.000790
abolish,0.001307
abolit,0.004929
abolitionist,0.004314
abov,0.001601
abus,0.005382
accept,0.000785
access,0.011252
accord,0.006255
accordingli,0.001407
account,0.001473
accus,0.006272
acemoglu,0.002731
acha,0.003039
achiev,0.001573
acquir,0.001018
acrm,0.006373
act,0.002144
action,0.003074
activ,0.002496
ad,0.000798
adapt,0.000996
addit,0.003164
adher,0.003796
administ,0.002452
administr,0.013120
adopt,0.003453
adult,0.006123
advanc,0.000772
advantag,0.001942
adventist,0.002185
afdb,0.002002
affair,0.001034
affect,0.001634
affili,0.002862
affirm,0.001509
afford,0.001343
afrc,0.003105
afrcruf,0.003291
africa,0.022350
african,0.042762
africanamerican,0.002006
afrsl,0.003291
agenc,0.001968
agre,0.002829
agreement,0.000954
agricultur,0.009298
ahead,0.001460
ahm,0.001797
ahmad,0.012668
ahmadiyya,0.002215
aid,0.002815
aim,0.001786
air,0.002882
airlin,0.004777
airport,0.012401
ait,0.002891
aladha,0.002520
albert,0.025428
alert,0.001751
alexand,0.001198
alfitr,0.002853
alfr,0.003845
alhaji,0.002934
alhassan,0.002891
allafricacom,0.002787
allapc,0.003186
alldomin,0.003291
alleg,0.003880
allegedli,0.003221
allen,0.001444
allevi,0.001670
alli,0.011554
alloc,0.001248
allow,0.002488
amadu,0.009559
ambit,0.001631
amend,0.001319
america,0.000876
american,0.005670
americo,0.002891
aminatta,0.003291
amphibian,0.001846
ancestor,0.001344
ancestri,0.003435
andrew,0.002541
anger,0.001632
anglican,0.001869
anglicis,0.002431
ani,0.002756
annex,0.002846
announc,0.002101
annual,0.001921
anoth,0.003008
antagon,0.001916
anticorrupt,0.002112
apc,0.055658
apcdomin,0.003291
appeal,0.002330
appear,0.000724
appoint,0.014397
apprentic,0.008174
apprenticeship,0.008287
approv,0.004298
approxim,0.000852
april,0.008613
archaeolog,0.001339
ardent,0.002107
area,0.022367
arm,0.014962
armi,0.021520
aros,0.001242
arrest,0.017873
arriv,0.005035
art,0.001914
articl,0.001486
asid,0.001426
assassin,0.001480
assess,0.001065
assign,0.001123
assimil,0.001632
assist,0.000932
associ,0.001222
assum,0.003466
astut,0.002323
asylum,0.001811
atla,0.001466
atlant,0.005302
atroc,0.003774
attack,0.002017
attempt,0.004995
attend,0.001193
attract,0.001006
august,0.003802
aurad,0.003291
author,0.004226
authoritarian,0.004815
autom,0.001399
autumn,0.001664
avail,0.000764
averag,0.003737
await,0.001867
awar,0.003395
away,0.001905
ayer,0.002121
babington,0.002853
background,0.001074
badara,0.003291
bag,0.001941
bai,0.016266
bambay,0.015932
ban,0.003781
bangura,0.050984
banja,0.002731
bank,0.005428
bann,0.002934
baptist,0.001826
bar,0.002828
base,0.005450
bash,0.002388
bashiru,0.003291
basi,0.001558
basic,0.000758
basin,0.001486
basketbal,0.015027
bauxit,0.002221
bay,0.004238
bbc,0.002846
beach,0.003268
bead,0.001944
beah,0.003291
becam,0.012410
becaus,0.005678
becom,0.003019
beer,0.003491
befor,0.001932
began,0.007532
begin,0.002206
begun,0.001199
belief,0.002019
believ,0.003900
belong,0.001065
berewa,0.003186
berlin,0.001343
best,0.000831
bibliographi,0.001097
biggest,0.001416
bilater,0.001434
bintumani,0.003186
bio,0.013948
birchtown,0.003186
bird,0.002575
birdlif,0.002368
birthday,0.003702
black,0.005090
blackpool,0.005869
blair,0.002028
blog,0.003426
blood,0.001228
bloodless,0.001972
blow,0.001598
bluindaco,0.003291
blunt,0.002121
bo,0.012284
board,0.001088
bockari,0.003039
bodi,0.001513
bombali,0.009873
bonnet,0.002479
bonth,0.012421
book,0.001433
border,0.010000
boundari,0.001053
bounti,0.002162
box,0.001414
boy,0.001486
boycot,0.001908
brake,0.002126
branch,0.000802
bread,0.001765
brett,0.002291
bridg,0.001246
briefli,0.001399
brigadi,0.038367
brima,0.003291
bring,0.002813
britain,0.003187
british,0.033689
broadcast,0.017563
broaden,0.001608
broke,0.002587
broken,0.001257
brokerag,0.001953
brother,0.006324
brought,0.001859
brussel,0.001818
brutal,0.001644
bryant,0.002215
build,0.000798
built,0.005642
bundesliga,0.003291
bureaux,0.002640
bureh,0.022305
burn,0.001293
bush,0.001555
busi,0.001700
buy,0.001193
byelect,0.004482
c,0.002165
cabinet,0.008883
caf,0.002168
calm,0.001774
cambridg,0.002001
came,0.002478
campaign,0.003402
canadian,0.002564
cancel,0.004293
candid,0.010473
canid,0.002359
cape,0.001586
capit,0.011503
captain,0.010672
captur,0.001037
card,0.002870
cardew,0.009316
care,0.002847
caribbean,0.002882
carri,0.002443
case,0.001895
cassava,0.004224
catalyst,0.001649
categoris,0.001908
cathedr,0.001789
cathol,0.001219
cattl,0.002959
caulker,0.006078
caulkerburnett,0.003291
caus,0.001348
ceasefir,0.001784
celebr,0.005208
cellular,0.001397
cement,0.001665
censu,0.007407
center,0.000805
centr,0.004155
central,0.004957
centuri,0.006487
certif,0.002936
chairman,0.007144
challeng,0.001804
champion,0.001568
championship,0.004094
chanc,0.001216
chang,0.003987
chaotic,0.001730
characteris,0.003028
charg,0.004874
charl,0.000967
charter,0.001359
chief,0.034717
chiefdom,0.004253
chieftainci,0.003039
child,0.002426
childhood,0.001614
children,0.005195
china,0.001941
choic,0.000992
cholera,0.002032
chosen,0.001154
christian,0.028393
christma,0.001780
church,0.004566
cia,0.001501
circl,0.001217
cite,0.001056
citi,0.014832
citizen,0.002067
civil,0.030332
civilian,0.003940
claim,0.001533
clarkson,0.002567
clash,0.004511
class,0.000837
clear,0.000940
cleric,0.001828
climat,0.004315
cline,0.002359
close,0.005408
closer,0.001250
closur,0.001631
club,0.007325
coalit,0.001224
coast,0.010377
coastal,0.004132
coastlin,0.001571
coat,0.001496
code,0.000977
collabor,0.002321
collaps,0.002225
colleagu,0.001365
collect,0.000737
colleg,0.005483
collus,0.002268
colonel,0.008645
coloni,0.030297
colonist,0.006909
combat,0.001326
combin,0.000720
come,0.001445
command,0.006360
commanderinchief,0.001754
commerci,0.004840
commiss,0.003017
commission,0.003107
commit,0.004236
committe,0.001084
common,0.000610
commonli,0.000839
commonwealth,0.005220
commun,0.009249
compani,0.006382
compar,0.000747
compet,0.002083
competit,0.004967
complain,0.001640
complet,0.001395
compos,0.001917
compris,0.002067
compulsori,0.001598
conakri,0.005365
concern,0.002128
conclus,0.002251
concurr,0.001557
conduct,0.000866
confer,0.003978
confin,0.001356
conflict,0.002823
confront,0.001395
conglomer,0.001887
congo,0.001724
congress,0.006792
connect,0.000831
conquest,0.002722
consecut,0.001708
conserv,0.001003
conservationsustain,0.003291
consid,0.004125
consider,0.002547
consist,0.003381
conspiraci,0.001795
constitut,0.019946
construct,0.001564
consum,0.001006
consumpt,0.003535
contact,0.001060
contain,0.001449
conteh,0.005966
contest,0.002658
contin,0.002604
conting,0.001467
continu,0.006122
contract,0.001013
contribut,0.002224
control,0.008056
convers,0.001042
convict,0.011715
cool,0.001415
cooper,0.003863
corn,0.001580
corpor,0.008922
corrupt,0.012406
cost,0.000888
council,0.016584
counti,0.001503
countri,0.070487
coup,0.030274
coupl,0.001169
cours,0.000880
court,0.011501
cover,0.002495
coverag,0.003039
crain,0.005869
creat,0.004326
creation,0.000919
credit,0.000977
creol,0.011723
crew,0.001589
crichton,0.002682
cricket,0.008254
crime,0.003761
crimin,0.005119
crisi,0.002085
critic,0.003716
criticis,0.001487
crop,0.001249
cross,0.002205
crossbord,0.001916
crown,0.005234
cuba,0.001608
cultiv,0.001290
cultur,0.002279
cup,0.005088
cure,0.001549
currenc,0.003321
current,0.012937
currey,0.002706
custom,0.002043
cut,0.001072
cycl,0.001035
da,0.001345
dacdf,0.003291
daili,0.004727
dailleur,0.003291
dam,0.001705
danger,0.001186
daron,0.002660
david,0.003590
day,0.003812
dead,0.001266
deal,0.002442
death,0.007080
debat,0.001881
debut,0.002009
decad,0.002755
decemb,0.003709
decentralis,0.002059
decid,0.002954
declar,0.005855
declin,0.004797
decolonis,0.002157
dedic,0.001213
deem,0.001367
deen,0.002934
defeat,0.005977
defenc,0.009840
defend,0.003391
defens,0.001109
deficit,0.001402
defin,0.001386
deforest,0.007431
defus,0.002283
degrad,0.004348
degre,0.000827
deleg,0.002853
deliv,0.001191
demand,0.000902
demba,0.003186
democraci,0.003376
democrat,0.004950
demograph,0.001356
demonstr,0.003633
deni,0.001171
denomin,0.001505
dens,0.001438
densiti,0.003658
depend,0.000666
deplet,0.001576
deploy,0.002734
deposit,0.002392
depriv,0.003245
deputi,0.008119
deriv,0.000768
descend,0.009784
descent,0.002899
describ,0.001243
desert,0.001436
design,0.002968
desir,0.000951
despit,0.001713
destroy,0.002113
destruct,0.003587
detain,0.003821
detect,0.001109
detent,0.005817
deterior,0.002976
determin,0.001403
devast,0.001434
develop,0.006064
devic,0.001129
devot,0.001194
dialogu,0.001410
dialysi,0.002409
diamond,0.024546
diamondrich,0.002934
dictatori,0.002157
did,0.003000
die,0.000968
differ,0.005356
difficult,0.000881
difficulti,0.001091
digit,0.002256
diminish,0.001368
diplomat,0.001200
direct,0.001341
directli,0.005683
disappoint,0.001734
disarm,0.006142
disarma,0.002024
disciplin,0.000931
discrimin,0.001403
diseas,0.006350
dismiss,0.001346
dispar,0.001552
displac,0.002593
display,0.001148
disrupt,0.002604
distanc,0.001076
distinct,0.000778
district,0.039111
disturb,0.001418
divers,0.001943
divid,0.004807
divis,0.003503
djalon,0.003291
dmoz,0.001338
doctor,0.001205
doctrin,0.001211
document,0.003902
documentari,0.003105
doe,0.001367
dog,0.001512
domest,0.003140
domin,0.009146
domingo,0.002028
dominion,0.001725
donat,0.001513
donor,0.001584
doubl,0.001118
dozen,0.002826
draft,0.001304
drainag,0.001953
dramat,0.003423
draw,0.001035
dri,0.002646
drink,0.005993
driven,0.001176
dstv,0.006078
dtat,0.001621
dumbuya,0.015932
durant,0.002341
dure,0.009306
dutch,0.001241
duti,0.002404
dwell,0.005363
earli,0.004259
earliest,0.001016
earn,0.001143
earner,0.002071
east,0.005611
easter,0.001933
eastern,0.011107
ebola,0.026162
ecolog,0.001146
ecomog,0.005462
econom,0.010652
economi,0.004984
ecoregion,0.001801
ecowa,0.008566
edg,0.001327
educ,0.007750
edward,0.001106
effect,0.002364
effort,0.003370
eid,0.004718
eighteen,0.001805
eighteenth,0.001554
eighteenthcenturi,0.002080
elder,0.001494
elect,0.044863
electr,0.001005
element,0.002321
elevenyear,0.003039
elit,0.005403
elizabeth,0.002894
embodi,0.001406
embrac,0.001372
emerg,0.002339
emigr,0.001529
emiss,0.001443
empir,0.001697
employ,0.001613
emul,0.001744
en,0.001494
enabl,0.000964
enact,0.005394
enciss,0.003186
enclav,0.001889
encount,0.002396
encroach,0.001874
end,0.013302
endem,0.005083
enforc,0.002281
english,0.005930
englishspeak,0.001667
enhanc,0.001126
enlist,0.001905
enorm,0.001310
enrol,0.001672
enslav,0.003481
ensur,0.001998
enter,0.000889
entertain,0.001495
entiti,0.001032
entrepreneur,0.001532
entri,0.002353
environ,0.002419
environment,0.002934
epidem,0.013509
equal,0.000828
equival,0.000979
era,0.000961
ernest,0.004695
erod,0.001751
escal,0.001575
especi,0.004238
establish,0.011686
estim,0.011129
ethnic,0.040817
eu,0.001324
europ,0.001649
european,0.004546
europeanstyl,0.002341
evacu,0.004989
evangel,0.001910
evd,0.003291
event,0.000791
eventu,0.000864
everi,0.001522
exampl,0.000544
exceed,0.001277
exchang,0.002579
exclus,0.003117
excombat,0.002787
execut,0.014744
exercis,0.001045
exil,0.009725
exist,0.000604
expand,0.002581
expect,0.001671
expedit,0.001376
expenditur,0.001345
experienc,0.001092
experiment,0.001016
exploit,0.002264
explor,0.000926
export,0.006696
extend,0.002407
extent,0.002002
extern,0.000475
extirp,0.002567
extrem,0.001745
f,0.002688
face,0.004565
facil,0.001166
fact,0.000772
factbook,0.001524
faction,0.002873
factor,0.000771
factori,0.001331
fail,0.001829
failur,0.001058
fair,0.001232
fairli,0.001377
falaba,0.003186
fallen,0.001478
famili,0.002527
famou,0.001005
far,0.002474
farmer,0.003862
farmland,0.003889
fashion,0.001280
fatal,0.003162
father,0.002139
fatima,0.002620
favor,0.001004
favour,0.001196
favourit,0.002047
fear,0.001141
februari,0.001976
feder,0.000968
fee,0.001423
feel,0.001137
feet,0.002971
fell,0.001174
fellow,0.001375
femal,0.001221
ferment,0.001785
ferri,0.001853
fever,0.005202
fiction,0.001297
fifa,0.002196
fight,0.004566
fighter,0.006609
figur,0.000900
film,0.001233
final,0.007081
financ,0.002891
financi,0.001736
finish,0.004199
firm,0.001086
fish,0.009080
fisherman,0.002299
fiveyear,0.002962
fled,0.001472
fli,0.001357
flight,0.002665
float,0.001440
flourish,0.001338
flower,0.001477
flown,0.002039
fm,0.005899
foday,0.012156
foh,0.003186
foil,0.001999
follow,0.005203
food,0.002808
footbal,0.029302
forbidden,0.001608
forc,0.029341
forecast,0.001433
foreign,0.006774
forest,0.008757
forestsavanna,0.002983
form,0.006464
formal,0.001628
formalis,0.001910
format,0.001774
formerli,0.001218
formul,0.001041
forna,0.006373
fortifi,0.001780
forum,0.001336
fought,0.001379
foundat,0.001696
fourah,0.009559
fourteen,0.005307
fourth,0.001135
fouta,0.003039
fragment,0.001279
framework,0.001864
franc,0.001862
franci,0.002491
freder,0.001933
free,0.005201
freed,0.006708
freedom,0.007188
freehold,0.002506
freer,0.002307
freerown,0.003291
freetown,0.153508
french,0.001750
frequent,0.000914
fresh,0.001461
fri,0.007791
friday,0.001882
friend,0.002584
frontier,0.001433
fruit,0.001289
ft,0.001421
fuell,0.002059
fuelwood,0.002706
fula,0.013102
fulani,0.002479
fulfil,0.003946
function,0.000666
fund,0.003587
funer,0.003560
futa,0.002819
futur,0.000792
g,0.000880
gabon,0.002080
gain,0.001582
gambia,0.002107
game,0.001116
gave,0.000946
gbendembu,0.003291
gbori,0.006373
gdp,0.001223
gemqual,0.002934
gener,0.014958
genit,0.002051
geograph,0.004231
geographi,0.001197
german,0.000918
ghadafi,0.003291
ghana,0.001837
gibrilla,0.003291
ginger,0.002332
given,0.001957
gola,0.002891
gold,0.003393
gone,0.002887
good,0.001446
goodpay,0.003291
got,0.001467
govern,0.048251
governmentown,0.004027
governmentsponsor,0.002215
governor,0.003582
govpub,0.002283
grant,0.006980
granvil,0.005013
graze,0.001826
great,0.005132
greatli,0.002130
grew,0.002174
grill,0.002378
gross,0.001271
ground,0.000946
groundnut,0.002551
group,0.021124
growth,0.003293
gtv,0.006210
guarante,0.001193
guard,0.001359
guerrilla,0.001653
guinea,0.030721
guinean,0.009436
guma,0.003291
ha,0.020387
habib,0.002276
habitat,0.001517
halfbroth,0.002261
hand,0.001612
handbook,0.001316
handl,0.001182
handpick,0.002368
hang,0.005227
happen,0.001028
happi,0.001438
happili,0.002378
harbour,0.010037
harmattan,0.003039
harri,0.001368
harsh,0.003095
hawa,0.002983
hawkin,0.002247
head,0.015956
headlin,0.002024
headquart,0.005765
healer,0.002146
health,0.005441
healthcar,0.003064
heat,0.001147
heavi,0.001124
heavili,0.002097
held,0.013844
helicopt,0.005307
heliport,0.002601
help,0.006409
hero,0.001542
hi,0.030330
hide,0.001539
high,0.003952
higher,0.002320
highest,0.009961
highway,0.004925
hill,0.001294
hinga,0.002983
hinterland,0.002051
hire,0.001420
histor,0.001461
histori,0.002167
historian,0.001096
hivaid,0.002126
hold,0.003134
holiday,0.006125
home,0.006502
homeland,0.001682
hope,0.004430
hors,0.001405
hospit,0.002565
host,0.001189
hostag,0.003860
hostil,0.001349
hotel,0.004698
hour,0.001143
hous,0.004363
household,0.001294
hovercraft,0.002706
howev,0.004751
hub,0.001688
huge,0.001209
human,0.001880
humanitarian,0.001636
hundr,0.002965
hurrarc,0.003291
hut,0.006365
hybrid,0.001359
iain,0.002168
ib,0.002121
ibrahim,0.005724
ideal,0.001058
ident,0.000931
identifi,0.000786
ideolog,0.001228
ii,0.001702
ill,0.001263
illeg,0.005243
illicit,0.001963
illiter,0.002017
imam,0.006019
imf,0.001424
immedi,0.003825
immigr,0.002589
immun,0.001423
imodal,0.003291
impact,0.000891
impenetr,0.002368
implement,0.002717
import,0.002774
importantli,0.001490
imposs,0.001099
imprison,0.003093
improv,0.006404
inaccur,0.001763
includ,0.013547
incom,0.000996
incorpor,0.000893
increas,0.004378
increasingli,0.002877
incumb,0.001744
inde,0.001106
independ,0.010690
index,0.002066
indian,0.004307
indic,0.000800
indigen,0.005188
individu,0.000670
industri,0.000742
ineffectu,0.002291
inequ,0.001368
infant,0.001563
infecti,0.001742
influenc,0.000716
influenti,0.008369
inform,0.003233
infrastructur,0.007709
infus,0.001867
inhabit,0.002261
initi,0.003534
inland,0.004683
inner,0.001307
input,0.001178
insid,0.001091
insist,0.002654
inspector,0.009769
inspir,0.001076
instal,0.001283
instanc,0.001762
instantli,0.001944
instig,0.001776
institut,0.003441
integr,0.001570
intellig,0.001015
intend,0.001007
intens,0.001080
interact,0.004058
interf,0.001853
interior,0.002553
intermarriag,0.002126
intermitt,0.005580
intern,0.011401
international,0.002168
internet,0.005335
interreligi,0.005240
interspers,0.002190
interven,0.001397
intervent,0.001180
intimid,0.005588
intransig,0.002584
introduc,0.003052
introduct,0.001724
investor,0.001239
invit,0.002681
involv,0.001891
iran,0.001475
iron,0.001165
isaac,0.002815
isbn,0.003845
ishmael,0.002431
islam,0.014077
island,0.001928
isp,0.002454
israel,0.003996
issu,0.001396
italian,0.001220
iverson,0.002787
jail,0.001857
jalloh,0.003291
jallon,0.003105
jamaican,0.004700
jame,0.003669
januari,0.006498
jehovah,0.002116
john,0.004439
johnni,0.002307
johnson,0.001486
join,0.003870
jointli,0.001569
jordan,0.003278
joseph,0.004287
journal,0.001673
journalist,0.006125
jstor,0.001636
judahit,0.003039
judici,0.003746
judiciaci,0.003291
judiciari,0.007236
jui,0.003105
juli,0.001879
juliu,0.008275
june,0.002843
junior,0.005143
junta,0.020092
jurisdict,0.001320
jurisprud,0.001824
just,0.001517
justic,0.010993
juxonsmith,0.012746
kabala,0.003105
kabbah,0.048627
kahota,0.009559
kaifala,0.003291
kailahun,0.012746
kallon,0.003291
kamajor,0.003186
kamara,0.030392
kambia,0.006582
kambo,0.003186
kambui,0.003291
kand,0.003186
kanu,0.007982
kareefasmart,0.009559
karefasmart,0.009559
karina,0.002891
kasseh,0.006582
keen,0.003583
kei,0.002758
kenema,0.022305
kept,0.001172
kevin,0.001706
key,0.006622
kg,0.001694
khan,0.001693
khukri,0.003186
kill,0.001073
killer,0.001960
kilometr,0.001508
kind,0.001732
kingdom,0.002595
kissi,0.006373
km,0.012242
knew,0.001532
known,0.005435
kobe,0.002682
koidu,0.009559
koinadougu,0.003291
koinadugu,0.016455
koindu,0.003291
komba,0.006373
kono,0.023761
koroma,0.032281
krio,0.056681
kriomargdomin,0.003291
kroubay,0.003291
kru,0.009316
kup,0.003039
kuranko,0.012421
la,0.002171
labour,0.002202
lack,0.004146
lakka,0.003291
lamin,0.004598
lamina,0.002368
land,0.007408
landslid,0.005539
languag,0.012262
lansana,0.013937
larg,0.004585
larger,0.000858
largescal,0.001267
largest,0.017965
lassa,0.002787
late,0.001505
later,0.004527
latitud,0.001649
launch,0.003285
launder,0.002032
laurent,0.002080
lavish,0.002162
law,0.005241
lead,0.004542
leader,0.018069
leadership,0.007079
leagu,0.012009
leav,0.003684
lebanes,0.002067
lebron,0.003291
led,0.015442
left,0.003467
legaci,0.001367
legal,0.004487
legisl,0.002987
legislatur,0.005322
lenienc,0.002682
leoa,0.006582
leon,0.571184
leona,0.002758
leonean,0.050556
leoneanlebanes,0.006582
leonebas,0.003186
leonerel,0.003186
lesser,0.001333
level,0.003251
levinson,0.002332
lfhd,0.003291
libel,0.004537
liber,0.005883
liberia,0.023484
liberian,0.009679
librari,0.001021
libya,0.003432
licens,0.001295
lie,0.001065
lieuten,0.013885
life,0.004194
liga,0.002419
lightli,0.002112
ligu,0.002758
like,0.002904
limba,0.029832
limit,0.003320
link,0.003310
lion,0.003386
lioness,0.002758
list,0.002418
listen,0.001536
literaci,0.001595
littl,0.000832
live,0.009844
local,0.013995
locat,0.003998
log,0.001523
logger,0.002601
loko,0.009559
loma,0.002787
lon,0.001947
london,0.006410
long,0.002118
longer,0.001793
longitud,0.001855
longtim,0.001853
loni,0.002853
lose,0.001143
loss,0.000951
low,0.004167
lower,0.001607
lowest,0.001293
lowland,0.001900
lowli,0.002089
loyal,0.009946
loyalist,0.009912
ludlam,0.002934
lungi,0.005966
lutheran,0.001957
lycaon,0.003105
m,0.002333
maada,0.012156
macauley,0.003291
machin,0.002100
macleod,0.002261
madrasa,0.002601
magburaka,0.003291
magic,0.001516
magistr,0.001708
magnet,0.001276
main,0.008261
mainli,0.000902
maintain,0.007582
mainten,0.001304
major,0.026539
make,0.003871
makeni,0.022305
malaria,0.001944
male,0.001219
mali,0.001837
maliki,0.002419
mammal,0.001376
manag,0.003894
mand,0.005102
mandat,0.001354
mandika,0.003291
mandingo,0.008804
mandinka,0.005203
mane,0.002419
mango,0.002388
mangrov,0.002131
manhunt,0.002682
mani,0.018186
manner,0.001049
mano,0.004985
map,0.000994
marah,0.003291
march,0.006312
margai,0.105154
marin,0.001244
mark,0.000873
maroon,0.006996
marri,0.001363
marriag,0.001374
martial,0.003502
massiv,0.003471
massucco,0.003291
match,0.006938
mate,0.001630
materi,0.000762
matern,0.003474
matter,0.001636
maulidunnabi,0.003291
maximum,0.001182
mboma,0.003105
meal,0.001853
mean,0.001197
meat,0.001509
media,0.009974
medic,0.004005
member,0.017346
membership,0.001197
memoir,0.003509
memori,0.001131
men,0.002016
mend,0.035517
mening,0.002276
mental,0.003530
mercenari,0.001860
merchant,0.001291
merg,0.002619
merger,0.001575
method,0.001347
metr,0.003093
mi,0.010969
michael,0.002001
mid,0.001082
middleclass,0.003720
midtwentieth,0.002151
mighti,0.004582
migrant,0.006790
migrat,0.004647
mile,0.001264
militari,0.032549
militia,0.001682
million,0.002562
milton,0.030674
minah,0.003039
miner,0.008427
minist,0.022567
ministeri,0.001811
ministri,0.003507
minor,0.013082
miss,0.001371
mission,0.002168
misspel,0.002442
mixtur,0.001359
moa,0.002601
model,0.000677
moder,0.001245
moham,0.014152
momoh,0.101968
momohl,0.003186
mondeh,0.003186
money,0.000971
monopoli,0.004179
monrovia,0.002584
month,0.003843
mormon,0.002146
mortal,0.002906
mosaic,0.001811
mosqu,0.007367
mostli,0.008350
mostpopular,0.002853
mosttrust,0.003105
motiv,0.001062
mount,0.002535
mountain,0.003509
movement,0.002249
mozambiqu,0.001862
mru,0.002853
ms,0.001634
muchneed,0.002261
muhammad,0.001562
multi,0.004143
multichoic,0.006210
multiparti,0.004185
multipli,0.001401
municip,0.001325
musa,0.012509
music,0.001195
muslim,0.031620
mustapha,0.005966
musu,0.003291
mutil,0.002173
mutini,0.005669
n,0.000976
nam,0.001711
narowli,0.003291
narrowli,0.001690
nation,0.033744
nationwid,0.003304
nativ,0.006743
natur,0.003483
navi,0.005206
navig,0.001357
nba,0.009679
near,0.000894
nearbi,0.002676
nearli,0.006630
necessari,0.000866
need,0.000653
neg,0.000942
neglect,0.001422
negoti,0.003414
negro,0.004119
neighbour,0.005313
neighbourhood,0.001919
nelsonwilliam,0.003291
network,0.001818
new,0.011172
news,0.005934
newspap,0.014808
ngo,0.001787
nigerian,0.004110
nigerianl,0.003291
nighttim,0.002332
nimini,0.003291
nineteenth,0.001360
nineyearold,0.002640
njala,0.009559
non,0.006269
nonalign,0.001795
nondenomin,0.002520
nonexist,0.001688
nongovernment,0.001739
nonprofit,0.001568
nonprotest,0.003105
norman,0.001532
north,0.007770
northeast,0.004646
northern,0.010166
northwest,0.001487
notabl,0.003337
note,0.000626
noth,0.001150
nova,0.014753
novel,0.001203
novemb,0.008778
nprc,0.054170
nrc,0.011457
number,0.003808
numer,0.002416
nyuma,0.003186
oblig,0.001200
observ,0.000717
obstruct,0.001844
obtain,0.000845
occup,0.001133
occupi,0.004360
occur,0.000690
ocean,0.002238
octob,0.005642
offend,0.001820
offer,0.000808
offic,0.011379
offici,0.015686
oftentim,0.002291
oic,0.001921
okra,0.002983
oladipo,0.003186
old,0.003599
older,0.002282
oldest,0.002352
oneal,0.002731
oneparti,0.009540
onli,0.006006
open,0.000744
oper,0.008918
oppon,0.002701
oppos,0.002726
opposit,0.011632
orang,0.001625
orchestr,0.002020
order,0.001797
ore,0.001557
organis,0.010295
origin,0.006026
orthodox,0.001464
orugu,0.003291
oryx,0.002706
otherwis,0.001034
ous,0.006582
oust,0.010194
outbreak,0.010358
outcom,0.001111
outlin,0.001058
outnumb,0.001805
outsid,0.006636
outspoken,0.002013
overal,0.000995
overburden,0.002454
overgraz,0.002398
overrod,0.003039
oversaw,0.001877
oversea,0.001297
overthrew,0.003670
overthrow,0.003158
overthrown,0.001754
overwhelm,0.002916
overwhelmingli,0.001763
owe,0.005293
owner,0.001230
oxford,0.001021
pa,0.001694
pace,0.001467
pademba,0.003186
paid,0.001108
paint,0.001381
palac,0.001554
pallis,0.002758
palm,0.001694
panafrican,0.002398
pandebutokpombu,0.003291
paolo,0.004079
paper,0.000897
paramilitari,0.003816
paramount,0.020068
pari,0.001189
park,0.002541
parliament,0.027419
parliamentari,0.012453
parti,0.022690
partial,0.002000
particip,0.001715
particular,0.001361
particularli,0.006101
partli,0.001169
pass,0.000844
passeng,0.001618
patriot,0.003173
paul,0.000945
pave,0.003075
pay,0.001015
payment,0.001172
payperview,0.006210
peac,0.006292
peacekeep,0.008261
peanut,0.002102
pedro,0.001744
peninsula,0.001446
pentecost,0.002307
peopl,0.032975
pepel,0.003105
pepper,0.001930
perceiv,0.001093
percent,0.006553
perd,0.006582
period,0.000646
perman,0.001053
perpetu,0.001473
person,0.006404
personnel,0.001343
peter,0.001983
petit,0.001608
pew,0.002190
phoenix,0.001966
phone,0.001551
physic,0.001423
physician,0.001371
pictu,0.002819
pigment,0.001822
pineappl,0.002254
pipe,0.001820
pirat,0.001732
place,0.003689
plain,0.002842
plan,0.001647
plant,0.000944
plantain,0.002378
plateau,0.001767
platform,0.001331
play,0.004710
player,0.002846
plot,0.006663
plu,0.001223
plural,0.001398
point,0.001892
polaris,0.002009
polic,0.024188
polici,0.008047
polit,0.026618
politician,0.001304
polygam,0.002682
polygami,0.002332
poor,0.003225
poorli,0.002879
popcorn,0.002731
popul,0.031722
popular,0.011670
popularli,0.001631
port,0.002457
portion,0.004370
portray,0.001415
portugues,0.004152
posit,0.007733
possibl,0.001908
post,0.002110
postconflict,0.002584
potato,0.003312
potenti,0.001614
poverti,0.001282
power,0.021696
poyo,0.006582
pp,0.002033
practic,0.003335
practis,0.003281
prayer,0.001643
preacher,0.002098
preclud,0.001787
predecessor,0.001359
predomin,0.009957
predominantli,0.005537
prefinanc,0.002891
premier,0.006244
prepar,0.001011
presbyterian,0.002080
presenc,0.002828
present,0.001247
presentday,0.001400
presid,0.066733
presidenti,0.006375
press,0.005871
pressur,0.001877
presum,0.001391
preval,0.004119
prevent,0.001782
previou,0.000940
previous,0.001901
primari,0.006585
primarili,0.012785
prime,0.013024
princip,0.000974
principl,0.001497
print,0.003513
prison,0.003970
privat,0.004470
privatis,0.001960
problem,0.001333
procedur,0.001085
proceed,0.001141
process,0.001179
procredit,0.002853
produc,0.003244
product,0.001949
profession,0.005052
profici,0.001966
profil,0.001346
profit,0.001077
program,0.001568
programm,0.001198
prohibit,0.001272
project,0.002314
promin,0.004889
promis,0.004686
promot,0.003558
properti,0.001510
prophet,0.001636
proport,0.001031
propos,0.002308
prosecut,0.001685
protect,0.006648
protector,0.023143
protest,0.008112
prove,0.000962
provid,0.004979
provinc,0.019596
provinci,0.001508
provis,0.001214
provision,0.001580
proxi,0.001747
public,0.003140
publish,0.004152
pujehun,0.003291
pull,0.001431
push,0.001185
qualifi,0.005245
qualiti,0.002787
quarantin,0.002261
quay,0.002853
queen,0.002617
question,0.000783
quickli,0.002030
quot,0.001304
racial,0.001531
radio,0.017872
rahman,0.002112
rainforest,0.007479
raini,0.004135
rais,0.002759
ran,0.002791
rang,0.002994
rank,0.006316
rapidli,0.001051
rare,0.002052
rate,0.006182
rd,0.001116
reach,0.002411
read,0.002747
readership,0.002112
readi,0.001453
readili,0.001353
real,0.000820
reason,0.000709
rebel,0.007184
rebelheld,0.002787
rebellion,0.001412
rebuild,0.001664
recapt,0.044611
recaptur,0.001797
receiv,0.000755
recent,0.001369
recognis,0.003663
recommend,0.002331
reconcili,0.001655
reconstruct,0.001239
recov,0.002434
recoveri,0.001316
recruit,0.001458
reduc,0.002247
reed,0.001879
reelect,0.009665
reenslav,0.002983
reestablish,0.004519
refer,0.000790
refineri,0.001833
reflect,0.000849
reform,0.005804
refuge,0.011844
refus,0.001154
regard,0.003793
region,0.007790
regist,0.004905
registr,0.003079
regularli,0.001346
reinstat,0.005392
relat,0.003732
relationship,0.001509
relay,0.003674
releas,0.001976
reli,0.002858
relief,0.001409
religi,0.009091
religion,0.008058
reloc,0.001630
remain,0.005232
remov,0.003652
renam,0.002746
render,0.001297
renegoti,0.002202
reorganis,0.004079
repel,0.001716
replac,0.000805
report,0.006080
reportedli,0.001570
repres,0.006487
reptil,0.001739
republ,0.010210
republican,0.001412
request,0.001202
requir,0.001245
research,0.000641
reserv,0.002103
resettl,0.003764
resid,0.002095
residenti,0.001702
resign,0.001351
resili,0.001813
resist,0.004099
resolut,0.001209
resort,0.001467
resourc,0.003202
respect,0.002256
respons,0.006859
rest,0.000926
restaur,0.001756
restor,0.003355
restrict,0.001833
restructur,0.001562
result,0.003856
resum,0.001512
retain,0.002080
retir,0.006728
retriev,0.002349
return,0.007203
reveal,0.001040
revers,0.001088
review,0.000886
revolt,0.002879
revolut,0.000979
revolutionari,0.005034
rice,0.005966
rich,0.002268
right,0.003548
ring,0.001339
riot,0.004740
risk,0.001946
rival,0.001306
rivalri,0.001629
river,0.005406
road,0.006892
roast,0.002341
robbi,0.002535
robinson,0.001621
robiss,0.003291
rod,0.001709
rodney,0.001989
role,0.001385
room,0.001282
round,0.001252
royal,0.004173
rslaf,0.003291
rslmf,0.009873
rspb,0.002601
ruf,0.033828
rule,0.010828
rulebydecre,0.003186
run,0.005214
runnerup,0.002466
runoff,0.005410
runway,0.008271
rural,0.015347
rush,0.003454
rutil,0.005869
s,0.005048
sack,0.001645
saeedu,0.003291
safe,0.001293
safeti,0.002549
sahara,0.001835
sahr,0.009559
said,0.000812
saidu,0.012746
salon,0.006743
sam,0.001756
samsumana,0.003291
samuel,0.002811
sandi,0.009709
sankoh,0.027352
santo,0.001824
sanusi,0.003186
sarah,0.001900
sargent,0.004700
satellit,0.002759
satisfi,0.001173
sauc,0.004598
savannah,0.002185
saybana,0.003291
scarci,0.003186
scarciti,0.001652
schedul,0.002628
scheme,0.001190
scholar,0.001004
scholarship,0.001414
school,0.012873
schoolag,0.002584
schwartz,0.001969
scienc,0.000665
scotia,0.010257
scotian,0.008560
seargen,0.003291
seargent,0.009559
season,0.005112
seat,0.011703
second,0.006490
secondari,0.004504
secondhighest,0.002419
secondround,0.002934
secretari,0.001292
sect,0.001656
section,0.000979
sector,0.003110
secular,0.001368
secur,0.004201
sediti,0.002660
seeker,0.002067
seen,0.001551
seiz,0.004079
sekou,0.002758
select,0.000859
selfeffac,0.002731
seminari,0.002107
send,0.002473
senior,0.013108
sent,0.004384
sentenc,0.001352
separ,0.002167
septemb,0.006676
sergeant,0.002157
seri,0.000787
seriou,0.002215
serra,0.005013
serv,0.003148
servant,0.001524
servic,0.015410
set,0.001837
settl,0.004495
settlement,0.005770
settler,0.020834
seven,0.003113
seventeen,0.003715
seventeenth,0.001717
seventhday,0.002221
sever,0.009180
shape,0.000942
shaquil,0.003291
share,0.000770
sheik,0.002682
sheikh,0.005967
shekh,0.003291
sheku,0.003291
shelburn,0.002983
sherbro,0.015932
sheriff,0.002323
shia,0.001867
ship,0.002244
shock,0.001352
shortag,0.001436
shorter,0.001407
shortli,0.001230
shrimp,0.002047
shut,0.001652
siaka,0.025492
sieg,0.001639
sierra,0.691421
sign,0.000906
signific,0.006323
significantli,0.001015
sillah,0.003291
silling,0.003291
sim,0.004102
similar,0.000657
simpli,0.001796
sinc,0.008255
singl,0.000736
singleservic,0.003291
sintra,0.005869
sir,0.042239
sit,0.002909
site,0.002781
situat,0.004237
sixteen,0.005417
sizeabl,0.002059
skewer,0.002731
skill,0.001060
slacken,0.002601
slash,0.002102
slave,0.011705
slaveri,0.005801
slaverylik,0.003105
slb,0.012421
slbc,0.016455
slot,0.002131
slow,0.003408
slowli,0.001268
slp,0.002492
slpp,0.089496
small,0.008755
smaller,0.000935
smuggl,0.001787
snack,0.002466
soccer,0.002102
social,0.001400
socialist,0.001231
societi,0.004137
societybuild,0.003291
soil,0.001247
sold,0.008136
soldier,0.030056
solomom,0.003291
solomon,0.008450
sometim,0.000716
somewhat,0.001166
son,0.001053
soon,0.003027
sori,0.005707
sought,0.001072
sound,0.001158
soup,0.002185
sourc,0.005538
south,0.006895
southeast,0.005389
southeastern,0.003419
southern,0.004086
southwest,0.001544
sovereignti,0.001327
spanish,0.003570
spars,0.001659
speak,0.001055
speaker,0.002826
speci,0.002024
special,0.002065
specialis,0.001594
specif,0.000658
speech,0.002371
speed,0.001125
spend,0.001142
spiral,0.001684
spoken,0.008883
sport,0.003921
spread,0.000972
spring,0.001241
sq,0.006572
squad,0.004233
squar,0.002332
sr,0.001848
ssd,0.018343
st,0.000887
stabl,0.001083
stadium,0.004283
staff,0.003892
stagnat,0.001648
stake,0.001674
standard,0.002223
stapl,0.003485
star,0.006103
start,0.002786
state,0.012039
station,0.015631
statist,0.000902
statu,0.002757
steven,0.080436
stew,0.002341
stick,0.001655
stipul,0.001664
stock,0.001061
stori,0.003347
strasser,0.054219
street,0.005023
strengthen,0.001244
strife,0.001813
strip,0.001444
strong,0.006397
stronger,0.001325
structur,0.001286
struggl,0.003461
student,0.003747
stunt,0.002146
style,0.004536
subdivid,0.001508
subdu,0.001778
subject,0.002100
subsaharan,0.005172
subsequ,0.000858
subsist,0.003030
substanc,0.001157
substandard,0.002350
succeed,0.005626
success,0.005109
successor,0.001236
sudan,0.001694
suffer,0.003013
suma,0.002706
summari,0.001324
sunni,0.006949
superstar,0.002731
suppli,0.006280
support,0.012433
suppress,0.001260
suprem,0.005635
surfac,0.000996
surrend,0.003032
surround,0.003023
survey,0.003173
surviv,0.001898
suspect,0.001470
suspend,0.004104
suspicion,0.003538
susu,0.009559
suzann,0.002227
swamp,0.002009
swampi,0.002758
sweet,0.003429
sword,0.001803
sworn,0.010517
taboo,0.001982
taken,0.000805
talk,0.002368
tamatonkoli,0.003291
tamba,0.003039
taqi,0.002492
tarawali,0.006582
target,0.001024
tauri,0.002332
tax,0.008275
taylor,0.002769
teacher,0.002522
team,0.016091
tejan,0.024313
tejansi,0.003186
telecom,0.002013
telecommun,0.001434
televis,0.011165
tell,0.001239
teller,0.002051
temn,0.051666
temnemend,0.003291
temperatur,0.002225
temporarili,0.003034
tend,0.000903
tenni,0.002013
tens,0.001944
tension,0.001250
term,0.003120
terr,0.002431
terrestri,0.001498
territori,0.002890
teteh,0.003291
th,0.006311
themself,0.002819
themselv,0.000816
thepatrioticvanguardcom,0.003291
therefor,0.000748
thi,0.008645
thirdlargest,0.004325
thoma,0.002953
thought,0.001560
thousand,0.008735
threat,0.002308
threaten,0.001251
threeday,0.002234
thu,0.001286
tiafo,0.003291
tie,0.002147
timber,0.001648
time,0.006817
titanium,0.003939
tock,0.002983
today,0.001581
togeth,0.005312
toler,0.005570
tom,0.001509
toni,0.001705
tonkolili,0.006582
took,0.004299
toppl,0.009816
torgbonbu,0.003291
toronto,0.001709
total,0.002303
tour,0.001587
tourism,0.001280
tourist,0.002933
tournament,0.008143
town,0.015823
track,0.002435
trade,0.016720
trader,0.012194
tradit,0.011089
train,0.005702
transatlant,0.001947
transmit,0.001348
transport,0.003774
traumatis,0.002983
travel,0.002915
trc,0.002934
treat,0.000963
trelawni,0.002535
tri,0.003465
trial,0.005023
triangl,0.001627
tribal,0.004605
tribe,0.002709
trinitarian,0.002378
tristan,0.002315
troop,0.007453
tropic,0.004213
trust,0.004812
truth,0.001171
tsets,0.002601
turay,0.009559
turmoil,0.001716
tv,0.007609
twenti,0.002707
twentyfour,0.002190
twothird,0.001508
typic,0.000738
ucb,0.002299
uganda,0.001897
uk,0.003026
umar,0.002141
umarr,0.003291
umaru,0.003186
umu,0.002640
unabl,0.002287
unapprov,0.002682
unback,0.002640
undergon,0.003435
unemploy,0.001289
unexpect,0.003214
unfairli,0.002283
unhappi,0.001930
unicamer,0.005035
unicef,0.002276
unifi,0.001152
uniform,0.001276
unimak,0.003291
union,0.004089
uniosil,0.003291
uniqu,0.000938
unit,0.011658
univers,0.005700
unlimit,0.001647
unpaid,0.001894
unpav,0.002466
unpopular,0.005248
unprotect,0.004776
unrest,0.001526
unstabl,0.001468
unsustain,0.001822
upandcom,0.002660
uplink,0.003039
upper,0.001111
urban,0.006926
urbanis,0.004370
urg,0.001452
use,0.007645
useless,0.001803
usual,0.000662
ut,0.002179
vai,0.005707
valentin,0.006228
valici,0.003291
valley,0.001272
valor,0.004664
valu,0.000705
valuela,0.003291
vanguard,0.002009
vari,0.002434
varieti,0.000826
variou,0.002506
vast,0.006631
vastli,0.001720
veget,0.002627
vent,0.001939
verbal,0.001583
veri,0.009428
version,0.000962
vessel,0.001340
vest,0.002887
viabl,0.001514
vice,0.001274
vicechairman,0.002601
vicepresid,0.012448
victor,0.002962
victori,0.001274
victoria,0.001618
view,0.000705
villag,0.008804
violenc,0.006554
virtual,0.007619
viru,0.008385
visa,0.003579
vita,0.004442
voic,0.001311
voluntarili,0.001784
vote,0.009393
w,0.001847
wa,0.067693
wallacejohnson,0.006210
want,0.002032
war,0.031274
warfar,0.001395
warrior,0.003318
watch,0.001403
water,0.012735
waterloo,0.002168
waterway,0.001889
way,0.001765
weak,0.001093
weaker,0.001567
wealth,0.002266
weapon,0.001222
web,0.001193
weekli,0.003265
weld,0.002051
went,0.007066
wesleyanmethodist,0.003291
west,0.025517
western,0.012418
wharf,0.002442
whilst,0.002843
white,0.002089
wide,0.004253
widen,0.001713
wider,0.001253
widescal,0.002398
widespread,0.001057
wikimedia,0.001534
wikipedia,0.001769
wild,0.001412
wildlif,0.001568
win,0.004950
wind,0.001307
wine,0.001548
wing,0.002996
winner,0.001515
winter,0.001363
wit,0.001340
women,0.004189
won,0.011141
woobay,0.003291
work,0.001618
worker,0.002049
world,0.010044
worldwid,0.001116
write,0.000860
writer,0.001129
wuri,0.003186
x,0.000974
xlibri,0.002983
yahya,0.002276
yalunka,0.006373
yayah,0.009316
year,0.013331
yearold,0.001603
yearround,0.002190
yellow,0.003091
yengema,0.003291
york,0.001695
young,0.004087
younger,0.001367
youngest,0.001894
youngstar,0.003291
youth,0.011104
zambia,0.002013
zebu,0.002819
zone,0.001137
