aba,0.006849
ababa,0.020622
abandon,0.013827
abl,0.002337
abolish,0.003866
abridg,0.006305
absenc,0.010206
abu,0.005035
abuna,0.044124
abund,0.003752
abus,0.003980
abyssinia,0.006669
abyssiniaethiopia,0.009426
abyssinian,0.007457
accept,0.006970
access,0.002560
accord,0.012953
account,0.002179
accus,0.003711
achiev,0.002328
acquir,0.003014
action,0.002273
activ,0.012926
actual,0.002368
ad,0.004723
adal,0.007158
adam,0.003755
addi,0.019948
addit,0.005616
address,0.005573
adi,0.006180
administ,0.003627
administr,0.036225
adopt,0.005107
adua,0.009186
aduli,0.017362
adult,0.003622
advanc,0.004571
advantag,0.002872
advis,0.003740
afabet,0.009426
afar,0.014383
afewerki,0.034725
affair,0.009179
africa,0.033058
africain,0.006899
african,0.006487
afroasiat,0.014670
afroasiaticspeak,0.008339
age,0.002317
agordat,0.009426
agre,0.013950
agreement,0.031072
agricultur,0.005501
airlift,0.006755
akel,0.008824
akhria,0.009426
akin,0.004952
akkel,0.009426
aksum,0.087570
aksumit,0.051620
al,0.003174
algier,0.019548
ali,0.004587
alien,0.008673
alkhwarazmikharazmi,0.009186
alleg,0.003826
allegedli,0.004765
alli,0.013672
allow,0.001840
alreadi,0.002696
ambassador,0.013623
ambit,0.009653
amen,0.005211
amenhotep,0.007871
amenophi,0.009426
american,0.006290
amhar,0.007500
ammunit,0.017260
amnesti,0.005335
analysi,0.002230
anatom,0.014808
ancient,0.026812
annan,0.006979
annex,0.012630
anniversari,0.004907
anoth,0.001779
anticip,0.004115
antiqu,0.003829
appar,0.003159
appoint,0.003042
approxim,0.005043
april,0.011324
arab,0.020508
arabia,0.004526
arabian,0.010289
arbi,0.009426
arbitr,0.005244
archaeolog,0.007924
archaic,0.005306
architectur,0.003490
ardor,0.008554
area,0.034922
argu,0.002461
ark,0.006220
arm,0.020655
armah,0.009186
armi,0.044563
armistic,0.005904
arnaldo,0.007414
arrang,0.006034
arriv,0.011916
art,0.002831
artefact,0.005914
asaita,0.009426
ascari,0.017362
ascens,0.005884
ask,0.009177
asmara,0.230982
asmaramassawa,0.009426
aspir,0.004652
assab,0.008339
assassin,0.004379
asseb,0.008824
assembl,0.031778
assert,0.003179
assign,0.003324
assist,0.008277
associ,0.005423
assur,0.008432
asylum,0.016079
atsbi,0.009186
attempt,0.008443
attend,0.010593
attorneygener,0.006925
audienc,0.004177
augur,0.007546
aussa,0.052949
author,0.008334
autocrat,0.006092
autonomi,0.003866
avail,0.002262
averag,0.005528
award,0.006525
awat,0.009426
axum,0.036305
axuma,0.009426
axumit,0.016011
baboon,0.036871
background,0.003178
badm,0.026971
bahr,0.031240
bahri,0.025017
ban,0.003728
banda,0.007126
bank,0.002676
baratieri,0.009426
barka,0.008990
base,0.001612
bashai,0.009426
basin,0.004397
battl,0.006989
bay,0.008358
bbc,0.004210
bc,0.026410
becam,0.006119
becaus,0.001679
bechausgerst,0.009426
becom,0.007145
befor,0.009528
began,0.011140
begin,0.006527
begun,0.003547
behalf,0.004115
behren,0.008554
believ,0.013847
belong,0.003152
benito,0.006262
bent,0.005668
berber,0.005978
bereket,0.009426
beretekeab,0.009426
berhanu,0.008990
besid,0.003817
better,0.005032
big,0.006757
bin,0.005144
bind,0.007706
birth,0.003287
bloc,0.013432
blossom,0.005835
bma,0.016011
bodi,0.008956
bogo,0.009186
bondevik,0.008554
book,0.002120
border,0.075602
boundari,0.009345
branch,0.002373
break,0.003075
briefli,0.004139
britain,0.003143
british,0.047338
broker,0.004899
bronz,0.004491
brought,0.013753
buffer,0.005233
build,0.011806
built,0.011127
bulk,0.003955
bullet,0.005517
buri,0.004412
burn,0.003825
bush,0.004602
busi,0.002515
button,0.005935
buya,0.009426
c,0.004271
cableway,0.009426
cadr,0.006056
cairo,0.005605
california,0.003423
calm,0.010499
came,0.009773
campaign,0.003354
canadian,0.003793
canal,0.004432
capit,0.019444
captur,0.006137
car,0.007898
care,0.002807
caretak,0.006068
cargo,0.004986
carlo,0.004252
cathedr,0.005294
cathol,0.003608
catholic,0.005008
cede,0.004783
celebr,0.007703
cemeteri,0.010965
censorship,0.005448
censu,0.004382
center,0.007151
central,0.008379
centuri,0.024948
ceram,0.005255
cession,0.006690
cgroup,0.018852
chair,0.004197
chang,0.001684
chao,0.004324
charact,0.003088
character,0.002834
charg,0.002884
cheapli,0.006092
chief,0.003112
china,0.002871
choic,0.002936
chose,0.004203
chosen,0.003415
christian,0.023170
christianmuslim,0.009186
church,0.010130
cinema,0.005017
circumst,0.003433
cite,0.003125
citi,0.023229
citizen,0.009175
civil,0.005127
claim,0.006806
clam,0.006690
clan,0.004899
clandestin,0.005967
clear,0.002781
clearli,0.003360
close,0.003999
coal,0.004358
coast,0.010233
coastal,0.004074
coin,0.009285
coinag,0.005300
collaps,0.003292
colon,0.003965
coloni,0.043267
colonia,0.008005
colonis,0.010125
column,0.004246
combat,0.007846
combin,0.002131
come,0.002137
commerc,0.003724
commiss,0.023805
commission,0.004596
commit,0.003132
committe,0.012826
commod,0.003627
commun,0.007817
communist,0.007373
compani,0.002360
compar,0.002210
compens,0.003777
complet,0.008257
complex,0.002187
compos,0.005671
concern,0.004197
concurr,0.004608
condemn,0.004210
condit,0.002091
conduct,0.005123
confer,0.008827
confidenti,0.005575
conflict,0.019487
confront,0.008258
conjunct,0.004177
connect,0.004922
conquer,0.012141
conquest,0.008055
consid,0.006972
consider,0.007536
consist,0.004001
constitut,0.007080
construct,0.002314
contain,0.004288
contemporan,0.005567
contemporari,0.002923
contend,0.008617
contest,0.003932
conti,0.015742
continu,0.021733
contrast,0.002525
control,0.013901
convinc,0.003979
convoy,0.005925
cook,0.004214
cool,0.004187
cooper,0.002856
coopt,0.006590
coordin,0.003168
copt,0.008005
council,0.005451
countri,0.019671
coup,0.004070
court,0.002835
coven,0.005503
creat,0.003656
critic,0.002198
cubist,0.007810
cultiv,0.003817
cultur,0.013485
curfew,0.014071
currenc,0.003275
current,0.001913
curti,0.005925
cush,0.007225
cushit,0.008005
cut,0.003173
d,0.002419
damag,0.006451
danakil,0.009426
danger,0.003511
dare,0.005798
data,0.002385
date,0.017488
daughtercoloni,0.009426
day,0.009022
deadlin,0.006092
death,0.005236
debarwa,0.009426
debat,0.002782
decemb,0.008229
decid,0.002913
decis,0.002520
declar,0.011548
declin,0.014190
deco,0.008080
dedic,0.003590
defeat,0.014146
defenc,0.003638
defens,0.006561
degre,0.002447
deleg,0.004220
demand,0.005337
demarc,0.010444
demilitar,0.013698
demis,0.005283
democraci,0.013318
democrat,0.005857
demonstr,0.002686
deni,0.006930
depart,0.002620
depict,0.003728
deploy,0.004045
depress,0.003713
dera,0.008554
deres,0.009426
derg,0.023809
derho,0.009426
deriv,0.002272
describ,0.001839
deserv,0.005294
desir,0.005626
despit,0.005069
destroy,0.003125
determin,0.006227
develop,0.011959
dhuraydan,0.008824
di,0.009304
dictatorship,0.004830
did,0.002218
didnt,0.004911
die,0.005728
difficult,0.002607
difficulti,0.003228
dig,0.005575
dignitari,0.006874
din,0.006712
diplomat,0.007102
disappear,0.003800
discov,0.010529
discuss,0.002439
dismantl,0.010477
dismay,0.006649
dismiss,0.003982
disord,0.003853
dispatch,0.005119
dispers,0.004102
displac,0.003835
disput,0.033073
disrupt,0.003851
dissid,0.010647
dissolut,0.004504
dissolv,0.003712
distinct,0.002302
distort,0.004220
district,0.007231
divid,0.007111
djibouti,0.031908
djiboutian,0.015742
dmt,0.032023
doe,0.002022
dole,0.007007
domain,0.005838
domest,0.003097
domin,0.009839
doumeira,0.008824
dr,0.007417
draft,0.003857
draw,0.003064
drive,0.006423
duce,0.008824
dull,0.005999
dure,0.030972
dutch,0.003671
duti,0.003557
dynasti,0.007773
earli,0.014399
earlier,0.002659
earliest,0.009024
east,0.011067
eastern,0.005974
eclect,0.005798
econom,0.003938
economi,0.002457
economicsissn,0.009426
edaga,0.018852
edg,0.003926
eebc,0.009426
effect,0.005244
effort,0.002492
egypt,0.011401
egyptian,0.028393
elder,0.004422
elect,0.005308
elf,0.065349
elm,0.028142
emba,0.008681
embrac,0.004059
emerg,0.002306
emperor,0.055566
empir,0.012555
employ,0.002387
employe,0.003770
enabl,0.002854
encompass,0.003369
encourag,0.002957
end,0.019676
endubi,0.008824
engag,0.002849
enlarg,0.004596
enlist,0.005636
ensu,0.008799
enter,0.002630
enthron,0.007095
entir,0.007002
envoy,0.005347
eplf,0.147585
equal,0.002450
era,0.002843
erect,0.004880
erectu,0.012701
eritrea,0.618926
eritreaethiopia,0.017981
eritrean,0.415201
eritreanethiopian,0.008245
erythra,0.009186
erythraean,0.023809
erythraia,0.009426
erythran,0.009426
erythro,0.009426
escap,0.003613
espous,0.005110
establish,0.034570
estim,0.007597
ethiopia,0.274915
ethiopiaeritrea,0.008990
ethiopian,0.175735
european,0.002241
evenli,0.005372
eventu,0.005115
everi,0.002251
evid,0.009816
evolut,0.005843
examin,0.002816
excav,0.009675
exchang,0.005087
execut,0.002726
exil,0.012330
exist,0.008947
expand,0.010183
expans,0.006073
expansionist,0.006290
expect,0.002472
expedit,0.004070
experienc,0.006461
expert,0.010664
exploit,0.003350
export,0.003301
expos,0.003604
express,0.002331
extend,0.007121
extens,0.004860
extern,0.001407
extrem,0.005163
extremist,0.006068
eyalet,0.007644
ezana,0.023614
face,0.008103
facilit,0.006488
fact,0.004569
factori,0.007875
fail,0.002705
fall,0.007369
famili,0.007475
fascist,0.005335
fate,0.009087
favor,0.005944
februari,0.017543
feder,0.020057
federalis,0.008554
feet,0.004394
femal,0.007226
ferdinando,0.006951
fertil,0.003772
fiat,0.005925
fight,0.010130
fighter,0.004887
figur,0.005330
final,0.009310
financ,0.005703
financi,0.005138
fl,0.005468
flag,0.008594
flash,0.005053
fled,0.004355
flee,0.013844
floruit,0.008554
flourish,0.003960
flower,0.004370
fold,0.004587
follow,0.012315
foot,0.004181
forc,0.017359
foreign,0.002505
form,0.010296
formal,0.009632
forward,0.003416
foster,0.004113
fought,0.004081
foundat,0.002509
fourmemb,0.008824
fragment,0.003784
franklin,0.004402
free,0.002198
freedom,0.015189
freemarket,0.005668
french,0.002589
frequent,0.002705
friday,0.005567
fring,0.005149
fruit,0.003813
frustrat,0.004936
fuel,0.014264
funer,0.010532
furthermor,0.003297
futur,0.002343
futurist,0.005956
gadarat,0.009186
gain,0.002341
garrison,0.004876
gash,0.024479
gather,0.003354
gave,0.002800
gaza,0.006262
gdr,0.007457
gdrt,0.018373
gedara,0.009186
gedur,0.009186
geez,0.016491
gener,0.005531
genet,0.003268
genit,0.006068
genorest,0.009426
geza,0.009186
gift,0.004343
girma,0.008824
given,0.003860
glare,0.007007
goal,0.002646
gold,0.003346
govern,0.043919
governor,0.010596
grand,0.003737
granit,0.005988
graveyard,0.006849
great,0.002168
greater,0.002423
greek,0.005450
grenad,0.006925
grew,0.003215
group,0.010415
grow,0.004935
guarante,0.007059
guerrilla,0.004891
guzai,0.009426
guzay,0.009426
gwb,0.009186
ha,0.010265
haaretz,0.008005
habash,0.008339
habashat,0.008681
habashit,0.009186
habesh,0.008990
habl,0.008824
habshat,0.009186
habt,0.009426
hadish,0.009426
hagu,0.005956
hail,0.041359
hair,0.004581
half,0.002648
hamasien,0.018852
hamassein,0.009426
hamid,0.006629
hamu,0.009426
hand,0.002384
hanish,0.008339
happen,0.003041
haql,0.009186
harar,0.014595
hard,0.003158
harm,0.003710
harper,0.004957
harsh,0.004578
harshest,0.007546
harvest,0.004266
hatshepsut,0.008005
head,0.007452
headquart,0.004263
headway,0.006899
health,0.002682
hegemoni,0.010402
held,0.011376
henceforth,0.006167
heritag,0.003936
hi,0.017254
hide,0.004555
highland,0.041822
highlevel,0.005081
hijra,0.007225
himyar,0.007936
himyarit,0.007751
hinterland,0.006068
histori,0.009617
historian,0.006485
hiv,0.005590
hold,0.002317
home,0.005495
homeland,0.009956
hominid,0.018502
homo,0.015133
hope,0.003276
horn,0.019520
hostil,0.003991
hour,0.003381
hous,0.002581
household,0.003828
howev,0.010932
huge,0.007157
human,0.012978
huntingford,0.009186
hypothet,0.004327
ibrahim,0.005644
ident,0.002755
identif,0.003790
identifi,0.006978
ideolog,0.003635
idri,0.006951
ignit,0.005605
ignor,0.003337
ii,0.030222
il,0.005365
illeg,0.003877
imam,0.011870
immedi,0.011315
impact,0.002637
imperi,0.033739
impero,0.008990
implement,0.005358
impli,0.002991
import,0.003282
impos,0.006618
impress,0.003928
incid,0.003807
includ,0.017366
incorpor,0.002642
increas,0.005551
independ,0.047436
indic,0.004734
industri,0.015375
infect,0.004367
infiltr,0.005442
influenti,0.003095
inform,0.003826
infrastructur,0.006516
inhabit,0.006690
initi,0.006272
injur,0.009760
inland,0.004617
innov,0.003333
inquiri,0.003838
inscript,0.020783
instabl,0.004160
instead,0.002253
insurg,0.004982
intellectu,0.003301
intend,0.005958
intensifi,0.004717
intent,0.003238
interglaci,0.007414
intern,0.006745
interpret,0.002567
interven,0.004135
intim,0.004815
intimid,0.005510
introduc,0.002257
introduct,0.002551
invest,0.005479
involv,0.003731
iraq,0.004306
iron,0.006893
irrig,0.004864
isaia,0.025017
isbn,0.004549
islam,0.003203
island,0.002852
isotop,0.013984
isra,0.005086
israel,0.003940
issu,0.010324
itali,0.034631
italian,0.202206
italiana,0.006381
italoabyssinian,0.007936
italoeritrean,0.009426
italoturkish,0.008441
itiyopi,0.009426
iv,0.008354
ivan,0.005175
ivori,0.005227
jafar,0.006899
januari,0.002746
jarma,0.009186
jasa,0.008339
jerusalem,0.005144
john,0.004377
join,0.005724
journey,0.004472
judg,0.003553
judici,0.003694
juli,0.016677
junctur,0.006825
june,0.005607
junta,0.005403
just,0.004487
justic,0.009756
kedafu,0.009186
kenya,0.005353
keren,0.017649
kerma,0.016160
ki,0.006397
kill,0.019060
kilometr,0.004461
kind,0.002563
king,0.027584
kingdom,0.053752
kjell,0.007457
known,0.016078
kobishchanov,0.018373
kofi,0.006979
kolo,0.008824
korea,0.007767
kush,0.013903
label,0.003462
labor,0.006318
lack,0.002453
ladi,0.005124
laison,0.009426
land,0.017045
landown,0.005095
lane,0.004919
languag,0.007254
larg,0.005086
largest,0.002657
late,0.004455
later,0.024874
latin,0.003023
launch,0.009720
law,0.001938
lead,0.001919
leader,0.014066
leadership,0.006981
leagu,0.007895
leav,0.008173
led,0.014535
leftist,0.004957
legal,0.005309
legisl,0.005891
length,0.003192
letter,0.006351
liber,0.017404
libya,0.005076
lie,0.003152
life,0.002068
lifetim,0.004119
lift,0.004295
like,0.010310
likelihood,0.004461
limit,0.003929
line,0.011512
linguist,0.007564
link,0.006994
list,0.003577
litter,0.006207
littl,0.002462
littor,0.006778
litvinov,0.009426
live,0.008320
local,0.006536
locat,0.009461
london,0.002708
long,0.004177
longest,0.004611
longneck,0.008990
look,0.002656
loos,0.003999
loot,0.010897
lot,0.003962
lower,0.002377
lowland,0.028105
m,0.002300
magn,0.007546
mahdist,0.008159
mai,0.006712
maikel,0.009426
main,0.014256
mainli,0.010682
maintain,0.004486
maiski,0.009426
major,0.013653
make,0.008179
manag,0.004608
mandat,0.004008
mandatori,0.004944
mani,0.018902
mansion,0.006350
march,0.002667
marco,0.005582
mariam,0.008080
mariann,0.006629
marin,0.003682
maritim,0.008282
mark,0.002582
market,0.002408
martial,0.005180
martini,0.007261
marxist,0.008735
massacr,0.004690
massawa,0.047619
massiv,0.010269
masswa,0.009426
matara,0.008245
match,0.003421
materi,0.004508
matter,0.002419
matthew,0.004664
mauri,0.006480
maxim,0.003658
mazab,0.009426
meager,0.007035
mean,0.001771
meanwhil,0.003890
measur,0.002107
meat,0.004464
mecca,0.005945
media,0.002950
mediev,0.003431
medri,0.027559
meet,0.002602
meglio,0.017981
member,0.012315
men,0.002983
menelek,0.009186
menelik,0.032320
mengistu,0.057118
mention,0.015572
merchant,0.003820
mereb,0.018852
merg,0.003874
mero,0.007594
met,0.003289
michael,0.002960
michela,0.008441
microphon,0.006649
midfirst,0.007696
midmay,0.007810
milit,0.005026
militari,0.023421
millennium,0.004015
millet,0.006193
million,0.002526
mint,0.015798
mission,0.019245
modern,0.009647
modernday,0.004578
modestli,0.006590
molotov,0.007594
monarch,0.004248
monday,0.005935
monetari,0.003448
money,0.002874
month,0.011368
monthslong,0.008681
moon,0.004189
moral,0.003218
moslem,0.008441
mosqu,0.005448
movement,0.013309
mudaito,0.018373
mufti,0.041552
muham,0.006899
muhammad,0.009241
mukhtar,0.008339
multiethn,0.006248
multipl,0.002474
mummi,0.013339
mummifi,0.007191
munrohay,0.018373
museum,0.007758
muslim,0.053965
mussolini,0.006262
mutil,0.006430
n,0.002888
nagashi,0.009186
narrow,0.003632
nation,0.021390
nd,0.002993
near,0.007935
nearli,0.002801
necessari,0.002563
negash,0.028279
negu,0.008554
neoclass,0.004868
neolith,0.004793
neoromanesqu,0.009426
nessredin,0.009426
network,0.002689
new,0.017243
newspap,0.003982
ngo,0.005288
nicknam,0.005105
nile,0.015619
noneplf,0.009426
normal,0.002564
north,0.007662
northeastern,0.004969
northern,0.021051
note,0.005564
novemb,0.002885
number,0.006437
oath,0.010978
object,0.002199
observ,0.002123
obsidian,0.006712
obtain,0.002500
occup,0.003352
occupi,0.012900
offens,0.004482
offer,0.002392
offic,0.012946
offici,0.004884
oil,0.003210
old,0.007985
oldest,0.006959
ona,0.032983
onli,0.004442
open,0.004404
oper,0.004058
opera,0.005531
opinion,0.003419
oppon,0.003996
opportun,0.003038
opposit,0.002646
oppress,0.004744
option,0.003356
order,0.001772
organ,0.003509
organis,0.003045
oriental,0.007095
origin,0.003565
orthodox,0.004331
ottoman,0.013649
oust,0.010052
outbreak,0.004377
outcom,0.003288
outlet,0.005139
outlin,0.003131
outrag,0.005538
outset,0.005685
oversaw,0.005553
overse,0.004797
overwhelmingli,0.005217
oxygen,0.007833
oyster,0.006571
pack,0.004694
palac,0.009199
paleolith,0.005323
parcel,0.005817
pari,0.003517
parliament,0.003244
parti,0.022374
particularli,0.004512
pass,0.002499
past,0.002552
pasta,0.006951
pastor,0.010163
patrol,0.005175
peac,0.018614
peacekeep,0.039103
peasant,0.004485
peasantri,0.006022
peninsula,0.004279
pension,0.004469
peopl,0.028377
percent,0.003230
perenni,0.005517
period,0.011468
periplu,0.023255
perman,0.009352
perpetr,0.005644
persecut,0.004636
persia,0.004790
persian,0.008083
person,0.002104
peter,0.005866
pfdj,0.008824
pge,0.016011
pharaoh,0.011789
pharaon,0.007297
place,0.012734
plan,0.002436
plantat,0.009229
plateau,0.010455
play,0.006967
player,0.004210
plea,0.005988
plow,0.006320
plummet,0.005864
pm,0.004872
point,0.007464
pois,0.006366
polic,0.025044
polici,0.007141
polit,0.016152
politi,0.019896
poll,0.004477
poorli,0.004259
popul,0.025177
populac,0.005091
port,0.018175
portrait,0.005217
posit,0.007626
possess,0.008672
possibl,0.001881
postwar,0.004375
pot,0.005644
power,0.005663
pp,0.006014
practic,0.001973
praxi,0.006590
preaksumit,0.028279
prechristian,0.006669
precondit,0.005736
predomin,0.004208
predominant,0.009186
predominantli,0.004095
prefer,0.002824
prehistori,0.004633
presenc,0.002789
present,0.001844
presentday,0.008286
preserv,0.003109
presid,0.008003
press,0.002171
pressur,0.005553
prevent,0.007911
previous,0.002812
primogenita,0.009426
prioriti,0.003890
problem,0.001972
process,0.008719
proclaim,0.004173
produc,0.001919
profound,0.004208
progress,0.002514
proindepend,0.006712
project,0.006847
promin,0.005785
prompt,0.004038
properti,0.006700
propos,0.015931
protector,0.004564
protoaksumit,0.008554
provid,0.004910
provinc,0.010230
provis,0.007185
provision,0.009348
public,0.005573
publish,0.004094
pull,0.004233
punish,0.004058
punt,0.043566
puntit,0.008681
purport,0.005217
purpos,0.004798
qohaito,0.009426
queen,0.007743
question,0.004633
quit,0.003117
r,0.009873
ra,0.005306
radic,0.003381
radio,0.003776
raheita,0.008990
railway,0.013096
rank,0.003114
rape,0.005475
ratifi,0.009401
ration,0.003179
rd,0.006606
reach,0.004755
read,0.004063
realm,0.003695
reason,0.002099
rebel,0.004250
rebellion,0.004177
receiv,0.004470
recent,0.004051
recogn,0.007525
recognit,0.003206
reconcili,0.004895
reconqu,0.006104
record,0.002465
red,0.025941
reduc,0.002216
refer,0.002339
referendum,0.024369
reflect,0.002514
refuge,0.008759
refus,0.006828
regain,0.004493
regard,0.004489
regim,0.010227
region,0.018854
regularli,0.003982
reign,0.008090
reject,0.008652
relat,0.011041
relationship,0.002233
religi,0.017930
remain,0.011609
remaind,0.004341
remark,0.003588
remov,0.002701
renam,0.004061
renew,0.006842
renounc,0.005255
reorgan,0.009783
report,0.008994
repres,0.009595
request,0.003555
research,0.005693
resid,0.006198
resign,0.007995
resist,0.003031
resolut,0.010736
resolv,0.003398
resourc,0.002368
respect,0.002224
respons,0.002029
rest,0.005481
restor,0.003308
restrict,0.005422
result,0.004888
resum,0.004474
retain,0.006153
retreat,0.013555
return,0.002367
reunit,0.005429
rever,0.005222
review,0.002621
reward,0.004047
right,0.012596
riot,0.018697
rise,0.004708
rival,0.007730
river,0.003198
role,0.006148
roman,0.006276
rome,0.003994
roosevelt,0.005227
rosari,0.007751
rossini,0.017362
roughli,0.006563
rout,0.003522
royal,0.003086
rubattino,0.009426
rule,0.017084
ruler,0.003908
rumbl,0.007191
run,0.002570
rural,0.007566
s,0.006637
saati,0.009426
saba,0.006413
saeed,0.007500
sahama,0.018373
sahur,0.008441
said,0.002403
salhen,0.009186
sapien,0.005575
saturday,0.005845
saw,0.002862
say,0.005069
scarc,0.004480
scepter,0.008005
scheme,0.003521
schmidt,0.005710
scholar,0.011884
scientist,0.008025
score,0.004288
scrambl,0.005835
sea,0.035820
seasriv,0.009426
secess,0.005660
second,0.001920
secondlargest,0.005582
secret,0.003609
secretarygener,0.011977
sectarian,0.006056
section,0.002898
sector,0.006134
secur,0.009942
seiz,0.004022
selassi,0.059318
selfdetermin,0.010521
sellasi,0.009186
sembel,0.009426
sens,0.002407
septemb,0.014106
sera,0.014317
serfdom,0.006167
sergew,0.009186
seri,0.002330
seriou,0.003277
serv,0.011644
servic,0.004558
session,0.004450
set,0.001812
settl,0.003325
settlement,0.003414
settler,0.004402
sever,0.010184
sex,0.004050
shara,0.008554
shawl,0.008441
sheba,0.007594
sheikh,0.005884
sherd,0.009186
shewa,0.008339
shi,0.005582
shifta,0.044124
ship,0.009958
shire,0.006733
sign,0.010723
signific,0.002078
significantli,0.003002
similar,0.001944
similarli,0.006169
sinc,0.001628
site,0.008227
situ,0.005780
skelet,0.005701
small,0.001992
smaller,0.002768
social,0.002071
sold,0.003438
soldier,0.011114
somalia,0.027914
somaliland,0.012701
son,0.003117
sophist,0.003746
sought,0.009515
south,0.002549
southern,0.012087
southward,0.005448
sovereignti,0.011779
soviet,0.028213
spark,0.004308
speaker,0.004181
special,0.002036
specimen,0.010098
specul,0.003387
spend,0.003379
split,0.003346
spoke,0.008987
sponsor,0.004081
sporad,0.005195
spread,0.002878
spring,0.003672
spur,0.004572
st,0.005249
stage,0.002843
stalem,0.005835
stand,0.006119
start,0.008244
state,0.031342
staterun,0.012209
station,0.014228
statu,0.008157
stela,0.006801
stone,0.007272
stop,0.003216
stoppag,0.007335
strateg,0.003553
strategi,0.003033
street,0.007430
stress,0.003338
strictli,0.003839
strong,0.004731
strongli,0.003138
strongman,0.007225
structur,0.005707
struggl,0.013652
stuart,0.004515
student,0.005542
studi,0.003441
subk,0.008554
subordin,0.004493
subsequ,0.007622
substanti,0.003022
succeed,0.003328
successor,0.003657
sudan,0.025065
sudanes,0.006571
suez,0.005660
suffer,0.002971
suggest,0.006838
sultan,0.028916
superior,0.003624
suppli,0.007963
support,0.027102
surrend,0.004485
surround,0.002981
sustain,0.003184
syria,0.004786
t,0.002832
tactic,0.004329
tagliero,0.009426
taken,0.002384
talk,0.017518
target,0.006063
task,0.006040
taxat,0.004003
team,0.006800
teka,0.009426
telephon,0.004450
temehu,0.009426
templ,0.004304
temporari,0.003839
tenet,0.004793
tens,0.011507
tension,0.003698
tenuou,0.006207
term,0.003077
termin,0.011444
territori,0.022798
terror,0.004334
terrorist,0.009856
th,0.018669
thebe,0.006849
therefor,0.002213
therewer,0.009426
thi,0.028010
thing,0.002590
thousand,0.005742
threat,0.003415
throne,0.004593
throw,0.004999
thursday,0.006116
tigrinya,0.026971
time,0.012965
tingrinya,0.009426
titl,0.005845
tobacco,0.004587
today,0.004678
togeth,0.002245
told,0.008258
tomb,0.005185
took,0.010174
tool,0.007821
topic,0.002583
town,0.010030
trace,0.003122
trade,0.007065
tradit,0.002050
train,0.002811
transit,0.005669
translat,0.005606
transport,0.005582
treat,0.002851
treati,0.013600
trench,0.005496
tribun,0.005058
trick,0.005442
troop,0.033075
truste,0.005753
trusteeship,0.006446
turk,0.005144
turn,0.004501
twentiethcenturi,0.005628
uccial,0.009426
umar,0.006335
unassoci,0.008441
unc,0.021107
uncertain,0.004304
unclear,0.004277
undercut,0.006262
unilater,0.005105
union,0.012097
unionist,0.024089
unit,0.027918
univers,0.005059
unme,0.015093
unmonitor,0.008339
unrest,0.004515
unsuccess,0.004187
uppsala,0.026438
urban,0.010245
urheimat,0.008441
use,0.011973
v,0.002903
vacuum,0.004248
vagu,0.004815
valley,0.015061
valu,0.002086
versa,0.004620
vice,0.007539
victim,0.004375
victori,0.011312
view,0.004173
villa,0.005668
vincenzo,0.007065
violat,0.003602
violenc,0.019388
virtual,0.003219
visit,0.006542
visvi,0.006733
vol,0.003499
vote,0.003087
vyacheslav,0.007457
wa,0.124155
wage,0.010733
wand,0.007594
want,0.003006
war,0.046258
warn,0.007830
washington,0.003584
way,0.005222
weapon,0.003615
wednesday,0.006350
went,0.011945
west,0.002795
western,0.009796
wherebi,0.003678
wide,0.002097
wise,0.010172
wish,0.003600
withdraw,0.019567
women,0.003098
word,0.002260
work,0.004788
world,0.024760
worldwid,0.003303
wouldb,0.006571
wound,0.004466
written,0.002577
wrong,0.003829
wrote,0.008322
wuchal,0.027559
yaqob,0.008824
year,0.014788
yeha,0.008990
yemen,0.017156
yield,0.003180
yohann,0.026044
youngster,0.007374
youth,0.004106
yuri,0.005807
za,0.006849
zara,0.007457
zelalem,0.009426
zimbabw,0.005323
zone,0.010095
zoskal,0.027559
zula,0.009426
