activ,0.009358
adrien,0.075157
ae,0.032031
africa,0.060924
african,0.049315
age,0.011745
agenda,0.021848
agre,0.014140
alleg,0.038786
allianc,0.017540
allow,0.009326
amouss,0.087995
appoint,0.015417
april,0.014348
area,0.018630
articl,0.022293
assembl,0.117131
august,0.014252
background,0.016107
ballot,0.026253
bank,0.013563
bar,0.021200
becam,0.020674
becaus,0.008513
becom,0.018105
befor,0.009658
begin,0.011027
benin,0.521836
boni,0.030876
boycott,0.027855
brought,0.027880
bruno,0.027194
built,0.014098
candid,0.034892
capit,0.012318
cathol,0.018287
chang,0.017078
cia,0.022504
citi,0.026161
close,0.010135
coalit,0.036709
coastal,0.020649
coloni,0.078315
commiss,0.015080
commun,0.019810
complet,0.010462
confer,0.014911
consid,0.008834
consider,0.012730
constitut,0.023922
construct,0.011731
contend,0.021836
contest,0.019931
conven,0.026124
coton,0.147935
council,0.041440
countri,0.019938
coup,0.061892
cowri,0.036117
dahomey,0.366207
dahomeyrepubl,0.046557
day,0.011431
decad,0.013770
decemb,0.027804
declar,0.014632
democrat,0.044531
depart,0.013282
depos,0.024913
determin,0.010520
develop,0.007576
dictatorship,0.024481
did,0.011245
differ,0.008031
director,0.018215
disrupt,0.019521
district,0.018324
divid,0.012012
domain,0.029591
du,0.085647
dubiou,0.029203
dure,0.008720
econom,0.009981
ecowa,0.032107
effect,0.008860
elect,0.201783
elector,0.039133
emerg,0.011689
encourag,0.014990
era,0.014410
etoil,0.043997
exist,0.009069
expand,0.012901
expresid,0.036983
extern,0.007131
extrem,0.013083
facil,0.017482
factbook,0.022857
fair,0.036945
fcbe,0.046557
februari,0.014818
field,0.009960
follow,0.007801
forc,0.019550
form,0.014909
formerli,0.018269
franc,0.041886
fraud,0.022465
free,0.022280
french,0.118127
friendli,0.022465
fulli,0.014703
gain,0.011865
gener,0.007008
govern,0.037097
greatli,0.015971
group,0.008797
ha,0.006503
half,0.013424
head,0.050362
held,0.069185
hi,0.008744
histori,0.016246
houngbdji,0.043997
houngbedji,0.093115
howev,0.007915
httpswwwciagovlibrarypublicationstheworldfactbookindexhtml,0.030242
httpwwwstategovrpaeibgnindexhtm,0.031882
import,0.008318
inaugur,0.022531
includ,0.006770
incorpor,0.026785
incumb,0.026149
independ,0.040068
influenc,0.010742
institut,0.010320
intern,0.008546
introduc,0.011440
irregular,0.068447
join,0.014506
juli,0.014086
kingdom,0.012972
krkou,0.346851
la,0.016276
lack,0.012433
larg,0.017186
largest,0.013467
led,0.031570
left,0.012997
legisl,0.059713
limit,0.009957
link,0.014179
list,0.027198
loss,0.014260
main,0.010321
major,0.025949
mani,0.007369
mar,0.022310
march,0.067600
marxismlenin,0.034127
marxistleninist,0.030134
match,0.017338
materi,0.022850
mathieu,0.103413
mayor,0.024732
mayoralti,0.041789
militari,0.039567
minist,0.058840
mission,0.016256
multiparti,0.020918
multipl,0.037619
municip,0.019866
nation,0.081306
new,0.021847
nicephor,0.086712
nicphor,0.042782
north,0.012944
note,0.018799
number,0.008156
observ,0.010760
offici,0.012377
oppon,0.020252
opposit,0.040244
origin,0.009035
overal,0.014921
oversea,0.019445
parliament,0.016442
parti,0.125991
pave,0.023058
peopl,0.017977
place,0.009220
plural,0.020967
pluralist,0.027926
point,0.009457
polit,0.040929
poll,0.045384
port,0.018422
portonovo,0.044725
posit,0.009662
postcoloni,0.028106
postpon,0.026549
power,0.028701
practic,0.010002
prd,0.035959
presid,0.094640
presidenti,0.114708
primari,0.012340
prime,0.030041
princip,0.014604
principl,0.011222
prior,0.014120
proceed,0.017108
process,0.008838
profess,0.019536
provid,0.008294
prpb,0.043997
public,0.018830
railroad,0.024062
rb,0.031322
rbthe,0.046557
refer,0.005929
regim,0.017277
remain,0.009805
renaiss,0.039210
renew,0.017338
repeat,0.017113
represent,0.014957
republ,0.069578
result,0.016518
retir,0.020174
return,0.011999
revolutionari,0.018869
roman,0.015904
round,0.056347
rpubliqu,0.067399
ruler,0.019810
rulersorg,0.037373
run,0.026059
runoff,0.027040
s,0.008409
schedul,0.019706
school,0.012063
seat,0.052637
second,0.019462
secur,0.012597
select,0.012892
selfgovern,0.023513
signific,0.021067
sinc,0.016502
singl,0.022086
smooth,0.021883
soglo,0.263987
speaker,0.021190
stand,0.015507
state,0.057760
strict,0.019174
success,0.043771
support,0.019622
term,0.015594
territori,0.014443
th,0.009461
thi,0.024688
thu,0.009646
timelin,0.019423
togeth,0.011378
took,0.012890
toprank,0.037578
transit,0.014365
transpar,0.021118
tribe,0.020313
ultim,0.028544
unit,0.016645
unstabl,0.022014
variou,0.028181
vehicl,0.018736
victor,0.022210
vote,0.031296
wa,0.108253
way,0.008823
websit,0.031206
west,0.070844
withdrew,0.023190
won,0.050112
world,0.008365
yayi,0.131993
