abil,0.003665
abl,0.003365
abolish,0.016702
abolit,0.006998
absolut,0.004519
absorb,0.005326
accept,0.010035
access,0.003686
accord,0.018649
account,0.009414
achiev,0.016759
acknowledg,0.005137
acquiesc,0.009573
activ,0.010634
actual,0.006819
ad,0.010200
addit,0.010781
adequ,0.005589
adher,0.005389
administ,0.005222
adopt,0.011030
advanc,0.003290
advantag,0.004135
advers,0.006240
advoc,0.009147
affair,0.004405
affect,0.003481
affirm,0.006430
affluenc,0.009759
age,0.013346
agenc,0.008382
agre,0.004017
agreement,0.004066
agricultur,0.130684
aid,0.051961
aim,0.019023
allot,0.008092
allow,0.013247
alon,0.004556
ambassador,0.013075
ambiti,0.013793
amend,0.005618
american,0.003018
angkorian,0.025411
ani,0.009392
anim,0.011187
annihil,0.007557
anniversari,0.007065
announc,0.013422
annual,0.004092
anoth,0.002562
antipol,0.013226
anyth,0.010531
appear,0.003086
appendix,0.024700
approach,0.003066
appropri,0.004270
approv,0.004577
approxim,0.010892
april,0.016304
arduou,0.009970
area,0.031754
argu,0.010633
arm,0.004248
armi,0.004582
aros,0.005291
arrang,0.004343
arrest,0.005855
arriv,0.008577
articl,0.003166
articul,0.006434
artifact,0.006313
artisan,0.007350
asia,0.009149
asian,0.010151
asid,0.006076
ask,0.004404
assembl,0.016637
assert,0.004577
assign,0.019143
assist,0.039726
assum,0.003691
assur,0.006070
ate,0.008560
attach,0.005044
attack,0.008591
attempt,0.003039
attent,0.004344
august,0.008097
auster,0.007557
australia,0.004631
author,0.002999
auxiliari,0.007518
avail,0.006513
averag,0.027857
avoid,0.007959
awar,0.004820
away,0.004058
b,0.010587
balanceofpay,0.010560
banana,0.007262
bank,0.026971
banker,0.007275
banknot,0.008104
baray,0.012944
barrack,0.008936
base,0.016250
bashi,0.013226
basic,0.003232
basketmak,0.012944
batdambang,0.064720
bc,0.004753
bce,0.023582
becam,0.008809
becaus,0.024183
befor,0.010975
began,0.009623
begin,0.006265
believ,0.013291
bend,0.007511
benefit,0.003898
better,0.014491
big,0.004864
black,0.004335
blackmarket,0.012006
boast,0.008081
bomb,0.006082
book,0.003053
bookkeep,0.008806
border,0.018929
borrow,0.005331
brahman,0.008486
brahmin,0.009488
bring,0.011981
britain,0.004525
british,0.007174
broadcast,0.006233
bronz,0.006465
brought,0.003960
brutal,0.014007
budget,0.005028
budgetari,0.016944
build,0.023797
built,0.032039
bullet,0.007943
burden,0.012264
burma,0.015969
burn,0.005507
busi,0.010864
buy,0.010164
c,0.003074
cadr,0.017440
cambodia,0.399599
cambodian,0.133623
came,0.007035
camp,0.005821
canal,0.025527
capabl,0.008474
capac,0.004460
capit,0.020996
capita,0.017519
care,0.004042
carri,0.003468
case,0.005380
cashless,0.012006
casualti,0.007048
catastroph,0.006385
cattl,0.006302
caus,0.020103
ce,0.011791
ceas,0.005435
celebr,0.005545
cement,0.007095
censu,0.006309
center,0.010295
central,0.012064
centuri,0.035918
ch,0.034329
cham,0.010260
chang,0.004851
charact,0.004446
character,0.004081
checkerboard,0.011526
chemic,0.004097
chenla,0.069158
chi,0.007707
chicken,0.007647
chief,0.008961
children,0.013275
china,0.024803
chines,0.032376
chinesebuilt,0.012705
cigarett,0.008296
circul,0.005629
cite,0.004500
citi,0.026012
citizen,0.008806
civil,0.007382
claim,0.009798
clarifi,0.006489
class,0.010706
classless,0.010008
clear,0.012014
cleric,0.007788
close,0.002879
coast,0.004911
collaps,0.004740
collect,0.018833
collectiv,0.016804
coloni,0.017798
combat,0.005648
combin,0.003068
come,0.003077
comecon,0.010403
command,0.004514
commerc,0.005362
commerci,0.012368
commiss,0.004284
commod,0.036560
common,0.005204
commun,0.022511
communist,0.026538
compani,0.003398
comparison,0.004512
complet,0.005944
complex,0.003149
componentpriv,0.013226
comprehens,0.004740
compris,0.013207
concentr,0.008422
conclud,0.004401
condit,0.018067
confer,0.012708
confid,0.005505
confisc,0.007557
conflict,0.004008
congress,0.024109
consequ,0.010978
consid,0.002509
consider,0.018083
consist,0.008641
consolid,0.011301
constant,0.004278
constitut,0.020388
construct,0.019995
consum,0.008570
consumpt,0.005019
contact,0.004515
contain,0.003087
continu,0.023468
contrast,0.007270
contribut,0.009476
control,0.017155
convers,0.004440
coop,0.019327
cooper,0.028792
coordin,0.004562
cope,0.006907
corn,0.026919
cornerston,0.007557
corv,0.020613
cosslett,0.013226
cotton,0.006579
countri,0.093460
countrysid,0.049381
countrywid,0.009861
coup,0.005860
cours,0.003750
court,0.004081
cover,0.003543
creat,0.005264
credit,0.004164
crisi,0.004441
crop,0.015962
crucial,0.005238
cubic,0.007428
cultiv,0.082449
cultur,0.006471
currenc,0.018863
cut,0.009137
czechoslovakia,0.008486
daili,0.010066
dam,0.007262
damag,0.013933
day,0.006495
death,0.003769
debat,0.004006
debt,0.004990
decad,0.003912
decemb,0.007898
decid,0.008388
decis,0.003628
decisionmak,0.006203
declar,0.008313
declin,0.008172
defeat,0.005091
defens,0.004723
deficit,0.017920
defin,0.002953
degre,0.003524
delinqu,0.009792
deliv,0.005072
delta,0.018492
demand,0.015368
democrat,0.008433
demonet,0.011871
denation,0.011332
dens,0.006126
depend,0.008518
depos,0.007077
deposit,0.005095
depositor,0.009015
depress,0.005347
deputi,0.005763
describ,0.002648
design,0.003160
despit,0.007298
destin,0.006022
destroy,0.009000
deterior,0.012676
develop,0.060265
dexport,0.013226
did,0.015973
didnt,0.007071
die,0.004123
difficult,0.003753
dig,0.008027
dike,0.039882
dimens,0.004951
dimportationsonexim,0.013226
diplomat,0.020451
direct,0.008573
directli,0.003457
disappear,0.005471
disast,0.005945
disclos,0.007518
discord,0.009099
disguis,0.007844
disintegr,0.007037
disloc,0.008638
dismal,0.009433
dispos,0.006367
disput,0.008657
disregard,0.007428
disrepair,0.010799
disrupt,0.005545
distanc,0.004582
distribut,0.017754
ditch,0.009143
divert,0.015115
divin,0.005724
divis,0.003729
doctor,0.010271
doctrinair,0.011160
domain,0.004203
domest,0.026755
domin,0.007082
donat,0.006446
donor,0.013497
draft,0.005554
drink,0.006381
drop,0.004723
duck,0.008860
dure,0.032205
duti,0.010242
dweller,0.018072
dynast,0.016163
earli,0.018140
earlier,0.007657
earliest,0.008661
earmark,0.009826
earn,0.004870
earner,0.017649
easili,0.004438
east,0.003983
eastern,0.004300
easygo,0.011871
econom,0.158787
economi,0.152155
economyth,0.012944
economyto,0.013226
editor,0.005515
educ,0.009902
effect,0.015102
effici,0.004056
effort,0.007176
egoist,0.009933
eighthour,0.010403
elabor,0.010782
elderli,0.007256
electr,0.012852
elementswa,0.013226
elevenpoint,0.013226
elimin,0.004480
elit,0.005753
embark,0.007282
embassi,0.006415
emphasi,0.009399
empir,0.007230
employ,0.006873
empti,0.012354
enact,0.005743
encourag,0.008517
end,0.005665
endeavor,0.013661
endur,0.006323
engag,0.012309
engulf,0.018330
ensu,0.006334
ensur,0.004256
enter,0.007575
enterpris,0.029262
entir,0.013442
eo,0.009257
equip,0.013896
era,0.016374
especi,0.006017
essenti,0.010805
establish,0.008295
estim,0.003646
et,0.004453
evacu,0.028333
evacue,0.011871
event,0.003371
eventu,0.003682
everyon,0.005982
everyth,0.005159
evid,0.003533
exampl,0.002320
exceed,0.005441
exchang,0.014650
exercis,0.004451
exist,0.012882
expand,0.021991
expans,0.004371
expel,0.006247
expenditur,0.011457
experienc,0.004651
expert,0.005117
explain,0.006975
explan,0.004560
export,0.085555
exportimport,0.010215
extend,0.013670
extens,0.006997
extent,0.004263
extra,0.005934
extrem,0.003716
face,0.003888
facil,0.014899
facilit,0.014013
fact,0.003289
faction,0.006119
factor,0.006570
factori,0.039684
fail,0.003895
fall,0.007073
famili,0.021526
familyrun,0.012006
far,0.014053
farm,0.041356
farmer,0.016452
februari,0.012628
feder,0.008250
feel,0.004843
fell,0.010008
fertil,0.010862
feudal,0.020079
fewer,0.016483
field,0.002829
fifth,0.005517
fiftysix,0.011426
fight,0.004861
fighter,0.007037
financ,0.008211
financi,0.007397
fish,0.029004
fishermen,0.008258
fiveyear,0.006309
flagrantli,0.012316
flee,0.006644
flexibl,0.011472
flood,0.006116
focu,0.003801
focus,0.007213
follow,0.004432
food,0.067788
foolish,0.009057
forbad,0.008429
forc,0.033324
forcedlabor,0.012944
foreclosur,0.010306
foreign,0.068527
foreignexchang,0.021121
forest,0.005328
forestri,0.028793
form,0.012706
formal,0.006933
formerli,0.005189
formul,0.004436
forti,0.013834
foster,0.005923
fourteenth,0.008335
fourth,0.009668
franc,0.011899
franoi,0.006850
free,0.003164
freemarket,0.016323
french,0.048472
frenchsponsor,0.013226
frequent,0.007789
frontier,0.006107
fruit,0.010980
fuel,0.005134
funan,0.055406
funanes,0.012705
fund,0.011460
fundament,0.003547
futur,0.006748
garden,0.006196
gaug,0.006850
gave,0.016126
gdp,0.005210
gdpsee,0.012944
gener,0.009954
german,0.003912
germani,0.012515
ghost,0.007526
giant,0.006058
given,0.002778
glass,0.006107
glossari,0.033767
gnp,0.008501
gnpsee,0.012705
goal,0.019054
golden,0.005614
good,0.021562
govern,0.086944
government,0.005798
governmentinflict,0.013226
gradual,0.017815
gram,0.015486
grant,0.008494
graze,0.007779
great,0.009367
greater,0.010469
greek,0.003923
green,0.004764
grew,0.009259
gross,0.010834
group,0.017494
grow,0.017763
grown,0.005335
growth,0.014027
guarante,0.005082
guerrilla,0.007043
guidelin,0.012290
gunnysack,0.013226
ha,0.007389
half,0.011441
halv,0.007963
handicraft,0.042218
hanoi,0.009933
harmoni,0.006461
harvest,0.042993
hasten,0.008402
hastili,0.009516
head,0.007153
health,0.007724
heavi,0.004788
hectar,0.065293
hectaredur,0.013226
held,0.003275
help,0.018199
heng,0.054858
henri,0.004465
hi,0.024841
hierarch,0.006356
high,0.005610
higher,0.013175
highest,0.008485
highway,0.006992
histori,0.013845
ho,0.007106
hold,0.003337
home,0.007912
hospit,0.005463
hostil,0.011492
hou,0.044642
hour,0.009737
hous,0.007433
household,0.005511
howev,0.022485
huge,0.005152
human,0.005338
humanitarian,0.013941
hundr,0.008419
hybrid,0.005788
ieng,0.024633
illdefin,0.009281
imit,0.006554
immedi,0.012218
immigr,0.011026
impact,0.003796
implement,0.019286
impli,0.004307
import,0.025992
importantand,0.013226
impos,0.009529
imposit,0.007963
imposs,0.004684
improv,0.027275
improvis,0.008824
incent,0.005768
inchoat,0.011871
incid,0.005482
includ,0.011539
incom,0.008487
incorpor,0.003804
increas,0.037299
inde,0.009421
independ,0.019919
india,0.004241
indian,0.022931
indic,0.003408
indispens,0.007734
indistinguish,0.007835
individu,0.002857
individualist,0.008016
indochina,0.043517
indochines,0.010799
indol,0.010616
indravarman,0.025888
industri,0.085384
inflat,0.015653
influenc,0.006103
inform,0.002754
infrastructur,0.018763
inhabit,0.014449
injustic,0.008059
inland,0.013297
input,0.005019
insecur,0.007953
insignific,0.008016
insist,0.011305
institut,0.002931
insur,0.005341
insurg,0.007173
insurrect,0.008126
intact,0.007101
integr,0.003343
intend,0.004288
intens,0.009202
intensifi,0.006791
intern,0.012139
interrupt,0.006891
introduc,0.003250
introduct,0.007345
invad,0.005541
invas,0.005052
invest,0.015778
involv,0.002685
iron,0.014886
irrig,0.049026
israel,0.005673
itali,0.004985
item,0.010164
januari,0.011861
japan,0.013745
javanes,0.009355
jayavarman,0.011244
juli,0.004001
june,0.008072
just,0.003230
justic,0.004682
jute,0.010171
kambuja,0.039678
kampong,0.012153
kampuchea,0.048614
kampuchean,0.048614
kcpsee,0.013226
kept,0.004992
key,0.007051
keyston,0.009663
khieu,0.025411
khmer,0.307234
kill,0.009147
kilomet,0.014007
kilowatt,0.010403
kind,0.003690
king,0.008825
kingdom,0.007370
known,0.002314
knufnsse,0.013226
korat,0.012944
kprp,0.066130
kprpsee,0.013226
kr,0.009234
krom,0.011526
l,0.004077
label,0.004984
labor,0.018193
lack,0.003532
lackor,0.013226
land,0.056092
landhold,0.045181
landless,0.009143
lao,0.015806
larg,0.017088
larger,0.003656
largescal,0.005397
largest,0.011477
late,0.006414
later,0.002754
latex,0.009933
law,0.002790
lead,0.002763
leader,0.044554
leadership,0.005025
leap,0.007371
learn,0.003891
leav,0.003922
led,0.005978
left,0.003692
legitim,0.005753
level,0.013849
liber,0.004176
liberalis,0.008104
librari,0.004351
licens,0.005515
life,0.002977
light,0.003818
like,0.004948
limit,0.011315
line,0.013260
link,0.004028
list,0.002575
littl,0.007090
live,0.014974
livestock,0.013075
loan,0.016121
local,0.018822
locard,0.012153
logic,0.004482
lon,0.041481
long,0.009022
love,0.005498
low,0.003549
lower,0.010267
lowless,0.013226
lowtechnolog,0.012705
lull,0.009861
machin,0.004472
maelstrom,0.012705
main,0.008796
mainland,0.006016
mainli,0.015380
maintain,0.012918
mainten,0.005556
major,0.014743
make,0.007065
malay,0.007854
malaya,0.008720
malaysia,0.006767
malnutrit,0.017002
manag,0.006634
mani,0.004186
manner,0.004469
manufactur,0.017667
march,0.007681
margaret,0.006767
maritim,0.005962
mark,0.003718
market,0.013867
marri,0.005806
mass,0.003798
massiv,0.004928
materi,0.009736
matter,0.003483
meager,0.010129
mean,0.005101
meant,0.009500
measur,0.012134
medic,0.004265
medicin,0.004415
medium,0.010560
mediums,0.017244
meet,0.007494
mekong,0.050441
member,0.005910
men,0.008589
menac,0.008936
mention,0.004483
merchant,0.011001
met,0.004736
metal,0.004820
meter,0.006233
middleclass,0.007923
migrat,0.004948
militari,0.014987
millennia,0.013497
millennium,0.005780
million,0.032740
minh,0.009433
mitig,0.006657
mix,0.013364
mobil,0.004919
model,0.005770
modern,0.002778
modest,0.013525
monarch,0.006116
monetari,0.014895
money,0.004139
moneylend,0.010453
monitor,0.005008
monsoon,0.009036
month,0.008184
monument,0.006631
moreov,0.005313
moscow,0.006635
mostli,0.015806
motiv,0.004524
motto,0.008233
mountain,0.004982
mouth,0.006566
movement,0.012774
murder,0.005882
nascent,0.007770
nation,0.074425
national,0.007943
nationwid,0.007037
natur,0.007417
navig,0.005783
ne,0.007825
near,0.003808
necessari,0.003691
need,0.025058
neglect,0.006058
neglectof,0.013226
neolith,0.006901
network,0.027103
neutral,0.030416
new,0.022756
newli,0.004872
news,0.005055
nineti,0.008402
nol,0.054669
nonessenti,0.009407
nonetheless,0.005793
nongovernment,0.007406
nonviol,0.007984
north,0.003677
northern,0.012989
noth,0.004901
novemb,0.012462
number,0.013902
numbersther,0.013226
object,0.003166
occup,0.004825
occupi,0.004643
occur,0.002942
ocean,0.009532
octob,0.020024
offer,0.003444
offic,0.003727
offici,0.007032
oil,0.004622
old,0.007664
older,0.004860
onc,0.003460
oner,0.010354
onethird,0.007037
ongo,0.005067
onli,0.019187
open,0.012682
oper,0.011687
order,0.010209
organ,0.020210
origin,0.002566
otherwis,0.004405
outlaw,0.007435
output,0.009668
outsid,0.003533
overal,0.008477
overdon,0.012316
overexpans,0.011633
overhaul,0.009057
overnight,0.008070
oversea,0.011048
overwork,0.010403
ownership,0.010878
paddi,0.010129
paid,0.004722
palli,0.009488
paper,0.003821
pari,0.010129
parti,0.032212
particip,0.007307
particular,0.002899
particularli,0.006496
partli,0.004979
partsth,0.011747
past,0.003674
patern,0.008296
patriot,0.006758
pattern,0.007903
pay,0.008647
peac,0.004466
peacetim,0.017796
peasant,0.064580
peasantri,0.034682
penh,0.193248
peninsula,0.012322
peopl,0.051070
percent,0.060470
perfect,0.015523
perform,0.006511
period,0.024767
permiss,0.006438
persian,0.005819
person,0.006061
petit,0.006850
phase,0.004453
phenomenon,0.004769
phnom,0.194385
physic,0.003030
pile,0.008173
pitfal,0.008975
place,0.010477
plagu,0.006670
plan,0.087687
plant,0.032168
plantat,0.019932
plateau,0.007526
play,0.016719
pledg,0.006566
plot,0.022705
plu,0.005210
plural,0.005956
point,0.002686
pol,0.067864
polar,0.005673
polici,0.068548
polit,0.008720
ponchaud,0.013226
poor,0.013738
popul,0.023066
port,0.015700
portion,0.004654
posit,0.002744
possess,0.004161
possibl,0.002708
post,0.004494
postwar,0.006298
pot,0.065015
poultri,0.008221
power,0.021742
practic,0.008524
pragmat,0.012947
precapitalist,0.010171
precoloni,0.016723
predecessor,0.005790
predomin,0.006058
premier,0.013297
prepar,0.012921
present,0.002655
prevail,0.005618
prewar,0.015907
price,0.003931
priesthood,0.009143
primari,0.003505
primarili,0.003630
primit,0.005876
princ,0.011462
princip,0.008297
principl,0.009564
prior,0.004011
prioriti,0.022402
privat,0.045697
probabl,0.007621
problem,0.005680
process,0.012553
proclaim,0.006008
produc,0.027633
product,0.094112
program,0.023385
progress,0.014478
prohibit,0.005419
project,0.019717
promulg,0.006772
properti,0.019293
propos,0.003276
prosper,0.010980
protect,0.003539
protest,0.004935
provid,0.014138
provinc,0.004909
provinci,0.012846
public,0.021397
publicpriv,0.009355
purchas,0.004516
purer,0.010506
purifi,0.007557
purpos,0.003454
pursu,0.009660
quarter,0.005524
question,0.003335
r,0.003553
radic,0.019474
radio,0.010874
railroad,0.013671
railway,0.012569
rais,0.011751
ralli,0.006992
rang,0.006376
rate,0.009873
ration,0.027462
raw,0.010989
reach,0.023961
real,0.013983
realist,0.005788
rebuild,0.014178
receiv,0.009654
recent,0.002916
recognit,0.004616
reconsid,0.008161
reconstruct,0.005278
record,0.003550
recoveri,0.005607
reduc,0.012763
reduct,0.004846
reestablish,0.006415
refer,0.001684
refineri,0.015614
reform,0.008240
refuge,0.006305
refus,0.004915
regard,0.006463
regim,0.034357
region,0.015081
rehabilit,0.029050
reintroduc,0.007770
reject,0.008304
rel,0.012080
relat,0.011355
relationship,0.003215
reli,0.008117
relianc,0.006753
relief,0.006005
remain,0.013928
remark,0.005166
renew,0.004925
renov,0.008429
reopen,0.007656
repair,0.017989
replac,0.003432
report,0.019424
reportedli,0.006688
repres,0.002762
republ,0.015812
republican,0.012033
reput,0.005860
request,0.005119
requir,0.002651
research,0.002732
resent,0.007262
reservoir,0.030327
resid,0.013387
resourc,0.010229
resourceschiefli,0.013226
respect,0.006406
respons,0.011685
rest,0.003946
restor,0.038107
restrict,0.003903
result,0.004692
resum,0.006442
retail,0.006091
return,0.003408
revenu,0.009827
revers,0.004637
review,0.003774
revit,0.008185
reviv,0.010705
revolt,0.012264
revolut,0.016690
revolution,0.007071
revolutionari,0.016081
rice,0.279512
ricefield,0.012316
riel,0.023266
rielse,0.013226
right,0.006045
rise,0.006778
rival,0.005565
rivalri,0.006938
river,0.009210
road,0.014677
role,0.026555
roman,0.004518
ross,0.006891
roug,0.241957
royal,0.004444
rubber,0.087711
rubberprocess,0.013226
rudimentari,0.015886
rule,0.003074
rural,0.005447
russel,0.005903
s,0.019111
said,0.003460
saigon,0.010260
sale,0.004906
salvat,0.014551
samaki,0.013226
samlot,0.012944
samphan,0.038116
samrin,0.086217
sap,0.025820
sari,0.024633
sarpodamean,0.013226
satellit,0.005876
satisfi,0.004996
save,0.009566
scale,0.003812
scrap,0.008059
sea,0.004297
season,0.005443
second,0.019350
secretari,0.005502
sector,0.061822
secur,0.007157
seed,0.005976
seek,0.003779
seen,0.003304
segment,0.005770
seiz,0.005790
select,0.003662
self,0.005788
selfreli,0.043434
selfsuffici,0.028310
sell,0.019059
send,0.005267
sent,0.009337
septemb,0.008123
serv,0.010058
servic,0.019690
set,0.007827
seven,0.004420
seventi,0.007883
sever,0.009775
shall,0.006148
share,0.003282
sharecropp,0.011426
sharefarm,0.012944
sharpli,0.006626
shift,0.004081
shock,0.005758
shop,0.031424
short,0.003591
shortag,0.018350
shortli,0.015727
shrink,0.007385
sick,0.006613
signific,0.005984
sihanouk,0.216112
sihanoukvil,0.038116
similar,0.002799
simpl,0.003724
simplif,0.007707
simultan,0.004912
sinc,0.009376
situat,0.007218
skill,0.009031
skyrocket,0.009165
slave,0.005539
slaveri,0.006177
slightli,0.005080
slocomb,0.013226
slogan,0.016032
slow,0.009679
small,0.043026
smaller,0.003985
smallscal,0.007243
smile,0.008092
soap,0.008270
social,0.023856
socialist,0.020976
societi,0.011747
socioeconom,0.006772
socit,0.008501
soft,0.005984
soil,0.010622
soldier,0.005333
solidar,0.014422
solomon,0.007198
solv,0.004314
someth,0.004507
somewhat,0.004969
son,0.004488
soon,0.008597
sore,0.010088
sought,0.013700
sourc,0.008845
south,0.003670
southeast,0.017215
southeastern,0.007282
southern,0.013051
soviet,0.020309
spare,0.007295
spars,0.007065
spartan,0.019585
specif,0.008414
specul,0.004877
speech,0.005050
spirit,0.005296
split,0.004817
spokesman,0.008443
sponsor,0.005876
spread,0.012430
st,0.007557
stabil,0.013115
stabl,0.009226
stagnat,0.007020
standard,0.003157
start,0.011869
starvat,0.015468
state,0.067686
statement,0.004303
staterun,0.008788
statist,0.003845
statu,0.003915
stipul,0.007089
stock,0.004522
stockpil,0.009407
storag,0.005578
strategi,0.008733
stress,0.004807
strict,0.010894
strictli,0.011056
strife,0.007725
string,0.006226
strong,0.003406
struck,0.006666
struggl,0.009827
studi,0.004954
subcontin,0.007223
subject,0.005964
subsist,0.019362
substitut,0.005208
succeed,0.004792
successor,0.010531
suffer,0.012835
suffici,0.004333
sugar,0.005711
sui,0.008575
suit,0.005449
supervisor,0.008185
suppli,0.019107
supplier,0.006600
support,0.016722
surplu,0.006167
surplus,0.024927
surviv,0.008085
suspend,0.005826
sweat,0.008486
swedish,0.006393
sweep,0.007179
switzerland,0.006008
swollen,0.010453
systemat,0.008957
taken,0.006864
target,0.013094
task,0.013045
tax,0.039649
technic,0.004169
techniqu,0.003602
telegraph,0.007256
telephon,0.006408
temporari,0.005528
tenanc,0.010865
tenet,0.006901
tension,0.005324
tenth,0.007185
tenur,0.014213
term,0.004430
territori,0.004103
text,0.004043
textil,0.012676
th,0.018815
thai,0.033608
thailand,0.035416
theater,0.007573
themselv,0.003477
therebi,0.004851
thesi,0.017403
thi,0.026300
thing,0.003729
thirteenth,0.007903
thorough,0.007031
thousand,0.012401
threaten,0.005330
thrift,0.027363
thu,0.002740
timber,0.014040
time,0.010370
tireproduct,0.013226
today,0.006735
told,0.005945
ton,0.044493
tonl,0.037496
took,0.014647
tool,0.003753
total,0.006541
town,0.024069
tractor,0.009234
trade,0.040692
tradit,0.002951
traffic,0.006193
transact,0.010094
transform,0.015348
transport,0.016074
travel,0.004139
travers,0.007622
tree,0.004828
tri,0.003689
tribut,0.006992
troop,0.005291
truck,0.023202
turbul,0.014538
tuyet,0.013226
twelv,0.006183
twentieth,0.005530
umbrella,0.006981
undefin,0.008309
undermin,0.006213
underscor,0.008670
undertak,0.006363
underw,0.013602
undu,0.009355
unequ,0.007282
unhealthi,0.008670
union,0.010450
uniqu,0.003997
unit,0.026008
univers,0.004855
unlik,0.007807
unmarri,0.009281
unpreced,0.006657
unproduct,0.008486
unreli,0.007511
unsatisfactori,0.008415
upkeep,0.010560
upper,0.004733
urban,0.014750
urg,0.012374
urgent,0.007974
use,0.015323
usufruct,0.011160
usuri,0.018031
utensil,0.009381
util,0.004240
valley,0.010842
valu,0.006008
vari,0.006911
variou,0.002668
vassal,0.007807
veget,0.016788
vehicl,0.005322
veteran,0.007136
victim,0.018896
victori,0.005429
vie,0.008591
vietnam,0.050820
vietnames,0.039224
vii,0.007130
villag,0.042853
villagebas,0.012006
virgin,0.007179
virtual,0.004635
visitor,0.006411
wa,0.115322
wage,0.005150
want,0.004327
war,0.059939
warn,0.005636
wartim,0.014931
wartorn,0.020343
washington,0.010322
watch,0.005976
water,0.025311
waterborn,0.011426
waterway,0.008048
waterwork,0.011747
weak,0.004656
weav,0.007913
weight,0.004724
went,0.004299
west,0.020125
western,0.007052
wet,0.013996
wide,0.003019
win,0.005271
women,0.004461
wood,0.005409
work,0.013788
workday,0.010799
worker,0.039273
workshop,0.006938
world,0.004753
worst,0.006465
wreck,0.008374
written,0.003711
yasovarman,0.012944
year,0.033120
yield,0.018317
youd,0.011332
yugoslavia,0.007923
yuon,0.013226
zealand,0.005573
zero,0.004929
zone,0.004845
