abnorm,0.004481
absenc,0.003310
access,0.014950
accommod,0.004181
accord,0.001800
account,0.004241
accumul,0.003454
acr,0.009639
act,0.006174
adapt,0.002867
addit,0.007287
administr,0.030215
admiralti,0.006027
adult,0.003525
advic,0.003919
affect,0.002353
africa,0.020471
african,0.012625
afrikaan,0.007215
age,0.004510
agre,0.002715
aground,0.007215
aid,0.002701
air,0.005532
airport,0.007933
alaska,0.005447
albatross,0.027165
alcohol,0.004134
aleutian,0.007256
alex,0.005315
alfr,0.003690
alic,0.005508
allan,0.009926
allow,0.001790
alvarez,0.006413
amalgam,0.005233
amateur,0.014753
america,0.002523
american,0.002040
analogu,0.004922
ancestor,0.007741
ancestri,0.004944
anchor,0.004900
andor,0.003151
anglican,0.005382
anglicis,0.006998
anim,0.002520
ann,0.004217
annex,0.004096
anni,0.006066
announc,0.006048
annual,0.002766
anomali,0.004917
anoth,0.001732
antarct,0.010894
appar,0.003074
appear,0.002085
appli,0.001925
appoint,0.005920
archipelago,0.031997
arctocephalu,0.008324
area,0.019674
arriv,0.014494
arthur,0.007347
ascens,0.045810
ashor,0.011953
asia,0.003092
asian,0.003430
assess,0.003067
assist,0.002685
associ,0.003518
asthma,0.019723
asturia,0.006665
athol,0.008214
atlant,0.034345
attribut,0.002799
aubert,0.015880
australia,0.003130
author,0.004055
avail,0.004402
away,0.002743
baleen,0.007176
ban,0.003628
bandwidth,0.005952
banish,0.005755
bank,0.005208
barrow,0.012003
base,0.010984
bati,0.008115
battlebridg,0.008939
bay,0.004066
bazin,0.007659
bbc,0.012290
beacon,0.011765
becaus,0.004903
befor,0.003709
began,0.006504
begin,0.006351
believ,0.004491
belong,0.003068
berger,0.006135
betteroff,0.008115
bfb,0.016896
bienheureux,0.008939
bierenbroodspot,0.008748
big,0.003287
bird,0.018533
birdlif,0.006818
board,0.006265
boat,0.008657
bonapart,0.005849
book,0.020637
botan,0.010604
break,0.002993
breakup,0.010431
breed,0.017417
brest,0.006998
brief,0.003441
britain,0.012236
britannia,0.006739
british,0.019396
broad,0.002916
broadbil,0.008939
broadcast,0.004213
broaden,0.004630
brought,0.005353
brown,0.003684
bryson,0.007343
build,0.011489
built,0.002706
bulger,0.026818
bullen,0.008214
burn,0.003722
buy,0.003435
c,0.002078
cachalot,0.008939
cafe,0.006904
calcul,0.002770
calshot,0.017497
came,0.004755
camogli,0.008939
camp,0.003934
campbel,0.004869
canal,0.004313
cape,0.022839
captain,0.021944
card,0.004132
care,0.005464
career,0.003567
cashel,0.008939
cast,0.003694
castaway,0.007940
catcher,0.007790
cathol,0.003511
cattl,0.008519
caus,0.001941
celebr,0.007496
censu,0.004264
center,0.002319
centr,0.008971
centuri,0.009337
challeng,0.002597
chamber,0.003859
chang,0.001639
chapter,0.016947
chart,0.008285
check,0.003770
chief,0.012114
childbirth,0.006001
children,0.008973
chown,0.008324
christian,0.002818
christin,0.005678
christma,0.005124
chronicl,0.004580
circa,0.004886
circumpolar,0.007299
circumst,0.006681
civil,0.002494
civilian,0.003780
clae,0.007343
classif,0.003209
classroom,0.005289
clean,0.004257
climat,0.009316
close,0.001946
coalfir,0.007438
coast,0.009958
code,0.005628
codenam,0.006135
coin,0.006023
cold,0.003466
collabor,0.003340
collect,0.008486
collector,0.005157
collin,0.005135
colloqui,0.005061
coloni,0.003007
colonis,0.004926
colour,0.004151
come,0.004160
command,0.003051
commemor,0.004869
commerci,0.002786
common,0.001758
commonwealth,0.003757
commun,0.013313
compani,0.006890
compar,0.004302
complet,0.002008
complex,0.002128
compos,0.002759
comprehens,0.006407
comput,0.002410
condit,0.002035
conduct,0.009972
confer,0.002863
confid,0.003720
connect,0.011974
conrad,0.011064
consecut,0.004917
conserv,0.005774
consign,0.006998
consist,0.005840
conspicillata,0.008939
constabl,0.006093
constitut,0.002296
construct,0.002252
consult,0.003358
consum,0.002896
contact,0.003052
contain,0.002086
content,0.002870
continent,0.003873
continu,0.001762
contract,0.002917
contribut,0.002134
contributor,0.004255
control,0.001932
cooper,0.002780
coordin,0.003083
copper,0.008078
corpor,0.002853
corri,0.007176
corvett,0.007256
cost,0.002557
council,0.018566
councillor,0.006053
counti,0.004328
countri,0.001914
coupl,0.003365
cover,0.004789
coverag,0.004375
cr,0.005678
craft,0.004375
crawfish,0.035758
crawford,0.006394
creat,0.003558
crew,0.009148
cross,0.003174
cruis,0.005152
cruiser,0.006107
cultur,0.010935
cunha,0.433246
current,0.001862
curri,0.005928
cut,0.003088
cyclon,0.005447
d,0.002354
da,0.243945
daili,0.006804
damag,0.006278
daniel,0.003617
danish,0.004600
data,0.002321
date,0.004862
dawn,0.004603
day,0.019755
decemb,0.010677
decid,0.002834
declar,0.005619
dedic,0.003494
deepen,0.005227
deephol,0.008939
degre,0.002382
delay,0.007430
demograph,0.003905
denomin,0.004333
depart,0.005100
depend,0.005757
depict,0.003628
depressa,0.008939
der,0.003806
deriv,0.002211
descend,0.010562
descent,0.008345
describ,0.007161
descript,0.005317
desir,0.002737
desktop,0.005736
desol,0.006966
destroy,0.006083
devast,0.004130
develop,0.001454
devot,0.006876
diabet,0.005146
dialect,0.008558
diamond,0.004416
diann,0.006998
diari,0.005440
did,0.004318
die,0.008361
diego,0.004926
difficult,0.005074
difficulti,0.003141
direct,0.003863
disarma,0.005827
discoveri,0.005448
diseas,0.003047
disrupt,0.003748
distanc,0.003097
distant,0.004043
distribut,0.002400
dock,0.005348
doctor,0.013885
document,0.005616
doe,0.003936
dolphin,0.005642
domest,0.003013
dr,0.007217
draw,0.002981
driest,0.006875
dsolat,0.008939
dtu,0.008939
du,0.012333
duchess,0.006765
duke,0.009174
duller,0.008324
dure,0.015069
dutch,0.014290
dxpedit,0.007862
earli,0.005254
earlier,0.002587
earliest,0.002927
earn,0.003291
earner,0.005964
earth,0.005498
easier,0.003749
east,0.008077
eastern,0.005813
eclips,0.009386
econom,0.005749
economi,0.004783
edgar,0.005119
edinburgh,0.033349
edit,0.002740
educ,0.008924
ekg,0.007862
elect,0.007748
elegiac,0.007862
elev,0.003907
elizabeth,0.004166
email,0.005119
embrac,0.003950
emerg,0.004488
empir,0.002443
empress,0.011655
en,0.004303
enabl,0.002777
end,0.003829
endem,0.009756
endogami,0.008587
england,0.006077
english,0.007317
ensur,0.002877
enter,0.002560
entir,0.006814
entitl,0.007230
entri,0.003387
environ,0.002321
equal,0.002384
equat,0.002912
equatori,0.005251
equip,0.003130
equiti,0.004007
erd,0.006135
erupt,0.026237
especi,0.008134
establish,0.003737
europ,0.004749
european,0.006543
europeanrussian,0.008939
evacu,0.019150
evacue,0.008024
event,0.004558
evid,0.004776
evolv,0.002874
exampl,0.003136
exclus,0.002991
execut,0.002652
exil,0.003999
expect,0.002406
expedit,0.023768
explor,0.008004
extant,0.004633
extend,0.002309
extens,0.002364
extent,0.002881
extern,0.001369
extra,0.004010
extratrop,0.007065
extrem,0.002512
f,0.002579
facil,0.010070
factori,0.019159
faero,0.008024
fairli,0.003966
famili,0.016974
fantasis,0.008939
far,0.007123
farm,0.003494
farmer,0.007413
farrar,0.006394
farther,0.004891
fascin,0.005221
father,0.003078
fauna,0.008934
featur,0.002368
februari,0.014226
femal,0.010548
ferri,0.005335
fibr,0.005616
fiction,0.003735
field,0.007649
film,0.007103
final,0.002265
financi,0.002500
fireplac,0.007215
fish,0.032673
fishermen,0.005581
flat,0.004005
fletcher,0.006225
flightless,0.007343
flora,0.009467
follow,0.002996
fond,0.005989
foran,0.008939
forc,0.007507
foreign,0.009751
foreword,0.005697
form,0.001431
fortescu,0.008024
forti,0.004675
founder,0.006564
franc,0.005361
frank,0.007333
free,0.002139
freighter,0.007256
french,0.010080
fresh,0.004206
friday,0.005418
frost,0.005688
ft,0.008185
fuel,0.003470
fulltim,0.004987
fund,0.005164
fur,0.005174
furthest,0.006510
garden,0.004188
garment,0.005669
garrison,0.004745
gaston,0.006150
gastroscop,0.008587
gather,0.003264
gcse,0.006641
gene,0.003633
gener,0.006728
genet,0.006361
geograph,0.012182
geographi,0.003447
geolog,0.003578
geomagnet,0.006306
georg,0.002698
gerard,0.005516
gerritsz,0.008324
giroux,0.006510
given,0.001878
glass,0.020639
glasss,0.008587
glaucoma,0.007790
global,0.007460
goe,0.003370
good,0.004163
gordon,0.008735
gough,0.093995
govern,0.019588
governor,0.010311
gradual,0.006020
great,0.002110
greatwing,0.008939
green,0.006441
grew,0.003129
grey,0.004991
ground,0.002724
group,0.006756
grow,0.002401
guid,0.010590
guitar,0.006596
ha,0.029968
habit,0.003970
hadmin,0.008939
hagan,0.007543
half,0.002577
hampshir,0.011531
handclipp,0.008939
handicraft,0.005707
handknit,0.008587
hanel,0.008939
haplotyp,0.006791
happi,0.004140
harbour,0.009631
hardship,0.005315
harriss,0.007299
head,0.004835
health,0.007831
healthcar,0.004410
heavi,0.006473
heemsted,0.008448
heinlein,0.006241
held,0.006642
helena,0.109741
help,0.002050
hemispher,0.004264
heritag,0.007660
herv,0.006998
heur,0.008214
hi,0.025185
hidden,0.004123
high,0.005688
higher,0.002226
highest,0.002867
hinder,0.004718
histor,0.002103
histori,0.012477
hit,0.003877
hlfte,0.008939
hm,0.014918
hoey,0.008748
holdgat,0.008939
holiday,0.017631
home,0.002674
honour,0.004416
hors,0.004045
hosegood,0.008939
hospit,0.011078
hotspot,0.006121
hour,0.006581
household,0.003725
howev,0.004559
human,0.001804
humid,0.004987
husband,0.009756
ian,0.004623
ibm,0.004815
ice,0.008169
identifi,0.002263
idiom,0.006001
ii,0.002450
ilha,0.007137
illeg,0.003773
immedi,0.002752
import,0.001597
improv,0.002304
inaccess,0.057306
inaugur,0.004326
incerta,0.008024
incid,0.003705
includ,0.011699
incom,0.002868
inconsist,0.004351
increas,0.003601
india,0.002867
indic,0.002303
individu,0.005794
industri,0.004274
inform,0.001861
inhabit,0.016277
injur,0.004748
inmarsat,0.006257
insofar,0.005186
inspector,0.005624
inspir,0.003098
instal,0.003695
instanc,0.005072
instant,0.004840
instat,0.007065
instead,0.002193
institut,0.001981
instrument,0.002883
intak,0.005716
intern,0.003281
internet,0.012287
introduct,0.002482
inventori,0.004869
involv,0.005446
isbn,0.002213
isl,0.009615
island,0.457965
isol,0.009121
issu,0.004018
itali,0.003370
italian,0.003513
itv,0.008024
iucn,0.018407
jame,0.002641
januari,0.016034
japan,0.003096
jasu,0.008939
job,0.006467
joint,0.003297
jonathan,0.004378
journey,0.008703
jubile,0.006394
jule,0.005462
juli,0.005409
juneau,0.008939
karen,0.005362
katherin,0.012420
kbit,0.015581
kelso,0.007600
ketch,0.008748
kevin,0.004913
kill,0.003091
kilometr,0.069464
kingdom,0.007472
kitchen,0.005745
knebel,0.008587
knitwear,0.008324
known,0.009387
kppen,0.006241
kunj,0.008115
la,0.003125
lack,0.004774
lambert,0.011064
land,0.021326
languag,0.002353
larder,0.008748
largest,0.002585
late,0.002167
later,0.014895
latham,0.007215
latitud,0.004748
lavarello,0.017879
lavarelloschrei,0.008939
law,0.005658
le,0.003729
leav,0.002651
led,0.006061
lee,0.004257
left,0.004991
legisl,0.002866
length,0.003106
lengthi,0.004882
letter,0.006181
levi,0.004399
lie,0.003067
life,0.008050
like,0.001672
limit,0.007647
line,0.002240
liner,0.012941
link,0.002722
lit,0.005215
literatur,0.002797
live,0.008096
livestock,0.004419
lobster,0.006413
local,0.025444
locat,0.011509
lockjaw,0.008587
log,0.004386
london,0.007908
lone,0.005368
long,0.002032
longboat,0.014877
longer,0.005164
longliv,0.006080
longtim,0.005335
louismari,0.008448
ls,0.006470
lyric,0.005642
m,0.004477
madefortv,0.008587
magnet,0.003674
mail,0.009808
main,0.019818
mainstay,0.005726
maintain,0.004365
major,0.001660
make,0.006367
male,0.017557
man,0.005539
mani,0.004244
mantl,0.005295
march,0.012979
margin,0.003430
mari,0.025316
marin,0.003583
mark,0.002513
market,0.002343
martin,0.003313
massachusett,0.004105
materi,0.002193
mauritiu,0.011376
mbe,0.007390
mean,0.003448
meant,0.006421
meanwhil,0.003785
measur,0.002050
media,0.002871
medic,0.005765
medweb,0.008939
meet,0.005065
member,0.001997
memoir,0.010102
men,0.011611
mention,0.012122
mercantil,0.004949
mercurio,0.007137
messag,0.003890
meteorolog,0.004590
metr,0.008905
mi,0.051312
mid,0.003117
middecemb,0.007101
middl,0.002581
mild,0.004832
mile,0.003638
mint,0.005124
minut,0.003736
miss,0.003948
missionari,0.004432
mitham,0.008939
mix,0.006022
mixedrac,0.006934
mobil,0.003325
moder,0.003586
modif,0.003720
monitor,0.003385
month,0.002765
moorhen,0.008448
mostli,0.002670
mother,0.007215
mountain,0.006735
movement,0.002158
movi,0.004281
mph,0.006027
mr,0.004208
ms,0.004704
mtdna,0.006875
munch,0.008324
munro,0.007343
music,0.010321
mv,0.005882
mysteri,0.004132
nanci,0.005302
nantucket,0.015086
napoleon,0.004269
nare,0.008448
narr,0.008239
nation,0.008673
natur,0.003342
naturalist,0.004264
navi,0.007493
nazi,0.004364
nbc,0.006510
near,0.002573
nearbi,0.003852
nearest,0.010091
nearli,0.005453
necessari,0.002494
necessit,0.005040
need,0.001881
nertera,0.008939
nest,0.009697
netherland,0.003648
network,0.002617
new,0.013983
newslett,0.011214
nightingal,0.059367
noddi,0.007343
noe,0.007723
nomad,0.009672
nomin,0.003267
nonfict,0.005462
nonpatern,0.008587
normal,0.002495
north,0.002485
northern,0.008779
northsouth,0.005796
northwest,0.004281
norwegian,0.004865
notabl,0.002402
note,0.003609
novel,0.017323
novemb,0.008423
nuclear,0.003198
number,0.010962
numer,0.002319
nurs,0.009110
obes,0.005765
obrian,0.015880
observatori,0.004840
occasion,0.003531
occup,0.003261
occupi,0.003138
occur,0.003977
occurr,0.004049
ocean,0.019328
octob,0.005413
oder,0.006340
offer,0.002327
offic,0.020157
oil,0.006249
old,0.002590
oliva,0.007940
onc,0.002339
onli,0.024497
onlin,0.002739
open,0.010715
oper,0.007899
optic,0.003765
order,0.005175
organis,0.005927
origin,0.005204
outcom,0.003200
outlin,0.003047
outpost,0.005454
outsid,0.007164
ovenston,0.008939
overgrown,0.007343
oversea,0.014935
owe,0.007619
pacif,0.003628
packet,0.005726
page,0.027620
pair,0.010007
parti,0.007257
partner,0.003422
pass,0.004863
passeng,0.009315
pastur,0.005871
patch,0.010227
patent,0.004177
path,0.003173
patoislik,0.008939
patrick,0.004533
peak,0.006870
pen,0.005016
penguin,0.018831
pension,0.004349
peopl,0.006903
pereira,0.006665
period,0.007440
perman,0.012134
permit,0.003188
persist,0.003549
person,0.002048
personnel,0.003868
peter,0.005709
petitthouar,0.008448
petrel,0.042827
pharmaci,0.005607
phone,0.008934
photograph,0.012925
physic,0.002048
pick,0.004074
pictur,0.003504
pittsburgh,0.005786
place,0.003540
plain,0.004090
plan,0.004741
plant,0.005435
play,0.002260
pleas,0.004741
pleasant,0.005565
plot,0.003836
poe,0.012547
poem,0.009240
poet,0.004328
point,0.007263
polic,0.013926
polit,0.003929
polperro,0.008939
poor,0.003095
popul,0.028954
popular,0.002239
port,0.003537
portugues,0.007969
possibl,0.001830
post,0.006076
postag,0.005697
potato,0.004768
pound,0.008999
power,0.003674
prais,0.004197
presenc,0.002714
present,0.001794
press,0.010563
prevail,0.003797
prevent,0.007698
primarili,0.007361
primo,0.007176
princ,0.003873
principl,0.002154
print,0.003371
prion,0.006225
prison,0.003809
probabl,0.005151
problem,0.003839
procellaria,0.008939
processor,0.005066
produc,0.001867
program,0.002258
project,0.013326
prompt,0.003929
pronunci,0.004760
properti,0.002173
protagonist,0.005425
provid,0.017519
provis,0.003496
pterodroma,0.008939
public,0.003615
publicli,0.007682
publish,0.009962
pupil,0.009365
purchas,0.003053
pym,0.014513
qualifi,0.007549
quarterli,0.004388
queen,0.022604
r,0.002402
race,0.007053
radio,0.022049
raf,0.005893
rafael,0.005508
rail,0.004517
rainfal,0.004940
raini,0.005952
rallier,0.008939
ran,0.004018
rang,0.004309
raoul,0.006846
rate,0.002224
raymond,0.004679
reach,0.004627
read,0.001977
readi,0.004184
rebuilt,0.005477
receiv,0.002175
recent,0.001971
recept,0.004505
recip,0.005849
recognis,0.003514
recollect,0.005707
record,0.009598
recount,0.010566
recoveri,0.003789
refer,0.004553
refresh,0.006490
refus,0.003322
regular,0.003118
relay,0.005289
releas,0.002845
reliabl,0.003404
relic,0.005669
religion,0.002899
remain,0.003765
remot,0.019271
repetto,0.017497
report,0.015316
repres,0.003735
reprint,0.008756
reput,0.003961
requir,0.001792
rescu,0.004517
research,0.003693
reserv,0.006055
resid,0.018096
respect,0.002165
rest,0.002667
restor,0.003219
result,0.003171
return,0.011520
revenu,0.009963
revisit,0.005264
richard,0.002812
right,0.002042
rm,0.027055
roar,0.006641
robert,0.005006
rock,0.003565
rockhopp,0.039701
roger,0.007635
roman,0.003053
romanc,0.005295
room,0.007385
rose,0.003454
rough,0.009029
roy,0.004668
royal,0.021027
royalti,0.005192
rspb,0.007489
rsri,0.008939
rudimentari,0.005368
rule,0.002078
run,0.002501
russia,0.003345
russian,0.003333
ruy,0.007600
ryan,0.005827
s,0.009687
sail,0.017224
saint,0.060909
salari,0.004210
sale,0.009949
salem,0.006596
salut,0.006323
sampl,0.003392
sandi,0.016770
satellit,0.003972
saturday,0.005688
scene,0.004100
school,0.011581
schooner,0.006966
schreier,0.008324
schrott,0.008939
scienc,0.001914
scientif,0.009163
scope,0.003346
scotland,0.004279
sea,0.026143
seabird,0.012941
seal,0.004269
sean,0.005928
search,0.002913
season,0.014716
second,0.005605
secret,0.003512
seen,0.002233
select,0.004951
sell,0.003220
send,0.007120
septemb,0.005490
septemberoctob,0.007137
sequel,0.005590
serv,0.011330
servant,0.004388
servic,0.017744
set,0.012344
settl,0.006471
settlement,0.019933
settler,0.017135
seven,0.017925
sever,0.006607
shackleton,0.006934
shackletonrowett,0.017879
share,0.004436
shear,0.016045
shearwat,0.016048
sheep,0.009174
shelter,0.004438
ship,0.035532
shop,0.004247
short,0.014564
sight,0.008449
sigmoidoscop,0.008587
similarli,0.003001
simon,0.007613
simpl,0.002517
sinc,0.007921
sister,0.013118
site,0.008006
skeffington,0.008939
skua,0.007723
slang,0.006713
slick,0.007659
slightli,0.003433
small,0.005816
smaller,0.005388
smallest,0.004123
snow,0.004908
social,0.002015
societi,0.003970
sociologist,0.004496
softplumag,0.008939
solar,0.007558
sold,0.003345
sometim,0.006187
son,0.012134
song,0.029413
sonor,0.008024
sooti,0.014687
sourc,0.001992
south,0.039699
southeast,0.003878
southern,0.005881
souvenir,0.006739
soviet,0.003431
space,0.002442
spanish,0.003426
speci,0.014569
special,0.001981
specif,0.001895
spectacl,0.005928
spent,0.003502
sphinx,0.007299
spill,0.005598
spun,0.005952
sq,0.028380
squar,0.026855
squibb,0.007940
sse,0.007343
ssw,0.008939
st,0.017878
staff,0.003735
stage,0.002766
stamp,0.009372
star,0.003513
starchi,0.007343
start,0.002005
state,0.008318
station,0.013845
statu,0.007938
stay,0.006936
steam,0.009437
sterl,0.005264
steven,0.003992
stint,0.007176
stock,0.006113
stoltenhoff,0.008748
stop,0.012520
store,0.006419
stori,0.016058
strau,0.006358
strictli,0.003736
structur,0.001851
studi,0.003348
subantarct,0.007543
subject,0.002015
subsequ,0.004945
subspeci,0.005697
subtrop,0.005765
suez,0.005508
suffer,0.002891
suitabl,0.007034
summer,0.007330
sun,0.003514
sunday,0.005258
sunshin,0.012329
suppli,0.012914
surgeri,0.004467
surnam,0.005736
survey,0.009136
surviv,0.002732
survivor,0.004922
sw,0.006998
swain,0.006875
t,0.002756
tabl,0.003049
talk,0.003409
tape,0.005169
tdcu,0.008748
teacher,0.003630
technician,0.005066
teenag,0.005669
telecommun,0.008260
telegraph,0.004904
telemed,0.008939
telephon,0.004331
televis,0.007142
temperatur,0.009609
temporari,0.003736
temporarili,0.004367
term,0.005988
termin,0.003712
tern,0.007101
territori,0.019412
th,0.007267
theoret,0.002597
therefor,0.002153
thi,0.008295
thing,0.005042
thirteengun,0.008939
thoma,0.002834
thought,0.004491
threaten,0.003602
threeyear,0.015593
thriller,0.006596
thrush,0.007659
thu,0.003704
thursday,0.005952
time,0.014018
titl,0.002844
togeth,0.002184
tommaso,0.006904
ton,0.004296
tongu,0.005295
toni,0.009817
took,0.004950
topsecret,0.008587
toronto,0.004922
total,0.006632
tour,0.004571
tourism,0.007371
town,0.013014
trace,0.006076
trade,0.002292
tradit,0.001995
tramp,0.007489
transit,0.002758
translat,0.002727
transmitt,0.005440
transport,0.008148
transvaal,0.007176
travel,0.002797
treasuri,0.004210
trewartha,0.008939
trigg,0.014979
trip,0.004378
trista,0.008939
tristan,0.633206
tristo,0.015446
tropicali,0.008115
trstn,0.008115
true,0.002565
tuesday,0.006323
twice,0.003776
twopart,0.006431
twostorey,0.008115
uboat,0.006510
uk,0.011616
ultrasound,0.005765
umbra,0.008024
unabl,0.003292
unafford,0.007256
unauthoris,0.006641
undertaken,0.008165
undisput,0.005964
uninhabit,0.020025
uninterrupt,0.005952
union,0.007063
uniqu,0.002701
unit,0.011186
univers,0.003281
unknown,0.003280
unless,0.003550
unnam,0.005893
unreli,0.005076
unusu,0.003841
updat,0.003838
upwel,0.006875
use,0.012946
usual,0.003813
valuabl,0.003719
vanish,0.004647
variou,0.005411
vaz,0.007343
ventur,0.004172
veri,0.005428
vern,0.013478
verysmallapertur,0.008939
vessel,0.007714
vest,0.004155
victoria,0.004657
video,0.003487
villag,0.003620
visit,0.035015
visitor,0.004333
voic,0.003776
volcan,0.022728
volcano,0.014058
vote,0.006009
voyag,0.013001
vulner,0.004029
w,0.007975
wa,0.046768
war,0.006752
warmest,0.007343
wartim,0.005045
wasp,0.006027
water,0.009776
way,0.003388
weak,0.003147
wealth,0.003262
weather,0.019426
websit,0.002996
week,0.009990
weekli,0.004700
wender,0.008587
went,0.002906
westerli,0.006413
wet,0.004730
whale,0.019743
whaler,0.006241
wherea,0.002749
whilst,0.004092
whitbi,0.007489
whitehal,0.007215
wider,0.003607
widmark,0.008939
wild,0.004064
wildlif,0.013544
william,0.002538
wim,0.007101
winchest,0.013478
wind,0.015057
wing,0.004313
winter,0.007852
woman,0.003955
women,0.012061
wool,0.005186
work,0.007766
world,0.014457
worldwid,0.003214
wreck,0.005660
write,0.004954
writer,0.003251
written,0.007525
wrote,0.008098
wwwtristandccom,0.008939
xray,0.008642
xsri,0.008939
yacht,0.006040
yarmouth,0.007940
year,0.020787
yellownos,0.008939
yhaplogroup,0.008587
young,0.002941
zamel,0.008939
zdz,0.008214
zealand,0.007534
zinni,0.008939
zoolog,0.004783
zz,0.006904
