abandon,0.008039
abhorr,0.009488
abl,0.002718
academi,0.004145
access,0.002977
acclaim,0.006492
accomplish,0.004325
account,0.005069
accuraci,0.009334
accus,0.004315
achiev,0.002707
acrimoni,0.008053
act,0.002459
activ,0.002147
actual,0.002754
adam,0.008734
adapt,0.003426
adher,0.004353
admir,0.015297
admit,0.004538
adolesc,0.006261
ador,0.016168
affect,0.002812
affin,0.005287
age,0.013475
agit,0.006399
agreeabl,0.007298
al,0.003691
align,0.004649
alleg,0.004449
allevi,0.005745
alongsid,0.004475
alreadi,0.009405
alway,0.005787
amidst,0.006831
analysi,0.002594
ancient,0.006235
andrew,0.004370
ani,0.001896
anim,0.003012
anoth,0.004139
antagon,0.006592
anticip,0.004786
antireligion,0.009588
antisemit,0.006939
antoninu,0.008622
anxieti,0.005711
anyth,0.004253
appar,0.007347
appear,0.002492
applaud,0.008084
approach,0.002476
approv,0.003696
approx,0.006977
approxim,0.002932
aptitud,0.007332
archetyp,0.006305
archiv,0.003960
argument,0.003615
arm,0.003431
arnaldo,0.008622
articl,0.005115
artist,0.004516
asimov,0.007157
asset,0.003978
assist,0.003208
assum,0.002981
atmospher,0.004215
attach,0.004074
attack,0.003469
attempt,0.004909
auction,0.006197
audiobook,0.006721
august,0.006540
aunt,0.014805
author,0.007269
autobiographi,0.039005
automat,0.004393
autonomi,0.004496
autumn,0.005726
away,0.003278
b,0.008551
backbench,0.009816
backlash,0.007098
baker,0.005824
baltimor,0.012672
ban,0.004335
bandwagon,0.008622
barbar,0.014842
barbarian,0.006753
barefoot,0.008529
bath,0.006042
baustein,0.011321
bayl,0.008402
becam,0.004743
becaus,0.001953
beckford,0.010455
becom,0.004154
beer,0.012012
befor,0.004432
began,0.002591
believ,0.002683
benignli,0.011321
bentinck,0.010961
berghahn,0.009153
berkeley,0.005067
bernard,0.005054
besid,0.004439
better,0.002926
bibliographi,0.011321
bicentenari,0.027460
biograph,0.017678
biographi,0.040041
birthday,0.006367
bishop,0.005310
bit,0.005277
blais,0.006680
bliss,0.007157
block,0.003865
bloom,0.006432
bn,0.006466
board,0.003743
book,0.022195
born,0.003665
bossuet,0.009588
boston,0.004784
bowersock,0.032048
boyd,0.007127
brand,0.005244
break,0.003576
bretagn,0.011321
brian,0.010615
british,0.002897
broke,0.004449
brother,0.004351
bubbl,0.005439
buri,0.005131
burk,0.032638
burrow,0.027707
burt,0.008084
busi,0.002925
byelect,0.007709
c,0.002483
caesar,0.006432
california,0.003980
calvin,0.006474
cambridg,0.027535
camden,0.008622
came,0.008524
canton,0.006977
capitol,0.008251
capitolin,0.008950
care,0.006529
career,0.004263
carnochan,0.011321
case,0.006518
cassel,0.007732
castl,0.005892
categor,0.004417
catherin,0.006190
cathol,0.004196
catholic,0.005824
caus,0.004639
celebr,0.008958
centuri,0.008926
certainli,0.004960
cf,0.005860
chain,0.003882
chapter,0.012151
charact,0.003591
charg,0.003353
chatter,0.008486
chatto,0.017778
chicago,0.012707
child,0.004174
chivalri,0.008115
christian,0.023576
christma,0.006123
chronic,0.005341
chronolog,0.005182
church,0.015707
churchil,0.019347
churchinspir,0.011321
cicero,0.006474
citi,0.018008
civil,0.005962
claim,0.007914
classic,0.008614
cleric,0.006290
closefit,0.010455
closer,0.004300
cloth,0.004543
club,0.010080
coincid,0.009350
collaps,0.003828
colleg,0.011318
comfort,0.011042
commit,0.003643
common,0.004203
commonli,0.002886
commot,0.009396
companion,0.005013
compart,0.006786
complet,0.012003
compos,0.006595
comprehens,0.011486
conceiv,0.004564
concept,0.002425
concern,0.002440
condemn,0.004895
condit,0.014592
conserv,0.003450
consid,0.008108
consider,0.002921
constant,0.003455
constitut,0.005489
consum,0.003461
contact,0.003647
contemporari,0.006800
content,0.003429
continu,0.002106
contribut,0.002551
controversi,0.003425
convers,0.007172
convert,0.003543
conyer,0.009396
cool,0.004869
cornel,0.005497
cornwal,0.007332
corrupt,0.004267
cotter,0.009948
countri,0.004575
coupl,0.004022
courtesi,0.007477
cousin,0.005716
cover,0.002861
craddock,0.053414
crassi,0.011321
creation,0.003164
credibl,0.005409
credul,0.008671
creed,0.006700
cribbin,0.011321
crime,0.004312
crimin,0.004403
critic,0.010227
criticis,0.005116
cromoh,0.010961
cruelti,0.007043
cultur,0.002613
curchod,0.033963
curios,0.006211
cut,0.007380
cypru,0.005794
cyren,0.007756
d,0.005628
daedalu,0.008622
daniel,0.004323
date,0.008715
daughter,0.004770
davi,0.015120
david,0.033966
day,0.010492
deactiv,0.007384
dead,0.004357
dearborn,0.008722
death,0.015222
decemb,0.009569
declar,0.003357
declin,0.046205
declineandfallresourcescom,0.011321
dedic,0.004175
deepli,0.004908
definitivewhatev,0.011321
degli,0.008831
deism,0.007265
deist,0.007965
delay,0.004439
democrat,0.003405
deni,0.008059
depend,0.002293
descend,0.004207
describ,0.006418
descript,0.003177
despair,0.007127
destruct,0.004114
detractor,0.007070
deutschen,0.008363
develop,0.001738
devour,0.007367
deyverdun,0.045284
di,0.005409
dickinson,0.007756
dictionari,0.016857
did,0.005160
die,0.019983
dinner,0.006926
dire,0.007084
disagr,0.004943
disallow,0.007332
disappear,0.004419
disapprov,0.006518
discomfort,0.007070
discov,0.006122
disdain,0.007556
diseas,0.003641
disfigur,0.008889
disinherit,0.010455
dismiss,0.004631
dispers,0.004770
disrespect,0.007937
dissembl,0.010262
distanc,0.003701
distinguish,0.003086
distract,0.006239
doctrin,0.012505
domain,0.003394
domin,0.002860
dominion,0.005936
doubt,0.004486
dr,0.008625
draft,0.004486
draw,0.003563
drawn,0.004102
dream,0.005018
dure,0.002000
duti,0.008272
dwelt,0.009396
e,0.005633
eagerli,0.007909
earli,0.012559
earliest,0.003498
earnest,0.006601
easili,0.003585
east,0.003217
echard,0.010095
ed,0.043945
edit,0.009826
edmund,0.010649
edward,0.171319
effect,0.002033
egypt,0.004419
eighteenth,0.005348
eighteenthcenturi,0.007157
einer,0.008148
elabor,0.004354
elder,0.005142
elect,0.003086
elector,0.004489
eliot,0.014114
elizabethan,0.007536
elliot,0.007315
eloqu,0.007384
elud,0.007780
embark,0.005882
emot,0.012897
empir,0.046722
encyclopedia,0.007208
end,0.006864
endeavour,0.012084
endur,0.005107
enemi,0.004677
england,0.021788
english,0.020402
enjoy,0.007968
enlighten,0.022848
enrich,0.010955
enrol,0.005754
ensu,0.005116
enter,0.003059
entir,0.005428
entri,0.004048
epigram,0.008671
equal,0.002849
erasmu,0.006831
erudit,0.008486
essai,0.015283
essay,0.012166
establish,0.002233
estat,0.013365
esteem,0.006890
et,0.003597
etern,0.005290
ether,0.006500
europ,0.002837
evelyn,0.007249
event,0.002723
eventu,0.005948
everlast,0.007805
evid,0.002853
exampl,0.001874
exceed,0.004394
excori,0.010455
exercis,0.007191
exist,0.002081
expect,0.002875
explan,0.003683
express,0.002711
extend,0.002760
extens,0.005652
extent,0.003443
extern,0.001636
extrem,0.003001
eye,0.004183
fabric,0.005235
face,0.003141
fact,0.005314
fail,0.006293
faith,0.008367
fall,0.039992
fals,0.004244
fame,0.016527
famou,0.006914
fanat,0.007856
far,0.002837
fashion,0.013214
father,0.029434
februari,0.010200
fell,0.004041
fellow,0.009463
ferguson,0.006820
ferney,0.010961
fierc,0.005754
fifteenth,0.006527
figur,0.003099
final,0.018948
financ,0.003316
financi,0.002987
finish,0.014446
firenz,0.009488
fitzroy,0.007619
fletch,0.020191
flop,0.009309
fluid,0.004411
follow,0.008950
footnot,0.005578
forc,0.002243
forget,0.006247
forgiv,0.006843
forum,0.004596
foundat,0.008754
fountainhead,0.009014
fr,0.011050
franc,0.006407
franklin,0.005119
free,0.005112
freedom,0.003532
freemason,0.008529
french,0.015058
frenchlanguag,0.009948
fret,0.008889
friend,0.022223
friendship,0.011115
fruit,0.004434
fryar,0.011321
fulli,0.006747
furiou,0.008148
futur,0.005451
g,0.021191
gain,0.002722
gardeni,0.011321
garland,0.007187
gavin,0.007402
gener,0.004824
gentleman,0.007332
gentlemancommon,0.011321
geoffrey,0.005850
georg,0.003225
german,0.003160
ghosh,0.043357
giant,0.004893
gibbon,0.873533
given,0.002244
gk,0.008181
glori,0.006298
goal,0.003078
godalm,0.011321
goeth,0.007113
golden,0.004534
goldsmith,0.006808
good,0.009951
goodal,0.008443
gospel,0.006290
govern,0.004256
grace,0.005898
grammar,0.005566
grand,0.021734
grandeur,0.008575
grandfath,0.006415
grasp,0.005583
great,0.015132
greatli,0.003664
griev,0.007937
grotiu,0.008181
grott,0.009697
grove,0.006492
guid,0.006328
guidanc,0.005045
gutenberg,0.017982
ha,0.010445
half,0.003080
hall,0.004245
hampshir,0.006890
handsom,0.007993
happi,0.004948
harper,0.005764
harrison,0.006391
harsh,0.005324
harvard,0.004372
hb,0.092790
hcg,0.009588
head,0.002888
health,0.009359
heavili,0.003607
heidelberg,0.006775
helena,0.006902
henri,0.007213
heritag,0.004577
hero,0.005307
hi,0.148481
histor,0.017596
histori,0.063372
historia,0.006424
historian,0.056563
historiographi,0.017038
holi,0.009476
holroyd,0.032885
home,0.003195
honorari,0.005769
hopkin,0.011026
horac,0.006700
horrid,0.009309
hour,0.003932
hous,0.009005
howel,0.008251
howev,0.009080
ht,0.007556
hudson,0.006399
hugo,0.005697
human,0.006468
humankind,0.006204
humbl,0.007127
hume,0.005824
hydrocel,0.010682
idea,0.010046
idl,0.006536
ii,0.005857
iii,0.004279
il,0.006239
illinoi,0.005477
illsuit,0.010095
im,0.005914
imagin,0.004473
immedi,0.006579
immens,0.005377
impact,0.003066
impart,0.006313
impati,0.008053
implac,0.008775
import,0.003817
impos,0.003848
improv,0.002753
includ,0.006213
increas,0.002151
independ,0.002298
indiffer,0.006183
indol,0.008575
infanc,0.006732
infidel,0.015197
inflamm,0.006914
influenc,0.012324
influenti,0.003599
inherit,0.004149
initi,0.004862
inquiri,0.004463
insist,0.004565
insofar,0.006197
institut,0.002368
insurrect,0.006564
intellectu,0.003839
intent,0.003765
internet,0.003671
intervent,0.004060
intoler,0.006518
intox,0.007641
introduc,0.002625
introduct,0.002966
invari,0.004948
invent,0.003641
investig,0.003135
involv,0.002169
inward,0.006383
iron,0.004007
ironi,0.014597
ironist,0.011321
isaac,0.004843
isbn,0.050263
ithaca,0.007070
iv,0.009714
j,0.028103
jacqu,0.010382
jacquesbnign,0.011321
jame,0.003156
januari,0.009580
jesuit,0.006268
jew,0.005261
jewish,0.004639
jga,0.019633
john,0.020362
johnson,0.005113
join,0.009985
jordan,0.005639
joseph,0.011062
journal,0.014391
journey,0.005200
joy,0.006066
jr,0.004753
judith,0.006775
june,0.019561
jupit,0.006407
just,0.002609
kelli,0.006407
keyn,0.006190
kingston,0.014955
kinzel,0.011321
kitti,0.008023
knowledg,0.002814
known,0.005609
la,0.014939
labour,0.007575
lactantiu,0.009082
ladi,0.005959
laid,0.004222
lardner,0.010682
larg,0.001971
late,0.007770
later,0.020025
latin,0.003516
laurenc,0.006854
lausann,0.043792
lead,0.002232
learn,0.003142
leav,0.006336
led,0.002414
lee,0.005087
left,0.008947
leg,0.005553
legaci,0.004704
legion,0.006601
leisur,0.006137
leskeard,0.011321
lesli,0.025283
letter,0.018465
level,0.002237
levin,0.026074
lewi,0.004695
librari,0.010544
librivox,0.006890
life,0.026454
lightli,0.007265
like,0.005994
lime,0.006690
line,0.002677
link,0.003253
liskeard,0.022642
list,0.002080
literari,0.028150
literatur,0.010027
litterair,0.022642
litteratur,0.011321
littl,0.008589
littratur,0.010095
live,0.002418
local,0.002533
lock,0.004845
lodg,0.006351
lofti,0.007598
london,0.040951
lone,0.006415
look,0.006177
lord,0.039851
lost,0.009753
loui,0.004221
love,0.004441
lover,0.006601
low,0.005734
ltude,0.020524
luci,0.007157
lucid,0.007641
lumin,0.007113
luminari,0.008023
lye,0.009014
lymington,0.011321
lynn,0.006328
lyttelton,0.011321
m,0.010702
ma,0.004725
madam,0.007856
magdalen,0.008529
main,0.002368
major,0.001984
make,0.003804
maladi,0.008215
mallet,0.008775
man,0.009929
mani,0.003381
map,0.003422
march,0.006204
mari,0.004321
marionnett,0.011321
mark,0.003003
market,0.002800
marriag,0.004729
martin,0.007919
massacr,0.005454
master,0.003992
matthew,0.005424
mausoleum,0.007965
mckitterick,0.021923
md,0.005537
mean,0.002060
medicin,0.003566
melancholi,0.008251
member,0.002386
memoir,0.024144
memor,0.018634
memori,0.003891
men,0.003468
mere,0.003680
met,0.003825
method,0.006950
michigan,0.005398
middl,0.003084
middleton,0.032593
militia,0.011578
mind,0.014111
minist,0.006750
ministri,0.004022
minut,0.004465
miracul,0.007157
miscellan,0.006500
model,0.004660
modern,0.006731
moment,0.004256
momigliano,0.019633
monograph,0.005839
month,0.003305
morison,0.009396
mother,0.017244
mount,0.004361
movement,0.002579
mr,0.005029
muhammad,0.005373
murray,0.016229
muse,0.006914
mute,0.007993
narr,0.014768
nascent,0.006276
nathaniel,0.007113
nation,0.010364
nativ,0.003866
natur,0.003994
nd,0.003480
near,0.003075
necker,0.008722
neglect,0.004893
neoclassic,0.008363
nero,0.008023
new,0.010025
night,0.009177
nod,0.008215
norman,0.005270
north,0.005940
norton,0.011659
note,0.010784
notion,0.003539
notorieti,0.007965
novel,0.004140
novemb,0.016776
numer,0.002771
nurs,0.005443
ny,0.005413
obey,0.005338
object,0.005114
obscur,0.005182
observ,0.002468
occasion,0.004220
octob,0.006469
offici,0.002840
old,0.003095
oliv,0.005304
onc,0.002795
onli,0.008610
onlin,0.009822
open,0.002561
oper,0.002359
opinion,0.003976
opposit,0.003078
organis,0.003541
origin,0.006219
otherwis,0.003558
outrag,0.006440
overli,0.005988
overpaid,0.009309
oversaw,0.006457
overse,0.005578
owe,0.004552
oxford,0.052722
p,0.014278
page,0.007334
panorama,0.007577
pari,0.004090
parliament,0.007545
parson,0.006939
parti,0.005781
pascal,0.005819
passag,0.004456
past,0.002967
pastor,0.011818
patricia,0.025797
patron,0.005726
paul,0.009755
pavillard,0.011321
pb,0.037186
penchant,0.008084
penguin,0.005626
perhap,0.010432
period,0.008891
periton,0.008775
peter,0.017055
phenomenon,0.003852
philosoph,0.003283
physic,0.002447
piec,0.004131
pierr,0.004815
pilgrimag,0.006592
piquant,0.010455
piu,0.007084
place,0.002115
plagiar,0.007516
playwrightpoet,0.011321
pleasur,0.005562
pm,0.005665
pocock,0.075625
point,0.002169
polit,0.007043
portchest,0.011321
porten,0.010961
porter,0.012626
posit,0.004434
possibl,0.004375
power,0.004390
practic,0.002295
prais,0.020063
precari,0.006951
preced,0.004064
premier,0.005370
present,0.004289
press,0.047969
prestigi,0.006098
previou,0.003234
pride,0.005903
priestley,0.007084
primari,0.008494
prime,0.003446
print,0.004028
probabl,0.003078
problem,0.002294
procedur,0.003735
proceed,0.007851
process,0.002027
produc,0.004463
product,0.006707
professor,0.003833
profit,0.003706
progress,0.005847
project,0.010617
promptli,0.006611
properti,0.002597
propos,0.005293
prose,0.006066
protestant,0.006866
prove,0.003310
provok,0.005489
pub,0.006415
public,0.010801
publish,0.014285
pufendorf,0.009309
puni,0.008950
pursuit,0.004836
purveyor,0.009396
putney,0.009488
qualiti,0.003196
quarrel,0.006977
question,0.002693
quinault,0.019896
quit,0.007250
quotat,0.005697
r,0.022964
race,0.004214
rang,0.002575
rapid,0.007435
raptur,0.008443
rationalist,0.006204
reach,0.002764
read,0.014177
reason,0.004883
receiv,0.002599
recit,0.006211
reconvert,0.008775
record,0.005735
recoveri,0.004529
reduc,0.002577
refer,0.005441
reflect,0.008771
reform,0.003327
refus,0.003970
regain,0.005225
regard,0.005220
reign,0.004704
reject,0.003353
rel,0.002439
relief,0.004850
religi,0.006950
religion,0.013860
reluct,0.005545
remain,0.009000
remark,0.004172
rememb,0.004994
reminisc,0.006545
remov,0.003141
render,0.004461
repeatedli,0.004841
repli,0.005595
repr,0.026668
repres,0.002231
reprint,0.005232
reput,0.009467
rescu,0.005398
reserv,0.003618
resid,0.007208
resolv,0.003951
result,0.003790
retali,0.005971
retriev,0.012125
retrospect,0.005988
return,0.019273
reunit,0.006313
review,0.009144
revolut,0.010110
reward,0.004706
rewrit,0.006367
rezeptionsgeschicht,0.011321
richard,0.003360
ridiculousthi,0.011321
right,0.004882
rise,0.002737
robert,0.002991
robertson,0.006440
rode,0.008115
roger,0.004562
roman,0.062038
romanc,0.012657
rome,0.027870
romish,0.010682
romulu,0.008671
row,0.005261
roy,0.005578
royal,0.010768
ru,0.006990
rudiment,0.008575
ruin,0.010819
run,0.002989
sacr,0.005209
said,0.002795
sail,0.005145
sale,0.003963
samuel,0.004836
sat,0.006440
satisfi,0.004035
savag,0.006415
say,0.005895
scath,0.008215
scholar,0.003454
scholarship,0.004864
school,0.008303
scrotal,0.009948
scrotum,0.008950
sea,0.003471
search,0.003482
seat,0.004025
second,0.006698
secondari,0.007748
secondhand,0.007856
section,0.003370
secular,0.004708
selfimpos,0.008363
sens,0.002799
sent,0.011312
sentiment,0.005287
septemb,0.003280
seri,0.002710
serv,0.002708
servil,0.008148
set,0.008429
settl,0.003866
seven,0.007140
sever,0.011843
share,0.002651
sheffield,0.079746
shock,0.004651
short,0.002900
shortcom,0.006344
shortli,0.004234
shown,0.003280
sibl,0.006466
sidney,0.006554
sigh,0.009014
silent,0.005639
sinc,0.003786
sing,0.006268
sir,0.012821
sister,0.005225
situat,0.002915
sleepless,0.009488
smith,0.008023
sober,0.007536
social,0.004817
societi,0.009488
sojourn,0.008287
solitud,0.007965
sometim,0.002464
son,0.010875
soon,0.010416
sorrow,0.014564
soul,0.004888
sourc,0.007144
south,0.005930
special,0.002368
specif,0.002265
spell,0.005225
spill,0.006690
spoke,0.005225
spot,0.004740
sprachraum,0.009588
spread,0.010040
spring,0.004270
st,0.018313
stal,0.009697
stanford,0.017592
start,0.002396
starv,0.006786
statement,0.003475
staunch,0.014284
stay,0.008288
step,0.003210
stephen,0.021029
stipul,0.005726
stobart,0.011321
stock,0.003652
stoke,0.006764
stood,0.005093
stori,0.007676
strain,0.004706
street,0.004320
strong,0.002751
studi,0.020009
style,0.019506
subject,0.004817
subscrib,0.005920
subsequ,0.002954
substanti,0.003514
subtract,0.005824
succeed,0.003870
success,0.002510
succumb,0.006820
suffer,0.003455
suggest,0.002650
summer,0.004380
summerhous,0.011321
supernatur,0.005501
superstit,0.006554
superstitionth,0.011321
supplant,0.006048
supplement,0.009375
support,0.006753
suppos,0.004160
sur,0.012158
surrey,0.008084
sussex,0.014284
suzann,0.007663
svec,0.010455
swain,0.008215
sway,0.006336
swell,0.012508
switzerland,0.038822
t,0.003294
tacitu,0.007756
taken,0.002772
tast,0.010628
templ,0.005005
tempt,0.014467
tend,0.003109
testi,0.008775
testicl,0.008324
text,0.003266
th,0.004342
thame,0.014664
themselv,0.002808
theolog,0.004615
theologian,0.005600
thereaft,0.004950
thi,0.009913
think,0.003283
thinli,0.008363
thorough,0.005679
thought,0.005366
threat,0.003971
threaten,0.004305
throw,0.005814
thwart,0.006711
time,0.013401
timeless,0.007477
took,0.008873
torrent,0.008722
tour,0.010924
town,0.003888
tract,0.005398
transept,0.009697
transform,0.009298
translat,0.009778
travel,0.003343
treacher,0.008148
treat,0.003315
tri,0.002980
tribe,0.004661
trilog,0.006640
triumph,0.011785
triumphantli,0.009153
trod,0.010682
true,0.003065
truth,0.012085
tulli,0.009396
turn,0.002617
turnbul,0.017245
tutelag,0.007830
twelv,0.004994
twentyf,0.006902
twothird,0.005188
twovolum,0.007598
type,0.002276
ultim,0.003274
underw,0.005493
une,0.007172
unimpeach,0.010961
univ,0.006415
univers,0.033337
universit,0.007218
universittsverlag,0.009396
unless,0.004242
unlik,0.003153
unnecessarili,0.007298
unprofit,0.007315
unremit,0.009153
unsurpass,0.008443
unsuspect,0.008443
unusu,0.004590
upheld,0.006630
upongibbon,0.010961
urbana,0.008622
urg,0.004997
usa,0.004227
use,0.004641
utter,0.006239
utterli,0.007057
v,0.006752
vacanc,0.007084
valid,0.003615
valu,0.002426
variou,0.002155
vast,0.007604
verdict,0.007218
veri,0.004324
veriti,0.009082
vesper,0.009309
vi,0.005384
view,0.002426
viewpoint,0.004984
vindic,0.021516
vision,0.004101
visit,0.007608
vivid,0.006939
vividli,0.008402
vol,0.044761
voltair,0.027014
volum,0.029189
von,0.003840
vow,0.006660
w,0.015884
wa,0.080727
wait,0.005133
walpol,0.008775
war,0.002689
ward,0.005794
warfar,0.004802
warm,0.009677
watchmen,0.018792
watson,0.005643
waugh,0.017662
way,0.004048
wealth,0.003899
wedlock,0.009309
week,0.003979
wellknown,0.004444
werther,0.010262
westminst,0.006313
whatsoev,0.006509
whig,0.007172
white,0.003594
wide,0.002438
wife,0.004881
william,0.009101
windu,0.018792
winston,0.006383
winter,0.004691
wish,0.008372
woddeson,0.011321
woman,0.004727
womersley,0.119379
word,0.002628
work,0.024130
world,0.005758
worri,0.005578
worsen,0.005652
worst,0.005222
write,0.035524
writer,0.007771
wrote,0.019355
xicvi,0.011321
xv,0.007016
xvi,0.013381
year,0.028662
yield,0.003698
york,0.014580
young,0.014062
youth,0.004775
