abl,0.007398
absolut,0.029803
action,0.014393
actual,0.014992
address,0.017640
adher,0.011847
advanc,0.014468
aesthet,0.028410
afterlif,0.143329
afterworld,0.058150
age,0.007335
aggreg,0.012386
agnost,0.018561
altern,0.030104
analyz,0.019690
ancient,0.008486
ani,0.005161
anim,0.024594
anoth,0.022533
anticip,0.052106
anticipatori,0.023884
antonio,0.015253
anymor,0.019775
appar,0.009998
appli,0.006261
architectur,0.033143
area,0.005817
argu,0.015583
arriv,0.009428
art,0.071683
arthur,0.011948
artist,0.024584
assist,0.008733
assumpt,0.029936
astrolog,0.016944
atheist,0.015980
attempt,0.026723
attitud,0.012024
auguri,0.026717
augustin,0.047187
author,0.013189
autumn,0.015584
await,0.017484
away,0.008922
background,0.010059
backward,0.014567
bad,0.024030
base,0.020414
baseless,0.024718
beauti,0.013418
becaus,0.005316
befor,0.006031
began,0.007052
begin,0.006886
behavior,0.024853
belief,0.047269
believ,0.087653
bend,0.016511
benefit,0.008570
best,0.007783
better,0.007964
block,0.010520
bodi,0.007086
book,0.040272
box,0.013239
broad,0.009485
broadli,0.011822
brother,0.011843
buddhism,0.043144
buddhist,0.042615
build,0.014946
busi,0.007961
calvinist,0.020099
car,0.012498
card,0.013439
case,0.005914
categor,0.012024
caus,0.012626
causal,0.013169
central,0.013261
centuri,0.024295
ceram,0.016632
certain,0.012948
challeng,0.008449
chang,0.026663
chaotic,0.016204
charact,0.009774
christian,0.018333
cinema,0.015880
circumst,0.010866
claim,0.028721
classic,0.015630
close,0.006329
coalesc,0.017351
cognit,0.011214
combin,0.006745
come,0.020297
commerci,0.018126
common,0.022880
commonli,0.007856
compat,0.013572
compon,0.008147
compos,0.008975
comprehens,0.010420
compress,0.014605
concept,0.026408
concern,0.006641
conclus,0.010541
condit,0.006619
conduct,0.016216
cone,0.033406
confus,0.010648
conjunct,0.013220
connect,0.007789
consciou,0.013989
consequ,0.008044
consid,0.044138
consider,0.007950
consist,0.006331
constitut,0.007469
constru,0.018154
construct,0.014652
contain,0.006786
contend,0.013637
context,0.008322
continu,0.011464
contrari,0.024742
cosmic,0.014473
countri,0.006225
creat,0.005786
creation,0.017222
critic,0.006959
crosssect,0.017622
cultur,0.042680
current,0.012113
cyberpunk,0.045523
cycl,0.009698
cyclic,0.029387
data,0.007550
day,0.007139
death,0.041429
debut,0.018818
deceas,0.016793
decis,0.007976
decisionmak,0.013637
declar,0.009137
deeproot,0.025119
defin,0.012985
degre,0.007747
deliber,0.012664
delphi,0.021836
depend,0.006242
depict,0.023601
deriv,0.014386
describ,0.005823
design,0.027795
desir,0.008903
despair,0.019399
despit,0.008022
destini,0.016849
destruct,0.011197
determin,0.006570
develop,0.018925
devot,0.011182
die,0.018129
differ,0.025077
dimens,0.021770
disciplin,0.034870
discredit,0.016461
distinct,0.014572
distinguish,0.008399
divin,0.037749
dj,0.020680
doe,0.032006
domain,0.009239
domin,0.007785
drama,0.015980
dramat,0.010684
draw,0.009698
dub,0.015218
durat,0.013473
dure,0.016337
earli,0.011393
earn,0.010705
earth,0.017884
earthquak,0.014427
econometr,0.016757
economist,0.010693
edg,0.012426
edgard,0.030812
effect,0.005533
effort,0.023664
element,0.021732
elucid,0.015852
elud,0.021176
elus,0.019060
emerg,0.007299
emot,0.011700
emphas,0.009996
emphasi,0.010331
employ,0.007555
empti,0.027158
encompass,0.031989
end,0.062275
energi,0.007973
england,0.009883
entir,0.007387
entiti,0.009664
era,0.008999
eschatolog,0.078924
esoteric,0.022002
especi,0.006613
espous,0.016173
essenti,0.007917
establish,0.006078
estim,0.016030
etern,0.057598
ethologist,0.022656
event,0.066710
everi,0.007127
everyth,0.011341
evid,0.007767
evolv,0.009349
examin,0.008914
exampl,0.020404
exclud,0.010715
exist,0.084959
expand,0.016114
experi,0.014008
explor,0.026035
express,0.007379
extend,0.015025
extens,0.015383
eye,0.011386
fabric,0.028497
factor,0.014443
fantasi,0.016128
far,0.007723
faster,0.011882
fasterthanlight,0.022869
featur,0.007702
fiction,0.133632
fictiti,0.018323
field,0.012440
figur,0.016870
film,0.011551
final,0.007367
fix,0.009040
flow,0.017939
folklor,0.017101
footnot,0.015183
forc,0.006104
forecast,0.201284
foresight,0.039550
forev,0.016235
form,0.018622
forward,0.021623
fourth,0.010626
frame,0.011639
fraught,0.021243
freedombring,0.030812
ft,0.013311
futur,0.667634
futurist,0.207375
futurolog,0.049825
gain,0.007409
galilean,0.018852
game,0.010451
gastronomi,0.024534
gener,0.035012
genr,0.043144
gestur,0.016849
ghostlik,0.030812
gift,0.013747
glass,0.013425
glorifi,0.020567
god,0.042640
good,0.006771
govern,0.005791
graphic,0.013100
graviti,0.013278
greatest,0.010718
group,0.005494
grow,0.007810
ha,0.020306
half,0.025151
happen,0.009626
haruspici,0.029075
heavenli,0.017245
heinlein,0.020299
held,0.007201
henc,0.009503
hg,0.018785
hidden,0.013412
high,0.012334
hinduism,0.014644
histori,0.045656
historian,0.010263
hold,0.007336
hole,0.013862
holist,0.015649
homag,0.020099
honegg,0.030812
hope,0.051849
horizon,0.044538
human,0.023471
humor,0.016494
hygienemilitar,0.030812
hyperconcis,0.030812
hypothet,0.013695
idea,0.027343
ideal,0.009910
identifi,0.014725
imag,0.009378
imagin,0.012176
imaginari,0.015951
imit,0.028817
immedi,0.008953
impact,0.008346
impli,0.009468
import,0.015583
imposs,0.010298
incessantli,0.023339
includ,0.054964
incompat,0.015520
incorpor,0.008363
independ,0.006255
india,0.009324
indian,0.010082
individu,0.006282
industri,0.013903
inevit,0.013418
influenc,0.013416
influenti,0.009795
inform,0.006055
inher,0.011672
insight,0.011297
instanc,0.016496
instrument,0.018756
interdisciplinari,0.012519
interior,0.011952
interpret,0.008125
intonarumori,0.030812
intuit,0.013032
investor,0.011603
involv,0.011808
islam,0.010138
issu,0.013071
itali,0.021921
italian,0.011428
jame,0.008589
judgment,0.025814
just,0.007101
kaku,0.025119
karma,0.036589
key,0.007750
knife,0.019687
know,0.009227
known,0.010177
labour,0.010309
larg,0.016099
latin,0.009570
law,0.012268
lay,0.011458
lead,0.012150
leader,0.008903
learn,0.008553
legendari,0.016944
length,0.010102
life,0.058909
light,0.025184
like,0.038071
likelihood,0.014120
limit,0.012437
line,0.007287
linear,0.032502
list,0.005661
liter,0.011708
literari,0.025538
literatur,0.027291
littl,0.007793
loath,0.023339
locomot,0.017308
logic,0.009854
long,0.006611
longer,0.016795
longitudin,0.017308
lorentzianeinsteinian,0.030812
love,0.024175
luigi,0.036309
machin,0.019662
maintain,0.007099
major,0.021607
make,0.010355
malu,0.024035
man,0.009008
manag,0.007292
mani,0.055224
manifesto,0.048159
manner,0.009826
map,0.009314
marinetti,0.027930
market,0.007621
materi,0.007134
materialistreductionist,0.030812
mean,0.028036
media,0.009339
medium,0.011607
member,0.006496
messiah,0.020099
messian,0.019956
metaphor,0.014318
metaphys,0.026053
method,0.018917
michio,0.023601
mind,0.019203
minor,0.009422
model,0.025368
modern,0.042749
monolith,0.038798
mostli,0.008686
movement,0.049145
movi,0.013925
music,0.067139
mystic,0.015016
myth,0.013002
nanotechnolog,0.016511
natur,0.027177
near,0.016742
neglig,0.015149
neofutur,0.027930
new,0.009095
nois,0.029040
noncontroversi,0.026393
nonsens,0.017552
nontheist,0.020680
notion,0.019265
novel,0.022537
numer,0.007543
object,0.027840
observ,0.026879
obsess,0.017865
occident,0.022360
occur,0.006468
onli,0.028120
oper,0.006423
opinion,0.021642
oppos,0.008508
opposit,0.025132
optim,0.064795
optimist,0.017162
order,0.005610
ordinari,0.022205
organ,0.011107
organis,0.009639
origin,0.011284
outcom,0.052045
outlook,0.029192
outsid,0.007767
overlap,0.011316
owe,0.012391
pacif,0.011800
pagan,0.015649
paid,0.010381
paint,0.025861
palmistri,0.025338
parodi,0.018752
passion,0.015288
passism,0.030812
past,0.096924
patriot,0.014856
pattern,0.026060
patternbas,0.025573
peopl,0.022453
period,0.006049
perman,0.009866
persever,0.021382
person,0.039973
pessim,0.061536
pessimu,0.029834
phenomena,0.009721
philosoph,0.044683
philosophi,0.052010
phrase,0.012267
physic,0.033311
physicist,0.048205
place,0.011515
plan,0.038553
plane,0.024525
plural,0.026188
poem,0.015027
poetri,0.028410
point,0.005905
polit,0.019170
portion,0.010231
portug,0.013600
posit,0.030170
possibl,0.059549
postul,0.062809
potenti,0.007558
power,0.017924
practic,0.024986
practition,0.024506
precis,0.009617
predict,0.068340
prefer,0.044701
prepar,0.009468
present,0.070052
presentist,0.027076
principl,0.007008
probabl,0.050265
problem,0.006244
process,0.016557
produc,0.006074
product,0.006084
profess,0.012200
profession,0.009460
project,0.014448
prokofiev,0.028455
promin,0.009155
prophesi,0.021527
prophet,0.045972
propos,0.021609
protest,0.010850
provid,0.005180
pseudosci,0.017815
psionic,0.027076
psycholog,0.019903
publish,0.019440
punch,0.018561
punish,0.012843
pure,0.009231
purpos,0.007594
radic,0.010702
rang,0.007008
rate,0.007235
ration,0.010061
reach,0.007524
reaction,0.009494
reader,0.012626
readili,0.012669
real,0.007685
realiti,0.020143
realli,0.011912
reconstruct,0.011603
refer,0.029621
regard,0.007103
region,0.013261
reincarn,0.054969
rel,0.039833
relat,0.009984
religi,0.018916
religion,0.084876
remain,0.006123
repres,0.006073
requir,0.005828
research,0.006006
respect,0.007041
result,0.015473
return,0.007493
reunion,0.020738
reward,0.012809
right,0.006644
risk,0.009110
robert,0.008141
robot,0.013725
robust,0.013412
russia,0.010882
russolo,0.083792
sacr,0.014179
said,0.015215
saint,0.024762
say,0.008022
scenario,0.013412
scene,0.013338
scholar,0.009403
scienc,0.074730
sciencefict,0.020457
scientif,0.029804
scorn,0.020051
sculptur,0.033299
second,0.006077
seek,0.024925
sensei,0.027076
sensibl,0.016378
sentenc,0.012658
sera,0.022656
seri,0.007376
set,0.005735
sever,0.005372
shape,0.008825
short,0.015789
shortterm,0.013460
signific,0.013156
similar,0.006153
simul,0.011197
situat,0.015868
skeptic,0.013572
slower,0.014804
social,0.006555
societ,0.014491
solar,0.012292
sometim,0.013416
somewhat,0.010924
sort,0.021617
soul,0.053220
sound,0.021700
sourc,0.006481
space,0.015889
spacetim,0.047187
spatial,0.012046
special,0.019334
specif,0.012331
specul,0.032163
speed,0.063228
spirit,0.011643
spiritu,0.011873
st,0.008307
stabil,0.009610
star,0.011428
state,0.009017
statist,0.008454
statu,0.017213
stcherbatski,0.030812
steam,0.015347
steampunk,0.025338
steel,0.012907
step,0.008738
stochast,0.014301
stori,0.062675
strateg,0.022494
strategi,0.019198
stress,0.021134
stretchi,0.029075
string,0.013688
stronger,0.012406
studi,0.081689
style,0.010617
subdisciplin,0.014045
subject,0.006555
suffer,0.009405
supernatur,0.044918
systemat,0.009845
taught,0.011489
technolog,0.059438
televis,0.011615
temporari,0.012153
tend,0.008462
tendenc,0.011571
term,0.004869
text,0.017779
textil,0.013933
th,0.023635
thcenturi,0.011882
theater,0.033299
theatr,0.029115
theist,0.021110
theolog,0.012561
theoret,0.008449
theori,0.018120
therefor,0.014008
thi,0.015417
thing,0.024598
thought,0.014606
thrust,0.018127
thu,0.012047
time,0.150461
timelin,0.060648
timewhich,0.029075
today,0.014806
tomorrow,0.018440
topic,0.008176
town,0.010582
tradit,0.032445
trait,0.012209
transfer,0.008818
transport,0.008834
travel,0.081892
treat,0.009023
trend,0.019685
tri,0.008111
triumph,0.016038
typic,0.013826
ultim,0.017826
unavoid,0.018531
uncertainti,0.011992
uncontrol,0.017916
uncontroversi,0.022002
underli,0.019572
understand,0.027979
understood,0.019342
undesir,0.016112
unexpect,0.015049
univers,0.005337
unknow,0.040102
unknown,0.010669
unpack,0.024534
unreal,0.038413
unverifi,0.020623
use,0.050528
usual,0.012402
variabl,0.018840
variant,0.012483
vars,0.029075
veri,0.011770
versu,0.024057
view,0.046233
violenc,0.012272
vu,0.022981
want,0.009513
warth,0.026097
water,0.007949
weather,0.025273
western,0.015503
wherea,0.008942
wild,0.013220
william,0.008257
wish,0.011394
woman,0.012866
word,0.007153
work,0.030311
world,0.036571
worldview,0.015810
wormhol,0.023339
worst,0.014213
worth,0.011667
writer,0.010576
written,0.024476
year,0.015602
yesterday,0.020299
youth,0.012996
