abl,0.040897
abov,0.004605
absolut,0.012203
abund,0.007295
acceler,0.006919
accept,0.009033
access,0.004977
accompani,0.006955
accord,0.007194
account,0.008474
accumul,0.048310
achiev,0.013577
acquir,0.005859
acr,0.019256
action,0.004420
activ,0.007179
actual,0.004604
ad,0.004591
adam,0.007300
addit,0.003639
address,0.005417
adequ,0.007547
administr,0.010060
adopt,0.009929
adult,0.007042
advanc,0.053319
advantag,0.033505
advent,0.007867
africa,0.005842
aftermath,0.008965
age,0.018021
agent,0.012267
agricultur,0.080207
ahead,0.025195
aid,0.005396
allen,0.008305
allevi,0.009604
allow,0.039352
alm,0.025698
alreadi,0.005240
altern,0.004622
amass,0.011363
america,0.025208
ampl,0.011133
analysi,0.008673
analyz,0.006047
ancient,0.005212
annex,0.008184
anoth,0.003460
antwerp,0.012375
anxieti,0.009548
apart,0.006592
appetit,0.011820
appli,0.003845
approv,0.006180
arabl,0.011004
area,0.035730
argu,0.090930
arid,0.010491
arrang,0.005864
arriv,0.005791
articl,0.004275
artific,0.012405
artisan,0.019849
asia,0.061769
asian,0.020560
ask,0.005947
aspect,0.004728
assert,0.006180
attain,0.007282
attent,0.005866
attitud,0.022156
attribut,0.005592
author,0.008101
avail,0.008795
averag,0.016120
away,0.010960
bairoch,0.016029
balkan,0.010205
ban,0.014496
bare,0.008861
barrier,0.007319
base,0.003134
basi,0.008961
becam,0.011895
becaus,0.006530
becom,0.003472
befor,0.025933
began,0.030320
begin,0.012689
begun,0.013794
belief,0.005806
believ,0.004486
benefit,0.026319
bengal,0.022764
best,0.004780
bigger,0.009736
billi,0.012500
birdzel,0.033753
black,0.005854
blame,0.008617
bohemia,0.012201
book,0.024736
boom,0.008229
border,0.006389
bound,0.012981
breakthrough,0.009256
brenner,0.013514
britain,0.048888
british,0.014530
broadli,0.007261
brought,0.021388
build,0.004590
busi,0.009779
buy,0.006862
buyer,0.008657
calam,0.012436
calcul,0.005535
calor,0.012229
calori,0.035745
calvinist,0.012345
capabl,0.005721
capit,0.075600
capita,0.070966
capitalist,0.042911
captiv,0.009305
case,0.003632
cast,0.014759
caus,0.027144
center,0.009267
centr,0.005973
central,0.012217
centuri,0.179073
centuryth,0.015428
ceram,0.010215
certain,0.003976
challeng,0.005189
chang,0.022928
character,0.011020
charcoal,0.011439
cheap,0.027003
cheaper,0.018708
check,0.007532
chen,0.031854
china,0.290255
chines,0.124901
chri,0.009779
christian,0.005630
chronic,0.008930
circumv,0.010795
cite,0.024306
citi,0.030104
civil,0.034886
claim,0.048512
clark,0.008412
clash,0.008647
class,0.009637
classic,0.009600
climat,0.006203
closer,0.014378
coal,0.152496
coalfir,0.014860
cohen,0.019128
coin,0.018049
coincid,0.007815
coke,0.012345
collect,0.004238
colon,0.046255
coloni,0.060079
come,0.008311
comfort,0.009229
commerc,0.028961
commerci,0.022266
common,0.007026
commun,0.007598
compani,0.009176
compar,0.047274
comparison,0.012185
compet,0.005990
competit,0.017140
complex,0.004251
compris,0.005944
concentr,0.011372
concept,0.004055
conclud,0.005942
condit,0.024394
conduc,0.010957
conduct,0.004980
confucian,0.105667
conquest,0.007829
consequ,0.004941
conserv,0.005767
consid,0.003388
consider,0.014649
constitut,0.004588
constrain,0.016897
constraint,0.021644
construct,0.004499
consum,0.011571
consumpt,0.020332
contact,0.006097
contain,0.004168
contemporari,0.005683
continent,0.015477
continu,0.014083
contrast,0.009817
contribut,0.012794
control,0.030885
conveni,0.007758
converg,0.022964
cope,0.009326
core,0.080219
corn,0.009087
corpor,0.005701
correct,0.005851
corrupt,0.007134
cost,0.010217
costli,0.009055
cotton,0.079955
counter,0.015714
counterprogress,0.018925
countri,0.091776
countrysid,0.009525
coupl,0.006724
creat,0.017771
critic,0.004274
crop,0.007184
culmin,0.007699
cultiv,0.029687
cultur,0.056799
customari,0.029057
darwin,0.008132
data,0.009275
date,0.014569
david,0.005161
day,0.013154
deal,0.014043
death,0.005089
debt,0.006738
decad,0.005282
decid,0.005663
declar,0.005612
declin,0.033103
decreas,0.005722
deep,0.006469
default,0.008866
defens,0.006377
deficit,0.008065
definit,0.004594
deforest,0.021369
degrad,0.008336
degre,0.009517
deindustri,0.013793
delay,0.014843
delta,0.016646
demand,0.025939
demograph,0.007802
dens,0.008271
densiti,0.007012
depend,0.003834
depict,0.007248
deplet,0.018136
deposit,0.041277
depreci,0.020767
depriv,0.009333
despit,0.004927
destruct,0.006877
devast,0.016501
develop,0.084278
devot,0.006868
diamond,0.026466
did,0.056076
dietari,0.010698
differ,0.052369
difficult,0.005068
diplomat,0.006903
directli,0.009338
disappear,0.007388
discov,0.005117
discoveri,0.010884
discuss,0.004741
disincentiv,0.017858
dismiss,0.007741
disobedi,0.012375
disput,0.011689
disregard,0.020060
disrupt,0.007487
dissent,0.009896
distanc,0.012375
distinct,0.013426
distinguish,0.005159
diverg,0.227754
divid,0.004607
divin,0.015457
doe,0.015727
doissrn,0.015069
dollar,0.006789
domest,0.006020
domin,0.004781
dramat,0.013125
drew,0.008008
drive,0.006243
drop,0.006377
dure,0.056864
dutch,0.007136
dynasti,0.068004
earli,0.034991
earlier,0.020678
earn,0.006575
easili,0.005993
east,0.096818
eastern,0.034840
eclips,0.009375
ecolog,0.013185
econom,0.099543
economi,0.076444
economist,0.006568
effect,0.006797
effici,0.043822
eighteenth,0.008941
elev,0.007805
elit,0.007768
elsewher,0.007212
embrac,0.007892
emerg,0.008967
emperor,0.015431
emphas,0.006139
empir,0.039052
enabl,0.005548
encourag,0.017250
end,0.007650
energi,0.044078
engag,0.011080
engin,0.020167
england,0.066777
english,0.004872
enlighten,0.015278
entail,0.008164
enter,0.005114
enterpris,0.006585
entiti,0.005935
entrepreneur,0.008811
environ,0.004637
epidem,0.019422
equal,0.004764
equilibrium,0.021934
era,0.027637
eric,0.016620
erod,0.010070
error,0.006652
especi,0.024374
establish,0.003733
estim,0.019692
ethic,0.019316
eurasia,0.020388
europ,0.275140
european,0.117650
event,0.004552
eventu,0.009944
evid,0.009541
evidenc,0.009851
evolv,0.005742
exacerb,0.019371
exalt,0.011820
examin,0.010951
exampl,0.006266
exceed,0.014693
exist,0.006957
expand,0.019795
expans,0.011805
expect,0.004806
experi,0.021510
experienc,0.018842
experiment,0.017530
explain,0.018838
explan,0.018475
explicit,0.007639
explor,0.005330
explos,0.007755
export,0.012835
expos,0.007007
expropri,0.035056
extens,0.014172
extern,0.005471
extra,0.008012
extract,0.006734
face,0.010501
facilit,0.006307
fact,0.004441
faction,0.008263
facto,0.008481
factor,0.035486
factori,0.007654
fail,0.005259
failur,0.006087
faith,0.006993
fall,0.014326
famili,0.009688
famin,0.009368
far,0.018975
farewel,0.025000
farm,0.013960
farmer,0.022214
farmland,0.011184
favor,0.011556
fear,0.006564
feed,0.008031
fellow,0.007909
fertil,0.021999
feudal,0.027112
fewer,0.007418
final,0.004525
financ,0.016630
financi,0.009988
firm,0.012496
fiscal,0.007931
fix,0.005552
flee,0.008971
flood,0.008258
flow,0.011018
fluctuat,0.007812
focus,0.019479
follow,0.005985
food,0.016152
forc,0.014998
foreign,0.009739
forest,0.028777
form,0.008578
format,0.010204
formerli,0.007007
fortun,0.008486
forward,0.006640
foster,0.007997
fragment,0.022073
franc,0.016066
franca,0.012436
free,0.025638
freed,0.009644
freedom,0.005905
freer,0.013268
frequent,0.010517
fuel,0.034662
fundament,0.004790
furthermor,0.006410
gain,0.009102
gave,0.016330
gdp,0.014071
gener,0.002688
genet,0.006354
geograph,0.012168
geographi,0.027544
geopolit,0.010237
germ,0.020180
global,0.009935
gloriou,0.011401
good,0.029114
goryeo,0.015182
govern,0.035574
gradual,0.018041
grain,0.008128
graph,0.008323
gratif,0.013133
great,0.109622
greater,0.009423
greatli,0.030630
gregori,0.009099
grew,0.018754
groundwat,0.011774
group,0.003374
grow,0.009594
growth,0.085233
guangzhou,0.013462
guild,0.010360
gun,0.017567
ha,0.017461
habib,0.013090
half,0.005149
hamper,0.069407
hand,0.013905
happen,0.011824
harder,0.009298
hardship,0.010618
head,0.004829
health,0.005215
healthi,0.008168
hegemon,0.025000
held,0.008845
hereditari,0.008953
heret,0.010823
heritag,0.007651
heterodox,0.010973
hi,0.016771
hierarchi,0.007623
high,0.037879
higher,0.026684
highlevel,0.019756
highli,0.004924
hinder,0.009426
histori,0.028042
historian,0.031519
hitherto,0.011036
home,0.005341
hope,0.006369
hospit,0.007377
household,0.007441
howev,0.033396
huge,0.013914
human,0.014416
humanist,0.009087
huntington,0.022652
idea,0.016794
ideal,0.018261
ideologu,0.014115
idl,0.021854
ijtihad,0.015069
illprepar,0.017155
illustr,0.006379
imit,0.017700
immens,0.008989
imper,0.010121
imperi,0.036438
imperson,0.011558
implement,0.005208
import,0.035096
improv,0.023017
inabl,0.009031
incent,0.015577
includ,0.015581
incom,0.051569
increas,0.032376
increasingli,0.005514
independ,0.007684
indetermin,0.011219
india,0.120275
indian,0.030963
indigen,0.014917
individualist,0.010823
indrajit,0.017858
industri,0.157988
inflow,0.010248
influenc,0.008240
inhibit,0.009209
innov,0.084238
input,0.006777
insecur,0.010739
institut,0.027710
intak,0.011420
integr,0.009028
intellectu,0.019253
interact,0.004667
intermediari,0.009494
intern,0.009834
interven,0.008038
intervent,0.006787
introduct,0.004959
invad,0.007482
invas,0.040929
invent,0.024348
invest,0.021305
iron,0.006699
isbn,0.008844
isett,0.018925
islam,0.012454
isol,0.006073
isolation,0.014670
italian,0.007019
japan,0.061863
japanes,0.028517
jare,0.011867
joel,0.010927
joint,0.006587
jone,0.016611
joseon,0.038547
joseph,0.006164
judgement,0.009456
jurchen,0.028518
just,0.004362
justin,0.011344
kenneth,0.016788
kept,0.013480
kind,0.004982
kingdom,0.004975
kinsmen,0.016630
km,0.007040
known,0.009376
korea,0.045300
labor,0.061414
laborsav,0.030857
laboursav,0.016876
lack,0.028614
land,0.137275
landlord,0.032691
larg,0.049442
larger,0.024683
largest,0.010331
late,0.021651
later,0.014878
latin,0.005878
law,0.018838
lead,0.041048
leader,0.005468
learn,0.005253
led,0.020182
left,0.014956
legitim,0.007768
letter,0.006173
level,0.026179
liber,0.005638
liberti,0.015877
life,0.004020
lifestyl,0.008906
like,0.010021
limit,0.022916
lin,0.023503
lingua,0.012315
link,0.002719
literaci,0.009176
littl,0.009573
live,0.012131
livestock,0.008827
local,0.004235
locat,0.004598
london,0.005266
long,0.020303
lord,0.007402
lost,0.005434
low,0.009586
lower,0.004621
loyalti,0.009062
lucr,0.010314
luxuri,0.065681
maddisonproject,0.018925
magyar,0.013090
maintain,0.008721
major,0.026542
make,0.009540
male,0.007014
malthu,0.011538
manchu,0.013567
mani,0.036746
manifest,0.007194
manori,0.013793
manpow,0.010988
manufactur,0.059638
mar,0.008557
market,0.102986
marketplac,0.009887
marriag,0.007906
mask,0.009915
mass,0.015385
massiv,0.006654
masteri,0.011272
materi,0.039441
mathemat,0.004916
max,0.007642
meant,0.006414
meantim,0.011184
meanwhil,0.007562
measur,0.004096
mediev,0.013340
member,0.003990
mercantil,0.019775
merchant,0.081701
metallurgi,0.010183
method,0.003873
middl,0.015468
midth,0.023147
militari,0.005059
million,0.009823
ming,0.032135
mingq,0.017155
miracl,0.039050
missionari,0.008855
mistak,0.008607
mode,0.007040
modern,0.045012
modest,0.009131
mokyr,0.013916
monarchi,0.008016
money,0.005588
mongol,0.029472
monolith,0.011915
monopoli,0.032049
motiv,0.006109
mountain,0.006728
movabl,0.011290
mughal,0.011363
muslim,0.013987
nation,0.020791
nationst,0.010491
nativ,0.006463
natur,0.006677
navi,0.007484
navig,0.007808
necessari,0.009967
necessarili,0.006121
need,0.022556
needham,0.011964
neighbor,0.007054
neighbour,0.007639
new,0.055867
newcomen,0.013793
newli,0.006579
nineteenth,0.007822
nonconform,0.013412
nonemerg,0.016029
north,0.004965
northern,0.029231
northwest,0.017106
notabl,0.004798
number,0.006256
numer,0.004633
numeraci,0.013514
nurtur,0.010314
nutrient,0.008872
nutrit,0.008983
occupi,0.006269
occur,0.011919
oceango,0.014414
offer,0.013950
offici,0.004747
old,0.015523
onli,0.014393
onward,0.007927
open,0.008562
opinion,0.006646
order,0.013784
ottoman,0.008844
outcompet,0.012811
outlaw,0.020080
output,0.006527
outsid,0.019082
overal,0.011447
overcam,0.023503
oversight,0.009906
overtak,0.011915
ownership,0.014688
oxford,0.005875
p,0.009547
pace,0.016879
paneuropean,0.012966
pariti,0.009001
parliament,0.006307
partial,0.005752
particip,0.009866
particular,0.003914
particularli,0.013156
pass,0.004858
past,0.004961
paul,0.005435
payment,0.006740
peak,0.006862
peasant,0.008719
peninsula,0.008318
peopl,0.010343
percent,0.006280
perhap,0.005813
period,0.044589
peripheri,0.041966
persist,0.007090
person,0.004092
perspect,0.005595
phenomenon,0.006440
philosophi,0.010648
place,0.003536
play,0.009030
plenti,0.009833
plot,0.015328
poland,0.008543
polici,0.027767
polish,0.008448
polit,0.027474
pomeranz,0.162112
popul,0.057842
popular,0.008948
posit,0.003706
possess,0.022478
possibl,0.014630
poverti,0.007377
power,0.018348
pp,0.005846
practic,0.015346
pre,0.010419
prefer,0.005491
pregreat,0.017858
preindustri,0.023594
premodern,0.042684
presenc,0.005422
preserv,0.006044
press,0.008441
pressur,0.016194
prestig,0.009479
preval,0.015791
prevent,0.025633
primarili,0.004901
princip,0.005601
principalag,0.014046
print,0.006734
problem,0.007670
process,0.013560
produc,0.007462
product,0.085961
profess,0.007493
profit,0.043370
progress,0.009774
prohibit,0.014634
project,0.004437
proletariat,0.011915
promot,0.020461
properti,0.017367
propon,0.007514
propos,0.017697
prosper,0.022239
protect,0.014338
protectionist,0.011439
protest,0.013328
protoindustri,0.032422
prove,0.005534
provid,0.006363
proxim,0.008288
prussia,0.021236
psycholog,0.006112
public,0.003611
publicli,0.007673
pull,0.008229
pump,0.009019
qing,0.022403
qinhan,0.017858
quantifi,0.008057
quantiti,0.023363
question,0.004503
quickli,0.005836
railroad,0.036919
railway,0.008486
rapid,0.031073
rapidli,0.006045
rate,0.022219
ration,0.006180
rationalist,0.010372
raw,0.066770
ray,0.007768
reach,0.013865
read,0.003949
real,0.004720
reason,0.008163
receiv,0.004345
recent,0.003938
recondit,0.015707
recov,0.007000
reduc,0.012925
refer,0.004548
reflect,0.004887
reforest,0.013853
regard,0.004363
region,0.036653
regul,0.005384
reinforc,0.007745
reject,0.005606
rel,0.044855
relationship,0.021705
reli,0.005480
reliant,0.010988
relief,0.008108
religi,0.005809
religion,0.011584
remain,0.003761
remonstr,0.015182
remov,0.010501
renaiss,0.015040
rent,0.026270
rental,0.011272
repel,0.009869
replac,0.009269
repopul,0.013363
repress,0.008577
republ,0.010675
requir,0.014320
research,0.003689
resourc,0.059854
respect,0.008650
rest,0.021313
restrain,0.010795
restraint,0.020431
restrict,0.026355
result,0.022175
return,0.009205
revers,0.006261
reviv,0.007227
revolt,0.008280
revolut,0.084510
revolution,0.009548
revolutionari,0.007237
reward,0.007867
rice,0.008577
rich,0.013043
right,0.020405
rise,0.027459
risk,0.005595
river,0.012435
robert,0.010001
role,0.011952
roman,0.006100
rome,0.007765
rose,0.027605
rosenberg,0.023734
rout,0.013694
routledg,0.008104
rule,0.020757
ruler,0.007598
rulesfor,0.018925
s,0.009676
sale,0.026501
salt,0.007791
samuel,0.016169
save,0.019375
scale,0.005147
scheidel,0.034310
scholar,0.034654
scholaroffici,0.029924
scienc,0.007650
scientif,0.013729
second,0.007465
secular,0.007871
secur,0.004831
seek,0.005103
seen,0.008924
selfsustain,0.012229
sell,0.025734
seller,0.009087
sens,0.004679
separ,0.008310
serf,0.012092
serfdom,0.011989
seri,0.009061
serv,0.004527
set,0.007046
sever,0.016498
share,0.008863
sharpli,0.008947
shift,0.022046
ship,0.019359
shogun,0.026180
shortag,0.057812
shown,0.016453
signifi,0.009176
signific,0.008080
significantli,0.011673
silent,0.009426
silk,0.009449
silver,0.015827
silvicultur,0.014186
similar,0.003779
similarli,0.005996
sin,0.009001
sinc,0.015825
site,0.005331
size,0.014787
slave,0.007479
slaveri,0.008340
slow,0.013069
small,0.007746
smaller,0.010763
smith,0.006705
sng,0.016211
soar,0.010259
socal,0.012773
social,0.012079
societi,0.035690
socioeconom,0.009144
soil,0.021514
sometim,0.004120
son,0.006060
song,0.041970
soon,0.005804
sophist,0.014564
sort,0.006638
sourc,0.019906
south,0.014870
southward,0.010592
spain,0.013452
special,0.015834
specif,0.003786
specifi,0.006435
spent,0.006996
spirit,0.021455
spread,0.011189
squeez,0.011272
stabl,0.012458
stage,0.005527
stagnant,0.011133
stagnat,0.018958
stand,0.011896
standard,0.012789
start,0.012019
state,0.049850
stateback,0.016630
stateenforc,0.016029
statu,0.005286
stay,0.006928
steam,0.037707
steamboat,0.043006
steel,0.015855
stifl,0.011751
stimul,0.028333
stock,0.012213
stop,0.012506
strateg,0.006908
strict,0.007355
strike,0.007040
strong,0.013797
structur,0.003698
struggl,0.013269
studi,0.006689
subcontin,0.009753
subdivid,0.008673
subject,0.004026
subsequ,0.004939
substanti,0.011751
substitut,0.021100
succeed,0.006470
success,0.004197
suffer,0.005776
suffici,0.005851
suggest,0.004431
superior,0.028180
superpow,0.010882
suppli,0.030959
supplier,0.008912
support,0.011289
suppos,0.006955
supposedli,0.028983
suppress,0.021744
surpass,0.026807
sustain,0.030955
talent,0.009354
tantamount,0.013006
taoism,0.010823
tariff,0.008693
tast,0.008883
taught,0.007056
tax,0.017845
taxat,0.007781
tea,0.020242
teach,0.012400
technic,0.005629
techniqu,0.004864
technolog,0.095834
temporari,0.014929
tenanc,0.029340
tenant,0.022008
term,0.014954
terminolog,0.007453
territori,0.011080
textil,0.059905
tfp,0.060278
th,0.156061
themselv,0.018779
theori,0.018550
therefor,0.004302
thi,0.044981
thoma,0.005661
threat,0.006638
thrive,0.008762
thu,0.022200
time,0.033605
togeth,0.004364
tokugawa,0.026096
total,0.008832
town,0.006499
trace,0.018207
trade,0.105309
tradit,0.015942
train,0.005465
trait,0.007499
trajectori,0.009441
transact,0.006815
transform,0.005181
transit,0.005510
transport,0.021704
trap,0.016585
trend,0.006045
tri,0.009964
trial,0.007222
true,0.005124
truli,0.007931
tuanhwe,0.018925
turn,0.008751
twentieth,0.007467
type,0.003805
unabash,0.017155
uncultiv,0.013363
underdevelop,0.031738
undergo,0.007338
undermin,0.008389
uneth,0.011663
unfre,0.014763
uniqu,0.021587
unit,0.012769
unitari,0.009934
univers,0.003278
unlik,0.015813
unquestion,0.026266
unus,0.033253
urban,0.013277
usag,0.006638
use,0.051725
useeffici,0.018925
usual,0.003808
util,0.005726
valu,0.004056
vari,0.004666
varieti,0.009504
variou,0.007206
vassallord,0.018925
vast,0.019067
vastli,0.019793
venic,0.010372
ventil,0.012468
veri,0.014458
viabl,0.008709
view,0.012170
vike,0.010618
villag,0.007232
wa,0.160903
wage,0.034775
walter,0.015100
wane,0.010326
war,0.008992
water,0.024412
wave,0.006383
way,0.003384
weak,0.018861
weaken,0.007927
wealth,0.019554
wealthi,0.033035
wealthier,0.011964
weber,0.009677
went,0.005805
west,0.119565
western,0.119028
wetfield,0.017858
wetter,0.013048
whi,0.029118
wide,0.004076
windfal,0.012632
wood,0.043821
wool,0.020721
work,0.012411
workshop,0.037474
world,0.099477
wrongdo,0.012811
yangtz,0.026630
yangzi,0.016876
year,0.006388
yellow,0.008889
yifu,0.014186
yingshi,0.018925
yu,0.011478
