abil,0.004603
abl,0.004225
absenc,0.006150
absorb,0.006688
abund,0.006784
abusir,0.016607
accord,0.006690
accordingli,0.007529
achiev,0.008417
acr,0.017908
ad,0.021347
addit,0.003384
admixtur,0.023969
advanc,0.008264
advantag,0.005193
africa,0.065198
african,0.017591
afroeurasia,0.014119
agat,0.013643
age,0.217871
ageearli,0.016253
agricultur,0.004972
akanuma,0.017041
akkad,0.013914
aligala,0.015954
alleg,0.006917
alloy,0.055858
alreadi,0.004873
altay,0.014751
altern,0.004298
american,0.003790
anaikoddai,0.017041
anatolia,0.060395
ancient,0.053320
andr,0.008732
ani,0.005897
anneal,0.011685
anthoni,0.007900
antiqu,0.006923
anuradhapura,0.026809
appear,0.023250
appropri,0.005362
approxim,0.027356
april,0.005118
aramaean,0.014906
archaeolog,0.078796
archaeologist,0.018442
archaeometallurg,0.017041
archaeopress,0.016253
archeolog,0.009711
area,0.006645
arm,0.005334
art,0.005118
articl,0.023857
artifact,0.039635
asia,0.080421
assign,0.006009
associ,0.006536
assyria,0.022798
assyrian,0.010482
astm,0.014119
asuka,0.013260
atan,0.014607
attribut,0.010401
august,0.005083
avail,0.012268
averi,0.011984
axe,0.018305
baekj,0.014473
balanc,0.005295
balkan,0.009490
ban,0.006740
bantu,0.011295
bar,0.007562
base,0.005830
basin,0.007949
battl,0.006318
bbc,0.007611
bc,0.352132
bcad,0.012941
bead,0.020803
bear,0.006260
becam,0.007374
becom,0.006458
befor,0.010335
began,0.016112
begin,0.023601
begun,0.012828
believ,0.016689
bell,0.007810
belong,0.005700
best,0.004446
bivalv,0.013331
black,0.005444
blade,0.030444
bloomeri,0.015076
book,0.003834
brahmi,0.027639
break,0.005560
britain,0.005683
brittl,0.011103
bronz,0.211094
buri,0.007976
burial,0.036678
c,0.038607
ca,0.014840
came,0.004417
cameroon,0.010867
capabl,0.005320
cape,0.008486
carbon,0.059264
care,0.005075
carnelian,0.013819
case,0.003378
caseharden,0.017041
cast,0.020589
castiron,0.013914
caucasu,0.019725
cemeteri,0.009911
centr,0.005555
central,0.034086
centuri,0.072858
certain,0.003697
certainli,0.007712
challeng,0.004826
changsha,0.013819
charact,0.011166
character,0.010249
characterist,0.009313
charcoal,0.010638
chawuhuk,0.017041
cheaper,0.008699
cheongcheon,0.017041
chief,0.005626
chiefdom,0.045491
china,0.020763
chines,0.005807
chronolog,0.016112
civil,0.004634
close,0.003615
coastal,0.007366
collaps,0.017856
collect,0.011824
combin,0.015412
common,0.013069
commonli,0.004487
compar,0.011990
complex,0.015816
conclud,0.011053
conjunct,0.007551
conquest,0.007281
consequ,0.004595
consid,0.006303
consult,0.031200
contact,0.011340
contemporari,0.005285
content,0.010664
context,0.004753
continentwid,0.013914
continu,0.009822
contract,0.005420
convers,0.005575
copper,0.022513
cost,0.004751
countri,0.007112
cover,0.004449
creat,0.006610
credit,0.005229
crucibl,0.024592
cultur,0.036569
current,0.003459
curvilinear,0.012719
cut,0.005737
dadupur,0.017041
dagger,0.023898
dark,0.006988
date,0.081297
day,0.004077
deceas,0.009592
decor,0.017547
defin,0.003708
definit,0.004272
degre,0.004425
depend,0.003565
der,0.014144
derbyshir,0.013331
describ,0.003326
desert,0.007684
design,0.007938
develop,0.018918
did,0.004011
differ,0.002864
difficult,0.004713
diffus,0.007382
discontinu,0.008204
discoveri,0.015184
disrupt,0.006963
dissemin,0.008416
distinct,0.004162
distinguish,0.009595
diverg,0.007303
divid,0.004285
domin,0.004446
don,0.008969
dramat,0.006102
dure,0.024885
dynasti,0.007026
ear,0.008634
earli,0.058573
earliest,0.027190
easier,0.006966
east,0.050021
eastern,0.010800
econom,0.003560
ed,0.004554
edg,0.007098
egypt,0.034353
egyptian,0.021998
elabor,0.013539
elit,0.007224
emerg,0.008339
empir,0.009079
end,0.017785
engrav,0.010466
enter,0.004756
entir,0.004220
entitl,0.006716
epigraphi,0.014119
era,0.010280
europ,0.048527
european,0.004052
evid,0.053238
evil,0.007913
examin,0.010184
exampl,0.002913
excav,0.043731
exist,0.003235
expans,0.010979
expel,0.007844
explan,0.005727
export,0.005968
extend,0.004291
extens,0.008786
extern,0.002544
extrem,0.004666
f,0.019169
fact,0.004130
fall,0.004441
far,0.008823
farflung,0.013819
farmer,0.006886
fast,0.006660
featur,0.004399
ferrou,0.012519
field,0.003552
final,0.004208
flourish,0.007160
flow,0.005123
focu,0.004772
follow,0.002782
forc,0.003487
forg,0.017306
form,0.002659
fort,0.017154
fragment,0.006842
francisco,0.007507
frank,0.006812
frlag,0.015694
funer,0.019041
furnac,0.010638
galleri,0.008946
gang,0.009624
ganga,0.014119
garnet,0.013819
gaston,0.011426
gaya,0.013643
gener,0.004999
geograph,0.005657
gerzeh,0.016607
geum,0.017041
glass,0.023006
goguryeo,0.014119
gold,0.006049
golddecor,0.017041
good,0.003867
govern,0.003308
great,0.003921
greater,0.004381
greec,0.006576
greek,0.004926
grew,0.005813
group,0.006276
gteburg,0.017041
gunder,0.013819
guweicun,0.017041
ha,0.018558
hammeh,0.017041
hammer,0.020324
han,0.006952
handynastystyl,0.017041
hard,0.017129
hattic,0.017041
heat,0.012269
held,0.004113
high,0.007045
higher,0.004135
highpur,0.014751
hill,0.020761
histor,0.023448
histori,0.011590
hittit,0.035438
honsh,0.015465
hotwork,0.017041
howev,0.008470
human,0.010055
husi,0.017041
huynh,0.046397
huyun,0.016607
hyderabad,0.012719
identifi,0.016822
ii,0.004553
illustr,0.005932
immedi,0.005114
implement,0.038749
import,0.008901
improv,0.004281
impur,0.030360
incept,0.009054
includ,0.007245
incorpor,0.004777
increas,0.003345
increasingli,0.005128
india,0.053263
indian,0.040312
indic,0.008559
indoeuropean,0.010674
ingot,0.012213
initi,0.007560
inscript,0.018786
instanc,0.004711
institut,0.003681
intens,0.005778
interact,0.004340
intern,0.003048
introduc,0.012242
invad,0.006958
iran,0.007891
iron,0.710309
ironmak,0.014473
ironnickel,0.015465
ironwar,0.016607
ironwork,0.025039
island,0.005156
issu,0.003733
item,0.012763
jaffna,0.014473
jame,0.004906
jane,0.009169
januari,0.004964
japan,0.011506
japanes,0.006630
jordan,0.008766
just,0.004056
ka,0.010602
kaeo,0.015694
kamankalehyk,0.017041
kandarodai,0.017041
khao,0.016607
kiln,0.012772
king,0.005541
km,0.013094
knowledg,0.008750
known,0.014533
ko,0.045386
kofun,0.046397
korea,0.028085
korean,0.024225
kysh,0.014751
lack,0.004435
lahuradewa,0.015694
lake,0.006860
lanka,0.018565
larg,0.003065
largescal,0.006777
late,0.032215
later,0.006918
layer,0.006695
led,0.003753
lie,0.005698
lighter,0.009127
like,0.012426
limit,0.003552
lingnan,0.031389
link,0.005058
local,0.003939
locat,0.004276
longer,0.009593
low,0.008914
lower,0.008595
lowerpr,0.015076
maintain,0.004055
major,0.006171
make,0.005914
malhar,0.017041
mani,0.007886
manufactur,0.016638
mark,0.004669
maspero,0.015954
mass,0.004769
massacr,0.016960
masteri,0.010482
materi,0.016301
matota,0.017041
mauryan,0.012567
mean,0.003202
mediterranean,0.015214
melt,0.033197
mention,0.011260
merneptah,0.014607
mesopotamian,0.010176
metal,0.036318
metallurgi,0.113646
metalwork,0.011014
meteor,0.050740
method,0.003601
middl,0.014385
midtol,0.011624
millennium,0.072588
mirror,0.007852
mix,0.005593
moder,0.006662
modern,0.003488
monopoli,0.014902
mortuari,0.029502
mould,0.021460
mound,0.010867
mountain,0.006257
mummifi,0.013001
museum,0.007012
mysor,0.013192
nala,0.017041
nanj,0.012473
nation,0.003222
nativ,0.006011
natur,0.006209
nd,0.027055
near,0.033472
nearli,0.005065
need,0.003496
neolith,0.008666
network,0.004861
new,0.007793
news,0.006347
nickel,0.009327
niger,0.020677
nonpreci,0.014751
north,0.018470
northern,0.021747
northward,0.009886
northwest,0.023862
nubia,0.024427
number,0.011637
object,0.035780
occur,0.003694
old,0.004812
olivin,0.013260
onc,0.008691
onli,0.002677
orchid,0.011780
ore,0.016663
origin,0.003222
ornament,0.029202
otherwis,0.005531
oxford,0.005464
p,0.008879
paddi,0.012719
paraphernalia,0.014230
particular,0.018201
particularli,0.004078
paul,0.005055
pazyryk,0.016607
peac,0.005608
peculiar,0.009054
peninsula,0.015472
peopl,0.009619
pepi,0.012941
perhap,0.010812
period,0.065655
permafrost,0.012473
perman,0.005635
peter,0.005303
pharaoh,0.010656
phet,0.016607
philippin,0.008342
piec,0.012844
pilapitiya,0.017041
pin,0.009862
place,0.016444
plain,0.007599
plateau,0.009450
point,0.010120
postrigved,0.016607
postul,0.007175
potteri,0.018288
practic,0.007136
pradesh,0.011984
preced,0.006318
precursor,0.007265
preheat,0.014348
prehistor,0.056426
prehistori,0.008376
present,0.003334
presentday,0.014980
prestig,0.008815
prevent,0.004767
previou,0.005029
price,0.004936
primari,0.004402
principl,0.004003
probabl,0.004785
procedur,0.005807
produc,0.020819
product,0.031281
proper,0.005983
propos,0.004114
protohistor,0.115787
protohistori,0.015465
protohittit,0.017041
public,0.003358
purpos,0.004337
putivira,0.017041
pyramid,0.008961
qualiti,0.004968
quantiti,0.005431
quickli,0.005428
r,0.004462
radiocarbon,0.010908
raja,0.011453
rakesh,0.015261
rapidli,0.005622
rd,0.023886
reach,0.021491
read,0.003673
recent,0.007324
record,0.008916
rectilinear,0.013126
recycl,0.008999
refer,0.006344
region,0.034086
regul,0.010014
rel,0.007584
relic,0.010533
religi,0.005402
remain,0.010493
remov,0.009766
replac,0.004309
repres,0.003469
requir,0.003329
resembl,0.006671
resourcesforhistorycom,0.017041
respect,0.008044
respons,0.003668
rest,0.004955
revis,0.006320
revisit,0.009779
rice,0.007976
river,0.017347
roman,0.005673
rust,0.011399
sa,0.037275
saka,0.013481
sam,0.009393
san,0.006716
saw,0.015527
scarc,0.008099
schmidt,0.010323
scholarship,0.007562
script,0.016674
sea,0.021585
seal,0.015863
second,0.006942
seek,0.004745
seen,0.004149
seri,0.004213
seth,0.011595
settlement,0.012344
sh,0.010827
shaft,0.010971
shape,0.010082
shelter,0.008246
shishak,0.016607
shortag,0.007680
siberian,0.011245
sigiriya,0.015954
signific,0.011272
significantli,0.005428
silla,0.014230
similarli,0.005576
simpl,0.004676
simultan,0.012337
sinc,0.005886
singularli,0.013331
site,0.054539
skelet,0.010308
skeleton,0.008999
slow,0.006077
slowli,0.006784
small,0.010805
smelt,0.109288
smith,0.006236
smithsonian,0.010065
snodgrass,0.013914
societi,0.003687
soften,0.011426
solomon,0.009039
sometim,0.011495
sophist,0.006772
souckovasiegolov,0.017041
south,0.009219
southeast,0.021617
southern,0.032778
southwest,0.008261
special,0.003681
specul,0.006123
spirit,0.006650
sporad,0.009393
spread,0.020811
sri,0.017129
st,0.018980
stage,0.005140
start,0.011177
state,0.012877
statelevel,0.013404
steel,0.073727
steelmak,0.014230
stone,0.026295
strength,0.005969
strong,0.004277
stronger,0.021260
style,0.012130
stylist,0.010516
subcontin,0.027212
subsaharan,0.036884
subsect,0.011320
subsequ,0.004593
substanc,0.006188
succeed,0.018053
suggest,0.024724
sumer,0.010949
summari,0.007083
supersed,0.008503
sustain,0.005757
sword,0.009645
ta,0.010248
taedong,0.017041
taiwan,0.008283
tamil,0.010674
tanzania,0.019773
techniqu,0.022617
technolog,0.038195
tell,0.006630
temper,0.008879
temperatur,0.005950
tent,0.027093
termit,0.011103
terrestri,0.008013
tewari,0.030152
text,0.005077
th,0.060753
thailand,0.017788
theori,0.006900
thi,0.022016
thompson,0.008739
thought,0.004171
thousand,0.005190
thu,0.003440
tibetan,0.020526
tila,0.015076
time,0.013021
timelin,0.034642
tin,0.027559
tissamaharama,0.017041
tomb,0.037497
tool,0.028279
toolmak,0.013192
town,0.006044
trade,0.012774
tradit,0.007413
transit,0.010249
transjordan,0.013481
treat,0.005154
turn,0.004069
tutankhamun,0.013914
type,0.003538
ugarit,0.013481
understand,0.003995
univers,0.003048
upanishad,0.011058
use,0.060128
utensil,0.011780
uttar,0.013126
valley,0.020421
van,0.012877
variou,0.003350
vase,0.012339
vedic,0.010065
veen,0.028238
veri,0.010084
vessel,0.014332
veta,0.015694
vietnam,0.007976
vindhya,0.015465
wa,0.060337
waldbaum,0.017041
war,0.008362
warfar,0.007465
wealth,0.006061
weapon,0.071901
weight,0.011865
weld,0.010971
western,0.004427
westward,0.010106
wide,0.003791
widespread,0.028276
william,0.004716
word,0.004085
work,0.017313
world,0.002984
write,0.004602
wrought,0.032662
xinjiang,0.012473
yamato,0.013001
yangzi,0.015694
yayoi,0.043822
year,0.011882
yellow,0.016534
yield,0.005750
yoon,0.014119
zhang,0.009987
zho,0.017041
zhongyuan,0.017041
zhung,0.017041
zircon,0.013643
