accept,0.007851
accord,0.012506
achiev,0.015734
addit,0.006326
adopt,0.017259
aftermath,0.015584
age,0.007831
agre,0.009428
albert,0.050838
allow,0.006218
alreadi,0.018220
ancient,0.009060
ani,0.011022
annex,0.014226
anoth,0.006014
appear,0.007243
appoint,0.010279
archbishop,0.019502
argu,0.008319
aristocraci,0.017629
arm,0.009971
aros,0.012418
assembl,0.009762
assist,0.009324
assum,0.008663
attempt,0.007133
background,0.010740
baltic,0.035367
bavaria,0.022080
becam,0.020677
becaus,0.005676
befor,0.006439
bind,0.013021
block,0.011232
bloodbath,0.029336
bodi,0.007566
bogislav,0.032897
border,0.011107
breakup,0.036222
brief,0.011951
briefli,0.013987
brill,0.019884
calmar,0.031042
calmariensi,0.032897
cambridg,0.010001
came,0.016513
castl,0.017123
ceas,0.012756
cede,0.016162
central,0.007079
centuri,0.012969
charl,0.029017
chart,0.014385
child,0.012129
childless,0.023678
chosen,0.011540
christian,0.039149
christoph,0.039706
citizen,0.010335
civil,0.008663
close,0.006757
closer,0.012496
coast,0.011526
colleagu,0.013651
common,0.024429
commun,0.006604
conduct,0.008657
conflict,0.028222
conquer,0.013676
constitut,0.023926
consult,0.011663
contact,0.010599
contemporari,0.019760
contin,0.013015
continu,0.012240
control,0.026844
convent,0.009781
council,0.073682
count,0.011519
counter,0.013657
countri,0.039883
crown,0.078495
dane,0.021357
danish,0.191696
date,0.008442
daughter,0.013863
david,0.008972
day,0.015244
daytoday,0.017235
death,0.017693
decad,0.009181
deceas,0.017930
decid,0.009844
decis,0.008516
declar,0.039024
defeat,0.023902
definit,0.007986
degre,0.008272
deleg,0.014262
denmark,0.222258
denmarknorway,0.050112
depend,0.006664
depos,0.033223
descend,0.012225
design,0.007419
did,0.022494
die,0.019356
direct,0.020122
discuss,0.008241
dissatisfact,0.018643
dissolut,0.030444
disturb,0.014184
diverg,0.013651
document,0.019504
domest,0.010466
domin,0.016624
doubt,0.013036
draft,0.013036
duchi,0.019688
dure,0.011629
dynasti,0.013134
earli,0.012164
economi,0.008305
ed,0.017026
effect,0.011815
elect,0.062786
empir,0.016971
end,0.006649
enemi,0.027183
engelbrecht,0.030380
entir,0.007887
eric,0.043336
erik,0.054841
erod,0.017504
especi,0.007061
establish,0.006490
etern,0.015374
eueea,0.027863
europ,0.008246
european,0.007574
event,0.007913
exampl,0.005446
excerpt,0.016808
exist,0.006047
expans,0.010260
export,0.011155
expuls,0.017833
extern,0.004755
fact,0.007721
facto,0.014743
fail,0.018286
failur,0.010580
fair,0.012316
faro,0.065354
fastgrow,0.023064
februari,0.009880
finland,0.065042
follow,0.010403
forc,0.026071
foreign,0.016930
form,0.009941
formal,0.008137
format,0.008869
forum,0.013355
frederick,0.044011
frequent,0.009141
furthermor,0.011143
gave,0.028387
gener,0.004672
german,0.036734
govern,0.018551
government,0.013609
grand,0.012631
grandfath,0.018643
grandnephew,0.031042
grandson,0.036432
great,0.007329
greenland,0.056672
grow,0.008338
guardian,0.048202
gustafsson,0.030380
gustav,0.049917
ha,0.017344
haakon,0.051325
hail,0.017470
hamper,0.017235
hanseat,0.067616
happen,0.010277
happi,0.014378
harald,0.021307
heir,0.049917
hell,0.017950
henceforth,0.020840
hi,0.040814
histori,0.016248
historiograph,0.020274
holstein,0.075595
howev,0.005277
iceland,0.050167
idea,0.007298
ii,0.008510
iii,0.012435
impetu,0.016779
import,0.011092
imsen,0.032897
incept,0.016925
includ,0.009028
incumb,0.017435
independ,0.033395
industri,0.007422
influenc,0.021487
influenti,0.010458
inherit,0.024117
instal,0.025665
institut,0.006881
intellectu,0.011155
intent,0.021886
interrupt,0.016174
interv,0.013700
iron,0.011646
isl,0.016694
island,0.019276
iv,0.028230
join,0.019344
journal,0.008363
junction,0.018667
june,0.028421
just,0.007582
kalmar,0.335811
kalmari,0.032897
kalmarthat,0.032897
kalmarunionen,0.032897
kept,0.011716
kiel,0.024536
king,0.310714
kingdom,0.069195
kirbi,0.022681
known,0.005433
knut,0.022142
labour,0.011007
land,0.008228
late,0.007527
later,0.006465
latin,0.010218
law,0.006549
lead,0.006486
leader,0.009506
leagu,0.040017
led,0.007016
legal,0.017942
liber,0.009801
limit,0.006639
line,0.007780
lineag,0.016091
link,0.004727
list,0.006045
live,0.014058
longterm,0.022880
lost,0.009447
magnu,0.018968
main,0.013764
mainland,0.014122
male,0.012193
manag,0.007785
mani,0.004913
manoeuvr,0.022142
map,0.009944
margaret,0.111189
mark,0.008728
marri,0.013627
matern,0.017367
matter,0.008177
mean,0.011973
meant,0.011149
mecklenburg,0.114103
mediev,0.023189
member,0.013871
michael,0.010004
middl,0.008962
modern,0.013040
monarch,0.143563
moreov,0.012470
moss,0.019383
mostli,0.009274
mother,0.025055
movement,0.007495
nation,0.012047
nearli,0.009468
need,0.006534
nephew,0.018194
new,0.009711
nobil,0.050865
nobl,0.014135
nordic,0.112591
northern,0.040649
northward,0.018480
norway,0.320847
norwegian,0.168955
notabl,0.008341
note,0.006267
object,0.007431
ocker,0.032897
olaf,0.022142
olav,0.094334
oldenburg,0.050396
oluf,0.032897
onli,0.005003
onlin,0.019028
oper,0.006857
opposit,0.008944
oust,0.016985
outpost,0.018942
oversea,0.012965
overview,0.010892
parliament,0.010963
passportfre,0.031853
pay,0.010148
peac,0.010483
period,0.006459
perpetu,0.014726
person,0.021339
play,0.007848
point,0.006305
polici,0.016088
polit,0.013645
politi,0.016808
pomerania,0.098638
posit,0.006442
possess,0.009768
power,0.025516
pp,0.020324
practic,0.006669
prehistori,0.015656
present,0.006232
princ,0.026903
principl,0.007482
privi,0.056984
privileg,0.014226
problem,0.006666
promis,0.023426
promot,0.008892
protect,0.008307
provinc,0.011523
queen,0.013082
quit,0.010534
rais,0.009194
ratifi,0.015884
read,0.006866
realm,0.037464
reason,0.007095
rebellion,0.042345
reclaim,0.018457
recogn,0.050861
reconquest,0.021728
reestablish,0.015058
refer,0.003953
reform,0.009670
regent,0.075978
region,0.007079
reign,0.027339
releas,0.009880
remain,0.026153
requir,0.006223
respect,0.007518
rest,0.009262
retain,0.010396
reunit,0.018345
rise,0.015910
robert,0.008692
role,0.006925
rose,0.011996
royal,0.010431
russian,0.011574
s,0.022427
said,0.008122
scandinavia,0.018345
scandinavian,0.074291
scandinavist,0.032897
scania,0.028179
schengen,0.045077
schleswig,0.027573
search,0.010118
secur,0.008399
seen,0.007756
selfgovern,0.015677
separ,0.028890
seven,0.010374
sever,0.017207
share,0.007703
short,0.008429
shortterm,0.014371
sign,0.009058
signatori,0.019021
silver,0.013755
similar,0.006569
sinc,0.005501
singl,0.007363
sister,0.015185
somewhat,0.011663
son,0.042138
southeast,0.013469
sovereign,0.013150
spite,0.015850
state,0.019256
steinar,0.029336
stipul,0.049917
stockholm,0.037052
strngn,0.032897
strong,0.007994
structur,0.006428
struggl,0.023066
subsequ,0.025758
succe,0.021307
succeed,0.033744
success,0.014592
summer,0.012728
support,0.006541
surrend,0.015157
surviv,0.009489
suspicion,0.017683
swede,0.068952
sweden,0.343588
swedish,0.135047
tend,0.009034
term,0.025994
territori,0.009630
text,0.009491
th,0.006308
thi,0.012345
throne,0.062091
time,0.029208
titl,0.009875
togeth,0.030347
treati,0.160858
tribut,0.016412
troop,0.012418
understood,0.010325
unifi,0.011516
unilater,0.017251
unio,0.023976
union,0.261626
unit,0.011098
uniti,0.012093
vacuum,0.014356
valdemar,0.028908
vartislav,0.032897
vasa,0.104780
vi,0.031292
viceroy,0.020021
vii,0.016736
viii,0.017522
volum,0.009424
wa,0.148870
wane,0.017950
want,0.020315
war,0.031263
wish,0.012165
work,0.010787
world,0.005578
xiii,0.020312
year,0.022210
yearold,0.016032
zone,0.011371
