abbrevi,0.013211
abl,0.003425
abov,0.010416
abund,0.005500
academi,0.005224
accept,0.003404
access,0.003752
accord,0.005423
accordingli,0.006103
account,0.003194
accustom,0.009156
acquir,0.008834
acr,0.007258
activ,0.002706
actual,0.003471
ad,0.006922
adult,0.010618
aegean,0.008946
affin,0.006663
age,0.010189
agricultur,0.008062
aldenhoven,0.014267
alfld,0.082887
alfldi,0.013814
allow,0.005394
alp,0.017521
alreadi,0.007902
altern,0.003484
alv,0.011445
alway,0.003647
analys,0.005302
analysi,0.009808
anarch,0.007909
anatolia,0.008159
ancestr,0.007090
ancient,0.003929
androgyn,0.011732
ani,0.009560
anim,0.030369
anoth,0.005217
anyth,0.005359
apart,0.004970
appar,0.004629
appear,0.028271
appli,0.002899
appropri,0.004347
approxim,0.003696
arabl,0.008296
archaeolog,0.017420
archaeologist,0.014950
archeolog,0.007872
area,0.016161
argument,0.004556
arrang,0.008842
arriv,0.004365
arrow,0.006963
art,0.004149
articl,0.006446
artifact,0.012852
asia,0.004656
assemblag,0.008307
assert,0.004659
associ,0.010597
atlant,0.011494
attempt,0.003093
attribut,0.008432
augur,0.011059
austria,0.025098
author,0.006107
autochthon,0.011203
avail,0.009945
avk,0.071338
await,0.008096
balaton,0.012722
balkan,0.030773
band,0.070767
bandkeramik,0.014267
barley,0.016568
barrier,0.022072
base,0.004726
basic,0.003289
basin,0.006444
bc,0.077411
bean,0.007599
becom,0.002617
beef,0.007928
befor,0.002792
began,0.022858
begin,0.006377
belgium,0.006418
belief,0.021888
believ,0.006764
belong,0.027724
bend,0.007645
beneath,0.007068
better,0.011063
bibliographi,0.004756
big,0.004951
birth,0.014455
bitter,0.007399
bkk,0.067315
black,0.004413
blade,0.024679
blunt,0.009198
boar,0.010074
bocquetappel,0.013814
bohemia,0.009198
boianmaritza,0.014267
bone,0.012267
border,0.004817
bowl,0.008307
branch,0.031299
brief,0.015549
bring,0.004065
broad,0.004392
broken,0.005452
bronz,0.006581
broom,0.010866
brunn,0.025074
bug,0.008609
bugdniest,0.042802
built,0.004076
burial,0.029733
bylani,0.028535
c,0.003129
calcul,0.004173
calibr,0.007872
came,0.017904
cannabi,0.008842
canon,0.005947
capac,0.004540
carpathian,0.010354
carri,0.007061
cattl,0.025661
caus,0.014616
cell,0.004710
celp,0.013463
celt,0.019260
cemeteri,0.024104
centr,0.004503
central,0.012281
ceram,0.007701
cereal,0.008075
certain,0.002997
characteris,0.006565
characterist,0.003775
child,0.010520
children,0.018018
chink,0.014267
chisel,0.010589
chronolog,0.019592
circa,0.007359
circumst,0.005031
cite,0.004581
civil,0.007514
civilis,0.007475
classic,0.010856
classif,0.004832
clay,0.020982
clearer,0.008911
climat,0.009353
close,0.005861
cloth,0.005726
coast,0.004999
coastal,0.017913
code,0.004238
colder,0.008215
collect,0.003195
combin,0.003123
come,0.003132
commerc,0.010916
common,0.002648
commun,0.002864
compar,0.003239
comparison,0.004593
complex,0.012821
compos,0.004155
conceiv,0.005751
concentr,0.012860
conceptu,0.005272
concern,0.006150
conclud,0.004480
conclus,0.004880
confid,0.011207
connect,0.007213
conquer,0.005931
consequ,0.003725
consid,0.002554
consist,0.002931
construct,0.003392
contact,0.009193
contain,0.012570
contemporan,0.016319
context,0.003853
contigu,0.008215
continent,0.005834
continu,0.007962
contrast,0.003700
convent,0.004241
converg,0.005770
convict,0.006348
convolut,0.017490
corn,0.006850
correct,0.004411
correspond,0.011930
cottag,0.009775
cover,0.003606
craft,0.006589
creat,0.005359
cremat,0.018896
cromagnon,0.011360
crop,0.021664
cucutenitrypillian,0.011958
culinari,0.010354
cult,0.007157
cultiv,0.005595
cultur,0.237157
cup,0.007353
current,0.014022
curv,0.005389
custom,0.013288
cut,0.004650
czech,0.014040
dairi,0.008065
danub,0.078848
danubian,0.022721
darion,0.014267
dark,0.005664
data,0.006992
date,0.021967
daub,0.025445
deal,0.003529
death,0.007673
debat,0.004078
deceas,0.007776
decor,0.035561
decreas,0.008627
deer,0.008319
defens,0.009616
defin,0.009019
degre,0.003587
demograph,0.011763
demonstr,0.003937
denmark,0.006426
dens,0.012471
densest,0.020148
depart,0.003840
depend,0.002890
deriv,0.006661
descend,0.026511
devast,0.006219
develop,0.008763
diagnost,0.007014
dicoccum,0.014267
did,0.013007
diet,0.012955
differ,0.006967
diffus,0.011969
directli,0.003519
disappear,0.005569
discov,0.011573
discrimin,0.012166
distaff,0.012537
distinct,0.010121
distinguish,0.015557
ditch,0.027920
divid,0.006947
divis,0.007593
dna,0.005653
dnieper,0.010866
dniester,0.023683
document,0.004229
doe,0.011856
dog,0.006557
dolukhanov,0.013814
domest,0.009078
domin,0.007209
door,0.020551
doorway,0.010992
doubt,0.005653
drainag,0.008471
drinker,0.010866
drop,0.004808
dug,0.009219
dunntl,0.014267
dvk,0.014267
e,0.003549
earli,0.044844
earlier,0.007794
earliest,0.022042
easi,0.005356
easili,0.004518
east,0.020274
eastern,0.056908
eastward,0.024226
eat,0.006154
ebersbach,0.014267
econom,0.002886
economi,0.018009
edg,0.028771
effect,0.002562
egg,0.012759
einkorn,0.035198
elb,0.042999
elsewher,0.005437
elsloo,0.028535
emmer,0.034337
enclos,0.007163
enclosur,0.008842
encourag,0.004334
end,0.046138
endogam,0.012537
english,0.007346
engrav,0.008484
enter,0.003855
entir,0.003420
epipaleolith,0.011059
ervilia,0.014267
especi,0.006125
esztr,0.014267
ethnic,0.005204
europ,0.064372
european,0.036134
event,0.006864
evid,0.028771
evidenc,0.007426
evolv,0.004329
exact,0.005031
exampl,0.007086
excav,0.007090
excess,0.005096
exchang,0.003728
exclud,0.004961
exist,0.005245
expand,0.003730
expans,0.008900
experienc,0.004734
exploit,0.004909
export,0.004838
extant,0.006978
extend,0.003478
extens,0.003561
extent,0.021698
exterior,0.007793
extern,0.004124
extra,0.006040
faba,0.013175
fabul,0.010807
fact,0.013394
factor,0.013376
fall,0.010800
famili,0.007303
far,0.007152
farmer,0.011164
farthest,0.009630
faster,0.005502
faunal,0.009549
favour,0.005186
featur,0.028534
femal,0.026476
fenc,0.008776
fertil,0.005528
fexh,0.014267
field,0.002880
fifth,0.005616
figurin,0.019673
final,0.006822
fine,0.005638
flake,0.009472
flax,0.019099
flex,0.010589
flint,0.059675
flintwork,0.014267
flomborn,0.014267
floor,0.019246
flourish,0.023218
fluvial,0.010074
food,0.020294
foodproduc,0.049485
foothil,0.010188
forc,0.002826
forest,0.005423
form,0.006467
fortifi,0.015435
fractur,0.007956
frame,0.005389
frequenc,0.010779
fresh,0.006334
friedrich,0.005768
funerari,0.019737
futur,0.006869
g,0.003815
gaederopu,0.014267
garden,0.006307
gather,0.009833
gave,0.004103
gebirg,0.028535
gene,0.005472
gener,0.008106
genet,0.009580
geograph,0.009173
geographi,0.005191
german,0.007965
germani,0.016985
gi,0.007891
gift,0.012731
gimbuta,0.050149
goat,0.007419
goddess,0.015874
goe,0.005075
good,0.018813
gordon,0.013155
gourd,0.011129
gracil,0.013175
grade,0.006577
gradient,0.006710
gradual,0.004533
grain,0.024510
grave,0.082492
gravettian,0.011958
graze,0.031674
great,0.006357
greater,0.007104
grogartach,0.014267
ground,0.008207
group,0.033071
grow,0.003616
grown,0.010862
growth,0.007139
guidelin,0.006255
h,0.007835
ha,0.015044
handl,0.015384
haplogroup,0.021985
hardli,0.007539
harvest,0.006251
harz,0.012537
head,0.003640
heavi,0.004874
hemp,0.009523
henc,0.004400
hertelendi,0.014267
herxheim,0.028535
hess,0.008381
hiatu,0.018481
hide,0.006676
hienheim,0.014267
high,0.002855
hinkelstein,0.014267
histor,0.003168
histori,0.002348
hoguett,0.013175
home,0.020135
honor,0.005834
hordeum,0.014267
horizon,0.006874
horticulturalist,0.011445
hous,0.079448
household,0.005610
howev,0.011444
human,0.002717
hundr,0.008569
hungari,0.069837
hungarian,0.029083
hunt,0.005691
huntergather,0.015745
husbandri,0.008204
hvsi,0.028535
hypervari,0.012722
hypothes,0.011215
iconographi,0.028270
ident,0.004038
identifi,0.006818
ideolog,0.005327
imit,0.006671
immedi,0.004145
immigr,0.005612
implement,0.003926
import,0.004810
improv,0.003470
impuls,0.007228
incis,0.065467
includ,0.011746
increas,0.010847
indepth,0.008181
indic,0.017346
indirect,0.006127
individu,0.005817
industri,0.003219
influenc,0.006212
inhabit,0.004902
inherit,0.005229
inhum,0.036253
initi,0.009192
injuri,0.006251
inland,0.006767
innov,0.009770
insert,0.006542
insid,0.004730
instead,0.006606
integr,0.003403
intend,0.004365
intens,0.009367
interior,0.005534
intern,0.004942
interpret,0.018812
interv,0.011883
introduc,0.006616
introduct,0.003738
intrud,0.008653
invas,0.005142
investig,0.011855
j,0.003541
jewelri,0.008842
jug,0.011535
just,0.003288
justifi,0.005671
k,0.004275
kermia,0.028535
kill,0.004655
kinship,0.008331
kit,0.017553
klnlindenth,0.014267
klopfleisch,0.013814
km,0.026538
knive,0.009775
known,0.014138
kr,0.131593
ku,0.010268
la,0.004706
labor,0.013889
lack,0.003595
lake,0.005561
land,0.042823
langweil,0.014267
larg,0.007454
late,0.055496
later,0.005608
latrin,0.011841
lautereck,0.014267
layer,0.016282
layout,0.007900
lbk,0.619303
leap,0.007503
led,0.003043
left,0.003758
legaci,0.011857
len,0.007151
length,0.009355
lengyel,0.012537
lennai,0.014267
lentil,0.020982
lessinhabit,0.014267
level,0.005638
life,0.006061
lifespan,0.007767
lifestyl,0.006714
light,0.003887
lighter,0.007399
like,0.005036
limit,0.008638
line,0.033744
lineag,0.006978
linear,0.170566
linearbandkeramik,0.027629
link,0.006150
linum,0.013175
list,0.002621
lit,0.007854
live,0.012194
local,0.022353
locat,0.027732
loess,0.011203
log,0.006605
logcabin,0.014267
long,0.027551
longer,0.003888
longhous,0.024442
look,0.003892
loom,0.008566
lower,0.013935
loweryield,0.014267
lug,0.024742
m,0.013487
main,0.005969
mainli,0.003913
mainstay,0.008623
maintain,0.003287
major,0.020010
make,0.004794
male,0.021152
man,0.004171
mandatori,0.007246
mani,0.012785
manifest,0.005423
manner,0.004550
manufactur,0.022480
map,0.004313
marija,0.012221
martial,0.007591
maslin,0.013175
mass,0.003866
massacr,0.006874
massiv,0.010033
materi,0.016518
matriloc,0.012722
matthia,0.008745
matur,0.005486
maximum,0.020506
meanwhil,0.005700
measur,0.003087
medicin,0.004495
mediterranean,0.024667
mention,0.013693
mesolith,0.092625
metal,0.004906
meter,0.012690
method,0.002919
microlith,0.011203
middl,0.093290
migrant,0.007359
miliaceum,0.013814
milk,0.006963
millennia,0.006869
millet,0.018154
miss,0.005947
mistress,0.009603
mitochondri,0.008419
mix,0.004534
model,0.008810
modern,0.002827
modernday,0.006710
money,0.004213
monococcum,0.014267
moravia,0.009968
moreov,0.005408
mortal,0.006301
mortar,0.008809
mother,0.005433
mountain,0.025361
mouth,0.006684
movement,0.003250
mtdna,0.031062
multipl,0.003626
music,0.020725
mysteri,0.006223
myth,0.006020
na,0.021387
nation,0.002612
nativ,0.009745
natur,0.002516
ndt,0.025866
near,0.031010
nearbi,0.005802
nearli,0.004106
necess,0.005907
necessari,0.003757
neck,0.007734
neolith,0.175636
netherland,0.016482
new,0.008423
nitra,0.012933
node,0.007106
north,0.029946
northern,0.013222
northward,0.008014
northwest,0.006447
note,0.013590
notenkopfkeramik,0.014267
notion,0.008920
novo,0.008928
nowrar,0.014267
number,0.011792
oak,0.007591
object,0.003222
obscur,0.006530
obsidian,0.019673
occup,0.004912
occupi,0.023631
occur,0.005990
occurr,0.006098
ochr,0.010002
oder,0.019099
onetoon,0.008381
onli,0.013021
onlin,0.004126
open,0.003227
origin,0.013063
oslonki,0.014267
outer,0.018070
outsid,0.003596
overal,0.012944
paint,0.053888
palaeolith,0.020222
palisad,0.021389
palli,0.009658
panicum,0.012933
papav,0.012933
pari,0.005155
partial,0.004336
partit,0.006530
pass,0.003662
pastur,0.008842
pathogen,0.007584
pattern,0.012067
pea,0.008085
peac,0.004546
peopl,0.025992
percentag,0.015760
perform,0.003314
perhap,0.008765
period,0.014006
person,0.006169
phase,0.058937
phenomenon,0.004855
phylogenet,0.014908
piec,0.015618
pierc,0.008117
pisum,0.012084
pit,0.044808
place,0.018663
plain,0.030804
plane,0.005678
plant,0.004093
plaster,0.019673
player,0.006170
plot,0.005777
pocket,0.007532
point,0.008204
poland,0.019321
pole,0.006530
poorli,0.006242
poppi,0.010074
popul,0.070440
posit,0.002794
possess,0.008473
possibl,0.013786
post,0.013726
postul,0.011633
potteri,0.415127
practic,0.008677
preced,0.005121
preclud,0.007750
predict,0.003955
predomin,0.018500
prefer,0.004139
prehistor,0.019603
prehistori,0.006790
prepar,0.004384
presenc,0.012264
present,0.010812
presum,0.012069
preval,0.011904
previou,0.008153
previous,0.004121
primarili,0.003695
principl,0.003245
prior,0.004083
probabl,0.019396
proceed,0.004947
process,0.002555
produc,0.005625
product,0.011270
pronounc,0.006530
propos,0.006670
protovina,0.014267
proxim,0.006248
publish,0.006001
pull,0.006204
punctur,0.020456
purpos,0.003516
quick,0.006680
rain,0.013729
rainfal,0.007440
rais,0.003987
ran,0.006051
rang,0.035697
rapid,0.004685
rapidli,0.009115
rare,0.008898
rate,0.013400
raw,0.005593
reach,0.010453
reason,0.003077
rebirth,0.007966
recapitul,0.010539
recent,0.002968
recogn,0.003676
record,0.003613
rectangular,0.016234
reduct,0.004933
reevalu,0.008458
refer,0.001714
referenc,0.007366
reflect,0.003684
region,0.042983
regularli,0.005836
rel,0.006148
relat,0.002311
relev,0.004484
religi,0.008759
religion,0.008733
remain,0.017013
remicourt,0.014267
remov,0.007917
replac,0.006987
repres,0.005624
reproduct,0.005824
republ,0.008048
requir,0.002699
research,0.005562
resid,0.018169
residenti,0.007379
resist,0.004442
respons,0.002973
result,0.002388
return,0.003469
reveal,0.013529
rhine,0.035574
rich,0.004916
richest,0.007475
rightli,0.009198
ritual,0.006393
river,0.014062
rixheim,0.014267
romania,0.021577
roof,0.008344
rope,0.008272
rotat,0.005676
rough,0.006799
roughli,0.014428
row,0.006630
rssen,0.026926
run,0.003767
russia,0.005038
rye,0.009284
safe,0.005605
saj,0.011631
salmon,0.008668
sampl,0.015328
sank,0.008525
sativum,0.023916
saw,0.004195
say,0.003714
sbk,0.013463
scantli,0.013463
scatter,0.006331
schade,0.014267
scheme,0.005160
schneckkilianstdten,0.014267
schulz,0.010268
scienc,0.002883
scientif,0.003450
scientist,0.007841
scraper,0.010694
sea,0.008749
search,0.004388
secal,0.013463
second,0.005627
sedentari,0.008609
segment,0.005874
seineois,0.014267
sequenc,0.033318
serbia,0.007496
set,0.002655
settl,0.009745
settlement,0.065044
seven,0.004499
sever,0.002487
sex,0.011872
sharp,0.005794
sheep,0.006908
shell,0.011541
shoelast,0.014267
short,0.003655
shortrang,0.010310
sickl,0.009775
sign,0.007857
signific,0.006092
similar,0.005698
simpl,0.003791
sinc,0.007158
singl,0.003193
site,0.044212
sittard,0.014267
sixth,0.006334
skeleton,0.007295
skull,0.007622
slant,0.009745
slashandburn,0.010641
sleep,0.013580
slope,0.006888
slovakia,0.008215
small,0.008759
smelli,0.012371
social,0.009106
solid,0.005128
someth,0.004587
sometim,0.009318
somewhat,0.015175
somniferum,0.013463
sonderhausen,0.014267
sort,0.005004
sourc,0.003001
south,0.011210
southeast,0.005841
southern,0.022142
southward,0.015970
span,0.005512
spars,0.014385
speak,0.004575
speci,0.013165
special,0.005968
specul,0.004964
spiegel,0.010228
spiral,0.007302
spiritu,0.005498
split,0.004904
spondylu,0.025866
spread,0.042177
stabl,0.004695
stadler,0.011732
stage,0.004167
standard,0.003213
starevo,0.012371
starevokr,0.069072
starevokrscri,0.013814
starevotyp,0.014267
start,0.006040
statist,0.003914
steep,0.007645
stepp,0.008284
stichbandkeramik,0.014267
stick,0.007175
stimul,0.005339
stockrais,0.014267
stone,0.042632
stop,0.004714
storag,0.011356
stori,0.004836
strike,0.005307
strip,0.006261
stroke,0.030489
strong,0.003467
structur,0.011151
studi,0.017652
style,0.009833
subject,0.003035
subsist,0.006569
substanti,0.004429
substitut,0.010604
succeed,0.004878
success,0.003164
successor,0.010719
suddenli,0.007079
suggest,0.006681
suitabl,0.005297
supplement,0.005907
support,0.017022
surviv,0.012346
swerv,0.012084
swine,0.019936
systemat,0.009117
szaklht,0.014267
szaklhtesztrbkk,0.028535
szatmr,0.014267
szilmeg,0.014267
t,0.004151
taken,0.003493
talheim,0.013814
tantal,0.012084
tatra,0.012371
techniqu,0.003666
temperatur,0.004823
tend,0.003918
term,0.006764
termin,0.005590
terrac,0.009240
thatch,0.010641
theme,0.010569
themselv,0.003539
theori,0.011187
therefor,0.012973
thi,0.021417
think,0.004138
thought,0.006763
thrive,0.006605
tie,0.009308
timber,0.007146
time,0.023223
tisza,0.035198
tiszadob,0.014267
tiszahrplycsszhalom,0.014267
tiszapolgar,0.014267
today,0.006855
tool,0.022924
trace,0.013726
trade,0.006903
tradit,0.006009
transdanubian,0.026926
transfer,0.004083
transit,0.024925
translat,0.008215
transylvania,0.010038
trapezoid,0.010268
trash,0.010491
tree,0.009830
triticum,0.025074
true,0.003863
twentyfour,0.009498
twice,0.005687
type,0.005737
u,0.016703
ubiquit,0.007525
ukrain,0.014258
ultim,0.004127
understood,0.004478
unfortifi,0.012933
uniqu,0.008137
unit,0.002406
uniti,0.010489
unsuspect,0.010641
unten,0.009352
upper,0.038548
urban,0.005004
use,0.040944
usitatissimum,0.013814
v,0.012763
valley,0.022072
vari,0.010552
variabl,0.004361
variant,0.040462
variat,0.008945
vase,0.020005
venu,0.007222
veri,0.005450
vertic,0.006173
vetch,0.011732
vicia,0.026926
vienna,0.006827
view,0.021408
villag,0.021810
vinatordo,0.014267
violenc,0.011365
vistula,0.034607
vonaldisz,0.014267
vonaldsz,0.014267
vs,0.005761
wa,0.091954
wait,0.006470
wall,0.015157
ware,0.074987
waremmelongchamp,0.014267
warrant,0.007359
wast,0.005723
wasteproduc,0.014267
water,0.014723
wattl,0.011535
wattleanddaub,0.013175
wave,0.004812
way,0.002551
wealthier,0.009019
wean,0.010444
weapon,0.005298
weapontraumat,0.013814
weed,0.025871
went,0.026259
western,0.028714
wetland,0.050669
wetterau,0.012933
wheat,0.020357
whi,0.004390
white,0.009060
wide,0.006146
wild,0.024486
willendorf,0.011841
window,0.020118
women,0.018164
wood,0.011012
work,0.011696
wound,0.006546
year,0.019265
yearold,0.006953
yhaplogroup,0.012933
zwenkau,0.014267
