abov,0.013973
academ,0.016347
act,0.012474
administr,0.015260
agenc,0.017170
aim,0.015585
alltagsgeschicht,0.050455
althuss,0.080794
analys,0.021338
analysi,0.039471
anderson,0.028445
anoth,0.020995
antistalinist,0.052048
approach,0.012561
argu,0.029039
argument,0.018337
arm,0.017403
aspect,0.014344
assign,0.019604
associ,0.010662
attempt,0.012449
avoid,0.032605
b,0.014456
bandit,0.039338
bauernkrieg,0.057418
becam,0.024059
began,0.013141
begin,0.012832
besid,0.022517
black,0.017761
blackledg,0.051202
bodi,0.013206
bolshevik,0.069064
book,0.012507
brahmin,0.038868
break,0.018141
bring,0.016360
britain,0.055621
british,0.029388
brumair,0.047217
c,0.012595
capitalist,0.078114
ce,0.024151
centr,0.018123
central,0.012355
chapter,0.020543
check,0.022851
chief,0.036710
christoph,0.023100
circl,0.021239
class,0.116960
classless,0.041001
cleometr,0.057418
commod,0.021395
common,0.021318
commonli,0.014639
communist,0.086971
comprehens,0.019418
concoct,0.043261
condit,0.024670
consid,0.020562
constraint,0.021888
contemporari,0.017244
continu,0.010681
contribut,0.025879
cours,0.015365
cpgb,0.151366
creat,0.032350
creativ,0.022779
currenc,0.019319
d,0.071360
da,0.023468
datta,0.047655
deal,0.014202
debat,0.016413
deciph,0.032624
declin,0.016738
der,0.023072
describ,0.010851
determin,0.061215
determinist,0.028146
deutsch,0.029805
develop,0.008817
dialect,0.051868
direct,0.046827
disagre,0.025345
disappear,0.022414
disciplin,0.016245
divin,0.070345
divorc,0.029618
doe,0.011928
e,0.028572
earli,0.021232
econom,0.011615
economi,0.014495
effort,0.014699
eighteenth,0.027128
emerg,0.027206
emphasi,0.038504
end,0.034814
engag,0.016808
engel,0.098256
england,0.018417
english,0.029564
eric,0.025212
exampl,0.009505
expect,0.014583
factor,0.040373
famous,0.027569
father,0.018660
feudal,0.109675
fiscal,0.024063
forc,0.022752
foreign,0.014774
form,0.008675
friedrich,0.023214
gener,0.024466
german,0.048086
germani,0.017089
given,0.034150
god,0.019864
govern,0.010792
grant,0.017399
great,0.038375
group,0.040951
growth,0.014366
ha,0.022704
habib,0.039715
hand,0.014063
henc,0.017708
hi,0.040705
hill,0.022577
histor,0.178491
histori,0.283598
historian,0.133876
historiograph,0.035386
historiographi,0.374470
hobsbawm,0.042415
howev,0.009211
human,0.032804
hungarian,0.029260
idea,0.012738
ideolog,0.021439
imagin,0.022690
impetu,0.029285
import,0.029040
importantli,0.026008
includ,0.023636
india,0.052129
indian,0.018787
indic,0.013962
individu,0.011706
influenc,0.012500
inform,0.011283
insid,0.019035
intent,0.019100
intern,0.009945
irfan,0.046062
jacobin,0.040844
jame,0.016007
jha,0.049183
joseph,0.018702
judici,0.021788
justifi,0.022824
k,0.017207
kapit,0.038022
key,0.014442
kosambi,0.092849
l,0.016704
labor,0.130428
land,0.028722
left,0.030251
liberatori,0.094435
life,0.024394
limit,0.011588
line,0.013580
live,0.012268
loui,0.021410
lowercas,0.035722
m,0.013569
mainstream,0.023025
make,0.009648
manifesto,0.029914
marx,0.185636
marxian,0.068076
marxism,0.059343
marxist,0.515207
materi,0.066478
materialist,0.061350
member,0.012105
mere,0.037330
metal,0.019747
method,0.011750
methodolog,0.040166
middl,0.015643
millennium,0.023681
mode,0.021360
moment,0.021585
monasteri,0.028828
n,0.051116
napoleon,0.025875
nation,0.010513
natur,0.060773
notabl,0.043676
object,0.012969
objectifi,0.042616
old,0.015698
onli,0.008733
oppress,0.111929
order,0.010455
organ,0.010348
outcom,0.038794
outlin,0.018467
output,0.019803
outsid,0.014473
overarch,0.032097
overdetermin,0.082652
p,0.028966
panikkar,0.051202
parti,0.058648
past,0.015051
paul,0.016492
payment,0.020449
peasant,0.052910
peopl,0.031381
perri,0.035193
physic,0.012414
pioneer,0.019819
place,0.021459
point,0.011005
polit,0.023815
politicis,0.043492
posit,0.011244
possibl,0.011096
poverti,0.022381
power,0.011133
practition,0.022833
precondit,0.033830
predecessor,0.023722
predominantli,0.024151
preindustri,0.035791
premodern,0.032375
previou,0.016406
principl,0.013059
problemat,0.026220
process,0.010285
product,0.056695
project,0.026924
proletarian,0.038868
prosecut,0.029411
protest,0.020218
publish,0.012075
r,0.043676
realiti,0.018768
refer,0.013799
reflect,0.014828
rel,0.024743
relat,0.018606
repres,0.011318
request,0.020972
resolv,0.020042
result,0.019222
revenu,0.020129
revolt,0.025121
revolut,0.017093
right,0.012381
romila,0.046808
rule,0.012595
s,0.048930
salient,0.034253
scarc,0.026423
schema,0.033933
scholar,0.017522
school,0.014038
seen,0.027077
self,0.023712
selfconsci,0.069064
seniormost,0.052048
sens,0.014197
share,0.013445
sharma,0.080231
sheer,0.033338
short,0.029423
social,0.048864
socialist,0.021482
societi,0.036093
sort,0.020141
soviet,0.083198
space,0.014805
spirit,0.043395
stage,0.016769
stalin,0.031575
state,0.016804
strategi,0.017888
structur,0.011219
subject,0.024432
suffer,0.017526
suffici,0.017753
sum,0.019155
tactic,0.025535
templ,0.025385
tend,0.015769
tenet,0.028273
term,0.009073
thapar,0.045719
themselv,0.014244
theori,0.056279
therefrom,0.042031
thi,0.035913
thompson,0.085534
today,0.013795
took,0.015001
tool,0.030752
topic,0.015236
track,0.021246
trade,0.013891
treatis,0.023166
understand,0.013034
union,0.042809
urban,0.020141
use,0.007846
variou,0.010932
view,0.024615
virtual,0.018991
wa,0.070863
war,0.027282
warfar,0.024354
work,0.094140
write,0.030028
written,0.015203
wrote,0.016360
year,0.009691
