academi,0.017583
accept,0.003819
accord,0.003042
accra,0.073141
accredit,0.007706
acheampong,0.077486
act,0.003477
action,0.003738
activ,0.003035
ad,0.003882
adda,0.013162
addit,0.006155
administr,0.004253
advertis,0.007149
afghanistan,0.007805
afiri,0.016005
afrf,0.016005
africa,0.014822
african,0.005332
afrifa,0.015497
agre,0.013761
agreement,0.004644
aid,0.004564
air,0.018694
airborn,0.018164
airport,0.006701
ak,0.009293
akuffo,0.046491
akwasi,0.016005
allianc,0.011380
amidst,0.009658
amphibi,0.010415
andor,0.005324
ankrah,0.016005
annan,0.011473
appar,0.005193
apparel,0.010204
appoint,0.005001
arm,0.164940
armi,0.094197
armor,0.009094
armour,0.027461
arnold,0.007733
artilleri,0.016631
asia,0.005223
assault,0.007800
assum,0.004214
attach,0.005760
balkan,0.008630
ballist,0.009548
ban,0.006129
bank,0.013199
base,0.013255
battalion,0.081427
becam,0.006706
becom,0.002936
befor,0.003133
began,0.003663
bgu,0.028545
bibliographi,0.005335
billion,0.005210
bloodless,0.009594
blue,0.006539
bomb,0.006945
book,0.003486
border,0.016212
branch,0.007802
brigad,0.055220
bring,0.004560
budget,0.011484
burma,0.027353
busi,0.004135
cadet,0.032051
cambodia,0.035788
cambodiauntac,0.016005
camouflag,0.010965
camp,0.019943
canadian,0.006236
ceasefir,0.008676
centr,0.005052
centuri,0.003155
chairman,0.020848
chang,0.005540
charg,0.009483
chief,0.015349
china,0.009441
chop,0.011301
chronic,0.007552
cite,0.005139
citizen,0.005028
civil,0.025289
civilian,0.051101
clearanc,0.009459
closer,0.018240
cloth,0.012847
cold,0.005857
colleg,0.005334
colonel,0.033637
combat,0.012899
combin,0.003503
command,0.072176
commanderinchief,0.008533
commit,0.005150
commun,0.003213
compani,0.011640
comprehens,0.005412
conduct,0.008423
conflict,0.004577
confus,0.005531
congo,0.016771
consist,0.003289
conting,0.007137
continu,0.005955
contribut,0.003606
control,0.003265
cooper,0.014091
corp,0.014499
council,0.031367
counterinsurg,0.010342
counterpart,0.006589
countri,0.009702
coup,0.033462
court,0.004661
creat,0.003005
creation,0.004473
crimin,0.006224
csm,0.013710
current,0.003146
cut,0.005217
cwo,0.015497
dallair,0.014272
dampen,0.009977
deal,0.003958
decad,0.008934
decre,0.007057
defenc,0.065805
defens,0.005393
demin,0.012940
democrat,0.004815
depart,0.008617
department,0.010390
depos,0.008081
develop,0.002457
devil,0.008704
dickson,0.010899
dihoc,0.032011
dilemma,0.008338
disast,0.006788
dispos,0.007270
disquiet,0.012840
disturb,0.006901
diver,0.010366
divers,0.004726
divis,0.008518
doctrin,0.011786
dress,0.016327
dtat,0.031548
dure,0.002828
duti,0.005847
earli,0.002959
eastern,0.004910
ecomog,0.013284
econom,0.009713
ed,0.004141
educ,0.011307
effect,0.005748
elect,0.008727
elector,0.006347
element,0.003762
emerg,0.007583
emmanuel,0.009707
end,0.003234
engin,0.012791
enlist,0.009267
equip,0.015869
establish,0.003157
estim,0.004163
europ,0.004011
evacu,0.008088
exclus,0.005054
expans,0.009984
extens,0.003995
extern,0.030075
facil,0.017014
failur,0.005147
februari,0.004806
feder,0.004710
fight,0.005551
fine,0.006325
fisheri,0.008042
flagstaff,0.013556
flight,0.006481
follow,0.010123
forc,0.142699
foreign,0.008237
form,0.009673
formerli,0.005926
fraction,0.006192
fred,0.008205
free,0.003613
frequent,0.004447
frogmen,0.015497
ga,0.037259
gaf,0.749437
gave,0.004603
gen,0.018666
gener,0.013640
genocid,0.017118
georgia,0.007562
ghana,0.402138
ghanaian,0.141229
ghanaiancoup,0.016005
ghf,0.032011
gmp,0.038822
gn,0.033212
good,0.003517
govern,0.018051
graduat,0.005928
gratitud,0.010139
group,0.014269
guard,0.039676
guerrilla,0.008042
ha,0.012657
hand,0.007840
harlley,0.016005
head,0.008168
headquart,0.035049
hi,0.002836
high,0.006407
histori,0.005270
hold,0.007621
hospit,0.049910
hous,0.008488
howev,0.005135
hq,0.035638
humanitarian,0.015920
ignatiu,0.011519
ignit,0.009215
includ,0.010981
independ,0.003249
industri,0.010833
infantri,0.085508
inflat,0.005958
inspector,0.009503
insurrect,0.009280
intern,0.016634
intervent,0.005740
involv,0.003067
iran,0.021530
iraniraq,0.011144
iraq,0.014160
isbn,0.003740
islam,0.005266
issu,0.003394
januari,0.013545
jerri,0.017428
join,0.009411
joseph,0.005213
juli,0.013709
june,0.004609
just,0.003689
jwk,0.016005
known,0.002643
kofi,0.011473
korea,0.006385
kosovo,0.017829
kotoka,0.032011
kpa,0.010932
kumasi,0.060412
kutu,0.015497
kuwait,0.008947
kwame,0.012123
lake,0.006238
larg,0.005575
largest,0.004368
launch,0.005327
law,0.006372
lay,0.005952
leadership,0.011477
lebanon,0.026286
lebedev,0.026829
led,0.013654
leon,0.007869
liber,0.009537
liberia,0.019035
lieuten,0.033766
lift,0.007061
line,0.007571
link,0.002299
logist,0.015265
long,0.003434
lt,0.019482
main,0.013393
mainli,0.004390
major,0.005611
manag,0.003787
mani,0.002390
manufactur,0.010087
march,0.004385
maritim,0.006808
medic,0.014611
member,0.003374
militari,0.192532
minist,0.009543
ministri,0.011373
miscellan,0.009190
mission,0.015820
mix,0.005087
modern,0.006344
monitor,0.011439
monuc,0.011665
motiv,0.005166
mount,0.012331
ms,0.007947
nation,0.023444
navi,0.025320
nd,0.009841
nearli,0.004606
nepal,0.008980
new,0.007087
nkrumah,0.037702
north,0.004199
northern,0.014832
nrc,0.022288
number,0.002645
observ,0.003490
octob,0.004573
offic,0.012771
offici,0.016060
onuc,0.028129
oper,0.093421
organ,0.002884
otu,0.014508
owusu,0.016005
page,0.005184
paramed,0.011473
paramilitari,0.009280
parti,0.008174
pass,0.004108
patrol,0.017016
pave,0.007479
peac,0.010201
peacekeep,0.064288
peopl,0.002915
perform,0.003717
person,0.003460
personnel,0.039217
photograph,0.007279
piraci,0.009374
pla,0.011000
place,0.005981
plan,0.004005
pndc,0.028545
pogr,0.032011
polic,0.047055
polit,0.016596
poor,0.005229
posit,0.003134
post,0.010265
postgradu,0.008862
power,0.003103
prais,0.007091
presenc,0.004586
presid,0.026315
pressur,0.009130
prevent,0.004335
previous,0.004623
prime,0.004872
prior,0.004580
prison,0.006436
privat,0.013045
privileg,0.006921
professor,0.005420
prohibit,0.012376
promis,0.005698
promot,0.004326
proport,0.005014
protect,0.004041
proudli,0.011716
provid,0.008072
provision,0.007685
provost,0.013048
public,0.003054
publicli,0.006489
quainoo,0.032011
quit,0.005125
rawl,0.041465
rd,0.005430
read,0.003340
readabl,0.009828
rebel,0.006988
recent,0.003330
reconnaiss,0.019066
recruit,0.021274
redempt,0.009241
refer,0.003846
regim,0.005604
regiment,0.104005
reinstat,0.008742
reli,0.009269
relief,0.006857
remain,0.003181
reorgan,0.008042
replac,0.007838
republ,0.013542
resembl,0.006067
resign,0.006572
resolut,0.005883
respons,0.003336
rest,0.004506
restructur,0.007597
result,0.002679
resumpt,0.009938
resuppli,0.010866
retir,0.006544
revolutionari,0.006121
rhodesian,0.011665
rifl,0.018164
rise,0.003870
role,0.003369
romeo,0.011823
rule,0.014043
run,0.004226
russia,0.011305
russian,0.005631
rwandan,0.011385
s,0.005455
schedul,0.006392
school,0.003913
seaman,0.011769
seat,0.005691
second,0.009470
secondari,0.005477
secur,0.008172
seen,0.003773
sekonditakoradi,0.032011
senior,0.006375
sentenc,0.006575
septemb,0.013915
serv,0.003828
servic,0.003747
sever,0.002790
shake,0.009707
short,0.004101
sic,0.009548
sierra,0.008991
signal,0.005534
significantli,0.004936
sinc,0.005353
site,0.004508
small,0.003275
smc,0.052192
soldier,0.018272
solut,0.004579
southern,0.009936
special,0.003347
specialist,0.006641
spot,0.006701
squadron,0.009070
st,0.012945
staf,0.009036
staff,0.031552
standard,0.007210
start,0.003388
state,0.011710
statu,0.004470
statutori,0.008925
stephen,0.011892
straight,0.007424
strateg,0.005842
structur,0.006255
subunit,0.008991
success,0.007099
sudden,0.007663
supervis,0.019201
support,0.009548
suprem,0.016444
taken,0.003919
tamal,0.014508
task,0.004965
teach,0.005243
technolog,0.011578
tema,0.014508
temporari,0.006312
territori,0.004685
teshi,0.016005
th,0.009208
thi,0.002002
thu,0.003129
time,0.002368
took,0.004181
total,0.003734
train,0.041601
transport,0.004588
treatment,0.004924
troubl,0.007028
twentyfourhour,0.015103
type,0.003218
unam,0.013710
unamir,0.014272
unamsil,0.012840
undergon,0.008354
unifi,0.005603
unifil,0.012744
unit,0.029699
unmil,0.012331
untac,0.058034
use,0.004374
vehicl,0.006077
veri,0.003056
vest,0.007020
volta,0.010036
volum,0.004585
vyacheslav,0.024519
wa,0.026337
war,0.030420
water,0.004129
way,0.002862
weapon,0.005944
weaponri,0.009178
wear,0.007254
websit,0.005061
went,0.004909
west,0.004596
western,0.004026
wore,0.009578
work,0.005248
worker,0.004982
world,0.002713
year,0.008104
young,0.004970
zone,0.005532
