abort,0.006072
abov,0.002782
abramoff,0.010364
abus,0.009351
act,0.004968
adjectiv,0.006706
administr,0.003039
agricultur,0.003230
agrihan,0.010196
air,0.003338
airport,0.004787
american,0.004925
anatahan,0.010196
anthem,0.006316
approxim,0.002962
architectur,0.004099
archiv,0.008001
area,0.006476
arm,0.003465
art,0.006650
articl,0.007749
ash,0.005872
atla,0.010192
bank,0.003143
begin,0.002555
ber,0.006757
bicamer,0.005903
biospher,0.005463
bird,0.004473
blalock,0.009583
boundari,0.003658
branch,0.011148
bruce,0.005384
bureau,0.004957
cabinet,0.004409
cannabi,0.007086
capit,0.005709
care,0.003297
carolinian,0.009794
censu,0.010294
chamorro,0.017839
christian,0.003401
christoph,0.004600
cinema,0.005893
citi,0.003031
clarren,0.011071
climat,0.003748
cnmi,0.084627
coastlin,0.005460
coat,0.005200
code,0.010190
cohen,0.005778
commentari,0.005060
committe,0.007532
common,0.004245
commonwealth,0.031742
commun,0.004591
compani,0.002772
complet,0.002424
compris,0.003591
condit,0.002456
constitut,0.005544
contain,0.002518
contract,0.003521
count,0.004004
countri,0.006931
court,0.003329
coven,0.006463
crime,0.004355
critic,0.002582
cuisin,0.005968
cultur,0.002639
currenc,0.003847
daili,0.004106
decemb,0.003221
deleg,0.004957
demographi,0.005903
demonym,0.006876
die,0.003363
digit,0.003920
digniti,0.006273
district,0.008493
divis,0.003042
dmoz,0.004649
dollar,0.004102
domain,0.003428
dot,0.005673
e,0.002844
eastern,0.003508
econom,0.002313
economi,0.002886
ecoregion,0.006259
educ,0.002692
elect,0.003117
encyclopedia,0.003640
endonym,0.013893
energi,0.011836
enforc,0.003962
environ,0.002801
especi,0.002454
estim,0.002974
etymolog,0.004499
everi,0.002644
exchang,0.002987
execut,0.003201
extern,0.001652
extrem,0.003031
fauna,0.005391
featur,0.002858
februari,0.003434
feder,0.003365
femal,0.008487
festiv,0.005249
fjord,0.007127
flag,0.010094
follow,0.001808
food,0.003252
footbal,0.005656
forc,0.002265
foreign,0.002942
form,0.001727
freedom,0.003568
fresh,0.005076
ft,0.004939
garment,0.013686
gbler,0.010559
gdp,0.004250
gener,0.001624
geograph,0.003675
geographi,0.004160
geolog,0.004319
germani,0.003403
glacier,0.005908
govern,0.015045
governor,0.004148
greed,0.006995
guid,0.003195
ha,0.001507
harri,0.004753
hawaii,0.006013
head,0.005835
health,0.003150
hear,0.009532
hemispher,0.010294
heritag,0.009245
high,0.002288
hinduism,0.005434
histori,0.003765
holiday,0.005320
horst,0.007809
hour,0.003971
hous,0.009095
hr,0.013967
human,0.006532
hundr,0.003434
imag,0.003480
immin,0.006496
index,0.003590
indian,0.003741
industri,0.005159
inform,0.002247
infrastructur,0.003826
intern,0.001980
internet,0.007415
islam,0.003762
island,0.391945
islandsrel,0.008044
iso,0.021098
jack,0.005343
januari,0.003225
journal,0.002907
judaism,0.005405
judici,0.004339
kaplan,0.007243
karen,0.006471
kcnm,0.010196
km,0.008507
kzmi,0.010196
labor,0.007421
lake,0.004457
land,0.005719
languag,0.008520
larg,0.001991
law,0.004552
legisl,0.003459
legislatur,0.004622
lehn,0.009403
lehneverlag,0.010559
lgbt,0.006384
link,0.001643
literatur,0.003375
lloyd,0.005827
lobbi,0.005807
local,0.002559
locat,0.008334
long,0.002453
lost,0.003283
low,0.002895
lower,0.002792
lowest,0.004494
m,0.008106
machin,0.003648
magazin,0.004374
maintain,0.002634
male,0.004238
mammal,0.004783
manag,0.002706
map,0.003456
mariana,0.810092
marianan,0.010559
marianen,0.010559
media,0.006931
member,0.002410
membership,0.004161
men,0.003503
mi,0.004764
micronesia,0.014017
micronesian,0.016526
militari,0.003056
mnp,0.009914
moralist,0.008229
mountain,0.004065
mp,0.016717
ms,0.005677
municip,0.009208
music,0.004152
mymicronesianorthern,0.010559
n,0.003393
nation,0.004187
natur,0.004034
neocoloni,0.007934
news,0.012371
nomin,0.003943
north,0.011999
northern,0.402669
npr,0.007988
number,0.001890
ocean,0.023328
oceania,0.005773
offic,0.003041
offici,0.011473
oil,0.003771
onlin,0.003306
order,0.002082
organ,0.002060
outlin,0.003677
overview,0.011357
pacif,0.039413
page,0.007408
paradis,0.006767
park,0.004415
parti,0.002919
pascal,0.005877
pedro,0.006060
peopl,0.002083
phil,0.006899
philippin,0.005420
pictur,0.004229
plight,0.007440
plume,0.007306
point,0.002191
polici,0.002796
polit,0.009485
popul,0.005376
postal,0.005817
presid,0.003133
problem,0.002317
pronunci,0.005745
protect,0.002887
provid,0.001922
public,0.002181
rail,0.005452
rank,0.003657
ratio,0.003907
rd,0.003879
real,0.002851
rebecca,0.007552
record,0.002896
refer,0.002748
region,0.004921
relat,0.001852
religion,0.006999
renew,0.004018
report,0.002640
repres,0.004507
reserv,0.003654
resid,0.003640
resourc,0.002781
right,0.004931
rightw,0.006338
river,0.003756
road,0.003991
saipan,0.054239
sanit,0.006191
satellit,0.004794
scandal,0.005802
scienc,0.002311
secretariat,0.006431
section,0.003404
seminar,0.006245
senat,0.009427
servic,0.002677
seventi,0.006431
sex,0.014272
sikhism,0.006361
site,0.012884
slaveri,0.010078
smith,0.004051
social,0.002432
societi,0.002395
solv,0.003519
southern,0.003549
spc,0.007591
sport,0.004541
spring,0.004313
sq,0.005709
standard,0.002575
state,0.008366
statescommonwealth,0.010196
stock,0.003689
stream,0.004583
strongli,0.003685
suck,0.007274
superfund,0.009403
suppli,0.003117
suprem,0.003916
sweatshop,0.008661
symbol,0.003471
televis,0.004310
tenorio,0.009914
territori,0.013388
theatr,0.005402
thinkprogress,0.010559
thought,0.002710
threequart,0.006788
thursday,0.007184
time,0.005075
tinian,0.009914
titl,0.003432
topic,0.006068
toplevel,0.006211
total,0.002668
tourism,0.004448
transport,0.009834
tribun,0.005940
trust,0.004180
union,0.005683
unit,0.009644
univers,0.001980
unnam,0.007113
upper,0.003861
upu,0.005827
usd,0.005731
utc,0.006513
valley,0.004422
varieti,0.002871
video,0.004208
view,0.002450
volcano,0.005656
wa,0.001567
warn,0.004598
water,0.002949
waterfal,0.006455
way,0.002044
wayback,0.007184
webcast,0.008446
weekli,0.005673
western,0.002876
wikimedia,0.005330
wildlif,0.005449
wohldorf,0.010559
women,0.003639
worker,0.010679
world,0.005816
wwwlonelyplanetcom,0.010559
zone,0.003952
