abl,0.002701
aboard,0.012561
absorb,0.004274
abu,0.005818
abucay,0.011249
abyei,0.009635
accept,0.002684
accord,0.002138
aceh,0.027072
act,0.012219
action,0.010509
activ,0.002133
actual,0.005473
ad,0.010915
administr,0.002989
admir,0.005066
advis,0.004322
advisor,0.005478
afp,0.033559
aftermath,0.005328
agre,0.003223
agreement,0.009791
aguinaldo,0.071379
agusan,0.011249
aid,0.009623
air,0.016423
aircraft,0.004749
alapan,0.011249
alfredo,0.007373
alli,0.003949
allianc,0.003999
alongsid,0.004447
altern,0.002747
ambrosio,0.009170
america,0.005993
american,0.012113
amir,0.007235
amm,0.011249
analysi,0.002577
anchor,0.005818
anddin,0.011249
andr,0.005581
ang,0.008064
angelo,0.007449
anoth,0.004113
anteced,0.006117
anticoloni,0.007571
antonio,0.005568
appear,0.002476
april,0.006542
aquino,0.017232
archipelago,0.005427
area,0.002123
arm,0.030685
armament,0.006637
armi,0.062526
armor,0.006391
arriv,0.003442
articl,0.005082
artilleri,0.011689
aru,0.009635
asia,0.003671
asian,0.004073
asiat,0.014375
assembl,0.003338
assist,0.009564
assum,0.005924
attack,0.020685
attempt,0.007317
au,0.012262
august,0.009748
author,0.009630
auxiliari,0.006034
aviat,0.005625
award,0.003769
away,0.006514
ayuthaya,0.011249
b,0.014161
balangiga,0.011249
balantang,0.022498
balet,0.011249
balikatan,0.011249
bangsamoro,0.010891
bao,0.008432
basilan,0.010614
bataan,0.030093
batanga,0.021229
battalion,0.057229
battl,0.391719
bautista,0.008667
bay,0.009657
bct,0.053074
becam,0.002356
becaus,0.001940
befor,0.002202
began,0.002574
believ,0.002666
belliger,0.007392
bessang,0.011249
biaknabato,0.010388
bicol,0.021783
bien,0.008832
binakayan,0.011249
blockad,0.005904
boat,0.005139
bohol,0.021783
bolkiah,0.018341
bonifacio,0.030093
bridg,0.012779
british,0.002878
brunei,0.040459
bukidnon,0.011249
bungsu,0.011249
bureaucrat,0.005713
buri,0.005098
burmes,0.015058
burnham,0.007529
burtonwood,0.011249
burundi,0.014571
c,0.009870
cabanatuan,0.010891
cagayan,0.010031
calambu,0.011249
caloocan,0.011249
cambodia,0.018864
came,0.002823
campaign,0.054269
cap,0.005260
capa,0.010388
capit,0.005617
captain,0.005211
captur,0.003545
casualti,0.016971
catubig,0.011249
cavalri,0.006319
cavit,0.034270
ceas,0.004362
cebu,0.045852
cede,0.005526
celebr,0.004450
center,0.002754
centr,0.003550
central,0.004841
centuri,0.002217
ceremoni,0.004766
certain,0.002363
character,0.003275
chateau,0.009170
chau,0.009884
chief,0.007192
chieftain,0.006920
china,0.009953
chines,0.014847
christian,0.006693
church,0.003901
churchyard,0.008775
citat,0.005142
citi,0.005964
citizen,0.003534
civic,0.016876
civil,0.002962
civilian,0.004489
claim,0.002621
claudio,0.016698
close,0.002310
coalit,0.004184
coast,0.003941
cochinchina,0.009428
cold,0.004116
colleg,0.003748
colonel,0.005910
coloni,0.010713
combat,0.009066
combin,0.002462
comfort,0.005486
command,0.043480
commerci,0.003308
commodor,0.007508
commonwealth,0.022305
communist,0.017039
compar,0.005108
conclud,0.003532
condominium,0.007832
conflict,0.012867
congo,0.011787
conquest,0.009307
consid,0.004028
conspiraci,0.006137
constabulari,0.025296
constitut,0.002727
conting,0.065212
convert,0.003520
convinc,0.004597
cooper,0.003301
coordin,0.003661
coral,0.005708
corazon,0.019055
corp,0.015286
corralat,0.011249
corregidor,0.020062
cotabato,0.022498
cote,0.034668
countri,0.009091
coup,0.018814
cover,0.002843
cow,0.005956
crash,0.005136
creat,0.002112
crew,0.021725
crewmen,0.008567
cri,0.006375
crime,0.004285
crisi,0.003564
cross,0.003769
crossbow,0.008234
crush,0.005283
cruz,0.006450
d,0.002796
dagami,0.011249
dalahican,0.011249
dalton,0.006221
date,0.002886
datu,0.009884
daughter,0.009480
davao,0.009754
day,0.002606
dc,0.004782
deal,0.002782
death,0.003025
decemb,0.006339
decid,0.003366
decis,0.002912
declar,0.013344
defeat,0.008173
defenc,0.004204
defend,0.003864
defens,0.030327
del,0.005214
dela,0.010197
demand,0.003083
democrat,0.003384
depart,0.003028
deploy,0.009348
detat,0.008567
dewey,0.025632
dhervey,0.011249
dialogu,0.004821
dictatori,0.014747
dictatorship,0.005581
did,0.002563
die,0.009928
diego,0.005850
differ,0.003662
dingra,0.011249
diraja,0.010891
direct,0.002293
discoveri,0.003234
disengag,0.007571
disput,0.006948
dissolv,0.004289
distinguish,0.003066
divis,0.011974
divoir,0.029719
dougla,0.010208
drive,0.003711
driver,0.005294
dunant,0.010614
dure,0.015905
earli,0.004159
earliest,0.003475
east,0.022379
ecarma,0.011249
edsa,0.038543
eeri,0.019055
eighteenth,0.005314
eighth,0.017408
eighti,0.006214
eleph,0.005752
eleventh,0.012919
emerg,0.002665
emilio,0.014675
empir,0.005803
en,0.015330
enact,0.004609
end,0.002273
engin,0.002996
enhanc,0.003851
enlist,0.006513
enril,0.010891
enriqu,0.007660
enslav,0.005950
entir,0.002697
establish,0.008876
europ,0.002819
european,0.005180
event,0.002706
exact,0.003967
execut,0.003149
exercis,0.007145
exil,0.009498
expedit,0.014111
expeditionari,0.042072
expert,0.057503
explor,0.003168
extens,0.005616
extern,0.001626
face,0.003121
fail,0.003126
famili,0.002879
far,0.005639
featur,0.002812
februari,0.010135
ferdinand,0.011241
fermin,0.011249
feroci,0.007914
fhsuphilippin,0.022498
fidel,0.006303
field,0.002270
fifteenth,0.012972
fifth,0.017713
fighter,0.005647
filipino,0.071263
final,0.002689
firearm,0.006433
flagsfre,0.011249
flecha,0.011249
flee,0.005332
fleet,0.020000
fm,0.006721
follow,0.003557
forc,0.086920
foreign,0.002894
formal,0.005564
format,0.003032
formosa,0.033902
forth,0.004520
forum,0.009133
fought,0.009433
fourstar,0.010031
fourteenth,0.013378
fourth,0.015518
framework,0.003185
franc,0.003183
freedom,0.003510
fukien,0.010388
furthermor,0.003810
gabriela,0.009095
gaddang,0.011249
galleon,0.008064
gather,0.003876
gave,0.006471
gener,0.009586
georg,0.003204
given,0.002230
gloria,0.007806
glorietta,0.011249
goal,0.003058
golan,0.016065
gold,0.003866
govern,0.027488
governor,0.004081
gradual,0.003574
great,0.002506
group,0.016046
groupvietnam,0.011249
grown,0.004282
guard,0.013942
guerrilla,0.005652
guid,0.003143
guilaguila,0.011249
gulf,0.015090
gun,0.005221
ha,0.001482
haiti,0.019485
half,0.003060
hamm,0.020776
head,0.005741
headquart,0.009853
heart,0.004081
heartbreak,0.009527
height,0.008866
henri,0.003583
hi,0.025918
hill,0.013269
histori,0.005556
historian,0.003746
hoa,0.009095
hold,0.005356
homonhon,0.010891
honda,0.007755
hong,0.010397
honor,0.013799
hostag,0.013196
hostil,0.004611
hour,0.003907
howev,0.003609
hukbalahap,0.020776
humabon,0.020394
humanitarian,0.027972
hussein,0.007126
igorot,0.010891
ii,0.014550
iii,0.008504
iloco,0.010891
imjin,0.010197
impress,0.004538
incid,0.013199
includ,0.003087
independ,0.015986
india,0.003404
indonesia,0.005267
infantri,0.018029
influenc,0.002449
inhabit,0.003865
initi,0.004831
instal,0.004388
instrument,0.003423
insurg,0.063329
insurrect,0.019567
integr,0.002683
intent,0.003742
interfet,0.009635
interim,0.005335
intern,0.005845
interpret,0.002966
invad,0.008894
invas,0.024327
involv,0.004311
iran,0.005044
iraq,0.044784
iraqi,0.006787
irraya,0.011249
ise,0.007529
isidro,0.009095
islam,0.014806
island,0.026365
jaim,0.007637
januari,0.003173
japan,0.003677
japanes,0.012712
jaro,0.011249
jauden,0.011249
jihad,0.007096
join,0.006614
joint,0.003915
jolo,0.022498
jose,0.006578
juan,0.016422
jukua,0.010891
juli,0.006423
julian,0.005732
june,0.009718
katipunan,0.031165
kemin,0.011249
kidnap,0.006311
kill,0.011011
king,0.010624
kingdom,0.017745
kirang,0.011249
knowledg,0.002796
known,0.005573
kong,0.010487
korea,0.022438
korean,0.020645
kudarat,0.011249
kuwait,0.006288
l,0.006545
la,0.011133
laila,0.010891
lakan,0.010388
lamitan,0.011249
lanao,0.031165
land,0.011254
languag,0.002794
lapulapu,0.031165
largest,0.003070
late,0.002573
later,0.006632
lawin,0.011249
lead,0.006654
leader,0.006501
leadership,0.004033
led,0.021593
left,0.002963
leg,0.005518
legion,0.006559
leyt,0.019055
liber,0.016758
liberia,0.013378
lieuten,0.005933
like,0.001985
limahong,0.010891
limasawa,0.010891
limba,0.010197
lin,0.006985
lingayen,0.011249
link,0.001616
list,0.008268
live,0.002403
lo,0.010196
lonoy,0.011249
loot,0.006295
loper,0.044996
luco,0.021783
lupa,0.009884
lusung,0.022498
luzon,0.087199
m,0.002658
ma,0.004695
mabitac,0.011249
macapagalarroyo,0.009250
macarthur,0.028329
mactan,0.037713
magalat,0.011249
magellan,0.057131
maguindanao,0.009635
mahandun,0.011249
maharaja,0.008616
maharlika,0.010891
maintain,0.002591
majapahit,0.041949
majapahitluzon,0.011249
major,0.003944
makahambu,0.011249
makati,0.009754
make,0.003780
malacca,0.007806
malalag,0.011249
malay,0.012607
mall,0.007067
malolo,0.010388
manila,0.127742
manuel,0.005944
mao,0.006799
march,0.009247
marco,0.019352
mari,0.004294
marin,0.008510
marinduqu,0.011249
marqui,0.007111
marri,0.004659
marriag,0.004699
marshal,0.004926
mass,0.003048
mateo,0.008616
matter,0.002796
maundi,0.010031
maynila,0.009428
mayoyao,0.011249
mecanai,0.011249
medal,0.032750
medic,0.013692
member,0.007114
memori,0.003866
men,0.003446
mercenari,0.006358
merci,0.006433
met,0.003801
militari,0.084196
mindanao,0.025169
mindoro,0.010031
minist,0.003353
minor,0.003439
minuci,0.022498
minustah,0.018501
misami,0.010614
mission,0.103775
mock,0.006985
modern,0.002229
molucca,0.019055
monitor,0.016079
montojo,0.010031
morn,0.010802
moro,0.026498
morong,0.010197
movement,0.015379
multitud,0.005866
muslim,0.004157
mutini,0.032297
mutual,0.003920
myanmar,0.006920
nagarakretagama,0.009754
nakhoda,0.011249
natalio,0.011249
nation,0.030895
nationwid,0.005647
nativ,0.007683
naval,0.004688
navi,0.004448
navig,0.004641
nd,0.003458
near,0.003056
negro,0.014079
new,0.001660
newli,0.003910
ninetyeight,0.010197
ninoy,0.010891
ninth,0.017454
nng,0.009527
nonchines,0.009527
nort,0.015828
north,0.002951
northeast,0.005294
northern,0.006949
note,0.004286
novemb,0.003333
number,0.005578
nurs,0.005408
oakwood,0.044996
observ,0.004906
occas,0.004623
occup,0.011619
occur,0.007084
offic,0.026927
offici,0.002821
olympia,0.008520
onli,0.001711
onub,0.020062
onuc,0.019769
onuci,0.033747
openli,0.005629
oper,0.018759
organ,0.010137
origin,0.002059
ormoc,0.011249
oust,0.005807
overshot,0.009635
pacif,0.004308
pact,0.005581
pafcon,0.011249
pagsanjan,0.011249
pakistan,0.005080
palari,0.011249
palawan,0.009336
panay,0.009635
pared,0.020394
pari,0.012194
parley,0.010197
parti,0.002872
particip,0.002932
particular,0.002326
pasarn,0.011249
pass,0.014438
patricio,0.009754
pay,0.006940
pc,0.006034
pca,0.006787
pcgh,0.146238
pch,0.336502
pcl,0.329992
peac,0.010754
peacekeep,0.050831
peftok,0.031844
peninsula,0.009889
peopl,0.008197
period,0.011043
persian,0.004670
person,0.002432
personnel,0.022969
philbatt,0.011249
philcagv,0.044996
philcet,0.022498
philconv,0.011249
philhsmet,0.011249
philippin,0.538567
philippineamerican,0.029262
philippineun,0.011249
pigafetta,0.026498
pilot,0.005506
pinto,0.015944
pishoy,0.033747
place,0.002102
playa,0.008567
polic,0.004134
polish,0.005021
ponc,0.007859
poni,0.016397
portion,0.007470
portugues,0.018926
possibl,0.002174
postworld,0.006416
pour,0.005594
power,0.015268
precoloni,0.006710
premier,0.005335
prepar,0.003456
present,0.008525
presid,0.009247
presidentelect,0.008567
presidenti,0.017435
presum,0.004758
pride,0.005866
privat,0.003056
proclaim,0.004821
proclam,0.018333
procur,0.005888
program,0.002681
proislam,0.010614
project,0.002637
provid,0.001891
provinc,0.007880
ps,0.006540
public,0.002146
puerto,0.006131
pugad,0.011249
pulang,0.011249
pungci,0.157487
pungcia,0.056245
punta,0.008234
quezon,0.009884
quingua,0.011249
raf,0.006998
raid,0.025375
raider,0.013891
rajah,0.046681
ramo,0.008271
rancudo,0.011249
rd,0.003816
reach,0.002747
read,0.002347
reader,0.004609
reaider,0.011249
rear,0.006046
rebel,0.009823
recogn,0.002898
record,0.005698
refer,0.004055
reform,0.003306
regain,0.005192
relat,0.001822
releas,0.003378
relief,0.004819
remain,0.004471
remnant,0.005404
repatri,0.006578
replac,0.002754
report,0.005196
republ,0.022208
rescu,0.005364
reserv,0.003595
resist,0.003502
respons,0.004689
retak,0.007025
retreat,0.005221
return,0.005471
revolt,0.113197
revolut,0.033488
revolutionari,0.017208
rianzar,0.011249
ridg,0.011843
river,0.007391
rizal,0.009884
role,0.002368
romblon,0.011249
rose,0.004102
rpu,0.010388
rpuntac,0.033747
rule,0.002467
ruler,0.004516
runway,0.007067
s,0.007668
saddam,0.007914
saigon,0.008234
saintdeni,0.008832
sale,0.007875
salibansa,0.011249
saludong,0.011249
samar,0.039539
san,0.004292
sankey,0.008957
santo,0.012472
sapetu,0.011249
say,0.002928
sayyaf,0.009336
scholar,0.003432
scout,0.006998
seato,0.008957
secessionist,0.014605
second,0.019967
secret,0.004170
secur,0.011488
seludong,0.011249
selurong,0.010891
sent,0.014987
serv,0.008072
servic,0.002633
seven,0.003547
seventeenth,0.011743
seventh,0.021818
sever,0.003922
sevil,0.007156
shadow,0.005267
shallow,0.005718
sharifa,0.011249
shift,0.003276
ship,0.007671
shore,0.005139
shortliv,0.005311
shoulder,0.012622
siam,0.006834
siames,0.015773
sieg,0.028016
sight,0.005016
sign,0.003097
silang,0.033747
simara,0.011249
simultan,0.003942
sing,0.006228
singl,0.002517
siranaya,0.011249
sixteenth,0.011877
sixth,0.019978
skirmish,0.006810
soldier,0.012842
sometim,0.002449
somewher,0.005762
soon,0.003449
sourc,0.002366
south,0.008838
southeast,0.004605
southern,0.013966
sovereignti,0.009073
soviet,0.004074
spain,0.023987
spanish,0.048822
spanishamerican,0.022778
spanishmoro,0.031844
special,0.002352
spoke,0.005192
spread,0.003325
squadron,0.019125
st,0.006065
stabil,0.003508
stabilis,0.006408
staff,0.053222
state,0.021399
station,0.004110
stranglehold,0.009754
struggl,0.007887
subject,0.002393
subsequ,0.002935
succeed,0.003846
success,0.002494
sudan,0.011584
suggest,0.002633
suitabl,0.004176
sukwu,0.011249
sulaiman,0.018190
sultan,0.050117
sulu,0.061039
sumatra,0.007571
sumuroy,0.011249
supernumerari,0.009428
supervis,0.004498
support,0.020131
suprem,0.003852
sure,0.005155
surf,0.014407
surigao,0.011249
surrend,0.005182
surround,0.010335
sustain,0.003679
sweden,0.004699
swell,0.006214
sworm,0.011249
syria,0.005530
task,0.006980
tayug,0.011249
team,0.007857
tenth,0.017301
term,0.001777
terror,0.005008
text,0.003245
th,0.021572
theater,0.006078
themselv,0.002790
theori,0.002205
thi,0.008443
thierri,0.008271
thirteenth,0.012685
thought,0.002666
thu,0.002199
thursday,0.007067
time,0.008322
timor,0.042848
timorlest,0.017232
tirad,0.009884
titl,0.003376
toll,0.005997
toma,0.016864
tomahawk,0.009250
tondo,0.039539
took,0.005877
total,0.002624
touran,0.011249
train,0.003248
transit,0.006550
translat,0.003238
transport,0.006450
travel,0.003321
treasur,0.005834
treati,0.027501
troop,0.033971
troopcontribut,0.022498
truce,0.006588
truck,0.006207
tuan,0.008389
turn,0.002600
twelfth,0.013157
ulombra,0.010891
unc,0.008129
uncl,0.006015
undof,0.029262
ungci,0.011249
uni,0.040817
union,0.005591
unisfa,0.022498
unit,0.034156
unknown,0.003895
unmi,0.017786
unmil,0.026001
unmiset,0.037002
unmiss,0.019769
unmit,0.021229
unmogip,0.019769
unoffici,0.005772
unotil,0.021229
unsmi,0.022498
unspecifi,0.006822
unsuit,0.006689
untac,0.030591
untaet,0.042838
upgrad,0.005401
usaff,0.011249
usafipnl,0.011249
use,0.003074
usphilippin,0.011249
uss,0.006319
v,0.003354
valor,0.007972
vessel,0.004580
veteran,0.005727
vicin,0.006072
victori,0.017428
vietnam,0.056081
visaya,0.019508
visayan,0.009635
visit,0.003779
volunt,0.005186
voyag,0.005145
wa,0.066330
wade,0.007268
war,0.090865
warrior,0.022683
weaker,0.005357
went,0.003450
western,0.002829
widen,0.005855
widow,0.006342
wing,0.005121
wit,0.004582
withdrawn,0.005828
withdrew,0.010574
women,0.003580
won,0.003808
work,0.003688
world,0.019073
wound,0.010322
written,0.005957
wwii,0.013508
y,0.004006
year,0.007594
yultong,0.022498
zamboanga,0.010891
zedong,0.007111
