act,0.003338
adjectiv,0.009014
administr,0.004084
agricultur,0.004342
airport,0.006434
archipelago,0.029659
arctic,0.024246
area,0.008704
arm,0.004657
articl,0.003471
atla,0.013698
bank,0.008449
bear,0.005466
boundari,0.004917
branch,0.007491
cannabi,0.009524
capit,0.007673
central,0.006614
cia,0.007009
climat,0.005037
coastlin,0.007338
coat,0.006989
code,0.013695
common,0.005705
commun,0.006170
compani,0.003725
compris,0.004826
constitut,0.003725
council,0.004302
countri,0.012420
court,0.004475
crime,0.005854
cuisin,0.008021
cultur,0.003547
currenc,0.005170
databas,0.011040
demilitar,0.010812
demographi,0.007934
demonym,0.009242
design,0.003465
diplomat,0.011211
domain,0.004608
east,0.004367
eastern,0.004715
econom,0.006217
economi,0.003879
educ,0.003619
elect,0.004190
endonym,0.018673
energi,0.007953
enforc,0.005325
english,0.007913
environ,0.003765
etymolog,0.006047
europ,0.011556
european,0.007076
exchang,0.004015
extend,0.003747
extens,0.003836
extern,0.002221
extrem,0.004075
factbook,0.007119
flag,0.006783
flora,0.007679
follow,0.002430
foreign,0.003954
form,0.002321
forum,0.006239
freedom,0.004795
ft,0.006639
gdp,0.005713
gener,0.002182
geographi,0.016775
geographicalhistor,0.014879
geolog,0.005805
geosurvey,0.014501
glacier,0.007941
govern,0.017332
governor,0.011151
guid,0.008590
hemispher,0.013835
heritag,0.012426
high,0.003075
histori,0.005060
hopen,0.014879
human,0.002926
incorpor,0.004171
index,0.004825
industri,0.003467
inform,0.003020
infrastructur,0.005143
inger,0.012880
inglfsson,0.014879
institut,0.006428
intern,0.005323
internet,0.009966
island,0.009004
iso,0.028357
jan,0.013351
judici,0.005831
justic,0.005133
kingdom,0.012121
km,0.011433
krone,0.011640
lafur,0.013504
land,0.003843
languag,0.003817
largest,0.004194
law,0.006118
lgbt,0.008580
limit,0.003101
link,0.002208
list,0.008471
local,0.003439
locat,0.003733
longyearbyen,0.039491
low,0.003892
m,0.007263
mainland,0.006596
make,0.002582
map,0.004645
marin,0.005813
matter,0.003819
mayen,0.025056
membership,0.005593
midway,0.009617
militari,0.008216
ministri,0.005460
mission,0.010126
nation,0.005627
newtontoppen,0.014879
nok,0.011106
nomin,0.005300
north,0.008064
northern,0.009494
northernmost,0.010286
norway,0.049960
norwegian,0.039463
ocean,0.015676
odd,0.007163
offici,0.011565
oil,0.005068
olsen,0.011152
order,0.002798
organ,0.002769
origin,0.002814
outlin,0.029656
overview,0.005088
page,0.004978
parti,0.003924
photo,0.007858
physic,0.003322
place,0.002871
point,0.002945
polar,0.018663
pole,0.007034
polic,0.005647
polici,0.003757
polit,0.012748
popul,0.007226
pronunci,0.007722
provid,0.002583
rank,0.009832
recognis,0.005701
redirect,0.009096
refer,0.003693
region,0.003307
relat,0.004980
religion,0.004703
report,0.007098
research,0.002996
right,0.006628
scienc,0.003106
scientif,0.003716
searchabl,0.009695
settlement,0.005389
site,0.012987
sj,0.021259
sjm,0.013930
sovereignti,0.012396
spitsbergen,0.034737
ssf,0.013930
stock,0.004958
stort,0.012880
summer,0.005945
suprem,0.005263
svalbard,0.987667
svalbardrel,0.029759
symbol,0.004666
sysselmannen,0.013930
territori,0.004498
time,0.006822
topic,0.008155
toplevel,0.008348
tourism,0.005979
transport,0.004406
travel,0.004538
treati,0.005367
utc,0.017509
wikimedia,0.007163
wikivoyag,0.009953
wildlif,0.007323
world,0.007817
zone,0.010624
