abl,0.015322
aid,0.018197
alli,0.022404
antibritish,0.048336
antimonarchi,0.063813
archiv,0.022326
area,0.012047
armi,0.125187
assembl,0.037873
assist,0.036172
baburam,0.057845
bahadur,0.137788
began,0.014605
bhattarai,0.057845
bid,0.031167
brigad,0.073387
britain,0.061816
british,0.097987
build,0.015477
came,0.016016
campaign,0.043980
canton,0.039328
caus,0.013075
centr,0.020142
central,0.013732
centuri,0.012579
certain,0.013407
chant,0.037485
civil,0.084022
combatantsmilitia,0.063813
commerci,0.018769
compel,0.030619
concentr,0.019173
conclud,0.040076
condit,0.013709
conduct,0.033585
congress,0.021953
constitut,0.077352
continu,0.023743
dahal,0.056904
declar,0.113546
democraci,0.043649
democrat,0.057595
demonstr,0.017611
develop,0.009799
dictatorship,0.031662
diplomat,0.046556
district,0.047399
dr,0.024309
draft,0.050574
dure,0.022557
earli,0.011798
effort,0.016336
elect,0.052195
end,0.025794
engag,0.018680
era,0.018637
establish,0.025178
exhaust,0.027582
exist,0.011730
faction,0.027862
famili,0.016333
februari,0.019165
fight,0.022134
final,0.030515
financ,0.018691
forc,0.012643
genuin,0.029261
germani,0.018992
good,0.014023
gorkha,0.057845
govern,0.071970
grant,0.019337
gratitud,0.040426
great,0.028433
gurkha,0.276665
ha,0.025232
healthi,0.027541
hereditari,0.030189
histori,0.021012
httpencartamsncomencyclopedianepalhtml,0.063813
httpwwwworldalmanacforkidscomexplorenationsnepalhtml,0.063813
ii,0.016508
independ,0.012955
india,0.019311
indian,0.083521
insurg,0.032659
jajarkot,0.060215
jung,0.117131
kamal,0.047363
king,0.020090
known,0.021078
koirala,0.054661
launch,0.021238
leader,0.055321
led,0.040831
level,0.012610
like,0.011263
locat,0.015504
main,0.013349
mainstream,0.025590
maintain,0.014703
mani,0.009530
maoist,0.261515
member,0.013453
militari,0.051174
minist,0.019025
monarchi,0.054058
mutini,0.073287
nation,0.011684
natur,0.011257
need,0.012676
nepal,0.680259
nepales,0.090448
nepalesetibetan,0.127627
nepali,0.050811
new,0.009418
offic,0.016972
overthrew,0.035586
parliamentari,0.024147
parti,0.065180
pass,0.016381
pay,0.019685
peac,0.020335
peopl,0.034876
polit,0.013234
power,0.012373
prachanda,0.055333
pre,0.035131
prime,0.019427
primeminist,0.048336
pro,0.035131
probritish,0.052477
process,0.011430
provision,0.030640
pushpa,0.055333
rana,0.048080
recruit,0.084819
recruittrain,0.063813
regiment,0.069111
relat,0.020679
render,0.025150
replac,0.015626
republ,0.053993
respect,0.014583
result,0.010681
revolutionari,0.024404
right,0.013761
rolpa,0.060215
rukum,0.060215
second,0.012585
sent,0.021255
septemb,0.018492
sever,0.011126
sign,0.017571
sinc,0.032015
sindhuli,0.060215
sir,0.024089
slogan,0.036496
socal,0.021534
soldier,0.048567
solidar,0.032830
sourc,0.013424
sovereignti,0.025736
start,0.013509
state,0.009338
strategi,0.019880
success,0.014153
sushil,0.052962
task,0.019798
term,0.010084
th,0.012237
thrown,0.035543
tibet,0.114205
time,0.009442
togeth,0.014716
train,0.036858
treati,0.044574
tribut,0.031836
twelv,0.028153
undemocrat,0.044583
unit,0.010764
valid,0.040759
variou,0.024299
verifi,0.026978
vy,0.044896
wa,0.043753
war,0.212248
world,0.043280
year,0.010770
yearli,0.031638
