aachen,0.009762
abdic,0.007532
abl,0.003158
abov,0.003200
absolut,0.004240
absorb,0.014995
abstract,0.004399
academi,0.004816
accept,0.003139
access,0.003459
accid,0.012055
accomplish,0.005025
accord,0.002500
account,0.008834
achiev,0.003145
act,0.002857
action,0.003072
activ,0.012474
actual,0.003199
add,0.004767
addit,0.002529
adher,0.010115
administ,0.004901
administr,0.003495
adolf,0.006897
adolphu,0.010551
adopt,0.003450
advanc,0.009264
advantag,0.007762
affili,0.005719
afghanistan,0.025659
africa,0.012181
age,0.009393
ago,0.004844
agre,0.003769
agreement,0.003816
aim,0.003570
air,0.038408
aircraft,0.011106
airfield,0.016038
airlift,0.009127
airplan,0.007335
airpow,0.012147
alert,0.006998
alien,0.005859
alli,0.092362
allianc,0.014028
allmal,0.010916
allow,0.009945
alon,0.004275
alreadi,0.010927
altern,0.003212
american,0.016997
analog,0.004467
analyst,0.005674
ancient,0.010867
angl,0.005643
ani,0.002203
ann,0.005856
annex,0.005688
announc,0.012596
anoth,0.014429
antifrench,0.010196
antoinehenri,0.011405
apc,0.009671
aphor,0.008350
appeal,0.004656
appear,0.002896
appli,0.002672
approach,0.002877
approv,0.004295
approxim,0.006814
april,0.007650
archaeolog,0.005353
ardenn,0.010551
area,0.007449
argu,0.009978
arm,0.035880
armada,0.009287
armament,0.007761
armi,0.219333
armistic,0.015955
armor,0.007473
aros,0.004965
arrang,0.004076
arriv,0.004024
artilleri,0.006834
artlenburg,0.013153
ask,0.004133
aspect,0.003286
assembl,0.003903
atla,0.005862
attach,0.004733
attack,0.060468
attempt,0.002852
auerstedt,0.012735
august,0.011398
aussig,0.013153
austerlitz,0.011558
austria,0.092555
austriahungari,0.008315
austrian,0.053901
austrohungarian,0.008539
austroprussian,0.011923
avoid,0.007469
away,0.003808
background,0.008588
baden,0.009716
balanc,0.007914
balkan,0.028370
baltic,0.035352
barbarossa,0.028759
barley,0.007637
barnett,0.009011
barrack,0.008386
base,0.013071
basic,0.003032
basin,0.005941
battl,0.103883
battlefield,0.014111
battleship,0.008828
bavaria,0.008828
bavarian,0.009011
bc,0.004460
beaten,0.007692
beauti,0.005728
becam,0.019290
becaus,0.006808
becom,0.002413
befor,0.005149
began,0.006020
begin,0.008819
begun,0.004793
belgium,0.017753
believ,0.009354
berlin,0.064431
besatzungszon,0.013153
besid,0.010316
besieg,0.007454
bethmann,0.012147
better,0.013599
big,0.009129
billion,0.008564
bismarck,0.042497
blcher,0.023846
blind,0.006170
blitz,0.010634
blitzkrieg,0.041893
block,0.004491
bloodi,0.007077
blow,0.006387
boat,0.006010
bohemia,0.016959
bolster,0.007291
bomb,0.017124
bomber,0.022690
border,0.013323
bottl,0.007370
brandenburg,0.009097
break,0.004155
breakthrough,0.006433
brigad,0.007563
brilliantli,0.010816
bring,0.007495
britain,0.072202
british,0.053859
broader,0.005026
broke,0.015510
bronz,0.006067
brose,0.011923
brought,0.007432
buffer,0.007070
build,0.006380
built,0.007516
bulg,0.008386
bull,0.006957
bundesmarin,0.013153
bundeswehr,0.089125
bunker,0.009586
bypass,0.006991
cadr,0.008183
cambodia,0.007352
cambrai,0.011558
came,0.009904
camil,0.008956
campaign,0.018130
capabl,0.003976
capit,0.006567
caporetto,0.012411
captur,0.008291
career,0.004953
caribbean,0.005760
carl,0.005041
carolingian,0.016665
carri,0.003255
casualti,0.006614
catch,0.006078
cathol,0.019501
caus,0.010780
ceas,0.005100
cede,0.006462
celt,0.008878
celtic,0.007761
central,0.008491
centuri,0.023335
ch,0.006443
challeng,0.003606
chanc,0.004860
chancellor,0.014322
characterist,0.003480
charl,0.007734
charlemagn,0.008076
check,0.005234
child,0.004849
chri,0.006797
christianis,0.009671
church,0.004562
churchil,0.014986
cimbri,0.012411
citi,0.017436
citino,0.013153
civil,0.013855
civilian,0.020997
claim,0.009195
claus,0.006726
clausewitz,0.066819
cleanup,0.009039
climat,0.004311
close,0.013509
cloth,0.005279
coal,0.011776
coalburn,0.011923
coalit,0.009786
coast,0.009217
coauthor,0.006924
codenam,0.008519
cold,0.024067
collabor,0.004638
collaps,0.017793
coloni,0.004175
combat,0.031803
combin,0.017277
come,0.011552
command,0.025420
commit,0.008465
commun,0.002640
communist,0.024904
compar,0.005973
complet,0.002789
complex,0.005910
compos,0.003831
compris,0.004131
compulsori,0.006387
concentr,0.003952
concept,0.008454
concern,0.008505
condit,0.002825
confeder,0.054250
confin,0.005422
conflict,0.022568
congress,0.004525
connot,0.006674
conquer,0.005468
conquest,0.016324
conscienti,0.008247
conscript,0.058131
consequ,0.003434
consid,0.004710
consist,0.008109
consolid,0.005302
constitut,0.006377
construct,0.009382
contain,0.002897
context,0.003552
contin,0.005204
continent,0.005378
conting,0.005865
continu,0.012235
contribut,0.005928
control,0.024149
convent,0.003910
convert,0.004116
convinc,0.005376
convoy,0.008005
cooper,0.007720
cope,0.006481
cordial,0.007937
corp,0.017874
correlli,0.012147
correspond,0.007332
cost,0.003550
council,0.007365
count,0.004605
counter,0.005460
counterattack,0.024319
countri,0.023919
court,0.003830
craig,0.007161
crash,0.006006
creat,0.009881
creation,0.003676
crime,0.015032
crimin,0.005115
crisi,0.004167
critic,0.008912
criticis,0.005944
cross,0.013223
crown,0.010461
cruiser,0.008479
crusad,0.047970
culmin,0.005351
cultur,0.006073
cut,0.012862
d,0.003269
dane,0.008539
danish,0.006387
date,0.003375
david,0.003587
day,0.018285
daylight,0.008231
deadlock,0.017038
deal,0.006506
death,0.007074
debat,0.003759
decemb,0.014824
decid,0.003935
decis,0.030645
declar,0.011702
deep,0.008992
defeat,0.105123
defenc,0.009832
defend,0.009037
defenestr,0.011923
defens,0.035461
defianc,0.008386
defin,0.002771
definit,0.006386
delay,0.015474
deliv,0.004760
democrat,0.007914
demonstr,0.007260
demoralis,0.009859
denmark,0.023697
deplet,0.006302
deploy,0.038259
depressionravag,0.013153
descend,0.009776
design,0.002966
despit,0.003424
destroy,0.016893
destruct,0.004779
deterior,0.005947
determin,0.002804
devast,0.005734
develop,0.010099
dialect,0.005941
dichotomi,0.007266
did,0.014989
die,0.007739
differ,0.006423
difficult,0.003522
diplomaci,0.020391
diplomat,0.009596
direct,0.008045
disast,0.005579
disastr,0.007063
disciplin,0.007442
discontinu,0.006131
discuss,0.003295
disord,0.005206
disput,0.004062
disregard,0.006971
disrupt,0.005204
dissolut,0.012172
dissolv,0.015048
distanc,0.004300
distinguish,0.003585
disun,0.009189
divert,0.007092
divis,0.010500
djibouti,0.008622
doctrin,0.014529
document,0.015596
dog,0.006045
domin,0.013293
dorn,0.010328
doubl,0.004471
draft,0.010424
draw,0.012420
driven,0.014105
duchi,0.007871
duke,0.006368
dunkirk,0.020392
dure,0.032547
dutch,0.024800
duti,0.004805
dybbl,0.013153
earli,0.029183
earlier,0.003592
earn,0.004570
easi,0.004938
easili,0.004165
east,0.041121
eastern,0.020178
econom,0.005321
economi,0.013282
ed,0.006807
effect,0.007086
effici,0.007614
effort,0.010102
egypt,0.005134
eighteenth,0.006214
elb,0.009910
elder,0.005975
elector,0.005216
elisabeth,0.008479
elizabeth,0.005784
embark,0.006834
emerg,0.009348
emperor,0.032175
empir,0.061069
employ,0.006450
empress,0.008091
encircl,0.016398
encourag,0.003996
end,0.029242
endur,0.005934
enemi,0.016303
engag,0.011551
engel,0.007502
england,0.008438
english,0.016931
enlarg,0.006210
enlighten,0.010618
enorm,0.010473
entir,0.006307
equip,0.017388
era,0.011524
eric,0.005775
erich,0.007553
erwin,0.007343
escap,0.004881
especi,0.005646
espous,0.006904
essay,0.004711
essenti,0.003380
establish,0.018164
esteem,0.008005
estonia,0.007291
ethic,0.004475
ethnic,0.009596
eugen,0.005944
eurasian,0.007454
europ,0.013187
european,0.024227
evan,0.006797
evapor,0.006809
event,0.006328
eventu,0.017279
everi,0.003042
excerpt,0.047041
exercis,0.004177
exhaust,0.005685
expand,0.003439
expans,0.012307
expect,0.006681
expeditionari,0.008199
expenditur,0.010752
experi,0.008970
experienc,0.004365
expert,0.004802
explos,0.005389
extens,0.003283
extern,0.001901
extrem,0.006975
face,0.007298
factor,0.003082
factori,0.005320
fail,0.032901
failur,0.008461
fairli,0.005507
fall,0.009956
famou,0.008033
far,0.009890
farrel,0.009586
fast,0.004977
fate,0.006139
fatherland,0.008904
favour,0.004781
februari,0.003950
feder,0.015485
fell,0.014088
field,0.002655
fight,0.022811
fighter,0.033020
final,0.006289
financi,0.003471
finland,0.006501
firm,0.004342
fleet,0.029232
flemish,0.016273
fli,0.005427
focu,0.003567
focus,0.003384
foe,0.008441
fog,0.008441
follow,0.014558
food,0.007484
forbidden,0.006428
forc,0.109452
foreign,0.010153
forest,0.005000
form,0.009936
formal,0.003253
format,0.007092
formid,0.007502
fort,0.006410
forward,0.004615
fought,0.044119
fowler,0.008047
fraction,0.005089
franc,0.096775
francogerman,0.010916
francoprussian,0.008710
francorussian,0.011729
frank,0.030546
frankish,0.017287
franklin,0.005947
fraught,0.009068
frederick,0.087983
free,0.002969
freedom,0.004104
french,0.062983
frenchgerman,0.023116
frequent,0.003655
fresh,0.005840
frevert,0.013153
friedrich,0.005317
fring,0.006957
fulli,0.011759
fullscal,0.007573
fuse,0.006400
futur,0.003166
gain,0.018979
galicia,0.026411
gap,0.005061
gard,0.010260
gdp,0.004889
gdr,0.010075
gear,0.006598
gebhard,0.012735
gener,0.026155
georg,0.003747
georgia,0.006214
gerhard,0.015106
german,0.484687
germani,0.274041
germanspeak,0.049586
germanyth,0.012147
gigant,0.008404
gneisenau,0.011558
goal,0.010728
gorbachev,0.008404
gordon,0.006064
goth,0.008930
govern,0.009889
gower,0.009429
gradual,0.004179
grant,0.007971
graph,0.011569
gravelott,0.013153
great,0.041024
greec,0.009829
grew,0.004344
ground,0.007566
grow,0.006667
grunwald,0.012147
guarante,0.004769
guard,0.005434
guderian,0.012411
guerrilla,0.006609
gustavu,0.009628
h,0.007223
ha,0.003467
habsburg,0.008047
half,0.010736
han,0.005196
hand,0.003221
hanov,0.026790
hanoverian,0.011405
harsh,0.006186
harsher,0.009189
hauptmann,0.012411
hawker,0.010260
heavi,0.013480
heavili,0.008383
heer,0.011923
hegelian,0.008215
height,0.005183
heinz,0.008106
helicopt,0.007070
help,0.005692
henc,0.004056
henri,0.004190
heret,0.007522
heritag,0.015953
hermann,0.006355
herwig,0.010722
hi,0.034968
hierarch,0.005964
high,0.018428
highest,0.003981
highli,0.003422
hindenburg,0.010018
histori,0.028152
historian,0.004381
historiographi,0.006598
hit,0.010766
hitler,0.162958
hochkirch,0.013153
hold,0.003131
holger,0.009810
holi,0.038534
hollow,0.007463
hollweg,0.013153
holstein,0.020150
home,0.007425
homefront,0.021633
homepag,0.007692
honour,0.006131
hooton,0.011024
hopeless,0.008733
horror,0.007435
hous,0.003487
howev,0.021101
hu,0.007963
hubertusburg,0.013153
huge,0.004835
humili,0.008019
hundr,0.003950
hungari,0.006438
hungarian,0.006703
hurrican,0.020832
hussit,0.083191
iconium,0.012147
idea,0.005836
identifi,0.009428
ideolog,0.009822
ignor,0.004509
ii,0.017013
iii,0.024861
ika,0.023458
imagin,0.005198
immedi,0.003821
impenetr,0.009467
imperi,0.030389
implac,0.010196
import,0.011087
impos,0.004471
impoverish,0.007335
impress,0.005307
improv,0.009598
incit,0.007809
includ,0.001804
incorpor,0.003570
increas,0.007500
incurs,0.007063
indecis,0.009039
independ,0.005340
indi,0.006598
industri,0.005935
infam,0.007502
infantri,0.021081
infiltr,0.007352
inflict,0.007077
influenc,0.002863
inform,0.002584
inhabit,0.004519
initi,0.011299
insist,0.005304
instanc,0.003521
instead,0.003045
institutionideolog,0.013153
instrument,0.008006
integr,0.009412
intellig,0.004056
intens,0.012954
interact,0.003243
intern,0.004556
introduc,0.009149
invad,0.062400
invas,0.047410
invigor,0.010916
involv,0.007561
iron,0.009313
isaf,0.009716
issu,0.002789
itali,0.032752
italian,0.009757
j,0.009795
jan,0.011427
jena,0.009586
jet,0.012719
jetpow,0.011266
john,0.002957
join,0.015469
joint,0.009156
jointli,0.006272
jomini,0.010816
juli,0.003755
julian,0.006703
june,0.022727
just,0.003031
justic,0.004393
jutland,0.010398
kabul,0.009189
kaiser,0.024843
kelli,0.007444
kept,0.004684
key,0.003308
kill,0.021459
king,0.037269
kingdom,0.017291
kitchen,0.007977
knew,0.006123
kniggrtz,0.012735
knight,0.013022
knockout,0.008519
know,0.011817
known,0.004344
kolin,0.013153
konrad,0.007910
kosovo,0.007326
kriegsmarin,0.022810
krimmer,0.013153
ksk,0.013153
kulturn,0.013153
kunersdorf,0.013153
kursk,0.011024
lack,0.006629
laid,0.004906
lake,0.005127
land,0.023029
landmin,0.010196
landwehr,0.012735
langensalza,0.013153
languag,0.013069
larg,0.016036
larger,0.013724
largest,0.003590
late,0.009028
later,0.012925
latest,0.005806
latin,0.004085
launch,0.035022
law,0.002618
lead,0.010374
leader,0.003800
leaderless,0.010260
leadership,0.018864
leagu,0.005333
learn,0.007303
leav,0.003681
lechfeld,0.011266
led,0.022443
left,0.003465
legaci,0.005465
legano,0.013153
legion,0.007670
leipzig,0.007692
leninist,0.009859
lessdevelop,0.009859
lesson,0.012202
let,0.004870
leuthen,0.013153
lider,0.011405
like,0.004643
limit,0.007963
line,0.018665
link,0.003780
lion,0.006767
lipani,0.012411
lithuania,0.007407
littl,0.006653
live,0.002810
lobositz,0.013153
locat,0.006391
logist,0.006272
lombard,0.008733
london,0.010979
long,0.014111
longterm,0.009148
look,0.003588
loom,0.007897
loos,0.005403
loss,0.015206
lost,0.011331
low,0.009993
ltzen,0.011405
ludendorff,0.011140
luftwaff,0.115037
lutheran,0.007821
luxemburg,0.008828
m,0.003108
machin,0.016786
maginot,0.021445
magyar,0.009097
main,0.008254
maintain,0.009092
major,0.023059
make,0.006630
manag,0.009338
mani,0.009822
manpow,0.015274
manstein,0.011729
map,0.003976
mapwork,0.012411
march,0.010812
maria,0.006424
marienburg,0.011405
mark,0.003489
marn,0.010551
marriag,0.005495
marshal,0.005760
martin,0.009201
marx,0.006075
masovia,0.011266
mass,0.003564
massiv,0.004624
master,0.004638
masurian,0.012411
match,0.004622
matter,0.003269
mayor,0.006593
mcnab,0.011405
mean,0.002393
medal,0.006382
medic,0.004002
mediev,0.009271
medium,0.004955
member,0.002773
men,0.028212
mercenari,0.014870
merchant,0.005162
mere,0.008551
met,0.004444
metz,0.009963
middl,0.003583
migrat,0.009288
mikhail,0.006846
militar,0.030680
militari,0.144159
militarili,0.007463
millennia,0.006333
millennium,0.005424
million,0.006827
minist,0.003921
miracl,0.006785
missil,0.013546
mission,0.008667
mistaken,0.007176
mobil,0.023083
mobilis,0.015874
model,0.005414
modern,0.007821
moltk,0.010816
moment,0.004944
monarch,0.005740
money,0.003884
monoplan,0.011923
month,0.011520
moral,0.004348
moscow,0.012453
mosier,0.012411
mostli,0.003708
motiv,0.008492
motoris,0.021103
movement,0.002997
muddl,0.009716
munit,0.007963
murray,0.006285
music,0.004776
mussolini,0.016921
mutual,0.004584
mysteri,0.005737
napoleon,0.059276
natinad,0.013153
nation,0.026492
national,0.014908
nationst,0.007291
nato,0.032862
naval,0.049344
navi,0.072829
nazi,0.024241
nbc,0.009039
nd,0.004043
nearli,0.007571
need,0.005225
negoti,0.009098
neighbour,0.010618
netherland,0.010129
network,0.003633
neutral,0.023786
new,0.029121
nineteenth,0.005436
nobil,0.006779
nonaggress,0.008710
noncom,0.012411
nonexist,0.006749
nongerman,0.011140
nordic,0.007502
north,0.031058
northern,0.024379
norway,0.030543
norwegian,0.013510
notabl,0.003335
note,0.002505
novel,0.004810
novemb,0.007796
nuclear,0.004441
number,0.015220
numer,0.006440
nuremberg,0.008853
nva,0.054083
object,0.005942
objector,0.010634
obtain,0.003378
occasion,0.004903
occup,0.013586
occupi,0.013071
offens,0.030283
offer,0.003231
offic,0.017492
old,0.003596
onethird,0.006604
onli,0.016005
onward,0.005509
open,0.005951
oper,0.027419
opposit,0.007152
order,0.009580
ordnancedefus,0.013153
ore,0.006226
organ,0.004741
organis,0.008229
organiz,0.005693
orient,0.004528
origin,0.009634
otherwis,0.004134
otto,0.024495
ottoman,0.006147
outbreak,0.005914
outlaw,0.006978
outsid,0.003315
outskirt,0.009254
overhead,0.007738
overlook,0.006714
overrun,0.007797
overwhelm,0.011655
pact,0.019579
pagan,0.006680
palatin,0.009287
panick,0.009716
papal,0.007532
pari,0.004752
parliament,0.008767
parti,0.003358
particip,0.003428
partli,0.004673
partnership,0.005470
patricia,0.007493
patrick,0.006293
pay,0.004057
peac,0.029341
peacekeep,0.006604
peak,0.004769
peasant,0.018181
peopl,0.016774
perform,0.003055
perhap,0.004040
period,0.015494
perman,0.004211
person,0.002844
personnel,0.010743
perspect,0.007778
peter,0.003963
philosoph,0.003814
phoney,0.011405
physic,0.002844
place,0.007373
plan,0.023040
plane,0.026174
play,0.009414
point,0.012605
poland,0.029688
polic,0.004833
polici,0.003216
polish,0.005871
polishlithuanian,0.018508
polit,0.024550
poorli,0.011509
pope,0.012224
popul,0.012369
popular,0.006219
port,0.004911
possess,0.003905
possibl,0.007626
postcold,0.009505
postpon,0.007077
postwar,0.005911
power,0.038257
pragu,0.023540
preced,0.004721
predomin,0.005685
prejudic,0.006917
prepar,0.020210
present,0.004984
presentday,0.005597
presid,0.003604
previous,0.003799
pride,0.006859
primari,0.003289
prime,0.004004
princ,0.005378
princip,0.003893
principl,0.002991
prison,0.010579
probabl,0.007152
probert,0.013153
problem,0.005330
proclaim,0.005638
proclam,0.007145
produc,0.005186
product,0.002597
profession,0.016153
prokop,0.012147
promin,0.003908
promot,0.003555
pronounc,0.006020
properli,0.005241
proprussian,0.013153
protect,0.003321
protest,0.004631
prove,0.011539
provid,0.004422
provinci,0.006027
proxim,0.005760
prussia,0.221394
prussian,0.143315
public,0.002510
pull,0.005719
puppet,0.007444
purpos,0.003241
push,0.018958
pyrrhic,0.011140
qualiti,0.003713
quantifi,0.005600
quick,0.012317
quickli,0.004056
quit,0.004211
race,0.014689
racist,0.008106
radar,0.041745
raf,0.049099
raid,0.011868
ralli,0.006562
ran,0.005579
rang,0.005983
rapid,0.004319
rapidli,0.008403
rate,0.006177
ratio,0.004494
rational,0.007034
ravag,0.007749
reach,0.003212
read,0.002745
readi,0.005809
real,0.003280
realiz,0.004419
realm,0.004993
rebel,0.011485
rebellion,0.005643
recent,0.002737
reckless,0.008539
reclaim,0.007379
recognis,0.004880
recognit,0.004332
reconstruct,0.004953
record,0.006663
recov,0.004865
reduc,0.011977
reduct,0.004548
refer,0.004741
reflect,0.003396
reform,0.015465
refuel,0.018023
refus,0.009225
regard,0.003032
regardless,0.004778
regim,0.004605
region,0.002830
regnum,0.011266
regular,0.008660
reich,0.023214
reichsflott,0.013153
reichsmarin,0.013153
reichswehr,0.012411
reign,0.010931
reinforc,0.005383
reject,0.011689
relat,0.002131
relationship,0.003017
relentlessli,0.010075
reli,0.003808
religi,0.016150
remain,0.015685
remark,0.004848
remilitaris,0.023458
reneg,0.009127
reorgan,0.013218
reorient,0.008264
repeatedli,0.005624
replac,0.003221
republ,0.029678
reput,0.005499
rescu,0.012545
reserv,0.004203
resist,0.008191
resourc,0.006399
respect,0.003005
respons,0.002741
restart,0.008315
restor,0.008940
restrict,0.014653
result,0.013210
retain,0.012470
retir,0.005378
retreat,0.012209
return,0.003198
reunif,0.015743
reunifi,0.008733
reunit,0.007335
reveng,0.007703
rhine,0.016398
richard,0.003904
ride,0.006871
riga,0.009762
ripley,0.009859
rise,0.012722
risk,0.003889
ritter,0.008803
rival,0.015667
rivalri,0.006511
river,0.008642
road,0.004591
robert,0.003475
rocketpow,0.010916
role,0.008306
roll,0.011795
roman,0.046638
romant,0.006726
rome,0.005396
rommel,0.010473
roosevelt,0.007063
rose,0.004796
rossbach,0.011729
roughli,0.004433
royal,0.012511
rugii,0.012735
ruin,0.006285
rule,0.005770
ruler,0.015843
russia,0.041809
russian,0.050903
s,0.008967
salient,0.007846
salo,0.012147
savoy,0.009671
saw,0.011604
saxon,0.025382
saxoni,0.033617
scandinavia,0.007335
scepter,0.043266
scharnhorst,0.022048
schlegel,0.009910
schleswig,0.044097
schlieffen,0.011729
school,0.003215
score,0.005793
sea,0.020165
seal,0.005927
search,0.028320
second,0.007782
secret,0.004876
secretli,0.015231
sect,0.006620
secur,0.013432
sed,0.008779
sedan,0.011558
seeckt,0.012147
select,0.003437
senior,0.005239
sent,0.004381
sentiment,0.006143
separ,0.008663
septemb,0.015247
seri,0.009446
servic,0.015398
set,0.012242
settl,0.008984
settlement,0.009225
seven,0.016591
sever,0.013759
share,0.003080
shell,0.005320
shift,0.003830
ship,0.004484
shipment,0.007258
shore,0.006010
shortterm,0.005745
sichelschnitt,0.013153
sicili,0.007266
sickl,0.009011
sieg,0.013103
sight,0.005865
sigismund,0.009505
sign,0.003621
signal,0.004548
signific,0.011232
significantli,0.004056
silesia,0.009254
silesian,0.011405
similarli,0.004167
simpson,0.007370
simultan,0.004610
sinc,0.013198
sink,0.006551
situat,0.003386
sixth,0.005840
size,0.006851
skew,0.007553
skill,0.004237
skirmish,0.007963
slav,0.008687
slow,0.004541
slowli,0.005070
small,0.005383
smaller,0.018702
societi,0.005512
soil,0.009968
soldier,0.090097
solidar,0.006767
somalia,0.007542
son,0.004211
soon,0.016135
sooner,0.007871
sorti,0.009810
sought,0.004285
sourc,0.005534
south,0.003444
southern,0.020413
southward,0.007361
sovereign,0.005257
soviet,0.081001
sovieteast,0.013153
sovietrussian,0.010722
sowjetisch,0.012411
spain,0.004674
span,0.005081
spanish,0.014271
speak,0.008436
special,0.005502
spend,0.009132
spent,0.004862
spitfir,0.010196
spread,0.003888
spring,0.014885
squander,0.009586
stabil,0.004102
staff,0.005185
stage,0.003841
stalem,0.007884
stalin,0.021699
stalingrad,0.021633
stall,0.007317
stanc,0.006064
stand,0.004134
standard,0.002962
stapl,0.006964
stark,0.007425
start,0.011138
state,0.051969
statesmanship,0.010722
static,0.005627
station,0.024029
steadili,0.005802
stepp,0.007637
stone,0.004912
stood,0.005917
stori,0.004459
stormtroop,0.011558
strateg,0.019204
strategi,0.012293
strength,0.017846
stress,0.009022
strip,0.005772
strong,0.009589
structur,0.002570
stuka,0.011729
stunningli,0.010722
subdu,0.007107
subject,0.005596
submarin,0.013294
subsequ,0.003432
succeed,0.004497
success,0.043759
sudan,0.006773
sue,0.008062
suffer,0.004015
suffici,0.004066
suicid,0.012613
summer,0.010178
superb,0.009392
superior,0.014689
suppli,0.010758
support,0.020924
surpris,0.011569
surrend,0.006060
surviv,0.007588
suspens,0.006834
sustain,0.004302
swaben,0.013153
swede,0.009189
sweden,0.016485
swedish,0.005999
sweep,0.006737
sword,0.028835
swore,0.009716
symbol,0.007987
synthes,0.005716
tachov,0.012411
tactic,0.070196
taken,0.003221
tallard,0.013153
tank,0.067030
tannenberg,0.023116
task,0.004080
team,0.009187
technolog,0.012686
tension,0.009993
term,0.004157
territori,0.034653
terror,0.005856
teutoburg,0.011923
teuton,0.036886
teutonicorum,0.013153
text,0.026563
th,0.015134
thank,0.012098
theatr,0.006214
themselv,0.003263
theori,0.002578
theorist,0.005127
therefor,0.002990
theresa,0.009545
thi,0.026326
thirti,0.017792
thoma,0.003935
thought,0.015588
thousand,0.007758
threat,0.013842
threaten,0.010003
throne,0.006206
thrown,0.007326
thrust,0.007738
thu,0.002571
till,0.006641
tim,0.013861
time,0.015570
timet,0.008559
tini,0.005934
tirpitz,0.011729
titl,0.003948
tonnag,0.008904
took,0.020619
tornow,0.013153
total,0.006138
town,0.009034
trade,0.003182
tradit,0.002770
tragedi,0.007398
trail,0.007216
train,0.018993
translat,0.003787
transport,0.003771
treati,0.027563
trench,0.022277
tri,0.017312
trial,0.005019
tribe,0.032492
troop,0.039722
true,0.003561
turk,0.020852
turkish,0.006368
turn,0.009123
twelv,0.005802
uboat,0.018079
uk,0.004032
ukrain,0.006572
ultim,0.007609
unabl,0.004571
unaccept,0.007169
unawar,0.007153
underground,0.006097
understood,0.004128
undisput,0.008281
unequ,0.006834
unexpect,0.006424
unfold,0.007233
unfortun,0.006342
unif,0.025023
unifi,0.018418
union,0.035957
unit,0.026625
unitari,0.006904
unlik,0.003663
unshak,0.011405
use,0.019772
ute,0.011140
v,0.015689
vandal,0.008281
variou,0.002504
vastli,0.006878
vaunt,0.012147
vehicl,0.009989
ventur,0.005793
verdun,0.010398
veri,0.002512
versail,0.015407
vessel,0.005355
vet,0.008930
vichi,0.008386
victori,0.066232
vienna,0.012587
view,0.002819
violat,0.004867
violent,0.005431
vital,0.004912
vol,0.004727
volca,0.013153
volksarme,0.026306
volksmarin,0.013153
volunt,0.006064
von,0.031231
vulner,0.005595
wa,0.182174
wall,0.004657
want,0.016245
war,0.271870
warfar,0.027895
warsaw,0.022944
warship,0.014401
washington,0.004843
wast,0.010553
waterloo,0.008665
way,0.004704
weak,0.004369
weaken,0.016529
weapon,0.014655
wear,0.005961
web,0.004769
week,0.009247
wehrmacht,0.030402
weimar,0.017038
weinberg,0.008136
wellington,0.008779
went,0.012104
weser,0.011024
weserbung,0.012411
west,0.052881
western,0.019854
westphalia,0.009158
whenev,0.006190
wherea,0.003817
wide,0.002833
wilhelm,0.005537
wilhelminian,0.012411
william,0.010574
williamson,0.008047
win,0.004946
window,0.006182
winston,0.007416
winter,0.027255
withdraw,0.010575
withdrew,0.006182
withstood,0.010018
women,0.004186
won,0.017812
work,0.004313
world,0.026763
worldwid,0.004462
worsen,0.006567
written,0.006965
wrttemberg,0.010260
year,0.033301
young,0.004084
younger,0.005465
yugoslavia,0.022305
zivildienst,0.013153
zone,0.018187
zorndorf,0.013153
