activ,0.001545
adjectiv,0.004778
administr,0.002165
africa,0.007543
african,0.002714
agenc,0.002435
agricultur,0.002301
air,0.002378
airport,0.003410
allafrica,0.007686
amigo,0.006760
anthem,0.004500
apart,0.002837
architectur,0.002920
area,0.003075
arm,0.002468
armi,0.002663
arriv,0.002492
art,0.004737
articl,0.003680
assembl,0.002417
assembleia,0.006534
associao,0.006640
atla,0.007261
atlant,0.003281
bank,0.006717
bbc,0.003522
bicamer,0.004205
biospher,0.003892
bird,0.003187
boundari,0.002606
branch,0.007942
british,0.002084
cabinet,0.003141
capit,0.002033
care,0.002349
cau,0.007264
central,0.001752
chocol,0.005139
christian,0.002423
cia,0.003715
cinema,0.004198
climat,0.002670
coast,0.005708
coastlin,0.003889
coat,0.003704
code,0.007259
command,0.002623
commanderinchief,0.004343
common,0.004536
commun,0.001635
compani,0.001974
compris,0.002558
conserv,0.002482
consist,0.001673
constitut,0.001974
coordin,0.002651
countri,0.016459
court,0.002372
crime,0.003103
cuisin,0.004251
cultur,0.001880
currenc,0.002740
da,0.006658
day,0.001887
defenc,0.003044
democrat,0.009802
democrtica,0.005839
demographi,0.004205
demonym,0.004899
diplomat,0.005942
direco,0.007887
district,0.006050
divis,0.002167
dmoz,0.003312
dobra,0.007522
domain,0.002442
e,0.014187
eastern,0.002499
econom,0.001647
economi,0.004112
ecoregion,0.008918
educ,0.001918
eighth,0.004202
eighti,0.004500
elect,0.002220
encyclopediasao,0.007522
endonym,0.009898
energi,0.006324
enforc,0.002823
english,0.004194
environ,0.003992
environment,0.002420
equat,0.005008
equatori,0.004515
estatstica,0.007522
etymolog,0.003205
european,0.001875
exchang,0.002128
execut,0.002281
explor,0.002294
extern,0.001177
extinct,0.003423
extrem,0.002160
factbook,0.003773
fauna,0.003841
feast,0.004736
featur,0.002036
festiv,0.003739
flag,0.003595
flora,0.004070
follow,0.001288
footbal,0.004029
forc,0.004841
foreign,0.002096
form,0.001230
forum,0.003307
freedom,0.002541
ft,0.003519
gabon,0.005149
gdp,0.003028
gener,0.001157
geograph,0.002618
geographi,0.005927
geolog,0.003077
glacier,0.004209
govern,0.015311
group,0.001452
guid,0.004553
guinea,0.019010
gulf,0.018212
happen,0.002544
head,0.004157
health,0.002244
hemispher,0.003666
heritag,0.006586
hi,0.001443
high,0.001630
hinduism,0.003871
histori,0.004023
holiday,0.003790
honor,0.003330
hotelaria,0.007887
hous,0.006480
human,0.001551
hundr,0.002446
independ,0.001653
index,0.002557
industri,0.001837
infrastructur,0.002726
institut,0.001703
instituto,0.005634
intern,0.002822
internet,0.005282
islam,0.002680
island,0.026252
iso,0.015031
issu,0.001727
judaism,0.003851
judici,0.003091
just,0.001877
kilometr,0.011199
km,0.003030
lake,0.003175
land,0.002037
languag,0.002023
law,0.003243
legisl,0.002464
lgbt,0.004548
link,0.001170
list,0.002993
literatur,0.002405
local,0.003646
locat,0.005937
low,0.002063
lower,0.001989
m,0.003850
main,0.001704
mainland,0.003496
mammal,0.003407
media,0.002468
member,0.003434
membership,0.002964
mi,0.010181
microst,0.005467
militari,0.008710
minist,0.002428
ministri,0.002894
mission,0.005367
mountain,0.005791
music,0.002958
n,0.004834
nacion,0.008948
nation,0.013423
natur,0.001436
naveturequatour,0.007887
navi,0.003221
news,0.005875
nomin,0.002809
north,0.002137
northwestern,0.004086
ocean,0.002769
offici,0.008174
ofici,0.006899
oil,0.002686
olymp,0.004063
order,0.001483
organ,0.001468
outlin,0.007859
oversea,0.003210
overview,0.005394
page,0.002638
park,0.003145
parliament,0.002714
parti,0.002080
peopl,0.001484
photo,0.004165
pico,0.005580
point,0.001561
polici,0.001991
polit,0.008446
popul,0.005745
portugues,0.013705
portuguesespeak,0.006440
presid,0.004464
presidncia,0.007887
prime,0.002479
princip,0.007233
principebank,0.007522
prncipe,0.811449
prnciperel,0.015774
prnsp,0.007887
prnspe,0.007887
profil,0.003332
pronunci,0.004093
protect,0.002057
provid,0.001369
provinc,0.005706
public,0.001554
rail,0.003884
rang,0.001852
rank,0.007817
recent,0.001695
record,0.002063
refer,0.001957
region,0.003505
relat,0.001319
religion,0.004986
renew,0.002862
repblica,0.005710
repres,0.001605
republ,0.011487
reserv,0.002603
resourc,0.001981
respect,0.001861
right,0.003513
river,0.002676
road,0.002843
sa,0.008626
saint,0.003273
sanit,0.004411
sao,0.017518
scandal,0.004133
secondsmallest,0.007887
secur,0.002079
semipresidenti,0.005182
senat,0.003358
seychel,0.005239
sikhism,0.004531
site,0.013768
situat,0.002097
sizabl,0.004587
smallest,0.010637
southern,0.002528
special,0.001703
sport,0.003235
st,0.008784
state,0.003576
statist,0.002235
stay,0.002982
std,0.006534
stock,0.002628
stp,0.011633
suppli,0.002220
suprem,0.002789
symbol,0.002473
taxat,0.003349
televis,0.003070
term,0.001287
territori,0.002384
th,0.001562
theatr,0.003848
thoma,0.002436
time,0.002410
tme,0.015045
tom,0.575573
toman,0.006640
tome,0.020642
topic,0.004323
toplevel,0.004425
tourism,0.009507
transport,0.004671
travel,0.004811
trusteeship,0.005394
turismo,0.006534
unit,0.002748
unitari,0.004275
univers,0.001411
upper,0.002751
utc,0.004640
valley,0.003150
volcan,0.003908
volcano,0.004029
wa,0.001117
water,0.002101
waterfal,0.004598
western,0.002049
wikimedia,0.003797
wikivoyag,0.005275
wildlif,0.003882
world,0.005524
wwwsaotomest,0.007887
zone,0.002815
