abandon,0.016126
abbasid,0.008802
abkhazeti,0.013499
abkhazgeorgian,0.015138
abkhazia,0.041617
abkhazian,0.035205
abl,0.021809
absorb,0.005752
absorpt,0.007004
abu,0.023490
accordingli,0.006476
achiev,0.003620
acquir,0.004687
activ,0.002871
ad,0.011017
adamia,0.015138
adjara,0.013126
adopt,0.003971
advanc,0.007108
advantag,0.008933
advantig,0.015138
afghan,0.009610
afghanistan,0.029532
african,0.010087
afsharid,0.011968
age,0.014415
agha,0.011887
agreement,0.008785
ahmad,0.024974
aid,0.021585
aircraft,0.006391
alexand,0.027567
ali,0.007133
alli,0.031891
allianc,0.010763
alongsid,0.005984
ambit,0.022517
ambush,0.009166
amidst,0.027405
amilakhvari,0.015138
ammunit,0.008946
anatolia,0.008658
ancient,0.020846
andorra,0.010218
anf,0.014285
annal,0.007721
annex,0.019640
announc,0.004832
annual,0.004420
antipersian,0.015138
antiqu,0.005954
antiquti,0.015138
appeal,0.005359
appear,0.003333
approxim,0.007843
april,0.013207
aq,0.034218
ar,0.008278
ara,0.010986
arab,0.005315
aragvi,0.013126
aragvian,0.015138
arbor,0.009382
archil,0.014285
area,0.008574
arm,0.018353
armament,0.008933
armenia,0.069265
armenian,0.052518
armi,0.089096
armor,0.017203
armour,0.008658
arriv,0.004632
arrow,0.007388
arsen,0.008171
artilleri,0.015731
artvin,0.014658
asia,0.009882
aspindza,0.014285
assault,0.007377
assert,0.004943
assign,0.005168
assist,0.004290
atabeg,0.013302
attack,0.009279
attempt,0.006564
august,0.017491
autonom,0.005818
autonomi,0.006013
auxiliari,0.008120
averag,0.004298
awar,0.010413
axi,0.006599
azerbaijan,0.008827
backbon,0.008189
bagrat,0.024898
bagrationi,0.013302
baiji,0.014285
bakr,0.020496
bangui,0.012341
baptism,0.009436
base,0.007522
basi,0.003584
basian,0.015138
basiani,0.014285
battalion,0.034230
battalions,0.013980
battl,0.146736
battlefield,0.016241
bazaleti,0.015138
bc,0.010267
beat,0.007299
becom,0.016666
befor,0.011853
begin,0.020300
beria,0.012967
beskhen,0.030277
betray,0.008412
black,0.004682
bloodi,0.008146
blow,0.007351
bolshevik,0.018209
bomb,0.006569
border,0.010222
breakaway,0.019750
briberi,0.009759
brief,0.010999
brigad,0.017409
bring,0.004313
british,0.007748
broken,0.005785
broker,0.007619
bronz,0.006983
bulk,0.012302
byzantin,0.085663
byzantinegeorgian,0.015138
byzantium,0.008946
caeliu,0.013499
caliph,0.031433
campaign,0.015650
capabl,0.004576
capit,0.022677
capitul,0.009631
captiv,0.014886
captur,0.028630
caputr,0.015138
casperiu,0.015138
casualti,0.007613
catherin,0.008278
caucasian,0.018873
caucasu,0.033933
caus,0.006203
cavalri,0.008504
ceasefir,0.008206
celebr,0.005989
central,0.009773
centuri,0.035810
centurion,0.012144
certain,0.003180
chalagan,0.015138
chang,0.002620
chiefli,0.007534
christian,0.018015
chronicl,0.007319
cilicia,0.011663
circassia,0.013722
circassian,0.012144
citi,0.004013
civil,0.003986
civilian,0.006041
claim,0.003527
clash,0.006917
classifi,0.004701
coalit,0.011263
coast,0.005304
coastlin,0.007229
colchi,0.066514
colchian,0.014285
cold,0.005540
collaps,0.005119
combat,0.006100
command,0.024381
compani,0.003670
compar,0.003437
complet,0.009630
conduct,0.011951
conflict,0.034633
conqueror,0.008546
consequ,0.003952
consid,0.005421
consider,0.003906
consist,0.021777
constantin,0.008412
constantinopl,0.008039
constantli,0.006479
constitut,0.003670
conting,0.020252
continu,0.002816
contradict,0.006208
contribut,0.006823
control,0.021617
convent,0.004500
convinc,0.006187
convoy,0.009213
core,0.004936
corp,0.006857
correspond,0.004219
costli,0.007243
counterattack,0.018660
countri,0.024471
countrysid,0.007619
cover,0.003826
creat,0.002843
cross,0.005073
crusad,0.007887
crush,0.014221
culmin,0.012317
cultur,0.003494
cun,0.010371
current,0.008927
czech,0.007448
date,0.003884
david,0.008258
dawud,0.013126
day,0.014030
dead,0.005827
death,0.004071
decic,0.015138
decis,0.003918
declar,0.022447
defeat,0.016498
defens,0.005101
delta,0.006657
demand,0.004149
democrat,0.009108
denikin,0.027960
deploy,0.050324
describ,0.002860
descript,0.004249
despit,0.007882
destin,0.006504
destroy,0.009721
destruct,0.005501
develop,0.002324
didgori,0.069902
didgoroba,0.015138
die,0.017815
digomi,0.015138
dimitri,0.010248
diplomaci,0.007823
direct,0.003086
directli,0.003734
disastr,0.008129
displac,0.005964
dispos,0.006877
disput,0.004675
distant,0.006461
distinguish,0.004126
district,0.011244
divers,0.004470
dmz,0.012564
doctrin,0.011148
domest,0.004816
dominion,0.015877
driven,0.005411
duel,0.010728
dure,0.021405
dutch,0.005708
dynasti,0.018132
earli,0.011195
earlyto,0.014285
east,0.004302
eastern,0.013934
effect,0.008155
effort,0.023253
egypt,0.005909
egyptian,0.012614
eighteenth,0.007152
emperor,0.012343
empir,0.128860
empress,0.009312
encompass,0.005238
encourag,0.004599
end,0.012238
enemi,0.006254
engag,0.008863
enjoy,0.005327
entir,0.018149
equip,0.015009
era,0.004421
erivan,0.013499
erupt,0.006987
erzurum,0.013126
essenti,0.003890
establish,0.020905
etern,0.014149
ethnic,0.005522
eu,0.006093
eufor,0.012967
europ,0.007589
event,0.003641
eventu,0.023864
everi,0.003501
execut,0.012717
exercis,0.009616
expel,0.006747
extent,0.013814
face,0.004200
facto,0.006784
fail,0.004207
fall,0.003819
far,0.007589
father,0.004919
favour,0.005503
fear,0.005250
feder,0.004455
fend,0.010024
festiv,0.006950
field,0.006112
fight,0.057760
fighter,0.015201
figur,0.004144
financi,0.003995
firm,0.009996
follow,0.004787
forc,0.089980
form,0.004574
format,0.004081
fortress,0.032721
fought,0.012694
founder,0.005244
fragment,0.017656
freedom,0.004723
fullscal,0.008716
fund,0.008251
gagra,0.027445
gain,0.018203
ganja,0.012144
gap,0.005825
garisi,0.015138
garni,0.015138
garrison,0.015165
gear,0.007594
gelovani,0.015138
gener,0.006450
geographi,0.011016
georg,0.017251
georgia,0.436307
georgian,0.609161
georgianabkhazian,0.014658
georgianarmenian,0.026253
georgianmamluk,0.015138
georgianottoman,0.015138
georgiansafavid,0.015138
georgianseljuk,0.015138
georgievsk,0.027445
german,0.012678
germani,0.004505
given,0.003001
glori,0.008422
golden,0.006063
gorgas,0.015138
gornea,0.015138
govern,0.008536
grant,0.009174
great,0.023608
greater,0.007538
greatest,0.005266
greek,0.016950
group,0.005398
grow,0.011511
guidanc,0.006747
guria,0.027445
ha,0.013967
halt,0.006818
happen,0.004729
hardwar,0.007000
hasan,0.028094
hate,0.008590
head,0.003863
heavili,0.004824
helmand,0.013302
helmet,0.010248
help,0.003276
heracliu,0.055409
heraclui,0.015138
herecliu,0.015138
hi,0.040246
hidden,0.006589
histori,0.002492
historian,0.005042
home,0.004273
hostil,0.006206
howev,0.012142
humanitarian,0.007528
hundr,0.013639
iberia,0.113686
iberian,0.100946
iberiansasanian,0.015138
iberiawhich,0.015138
ibrahim,0.008777
ii,0.019581
iind,0.015138
ilghazi,0.015138
illgotten,0.014285
imereti,0.040499
imperi,0.005829
import,0.002552
inaugur,0.006913
includ,0.016618
increas,0.014387
increasingli,0.008822
incurs,0.016258
independ,0.021514
induc,0.005925
industri,0.006831
infam,0.008635
infantri,0.032350
influenc,0.003295
inform,0.002974
infrastructur,0.005066
initi,0.016256
insignific,0.008658
institut,0.006333
insur,0.005769
integr,0.003611
intend,0.004632
intercept,0.008716
interven,0.006430
invad,0.047879
invas,0.098218
involv,0.008702
iosseliani,0.014285
iranian,0.030186
iraq,0.073662
irregular,0.007000
isaf,0.033549
island,0.008870
ismail,0.009312
israel,0.012256
iv,0.006495
iveria,0.014285
jahan,0.011887
janjgava,0.015138
jebe,0.027445
joint,0.015807
joseph,0.004931
juli,0.004322
june,0.004359
justinian,0.009455
kantaria,0.015138
kara,0.042915
kartli,0.012144
kartlkakheti,0.014285
kartv,0.015138
kartvelian,0.014285
kept,0.005391
khan,0.038942
khanat,0.009875
khosrau,0.012144
khresili,0.015138
khwarazmian,0.014658
kievan,0.010728
kill,0.034578
kin,0.008988
king,0.057193
kingdom,0.091546
kipchak,0.012341
kiziki,0.015138
km,0.011263
known,0.012501
kolkh,0.015138
kolkhi,0.015138
komneno,0.012144
konstantin,0.010218
konyev,0.015138
kosovo,0.016864
koyunlu,0.051288
krtsanisi,0.013980
kvachantiradz,0.015138
land,0.007572
larg,0.013183
late,0.003463
later,0.029753
latin,0.004702
launch,0.015115
lavrenti,0.014285
layla,0.013722
laz,0.012967
lazic,0.055921
lazica,0.054891
lazistan,0.015138
lead,0.014924
leader,0.004374
leadership,0.005428
leav,0.008473
led,0.009686
legion,0.026483
leselidz,0.015138
light,0.004124
listen,0.007065
littl,0.011486
local,0.003388
locat,0.007356
loladz,0.015138
long,0.003248
lori,0.022163
lose,0.021045
lowest,0.005950
luftwaff,0.011033
maglakelidz,0.015138
main,0.006333
mainli,0.008305
major,0.013269
make,0.005087
mamluk,0.060149
manag,0.003582
mani,0.009044
manpow,0.008790
marabda,0.015138
march,0.004148
marin,0.011453
martqopi,0.015138
massacr,0.014588
materi,0.003505
mazniashvili,0.014285
mean,0.002754
medic,0.009213
mediev,0.010671
meliton,0.015138
member,0.003191
men,0.023193
mesopotamian,0.008753
mid,0.004981
middl,0.012373
militari,0.056655
million,0.011787
miracul,0.009570
miss,0.006310
missil,0.007795
mission,0.014963
mithrid,0.037693
mobil,0.005313
model,0.003116
moder,0.005730
modern,0.012002
modernday,0.021360
mohammad,0.009060
monarch,0.006606
monarchi,0.006412
mongol,0.055009
mostli,0.012804
mount,0.011663
mountain,0.010763
movement,0.010348
mtskheta,0.013980
muhammad,0.007185
multin,0.007576
multipl,0.007695
muskhelishvili,0.015138
muslim,0.005594
muslimheld,0.015138
nadiradz,0.015138
nakhichevan,0.012822
nakhiduri,0.015138
nation,0.011087
nato,0.022693
natur,0.002670
nauru,0.009382
nd,0.004654
near,0.004113
negoti,0.010472
neighbor,0.005643
new,0.002234
newli,0.010525
nicaragua,0.008974
nikoloz,0.014658
nobil,0.023406
noe,0.012341
nonviol,0.008623
northeast,0.007124
northward,0.008504
notabl,0.011515
note,0.002884
nowaday,0.007570
number,0.015015
numer,0.003706
occupi,0.030089
offens,0.006970
offici,0.003797
olkha,0.015138
olkheti,0.015138
omar,0.025326
onli,0.004605
oper,0.015778
orbelian,0.015138
order,0.011026
origin,0.002772
ossetia,0.052355
ottoman,0.028299
outdat,0.008879
outflank,0.011735
outnumb,0.008306
overwhelm,0.006707
parthian,0.009948
partial,0.013804
particip,0.015785
particular,0.003131
partisan,0.008740
partner,0.005468
partnership,0.006296
partskhisi,0.015138
pasha,0.089990
pay,0.004670
peac,0.024121
peacekeep,0.022802
peak,0.021956
peninsula,0.006654
peopl,0.027579
percent,0.005024
period,0.011889
persia,0.007448
persian,0.069134
person,0.009819
personnel,0.018547
persuad,0.007229
piec,0.005524
pillag,0.010105
place,0.005658
play,0.003611
pledg,0.007092
plutarch,0.009610
point,0.005803
poland,0.006833
polit,0.015697
pollio,0.026999
pompey,0.057031
popul,0.017795
portion,0.005026
portug,0.006682
posit,0.002964
possess,0.004495
power,0.014677
practic,0.003069
prefect,0.009651
prepar,0.004652
presenc,0.017351
present,0.011472
presentday,0.006442
preserv,0.004834
preveil,0.015138
previou,0.004325
primarili,0.007842
princ,0.006190
princip,0.013442
prison,0.006088
probabl,0.008232
product,0.002989
program,0.003608
promis,0.005390
prompt,0.006279
proper,0.005146
protect,0.007646
protector,0.007097
protest,0.005330
provid,0.007635
provinc,0.026513
provoc,0.009400
push,0.005454
qajar,0.033245
qoyunlu,0.038466
qrf,0.015138
qualiti,0.004273
quantiti,0.004672
queen,0.006020
quickli,0.004669
quo,0.007999
racha,0.012822
raid,0.006830
rais,0.004230
rang,0.003443
ravag,0.026758
reach,0.011091
rebellion,0.006495
recalcitr,0.010940
recogn,0.007801
reconqu,0.009492
reconquest,0.009998
recov,0.005600
recover,0.010613
recruit,0.006707
red,0.010084
refer,0.005457
reflect,0.003909
reform,0.004450
refus,0.021235
regain,0.006987
regard,0.003490
region,0.055381
regularli,0.006192
reign,0.006290
reimpos,0.011291
reinforc,0.018586
reject,0.004484
remain,0.009026
rememb,0.006678
renew,0.005319
repeatedli,0.006473
replac,0.003707
reportedli,0.007224
repres,0.002984
republ,0.025618
repuls,0.008031
reput,0.006330
request,0.011058
research,0.002951
resist,0.009428
resolut,0.005565
resolv,0.005284
resourc,0.003682
respect,0.006919
respond,0.004906
respons,0.012621
restor,0.005144
result,0.015204
retain,0.004784
retak,0.018910
retrain,0.022695
retreat,0.021079
return,0.003681
revolt,0.026493
revolut,0.004506
rhadamistu,0.090832
rich,0.005216
rise,0.003660
river,0.004973
rize,0.015138
role,0.003186
roman,0.034159
romanparthian,0.013980
rome,0.012422
rose,0.005520
rotat,0.006022
roughli,0.010206
round,0.005762
royal,0.004800
ru,0.009347
rule,0.023245
ruler,0.012156
rum,0.019388
rush,0.007946
russia,0.080199
russian,0.069239
s,0.007740
sack,0.022711
safavid,0.030398
said,0.003737
salari,0.006728
samegrelo,0.013722
samegrelozemo,0.014285
sapper,0.012144
sasanian,0.010940
sassanid,0.055674
satellit,0.006347
scale,0.012352
sea,0.004641
secess,0.008802
second,0.002985
secur,0.011595
seiz,0.006254
seljuk,0.031840
send,0.022756
separat,0.010278
separatist,0.017293
septemb,0.004387
seri,0.003624
serv,0.007242
servic,0.003544
seven,0.004773
sever,0.015836
sfsr,0.011809
shah,0.033688
shalva,0.027445
shamkir,0.014285
shamkor,0.015138
shape,0.004336
shatter,0.009166
shelter,0.007092
shift,0.004408
shirvanshah,0.013722
short,0.011636
shortli,0.005662
sieg,0.015081
sign,0.016674
signific,0.003231
significantli,0.004669
similar,0.003023
sinc,0.007595
singl,0.006776
situat,0.007796
sizabl,0.017050
skill,0.004877
skirmish,0.009166
slave,0.005982
small,0.003098
smaller,0.004305
sochi,0.072325
soldier,0.086414
son,0.043629
soon,0.004642
soslan,0.015138
south,0.019824
southern,0.009397
southernmost,0.009694
sovereign,0.006051
soviet,0.038387
spain,0.005380
spark,0.006700
special,0.015832
spend,0.005255
sphere,0.005665
spous,0.009312
ss,0.007781
st,0.004081
stabl,0.004982
staff,0.005968
stalem,0.009074
stalin,0.008324
stanc,0.006979
stand,0.004758
standart,0.015138
start,0.016024
state,0.044306
statehood,0.009364
station,0.011062
statu,0.004228
steadi,0.006489
steadili,0.006678
stiff,0.008568
strateg,0.005525
street,0.005777
strength,0.005135
stretch,0.006382
strike,0.005631
strong,0.014715
strongest,0.007345
structur,0.005916
stuck,0.008827
subdu,0.024541
subject,0.003220
subjug,0.008623
submiss,0.008015
subsequ,0.003951
subsist,0.006970
subutai,0.028570
succeed,0.010352
success,0.010072
successor,0.011374
suffer,0.004621
suit,0.005885
sulayman,0.062823
sultan,0.014988
superior,0.005635
support,0.018061
supremaci,0.008278
surrend,0.013950
surviv,0.004366
svaneti,0.027445
sway,0.008472
symbol,0.004596
systemat,0.004837
syunik,0.013499
tacitu,0.020743
taken,0.011121
takeov,0.007837
tamar,0.023327
taoklarjeti,0.028570
target,0.004714
tashiskari,0.015138
tbilisi,0.081169
teleti,0.015138
temporari,0.005971
tension,0.005750
term,0.004784
territori,0.035452
texel,0.026605
th,0.029031
themselv,0.003755
thi,0.015149
thirteenth,0.008536
thousand,0.026789
threat,0.005310
threaten,0.005756
threesid,0.013499
throne,0.007143
thu,0.002959
time,0.015680
timur,0.051092
timurid,0.043762
timurlan,0.014658
total,0.017663
town,0.020797
trabzon,0.013980
train,0.021860
traitor,0.010308
transcaucasian,0.011406
transfer,0.004332
translat,0.004358
treati,0.031724
trebizond,0.024898
tri,0.003985
tribal,0.007061
tribut,0.007552
trigger,0.006158
troop,0.097151
tuaps,0.042855
turcomongol,0.037347
turkey,0.013206
turkish,0.007330
turkishgeorgian,0.015138
turkoman,0.026253
turmoil,0.007894
turn,0.017501
type,0.003044
tzath,0.015138
ukrain,0.007564
ultim,0.017516
ultimatum,0.018363
umayyad,0.028365
unabl,0.010522
uncl,0.008095
undertak,0.006873
undisclos,0.010651
unif,0.007200
union,0.007524
unit,0.028090
unsuccess,0.006511
unwilling,0.009998
upgrad,0.021806
upper,0.005112
upris,0.021092
use,0.008275
usurp,0.017976
uzun,0.013980
v,0.009028
vakhtang,0.025935
vale,0.010810
valour,0.012822
vari,0.003732
variou,0.005764
vasilij,0.015138
vassal,0.033728
vassalag,0.034043
vast,0.005084
vehicl,0.005748
venezuela,0.007768
veri,0.005782
victori,0.029318
vii,0.023105
vladimir,0.007204
volatil,0.006736
wa,0.018683
war,0.136671
warfar,0.006421
way,0.005414
weak,0.010058
weaknen,0.015138
wealth,0.005213
weapon,0.022489
west,0.021736
western,0.019042
wheter,0.015138
white,0.014420
willingli,0.009805
withdraw,0.018257
withdrawn,0.007844
withstood,0.011530
wolf,0.015509
women,0.004818
wore,0.009060
world,0.012834
wound,0.027783
write,0.003958
ww,0.009060
yaroslav,0.012341
year,0.015331
zoroastrian,0.008906
