abl,0.013449
abolish,0.088992
access,0.014731
action,0.013082
activ,0.021248
age,0.013334
aggressor,0.039550
agreement,0.016252
allegi,0.028424
annuario,0.050773
anyth,0.021042
apostol,0.067827
appear,0.012332
arm,0.084884
armi,0.054941
arrang,0.017358
articl,0.012654
basic,0.012915
bodyguard,0.076990
bomb,0.024307
capit,0.013984
cardin,0.056381
cathol,0.020760
centr,0.017680
ceremoni,0.023735
certif,0.024991
chaplain,0.040153
citi,0.163348
citizenship,0.026802
cityrel,0.047979
cityst,0.030171
civilian,0.044708
close,0.011505
cm,0.027044
coat,0.025473
cohor,0.108467
colleg,0.018666
colonel,0.058858
command,0.036083
complet,0.011877
compris,0.017592
conclav,0.042660
conduct,0.014739
continu,0.010420
control,0.011426
corp,0.152228
corsican,0.049219
countri,0.022635
custodia,0.056012
defend,0.019242
durat,0.024493
dure,0.019799
duti,0.040929
earlier,0.015299
elect,0.015271
emblem,0.038375
enclav,0.032163
end,0.011320
ensur,0.017010
entir,0.013430
entranc,0.029155
establish,0.011049
european,0.012896
exist,0.010296
extern,0.008096
firefight,0.038375
forc,0.055487
ft,0.024198
fulfil,0.022389
function,0.011335
gendarmeri,0.117399
ger,0.043155
good,0.012309
guard,0.485973
guardia,0.044282
ha,0.029530
halberd,0.044599
height,0.022075
helvetica,0.050773
helvetiorum,0.056012
hi,0.019854
histor,0.012437
hold,0.013336
holi,0.070326
hors,0.023916
household,0.022024
ii,0.028979
illustr,0.018881
includ,0.023057
index,0.017588
instead,0.012968
ital,0.034209
itali,0.019924
italian,0.020774
januari,0.015800
juliu,0.028168
lat,0.041573
lateran,0.041186
lie,0.036271
lieuten,0.029542
like,0.009886
link,0.008048
list,0.030877
maintain,0.025811
male,0.020760
mark,0.014860
meet,0.014975
member,0.035427
mercenari,0.031662
militari,0.074864
militia,0.057284
new,0.008267
nobl,0.048135
number,0.009259
occup,0.019285
offic,0.029795
onli,0.017039
owe,0.022525
palac,0.052927
palatin,0.079100
papal,0.224542
paul,0.016088
pedestri,0.056012
perform,0.013011
period,0.010997
person,0.024221
polic,0.020584
pontif,0.218178
pontifici,0.056012
pontificia,0.092122
pontificio,0.050773
pope,0.234263
power,0.010861
primarili,0.014507
prior,0.016030
rank,0.071675
recruit,0.074449
refer,0.006730
regiment,0.030331
respons,0.035023
rome,0.068945
sacra,0.046946
safeti,0.043390
schweizergard,0.056012
secur,0.028601
sede,0.049948
seen,0.013206
senior,0.022309
sinc,0.018734
small,0.034388
special,0.011715
standard,0.012617
state,0.057375
svizzera,0.051726
swiss,0.427669
switzerland,0.024009
tactic,0.024910
territori,0.032792
togeth,0.012917
tradit,0.011796
train,0.032352
transform,0.015334
treati,0.019562
unit,0.018896
unmarri,0.037091
vacant,0.034089
variou,0.010664
vatican,0.379468
vi,0.026639
voulg,0.054233
wa,0.030723
war,0.026614
websit,0.017713
world,0.009497
zouav,0.051726
