adjectiv,0.004372
administr,0.001981
administrateur,0.006550
agricultur,0.002106
air,0.002176
airport,0.003121
alofi,0.006385
anthem,0.004118
apart,0.002596
architectur,0.002672
area,0.002814
arm,0.002259
armi,0.002437
art,0.004335
articl,0.001684
assembl,0.002212
atla,0.006645
bank,0.004098
bicamer,0.003848
biospher,0.003562
bird,0.002916
boundari,0.004770
branch,0.007268
cabinet,0.002874
capit,0.003722
care,0.002149
christian,0.002217
cinema,0.003842
citi,0.001976
climat,0.002443
coastlin,0.003559
coat,0.003390
code,0.006643
collect,0.006678
collectivit,0.005481
com,0.004784
command,0.002401
commanderinchief,0.003974
common,0.004151
commun,0.002993
compani,0.001807
compris,0.002341
constitut,0.001807
contigu,0.004292
countri,0.006025
court,0.002171
crime,0.002839
cultur,0.001721
currenc,0.002508
defenc,0.002786
democrat,0.002242
demographi,0.003848
demonym,0.004483
diplomat,0.005438
district,0.008305
divis,0.001983
dmoz,0.003031
domain,0.002235
doutrem,0.005433
eastern,0.002287
econom,0.001508
economi,0.001882
ecoregion,0.004081
educ,0.001755
elect,0.002032
endonym,0.009058
energi,0.005787
enforc,0.002583
english,0.003838
environ,0.001826
et,0.002368
etymolog,0.002933
exchang,0.001948
execut,0.002087
extern,0.001077
extrem,0.001976
fauna,0.003515
featur,0.001863
feder,0.002194
festiv,0.003422
fiji,0.004366
fjord,0.004646
flag,0.003290
follow,0.001178
footbal,0.003687
forc,0.004430
foreign,0.001918
form,0.001126
forum,0.003026
franc,0.004219
freedom,0.002326
french,0.021814
ft,0.003220
futuna,0.761914
futunan,0.013515
futunarel,0.013769
gdp,0.002771
gener,0.001058
geograph,0.002396
geographi,0.005424
geolog,0.002816
glacier,0.003852
govern,0.011210
group,0.001329
guid,0.002083
ha,0.000982
head,0.003804
health,0.002054
hemispher,0.006711
heritag,0.006028
high,0.001492
hinduism,0.003543
histori,0.003682
holiday,0.003468
hoorn,0.006647
hous,0.005930
human,0.001419
index,0.002340
industri,0.001681
inform,0.001464
infrastructur,0.002494
intern,0.002582
internet,0.004834
islam,0.002453
island,0.024024
islet,0.004359
iso,0.013755
judaism,0.003524
judici,0.002828
km,0.005546
lake,0.002905
land,0.001864
languag,0.001851
law,0.002968
legisl,0.002255
lgbt,0.004162
lie,0.002413
link,0.001071
list,0.002739
literatur,0.002201
local,0.001668
locat,0.001811
low,0.001887
lower,0.001820
m,0.003523
main,0.001559
mammal,0.003118
map,0.002253
matautu,0.013101
media,0.002259
member,0.001571
membership,0.002713
militari,0.007971
minist,0.002222
ministri,0.002648
mission,0.004912
mont,0.003693
mountain,0.002650
municip,0.006003
music,0.002707
nation,0.005459
natur,0.001315
navi,0.002948
nomin,0.002571
north,0.001955
number,0.001232
observ,0.001625
ocean,0.012674
oceania,0.007528
offici,0.007480
oil,0.002458
olymp,0.003719
order,0.001357
organ,0.001343
outlin,0.009590
oversea,0.011752
overview,0.002468
pacif,0.019985
park,0.002879
parliament,0.002484
parliamentari,0.002821
parti,0.001903
peopl,0.001358
pictur,0.002757
pif,0.005481
point,0.001428
polici,0.001822
polit,0.004638
polynesia,0.013341
popul,0.001752
postal,0.003792
presid,0.002042
prime,0.002269
pronunci,0.003745
protect,0.001882
provid,0.001253
provinc,0.005222
public,0.001422
puke,0.006550
rail,0.003555
rank,0.007154
record,0.001888
refer,0.001791
region,0.003208
relat,0.001207
religion,0.004563
renew,0.002619
repres,0.001469
reserv,0.002382
right,0.003215
river,0.002449
road,0.002602
samoa,0.004405
sanit,0.004036
secretariat,0.004192
senat,0.003073
sikhism,0.004147
sinc,0.001246
site,0.004200
south,0.009762
southern,0.002313
spc,0.004949
special,0.001559
split,0.002562
sport,0.002961
state,0.001090
stock,0.002405
suppli,0.002032
suprem,0.002553
suprieur,0.005283
symbol,0.002263
televis,0.002810
territori,0.006546
theatr,0.003522
time,0.001103
tini,0.003363
topic,0.003956
toplevel,0.004049
tourism,0.002900
trade,0.001803
transport,0.004274
tropic,0.003181
union,0.003705
univers,0.001291
upper,0.002517
upu,0.003799
utc,0.004246
uvea,0.011960
valley,0.002883
volcan,0.003576
volcano,0.003687
walli,0.642464
wallisian,0.012771
water,0.001923
waterfal,0.004208
websit,0.004715
wf,0.016299
wftu,0.004304
wikimedia,0.003475
wildlif,0.003552
wlf,0.006884
world,0.003792
xpf,0.006248
zone,0.002576
