ab,0.003596
abandon,0.002681
abdali,0.012937
abdic,0.004324
abduct,0.004429
abdul,0.057416
abdullah,0.013173
abdur,0.024233
abgn,0.007126
abl,0.009066
abolish,0.002999
abolit,0.003770
abrog,0.004735
absorb,0.002869
accept,0.007209
accommod,0.003333
accompani,0.002775
accord,0.017226
account,0.006763
accus,0.005757
achaemenid,0.014925
achiev,0.001805
acquir,0.002338
action,0.003527
activ,0.001432
actual,0.001837
ad,0.003664
addit,0.001452
address,0.002161
adjac,0.006571
administ,0.002814
administr,0.010035
admit,0.006054
adolph,0.004698
adopt,0.001981
advanc,0.007092
advantag,0.002228
advent,0.003139
advis,0.002901
affair,0.009494
afghan,0.378755
afghana,0.007126
afghanbas,0.007126
afghanistan,0.453020
afghansoviet,0.006974
afghaun,0.007126
afnistn,0.014252
afsharid,0.017911
age,0.014382
agenc,0.002258
agenda,0.006688
agent,0.002447
aghanistan,0.007126
ago,0.005563
agre,0.004328
agreement,0.006573
agricultur,0.004267
ahmad,0.070600
aid,0.002153
aim,0.002049
aimak,0.006845
akbar,0.010081
al,0.007387
alexand,0.022003
alexandria,0.007826
alexandriaadcaucasum,0.007126
alexandriaesch,0.007126
alexandriaofthearian,0.007126
alexandriaonthetarnak,0.007126
ali,0.010676
alien,0.003364
allegedli,0.003696
alli,0.002651
allianc,0.005369
allow,0.002855
alongsid,0.002985
alqaeda,0.019475
alreadi,0.006274
alzawahiri,0.006396
amanullah,0.044774
ambassador,0.007045
ambit,0.003744
ambival,0.004836
ambush,0.004572
american,0.003253
amid,0.003807
amin,0.043544
amir,0.014573
amnesti,0.004138
amritsar,0.006058
amrullah,0.006845
anahita,0.006468
analyst,0.006515
anandapala,0.006845
anatolia,0.004319
ancestor,0.018512
ancient,0.014559
andronovo,0.006396
anfa,0.006396
angel,0.003442
angloafghan,0.036636
anglosikh,0.006267
annot,0.003930
announc,0.002410
anoth,0.012426
ant,0.003895
antibritish,0.005720
antigonu,0.012937
antiqu,0.002970
anwari,0.007126
anyth,0.002837
apart,0.002630
apostl,0.004527
appar,0.009802
appeal,0.002673
appear,0.001662
appeas,0.004680
appoint,0.009439
approach,0.003304
approxim,0.001956
april,0.010980
arab,0.029166
arabia,0.021070
arachosia,0.018989
archaeolog,0.006147
archaeologist,0.003956
archeolog,0.004167
architect,0.003816
archiv,0.002642
ardent,0.004836
area,0.037070
argu,0.001909
aria,0.005480
arm,0.011444
armi,0.083953
arrest,0.009464
arriv,0.018487
arsacid,0.005660
art,0.002196
articl,0.001706
artifact,0.003401
artist,0.003012
aryan,0.005372
ascend,0.003761
ascens,0.004564
asharid,0.007126
ashoka,0.005174
ashraf,0.018040
asia,0.024648
asian,0.010939
ask,0.007119
assam,0.010704
assassin,0.027181
assembl,0.006723
assert,0.002466
assimil,0.007494
assist,0.021404
associ,0.001402
assum,0.001988
assur,0.003270
astronom,0.003232
atatrk,0.005854
atheism,0.004360
atroc,0.008661
attack,0.034718
attain,0.002905
attempt,0.006549
attend,0.002739
attent,0.002340
attitud,0.002947
attock,0.006845
attract,0.002309
august,0.004362
authent,0.003636
author,0.003232
autonom,0.002902
avagn,0.007126
avarici,0.006329
avrakoto,0.007126
away,0.002186
ayman,0.006267
aziz,0.010224
baba,0.010254
babrak,0.019406
babur,0.040263
background,0.002465
bactra,0.007126
bactria,0.023138
bactriamargiana,0.012659
bactriana,0.007126
badakhshan,0.019406
badli,0.003902
baghlan,0.013948
balhika,0.007126
balkh,0.038697
baloch,0.006396
bamiyan,0.006845
bamyan,0.012659
ban,0.002892
banish,0.004588
banner,0.008422
banquet,0.005294
barack,0.004449
barakzai,0.007126
base,0.005003
basi,0.001788
basic,0.001741
basin,0.003411
battl,0.024400
battlefield,0.004051
bc,0.002560
bce,0.069884
beard,0.004628
becam,0.025315
becaus,0.003909
becom,0.004156
befor,0.013305
began,0.024198
begram,0.006974
begun,0.005504
belief,0.002317
believ,0.008951
belong,0.004891
belt,0.003773
benar,0.006156
bengali,0.005040
besid,0.002961
bet,0.008757
bhallika,0.013272
bhalluka,0.007126
bicamer,0.003899
bijan,0.006845
bilater,0.003292
billion,0.007376
bin,0.031926
blade,0.004354
blame,0.003438
blind,0.003542
blood,0.002818
bloodi,0.008127
blossom,0.004527
bmac,0.006468
bodhgaya,0.006636
bodi,0.003473
bolster,0.004186
bomb,0.006554
bomber,0.004342
bone,0.003246
book,0.001645
border,0.017849
bordjiabdullah,0.007126
bost,0.006734
boundari,0.002416
boundless,0.005332
branch,0.003681
breakthrough,0.003693
brief,0.002743
briefli,0.006421
brigad,0.004342
brihatsamhita,0.005818
bring,0.002151
britannica,0.003520
british,0.028990
bronz,0.006967
brother,0.011611
brotherinlaw,0.004938
brought,0.014936
brown,0.002937
brussel,0.004172
bud,0.004348
buddha,0.012178
buddhism,0.021149
buddhist,0.024371
buffer,0.004059
build,0.009158
built,0.004315
bukhara,0.005457
bulk,0.003068
burhanuddin,0.025875
buri,0.003422
burst,0.003899
bush,0.003570
busi,0.001951
byzantin,0.003561
c,0.004969
calendar,0.003549
caliph,0.003920
came,0.013268
cameron,0.004490
campaign,0.013012
capabl,0.002282
capit,0.030167
captur,0.009521
carbon,0.002825
carpent,0.004534
carri,0.009344
carter,0.004093
case,0.001449
cash,0.002897
casualti,0.007595
caubul,0.007126
caucasu,0.004231
caus,0.003094
cave,0.003485
ce,0.063531
ceasefir,0.004093
celebr,0.002987
centr,0.004767
central,0.026002
centralis,0.004527
centuri,0.043172
certain,0.001586
certainli,0.003309
chador,0.006734
challeng,0.002070
chandragupta,0.028162
changeov,0.005632
chao,0.003354
charg,0.004474
chariot,0.004774
charl,0.002220
charli,0.004689
charter,0.003118
chief,0.007242
child,0.002784
chilzina,0.007126
china,0.008909
chines,0.004984
choos,0.002493
chose,0.003261
chosen,0.002649
christian,0.002246
chronic,0.003563
church,0.002619
cia,0.003444
cite,0.002424
citi,0.054058
civil,0.021876
civilian,0.027125
civilis,0.007913
claim,0.003519
clan,0.003800
clash,0.003450
clear,0.002157
clinton,0.004006
cloak,0.005040
close,0.003102
closer,0.002868
coalit,0.002809
coast,0.002646
coeduc,0.006734
coinag,0.008223
collaps,0.002554
collin,0.004093
collis,0.003561
coloni,0.004794
come,0.001658
command,0.017027
commemor,0.003881
comment,0.008331
commerc,0.002889
commit,0.007290
committe,0.002487
common,0.001402
commonli,0.001925
commun,0.003032
communist,0.005719
complet,0.004804
complex,0.003393
compos,0.002199
compris,0.004744
compromis,0.003333
compulsori,0.003667
concern,0.004883
conclud,0.004742
condit,0.003244
confeder,0.010382
confer,0.004564
confid,0.002966
confin,0.003113
confirm,0.002499
conflict,0.006478
congress,0.002598
connect,0.003818
conquer,0.028255
conquest,0.009372
consensu,0.005784
consequ,0.001971
consid,0.004056
consolid,0.018267
conspicu,0.004541
constitut,0.009154
contact,0.002433
contain,0.001663
contemporari,0.002268
context,0.002039
continu,0.014049
contractor,0.004252
contrast,0.001958
contribut,0.001701
control,0.026189
converg,0.003054
convert,0.002363
convinc,0.003086
copperpl,0.005784
coron,0.004360
corp,0.003420
corrupt,0.011387
cost,0.004077
council,0.012685
counter,0.003135
countri,0.038148
countrymen,0.005372
coup,0.012631
court,0.006598
cousin,0.011440
cover,0.007636
cow,0.003998
crave,0.005174
creat,0.011346
creation,0.002110
crime,0.008630
crisi,0.004785
cross,0.005061
crude,0.003641
cruis,0.004107
crush,0.007094
culmin,0.003072
cultur,0.020921
cut,0.002461
da,0.003086
daili,0.002711
damghan,0.007126
danger,0.002723
daoud,0.036080
dariu,0.010316
darra,0.007126
date,0.005813
daud,0.012212
david,0.002059
dawran,0.007126
day,0.010498
deal,0.001867
death,0.016246
decad,0.004215
decapit,0.005504
deccan,0.005784
decemb,0.006383
decid,0.002259
declar,0.011198
declin,0.017612
deep,0.002581
default,0.003538
defeat,0.068587
defenc,0.005645
defend,0.002594
defens,0.007635
defi,0.004384
defil,0.005504
degre,0.005696
deiti,0.003710
delhi,0.012007
demetriu,0.016736
democraci,0.010331
democrat,0.022720
depart,0.004066
depend,0.004589
deploy,0.003138
deport,0.003990
deptswashingtonedu,0.007126
deputi,0.003105
der,0.003034
descend,0.022452
descent,0.003326
describ,0.005708
descript,0.002119
desert,0.003297
despatch,0.005632
desper,0.004098
despit,0.001966
despoli,0.006267
destroy,0.009699
destruct,0.008233
deterior,0.003414
devapala,0.013272
develop,0.004638
dharmapala,0.011782
dialogu,0.003237
dictatorship,0.003747
did,0.008606
die,0.008887
differ,0.007375
difficult,0.004044
digit,0.002589
diodotu,0.006734
diplomat,0.013774
direct,0.009238
directli,0.001863
disast,0.003203
disband,0.004030
discipl,0.003875
discuss,0.003784
disgrac,0.005206
disillusion,0.005480
disintegr,0.007583
dismiss,0.003089
dispatch,0.003971
displac,0.002975
disput,0.004664
distanc,0.002469
distant,0.003223
divers,0.002230
divid,0.009193
divis,0.002009
doctrin,0.002780
document,0.006716
documentari,0.003563
doiacprofoso,0.006329
dominantli,0.005854
dont,0.006480
dooraune,0.007126
dost,0.006734
dostom,0.007126
dostum,0.047141
dr,0.005753
dra,0.013468
draft,0.002992
dravida,0.006396
drill,0.003842
driven,0.008098
drought,0.003785
dub,0.003729
dubai,0.004988
dupre,0.013468
durand,0.005632
dure,0.030700
durrani,0.072160
durri,0.007126
dynasti,0.069348
e,0.009394
earli,0.029322
earlier,0.002062
earliest,0.004666
easi,0.002835
east,0.019317
eastern,0.032439
easternmost,0.005372
eastward,0.004274
echelon,0.005392
econom,0.006111
economi,0.003813
ed,0.001954
edg,0.003045
edict,0.004268
edit,0.006554
editori,0.003979
educ,0.008892
effect,0.004068
effort,0.009666
eid,0.005413
eighth,0.003895
elder,0.003430
elect,0.014413
element,0.001775
elementari,0.003149
elena,0.005480
eleph,0.011585
elibroncom,0.007126
elimin,0.002414
elit,0.003099
elliot,0.004879
elphinston,0.006734
els,0.002874
emerg,0.001789
emir,0.011937
emperor,0.015394
empir,0.087658
empirebuild,0.006210
employ,0.001851
encompass,0.005226
encount,0.002749
encourag,0.006883
encyclopdia,0.003621
end,0.006105
endgam,0.005632
endur,0.003407
enemi,0.003120
engag,0.002210
english,0.001944
enlighten,0.006096
ensu,0.003413
enter,0.004081
entir,0.003621
environ,0.001850
envoy,0.004148
ephthalit,0.006636
epigraphi,0.006058
eponym,0.004519
equal,0.001901
equip,0.002495
era,0.006617
ernst,0.003384
escal,0.007232
escap,0.002802
escort,0.004716
especi,0.009726
essay,0.002705
establish,0.025327
estim,0.007858
ethnic,0.008264
eucratid,0.006974
eurasian,0.008559
europ,0.001892
european,0.003477
event,0.001816
eventu,0.011905
everi,0.001746
everywher,0.007252
evid,0.009518
exampl,0.002500
excav,0.003752
exchang,0.001973
execut,0.010573
exercis,0.002398
exil,0.003188
exist,0.004164
expand,0.009874
expect,0.005754
expedit,0.003157
experi,0.003433
expert,0.002757
explain,0.003758
explor,0.008508
exploratori,0.004242
expuls,0.004093
extend,0.005524
extens,0.001885
extent,0.004594
extermin,0.009145
extern,0.001091
extrem,0.004005
extremist,0.009415
eye,0.005581
eyewit,0.004914
face,0.010476
faction,0.026378
fail,0.008395
fall,0.011433
fallen,0.003391
famili,0.009665
famou,0.004612
fanat,0.005240
far,0.011357
farflung,0.005929
farm,0.002785
farmer,0.002954
faryab,0.006636
father,0.002454
fatherinlaw,0.005457
favor,0.002305
favour,0.002745
fear,0.002619
februari,0.004536
feder,0.002222
feel,0.005219
feet,0.003409
fell,0.013481
ferghana,0.006106
ferishta,0.006845
feroc,0.005660
fertil,0.002926
feud,0.004707
fewer,0.002960
field,0.004573
fight,0.023575
fighter,0.007583
figur,0.002067
fim,0.006267
final,0.001805
financi,0.001992
firsthand,0.004825
fit,0.002541
fled,0.010136
flew,0.004342
flight,0.003058
flock,0.004612
flourish,0.003072
focus,0.001943
follow,0.007164
foot,0.003243
foray,0.005276
forbid,0.004014
forc,0.073316
foreign,0.019432
forese,0.004366
forgiv,0.004564
form,0.006846
formal,0.001867
format,0.002036
fort,0.003680
forth,0.003034
forward,0.002649
fought,0.012665
foundat,0.001946
founder,0.002616
fragment,0.002936
framework,0.002138
free,0.003410
freedom,0.004713
frequent,0.002098
fresh,0.006706
frontier,0.009871
fuell,0.004726
fulli,0.004501
fullscal,0.004348
fund,0.002058
fundament,0.001911
fusion,0.003479
futil,0.004549
futur,0.009090
fy,0.004580
ga,0.002511
gah,0.006058
gain,0.001816
game,0.002561
gandhara,0.045520
garden,0.003338
gate,0.007227
gateway,0.004290
gather,0.005204
gaugamela,0.013272
gautamiputra,0.006734
gave,0.006516
gear,0.003788
gener,0.013944
genghi,0.010109
genocid,0.004038
gentl,0.004588
geograph,0.004855
geographi,0.002747
georg,0.008605
georgian,0.009208
georgiancircassian,0.007126
german,0.002108
ghafoorzai,0.007126
ghaznavid,0.067930
ghazni,0.063630
ghaznvid,0.006845
ghilzai,0.013948
ghor,0.006636
ghorid,0.007126
ghr,0.006267
ghulam,0.005605
ghurid,0.013096
given,0.001497
global,0.001982
glori,0.008402
goal,0.002053
golbuddin,0.007126
gondophar,0.020537
gondopharid,0.013691
gone,0.003312
govern,0.053943
governor,0.008220
gradual,0.002399
grand,0.002899
grandson,0.016726
great,0.021871
greater,0.003760
grecobactria,0.007126
grecobactrian,0.024424
green,0.002567
gregg,0.005413
grew,0.002494
ground,0.002172
group,0.013465
grow,0.001914
growth,0.001889
guardian,0.003688
guid,0.004221
gul,0.005854
gulbuddin,0.041845
gulf,0.003376
gulnabad,0.006974
gupta,0.009528
gurgn,0.028504
gurjara,0.006636
gust,0.006468
gwalior,0.006210
ha,0.008958
habibi,0.005929
habibullah,0.018469
habit,0.006329
hafizullah,0.025875
hai,0.005435
haider,0.006058
haji,0.005313
half,0.010274
halfheart,0.005970
halt,0.003401
hamid,0.025713
hamidi,0.007126
hand,0.007398
handl,0.002714
happen,0.002359
happi,0.003300
haq,0.005313
haqqani,0.041074
harakati,0.006845
harappan,0.005504
hard,0.002450
harmandir,0.006396
harsh,0.007103
hashim,0.005929
hastili,0.005127
hatch,0.004596
hazara,0.020537
head,0.011562
headquart,0.003307
health,0.004162
healthi,0.003259
hear,0.003147
heavi,0.002580
hedg,0.003727
height,0.002976
hekmatyar,0.053875
held,0.012354
heleen,0.007126
heliocl,0.006845
hellen,0.004296
help,0.009805
henri,0.004812
hephthalit,0.006013
herat,0.092030
herdsmen,0.006013
heritag,0.003053
hermaeu,0.007126
herzfeld,0.006548
hezb,0.013691
hezbi,0.033672
hezbiislami,0.006845
hg,0.004604
hi,0.113770
highest,0.002285
highli,0.001965
hijack,0.004814
hikmat,0.006267
hill,0.008908
hillari,0.005413
hindoo,0.006210
hindu,0.069217
hinduism,0.007178
hindukush,0.006734
hindustan,0.005818
histor,0.001676
histori,0.017407
historian,0.005030
hiuen,0.006548
hiven,0.007126
hold,0.010788
holder,0.003393
holiest,0.005720
home,0.010658
hometown,0.005392
hopeless,0.005014
horsemen,0.005206
hospit,0.002943
host,0.002729
hostag,0.004429
hotak,0.019645
hotaki,0.076757
hous,0.006007
howev,0.012115
huan,0.006013
human,0.015820
humanitarian,0.003755
humbl,0.004754
hun,0.024022
huna,0.006106
hund,0.005632
hundr,0.002268
hunnish,0.006548
hurst,0.005480
husang,0.014252
husayn,0.005457
hussain,0.026472
ibn,0.003249
ibrahim,0.004378
icrc,0.006329
ident,0.002137
ideolog,0.005639
ii,0.003907
iii,0.002854
ill,0.002898
imag,0.002298
imbal,0.003871
impel,0.005457
imperi,0.002908
imping,0.005083
implement,0.004156
import,0.005092
impos,0.002567
imprison,0.014198
inaugur,0.003448
includ,0.022797
incorpor,0.002049
increasingli,0.002200
indemn,0.005027
independ,0.009199
india,0.054851
indian,0.029653
indic,0.003672
indigen,0.002976
indirectli,0.003216
individu,0.001539
indoafghan,0.006974
indoaryan,0.016815
indoeuropean,0.009160
indogreek,0.023007
indoiranian,0.011440
indoparthian,0.020203
indoscythian,0.012420
indu,0.047261
influenc,0.016442
influenti,0.002400
infrastructur,0.005054
inhabit,0.007785
initi,0.009731
innoc,0.003945
innumer,0.004794
inscript,0.004030
insid,0.015022
insist,0.003045
inspir,0.002469
instabl,0.006455
instanc,0.002021
instead,0.001748
institut,0.001579
instrument,0.002298
insurg,0.019325
insurrect,0.004378
intang,0.004384
intellig,0.002329
intelligentsia,0.005276
intend,0.006932
intensif,0.005014
intensifi,0.003659
interfer,0.003047
interim,0.021493
intermarriag,0.009759
intern,0.007848
internecin,0.005480
interpret,0.001991
interven,0.003207
interview,0.003086
introduc,0.010506
introduct,0.001978
invad,0.011942
invas,0.027220
invest,0.002125
invinc,0.005352
invit,0.006152
involv,0.002894
iran,0.030476
iranian,0.030117
iranianback,0.006845
iranianspeak,0.006845
iron,0.005347
isaf,0.011157
isbn,0.005294
isfahan,0.021105
isi,0.022148
islam,0.039759
islamabad,0.005040
islami,0.046548
islamist,0.004476
isol,0.004847
israel,0.003057
israelit,0.004914
issu,0.003203
itali,0.002686
ittehadi,0.007126
ittihadi,0.006734
ivc,0.012026
j,0.001874
jahadi,0.007126
jaipal,0.020537
jalalabad,0.012313
jamiat,0.013272
jamrud,0.006734
jan,0.003280
januari,0.008521
jawzjan,0.007126
jayapala,0.034228
jeipal,0.006845
jeopard,0.005206
jirga,0.032742
jiroft,0.006734
job,0.002577
john,0.005093
join,0.013322
journey,0.006938
judici,0.002865
juli,0.002156
junbish,0.014252
junbishi,0.007126
june,0.004349
just,0.005221
justic,0.005045
kabul,0.232155
kabulistan,0.007126
kadphis,0.006845
kai,0.004988
kaibar,0.007126
kakar,0.006845
kalakani,0.014252
kamar,0.006734
kandahar,0.124528
kanishka,0.019406
kapisa,0.013691
kara,0.005352
karmal,0.019406
karzai,0.079378
kashmir,0.018830
keen,0.004111
key,0.003799
khad,0.006845
khalaj,0.007126
khalid,0.005142
khalq,0.012659
khan,0.089363
khanat,0.004926
kharoti,0.007126
khilji,0.006013
khn,0.026544
khorasan,0.028602
khusraw,0.006636
khwarezmid,0.006396
khyber,0.011859
kick,0.004645
kidarit,0.014252
kidnap,0.004237
kidnapp,0.006210
kill,0.032035
king,0.047551
kingdom,0.035740
knife,0.004825
knive,0.005174
know,0.002261
knowledg,0.001877
known,0.022450
kohistan,0.007126
kojend,0.007126
krogh,0.004857
kujula,0.006845
kunar,0.006845
kunduz,0.013691
kur,0.006210
kush,0.037749
kushan,0.059552
kuzmina,0.007126
lack,0.001903
laden,0.038354
laghman,0.007126
lahor,0.005206
land,0.011333
languag,0.011255
larg,0.015783
larger,0.001969
largest,0.002061
lashkar,0.007126
late,0.006911
later,0.020779
launch,0.012567
law,0.001503
lawless,0.010481
lay,0.005616
layth,0.007126
lead,0.004467
leader,0.030552
leadership,0.021662
leagu,0.003062
learn,0.002096
leav,0.008453
lectur,0.002713
led,0.019328
left,0.007957
legaci,0.006276
legal,0.002059
legend,0.003516
legendari,0.004152
legislatur,0.003053
legitim,0.003099
leon,0.003713
level,0.002984
leverag,0.003851
levi,0.003507
liber,0.004500
librari,0.004689
life,0.003208
light,0.004115
like,0.010664
limit,0.003048
line,0.005358
link,0.004340
list,0.004163
littl,0.001910
live,0.009681
local,0.010141
locat,0.007339
locust,0.005660
lodi,0.013468
logist,0.003601
london,0.006304
long,0.004861
longdist,0.004378
longman,0.004242
look,0.004121
loom,0.004534
loos,0.006205
lord,0.002953
lost,0.004337
lot,0.003073
loui,0.002816
loya,0.026544
lumbago,0.007126
lumghan,0.006845
macedonian,0.013937
mad,0.004067
madrassa,0.006267
madrassah,0.006636
mahmud,0.076031
main,0.006319
mainli,0.004143
major,0.022507
make,0.007614
malabar,0.005457
male,0.002799
malfeas,0.005970
malwa,0.006329
man,0.002207
manag,0.001787
mani,0.022558
manifest,0.002870
maratha,0.005553
march,0.012416
maritim,0.003212
mark,0.002003
marriag,0.003154
marshal,0.003307
marxist,0.003388
marxistleninist,0.018449
mass,0.004093
massacr,0.014554
massiv,0.002655
masskil,0.007126
massoud,0.150430
mastermind,0.010871
mathura,0.005891
matur,0.002903
maurya,0.019851
mauryan,0.010785
maxim,0.002838
mazar,0.006734
mazari,0.028504
mazarisharif,0.019645
mcgrawhil,0.003606
mean,0.002748
meantim,0.004463
meanwhil,0.006035
mede,0.005690
median,0.011656
mediat,0.003057
mediterranean,0.003264
meet,0.006057
member,0.011145
men,0.009256
menand,0.010871
mention,0.002415
merchant,0.002963
merciless,0.005929
met,0.005103
method,0.001545
michael,0.002296
middl,0.010287
mier,0.006734
migrat,0.010665
mihira,0.007126
mihirakula,0.013272
milit,0.011697
militari,0.032300
militarili,0.008570
militia,0.007723
milli,0.005929
million,0.005880
miner,0.002762
minist,0.022515
ministri,0.005366
mir,0.004857
mirwai,0.053875
mislead,0.003773
missil,0.007777
mission,0.002488
model,0.001554
modern,0.014968
modernday,0.014207
modernis,0.004302
moham,0.024356
mohammad,0.031637
mojaddedi,0.007126
moment,0.002839
monarch,0.003295
monarchi,0.009596
monasteri,0.003791
monetari,0.002675
mongol,0.015680
month,0.006614
mosqu,0.004226
mostli,0.004258
mount,0.002909
mountain,0.016108
mountstuart,0.007126
movement,0.003441
mughal,0.031741
muhammad,0.010753
muhammadan,0.006396
mujadadi,0.014252
mujahiddin,0.020537
mujahideen,0.016897
mullah,0.017911
multan,0.006210
mundigak,0.013948
munter,0.007126
murder,0.009507
murray,0.003608
murri,0.006156
museum,0.003009
musharraf,0.006058
muslim,0.016744
myth,0.003186
nader,0.021178
nadir,0.031341
najibullah,0.012792
najibullahregim,0.007126
nanci,0.004226
nanda,0.005240
narasimhagupta,0.006845
narrat,0.004148
nasher,0.021378
nation,0.022124
nationalist,0.003235
nationwid,0.003791
nativ,0.012896
nato,0.022641
natur,0.003996
nazar,0.006267
nd,0.004643
neanderth,0.004735
near,0.016414
nearbi,0.003071
nearli,0.002173
need,0.003000
negoti,0.005224
neighbor,0.008445
nephew,0.004176
network,0.010431
neutral,0.005462
new,0.022293
newli,0.002625
nicat,0.006210
nile,0.004038
ninth,0.003906
nobl,0.003245
nomad,0.015420
non,0.003596
nonetheless,0.003121
nonmuslim,0.004463
nonviol,0.004302
norchi,0.007126
north,0.017832
northeast,0.003554
northeastern,0.003855
northern,0.027994
northwest,0.017065
northwestern,0.003788
notabl,0.001914
note,0.001438
noth,0.002640
novemb,0.008952
nowaday,0.007553
number,0.012483
numer,0.001848
nur,0.010626
nuristan,0.006845
obama,0.004172
obey,0.003561
object,0.003411
oblig,0.005511
obtain,0.001939
occup,0.005200
occupi,0.002501
occur,0.001585
ocean,0.005135
octob,0.012947
offens,0.013909
offer,0.003711
offic,0.010043
offici,0.011367
oilrich,0.005504
old,0.008259
omar,0.012634
omrani,0.007126
onc,0.014917
onethird,0.003791
ongo,0.002730
onli,0.016081
onlin,0.004368
open,0.003416
oper,0.006297
opinion,0.002652
opportun,0.007071
oppos,0.002085
opposit,0.006159
orbit,0.003164
ordain,0.004557
order,0.006875
organ,0.004083
origin,0.005531
orm,0.006106
osama,0.021831
ostens,0.004042
ottoman,0.007058
outcom,0.002551
outsid,0.005711
overran,0.005054
overthrew,0.008422
overwhelm,0.003345
oxford,0.002344
oxu,0.017673
padshah,0.007126
page,0.002446
pain,0.003160
pakistan,0.136442
pakistani,0.058948
pakistaniafghan,0.007126
pakistaniback,0.006845
pakistanibas,0.007126
pala,0.017789
palac,0.007136
paleolith,0.004129
panetta,0.006845
panipat,0.006156
parcham,0.020203
parent,0.002810
parliament,0.002516
parthia,0.005435
parti,0.011570
particip,0.003937
particular,0.003123
particularli,0.003500
partnership,0.003140
parwan,0.006845
pashto,0.012313
pashtun,0.065676
pashtunwali,0.007126
pass,0.005815
past,0.005938
pataliputra,0.006013
patron,0.003819
pay,0.002329
payment,0.002689
pdpa,0.103503
peac,0.031286
peacemak,0.005223
peak,0.002738
pearl,0.003851
peopl,0.031644
percent,0.002506
percept,0.002656
perhap,0.002319
period,0.020758
peripheri,0.004186
perman,0.002418
permit,0.002541
persecut,0.003596
persia,0.048306
persian,0.062705
person,0.003265
perspect,0.002233
pervez,0.006013
peshaw,0.014252
peshawar,0.040492
peter,0.004550
petraeu,0.006845
phr,0.013272
physic,0.001632
physician,0.003147
piec,0.002755
pilgrim,0.004442
pir,0.005578
pla,0.005190
place,0.008467
plan,0.009449
plane,0.003005
play,0.005405
plung,0.004268
point,0.002895
polic,0.008326
polici,0.012926
polit,0.021926
politicoreligi,0.006845
poor,0.002467
poorest,0.004216
popul,0.010652
popular,0.003570
porou,0.004735
portion,0.002507
posit,0.005915
possess,0.006727
possibl,0.008757
post,0.007265
power,0.035145
powershar,0.005223
pragjyotisha,0.007126
pratihara,0.006548
predecessor,0.003120
predomin,0.003264
predominantli,0.003176
prehistor,0.003458
prehistori,0.007188
preislam,0.004857
preliminari,0.003816
prelud,0.004814
prepar,0.009283
presenc,0.002163
present,0.010015
presentday,0.019283
presid,0.033110
presidenti,0.002926
presidentship,0.007126
press,0.003368
pressur,0.004308
previous,0.002181
price,0.002118
pride,0.003938
primari,0.001888
prime,0.018392
princ,0.015440
princip,0.002235
principl,0.003435
print,0.002687
prison,0.006074
privileg,0.003265
probabl,0.008213
problem,0.001530
proceed,0.002618
process,0.009469
produc,0.002977
professor,0.007672
program,0.003600
progress,0.007801
prohibit,0.005839
project,0.001770
promin,0.008975
promis,0.005377
promot,0.002041
promulg,0.007297
proper,0.002567
proport,0.002365
prospect,0.009122
protect,0.001907
protoindoaryan,0.007126
provid,0.007617
provinc,0.044970
provinci,0.006921
proxi,0.012031
public,0.002882
publish,0.001588
pulecharkhi,0.007126
punish,0.006295
punjab,0.015042
punjabi,0.005528
purpos,0.001861
push,0.002721
qadir,0.005891
qaeda,0.016982
qai,0.006058
qandahar,0.007126
qandahr,0.014252
qarakhanid,0.006396
qari,0.006734
qizilbash,0.006210
quell,0.004436
quetta,0.013272
quickli,0.002329
quot,0.002993
rabani,0.021378
rabbani,0.024424
radio,0.002929
rahim,0.012792
rahman,0.014540
rais,0.004221
ranjit,0.005929
rank,0.002415
rape,0.004247
rapproch,0.005276
rare,0.004709
rashid,0.025713
rashidun,0.005206
rasul,0.012313
ratbelshahan,0.006845
ratebzad,0.014252
rawalpindi,0.006013
rd,0.007687
reach,0.012910
read,0.001576
reagan,0.004296
real,0.001883
realist,0.003118
realiti,0.002468
realiz,0.002537
rear,0.004059
rebel,0.003297
rebelli,0.004637
rebellion,0.009720
rebuild,0.003819
rebuilt,0.004366
receiv,0.003467
recent,0.001571
recogn,0.005837
recognit,0.002487
reconcili,0.015191
record,0.009564
recov,0.002793
recruit,0.006691
red,0.005030
redress,0.004938
reduc,0.003438
ree,0.005000
refer,0.004537
refin,0.002846
reflect,0.001950
reform,0.022199
refug,0.003871
refuge,0.023783
refus,0.010593
regain,0.006971
regard,0.003482
regener,0.004038
regim,0.010578
region,0.040628
regroup,0.004784
regular,0.014917
reign,0.025104
reintegr,0.004804
reisman,0.006156
reject,0.002237
rel,0.001627
relat,0.002447
relationship,0.001732
religi,0.016227
religion,0.009245
relinquish,0.004167
remain,0.013508
remaind,0.003367
rememb,0.003331
remnant,0.003628
remov,0.002095
renam,0.003150
repatri,0.004416
repeatedli,0.003229
replac,0.005548
report,0.017442
reportedli,0.003603
repres,0.004466
repress,0.006845
republ,0.008519
resent,0.003913
resettl,0.008638
resid,0.002404
residenti,0.003906
resign,0.003101
resist,0.007055
respect,0.001725
respons,0.007870
rest,0.002126
result,0.006320
retain,0.004773
retak,0.004716
retir,0.003088
retreat,0.003505
retriev,0.002696
return,0.005510
reveal,0.002387
reveng,0.004423
revers,0.002498
revert,0.003971
reviv,0.002884
revolt,0.013216
revolut,0.006744
revolutionari,0.005776
right,0.027685
rise,0.007304
rival,0.002998
rivalri,0.003738
river,0.009924
road,0.007908
robin,0.003906
rock,0.002842
rocket,0.011565
role,0.004769
rome,0.003098
rose,0.002753
roughli,0.005091
round,0.002874
roundabout,0.005891
rout,0.005464
rowlinson,0.006845
royal,0.002394
rudkh,0.007126
rule,0.049698
ruler,0.033353
rural,0.002934
russia,0.002667
russian,0.015941
rustam,0.006845
ruthless,0.004764
s,0.002574
safavid,0.050547
saffari,0.007126
saffarid,0.018803
sahib,0.005276
said,0.014917
saikal,0.021378
sail,0.003432
saint,0.003034
saivit,0.006548
saka,0.017353
saketa,0.006845
saleh,0.005413
samangan,0.006845
samanid,0.005854
samarkland,0.007126
sancisiweerdenburg,0.007126
sandrocottu,0.013948
sardar,0.017255
sarnath,0.006013
sarowar,0.007126
sasanian,0.010915
sassanid,0.013886
satakarni,0.006548
satavahana,0.006106
satrap,0.011440
satrapi,0.011008
sattagydia,0.006974
saudi,0.022196
saul,0.004378
saur,0.006267
saw,0.004441
say,0.007864
sayyaf,0.012535
scale,0.002054
scholar,0.006914
school,0.007385
scythian,0.010285
seat,0.005371
sebuk,0.006845
sebuktigin,0.006734
seced,0.004620
second,0.005957
secret,0.005600
secretari,0.005929
section,0.002248
secular,0.009422
secur,0.015425
seen,0.003561
seistan,0.013948
seiz,0.009360
select,0.003946
seleucid,0.014814
seleucu,0.022421
seljuk,0.005294
sena,0.005660
send,0.002838
senior,0.012031
sent,0.012577
separ,0.001658
septemb,0.017508
serv,0.005419
servic,0.003536
set,0.004217
settl,0.005158
settlement,0.005296
sever,0.022384
shadow,0.003536
shah,0.168057
shahan,0.006845
shahi,0.072160
shahiya,0.013691
shapur,0.011859
sharif,0.015002
shatter,0.004572
sheep,0.003656
sheikh,0.004564
shell,0.009163
shia,0.012856
shift,0.002199
shir,0.006267
shone,0.005818
short,0.007740
shortli,0.005649
shortliv,0.007131
shortugai,0.007126
shortughai,0.007126
shrine,0.008940
shuburghan,0.007126
shuja,0.006974
shura,0.005784
shurai,0.014252
sialk,0.006734
siberia,0.004330
sibghatullah,0.006734
sieg,0.003761
sign,0.006238
signific,0.001612
significantli,0.002329
sikh,0.023677
silk,0.007541
similar,0.001508
sinc,0.006314
sindh,0.005352
singh,0.008967
sirajuddin,0.007126
sit,0.003338
site,0.010637
siwalik,0.006548
skill,0.002433
skin,0.003203
skirmish,0.004572
slain,0.005392
slaughter,0.004191
slightli,0.002737
slit,0.005083
small,0.006182
smaller,0.002147
smith,0.002675
socal,0.002548
social,0.001606
socialist,0.002825
societi,0.004747
soil,0.002861
sojourn,0.005528
solar,0.003012
soldier,0.031612
solomon,0.003878
someth,0.002428
sometim,0.001644
son,0.031438
soon,0.009264
sort,0.002649
sought,0.007381
sourc,0.004766
south,0.011867
southeastern,0.003923
southern,0.023441
southward,0.004226
southwest,0.003545
sovereignti,0.009137
soviet,0.057449
sovietback,0.006058
spark,0.003342
speak,0.004843
special,0.004738
specif,0.001511
spent,0.002791
spi,0.008581
spiegel,0.005413
spike,0.004372
spite,0.003638
split,0.007787
splitoff,0.006058
spoken,0.003397
spread,0.004465
spring,0.002848
squadron,0.004279
st,0.006108
stabil,0.002355
staff,0.002977
stage,0.002205
stand,0.002373
standard,0.001701
start,0.014388
state,0.033153
statement,0.002318
steadili,0.003331
step,0.002141
stepp,0.008769
stinger,0.006329
stone,0.002820
stop,0.004990
strateg,0.005513
strategi,0.002352
strengthen,0.002856
stretch,0.012735
strife,0.004162
strong,0.003670
strongli,0.002434
struck,0.003591
structur,0.002951
struggl,0.013238
student,0.004299
studi,0.002669
subah,0.026937
subcontin,0.027245
subdu,0.004080
subghatullah,0.014252
subject,0.006426
subjug,0.004302
submit,0.003163
subooktugeen,0.013691
subordin,0.003485
subsequ,0.003942
succeed,0.012910
success,0.011724
successor,0.008511
suffer,0.002305
suggest,0.003536
suicid,0.010863
sulaiman,0.012212
sultan,0.011215
summarili,0.005332
sunni,0.003986
superior,0.002811
suppli,0.004118
support,0.028532
suppos,0.002775
suppress,0.002892
suprem,0.002586
surfac,0.002286
surfacetoair,0.006058
surrend,0.003479
surround,0.002312
surviv,0.004356
suspect,0.003375
sustain,0.002470
suzerainti,0.004764
switch,0.003101
systemat,0.004826
tackl,0.003888
taha,0.006013
taimur,0.026544
tajik,0.016815
taken,0.001849
takhar,0.014252
taliban,0.319333
talibanl,0.006974
talk,0.024460
tame,0.004612
tamerlan,0.005553
tangibl,0.004080
tappeh,0.007126
taraki,0.031339
target,0.011758
tarim,0.005891
tartari,0.006636
tarzi,0.006734
taxila,0.012026
team,0.002637
teenag,0.004519
tempor,0.003328
tend,0.002074
tent,0.003875
tenuou,0.004814
term,0.005967
termin,0.002959
territori,0.022107
terror,0.006724
th,0.023172
thank,0.003473
themselv,0.007493
therapi,0.003216
thereand,0.007126
therefor,0.003433
thi,0.021728
thing,0.002009
think,0.006571
thoma,0.002259
thought,0.005370
thousand,0.011136
throat,0.004541
throne,0.010690
throw,0.003878
thu,0.004429
tie,0.002463
tigin,0.006734
time,0.022350
timelin,0.005945
timur,0.025487
timurid,0.032746
timurk,0.007126
titl,0.006801
today,0.009072
togeth,0.003483
told,0.009609
tomb,0.004022
took,0.027623
toplevel,0.004102
toppl,0.004505
toramana,0.013691
tortur,0.007601
total,0.001762
touch,0.003333
tour,0.003643
town,0.005187
trace,0.002421
trade,0.010962
tradit,0.009542
train,0.010905
transfer,0.002161
transit,0.002198
translationweilu,0.007126
transnat,0.004476
transport,0.002165
trapusa,0.007126
treati,0.005275
treatment,0.002323
trend,0.002412
tri,0.007952
tribal,0.021135
tribe,0.037311
trigger,0.003072
trkh,0.014252
troop,0.031359
troubl,0.006632
tsang,0.011941
tsiang,0.012026
turkey,0.003293
turkic,0.018417
turkicspeak,0.006468
turkmen,0.005690
turmoil,0.003938
turn,0.005238
twelv,0.003331
tyranni,0.004449
udabhandapura,0.006845
ulemaeislamrun,0.007126
ultim,0.004369
unaccept,0.004116
unarm,0.004962
uncl,0.008077
uncompromis,0.011503
underscor,0.004671
understand,0.001714
unifi,0.007931
union,0.018768
unit,0.030574
uniti,0.002776
univers,0.005232
unless,0.002830
unoffici,0.003875
unpopular,0.008028
unrest,0.010508
unstabl,0.003369
unsuccess,0.009744
upper,0.002550
upris,0.003507
urban,0.010596
use,0.005160
usher,0.003868
usl,0.009976
ussr,0.010946
usual,0.003039
usuri,0.004857
usurp,0.004483
utkala,0.013691
uzbek,0.016306
uzbekistan,0.009068
uzbekisten,0.007126
vaishnav,0.005457
valley,0.040892
vanish,0.003704
varanasi,0.006106
varha,0.007126
variou,0.004313
vast,0.012681
vasudeva,0.006329
vedic,0.008638
veil,0.004628
veri,0.015866
version,0.002209
vest,0.003312
vicepresid,0.004080
vicin,0.004076
victim,0.006787
victori,0.002925
video,0.002779
vietnam,0.003422
vietnames,0.004226
view,0.003237
villag,0.002886
vincent,0.004002
violent,0.012475
virtual,0.002497
vision,0.002735
visit,0.005075
volum,0.002163
vote,0.002395
w,0.004238
wa,0.124271
wahdat,0.025318
wahhabit,0.007126
wake,0.003369
wali,0.005276
wane,0.004120
want,0.002331
war,0.039472
wardak,0.007126
wari,0.004654
warn,0.003037
wartorn,0.005480
warweari,0.006267
washington,0.002780
watch,0.019320
water,0.001948
way,0.006752
weak,0.002508
weaken,0.003163
weaker,0.003596
wealthi,0.003295
weapon,0.002804
wear,0.003422
week,0.002654
weilu,0.006974
welcom,0.003485
welltrain,0.005027
went,0.004633
west,0.015180
western,0.013299
white,0.007193
wide,0.003253
wider,0.002875
widerang,0.004410
wild,0.003240
wilder,0.004285
wilson,0.003154
win,0.002840
wing,0.003438
withdraw,0.009107
withdrew,0.003549
wolf,0.003868
women,0.028845
wood,0.002914
work,0.004952
world,0.008963
worldwid,0.002562
wrath,0.004914
wrest,0.004914
write,0.005924
written,0.001999
wrong,0.002970
wrote,0.006455
xi,0.007784
yaqub,0.005891
yar,0.005891
yasodharman,0.006845
year,0.021669
yearold,0.007360
young,0.004690
younger,0.003138
yu,0.004580
yuezhi,0.017911
yule,0.005854
zahir,0.050637
zaman,0.012313
zaranj,0.006734
zone,0.002610
zoroastrian,0.013328
