abl,0.002692
abroad,0.004628
abrog,0.007030
absenc,0.007836
abstent,0.007612
abus,0.004584
academ,0.003192
academi,0.004106
accept,0.002675
access,0.005898
accid,0.005138
accomplish,0.004283
accord,0.006393
account,0.007531
accus,0.012823
achiev,0.005362
action,0.002618
activ,0.004253
ad,0.002720
administr,0.038741
adopt,0.014706
advanc,0.007897
advisori,0.005240
afterward,0.004694
age,0.018684
agent,0.003634
agrarian,0.017336
agreement,0.009760
agricultur,0.012672
aid,0.003197
akkerman,0.009853
alb,0.009140
alexand,0.004083
alexandru,0.025765
alleg,0.004407
alli,0.003936
allianc,0.015944
alloc,0.004253
allot,0.006474
allow,0.008478
alon,0.010934
alphabet,0.010264
alreadi,0.015525
amend,0.008989
ammunit,0.006626
amnesti,0.006145
anastasiu,0.019706
andrei,0.006812
ani,0.011270
anim,0.002983
annex,0.038791
annual,0.006548
annul,0.007003
anoth,0.002050
anthem,0.018582
anticommunist,0.013696
antiqu,0.008821
antiromanian,0.010856
antoni,0.006322
anywher,0.010434
apostol,0.006788
appear,0.002468
appoint,0.017518
approv,0.007323
approxim,0.008714
april,0.042389
ara,0.008137
archbishop,0.066470
archbishopr,0.008864
area,0.027519
argu,0.002835
arienn,0.010580
arm,0.010195
armi,0.043993
arrest,0.009368
arriv,0.006862
art,0.003260
articl,0.002533
asia,0.003659
assert,0.003661
asset,0.003940
assimil,0.005563
associ,0.004164
assr,0.027197
attach,0.004035
attack,0.003436
attempt,0.014587
attribut,0.003313
august,0.019433
austrian,0.005105
author,0.031197
autonom,0.021549
autonomi,0.031176
autonomist,0.008244
avar,0.007976
avert,0.006949
award,0.003757
axi,0.004888
background,0.003660
backward,0.005301
bakhmetiev,0.010856
balta,0.019445
bank,0.003082
barrier,0.004336
basarabia,0.010354
basarabiei,0.010856
basi,0.005309
bastarna,0.010856
bayraki,0.010856
bc,0.011406
beat,0.005406
becam,0.046983
becaus,0.001934
becom,0.002057
bedeu,0.010856
befor,0.004389
began,0.007698
begin,0.012529
bender,0.007946
berlin,0.004577
bessarabia,0.384300
bessarabian,0.108383
better,0.002898
big,0.003891
billion,0.003650
bishop,0.005260
black,0.006936
blame,0.005105
bli,0.009306
block,0.007656
bmd,0.010580
bnulescubodoni,0.021713
bogdan,0.017080
boldur,0.010856
bolgrad,0.010856
bolohoveni,0.021713
book,0.004885
border,0.011357
bori,0.006430
botoneanu,0.010856
boyar,0.008928
boycot,0.006501
braghi,0.010856
breakaway,0.007314
brezhnev,0.025917
briceni,0.010856
brief,0.004073
briefli,0.004767
brilliant,0.006362
britain,0.003620
broadcast,0.004986
broke,0.004407
bronz,0.005172
brought,0.006336
bucharest,0.022838
budget,0.008045
budjak,0.062129
build,0.008158
built,0.003203
bukovina,0.062965
bulgaria,0.005825
bulgarian,0.032884
burn,0.004405
buy,0.004065
byzantin,0.005287
ca,0.028363
cahul,0.021713
came,0.002814
camp,0.004657
canton,0.006910
capabl,0.003389
capit,0.011197
capita,0.004671
capitolin,0.008864
carol,0.006379
carpathiandanubedniest,0.010856
case,0.004304
caus,0.002297
cede,0.005508
censorship,0.006275
censu,0.005047
central,0.002412
centuri,0.030944
centuryearli,0.010856
certain,0.002355
cetatea,0.010856
cfrna,0.010856
chairman,0.004868
chang,0.017465
chao,0.004981
chernivtsi,0.010856
chichyagov,0.010856
chiinu,0.120980
christian,0.013343
christiandemocrat,0.009065
chronic,0.005290
chronicl,0.005421
church,0.019446
ciobanu,0.010354
circumv,0.006395
citi,0.026754
ciubuc,0.010856
civil,0.008858
claim,0.010451
clash,0.005123
class,0.002855
cleric,0.006230
climat,0.007350
close,0.002303
closur,0.005559
coalit,0.012513
coatofarm,0.009140
coher,0.004744
colbasna,0.010856
collaps,0.003792
collect,0.002511
colon,0.004567
coloni,0.003559
colonist,0.011771
come,0.002462
command,0.003611
commanderinchief,0.005978
commissar,0.008804
commonli,0.002858
commun,0.002251
communist,0.059444
compagni,0.007484
compani,0.002718
compar,0.002546
complic,0.003901
compris,0.003521
compulsori,0.005444
comrat,0.010856
concentr,0.003368
concern,0.002416
conclud,0.003520
conclus,0.003835
condemn,0.004848
condit,0.014453
conduct,0.005901
conflict,0.022445
congress,0.007714
connect,0.002834
consequ,0.002927
conserv,0.003417
conservatori,0.008804
consid,0.006023
consider,0.002893
consign,0.008283
consist,0.002304
constantin,0.006230
constitut,0.013591
consult,0.003975
context,0.003028
continu,0.006257
control,0.013724
convinc,0.004582
cooper,0.003290
copper,0.004780
cornerston,0.006046
corrupt,0.004226
cossack,0.015777
costenco,0.010856
council,0.025113
countercoup,0.008691
counti,0.030740
countri,0.038515
coup,0.014065
court,0.003265
coval,0.006111
cover,0.011337
cpm,0.017177
creat,0.010529
creeti,0.010856
crimean,0.007045
crisi,0.014210
cross,0.007515
crowd,0.010730
cucutenitrypillian,0.018795
cuhea,0.010856
cultur,0.031063
cuman,0.008448
currenc,0.003772
current,0.002204
cypru,0.005738
cyril,0.006872
dacian,0.008995
danger,0.004044
danub,0.027540
day,0.002597
dculea,0.010856
deadlin,0.007016
deadlock,0.007262
death,0.006030
decad,0.003129
decemb,0.022115
decis,0.008708
declar,0.036577
declin,0.003268
decre,0.004944
decreas,0.003390
deep,0.003832
defeat,0.004073
defend,0.003851
defens,0.003778
defin,0.002362
defunct,0.006084
deliveri,0.004975
demand,0.009221
democraci,0.003834
democrat,0.030360
demonstr,0.012378
denation,0.009065
depart,0.003018
deport,0.029626
deporte,0.008746
depot,0.007016
desert,0.004895
design,0.005057
desir,0.003240
despit,0.002919
destruct,0.004074
detain,0.006510
detaine,0.008746
deteaptt,0.010856
deterior,0.010140
detriment,0.005657
develop,0.012052
did,0.015333
die,0.003298
differ,0.001825
difficult,0.003002
dimitri,0.015180
dionisi,0.010856
diplomat,0.008180
direct,0.002286
directli,0.002766
disast,0.004756
discourag,0.005197
discov,0.006063
disput,0.003462
dissatisfact,0.012708
dissent,0.005863
dissolut,0.020753
dissolv,0.004276
distanc,0.007332
distribut,0.002840
district,0.012492
divers,0.003311
divid,0.005460
divis,0.005967
dmitri,0.006699
dnestr,0.010856
dnieper,0.008540
dniepr,0.010164
dniester,0.074449
dobrua,0.010856
dobrudja,0.010354
dobruja,0.009220
document,0.006647
doe,0.002329
domain,0.003362
domin,0.002833
don,0.005714
dr,0.004271
drago,0.009604
dramat,0.003888
drop,0.003778
drought,0.005620
druc,0.010856
dtat,0.011050
dumitru,0.009306
dunreanu,0.010856
dure,0.031708
duti,0.004096
dystrophi,0.008746
earli,0.020731
earlier,0.003062
earliest,0.003464
earth,0.006508
eas,0.004771
east,0.035054
eastern,0.017201
econom,0.018146
economi,0.008492
educ,0.018484
effect,0.002013
elect,0.091713
elector,0.008893
element,0.002636
els,0.004268
emerg,0.002656
emigr,0.010421
empir,0.046275
enabl,0.003287
encount,0.004082
encourag,0.006813
encroach,0.006387
end,0.018129
endow,0.005250
enforc,0.003885
engag,0.003282
engin,0.002987
enjoy,0.003946
enp,0.009140
enter,0.009090
enterpris,0.003901
entir,0.008065
entiti,0.003516
entrust,0.013233
envisag,0.006657
eparchi,0.009853
era,0.003274
erhan,0.019997
escal,0.016107
especi,0.009627
establish,0.028756
ethnic,0.061353
eu,0.009025
europ,0.014052
european,0.010326
eventu,0.002945
excess,0.004005
exchang,0.002930
exclus,0.003540
exclusionari,0.008038
excommunist,0.008928
execut,0.009419
exempt,0.005387
exercis,0.003561
exil,0.009467
exist,0.004122
exonym,0.018795
expans,0.003497
expect,0.002847
expel,0.004997
exploit,0.003858
express,0.008056
extant,0.005484
extens,0.002798
extern,0.003241
face,0.003111
facebook,0.006492
facil,0.007946
facilit,0.003736
fact,0.007895
facto,0.005024
faculti,0.004787
fail,0.009349
failur,0.007212
fair,0.012594
fairli,0.004694
famili,0.005740
famin,0.005550
fear,0.007778
februari,0.026940
feder,0.003300
feel,0.007749
field,0.002263
fifth,0.008828
figur,0.006139
final,0.002680
financi,0.005918
fine,0.004431
fiscal,0.004699
fix,0.003289
flag,0.004949
flight,0.009081
flint,0.006699
flourish,0.004561
follow,0.030140
food,0.003189
forbidden,0.010960
forc,0.013329
forefront,0.006519
foreign,0.008655
form,0.023718
formal,0.002773
format,0.006045
fortun,0.005027
fought,0.004701
foundat,0.002890
framework,0.003175
franc,0.006345
francoroumain,0.010856
fraud,0.005105
fraudul,0.006166
free,0.002531
freedom,0.003498
frontag,0.010856
fulfil,0.004482
function,0.002269
fund,0.006111
furthermor,0.007596
futur,0.002699
gagauz,0.059118
gagauzia,0.057628
gain,0.008089
galai,0.010164
galicia,0.015009
galleri,0.005699
gate,0.005365
gather,0.003863
gavriil,0.021713
gdp,0.008336
gener,0.023889
genoa,0.006872
geograph,0.003604
german,0.012520
germani,0.010011
ghetto,0.008070
gift,0.005002
given,0.004445
glasnost,0.016489
goal,0.003048
goe,0.003988
good,0.004928
gorbachev,0.021493
got,0.005000
goth,0.007612
govern,0.073768
governor,0.024409
gradual,0.003562
grant,0.006795
great,0.004996
greater,0.002791
greatest,0.003900
greceani,0.010856
greec,0.004189
grosu,0.021713
group,0.015994
grow,0.005684
growth,0.005610
guard,0.009265
guri,0.027422
ha,0.004433
habsburg,0.006860
half,0.012203
halippa,0.021713
halk,0.009397
hand,0.005492
harsh,0.010547
hart,0.006395
head,0.008583
headquart,0.009821
held,0.007861
help,0.004852
hertza,0.009853
hi,0.015898
high,0.006732
highest,0.003394
highli,0.005835
highway,0.005593
histor,0.012448
histori,0.016614
historian,0.003734
historiographi,0.005625
hold,0.002669
hotin,0.030492
hous,0.002973
howev,0.023384
hrjauca,0.010856
hrtop,0.010856
huge,0.004121
hui,0.007464
human,0.004270
hun,0.007133
hundr,0.003367
hungari,0.005488
hungarian,0.022856
husbandri,0.006447
hypatian,0.010856
iai,0.008283
iakov,0.010856
ice,0.004834
identifi,0.002679
igor,0.006936
ii,0.008702
iii,0.004238
illeg,0.004466
illegitim,0.006800
immedi,0.006516
immigr,0.004410
imperi,0.008635
implement,0.009257
impos,0.015246
imprison,0.005270
improv,0.002727
includ,0.016924
increas,0.004262
increasingli,0.009802
incul,0.010856
inde,0.003768
independ,0.031870
industri,0.015178
inflat,0.004174
influenc,0.004882
infring,0.006647
inhabit,0.011559
initi,0.002408
innov,0.003839
insignific,0.006412
instabl,0.004792
instal,0.008747
instat,0.016725
instead,0.002596
institut,0.007036
institution,0.005858
insur,0.004272
insurg,0.005738
integr,0.005349
intelligentsia,0.007833
interdict,0.008322
interior,0.004349
intermitt,0.006338
intermov,0.010856
intern,0.009711
interrupt,0.005512
intervent,0.012064
interwar,0.012551
intrigu,0.006314
introduc,0.012999
introduct,0.002938
invad,0.008865
invas,0.012124
invest,0.006311
involv,0.004297
ion,0.019225
iron,0.007939
irredent,0.018441
isakyi,0.010856
ismail,0.006897
issu,0.004756
itali,0.011965
izmail,0.010856
januari,0.018978
japan,0.003665
jehovah,0.007212
jew,0.020842
jewish,0.009189
join,0.009890
journal,0.002850
journalist,0.005217
judg,0.004092
judici,0.004254
juli,0.022409
june,0.019374
jure,0.006636
jurisdict,0.004498
justic,0.003745
kazakhstan,0.006404
kelloggbriand,0.010164
kept,0.003993
kievan,0.007946
kilnfir,0.010856
king,0.007060
kingdom,0.008844
kishinev,0.019997
know,0.003358
known,0.005555
lack,0.008476
lag,0.005768
land,0.036458
languag,0.022281
lapidevski,0.010856
lare,0.010354
larg,0.021481
larger,0.005849
largest,0.003060
late,0.012827
later,0.017630
latin,0.003482
launch,0.003731
lausann,0.007228
law,0.002232
leader,0.016200
leadership,0.004020
leav,0.006275
lebedev,0.028193
led,0.007174
left,0.008861
legal,0.009173
legisl,0.003392
leonid,0.013898
leu,0.008746
level,0.002215
liber,0.013363
lie,0.003630
lieu,0.006989
limba,0.010164
line,0.005303
linear,0.003942
linguist,0.004355
link,0.001611
list,0.004120
literaci,0.021747
literatur,0.003310
littl,0.002835
live,0.009583
local,0.045173
locat,0.008173
london,0.003119
longer,0.003055
look,0.003059
loot,0.006275
lose,0.003897
lost,0.006439
low,0.002839
lower,0.002737
lowest,0.004407
lucinschi,0.010164
lumintorul,0.010856
lupu,0.015892
machin,0.003577
magyar,0.007755
main,0.007036
mainli,0.003075
maintain,0.005167
major,0.009828
man,0.003278
manag,0.010614
mani,0.003349
manifest,0.004262
manipul,0.003967
mar,0.005070
maramur,0.030492
march,0.027652
marchapril,0.007635
mark,0.002974
market,0.002773
mass,0.003038
massr,0.031741
matter,0.005574
meant,0.003800
meanwhil,0.004480
measur,0.016987
mediat,0.004538
mediev,0.007903
meet,0.005995
member,0.023639
mention,0.003587
merchant,0.004400
mereni,0.010856
mesopotamia,0.005634
metropolitan,0.011259
mgb,0.010354
middl,0.006109
midoctob,0.008928
mihail,0.009397
mikhail,0.017509
militari,0.020981
million,0.002910
minist,0.016714
minor,0.027430
mircea,0.024210
moder,0.004244
modern,0.004444
moldavia,0.158478
moldavian,0.278136
moldova,0.429869
moldovan,0.192428
molotovribbentrop,0.008244
monarchi,0.004749
monasteri,0.005629
mongol,0.005820
month,0.006547
monument,0.005304
moral,0.003706
moscow,0.026540
mostli,0.015806
motiv,0.003619
mountain,0.003986
movement,0.015329
mp,0.010928
mssr,0.032570
municip,0.009029
muravschi,0.010856
museum,0.004467
music,0.004072
nation,0.016424
nationalist,0.024019
navig,0.004626
nazi,0.005166
nedelciuc,0.010856
need,0.004454
negoti,0.007756
neighbor,0.004179
neighborhood,0.005611
neofit,0.010856
neolith,0.016563
neoprotest,0.010856
network,0.003097
new,0.016549
newli,0.015592
ngo,0.006091
nicodem,0.010354
nicola,0.027753
night,0.009089
nikolai,0.006576
nisporeni,0.010856
nistor,0.010580
nkvd,0.008746
nnbeldiceanu,0.010856
noastr,0.020709
nobil,0.005778
noblemen,0.015892
nogai,0.009998
nomin,0.003867
noncommunist,0.008006
nonreform,0.010856
nonromanian,0.010580
nonviol,0.006387
north,0.002941
northern,0.027709
northwestern,0.005625
notabl,0.005686
note,0.002136
novemb,0.023261
novodchikov,0.010856
nucleu,0.004908
null,0.006052
number,0.009267
numer,0.013724
oblast,0.045029
oblig,0.004091
observ,0.007336
occasion,0.004179
occup,0.007721
occupi,0.007428
occur,0.007061
octob,0.006407
odessa,0.008691
offens,0.005163
offer,0.002755
offic,0.002982
offici,0.028128
oil,0.003698
old,0.006131
older,0.003888
oldowan,0.008207
onli,0.011938
open,0.007609
openli,0.005611
oper,0.007012
opposit,0.021340
oppositionon,0.010856
order,0.006125
organ,0.022230
orhei,0.010856
origin,0.002053
orthodox,0.004989
os,0.013532
osc,0.025685
ostens,0.006002
ottoman,0.068121
outbreak,0.005041
outcom,0.003787
outlaw,0.005948
overrul,0.007612
owe,0.004509
ownersdomin,0.010856
pact,0.005563
paleolith,0.006131
pamfil,0.010354
pamphlet,0.006260
pan,0.012249
pantelimon,0.010856
parallel,0.003839
pari,0.012154
parliament,0.056051
parliamentari,0.012729
parti,0.042948
particip,0.002922
particular,0.002319
partner,0.004050
pass,0.005756
pavel,0.007368
pcrm,0.021713
peac,0.010719
peasant,0.020664
pecheneg,0.009397
peopl,0.022470
percentag,0.008257
perestroika,0.015136
perform,0.002604
period,0.022014
perish,0.006314
persecut,0.005339
person,0.004848
personnel,0.018316
pervas,0.005825
petru,0.008172
pictur,0.004147
place,0.004190
plan,0.014029
platon,0.005913
pleas,0.005611
plmdeal,0.021713
plot,0.004540
plung,0.006338
plural,0.004765
podolia,0.018795
poland,0.005061
polic,0.024723
polici,0.019192
polish,0.005005
polit,0.034880
politician,0.004444
polozenski,0.010856
popovici,0.010856
popul,0.055358
popular,0.018555
portion,0.003723
portug,0.004949
posit,0.004391
post,0.003595
postsoviet,0.007148
potenti,0.002750
potteri,0.011651
poverti,0.008741
power,0.008696
ppcd,0.010856
practic,0.002273
precursor,0.004628
predat,0.004716
predecessor,0.004632
predominantli,0.004716
preferenti,0.005902
prehistor,0.005135
prehistori,0.005336
preliminari,0.005666
presenc,0.009638
present,0.004248
presentday,0.014315
preserv,0.003580
presid,0.046087
presidenti,0.017378
press,0.002500
pressur,0.006396
prevent,0.009112
price,0.003145
pridnestrovian,0.019209
primari,0.005609
primarili,0.005808
prime,0.010240
princ,0.018339
princip,0.029870
principl,0.005100
print,0.015959
prioriti,0.004480
privileg,0.004848
proclaim,0.014418
produc,0.002210
proeuropean,0.018993
profession,0.003442
program,0.005345
promis,0.003992
pronationalist,0.010580
proof,0.004331
proport,0.010538
propos,0.005242
proromanian,0.019706
protect,0.002831
protector,0.005256
protest,0.039483
protocol,0.004803
provid,0.001885
provinc,0.003927
provision,0.016151
provocateur,0.009998
public,0.008558
purg,0.011885
purportedli,0.007228
pyatnitski,0.010856
qualifi,0.008935
quell,0.013173
question,0.002668
quo,0.005925
quorum,0.007590
quota,0.005815
radic,0.003894
radio,0.013048
rais,0.003133
ran,0.004756
rapproch,0.007833
rate,0.010531
ratifi,0.005413
reannex,0.010354
reason,0.002418
recaptur,0.006124
receiv,0.005148
recent,0.002333
reclaim,0.006291
recogn,0.011556
recognit,0.007386
record,0.014200
recov,0.004147
red,0.007469
reelect,0.005488
reemerg,0.006548
reestablish,0.005132
refer,0.001347
referendum,0.004677
reform,0.029664
reformist,0.006456
reformmind,0.009722
refus,0.011796
regain,0.010351
regim,0.007852
region,0.069974
regul,0.006379
regular,0.007382
regularli,0.004586
reinstitut,0.008322
reject,0.003321
relat,0.003633
relationship,0.002572
releas,0.003367
releg,0.006848
religi,0.024093
remain,0.017827
remitt,0.006596
repeat,0.003889
repeatedli,0.004794
replac,0.005491
report,0.005179
repres,0.006630
republ,0.117010
republica,0.008928
republican,0.004813
request,0.004095
requir,0.002121
requisit,0.006548
resent,0.005809
resid,0.003569
resist,0.010474
resolut,0.004121
resourc,0.002727
respect,0.007687
respons,0.004674
rest,0.006313
result,0.011261
retain,0.003543
return,0.010907
reunif,0.006710
revenu,0.003931
reviv,0.004282
revolut,0.006675
rezeni,0.010856
rich,0.003863
richest,0.005874
rii,0.076837
riot,0.016151
rise,0.008134
river,0.025787
road,0.003913
roman,0.003614
romania,0.118704
romanian,0.280349
romaniansoviet,0.010856
romn,0.009397
rose,0.004088
rout,0.008113
royal,0.003555
royalappoint,0.010856
ru,0.006923
rubl,0.015093
rule,0.024596
ruler,0.004501
runoff,0.006145
rural,0.008715
russia,0.059401
russian,0.149905
russianturkish,0.010856
russif,0.008404
russophon,0.009853
russoturkish,0.026240
ruthless,0.007073
s,0.013377
sadoveanu,0.010856
safeti,0.004343
said,0.002768
sangh,0.009306
sanitari,0.007504
sarmatian,0.008493
saw,0.003297
scarlat,0.010856
schedul,0.004478
school,0.010965
scienc,0.002266
scientif,0.002711
sculptor,0.014736
scythian,0.007635
sea,0.006876
seat,0.011962
secess,0.006519
second,0.011057
secondhighest,0.008244
secret,0.008314
secretari,0.022011
sect,0.005643
secur,0.011451
seen,0.005287
seiz,0.004632
sell,0.003811
seminari,0.007180
sent,0.003734
sentenc,0.004606
sentiment,0.010473
separatist,0.006404
septemb,0.009748
serafim,0.010856
serfdom,0.007103
sergey,0.007504
seri,0.005368
seriou,0.003774
servic,0.002625
set,0.002087
setback,0.006245
settl,0.030636
settlement,0.023592
seven,0.003535
sever,0.013684
sfatul,0.084644
sfsr,0.008746
shcherbachev,0.010856
shift,0.003265
shokotov,0.010856
shore,0.005123
siberia,0.012860
sieg,0.005585
sign,0.015437
signific,0.004787
sinc,0.013126
site,0.003158
situat,0.008661
size,0.002920
skyrocket,0.007331
slavic,0.019701
slightli,0.004064
slogan,0.006412
small,0.004589
smirnov,0.009065
snegur,0.021161
socal,0.003783
social,0.011927
socialist,0.050342
societi,0.009397
sold,0.003960
sole,0.003806
solut,0.003208
soon,0.006877
soroca,0.010856
sought,0.003653
sourc,0.004717
south,0.008810
southern,0.006960
southwestern,0.011705
sovereign,0.004482
soviet,0.199028
spain,0.003985
speaker,0.004815
special,0.002345
specialist,0.009306
specif,0.002243
specifi,0.003812
sphere,0.008393
sptaru,0.010856
spun,0.007045
ss,0.005763
ssr,0.082108
ssrm,0.010354
st,0.003022
stabil,0.003497
stabl,0.007380
stalinist,0.007368
standard,0.002525
start,0.007121
state,0.019689
station,0.012290
statist,0.003076
statu,0.009395
steadi,0.004806
steadili,0.004946
stepan,0.008995
stephen,0.012496
stipul,0.005671
stop,0.007409
strateg,0.004092
strengthen,0.004241
stretch,0.009454
strip,0.004920
stronger,0.004514
struck,0.005332
studi,0.001981
sturdza,0.010164
sturza,0.010856
su,0.005763
subject,0.002385
subordin,0.010351
subscrib,0.005863
subsequ,0.008779
subsidiari,0.005671
substanti,0.006962
succeed,0.003833
success,0.012434
suffer,0.006845
suit,0.004359
sulima,0.021161
sumer,0.006975
summer,0.004338
suppli,0.003057
support,0.006688
suppress,0.008588
suprem,0.015360
survey,0.003604
surviv,0.003234
sweep,0.005743
switzerland,0.004806
synod,0.007279
taken,0.002745
target,0.006983
tarlev,0.032570
tartari,0.009853
tatar,0.016013
tatarbunari,0.010580
team,0.007832
technic,0.003335
technolog,0.002703
tefan,0.008404
temporari,0.004422
tension,0.004259
tenur,0.005685
term,0.007087
territori,0.065646
th,0.043005
theater,0.006058
themselv,0.002781
theolog,0.009142
therebi,0.003881
thethen,0.010164
thi,0.023844
threeyear,0.006152
throne,0.005290
thu,0.004384
tie,0.003657
time,0.019910
timofti,0.010856
tiraspol,0.039995
today,0.005387
took,0.008788
tool,0.003002
topal,0.010354
total,0.005233
town,0.007701
trace,0.007191
trade,0.002712
tradit,0.002361
trajan,0.007781
transdniest,0.010164
transfer,0.009627
transform,0.006139
transit,0.003264
transnistria,0.170074
transnistrian,0.036263
transylvania,0.007888
treati,0.035245
trend,0.003581
tri,0.002951
tribe,0.004616
tricolor,0.008588
troop,0.012698
tsar,0.020808
tsarappoint,0.010856
tsarist,0.007568
tudor,0.007350
turbul,0.005815
turk,0.005925
turkey,0.009781
turkicspeak,0.009604
turn,0.002592
turnout,0.006338
twenti,0.004612
twice,0.004469
twitter,0.007212
ukrain,0.033616
ukrainian,0.065012
ultimatum,0.006800
unabl,0.003897
unemploy,0.004392
unif,0.005332
union,0.050159
unit,0.011348
uniti,0.004121
univers,0.001942
unoppos,0.007484
unprepar,0.007781
unregist,0.007917
unrel,0.005361
unstabl,0.005002
upgrad,0.005383
upheav,0.006111
upper,0.007573
upris,0.005207
ural,0.007504
urban,0.007866
urg,0.004949
usag,0.003933
use,0.006129
ussr,0.043341
v,0.003343
valeriu,0.008804
variou,0.008539
vasil,0.045329
vassal,0.024981
vehicl,0.004257
veteran,0.005709
viaa,0.010354
vice,0.004341
victori,0.004343
view,0.002403
villag,0.004285
violenc,0.008932
vlachan,0.010856
vlachromanian,0.021713
vladimir,0.021345
void,0.006002
volcin,0.010856
voloch,0.010856
volunt,0.005169
voronin,0.028814
vote,0.049785
wa,0.152221
wake,0.010005
wall,0.003970
wallachia,0.009065
wallachian,0.009604
want,0.003462
war,0.031966
weaker,0.005339
weav,0.006330
went,0.003439
west,0.006439
westernmost,0.007888
whi,0.003450
white,0.003560
wide,0.002415
win,0.012650
winter,0.004646
wit,0.009134
withdraw,0.004507
wolf,0.005743
women,0.003568
won,0.022776
work,0.003676
worker,0.003490
world,0.005703
worri,0.005525
worst,0.005172
writer,0.007697
written,0.002969
wrttemberg,0.008746
yamna,0.009397
year,0.020817
yedinstvounitatea,0.010856
yeltsin,0.008746
young,0.006963
zemstva,0.010856
zemstvo,0.020709
zinaida,0.010164
zone,0.003875
