abet,0.026634
achiev,0.009325
action,0.009107
adjoin,0.023988
admit,0.015631
advanc,0.009155
adventur,0.018596
airmen,0.026716
andorra,0.815951
andorran,0.161821
ani,0.006532
annex,0.050590
annual,0.011386
antoni,0.021987
approv,0.012733
aragon,0.024550
areni,0.034773
aros,0.014720
arrest,0.016290
articl,0.017619
ascend,0.019423
author,0.008345
autonom,0.014988
avoid,0.011071
background,0.025460
bald,0.026321
bank,0.010719
becam,0.016339
becaus,0.006728
befor,0.007633
bishop,0.109759
border,0.026332
bori,0.044723
bread,0.020917
break,0.012320
briefli,0.016579
bring,0.022222
buffer,0.020961
caboet,0.075513
carri,0.009650
castil,0.026172
catalan,0.097419
catalonia,0.051780
centuri,0.038434
charl,0.022929
charlemagn,0.071834
charter,0.016103
christian,0.011601
cia,0.017786
civil,0.020537
claim,0.009087
commun,0.015657
conflict,0.022302
consider,0.010061
consist,0.008013
constitut,0.018907
contact,0.012563
coprinc,0.104319
coprincip,0.034773
corul,0.032364
count,0.081930
countri,0.007879
creat,0.007323
creation,0.010898
crown,0.015507
custom,0.012106
dandorra,0.072022
declar,0.034692
defin,0.008216
demand,0.010689
democraci,0.013336
democrat,0.011731
depart,0.020995
descend,0.014491
despit,0.010152
detach,0.019484
develop,0.011975
dioces,0.023691
disput,0.012043
district,0.014482
divid,0.009494
document,0.011559
domain,0.023387
doubl,0.013255
dpartement,0.026172
dure,0.013784
durgel,0.035347
earli,0.007209
eastern,0.011964
econom,0.007888
economi,0.009844
edict,0.022042
elect,0.010631
emperor,0.015897
empir,0.010058
end,0.007881
enjoy,0.013723
enter,0.010538
equal,0.009816
establish,0.007692
eu,0.015694
europ,0.019548
european,0.026934
exclus,0.012314
execut,0.010919
execution,0.031282
expand,0.010196
expel,0.017379
export,0.013223
extend,0.009507
extens,0.009734
extern,0.005636
factbook,0.018065
fear,0.013525
ferdinand,0.019484
feudal,0.037242
fight,0.013525
financi,0.010290
foix,0.183981
follow,0.006165
forgotten,0.020353
form,0.005891
formal,0.009645
forti,0.019244
franc,0.088278
franchis,0.020811
franco,0.022015
fratricid,0.033812
french,0.093360
fulli,0.011620
garrison,0.019531
garrot,0.033812
gave,0.022432
geographi,0.014188
germain,0.051379
germani,0.011606
given,0.007730
govern,0.014659
grandson,0.021592
grant,0.023633
greatli,0.012622
ha,0.010279
ham,0.026474
haven,0.019515
head,0.019901
heir,0.019722
henri,0.024847
highli,0.010147
hispanica,0.033402
histori,0.038520
hold,0.009284
httpswwwciagovlibrarypublicationstheworldfactbookindexhtml,0.023901
httpwwwstategovrpaeibgnindexhtm,0.025197
ii,0.020175
iii,0.014740
import,0.013148
impoverish,0.021745
improv,0.018970
includ,0.005350
incorpor,0.021169
increas,0.007412
independ,0.015833
industri,0.008798
influenc,0.016979
institut,0.008156
islam,0.012831
isol,0.012514
issu,0.008271
iv,0.016731
judiciari,0.017149
juli,0.033400
king,0.012276
kingdom,0.010252
known,0.006440
la,0.012864
lack,0.009826
land,0.019506
landlock,0.024500
later,0.015328
law,0.007763
le,0.030701
led,0.008317
legal,0.021267
legalis,0.026553
line,0.009222
link,0.005603
list,0.007165
littl,0.009862
loav,0.030044
locat,0.009474
long,0.008366
lord,0.045754
lordship,0.055691
mainstream,0.015637
marca,0.036011
march,0.010685
marri,0.016153
marriag,0.016290
materi,0.018059
method,0.007980
microst,0.026172
militari,0.010423
moor,0.034778
mountain,0.013863
napoleon,0.035146
narrowli,0.020026
nation,0.007139
navarr,0.027435
neighbor,0.014535
neighbour,0.015739
neutral,0.028207
new,0.017266
nobleman,0.026885
note,0.022287
occitan,0.032067
occupi,0.012917
offici,0.009782
oper,0.008128
organ,0.007028
overlord,0.025689
pareag,0.075513
pariatg,0.037756
parliamentari,0.014756
parti,0.009957
pass,0.010010
pay,0.012029
peac,0.024853
peopl,0.007104
period,0.007656
perpetu,0.017456
petit,0.019059
place,0.007287
polit,0.016174
popular,0.009218
potenti,0.009566
power,0.007561
presid,0.010685
prevent,0.010563
primari,0.009753
princ,0.015945
princip,0.046169
principat,0.075513
principl,0.008869
proclam,0.021184
prosper,0.015274
protect,0.019695
provid,0.006555
provis,0.014391
public,0.022323
puigcerd,0.032683
pyrene,0.029380
questia,0.031789
recogn,0.010047
reduc,0.008877
refer,0.004685
referendum,0.016268
reform,0.011462
refus,0.013674
remain,0.031000
renounc,0.021048
resist,0.012142
resolv,0.013611
restor,0.013252
result,0.006527
retain,0.012323
return,0.018967
revolutionari,0.014913
right,0.016818
rout,0.028216
rule,0.008553
ruler,0.031313
s,0.019938
secreci,0.022975
sector,0.012285
seek,0.010515
servic,0.009130
seu,0.028181
sgre,0.037756
share,0.018262
sign,0.010737
simultan,0.013666
sinc,0.013042
skossyreff,0.037756
smack,0.035347
small,0.007980
smuggl,0.021184
social,0.008296
southwestern,0.020353
sovereign,0.031174
sovereignti,0.015726
spain,0.083153
spanish,0.070518
squad,0.025082
st,0.010513
state,0.028531
statu,0.010892
subsequ,0.010177
survivor,0.020260
suzerainti,0.024600
tax,0.012256
tend,0.010709
territori,0.011415
th,0.044868
therebi,0.013498
thi,0.014633
throne,0.018399
tie,0.012720
titl,0.011706
tourist,0.017379
trade,0.009434
tradit,0.016424
train,0.011261
transport,0.011180
treati,0.027238
tribut,0.038908
twice,0.015544
ultim,0.011279
unavail,0.021323
unchang,0.017389
union,0.019382
unit,0.006577
unrest,0.018087
urgel,0.205596
use,0.005328
v,0.023256
vall,0.054302
valley,0.015081
versail,0.022838
wa,0.058820
war,0.064849
way,0.006973
websit,0.024663
wine,0.018352
wish,0.014419
women,0.012411
world,0.026447
year,0.006581
