adject,0.005988
administr,0.003063
africa,0.014231
african,0.007679
agricultur,0.003256
air,0.003365
airport,0.004825
ambigu,0.005147
angola,0.006645
angolan,0.008052
anthem,0.006366
architectur,0.004132
area,0.004351
arm,0.006986
armi,0.003768
art,0.006703
articl,0.002603
atla,0.010273
atlant,0.004642
bank,0.006336
becam,0.004829
bicamer,0.005950
biospher,0.005507
bird,0.004509
border,0.003891
boundari,0.003687
branch,0.011237
brazzavil,0.017460
brief,0.004186
cabinda,0.009318
cabinet,0.004444
cameroon,0.014232
capit,0.005754
care,0.003323
central,0.007440
centuri,0.002271
cg,0.022554
christian,0.003428
cinema,0.005939
citi,0.003055
civil,0.003035
climat,0.003777
coastlin,0.005503
coat,0.005241
code,0.010271
cog,0.007824
coloni,0.003658
command,0.003712
commanderinchief,0.006144
common,0.004279
commun,0.002313
compani,0.002794
congo,0.875552
congobrazzavil,0.019744
congoles,0.007848
congorel,0.021287
constitut,0.002794
countri,0.013972
court,0.003356
crime,0.004390
cuisin,0.006015
cultur,0.002660
currenc,0.003877
defenc,0.004307
democraci,0.003941
democrat,0.010402
demographi,0.005950
demonym,0.006931
deni,0.004102
depart,0.003102
diplomat,0.008408
district,0.008560
divis,0.003067
domain,0.003456
eastern,0.003536
econom,0.002331
economi,0.002909
ecoregion,0.012618
educ,0.002714
elect,0.003142
end,0.002329
energi,0.008947
enforc,0.003994
english,0.005934
environ,0.002824
equat,0.003543
etymolog,0.004535
exchang,0.003011
exclav,0.008639
execut,0.003227
extern,0.001665
extrem,0.003056
fauna,0.005434
featur,0.002881
festiv,0.005291
flag,0.005087
follow,0.001822
footbal,0.005701
forc,0.009133
foreign,0.002965
form,0.001741
franc,0.003261
freedom,0.003596
french,0.006131
ft,0.004979
gabon,0.014572
gdp,0.004284
gener,0.001637
geograph,0.003705
geographi,0.008387
geolog,0.004353
glacier,0.005955
govern,0.017331
guid,0.003221
guinea,0.010758
gulf,0.010307
head,0.005882
health,0.003175
hemispher,0.005188
heritag,0.009319
high,0.002306
hinduism,0.005477
histori,0.005692
holiday,0.005362
hous,0.009168
howev,0.001848
human,0.002194
hundr,0.003461
independ,0.002339
index,0.003619
industri,0.002600
infrastructur,0.003857
intern,0.005989
internet,0.007474
islam,0.003792
island,0.003376
iso,0.021266
judaism,0.005448
judici,0.004373
km,0.030012
known,0.001903
ko,0.007430
lake,0.004492
land,0.002882
languag,0.002862
law,0.004588
legisl,0.003487
lgbt,0.006434
link,0.001656
list,0.004235
literatur,0.003402
local,0.002579
locat,0.005600
low,0.002918
lower,0.002814
m,0.005447
mammal,0.004821
marxism,0.005955
marxist,0.005170
media,0.003493
member,0.004859
membership,0.004194
middl,0.006279
militari,0.009242
minist,0.003436
ministri,0.004094
mission,0.007594
mont,0.005709
mountain,0.004097
multiparti,0.004886
municip,0.004640
music,0.004185
nabeba,0.011525
nation,0.010551
natur,0.002033
navi,0.004558
nd,0.003543
nguesso,0.010447
nomin,0.003974
ocean,0.003919
offici,0.002891
oil,0.003801
olymp,0.005749
order,0.002098
organ,0.002077
outlin,0.011120
overview,0.003815
park,0.004451
parliament,0.003840
parti,0.002943
peopl,0.002099
point,0.002209
polici,0.002818
polit,0.007170
popul,0.002709
power,0.002234
presid,0.006316
presidenti,0.004465
prime,0.003508
pronunci,0.005791
protect,0.002910
provid,0.001937
provinc,0.004037
public,0.002199
quarter,0.004542
rail,0.005496
rank,0.014748
record,0.002919
refer,0.002769
region,0.009920
relat,0.001867
religion,0.007055
renew,0.004050
republ,0.471334
reserv,0.003683
restor,0.003916
right,0.004970
river,0.003786
road,0.004022
rpblk,0.010643
sanit,0.006241
sassou,0.010127
second,0.002273
senat,0.004751
sikhism,0.006411
site,0.006493
south,0.003018
sovereign,0.004607
special,0.002410
sport,0.004577
state,0.003373
stock,0.003718
suppli,0.003142
suprem,0.003947
symbol,0.003499
televis,0.004344
theatr,0.005445
time,0.001705
topic,0.006116
toplevel,0.006261
tourism,0.004484
transport,0.006608
twenti,0.004741
unit,0.001944
upper,0.003892
utc,0.006565
v,0.003436
valley,0.004457
volcano,0.005701
war,0.002738
water,0.002973
waterfal,0.006506
wikimedia,0.005372
wildlif,0.005492
world,0.003908
xaf,0.010643
zone,0.003983
