accid,0.015657
acquir,0.010578
adrisi,0.066164
advis,0.013128
african,0.022766
aftermath,0.016185
aggress,0.014471
aid,0.009743
airfield,0.020830
akena,0.034166
alleg,0.013429
alli,0.011995
altern,0.008345
ambush,0.020687
amin,0.354604
andrew,0.013190
annex,0.014775
anoth,0.006246
antiamin,0.099246
apc,0.050246
appoint,0.010676
april,0.009935
arabia,0.015887
arm,0.020711
armi,0.089369
articl,0.007718
artilleri,0.017752
associ,0.006344
astl,0.034166
atek,0.034166
attack,0.020942
attempt,0.014816
backer,0.023408
background,0.011154
backward,0.016153
base,0.005659
battalion,0.019313
battl,0.012265
bear,0.012153
becaus,0.011790
befor,0.006688
belong,0.011065
betterqu,0.030971
big,0.011857
binaisa,0.063105
bitterli,0.023632
blame,0.015556
block,0.011665
bm,0.072375
boat,0.015611
bob,0.018216
bodi,0.007858
bomber,0.019646
border,0.011536
breach,0.017719
break,0.010794
brigad,0.098231
brigades,0.030467
brought,0.009653
btr,0.028097
bush,0.016153
campaign,0.011773
car,0.013859
carri,0.016910
case,0.006558
casualti,0.017182
causeway,0.051221
citi,0.009058
civilian,0.013635
civilmilitari,0.028097
claim,0.007961
close,0.007018
coffer,0.027012
collid,0.017768
command,0.033015
commiss,0.031329
competit,0.010314
confer,0.020652
congress,0.023508
consist,0.007021
consult,0.012113
cost,0.009223
counterattack,0.042114
countri,0.048325
coup,0.028573
creat,0.006416
dar,0.023556
david,0.009318
debt,0.012164
decemb,0.009627
decid,0.010223
declar,0.040529
deepwat,0.023632
defenc,0.012770
defens,0.011514
denounc,0.016992
deputi,0.014048
destroy,0.010970
differ,0.005561
direct,0.013932
directli,0.008429
disarray,0.023266
disciplin,0.009666
disgruntl,0.024213
disput,0.021104
dissent,0.017867
dissid,0.037367
distribut,0.008655
divers,0.010089
domain,0.010245
dozen,0.014673
drive,0.011271
dure,0.006038
earli,0.006317
easili,0.010820
edg,0.013779
ejalu,0.034166
elect,0.027946
elector,0.013549
elit,0.014024
end,0.006905
enemi,0.014116
entebb,0.029626
equip,0.011291
es,0.020011
escap,0.012680
ethiopia,0.017867
ethnic,0.012463
exil,0.043274
expand,0.008934
expeditionari,0.021297
extent,0.010392
face,0.009479
fall,0.008621
famili,0.008745
fight,0.035552
film,0.012809
final,0.008169
fled,0.030572
flee,0.048587
follow,0.010805
fool,0.020514
foot,0.014673
footag,0.022452
forc,0.047385
fought,0.014325
francealbert,0.030467
fraud,0.015556
fronasa,0.034166
fulli,0.010182
gaddafi,0.024213
gave,0.009827
gener,0.009705
godfrey,0.023196
govern,0.032111
grad,0.024493
greatest,0.011884
greet,0.019866
group,0.018276
guerrilla,0.017168
halt,0.015388
head,0.008718
helicopt,0.018365
help,0.007393
hi,0.030277
howev,0.010962
httplcweblocgovfrdcsuganda,0.034166
hunter,0.017113
idi,0.081036
includ,0.023441
incorpor,0.009274
increas,0.006494
injur,0.017126
inscript,0.018234
instal,0.013328
instead,0.007910
intend,0.010454
intens,0.011216
intent,0.011365
invad,0.067537
invas,0.012315
involv,0.013094
islam,0.011242
jinja,0.028938
joel,0.019727
join,0.040181
journal,0.008686
julian,0.017411
juliu,0.017182
june,0.009839
kagera,0.030971
kampala,0.105939
katyusha,0.030971
kenya,0.018788
kikosi,0.033082
known,0.011285
lack,0.008609
lament,0.020980
later,0.013430
launcher,0.024691
lead,0.006736
leader,0.019746
led,0.007287
legion,0.019923
liber,0.030540
librari,0.010607
libya,0.071269
libyan,0.167237
line,0.008080
list,0.006278
littl,0.008641
lodg,0.019169
loyal,0.017210
lukaya,0.102500
lule,0.055250
maalum,0.033082
maintain,0.007872
mambo,0.034166
mani,0.010206
map,0.020657
march,0.018724
masaka,0.033082
materi,0.007911
medal,0.016579
media,0.010355
member,0.021610
met,0.011545
mig,0.024304
militari,0.036533
militia,0.052414
milton,0.033522
mission,0.011257
mix,0.010859
mobil,0.011992
moshi,0.060935
movement,0.015570
mrl,0.066164
muammar,0.024591
museveni,0.082228
musok,0.034166
mustafa,0.022396
mutin,0.023266
mutini,0.019619
muwanga,0.031552
narrat,0.018767
nation,0.025023
ncc,0.026652
newli,0.011878
night,0.013848
nishani,0.031552
north,0.017928
northwest,0.015441
number,0.005647
nyamuchoncho,0.034166
nyerer,0.105297
obot,0.123885
obvers,0.025123
octob,0.009762
offer,0.008395
ojok,0.034166
okello,0.030971
omaria,0.034166
opposit,0.018579
organ,0.018474
oust,0.035280
overrun,0.020254
overthrow,0.016393
oyit,0.034166
paid,0.011511
palestinian,0.019514
partial,0.010385
patriot,0.016473
paulo,0.021831
peac,0.010888
peacekeep,0.017154
peopl,0.018673
period,0.013416
plain,0.014753
plan,0.008550
plu,0.012701
plunder,0.019387
plung,0.019313
pojok,0.034166
polic,0.012556
polit,0.028343
polycarp,0.027625
populac,0.017867
portray,0.029390
poverti,0.013318
power,0.033125
presid,0.037449
presidenti,0.039716
prison,0.013740
problem,0.006923
public,0.006519
reach,0.008344
read,0.007131
reason,0.007368
rebellion,0.029319
receiv,0.007844
recov,0.012638
reel,0.025010
refer,0.008211
refuge,0.015371
regim,0.011964
region,0.007352
regular,0.011248
relat,0.011071
relationship,0.007837
remain,0.013580
remov,0.018959
ren,0.016090
reorganis,0.021175
repatri,0.019981
replac,0.008366
report,0.007891
resist,0.021278
result,0.005719
retreat,0.047574
return,0.008309
revers,0.011303
rise,0.008262
rival,0.013565
rocket,0.017441
role,0.014385
rule,0.007494
run,0.009022
saba,0.045018
salaam,0.025482
sanctuari,0.020617
saudi,0.016736
saulo,0.032240
save,0.011659
schofield,0.027012
seen,0.008056
seiz,0.014116
send,0.012840
sent,0.056902
servic,0.015999
sever,0.011914
seychel,0.021977
shrunk,0.022341
significantli,0.010537
simba,0.030023
simplifi,0.013308
skirt,0.023710
sociolog,0.013539
soldier,0.013001
soon,0.010478
south,0.008948
sovereignti,0.013779
soviet,0.012376
speak,0.010956
spill,0.020192
st,0.027634
stabil,0.010656
start,0.021699
state,0.004999
steadili,0.015073
stock,0.011024
strain,0.028407
strong,0.008302
struck,0.016249
studi,0.006038
subsaharan,0.017900
subsequ,0.008917
success,0.007577
suppli,0.009315
support,0.013588
suprem,0.011701
suspici,0.019514
swamp,0.062602
t,0.019884
tank,0.015828
tanzania,0.383864
tanzaniabas,0.034166
tanzanian,0.344279
target,0.010639
th,0.013104
themselv,0.008475
thi,0.012822
thousand,0.010077
time,0.005055
tito,0.023556
told,0.014492
troop,0.154773
truck,0.018853
ts,0.021256
tu,0.021599
type,0.006870
uganda,0.413705
ugandan,0.222227
ugandatanzania,0.061942
unit,0.028817
uniti,0.012560
unla,0.132328
unlf,0.094658
unsuccess,0.014695
use,0.004669
usual,0.006876
vast,0.011474
veri,0.013051
vice,0.013229
vita,0.046124
wa,0.056222
wachaolwol,0.034166
war,0.089289
way,0.006109
wealth,0.011767
websit,0.010805
week,0.012009
west,0.009811
western,0.008595
william,0.009156
wing,0.015556
wipe,0.018501
won,0.011567
ya,0.023196
year,0.017300
yoweri,0.084291
yusuf,0.021879
