abandon,0.002464
abl,0.014997
abov,0.001688
absolut,0.002237
absorb,0.005274
academ,0.001976
accept,0.004968
acclaim,0.003979
accord,0.003957
accordingli,0.002969
account,0.001553
accur,0.002247
accus,0.005291
accustom,0.004454
aceh,0.105786
acehnes,0.012377
achem,0.006940
achiev,0.001659
acquir,0.002148
act,0.004523
action,0.019452
activ,0.006582
ad,0.001683
adam,0.002677
adat,0.013098
adjust,0.002525
administr,0.007378
admir,0.028133
admiralti,0.004415
adolf,0.003639
advanc,0.006517
advantag,0.002047
advic,0.002871
advisor,0.003379
aegi,0.004572
affair,0.002181
afghanistan,0.030462
aforement,0.003734
afraid,0.004174
afrikaan,0.005285
afterward,0.002905
afv,0.019228
age,0.004956
agreement,0.010068
ah,0.004415
ahead,0.003079
aid,0.011874
air,0.024319
airborn,0.003938
aircraft,0.014650
alamanni,0.006098
alar,0.005257
allemanni,0.006719
alli,0.070665
allianc,0.009869
allow,0.005247
alon,0.002256
alongsid,0.002743
alp,0.004261
alqaeda,0.004474
alreadi,0.011531
altar,0.004396
alva,0.005347
ambassador,0.003237
ambit,0.006881
ambon,0.005817
amboyna,0.013880
ambush,0.004202
america,0.007395
american,0.011958
ammunit,0.008203
ampsivarii,0.006719
analysi,0.001590
ancestor,0.005670
ancestri,0.003622
anchor,0.007179
ancient,0.005734
andorra,0.004684
angl,0.002977
anglodutch,0.065214
anglofrench,0.005103
ani,0.004650
annex,0.006002
anniversari,0.006997
announc,0.002215
annoy,0.009076
anoth,0.006344
answer,0.002349
anti,0.004607
antwerp,0.009076
apart,0.004835
appar,0.006756
appeal,0.002457
appear,0.004584
appli,0.002820
appoint,0.002168
approxim,0.001797
april,0.012109
aquitain,0.005379
arbeid,0.006017
archaeolog,0.002824
archaic,0.003782
archipelago,0.010046
archiv,0.002428
area,0.023585
argu,0.003510
arguabl,0.003215
aristocrat,0.003639
arm,0.016828
armi,0.104384
armistic,0.004209
armor,0.003943
armour,0.003969
arrang,0.002150
arrest,0.002899
arriv,0.010618
articl,0.003135
artilleri,0.032453
asia,0.004530
ask,0.008723
assail,0.004955
assault,0.010146
assembl,0.002059
assess,0.002247
assign,0.002369
assist,0.003934
associ,0.001288
assum,0.003655
atlant,0.002795
atroc,0.003979
attach,0.002497
attack,0.055303
attain,0.002670
attempt,0.015048
attend,0.002517
attent,0.006453
attrit,0.004516
aughrim,0.006940
augment,0.003397
augsburg,0.018632
august,0.034080
aulu,0.005316
austria,0.012209
author,0.001485
avert,0.004301
avoid,0.001970
aw,0.004937
await,0.003938
awar,0.002386
award,0.002325
away,0.006028
background,0.002265
balang,0.006549
balkenend,0.050329
baltic,0.011192
banda,0.015241
bank,0.005723
bantam,0.004645
barbar,0.004549
barbarian,0.012420
base,0.005747
basi,0.001643
basl,0.006098
bataafs,0.006940
batavi,0.047039
batavia,0.024592
batavian,0.116921
battalion,0.019616
batteri,0.003573
battl,0.204305
battlefield,0.003722
bavaria,0.004658
bay,0.014896
bayonet,0.010759
beachi,0.020159
beat,0.013385
beaten,0.012176
becam,0.008724
becaus,0.008382
becom,0.001273
befor,0.012227
beg,0.004160
began,0.015884
begin,0.004653
belga,0.006549
belgian,0.018520
belgica,0.005486
belgium,0.024979
belgrad,0.004632
believ,0.006581
benevol,0.003953
bernard,0.006196
besar,0.006188
besieg,0.007866
betray,0.007713
better,0.005381
binck,0.006549
biscay,0.006017
bishop,0.003255
bivouack,0.006719
blair,0.008554
blake,0.013898
blizzard,0.005526
block,0.002369
blockad,0.007286
bloodi,0.011203
bloodiest,0.005151
blow,0.010110
bodi,0.001596
bohemia,0.004474
bold,0.003908
bombard,0.014123
bonapart,0.025711
book,0.001511
boon,0.004584
border,0.007029
bore,0.003570
bosnia,0.016165
bosniak,0.005413
bosnian,0.028802
bot,0.004527
bought,0.006079
bound,0.002380
boundari,0.004441
bourbon,0.008812
boy,0.003134
boyn,0.006940
brabant,0.005229
branch,0.005075
brandenburg,0.014401
braudel,0.009765
bravest,0.005944
breach,0.003599
break,0.010963
breakdown,0.003274
breda,0.015857
brest,0.015380
bridg,0.005256
briefli,0.002950
brigad,0.031926
brigadi,0.004495
britain,0.020169
britannia,0.004937
british,0.083479
britishrussian,0.006188
briton,0.004369
brittani,0.005058
broad,0.002136
broke,0.008183
bronz,0.003201
brother,0.013338
brotherinlaw,0.004538
brought,0.003921
bructeri,0.006719
brunswick,0.008602
brussel,0.003834
budget,0.004979
build,0.005050
buildup,0.003918
built,0.005949
bulk,0.002820
bungl,0.005707
burgundian,0.010404
buri,0.003145
burn,0.002726
busan,0.005817
bush,0.003281
bylandt,0.012035
bypass,0.003689
cabinet,0.008029
caesar,0.003943
cambodian,0.004726
cambodiandutch,0.006940
came,0.003483
camp,0.002882
campaign,0.033482
camperdown,0.006940
camperduin,0.006940
canada,0.002281
canadian,0.008112
cannon,0.007400
cannonbal,0.005080
capabl,0.002098
cape,0.003346
capit,0.005198
capita,0.002891
capitul,0.004415
captain,0.003215
captur,0.026251
careless,0.004620
carolingian,0.017586
carrawburgh,0.006940
carri,0.006870
carrier,0.003199
case,0.001332
cash,0.005325
cassiu,0.010827
castlecari,0.006940
casualti,0.020941
catalonia,0.004607
catastroph,0.003161
catch,0.003207
cathol,0.005144
catinat,0.013880
caught,0.003281
caus,0.015642
cautiou,0.004076
cavalri,0.046784
ceasefir,0.003762
cede,0.010229
celeb,0.005878
celebr,0.002745
celt,0.009369
celtic,0.012286
cemeteri,0.007816
center,0.001699
centr,0.010953
central,0.001493
centralis,0.004160
centuri,0.019153
ceriali,0.006940
certain,0.001458
ceylon,0.009011
ch,0.003399
chain,0.002380
chairman,0.006026
chamavi,0.006719
chang,0.007207
channel,0.021039
chao,0.003083
chaotic,0.003649
chapter,0.002483
charg,0.008224
charl,0.020405
charlemagn,0.017046
charter,0.002866
chase,0.003622
chasseur,0.012377
chatham,0.005316
chatti,0.011634
chattuarii,0.006719
chief,0.002218
chilcot,0.006940
children,0.002191
china,0.004093
chines,0.006870
chinook,0.005657
chora,0.006098
christian,0.002064
christma,0.003754
church,0.002407
cinnamon,0.005036
citi,0.022080
civil,0.005482
civili,0.005229
civilian,0.002769
claim,0.004851
clash,0.003171
climact,0.005347
climat,0.002274
closequart,0.006719
clove,0.005080
clovi,0.029511
coalit,0.025818
coast,0.009726
coastal,0.002904
cock,0.005015
cockfight,0.005486
cohort,0.004343
cold,0.005079
colijn,0.006940
collaps,0.011735
colonel,0.010939
coloni,0.041861
column,0.006054
combat,0.011187
combin,0.004558
come,0.003047
command,0.035768
commando,0.013454
commemor,0.007135
commenc,0.003223
commentari,0.003071
commerc,0.007965
commerci,0.002041
commiss,0.002121
commission,0.003276
commit,0.008933
committe,0.002286
commod,0.002586
commonwealth,0.008257
communist,0.002628
compagni,0.004632
compani,0.010095
compar,0.003152
compel,0.003330
compet,0.002196
complet,0.002943
compli,0.003513
compound,0.002401
conceiv,0.005595
concentr,0.008341
concern,0.001496
conclud,0.002179
condit,0.004473
conduct,0.001826
confeder,0.006361
confer,0.002097
confid,0.002725
conflict,0.029770
conglomer,0.003979
connect,0.001754
conquer,0.020196
conqueror,0.003918
conscript,0.003834
consequ,0.005435
conserv,0.002115
consid,0.001242
consider,0.003581
consist,0.002852
consolid,0.002797
constitut,0.001682
construct,0.001650
contain,0.003057
contemporari,0.004168
context,0.001874
continent,0.002837
conting,0.009284
continu,0.016785
contraband,0.004975
contract,0.002137
contrast,0.003600
contravent,0.005413
contribut,0.006256
control,0.025484
controversi,0.004199
conven,0.003674
convent,0.010317
convers,0.002198
convinc,0.002836
convoy,0.016895
cooper,0.014257
coordin,0.002258
cope,0.003420
copenhagen,0.011360
cork,0.004549
cornwal,0.004495
coron,0.004007
corp,0.006287
correct,0.002145
correspond,0.001934
corul,0.005760
cost,0.003747
cotton,0.003257
council,0.001943
counterattack,0.004277
countercharg,0.006549
counterpart,0.002857
countri,0.018230
countrysid,0.003493
coup,0.017412
cours,0.001857
court,0.004042
courtyard,0.004937
cover,0.005263
creat,0.006517
crise,0.003287
crisi,0.002199
critic,0.001567
croatia,0.011462
cromwel,0.004740
cross,0.013954
crucial,0.005188
cruis,0.003774
cruiser,0.004474
crush,0.003260
culmin,0.002823
cultur,0.001602
current,0.004092
custodi,0.008418
cut,0.002262
czech,0.006829
d,0.001725
daalen,0.020821
daendel,0.006549
dam,0.003596
damag,0.002299
danger,0.002503
danish,0.003370
danzig,0.005176
date,0.008905
david,0.003785
day,0.030553
dc,0.002950
dead,0.002671
deadli,0.003847
debat,0.001983
decad,0.007748
decemb,0.015644
decid,0.006230
decis,0.023356
decisionmak,0.006143
declar,0.030873
declin,0.004046
deep,0.002372
defeat,0.098329
defenc,0.012970
defend,0.014305
defens,0.009355
defin,0.001462
delay,0.002721
deleg,0.003008
deliber,0.008557
delta,0.003052
demand,0.001902
democrat,0.004176
demonstr,0.001915
deni,0.002470
denmark,0.009377
dens,0.003033
deplor,0.004900
deploy,0.023071
depos,0.003504
deposit,0.002522
der,0.002788
derlon,0.020821
derri,0.005567
descend,0.005158
describ,0.005246
desideriu,0.005611
design,0.003130
desir,0.002005
despit,0.007227
destre,0.006940
destroy,0.022284
destruct,0.007566
desultori,0.006017
detach,0.010403
deterior,0.009415
determin,0.001479
devast,0.003025
develop,0.003197
dictatorship,0.006887
did,0.017400
didnt,0.003501
die,0.008167
differ,0.001129
difficulti,0.006904
digit,0.002379
dike,0.004937
diminish,0.002885
dio,0.009632
diplomaci,0.007173
diplomat,0.007595
diponegoro,0.048582
dire,0.004343
direct,0.002830
director,0.002562
disagr,0.003030
disagre,0.003063
disarray,0.004726
disast,0.002943
disciplin,0.001963
disclos,0.007445
discov,0.001876
discuss,0.003477
disord,0.002746
dispos,0.003152
dissolut,0.003211
dissolv,0.002646
district,0.002577
divid,0.005069
divis,0.016622
djohan,0.006940
dock,0.003918
document,0.004114
dogger,0.006409
domain,0.002081
domest,0.002207
domin,0.005260
doubl,0.002359
dover,0.003561
downplay,0.004195
downpour,0.005611
dr,0.002643
draft,0.002750
dramat,0.002406
drastic,0.003190
draw,0.008737
drawn,0.002514
dri,0.002791
drive,0.002289
driven,0.002480
drop,0.002338
drove,0.003451
dtat,0.003420
dubiou,0.004107
duboi,0.004975
duke,0.010081
duncan,0.007928
dung,0.009990
dunkirk,0.005379
dure,0.033120
dutch,0.664770
dutchbat,0.034701
dutchmen,0.005567
dutchspeak,0.005347
dutchswedish,0.012582
duti,0.002535
dwindl,0.004277
dynast,0.008003
dynasti,0.016625
eager,0.003908
earl,0.007759
earli,0.014115
easi,0.002605
easili,0.004395
east,0.041422
eastern,0.002129
eastindian,0.006940
econom,0.009828
economi,0.001752
effect,0.006231
effluent,0.005103
effort,0.012437
egg,0.003103
eighti,0.015336
elb,0.010458
elector,0.002752
element,0.004895
elit,0.002848
elliot,0.004484
embarrass,0.004018
embassi,0.006353
emerg,0.003288
emigr,0.003225
emperor,0.011318
empir,0.042964
employ,0.003403
empti,0.003058
en,0.003152
enclav,0.003985
encount,0.002526
encourag,0.002108
end,0.030859
endur,0.003131
enemi,0.002867
enforc,0.002405
engag,0.014221
engels,0.006409
england,0.040072
english,0.051817
englishfrenchgerman,0.006940
enlarg,0.003276
enlist,0.008036
enorm,0.005526
entail,0.002993
enter,0.011253
enterpris,0.004829
entir,0.004992
entireti,0.003667
environ,0.001700
epaf,0.006940
eponym,0.004153
equal,0.003494
equip,0.013762
equival,0.002066
era,0.002027
ere,0.005611
error,0.002439
escal,0.003323
escap,0.010303
escort,0.008669
especi,0.001489
essenc,0.002898
essenti,0.001783
establish,0.010953
estim,0.005416
ethnic,0.002531
europ,0.015656
european,0.007989
eustatiu,0.004937
event,0.006678
eventu,0.018234
evertsen,0.006940
exagger,0.003576
exchang,0.012695
execut,0.003886
exhaust,0.005999
exil,0.005860
exist,0.002551
expand,0.007259
expansion,0.009539
expect,0.008813
expedit,0.014510
expeditionari,0.004326
expel,0.003093
expens,0.002291
experi,0.001577
experienc,0.004606
expert,0.002534
explain,0.001727
explod,0.007548
explor,0.001954
expos,0.002569
express,0.001662
expuls,0.003762
extend,0.001692
extens,0.001732
extent,0.004222
extort,0.004406
extrem,0.005521
eye,0.002564
f,0.001889
face,0.003851
fact,0.004886
faction,0.012121
facto,0.003110
factor,0.003253
factual,0.003696
fail,0.013502
failur,0.002232
fair,0.002598
fairli,0.002905
fall,0.001751
famili,0.001776
famou,0.002119
far,0.006958
farm,0.010238
fashion,0.002700
fatal,0.003334
fate,0.003239
father,0.002255
favour,0.002522
favourit,0.004317
fear,0.004814
feasibl,0.003117
februari,0.006253
feder,0.004085
fell,0.009911
felt,0.005416
fernand,0.004238
feroci,0.004882
feudal,0.003314
fiction,0.002736
field,0.007005
fierc,0.007055
fifth,0.002732
fifti,0.003251
fight,0.016851
figur,0.001900
final,0.013275
financi,0.001831
fine,0.002742
finish,0.002952
firepow,0.009990
firm,0.004582
fish,0.002393
fix,0.002036
flagship,0.008739
flank,0.017271
fled,0.015525
fledgl,0.004317
flee,0.006579
fleet,0.107971
fleuru,0.006188
flexibl,0.005680
flight,0.005621
floodtid,0.006940
flotilla,0.005058
foederati,0.006017
follow,0.019753
food,0.001974
foot,0.002980
forc,0.089378
fore,0.004454
foreign,0.001785
forgot,0.005202
form,0.008389
formal,0.008583
format,0.001871
formerli,0.002569
fort,0.006764
fortifi,0.007508
fortress,0.003750
forward,0.009741
fought,0.023279
foundat,0.003577
fourth,0.007180
fouryear,0.003490
fragil,0.003678
franc,0.045171
franchecomt,0.012582
francia,0.015110
francodutch,0.015771
francoirish,0.006940
franconia,0.006098
frank,0.051038
frankish,0.068412
frederick,0.003094
frederik,0.004726
free,0.003134
freed,0.007073
freedom,0.002165
freez,0.003555
french,0.145854
frenchback,0.006291
frenchmen,0.004800
fresh,0.006163
friedrich,0.002806
friendli,0.003160
frigat,0.008721
frisian,0.010514
frontier,0.003024
fruitless,0.009369
fs,0.009054
fuel,0.005084
fulli,0.008273
function,0.001404
fund,0.001891
furnish,0.003903
furthermor,0.002350
gabbard,0.011315
gain,0.010014
gaiser,0.006409
galen,0.003933
gallia,0.005657
gallic,0.005015
gambl,0.003799
gap,0.002670
gard,0.005413
garrison,0.010428
gather,0.002391
gaul,0.017816
gave,0.009981
gembloux,0.006719
gener,0.007886
geograph,0.002231
georg,0.005931
german,0.042623
germani,0.022722
germania,0.015453
gestur,0.003795
geuzen,0.013880
gibraltar,0.012481
gilbert,0.003281
ginkel,0.006940
given,0.005503
globe,0.003124
glorieux,0.006409
gloriou,0.008361
goal,0.003774
golden,0.002779
good,0.003050
goodwil,0.004277
goodwin,0.004800
got,0.003094
goth,0.009423
govern,0.037832
governor,0.005036
governorgener,0.007846
grab,0.004495
grain,0.002980
grand,0.010659
grant,0.002103
grard,0.004560
grave,0.003343
great,0.013915
greater,0.001727
greatest,0.002414
greatli,0.004493
grenad,0.004937
grenvil,0.005316
groningen,0.010031
gross,0.002682
ground,0.009981
group,0.001237
grow,0.001759
growth,0.003472
guarante,0.002516
guard,0.048746
guerilla,0.008948
guerrilla,0.006974
guillotin,0.005285
guilti,0.003681
guinea,0.009718
gun,0.003221
ha,0.001829
haarlem,0.005878
habsburg,0.004246
hadrian,0.005257
hagu,0.004246
half,0.007553
hall,0.002602
halt,0.012503
hammer,0.004007
hand,0.006799
handel,0.005567
handl,0.002494
hanov,0.004711
hanoverian,0.006017
happen,0.002168
harass,0.003730
harbour,0.003527
hard,0.002251
harden,0.004209
harm,0.007934
harri,0.002885
hasselt,0.006549
hat,0.003838
haven,0.003473
havoc,0.004816
hawkish,0.006409
hay,0.011489
head,0.008855
heart,0.002518
heavi,0.009484
heavili,0.002211
heemskerck,0.006549
height,0.002735
heiligerle,0.006940
hein,0.004527
held,0.006487
helicopt,0.011192
help,0.006007
henceforth,0.004396
hendriku,0.006940
henri,0.002211
hereditari,0.003283
herman,0.003664
heroic,0.004018
herzegovina,0.012785
hess,0.004076
het,0.005486
heutsz,0.020821
hi,0.057813
high,0.002778
highest,0.002100
hinder,0.003457
histor,0.003082
histori,0.013711
historian,0.009246
hm,0.007286
hoge,0.006549
hogu,0.006291
hold,0.006609
holi,0.014523
holiday,0.003229
holland,0.028590
homag,0.004527
home,0.001958
honor,0.002837
honour,0.003235
hope,0.002335
horribl,0.004975
hors,0.008890
horsemanship,0.005817
hospit,0.002705
hostag,0.008141
hostil,0.005690
hougomont,0.020821
hougoumont,0.006940
hougu,0.013098
hour,0.007232
hous,0.003680
howev,0.024494
huge,0.012756
human,0.002643
humanitarian,0.003451
humili,0.008462
hundr,0.004168
hungari,0.006794
hurgronj,0.027761
hussain,0.004865
huydecop,0.006940
ideal,0.002232
ideolog,0.002591
ifor,0.005347
ignit,0.003996
ii,0.021545
iii,0.010494
ijssel,0.013880
illconceiv,0.006719
illegitim,0.004209
illequip,0.005817
illustri,0.004995
immedi,0.010083
immens,0.003296
impact,0.003760
impass,0.004607
imperi,0.016035
implicit,0.003213
import,0.001170
impos,0.002359
imposs,0.002319
improv,0.001688
inabl,0.003311
includ,0.014284
incorpor,0.001883
incorrectli,0.003711
increas,0.006596
increasingli,0.002022
inde,0.002332
indecis,0.009539
independ,0.022544
indi,0.045263
india,0.016802
indian,0.006812
indiffer,0.003791
indigen,0.008205
individu,0.002830
indonesia,0.042245
indonesian,0.051739
ineffect,0.003470
ineffectu,0.004832
inexhaust,0.005058
infantri,0.059324
inferior,0.013357
infern,0.005567
infiltr,0.003879
inflict,0.003734
influenc,0.004533
inform,0.002727
inhabit,0.009539
initi,0.010434
injuri,0.003041
inlands,0.006940
inner,0.002757
innov,0.004752
inquiri,0.013681
insid,0.002300
inspector,0.004120
instabl,0.002966
instal,0.002707
instanc,0.001857
instead,0.003213
institut,0.001451
instituut,0.006188
instrument,0.002112
insuffici,0.003110
insurg,0.003552
insurrect,0.004024
intact,0.003516
integr,0.003311
intellig,0.004281
intend,0.002123
intens,0.002278
intent,0.002308
intercept,0.007992
intermitt,0.003923
intern,0.004808
interpret,0.001830
intervent,0.004978
introduc,0.001609
inund,0.009765
invad,0.027437
invas,0.030018
investig,0.001922
inveter,0.006188
invit,0.002827
involv,0.007979
iraq,0.024560
ireland,0.011469
irian,0.005817
irish,0.003253
iron,0.002457
isaf,0.005126
isl,0.017609
islam,0.004567
islamistwahhabist,0.006940
island,0.030500
issu,0.001472
itali,0.012344
iv,0.002977
jacob,0.006186
jacobit,0.009697
jakarta,0.008849
jame,0.009674
jamess,0.009950
januari,0.013704
japan,0.004537
japanes,0.015686
java,0.052101
javanes,0.004632
javenes,0.006549
jaya,0.005285
jb,0.004120
jemmingen,0.013880
jew,0.003225
johan,0.011972
john,0.003120
join,0.012243
jonkheer,0.006940
joost,0.005817
journalist,0.003229
jrme,0.005449
judg,0.007599
juli,0.019815
juliu,0.003490
june,0.033977
just,0.003199
justic,0.002318
justifi,0.002758
karreman,0.013880
kentish,0.013880
kept,0.002471
kernel,0.003996
key,0.003491
kfor,0.005413
khler,0.014448
kick,0.004269
kill,0.029440
king,0.032775
kingdom,0.031020
knew,0.003231
knock,0.008361
know,0.002078
known,0.016047
kok,0.005379
koninkrijk,0.006940
korea,0.022149
korean,0.019106
kosovo,0.015462
koxinga,0.006098
kraton,0.006549
kroon,0.006409
la,0.016027
labour,0.002322
lack,0.005246
lago,0.004882
laid,0.007766
lake,0.005410
land,0.008679
languag,0.008619
larg,0.019340
larger,0.007241
largest,0.001894
late,0.004763
later,0.015004
latin,0.006467
launch,0.006929
law,0.001381
lay,0.002580
lead,0.013684
leader,0.014038
leadership,0.004976
leagu,0.014070
leav,0.005826
led,0.026644
left,0.012798
legaci,0.002883
legal,0.005677
leghorn,0.012582
legion,0.016188
leiden,0.012055
leopold,0.003852
letter,0.009056
leuven,0.005080
leuz,0.006940
level,0.002742
lheue,0.006940
liaoluo,0.006719
liber,0.008271
lie,0.002247
liechtenstein,0.008928
lieuten,0.007320
life,0.002948
light,0.005672
ligni,0.006188
like,0.007350
likewis,0.002716
limit,0.007003
line,0.011490
linggadjati,0.006940
link,0.000997
literaci,0.003365
littl,0.012287
live,0.005931
lob,0.006098
lobau,0.013880
local,0.006213
lodewijk,0.005707
logist,0.003309
lombard,0.004607
london,0.005793
longer,0.005674
longest,0.003287
longsuff,0.006719
loon,0.005567
loos,0.002851
lord,0.005428
lose,0.004824
loss,0.010029
lost,0.003986
loui,0.038818
louiss,0.012377
low,0.010546
lower,0.001694
lowestoft,0.006549
loyalist,0.004180
lutheran,0.004127
luxembourg,0.023392
maarten,0.008812
maastricht,0.013581
macassar,0.013098
mace,0.005126
machin,0.002214
machinegunequip,0.006940
mad,0.003738
madiun,0.006940
magelang,0.006549
magnitud,0.002829
main,0.007259
mainli,0.001903
maintain,0.006396
maitland,0.005413
major,0.021900
majorgener,0.010302
makasar,0.006940
make,0.004664
malacca,0.009632
malfunct,0.004261
mallabi,0.006549
manado,0.006291
manag,0.013140
mandat,0.005714
mani,0.012438
manipul,0.002455
march,0.024723
marco,0.003979
mari,0.002649
marin,0.002625
maritim,0.005904
mark,0.001841
market,0.001716
marlborough,0.005449
marshal,0.024316
martel,0.005526
massacr,0.010031
massiv,0.004880
master,0.002447
materiel,0.005202
mattiaci,0.006940
maul,0.005347
mauric,0.006840
maurit,0.006098
mauritiu,0.004167
meagr,0.005015
mean,0.003789
meant,0.004704
meanwhil,0.005546
mechanis,0.004955
medal,0.003367
medicin,0.002186
mediev,0.002446
mediterranean,0.002999
medway,0.024071
mekong,0.004995
member,0.004389
memori,0.002385
men,0.025518
mention,0.004440
mercantil,0.014503
mercenari,0.003923
merchant,0.016342
merchantmen,0.005567
mere,0.004512
merg,0.002762
merovingian,0.010116
messag,0.002850
method,0.002840
meus,0.011520
michiel,0.004064
mid,0.002283
middl,0.015126
mideighti,0.006940
mig,0.004937
migrat,0.002450
mile,0.002665
militari,0.046381
millennia,0.003341
millennium,0.002862
million,0.001801
minangkabau,0.018053
ming,0.007856
minim,0.002420
minimis,0.004120
minist,0.006207
minor,0.008489
minto,0.006017
minut,0.005474
miss,0.005785
mission,0.013719
mnster,0.010632
mobilis,0.004187
model,0.004285
modern,0.019258
modernday,0.003264
modernis,0.007907
molucca,0.011756
mon,0.004415
monaco,0.004474
monck,0.006940
money,0.002049
monocultur,0.009600
monopoli,0.002938
montgomeri,0.004527
month,0.012157
monument,0.003283
mookerheyd,0.006940
moral,0.009177
moreov,0.002630
mosqu,0.003884
mostli,0.003913
mother,0.002642
motiv,0.006721
motoris,0.011135
mount,0.002673
mouth,0.003251
movement,0.001581
mud,0.004007
mudbarri,0.006940
multin,0.010420
munit,0.004202
murder,0.005825
musketri,0.006409
muslim,0.005129
mutini,0.003985
mysteri,0.003027
myth,0.005857
namur,0.005379
napoleon,0.059426
narrow,0.002589
nassau,0.037695
nasti,0.004918
nation,0.017790
nationalist,0.011893
nationst,0.003847
nativ,0.007111
nato,0.024275
natol,0.005316
naval,0.034714
navi,0.054897
navig,0.005727
nd,0.004267
near,0.009428
nearli,0.003994
necess,0.002873
nederland,0.005486
nederlandenprovincin,0.006940
need,0.004135
neglect,0.020998
negoti,0.014402
neighbour,0.008404
nephew,0.003838
netherland,0.205784
netherlandsfrench,0.006940
netherlandss,0.006940
neutral,0.015061
new,0.018438
news,0.002503
ney,0.011634
nguyen,0.005151
nica,0.013098
nieuwpoort,0.006940
night,0.002812
nijmegen,0.010694
nisero,0.006940
nobil,0.003576
nobl,0.002982
nofli,0.005449
nomin,0.004787
nonetheless,0.002868
nordic,0.003958
normal,0.003655
north,0.014567
northeast,0.003266
northern,0.012863
northwest,0.003136
notabl,0.005279
note,0.002644
noth,0.002426
novemb,0.006170
nuclear,0.004686
number,0.008030
numer,0.010194
nurseri,0.004516
nutmeg,0.005413
oblig,0.007597
obscur,0.006353
occup,0.011948
occupi,0.018392
occur,0.005828
ocean,0.009439
octob,0.011898
oemar,0.006549
offens,0.006391
offic,0.001845
offici,0.010446
old,0.011385
oldest,0.002480
onc,0.003427
onli,0.020057
onslaught,0.005015
oorlogen,0.006940
oorlogsdocumentati,0.006940
oostindisch,0.005944
open,0.006280
oper,0.018807
opinion,0.004874
opium,0.004127
oppon,0.002848
opportun,0.002166
opposit,0.001887
orang,0.041133
order,0.006318
ordnanc,0.004832
organis,0.004342
origin,0.005083
ostend,0.006940
otto,0.003231
outcom,0.002344
outer,0.002930
outnumb,0.011423
outpost,0.003996
outset,0.004052
outsid,0.003498
overrun,0.004114
p,0.001750
pace,0.003094
pacif,0.002658
pact,0.003443
padri,0.033599
pagan,0.003524
pahlawan,0.006940
paid,0.002338
paint,0.002912
pair,0.002443
palac,0.006558
palatin,0.004900
palembang,0.005817
panel,0.003379
panglima,0.006940
panic,0.003847
parent,0.002582
pari,0.007523
parliament,0.011564
parliamentari,0.002626
parliamentarian,0.004309
parti,0.005316
particip,0.007236
particularli,0.001608
partij,0.005760
partisan,0.004007
partit,0.003176
partli,0.004931
pass,0.003563
passag,0.002732
passiv,0.003160
patriot,0.006692
patriottentijd,0.006940
patrol,0.007378
pavia,0.005058
pay,0.004282
peac,0.026540
peacekeep,0.006969
peatship,0.006940
penghu,0.005611
peninsula,0.003050
peninsular,0.004317
pensionari,0.006409
peopl,0.011379
pepi,0.005103
pepper,0.004070
perform,0.001612
period,0.010901
perman,0.004444
persist,0.002600
person,0.001500
personnel,0.005668
perspect,0.004104
persuad,0.003314
pescador,0.005817
petilliu,0.006940
peut,0.006188
philippin,0.003289
phoenician,0.004167
physic,0.001500
picton,0.017451
piec,0.002532
piet,0.005126
pilot,0.003397
pirat,0.003653
place,0.009078
plan,0.008683
plancenoit,0.013880
plane,0.002762
plautiu,0.006940
play,0.001655
plunder,0.003938
plymouth,0.004711
pm,0.006946
point,0.003990
pointblank,0.006291
poland,0.009399
polic,0.012752
polici,0.006788
polit,0.010075
politician,0.005502
poorli,0.003036
popul,0.006526
popular,0.001640
port,0.020731
portland,0.008757
portug,0.012254
portugues,0.008757
posit,0.010873
possess,0.012365
possibl,0.009389
power,0.017495
practic,0.001406
prang,0.006549
precis,0.002166
prefer,0.002013
prepar,0.006398
presenc,0.001988
present,0.007889
presentday,0.002953
presid,0.005705
press,0.001547
pressur,0.011877
pretext,0.004387
prevent,0.007520
previou,0.009915
previous,0.006014
price,0.001946
primari,0.001735
primarili,0.001797
prime,0.002112
princ,0.039730
princip,0.008217
print,0.002469
prison,0.008373
privat,0.005656
problem,0.004219
procedur,0.002290
proceed,0.002406
process,0.001243
proclaim,0.014874
proclam,0.007540
produc,0.002736
product,0.001370
profession,0.002130
profit,0.006816
prolong,0.003343
promin,0.002062
promis,0.002471
prompt,0.002878
properli,0.002765
properti,0.004776
propuls,0.004107
protect,0.012268
protector,0.003253
protocol,0.002973
prove,0.004059
provid,0.007000
provinc,0.043758
provision,0.003332
provok,0.003365
proxim,0.003039
prussia,0.011681
prussian,0.043779
public,0.002648
publica,0.005379
puppet,0.003928
pure,0.002079
purpos,0.001710
pursu,0.004783
pursuit,0.002964
push,0.007502
quadrupl,0.008570
qualiti,0.001959
quantiti,0.002141
quarter,0.002735
queen,0.005519
qui,0.004955
quickli,0.002140
quintu,0.005486
quit,0.002222
raad,0.005817
raadspensionari,0.006719
raffl,0.005229
raid,0.006262
raider,0.004285
rais,0.005819
ram,0.003918
rampjaar,0.006549
rang,0.003157
rank,0.004440
ransom,0.004396
rapidli,0.004434
rd,0.004709
reacquir,0.005944
react,0.002913
reaction,0.002138
realiz,0.002332
realm,0.010538
rear,0.007461
rearm,0.005449
reason,0.002993
rebel,0.003030
rebellion,0.005955
rebuilt,0.004012
recaptur,0.007582
receiv,0.009560
recent,0.001444
recipi,0.003219
recogn,0.008941
recognis,0.005149
recognit,0.002286
recoil,0.005257
record,0.005273
recov,0.002567
recoveri,0.002776
recul,0.006940
reduc,0.009479
refer,0.004170
reform,0.006120
refus,0.021904
regain,0.003203
regard,0.008000
regim,0.002430
regiment,0.007516
region,0.008961
regret,0.004326
regroup,0.004396
reign,0.011535
rein,0.004216
reinforc,0.008520
relationship,0.001591
relax,0.003188
reliev,0.006980
religi,0.004260
reluct,0.003399
remain,0.012414
remark,0.005116
rent,0.003211
repartit,0.005878
repeat,0.002407
repeatedli,0.008903
repel,0.003619
replac,0.011896
report,0.011220
reportedli,0.003311
repres,0.004104
republ,0.078297
republican,0.014896
republiek,0.011414
repuls,0.007363
reput,0.002902
request,0.007604
requir,0.001312
rescu,0.003309
research,0.001353
reserv,0.019963
resign,0.005700
resist,0.012967
resolut,0.002551
resolv,0.002422
resourc,0.005065
respect,0.001586
respond,0.004498
respons,0.007232
rest,0.001954
restor,0.007075
restyl,0.006291
result,0.011617
resum,0.003190
resurg,0.003567
retain,0.004386
retali,0.003660
rethought,0.005486
retir,0.005675
retreat,0.022548
return,0.008439
reunit,0.003870
revers,0.002296
revert,0.003649
revolt,0.009109
revolut,0.012396
revolutionari,0.015925
rheindalen,0.006940
rhine,0.047588
rhineland,0.004832
ridg,0.014613
ridgelin,0.006940
right,0.014966
riot,0.003332
rippl,0.004549
rise,0.003356
rivalri,0.006871
river,0.018241
road,0.002422
robert,0.003667
role,0.002922
roman,0.060403
romania,0.003498
romant,0.003548
rome,0.005695
rose,0.002530
round,0.005284
rout,0.007532
row,0.003225
roy,0.003420
royal,0.030808
royalist,0.012460
royaum,0.005316
rugian,0.006719
ruhr,0.005176
ruin,0.006632
rule,0.015224
rump,0.004832
run,0.003665
runion,0.004658
rush,0.003643
ruyter,0.011756
s,0.001182
saddam,0.004882
safe,0.010907
safeguard,0.003576
said,0.006854
sail,0.003154
sailor,0.010702
saint,0.008366
saintmalo,0.005567
salian,0.006098
samawah,0.006940
samuel,0.002964
sand,0.003443
sandalwood,0.005257
satisfi,0.002474
sauv,0.006940
savag,0.003933
save,0.004736
savoy,0.010206
saw,0.004081
saxon,0.017856
scandinavia,0.003870
scatter,0.003079
scene,0.003004
scheme,0.002510
scheveningen,0.013880
schimmelpenninck,0.013439
schomberg,0.006940
schooneveld,0.013880
scientif,0.003356
scilli,0.027838
scrutini,0.003791
sea,0.012768
seafowl,0.006940
search,0.002134
seced,0.004246
secess,0.004035
second,0.016425
secret,0.005146
section,0.004133
sector,0.002186
secur,0.007087
seek,0.001871
seen,0.001636
seiz,0.011469
self,0.002866
semarang,0.006409
semiautonom,0.004711
send,0.007824
sens,0.003432
sensibl,0.003689
sent,0.032364
separ,0.003047
septemb,0.012067
serb,0.013485
seri,0.003322
seriou,0.004672
serv,0.006640
set,0.002583
setback,0.003865
settl,0.004740
seven,0.004377
seventeen,0.003918
seventi,0.003903
sever,0.021781
shadow,0.003249
share,0.001625
shell,0.005614
shertogenbosch,0.006549
ship,0.047328
shock,0.002851
shore,0.003171
short,0.003556
shortliv,0.006553
shot,0.006486
shrapnel,0.005707
shrewd,0.004975
sieg,0.072597
siegenbeek,0.006940
sign,0.015288
signal,0.002399
signific,0.005926
silver,0.002902
similar,0.001386
simpli,0.003788
sinc,0.005803
singapor,0.006117
singl,0.001553
sinodutch,0.013439
sir,0.002619
situat,0.007148
sixti,0.003530
skill,0.002236
skirmish,0.008404
slope,0.010053
slovenia,0.007959
slow,0.007189
slowli,0.005350
small,0.007101
snouck,0.006940
socal,0.004684
societi,0.002908
sodden,0.006940
soet,0.006940
soft,0.002963
soisson,0.006098
soldier,0.036975
sole,0.002356
solebay,0.006940
solid,0.002494
sometim,0.003022
somewhat,0.002460
son,0.004444
soninlaw,0.004495
soon,0.021284
sought,0.002261
sound,0.007331
sourc,0.001460
south,0.016359
southeast,0.002841
southern,0.006462
southward,0.003884
soviet,0.010056
spain,0.022199
spanish,0.070284
spark,0.009215
special,0.001451
spell,0.003203
spend,0.002409
spent,0.002565
spice,0.011227
spirit,0.002622
split,0.004771
sporad,0.003704
spread,0.004103
squad,0.004464
squadron,0.015732
squar,0.004918
srebrenica,0.032046
st,0.005613
stabler,0.006940
stadthold,0.028057
staff,0.002736
staffarda,0.006940
stage,0.006081
stamford,0.005316
stand,0.002181
standard,0.004690
stapl,0.003674
start,0.014692
state,0.019296
statement,0.002130
station,0.002535
statu,0.003877
stay,0.002540
steenkerqu,0.006940
step,0.001968
stipul,0.003510
stirrup,0.005526
stock,0.002239
stood,0.006244
stop,0.002293
store,0.002351
strait,0.007286
strand,0.003309
strateg,0.010133
strategi,0.006486
stream,0.002782
street,0.002648
streettostreet,0.006940
strength,0.007062
strengthen,0.002625
stretch,0.002926
strike,0.005163
strong,0.013492
strongli,0.002237
structur,0.001356
struggl,0.004866
stuart,0.003219
stubbornli,0.005567
stun,0.004424
subdu,0.003750
subject,0.001476
subjug,0.003953
submarin,0.003507
subsequ,0.001811
succeed,0.007118
success,0.027707
sudirman,0.006719
suebi,0.005817
suffer,0.008474
suffici,0.002145
sugambri,0.006940
suggest,0.001624
sukarno,0.030094
sulawesi,0.010302
sultan,0.020614
sum,0.002315
sumatra,0.023356
superior,0.002583
suppli,0.007569
support,0.027601
suppos,0.005101
suprem,0.002376
surabaya,0.011889
surg,0.003583
surpass,0.003276
surplu,0.003053
surpris,0.006104
surrend,0.022384
surround,0.004251
surviv,0.004003
suspend,0.002885
swam,0.005760
swart,0.006188
sweden,0.005798
swedish,0.006331
swieten,0.006188
swim,0.007540
switzerland,0.005949
symbol,0.002107
tabl,0.002233
tacitu,0.028529
tactic,0.024692
taiwan,0.006532
taken,0.005098
talk,0.002497
tank,0.009645
tardi,0.005257
tarri,0.006017
task,0.002153
tax,0.002181
team,0.002423
tencteri,0.006719
tenur,0.003519
term,0.005484
terrain,0.003459
territori,0.020316
terror,0.015449
teuko,0.006940
teuku,0.020821
texel,0.006098
th,0.017302
thame,0.004495
thank,0.003191
theatr,0.003279
themselv,0.003443
thenc,0.004800
thereaft,0.003034
therebi,0.002402
therefor,0.003155
thi,0.035595
thirti,0.009388
thom,0.010116
thoma,0.004152
thought,0.003290
thousand,0.004093
threat,0.009738
threaten,0.002639
threw,0.004253
throne,0.006549
thwart,0.004114
till,0.007009
time,0.016431
timelin,0.002732
timor,0.008812
titl,0.002083
tobago,0.004246
togeth,0.008002
tolbiac,0.006409
toll,0.003700
tomb,0.003696
tombston,0.005229
ton,0.003147
toni,0.003596
took,0.018132
torch,0.004406
total,0.004858
toulon,0.005657
tour,0.003348
tourvil,0.006940
town,0.007150
trace,0.002225
trade,0.031902
tradit,0.002923
traditionalist,0.004277
traffic,0.003066
transfer,0.001986
transit,0.002020
treason,0.004127
treati,0.026663
tri,0.010962
tribe,0.045719
tribut,0.003462
trick,0.003879
trigger,0.005647
trnhnguyn,0.012818
tromp,0.019647
troop,0.078597
troubl,0.003047
truce,0.008129
trudg,0.006719
true,0.003758
trust,0.005074
turbul,0.003599
turk,0.003667
turkish,0.003360
turmoil,0.003619
turn,0.006418
turnhout,0.006291
twelv,0.006123
twelveyear,0.005760
twenti,0.002854
uk,0.002127
ukrain,0.003467
ule,0.013098
uleebelang,0.006940
ulema,0.004995
ultimatum,0.004209
umar,0.031614
unabl,0.002412
undef,0.005817
undermin,0.003076
undertak,0.003150
undertaken,0.002990
underw,0.003367
undesign,0.012582
unenthusiast,0.006188
unfit,0.004495
unhq,0.006940
unifi,0.004859
uninhabit,0.003667
union,0.003449
unislam,0.005760
unit,0.039805
unitari,0.003643
unitarian,0.008320
univers,0.001202
unnecessari,0.003427
unnerv,0.005944
unpaid,0.003996
unpopular,0.003689
unprofor,0.012035
unsettl,0.004658
unsuccess,0.002985
unsur,0.004645
unwil,0.004035
upper,0.007031
upstream,0.004238
uruzgan,0.013439
usa,0.007774
use,0.010432
usipet,0.006940
usl,0.004584
utrecht,0.004378
v,0.006208
valour,0.005878
valu,0.001487
valuabl,0.005449
van,0.043163
vandal,0.013108
variou,0.007928
vassal,0.011597
veld,0.005760
verbal,0.003339
verdun,0.010973
verenigd,0.012818
veri,0.010604
verraad,0.006940
vessel,0.011303
veteran,0.003533
vi,0.003300
victim,0.003118
victori,0.118282
victoria,0.003412
vietnames,0.003884
view,0.001487
vigor,0.006716
vike,0.003893
villag,0.005304
viller,0.006549
violat,0.007704
violenc,0.002764
virtual,0.002295
visigoth,0.004711
visit,0.002332
vital,0.005184
voc,0.009911
volley,0.011414
volleyfir,0.006940
volunt,0.003199
voor,0.005151
vouill,0.006409
vulner,0.002952
w,0.001947
wa,0.179874
waal,0.004107
wage,0.002550
wait,0.003147
walcourt,0.006940
waldeck,0.013880
wall,0.002457
want,0.002142
wanton,0.005567
war,0.222596
ware,0.004052
warfar,0.008831
warlord,0.004334
warn,0.002791
warsaw,0.004035
warship,0.007598
washington,0.002555
watch,0.005918
water,0.010742
waterloo,0.009144
wave,0.002340
waver,0.005657
way,0.002482
weak,0.002305
wealth,0.007170
weapon,0.020620
web,0.002516
week,0.004879
weight,0.002339
weitzel,0.006940
wellington,0.050959
wellpublic,0.005449
went,0.002128
west,0.019930
western,0.006983
westminst,0.003870
wherea,0.006042
whi,0.002135
whilst,0.002998
wholli,0.003377
wife,0.005984
willem,0.012855
william,0.027899
williamit,0.006719
willibrord,0.006098
willingli,0.004495
wim,0.005202
win,0.002610
winter,0.002876
wit,0.002827
withdraw,0.005579
witt,0.009423
women,0.002209
won,0.004699
wood,0.002678
work,0.001137
world,0.012944
worri,0.003420
worst,0.006403
wound,0.003184
wove,0.005567
wreckag,0.005878
written,0.005513
wrote,0.003955
wrought,0.004293
x,0.002055
xiv,0.015673
year,0.025771
yield,0.002267
yogyakarta,0.017122
york,0.001787
young,0.004310
yugoslav,0.008990
yugoslavia,0.007846
zeelandia,0.005944
zenith,0.004223
zeven,0.006719
zijll,0.006940
zone,0.002399
zutphen,0.006549
