abl,0.010814
action,0.010519
advanc,0.010574
advantag,0.013289
aerial,0.024111
affai,0.045041
affair,0.014156
afghanistan,0.043932
africa,0.027808
african,0.030012
age,0.042889
aim,0.012225
albanian,0.057685
alli,0.031627
allianc,0.016012
allow,0.017028
america,0.011998
ancient,0.074429
angloirish,0.033272
annex,0.019478
area,0.034014
arm,0.013651
armi,0.029453
armor,0.025591
asia,0.044101
attack,0.013804
attent,0.013961
attribut,0.013309
austroprussian,0.040828
autonomi,0.017890
axi,0.019635
balkan,0.048574
barbarian,0.080608
barrier,0.017420
base,0.007460
battlefield,0.024161
bear,0.016022
begin,0.010066
belliger,0.029598
black,0.013932
bolshevik,0.027088
bomb,0.019546
bosniaherzegovina,0.038581
breakup,0.074390
britain,0.029087
britannia,0.032040
british,0.011526
broad,0.013866
brought,0.012725
caesar,0.025591
campaign,0.046563
capabl,0.013615
capit,0.011245
carthag,0.028186
castl,0.023444
caus,0.009228
cavalri,0.050603
center,0.022055
central,0.029077
centuri,0.071029
channel,0.017067
character,0.026228
characterist,0.011917
charlemagn,0.027657
chiefli,0.022417
christian,0.013399
citi,0.011941
civil,0.047443
civilian,0.053926
close,0.009252
coalit,0.016755
cold,0.115380
colon,0.018347
coloni,0.028596
combat,0.018150
combin,0.009860
commit,0.014493
commonwealth,0.017862
communist,0.017055
compar,0.010228
comparison,0.014500
competit,0.027195
complet,0.019101
compli,0.022799
conduct,0.011852
conflict,0.167441
conquer,0.018724
conquest,0.018633
consid,0.008065
consider,0.011621
constantinopl,0.023918
contin,0.071281
continu,0.025137
contrast,0.011682
contribut,0.010150
convent,0.013391
costli,0.021552
countri,0.009100
creation,0.012588
crimea,0.030230
crisi,0.014271
croatia,0.024796
crucial,0.016834
crusad,0.046932
current,0.017706
damag,0.014924
danger,0.016244
danishprussian,0.045041
dark,0.017883
deadliest,0.030763
death,0.012112
decad,0.012571
decentr,0.022596
declin,0.013130
defeat,0.032724
defenc,0.016834
defens,0.030357
denmark,0.020286
denmarknorway,0.034304
devast,0.019635
develop,0.013832
die,0.013250
differ,0.007331
direct,0.009183
disagr,0.019665
disarma,0.027707
disintegr,0.022614
disput,0.013910
dissolut,0.020840
distinct,0.010651
dividend,0.022228
domin,0.068281
dominion,0.023620
dure,0.015921
dynast,0.025970
earli,0.033310
east,0.012801
eastern,0.096737
econom,0.027335
effect,0.008088
effort,0.011530
emerg,0.010670
empir,0.162649
end,0.100136
engag,0.026369
england,0.014447
english,0.011595
envelop,0.024261
environ,0.011036
era,0.052619
eras,0.026869
erupt,0.020790
espionag,0.026999
establish,0.017771
europ,0.180637
european,0.238517
eventu,0.023667
everi,0.010418
exist,0.016558
expansion,0.030955
expenditur,0.018409
experienc,0.014947
express,0.010787
fact,0.010571
faction,0.019665
fall,0.022730
fascist,0.024685
feder,0.026512
fell,0.016080
felt,0.017576
feudal,0.043016
fifteenth,0.025970
fight,0.015622
final,0.021538
finland,0.022262
firmli,0.021762
follow,0.014243
forc,0.017847
form,0.020415
format,0.012143
fought,0.075539
franc,0.050982
francoprussian,0.029826
french,0.023963
german,0.037720
germani,0.080433
giant,0.019468
global,0.035470
govern,0.016932
great,0.040137
greatest,0.015667
grecopersian,0.035609
greec,0.033658
grew,0.014878
group,0.008031
grow,0.011416
guerilla,0.058075
guerrilla,0.022632
gunpowd,0.078794
ha,0.029683
haiti,0.026006
half,0.024510
havoc,0.031256
head,0.011493
help,0.009746
histori,0.044492
holi,0.037701
hord,0.031053
human,0.008577
hun,0.028655
hundr,0.013527
ii,0.046607
immin,0.025591
implant,0.024111
impos,0.015311
includ,0.030902
increas,0.008561
incurs,0.048372
independ,0.027433
industri,0.030486
inflat,0.016766
intern,0.007801
internationalist,0.031920
intervent,0.016154
interwar,0.075626
invas,0.016234
involv,0.060416
iraq,0.039847
ireland,0.018608
irish,0.042232
island,0.013195
itali,0.032044
italian,0.016705
jerusalem,0.023801
juliu,0.022650
kabinettskrieg,0.043610
kievan,0.031920
kill,0.014696
kingdom,0.023684
known,0.029754
kosovar,0.037382
kosovo,0.025087
kriegsmarin,0.039055
land,0.033796
landlord,0.051869
late,0.010305
lebanon,0.024657
leftist,0.022933
libya,0.023488
limit,0.018180
lost,0.012934
loyalist,0.027133
macedonia,0.051869
mainland,0.058004
maintain,0.010378
major,0.055273
make,0.015137
mani,0.026908
massiv,0.015837
master,0.015883
mechan,0.010990
mediev,0.079372
mediterranean,0.038936
member,0.009496
mid,0.029641
middl,0.012271
migrat,0.031805
militari,0.192641
militarili,0.025558
million,0.023380
mission,0.014839
mobilis,0.027178
modern,0.017854
mongol,0.023380
mongolian,0.029749
montenegro,0.055724
mostli,0.012698
movement,0.010262
muslim,0.049934
napoleon,0.040595
nation,0.041234
nationalist,0.038594
nato,0.067518
natur,0.007945
naval,0.037548
navi,0.017813
nazi,0.041504
new,0.006647
nomin,0.015534
north,0.023634
northern,0.041740
notabl,0.022840
nuclear,0.015207
numer,0.033078
occas,0.018512
offer,0.011067
ongo,0.032570
onli,0.013701
oper,0.009389
oppos,0.012437
organis,0.014090
origin,0.008247
ottoman,0.042098
outsid,0.022707
paramilitari,0.026115
particip,0.035222
passiv,0.020508
peac,0.043060
peopl,0.008205
period,0.061902
persia,0.022161
persian,0.037398
personnel,0.018393
place,0.016833
plagu,0.021436
polici,0.011013
polishsoviet,0.037039
popul,0.010589
possess,0.013374
power,0.087337
prelud,0.028716
present,0.008533
primarili,0.011665
princ,0.018417
prior,0.012890
product,0.008894
project,0.021120
prompt,0.018682
propaganda,0.022818
protect,0.022749
provinc,0.015776
proxi,0.023918
prussia,0.025270
punit,0.028716
pursu,0.015521
pyrene,0.033936
quarter,0.017751
race,0.033533
reap,0.028186
recaptur,0.024602
recent,0.009372
recoveri,0.018018
reduc,0.010253
refer,0.005412
region,0.038769
rel,0.009704
remain,0.017903
renaiss,0.017897
renew,0.015827
republ,0.025406
resourc,0.010957
respect,0.010293
rest,0.012681
restrict,0.025089
result,0.030158
reunif,0.026955
revolut,0.013408
revolv,0.022063
rhine,0.028076
rippl,0.029524
rival,0.017883
rivalri,0.044593
roman,0.116149
romanpersian,0.070733
rome,0.110881
roughli,0.015183
royal,0.014281
ru,0.027810
russia,0.063629
russian,0.063385
s,0.015353
satellit,0.018884
saw,0.026490
saxonypoland,0.045041
scholarli,0.019158
scientif,0.010891
sealock,0.045041
second,0.017766
secur,0.011499
separatist,0.051451
serbia,0.094659
serbian,0.027088
seri,0.021565
servic,0.010545
seven,0.014203
shortli,0.016846
signific,0.009615
simultan,0.015786
sinc,0.007532
sleep,0.021436
slovenia,0.025829
smallarm,0.042501
socialist,0.016851
soldier,0.017140
sought,0.014674
south,0.011796
southern,0.013980
sovereign,0.018004
soviet,0.048948
space,0.011613
spain,0.016007
span,0.017401
spanish,0.016290
spend,0.031272
split,0.030963
start,0.047676
state,0.072501
strateg,0.016440
stretch,0.018989
strife,0.024825
structur,0.008801
struggl,0.047371
subjug,0.025658
success,0.019979
super,0.024442
superior,0.016766
superpow,0.051798
support,0.017912
surround,0.013794
sweden,0.037633
swedish,0.020543
tactic,0.020030
taken,0.011029
technolog,0.032582
tension,0.017109
territori,0.052739
terror,0.020052
th,0.025912
theater,0.024338
thi,0.022537
time,0.006664
total,0.031531
treati,0.047192
tri,0.011856
ukrain,0.022506
undertak,0.020448
union,0.033581
unit,0.037988
unlik,0.012544
untouch,0.028131
use,0.012310
ussr,0.021762
variou,0.025726
versail,0.026380
victori,0.069783
virtual,0.014897
wa,0.135880
wage,0.016552
want,0.013907
war,0.556436
warfar,0.114628
washington,0.016584
weapon,0.016727
west,0.012934
western,0.045324
widespread,0.014472
world,0.084007
wreak,0.033119
year,0.038011
yugoslavia,0.127303
