august,0.075620
baltic,0.140723
centuri,0.051605
crusad,0.136393
forc,0.051867
germani,0.077917
ha,0.034505
includ,0.035922
juli,0.074744
latvia,0.763299
latvian,0.184187
livonian,0.211668
militari,0.069980
nation,0.095868
nazi,0.120620
occup,0.270412
occupi,0.086722
reoccup,0.224247
republ,0.073835
socialist,0.097948
sovereign,0.104646
soviet,0.284501
th,0.050204
time,0.077477
