aa,0.005978
abil,0.002762
academi,0.030945
academyhospit,0.010563
accord,0.012047
account,0.002364
acquir,0.009811
act,0.004589
activ,0.042075
activist,0.004790
actual,0.002569
addit,0.004062
adequ,0.004212
administr,0.030883
admir,0.009515
adrianopl,0.024273
adrianoplekirk,0.010563
advanc,0.002480
advisor,0.010288
aegean,0.006623
aeronautica,0.009967
affect,0.002623
afforement,0.010563
afghanistan,0.005151
aftermath,0.005004
age,0.005029
agenc,0.009476
agentsiya,0.010563
agreement,0.015324
aid,0.009037
aim,0.002867
air,0.080198
airbas,0.007150
aircraft,0.066895
airforc,0.008351
ak,0.006133
albania,0.006041
albanian,0.013528
alenia,0.009048
alexand,0.003847
algeria,0.005660
align,0.004337
alli,0.025961
allianc,0.011266
allow,0.001996
ammunit,0.006242
analysi,0.002420
ani,0.001769
annex,0.004568
announc,0.003371
annoy,0.006907
annual,0.003084
anthem,0.005835
antimonarchist,0.009967
antiwar,0.007214
apoge,0.007458
applic,0.004796
appoint,0.006601
approach,0.002310
appropri,0.003218
april,0.006143
archiv,0.003695
arki,0.010563
arm,0.083244
armament,0.012466
armf,0.010563
armi,0.186506
armistic,0.006406
armiya,0.010563
armor,0.018005
arriv,0.003232
arsen,0.005701
artilleri,0.038418
asian,0.003825
aspect,0.002639
aspir,0.005047
assault,0.015443
assert,0.003449
assign,0.010820
assist,0.002993
asylum,0.005815
atana,0.010563
atgm,0.009755
atlant,0.004255
attack,0.025899
attempt,0.002290
attent,0.006548
audit,0.005439
aug,0.006764
august,0.015256
austriahungari,0.020034
austrian,0.004809
austrohungarian,0.013715
author,0.004521
aviat,0.031695
award,0.003539
axi,0.018420
bad,0.004119
badli,0.005458
balanc,0.003177
balkan,0.136703
ballist,0.006301
band,0.004366
bankya,0.010563
base,0.026244
basi,0.002501
battalion,0.041798
batteri,0.005439
battl,0.030337
becam,0.015491
becom,0.003876
befor,0.002067
began,0.004835
begin,0.002360
begun,0.003849
belgium,0.004752
benefit,0.002938
besid,0.004142
besieg,0.005986
bezmer,0.010563
bibliographi,0.003521
biolog,0.002871
black,0.009802
bln,0.008853
bloc,0.019433
blockad,0.005544
bloodless,0.006332
blow,0.010258
bna,0.007959
boat,0.014479
bodi,0.002429
bodyguard,0.007259
bogdan,0.008045
bold,0.005948
bomb,0.004584
bomber,0.012148
book,0.002301
border,0.032099
bori,0.012115
bosnia,0.006150
boundari,0.003380
branch,0.012874
brigad,0.188296
britain,0.003410
british,0.002703
broke,0.004152
bucharest,0.007171
budget,0.015159
build,0.002562
built,0.003018
bulair,0.010563
bulgaria,0.422607
bulgariaenglish,0.010563
bulgarian,0.384152
bulgarianamerican,0.021126
bulgarska,0.010563
burga,0.018319
busi,0.002729
c,0.002317
cabinet,0.008147
cabl,0.005278
caleroya,0.010563
calib,0.008045
came,0.002651
campus,0.006907
cancel,0.004593
capabl,0.009579
capit,0.002637
captur,0.006659
carri,0.010456
casualti,0.005312
cat,0.005144
cavalri,0.017801
cede,0.005189
celebr,0.004179
center,0.038795
centr,0.006668
central,0.009092
certain,0.002219
certif,0.004713
chang,0.005484
charalitsa,0.010563
charg,0.006258
chataldja,0.021126
cheap,0.005023
chemic,0.003087
chief,0.087798
chiinu,0.008767
christian,0.003142
ci,0.017016
citi,0.011202
civil,0.002781
civilian,0.008431
cj,0.007171
claim,0.002461
class,0.008069
classifi,0.003280
clear,0.003018
close,0.008679
club,0.004702
coast,0.014804
coastal,0.008841
coastlin,0.005044
coat,0.004804
cold,0.015462
collaps,0.007144
collect,0.002365
colleg,0.014081
colonel,0.005550
combat,0.029797
combin,0.006937
come,0.002319
command,0.180333
commanderinchief,0.016896
committe,0.013917
commodor,0.091663
common,0.005883
commun,0.029689
communist,0.024000
compani,0.007682
complet,0.006719
complex,0.004746
compon,0.005586
compos,0.003076
comptrol,0.013814
comput,0.005374
concess,0.005129
concret,0.004443
condit,0.004538
conduct,0.008339
conflict,0.003020
conquer,0.004391
conscript,0.005835
conscriptionbas,0.010227
consid,0.005674
consist,0.010853
constantinopl,0.005609
constitut,0.002560
construct,0.005023
consult,0.003745
contract,0.006507
control,0.008619
controlcivil,0.010563
convoy,0.006428
cooper,0.012399
corp,0.004784
corvett,0.024273
cougar,0.008686
counterintellig,0.016822
countri,0.038419
cover,0.002670
cradl,0.006522
craft,0.014636
craiova,0.010227
cretan,0.007959
crisi,0.016734
cross,0.007079
crush,0.009923
cryptograph,0.007051
csar,0.007572
current,0.012458
cut,0.003443
damag,0.003500
dan,0.005253
danc,0.005201
danub,0.006486
darzhavna,0.010563
date,0.002710
day,0.009790
decad,0.005896
decid,0.003160
decis,0.008203
declar,0.031326
defeat,0.023024
defenc,0.185565
defend,0.007257
defens,0.078317
deliv,0.003822
deliveri,0.009375
demand,0.002895
demor,0.007665
depart,0.068250
deploy,0.048283
depot,0.006610
deputi,0.082526
design,0.002382
desper,0.005732
despit,0.008250
destruct,0.003838
determin,0.002252
deterr,0.006451
develop,0.004866
diagnost,0.005193
did,0.007222
die,0.003107
differ,0.003438
difficulti,0.003502
dignitari,0.007458
diminish,0.004391
dimitar,0.010563
dimitriev,0.010563
diplomat,0.007706
direct,0.004307
directli,0.015636
director,0.101395
disast,0.008961
disband,0.022550
disciplin,0.005977
disrepair,0.016277
dissuad,0.007486
district,0.003923
divid,0.005143
divis,0.033732
dobruja,0.017373
document,0.009394
dodecanes,0.008946
doe,0.002194
doiran,0.021126
dolna,0.010563
domin,0.002668
download,0.005726
downturn,0.005555
drazki,0.010563
drill,0.005374
drop,0.003559
dub,0.005217
dure,0.018670
duti,0.003859
earli,0.003906
east,0.006004
eastern,0.012964
ecolog,0.003679
econom,0.002136
economi,0.005333
ed,0.002733
edirn,0.008540
educ,0.032339
effect,0.003793
egypt,0.004123
elect,0.002880
eleftherio,0.010227
element,0.002483
elig,0.004884
embassi,0.004835
empir,0.019072
encompass,0.003655
end,0.012809
endeavour,0.005637
enemi,0.004364
enforc,0.003660
engin,0.011256
enjoy,0.007435
enter,0.008564
entir,0.002532
entiti,0.003313
environ,0.002588
epidemiolog,0.005529
equal,0.002659
equip,0.052366
era,0.009255
escap,0.003920
escort,0.006597
especi,0.004534
establish,0.012503
estat,0.004156
estim,0.002747
eu,0.004251
eumad,0.010563
euro,0.004968
eurocopt,0.017373
eurofight,0.018564
europ,0.002647
eve,0.005714
event,0.002541
eventu,0.002775
evolv,0.003205
exampl,0.001748
execut,0.002957
exercis,0.006709
exhaust,0.009131
expand,0.008286
expans,0.006589
expeditionari,0.006584
experi,0.002401
expertis,0.014289
export,0.003582
extens,0.005273
extern,0.003053
f,0.008628
facil,0.014971
faction,0.004612
faculti,0.004510
fail,0.005871
falcon,0.006779
fall,0.010661
famili,0.002703
fast,0.007994
fatherland,0.021452
favor,0.003225
fear,0.003663
februari,0.009517
fell,0.018856
felt,0.004122
ferdinand,0.005278
field,0.002132
fight,0.018319
fighter,0.037125
file,0.008717
filov,0.010563
final,0.005051
financi,0.022301
flag,0.009325
fleet,0.018781
fli,0.008717
flight,0.004277
focus,0.005436
follow,0.006681
followup,0.018588
forc,0.184172
foreign,0.013590
foremost,0.005453
form,0.007980
format,0.011391
formerli,0.007822
fortifi,0.005714
fortress,0.017124
founder,0.003659
franc,0.005978
french,0.005620
frenchmen,0.007306
fresh,0.004690
friendship,0.010371
frigat,0.026548
frog,0.005948
frontswestern,0.010563
fuel,0.015477
fulfil,0.004222
fullscal,0.006082
function,0.006413
fund,0.008636
futur,0.002543
gaddafi,0.007486
gain,0.007621
garrison,0.005290
gdp,0.003927
gechkenli,0.010563
gen,0.043118
gener,0.051013
geodes,0.006794
geograph,0.010187
geopolit,0.005714
georg,0.009028
georgi,0.021040
german,0.005897
germani,0.018864
goal,0.002872
govern,0.027798
gowind,0.010563
gp,0.005690
gradual,0.003356
great,0.009413
greatli,0.003419
greec,0.027628
greek,0.008870
gripen,0.009967
ground,0.006076
group,0.001883
growth,0.002642
gs,0.007130
guard,0.052371
guardsmen,0.009048
guerrilla,0.005307
gun,0.009805
gunship,0.018564
ha,0.019492
hackett,0.007032
hall,0.003961
hand,0.005174
handl,0.003796
happen,0.006600
head,0.008086
headquart,0.027758
health,0.002910
healthcar,0.004918
heavi,0.010826
heavili,0.003366
helicopt,0.028390
help,0.002285
herzegovina,0.006486
hi,0.001872
hide,0.004942
high,0.002114
higher,0.004964
highest,0.003197
highrank,0.006522
hisar,0.010563
histor,0.002345
histori,0.005217
hk,0.014343
hold,0.005030
holiday,0.009830
homeport,0.010563
hope,0.010665
hornet,0.008240
hospit,0.037057
hour,0.007338
howev,0.013556
httpwwwmediafirecomdownloadbaljiidtfbulgarianmilitarypdf,0.010563
httpwwwmediafirecomdownloadheyrxhrnpqxmzbulgarianmilitarydocx,0.010563
httpwwwwikileakschcablesofiahtml,0.010563
humanitarian,0.005253
humili,0.006440
hundr,0.003172
hygien,0.006107
iai,0.015606
ii,0.010930
iiera,0.009048
iii,0.011979
il,0.005822
immedi,0.003069
implement,0.002907
import,0.001780
importantli,0.004784
imposs,0.003530
impress,0.004262
improv,0.002569
inact,0.005444
inadequ,0.004958
incit,0.006271
includ,0.021742
increas,0.006023
independ,0.010723
indic,0.002568
individu,0.002153
industri,0.002383
inevit,0.004600
infantri,0.033860
inflict,0.005684
influenc,0.006899
inform,0.026986
infrastructur,0.003535
initi,0.004537
inspect,0.005217
inspector,0.006271
instabl,0.004514
instal,0.008241
institut,0.022095
insurrect,0.006124
intellig,0.022805
interior,0.012292
intern,0.012808
interven,0.008973
invad,0.012528
invas,0.011422
inventori,0.016289
involv,0.008096
iraq,0.014018
irrepar,0.007878
isaf,0.007803
isbn,0.004936
island,0.003094
israel,0.004276
issu,0.006721
itali,0.007515
italian,0.003917
iv,0.013596
ivanov,0.007514
ja,0.006205
jame,0.002944
jet,0.005107
jfc,0.020455
joc,0.010563
join,0.015528
joint,0.051472
juli,0.012063
june,0.006084
jurisdict,0.012713
just,0.004869
kfir,0.009048
kiliss,0.031690
kill,0.003446
kilomet,0.005278
kingdom,0.016663
kirk,0.013383
known,0.006978
knyaz,0.018839
korea,0.004214
koren,0.009419
kosovo,0.011767
kovachev,0.010563
krali,0.010563
kutinchev,0.010563
labor,0.003427
lack,0.002661
land,0.055484
languag,0.005247
larg,0.011038
larger,0.002755
largescal,0.004067
largest,0.011533
late,0.002416
later,0.004152
latest,0.004662
launch,0.007031
lead,0.002082
leader,0.003052
leadership,0.007575
leagu,0.021416
leak,0.005855
lebanon,0.005782
led,0.006759
left,0.008348
legal,0.005761
leva,0.018564
level,0.002087
levski,0.031690
liber,0.009442
librari,0.006559
libya,0.016525
lieutenantgener,0.024720
light,0.002877
like,0.001864
limit,0.002131
line,0.009993
link,0.001517
list,0.007764
liter,0.004014
live,0.002257
local,0.002364
locat,0.005133
logist,0.055412
london,0.002939
long,0.002266
longer,0.002878
longterm,0.011020
look,0.002882
lose,0.007342
lost,0.006066
lot,0.004299
lozengrad,0.010563
lure,0.006691
macedonia,0.036494
machin,0.003370
machineri,0.004304
magazin,0.004041
main,0.011049
mainli,0.002897
maintain,0.007301
mainten,0.008375
major,0.009259
majorgener,0.117604
man,0.003088
manag,0.012499
mani,0.004733
manpow,0.006133
march,0.014472
marin,0.003995
maritim,0.004493
mark,0.002802
market,0.005225
marko,0.007665
marmara,0.008767
mass,0.002862
match,0.003712
materi,0.007338
math,0.005410
matter,0.005251
meant,0.007160
meantim,0.006242
mechan,0.010310
mechanis,0.007543
medic,0.032144
medicin,0.003327
mediev,0.007446
meet,0.002824
member,0.006681
men,0.035603
mg,0.006384
mi,0.004401
mig,0.045085
mikhail,0.005498
milan,0.011711
militar,0.006159
militari,0.296492
militarili,0.005994
militaryindustri,0.008001
militia,0.005401
minesweep,0.016376
minist,0.018896
ministri,0.097580
missil,0.032636
mission,0.010441
mitropoliya,0.010563
mix,0.006714
mln,0.008188
mma,0.008946
mobil,0.011123
mod,0.027057
model,0.004348
modern,0.020936
modifi,0.003405
monitor,0.003774
montenegro,0.019603
month,0.006167
moral,0.010476
moscow,0.005000
mostli,0.005956
mountain,0.003755
movement,0.009627
mp,0.010295
mrav,0.009967
muammar,0.007602
multiprofil,0.052817
multipurpos,0.007572
museum,0.004209
narodna,0.009159
nation,0.052221
nationwid,0.005303
nato,0.031669
natsionalna,0.010563
naval,0.074852
navi,0.062666
navig,0.004358
nazi,0.004867
nbc,0.007259
nco,0.007634
nd,0.012990
near,0.014349
nearli,0.003040
necessari,0.002781
need,0.002098
negoti,0.007307
negushevo,0.010563
neighbor,0.003937
network,0.005836
neuillysursein,0.017534
neutral,0.003820
nevermateri,0.010563
new,0.010913
newli,0.007344
nicaragua,0.006262
nikola,0.027178
nikolai,0.006196
nonaggress,0.006995
nonexist,0.005420
nonoper,0.008611
norm,0.004048
north,0.011085
northeast,0.004971
northwest,0.004773
notabl,0.005356
note,0.002012
noth,0.003693
novemb,0.009392
novo,0.006610
number,0.026192
numer,0.005171
obligatori,0.006546
obrenovi,0.010227
observ,0.002303
observatori,0.010793
occup,0.003637
occupi,0.010497
occur,0.002217
octob,0.021128
offens,0.009728
offer,0.005191
offic,0.022476
offici,0.015899
onc,0.002608
onli,0.012853
opalchentsi,0.010563
oper,0.037434
opinion,0.003709
opportun,0.003297
oppos,0.005833
opposit,0.005744
orchestra,0.006764
order,0.005770
organ,0.005711
organis,0.006609
origin,0.001934
os,0.012748
otechestven,0.009967
ottoman,0.074049
outbreak,0.004749
outsid,0.002662
outstand,0.004773
overal,0.006389
overcom,0.004286
overhaul,0.006825
overlook,0.005392
oversea,0.012489
p,0.002664
pact,0.036689
pai,0.007070
panther,0.007543
panzer,0.016948
paper,0.005760
par,0.005356
parallel,0.003616
parti,0.008092
partial,0.003210
particip,0.011014
particularli,0.002447
pass,0.002711
past,0.002769
patrol,0.011230
patron,0.005342
payment,0.007524
pdf,0.004039
peac,0.013465
peacekeep,0.005303
peacetim,0.013412
peninsula,0.004643
peopl,0.009622
perceiv,0.003510
percentag,0.003889
perimet,0.006890
period,0.006221
permiss,0.004852
persecut,0.005030
person,0.002284
personnel,0.064708
perspect,0.003123
petar,0.008686
petra,0.007803
petrov,0.008686
petti,0.006177
pilot,0.015511
pirot,0.010563
pistol,0.007486
place,0.001973
plan,0.015860
plane,0.004204
play,0.002520
pleven,0.030683
plovdiv,0.018096
point,0.002024
polic,0.054348
polici,0.007749
polit,0.004381
pomori,0.010563
popul,0.004966
port,0.003944
portion,0.003507
posit,0.020686
possess,0.009409
postal,0.005374
postgradu,0.005849
power,0.026627
practic,0.002141
pragu,0.006301
preced,0.003792
precondit,0.006223
prelud,0.006734
prepar,0.006492
prepared,0.007306
presid,0.008683
pressur,0.006025
prevent,0.002861
previou,0.003018
prime,0.003215
prioriti,0.004220
privileg,0.009136
problem,0.008562
procur,0.005529
produc,0.002082
profession,0.009729
progress,0.002727
prohibit,0.008168
project,0.002476
promis,0.011283
pronato,0.009419
pronazi,0.008411
protect,0.010670
protector,0.004952
protest,0.003719
protocol,0.009051
prove,0.006178
provid,0.005327
provinc,0.007400
prussia,0.005926
psycholog,0.003411
psyop,0.008946
public,0.002015
publish,0.004443
purchas,0.010212
pursu,0.003640
qualif,0.005086
qualiti,0.002982
quick,0.004946
quickli,0.009773
quit,0.003382
radev,0.009282
radiolog,0.006363
radiotechn,0.020455
radko,0.010563
radoslavov,0.021126
railway,0.004736
rakovski,0.031690
rang,0.007207
rank,0.013517
rapid,0.006937
rapidli,0.003374
rd,0.007168
reach,0.012898
react,0.004435
reaction,0.003255
readi,0.009330
real,0.002634
realign,0.006706
rearadmir,0.136572
reason,0.002278
rebellion,0.009064
receiv,0.009700
recent,0.013188
recogn,0.008165
recognit,0.003479
reconnaiss,0.006291
recov,0.003907
recoveri,0.012677
recreat,0.004902
red,0.007037
reduc,0.004809
reduct,0.003652
refer,0.001269
reform,0.006210
refurbish,0.007355
refus,0.007408
regim,0.003699
regiment,0.011440
region,0.025004
regular,0.003477
rehabilit,0.016420
reinforc,0.012969
relat,0.001711
relationship,0.002423
reli,0.006117
relief,0.004525
remain,0.004198
renam,0.008814
reorgan,0.005307
reorganis,0.006546
repair,0.004519
replac,0.005173
repres,0.012493
republ,0.014896
repuls,0.005604
reput,0.004416
rescu,0.005037
research,0.004118
reserv,0.013504
resign,0.004337
resist,0.009868
resolv,0.007374
resourc,0.002569
respect,0.002414
respons,0.004403
restor,0.007179
restrict,0.002942
restructur,0.005013
result,0.007072
retain,0.003338
retreat,0.004902
return,0.002569
revers,0.003494
revolt,0.004621
revolut,0.003144
richard,0.003135
rifl,0.005994
right,0.002277
river,0.006941
rocket,0.005392
role,0.004447
romania,0.026626
routledg,0.009047
ruin,0.005047
rule,0.006951
ruler,0.004241
rumelia,0.009419
rumen,0.008540
ruse,0.007878
russia,0.011192
russian,0.007432
russoturkish,0.008240
s,0.010802
saint,0.008489
salut,0.007051
sam,0.005637
san,0.016124
sand,0.005241
satellit,0.004429
satisfi,0.003765
savov,0.010563
schedul,0.008438
schienc,0.010563
school,0.007747
scientif,0.012772
scrap,0.012148
scudb,0.010563
sea,0.012955
seaborn,0.007572
second,0.014583
secondhand,0.007330
secret,0.015666
sector,0.009983
secur,0.037757
seen,0.002490
selfpropel,0.007602
seliolu,0.010563
selo,0.009967
send,0.003969
senior,0.004207
sensat,0.005174
sent,0.007037
sentiment,0.004933
separ,0.002319
septemb,0.024489
serb,0.020524
serbia,0.066600
serbian,0.038118
serbobulgarian,0.029903
seri,0.002528
serv,0.002526
servant,0.009787
servic,0.091509
set,0.001966
settlement,0.003704
sever,0.016575
ship,0.007203
shore,0.004826
short,0.002706
shortag,0.013829
shown,0.003061
shumen,0.028726
sign,0.023269
signal,0.003652
signific,0.009020
significantli,0.003257
sigurnost,0.010563
simeon,0.007193
simeonov,0.010563
simul,0.007677
simultan,0.003702
sinc,0.005299
situat,0.002720
skill,0.003403
skirmish,0.019187
sliven,0.019150
slivnitsa,0.021126
small,0.015132
smallest,0.004598
smuggl,0.005738
social,0.006742
societi,0.002213
sofia,0.130607
sold,0.007461
soldier,0.020099
somewhat,0.003745
soon,0.003239
sought,0.003441
sourc,0.002222
south,0.005533
southeast,0.008649
southern,0.006557
southernwhil,0.010563
sovereignti,0.004260
soviet,0.042092
spare,0.016495
spartan,0.007380
special,0.006628
specialis,0.005118
specif,0.002113
specop,0.010563
spend,0.022002
split,0.003630
spread,0.003122
spring,0.007969
squadron,0.005986
ss,0.005429
st,0.017087
staff,0.083296
stand,0.006640
standard,0.004758
standardis,0.006332
state,0.018549
stationari,0.010244
statist,0.002898
statu,0.002950
stay,0.003866
steadi,0.004527
stefano,0.014917
step,0.005991
steyr,0.010227
stiliyan,0.010563
stockpil,0.007089
stop,0.003490
storag,0.004204
stoykov,0.021126
stranja,0.010563
strateg,0.015423
strategi,0.003290
strength,0.003583
strengthen,0.003995
strictli,0.004166
strong,0.010268
strongest,0.005125
structur,0.010320
studi,0.013069
su,0.010859
submarin,0.016015
subordin,0.039007
subsequ,0.002756
succeed,0.003611
success,0.002342
successor,0.003968
suddenli,0.005241
suffer,0.016122
suffici,0.003266
summer,0.004087
super,0.005732
superior,0.007864
supervis,0.004224
suppli,0.011520
supplier,0.004974
support,0.037809
suppress,0.004045
suprem,0.018088
surgeon,0.005508
surpris,0.004645
surviv,0.003046
sweden,0.004413
symbol,0.003207
syria,0.005193
t,0.009221
tabl,0.006800
taken,0.002586
tank,0.029362
target,0.003289
tarnovo,0.042253
task,0.003277
technic,0.009425
term,0.006677
termit,0.006664
territori,0.024737
test,0.002888
th,0.006077
thessalonica,0.008540
thessaloniki,0.008001
thi,0.011892
thorough,0.005299
thousand,0.003115
thrace,0.036414
threaten,0.004016
thu,0.006195
thwart,0.006262
time,0.006252
timok,0.010563
today,0.005075
todor,0.009282
togeth,0.004872
token,0.005948
tokenvalu,0.010563
toll,0.005632
took,0.011039
torpedo,0.013469
total,0.024649
tradit,0.004449
train,0.030506
trainer,0.006749
transit,0.003075
transport,0.039371
travel,0.003119
treati,0.033204
treatment,0.029248
tri,0.005561
tripartit,0.006214
tripl,0.004867
tripolitania,0.008767
troop,0.107665
troopswhich,0.010227
trust,0.003861
tsar,0.019603
tsonev,0.010563
tundzha,0.010563
turk,0.005582
turkey,0.023037
turkish,0.015344
turn,0.004884
turret,0.008540
typhoon,0.015534
typic,0.002370
ultimatum,0.006406
umbrella,0.005261
underground,0.004896
undertook,0.005508
unfulfil,0.007840
unguard,0.008853
unif,0.015071
unifi,0.007395
unifil,0.008411
union,0.007875
unit,0.044547
univers,0.009148
unlik,0.002942
unsatisfactori,0.006342
untak,0.010563
usaf,0.007665
use,0.001443
vaptsarov,0.021126
variou,0.008044
varna,0.031361
vasil,0.042704
vast,0.003547
vazov,0.021126
vehicl,0.012033
veliko,0.031690
venizelo,0.009755
veri,0.004035
vessel,0.008602
vice,0.004090
viceadmir,0.028259
victori,0.016366
vidin,0.010563
vienna,0.005054
vietnam,0.004787
view,0.004528
virtual,0.003493
visit,0.003549
vladimir,0.005027
wa,0.110088
wage,0.003882
wall,0.007481
wandelaar,0.010563
war,0.138028
warfar,0.004480
warm,0.004514
warsaw,0.030710
weapon,0.007846
weaponri,0.006057
wellequip,0.015465
welltrain,0.021096
west,0.003033
western,0.010629
wherea,0.003065
white,0.010062
wielingen,0.010563
wikisourcegreat,0.010227
wind,0.004197
withdraw,0.004246
withheld,0.006924
word,0.002452
world,0.023284
yambol,0.010563
year,0.017829
yearround,0.014064
yemen,0.006205
yonkov,0.010563
younger,0.004389
yugoslavia,0.011942
za,0.007431
zaprianov,0.010563
zekhtinov,0.010563
zhivkov,0.009575
zveno,0.010563
