adjectiv,0.007083
administr,0.003209
adopt,0.003168
advisori,0.005644
agricultur,0.003412
air,0.003526
airport,0.010113
anthem,0.006671
architectur,0.004330
area,0.006840
ariki,0.010229
arm,0.003660
armi,0.003948
art,0.007024
articl,0.002728
associ,0.002242
atla,0.010765
avarua,0.022792
bank,0.006639
banknot,0.006982
biodivers,0.005736
biospher,0.005771
bird,0.004725
bodi,0.002777
boundari,0.003864
branch,0.011775
c,0.002649
cabinet,0.004657
capit,0.009045
care,0.003482
centr,0.003812
chief,0.003860
christian,0.003593
ci,0.006485
cinema,0.006224
citi,0.003201
ck,0.024598
climat,0.003958
coastlin,0.005767
coat,0.005492
code,0.010763
cok,0.012077
colleg,0.004024
command,0.003890
commanderinchief,0.006439
common,0.004484
commun,0.002424
compani,0.002927
comprehens,0.004084
constitut,0.005855
consult,0.004281
cook,0.820801
corpor,0.003638
countri,0.012201
court,0.007034
cover,0.003053
crime,0.004600
cuisin,0.006303
cultur,0.005576
currenc,0.004063
databas,0.004338
defenc,0.009028
democraci,0.008261
demograph,0.004978
demographi,0.006235
demonym,0.007263
diplomat,0.008811
divis,0.003213
dmoz,0.004911
dollar,0.008665
dollarnew,0.012077
domain,0.003621
eastern,0.003705
econom,0.004886
economi,0.006097
ecoregion,0.006611
educ,0.002844
eez,0.009007
eighti,0.006671
elect,0.003292
elizabeth,0.005311
endonym,0.014675
energi,0.009376
enforc,0.004185
english,0.006218
environ,0.005918
etymolog,0.004752
exchang,0.003155
exclus,0.003813
execut,0.003381
extern,0.001745
extrem,0.003202
fauna,0.005694
featur,0.003019
festiv,0.005544
fifth,0.004754
flag,0.005331
follow,0.001909
footbal,0.005974
forc,0.007178
foreign,0.009323
form,0.001824
free,0.002726
freedom,0.003768
ft,0.005217
gdp,0.004489
gener,0.001715
geograph,0.003882
geographi,0.013183
geolog,0.004562
govern,0.029512
guid,0.003375
head,0.006163
health,0.003328
hemispher,0.010873
heritag,0.009765
high,0.004834
hinduism,0.005740
histori,0.005965
holiday,0.005619
hous,0.003202
human,0.002300
hundr,0.003627
ii,0.003124
includ,0.001657
increasingli,0.003519
independ,0.002451
index,0.003792
industri,0.002724
infrastructur,0.008083
intern,0.006275
internet,0.007832
islam,0.003974
island,0.559056
islandsrel,0.016994
iso,0.022285
judaism,0.005709
judici,0.004583
justic,0.004034
kilometr,0.011069
km,0.004492
lake,0.004707
land,0.006041
languag,0.006000
law,0.007213
legisl,0.003654
lgbt,0.006743
link,0.001735
list,0.004438
literatur,0.003565
local,0.005406
locat,0.002934
low,0.003058
m,0.005708
main,0.002526
mammal,0.005052
manga,0.008039
maori,0.009198
media,0.003660
member,0.002546
membership,0.004395
mi,0.010063
militari,0.016142
million,0.006269
minist,0.003600
ministri,0.004291
mission,0.007958
monarchi,0.005115
mountain,0.004293
municip,0.004862
music,0.004386
nation,0.011056
natur,0.002130
navi,0.004776
new,0.007130
news,0.004355
nomin,0.004165
noncommerci,0.007878
nukuter,0.012077
nzd,0.010229
ocean,0.020533
oceania,0.012196
offici,0.006059
oil,0.003983
olymp,0.006025
order,0.002199
organ,0.002176
outlin,0.015537
overview,0.003998
pacif,0.018501
park,0.004664
parliament,0.004024
parliamentari,0.009140
parti,0.003084
peopl,0.002200
photograph,0.005492
point,0.002314
polici,0.005906
polit,0.007514
polynesia,0.007204
popul,0.005678
prime,0.003676
pronunci,0.006068
protect,0.003049
provid,0.002030
public,0.002304
punish,0.005034
rail,0.005759
rank,0.011590
rarotonga,0.010023
recent,0.002513
record,0.003059
refer,0.002902
region,0.007796
relat,0.003913
religion,0.007392
renew,0.004244
repres,0.002380
request,0.004411
reserv,0.003859
respons,0.002517
right,0.005208
river,0.003967
road,0.004215
sanit,0.006539
section,0.003596
selfgovern,0.005755
servic,0.002827
sikhism,0.006718
site,0.010206
small,0.002471
south,0.009489
southern,0.003748
special,0.002526
sport,0.009594
sq,0.012060
squar,0.008558
state,0.001767
stock,0.003896
summari,0.004860
suppli,0.003292
symbol,0.003667
te,0.007324
televis,0.004552
territori,0.003535
th,0.002316
theatr,0.005706
thi,0.001510
time,0.003574
topic,0.006409
toplevel,0.006561
total,0.002818
tourism,0.009397
transport,0.010387
uniqu,0.003444
utc,0.006879
valley,0.004671
volcano,0.005974
water,0.003115
waterfal,0.006818
websit,0.003819
wikimedia,0.005629
wildlif,0.005755
world,0.004095
zealand,0.024013
zone,0.008349
