abajvr,0.010361
abbasid,0.006024
abl,0.014926
abov,0.002521
absorb,0.003937
accept,0.002472
accompani,0.003807
accord,0.003938
account,0.002319
accumul,0.003778
accustom,0.006649
achiev,0.002477
acknowledg,0.003797
acquir,0.003207
actual,0.007562
adapt,0.003136
add,0.003755
admit,0.004153
adopt,0.002717
adriat,0.006916
advanc,0.009730
advantag,0.003057
affect,0.007721
afterward,0.008676
age,0.004933
agent,0.003358
agricultur,0.005854
agw,0.010361
aid,0.005909
aim,0.002812
alan,0.004175
alexand,0.003773
alli,0.007275
allianc,0.011050
allow,0.001958
alon,0.003368
alongsid,0.004096
alreadi,0.002869
ambush,0.012546
american,0.002231
analysi,0.002374
anatolia,0.005925
ancestor,0.004233
andrew,0.004000
ani,0.003471
annihil,0.005586
anoth,0.005683
anywher,0.004820
appanag,0.009392
appar,0.003362
appeal,0.007336
appear,0.002281
appoint,0.003237
april,0.012052
apulia,0.008599
area,0.005868
argu,0.002620
arid,0.005743
arm,0.006280
armi,0.135508
armor,0.011774
aros,0.003911
arpad,0.009239
arriv,0.009511
arrow,0.005056
asen,0.027718
asia,0.010145
asian,0.003752
ask,0.009767
assault,0.015148
assert,0.003383
assign,0.003537
associ,0.001923
asylum,0.017112
atlant,0.004173
atroc,0.005941
attack,0.038105
attempt,0.006739
attend,0.003758
attent,0.003211
attest,0.005185
austria,0.022783
austrian,0.018870
author,0.002217
autumn,0.005240
avar,0.007370
aveng,0.007098
avoid,0.002941
award,0.003472
away,0.003000
bacon,0.005280
bad,0.004040
balkan,0.005586
bank,0.005696
bashkir,0.009777
basin,0.004679
battl,0.081831
batu,0.224606
becam,0.006512
becaus,0.005363
becom,0.005703
befor,0.014197
began,0.011856
bela,0.008312
believ,0.004912
benefici,0.004358
berk,0.118254
berthold,0.007982
besieg,0.005871
better,0.010712
betterarm,0.010361
bing,0.007214
bistria,0.010032
bitter,0.005373
bla,0.142870
blockad,0.005438
blood,0.007734
blue,0.004233
bodyguard,0.007120
bog,0.006879
bomb,0.004496
booti,0.007618
border,0.020990
born,0.003354
bow,0.011669
boyar,0.008250
branch,0.002525
braov,0.009568
break,0.003273
breed,0.004762
breslau,0.008250
brilliant,0.005879
britannica,0.004829
broke,0.004072
brother,0.007965
brunt,0.007618
buda,0.017551
budapest,0.006550
build,0.012565
bulgaria,0.021533
bulgarian,0.018232
bull,0.005480
burn,0.008141
burundai,0.010361
bytom,0.010361
byzantin,0.019543
byzantium,0.006123
c,0.004545
caffa,0.010361
caliph,0.005378
came,0.010402
camp,0.012910
campaign,0.032134
capabl,0.006264
capit,0.007760
captur,0.016329
care,0.002988
carpathian,0.037596
carpin,0.009104
carpini,0.028705
case,0.001988
castl,0.016179
casualti,0.010421
catapult,0.006954
catastroph,0.004720
cathedr,0.005634
caucasu,0.011612
caus,0.006368
cavalri,0.064024
center,0.002536
central,0.031215
centuri,0.014297
ceremoni,0.008781
challeng,0.002841
chang,0.001793
charter,0.004278
chase,0.005408
chernihiv,0.009568
china,0.012223
chines,0.017095
christendom,0.006458
christian,0.006165
christma,0.005604
chronicl,0.010019
churchil,0.005902
circul,0.004161
citi,0.027469
citizen,0.003255
citizenship,0.004957
civil,0.005456
claim,0.016901
clear,0.008881
climat,0.006792
coin,0.003293
cold,0.003791
colder,0.005965
collect,0.004640
coloni,0.003289
column,0.031634
combat,0.004175
come,0.002275
command,0.020024
commit,0.003334
common,0.003847
complet,0.004394
concern,0.002233
condit,0.006677
conflict,0.008888
confront,0.013184
conquer,0.034458
conqueror,0.005849
conquest,0.017145
consider,0.002673
constantin,0.005757
constantinopl,0.005502
contend,0.004585
continu,0.007710
contrari,0.004160
contrast,0.002687
control,0.004227
convert,0.003242
cooper,0.003040
corrupt,0.003905
costli,0.004957
counter,0.004301
counterattack,0.006385
counterinvas,0.010032
counterpart,0.004265
countri,0.018842
countrysid,0.015644
court,0.006034
cousin,0.026159
cracovian,0.010361
creat,0.001945
credit,0.006157
crimea,0.006954
croat,0.007457
croatia,0.028521
croatian,0.032550
crop,0.003933
cross,0.006944
crusad,0.005398
crush,0.019467
cultur,0.004784
cuman,0.070260
curtail,0.005771
cut,0.003377
czar,0.007891
czarna,0.010361
da,0.004234
dalmatia,0.037287
dalmatian,0.007982
danger,0.003736
danub,0.019086
danylo,0.010361
darughachi,0.010361
data,0.002538
daughter,0.008732
day,0.004801
deadliest,0.007076
deal,0.002562
death,0.022290
decad,0.005783
decemb,0.014597
decid,0.009301
decim,0.005307
decis,0.002682
defeat,0.120447
defend,0.007118
defens,0.017458
defenseless,0.008599
del,0.004803
delay,0.004063
deliv,0.003749
dens,0.009057
deploy,0.017221
depopul,0.006510
descend,0.003850
descent,0.004563
descript,0.002908
desert,0.004523
despit,0.005395
destroy,0.026614
destruct,0.007530
detach,0.015531
determin,0.002209
detriment,0.005227
devast,0.018067
did,0.014169
die,0.027434
difficulti,0.003435
diffus,0.004346
directli,0.002556
disastr,0.005563
disciplin,0.002931
discontinu,0.004829
disput,0.006399
dissolv,0.003951
distanc,0.003387
distract,0.005710
district,0.007696
dnieper,0.007891
domain,0.003107
domin,0.005235
dominican,0.005723
donat,0.004765
dri,0.008333
drink,0.004717
drive,0.003418
drop,0.003491
drown,0.006339
duchi,0.006200
duke,0.035118
dure,0.038457
earli,0.005747
earliest,0.003201
easili,0.003281
east,0.011778
eastern,0.019074
eastward,0.005864
econom,0.004192
effect,0.003721
effort,0.010610
egypt,0.004044
eighteen,0.005684
elect,0.014124
element,0.002435
elementsnot,0.010361
elimin,0.003312
elit,0.004253
emperor,0.004224
empir,0.018707
employ,0.005081
enabl,0.003037
encamp,0.014797
enclos,0.005202
encount,0.003772
encyclopdia,0.004968
end,0.010470
engag,0.006066
english,0.002667
englishspeak,0.005249
enrag,0.007238
ensur,0.003146
entir,0.002484
entiti,0.003249
environ,0.005077
epidem,0.005316
escap,0.026918
especi,0.002224
estim,0.002695
esztergom,0.008684
euphrosyn,0.010032
europ,0.119466
european,0.050097
evacu,0.005236
eve,0.005604
eventu,0.002722
exampl,0.003430
execut,0.005802
exist,0.005713
expans,0.003231
expedit,0.008664
experienc,0.006877
explan,0.003371
extend,0.002526
extern,0.001497
fabric,0.004791
face,0.011499
fact,0.002431
fail,0.020157
fall,0.007843
fame,0.005042
famili,0.005304
familialrel,0.010361
far,0.007791
fare,0.005910
fatal,0.004978
fate,0.004836
father,0.003367
favor,0.003163
fear,0.003593
februari,0.003111
fehrvr,0.010361
feroci,0.007289
feudal,0.004947
field,0.004183
fiftysix,0.008446
fight,0.025156
fighter,0.005202
final,0.009909
finish,0.004407
firearm,0.005925
fled,0.027813
flee,0.004911
flek,0.010032
flemish,0.006409
flood,0.009043
flourish,0.008430
follow,0.004915
fond,0.006550
food,0.002947
footnot,0.005105
forag,0.005820
forc,0.049267
forcesaw,0.010361
foreign,0.005332
forest,0.011816
forgotten,0.005408
form,0.004696
formerli,0.003836
formid,0.011820
formula,0.003576
fort,0.015148
fortif,0.011528
fortifi,0.016814
fortress,0.022395
fought,0.004344
fragment,0.012084
frederick,0.018481
free,0.004678
fresh,0.004600
friar,0.006649
friend,0.004067
frustrat,0.005253
fulli,0.003087
furthermor,0.003509
futil,0.006241
futur,0.002494
gain,0.004983
galich,0.010032
galleri,0.005266
gave,0.002980
gedei,0.089842
gener,0.002943
genghi,0.020805
genocid,0.005541
genoes,0.007238
geograph,0.003330
georg,0.005903
georgia,0.004895
georgian,0.006316
german,0.005784
germani,0.003083
giovanni,0.005563
given,0.004108
glue,0.006897
goal,0.002817
god,0.003584
golden,0.058100
good,0.002277
gradec,0.009777
grand,0.003978
grandson,0.005737
grant,0.009419
grassland,0.017873
great,0.036932
greater,0.002579
greatest,0.003604
grip,0.006161
group,0.005542
gunpowd,0.042293
gyk,0.050161
gyr,0.008684
ha,0.005462
hacza,0.010361
half,0.005638
halt,0.009333
halych,0.009568
halychvolhynia,0.010032
hand,0.005075
handili,0.007982
harri,0.004307
hasten,0.012422
head,0.010576
hear,0.004318
heart,0.003759
heartland,0.006433
heathen,0.007618
heavi,0.014158
heavili,0.006603
heavyarmor,0.010361
help,0.015695
helpless,0.006775
henri,0.003301
hi,0.089981
hide,0.014544
high,0.002073
highrainfal,0.009777
hire,0.004471
histori,0.003411
historian,0.027609
holi,0.013009
hope,0.003487
hord,0.114296
horribl,0.007427
horror,0.005856
hors,0.017696
horsemen,0.007143
hostag,0.006077
hostil,0.008495
hothead,0.009777
howev,0.018283
huge,0.003808
hulagu,0.041886
human,0.001973
humid,0.005454
humili,0.006316
hundr,0.003111
hungari,0.197794
hungarian,0.116163
hungarycroatia,0.010361
hunt,0.004133
hurl,0.007519
ideal,0.003332
ii,0.021443
immin,0.005887
impact,0.002806
imperi,0.003989
impetu,0.005284
implement,0.002851
import,0.001746
importantli,0.004693
imposs,0.003463
improv,0.005040
includ,0.005686
increas,0.001969
incurs,0.005563
india,0.003135
individu,0.002112
infam,0.005910
infantri,0.005535
inferior,0.004985
infight,0.006861
inflict,0.011150
influenc,0.002255
initi,0.013351
insid,0.003434
inspir,0.003388
instead,0.007196
instil,0.006421
intend,0.003170
intens,0.003401
intent,0.003446
interpret,0.002732
intervent,0.003716
introduc,0.002402
invad,0.061443
invas,0.171791
invent,0.003332
invest,0.002916
investor,0.003901
invit,0.004220
involv,0.001985
islam,0.010228
isol,0.003325
italian,0.015371
iv,0.066683
ivailo,0.020722
ivan,0.011015
jack,0.004842
janibeg,0.020722
januari,0.008768
jewish,0.004245
jheli,0.010361
jochi,0.039108
john,0.004659
join,0.003046
journey,0.009519
julianu,0.009239
just,0.002388
justifi,0.004118
kadan,0.027314
kaliman,0.010361
karakorum,0.017968
keegan,0.008191
kenneth,0.004595
khadan,0.010361
khagan,0.007766
khan,0.234546
khanat,0.054069
khatun,0.009777
kiev,0.027590
kill,0.030427
king,0.061977
kingdom,0.035414
kipchak,0.016893
kli,0.017750
knight,0.071807
knightdetach,0.010361
knightli,0.009239
knowledg,0.002575
known,0.008555
komrom,0.009392
kotoni,0.020722
kozelsk,0.010361
krakw,0.031931
kulikovo,0.009568
kun,0.007982
kurultai,0.009392
kuthen,0.010361
kypchak,0.010361
lack,0.005221
ladislau,0.008031
land,0.025915
languag,0.002573
larg,0.009022
laskarina,0.010361
late,0.002370
later,0.010181
latin,0.003218
launch,0.010345
lay,0.003853
lead,0.010214
leader,0.005988
leadership,0.018575
learn,0.011505
leav,0.005799
led,0.015469
left,0.008188
legend,0.004823
legnica,0.050161
lesser,0.004197
lesson,0.009612
leszek,0.008191
letter,0.006760
light,0.011291
lightarmor,0.010032
lightcavalri,0.010361
like,0.005486
link,0.002977
literatur,0.003059
lithuania,0.011669
littl,0.007861
live,0.011069
lka,0.010361
local,0.018552
locat,0.005034
logist,0.004941
long,0.006669
longer,0.008471
longterm,0.003603
loom,0.006221
loot,0.023196
lose,0.003601
loss,0.005989
lost,0.017852
low,0.002624
lublin,0.022557
lure,0.006563
magnat,0.020921
magyar,0.028666
main,0.013005
major,0.009082
maju,0.008031
make,0.001741
mamluk,0.020583
mamlukcontrol,0.010361
manag,0.007356
mani,0.013927
map,0.003132
march,0.014195
margaret,0.005002
maria,0.005060
marriag,0.004328
marsh,0.005871
marshi,0.008377
mass,0.002807
massiv,0.003643
mastermind,0.014914
matter,0.002575
mazovia,0.010032
mean,0.001885
meet,0.005540
mele,0.007690
member,0.002184
men,0.019048
menac,0.006605
mention,0.003314
merci,0.005925
mercilessli,0.009239
messag,0.004254
messeng,0.010856
method,0.002120
michael,0.012603
mid,0.003409
middl,0.005645
midth,0.004224
migrat,0.003658
mile,0.003979
militari,0.013848
milutin,0.008984
mind,0.003228
minimum,0.003734
minor,0.003168
mint,0.005604
missionari,0.004848
mngke,0.027314
mobil,0.007273
modernday,0.004873
mohi,0.081942
moldavia,0.016271
moldavian,0.008031
moment,0.003895
money,0.003059
mongk,0.009239
mongol,0.666929
mongolbulgarian,0.010361
mongolcontrol,0.010032
mongolia,0.041591
mongolian,0.027373
monk,0.005064
month,0.009074
moral,0.003425
moravia,0.007238
moson,0.010361
mostli,0.002921
mountain,0.014734
muscovi,0.007982
muslim,0.011486
mysteri,0.004519
near,0.011260
nearbi,0.004213
nearli,0.005964
need,0.004116
negoti,0.003583
neighbor,0.003862
neustadt,0.018209
new,0.006117
newli,0.003602
news,0.003736
night,0.008398
nobil,0.010680
nobl,0.004452
nogai,0.138592
nomad,0.037024
nomin,0.003573
north,0.019028
northern,0.012802
notabl,0.002627
nourish,0.006284
number,0.010276
numer,0.005072
nyitra,0.010032
object,0.002340
occup,0.010702
occupi,0.013729
ocean,0.003523
offer,0.005091
ogotaj,0.010361
oldest,0.003703
onc,0.005116
onli,0.020487
open,0.004687
oper,0.006479
opportun,0.003233
opu,0.006190
orda,0.009777
order,0.007546
organ,0.001867
origin,0.001897
outcom,0.007000
outmatch,0.009104
outskirt,0.007289
overal,0.003133
overran,0.006935
pacifi,0.006591
palaeologu,0.010032
panic,0.005743
pannonhalma,0.010361
pannonia,0.023299
pannonian,0.007936
papaci,0.006695
parentag,0.007766
parti,0.007937
particularli,0.002401
partli,0.003681
pass,0.007979
pastur,0.006421
pastureland,0.008191
pathway,0.004597
pay,0.006392
peopl,0.011325
pereiaslav,0.010361
perhap,0.003182
period,0.004068
person,0.004480
pest,0.006007
philosoph,0.003005
pian,0.008875
pictur,0.003832
piou,0.006791
plain,0.031318
plan,0.007778
plausibl,0.005117
play,0.002471
pleasur,0.005090
plunder,0.035276
podhal,0.010361
podolnec,0.010361
point,0.007943
poland,0.060804
polaniec,0.010361
pole,0.028455
polici,0.002533
polish,0.037003
polishgalich,0.010361
poni,0.007551
poorli,0.004533
pope,0.004814
popul,0.017051
populac,0.010836
port,0.003868
power,0.010045
pozsoni,0.009777
prawdin,0.010361
predominantli,0.004358
prepar,0.015920
present,0.003926
preserv,0.003309
prevent,0.002806
previou,0.005921
previous,0.005985
primari,0.010366
princ,0.033893
princip,0.018401
prison,0.008333
probe,0.004882
problem,0.002099
professor,0.003508
protect,0.002616
prove,0.009089
providenti,0.008520
prowess,0.006649
punit,0.006605
pursu,0.003570
pursuit,0.013278
qadan,0.010361
question,0.002465
quicker,0.006339
quickli,0.006391
rab,0.007551
raid,0.093492
rainfal,0.010806
ralli,0.005169
rampant,0.006221
ran,0.004394
rank,0.003314
rapidli,0.003309
ravag,0.024419
reach,0.007591
real,0.002584
realiz,0.010444
reason,0.013407
rebel,0.004523
rebellion,0.008891
rebuilt,0.005990
recal,0.004814
receiv,0.007136
recip,0.006397
reclaim,0.011626
record,0.005248
reduc,0.002358
reestablish,0.004742
refer,0.002490
reform,0.003045
refug,0.005312
refus,0.003633
regain,0.004782
regard,0.004777
regardless,0.003763
regenc,0.013155
reghin,0.010361
region,0.006688
regroup,0.013127
reign,0.012916
reject,0.003069
rel,0.004464
relat,0.001678
relief,0.004439
remain,0.006177
repair,0.004432
repel,0.005403
repli,0.005121
repuls,0.005496
request,0.003784
resist,0.025811
respect,0.002367
respons,0.002159
rest,0.008751
restor,0.003521
result,0.001734
resum,0.009524
retain,0.003274
retir,0.004236
retreat,0.048089
return,0.017639
reunit,0.005778
rich,0.007140
ride,0.010826
right,0.002234
ring,0.008434
river,0.034041
roger,0.004175
rogeriu,0.009392
role,0.002181
romanian,0.006024
roughli,0.006985
rout,0.011245
royal,0.016426
ru,0.044782
rubruck,0.008031
ruin,0.004951
rule,0.004545
ruler,0.012480
rumor,0.006151
rush,0.005438
russia,0.018296
russian,0.007290
ruthenia,0.008446
ruthenian,0.008377
ruthlessli,0.008312
ryazan,0.019136
s,0.001765
sack,0.025907
safe,0.004070
saint,0.004163
saj,0.008446
sajo,0.020722
sandomierz,0.020722
save,0.007071
saxon,0.006664
say,0.002697
scale,0.002818
schwarz,0.006973
scz,0.029331
sea,0.003176
search,0.003186
second,0.014304
secur,0.005290
semitemper,0.010361
sent,0.037962
serbia,0.010887
serbian,0.012462
sergeant,0.006791
seri,0.004960
seriou,0.003488
servitud,0.006649
set,0.005786
setback,0.005771
settlement,0.021801
sever,0.012645
shamanist,0.007848
share,0.002426
sharpli,0.004898
shift,0.003017
ship,0.003532
shore,0.004734
shortag,0.004521
shorter,0.004432
shortli,0.003875
sieg,0.025805
sieradz,0.031083
signific,0.004424
significantli,0.003195
silesia,0.007289
silistra,0.008875
similar,0.004138
simpl,0.002753
simpli,0.002827
simultan,0.003631
sinc,0.003465
sinew,0.008875
sir,0.003911
sit,0.004580
situat,0.005335
skirmish,0.006273
slaughter,0.011501
slavic,0.006068
slope,0.005002
small,0.010602
smaller,0.002946
snow,0.005368
soft,0.004424
soldier,0.011828
sometim,0.002255
son,0.026542
song,0.004595
sopron,0.009777
sourc,0.006539
south,0.013568
southeastern,0.005383
southern,0.009648
speak,0.003322
specif,0.002073
speed,0.003543
spent,0.007660
spi,0.011774
spiritu,0.007985
split,0.007122
spring,0.011725
springtim,0.008446
squadron,0.011743
st,0.002793
stage,0.003026
stari,0.028705
start,0.017547
state,0.006064
stay,0.003792
stefan,0.005933
stepp,0.012032
stiff,0.005864
stone,0.003870
stood,0.004661
stop,0.013693
storm,0.004854
strateg,0.007564
strategi,0.006455
strategist,0.013359
strengthen,0.003919
stretch,0.004368
subjug,0.005902
submit,0.004340
subsequ,0.008112
subsid,0.005140
subutai,0.068439
success,0.016085
successor,0.007784
succumb,0.006241
suffer,0.018976
summer,0.020044
superior,0.003857
suppli,0.002824
support,0.002060
supposedli,0.005289
suprem,0.003548
supremaci,0.005665
surplus,0.006142
surpris,0.013670
surrend,0.009547
surround,0.003173
surviv,0.008965
suspend,0.004307
sustain,0.003389
suzdalia,0.010361
svetoslav,0.010361
swamp,0.006328
swept,0.011331
swift,0.005771
swiftli,0.006409
systemat,0.006621
szkeli,0.009392
tabl,0.003334
tactic,0.041471
taken,0.002537
talabuga,0.082889
talent,0.005121
tana,0.008599
target,0.003226
tatar,0.022196
tatarmongol,0.010361
taught,0.003863
tax,0.003256
temperatur,0.003503
templar,0.015380
terrain,0.010330
terribl,0.005990
territori,0.027297
th,0.013908
thcenturi,0.003995
theater,0.005598
theben,0.010361
thenpopul,0.010361
theodor,0.004742
theori,0.002031
thereaft,0.004530
therebi,0.003586
thi,0.024626
thousand,0.012223
thrace,0.035717
threat,0.007269
threaten,0.003940
threemonth,0.007370
throne,0.004888
thu,0.010128
tie,0.003380
tihani,0.010361
time,0.009199
today,0.002489
togeth,0.002389
took,0.016242
torzhok,0.010361
total,0.002417
tower,0.005067
town,0.021350
tradesmen,0.007487
tradit,0.004364
train,0.005984
traitor,0.007055
translat,0.002983
transylvania,0.021869
trebizond,0.008520
tree,0.007138
tregen,0.010361
tri,0.002727
tribe,0.004265
tribut,0.005169
trip,0.004788
triumph,0.005393
trogir,0.010361
troop,0.019556
tropic,0.004422
true,0.002805
tsar,0.025637
tumen,0.034397
turkic,0.044218
turmoil,0.005403
turn,0.011978
twice,0.004130
tych,0.010032
ukrain,0.005177
ultim,0.002997
unabl,0.007202
unarm,0.006808
uncondit,0.005879
unexpect,0.005060
union,0.002574
unit,0.001747
unlik,0.002885
unscath,0.008082
unsuccess,0.008912
unsuspect,0.007727
untouch,0.006471
unwilling,0.006843
upper,0.003499
urgenc,0.006791
uro,0.009392
use,0.004247
uzbeg,0.010032
v,0.003089
valley,0.004007
valuabl,0.004067
vanquish,0.007584
variou,0.007890
vassal,0.011542
vasvr,0.010361
veri,0.001978
veszprm,0.009239
victori,0.016053
vienna,0.029747
viii,0.005518
virtual,0.003426
visit,0.006962
vlach,0.009104
vladimir,0.009862
voivod,0.009239
volga,0.007264
volodymyrvolynskyi,0.010361
volum,0.002968
vorskla,0.010032
wa,0.100877
wait,0.004698
wall,0.007338
wallachia,0.008377
wallachian,0.026625
war,0.014769
warfar,0.017579
warm,0.004428
warren,0.005060
warrior,0.010446
watch,0.008835
water,0.005346
way,0.005558
weak,0.003442
weaken,0.004340
weapon,0.007696
weaponri,0.005941
weather,0.016997
weatherford,0.009568
welcom,0.014347
wencesla,0.010361
went,0.003178
west,0.014877
western,0.036492
westward,0.005949
wet,0.005173
wetter,0.007143
whenev,0.004876
wholesal,0.005393
widespread,0.003329
widow,0.005842
wiener,0.011964
william,0.002776
winston,0.005842
winter,0.017175
wish,0.003831
wit,0.004220
withdraw,0.024990
withdrawn,0.010737
withdrew,0.009740
women,0.003297
won,0.003507
wood,0.003998
world,0.001756
wrote,0.002952
year,0.013990
young,0.003217
younger,0.004305
yuri,0.006181
zagreb,0.030338
zala,0.009392
zawichost,0.010361
zone,0.007163
