abdic,0.020381
abil,0.003102
abolit,0.005923
absolut,0.001912
accept,0.004246
access,0.001560
accomplish,0.002266
accord,0.002254
account,0.001327
achiev,0.009929
acquisit,0.002437
act,0.001288
action,0.013854
activ,0.002250
ad,0.002877
add,0.002150
addington,0.015637
addit,0.004562
adjust,0.002158
admir,0.008014
advanc,0.011140
advantag,0.005250
adversari,0.003344
aerial,0.006350
affair,0.005593
affirm,0.005443
afternoon,0.003781
age,0.007060
agent,0.003844
aggress,0.002512
agrarian,0.003057
agre,0.011899
agreement,0.003442
agricultur,0.001675
aid,0.003383
aim,0.008050
al,0.005802
alan,0.007170
alarm,0.006281
albert,0.002291
alexand,0.017282
aliv,0.002817
alli,0.077055
allianc,0.008435
allow,0.015697
alon,0.001928
alp,0.003642
alreadi,0.004927
amalgam,0.003276
ambassador,0.005533
ambit,0.002940
america,0.009481
american,0.007665
amien,0.034154
analys,0.002204
analysi,0.001359
ancien,0.008102
andalusia,0.004219
andr,0.002943
andrea,0.006000
andress,0.005931
andrew,0.004579
anger,0.002943
anglodutch,0.003981
anglofrench,0.004361
angloportugues,0.031274
anglorussian,0.009671
ani,0.006956
annal,0.003025
annex,0.005130
annihil,0.003198
anoth,0.008675
antifrench,0.004598
antwerp,0.007757
anxieti,0.002992
anyth,0.002228
apart,0.002066
appli,0.001205
applic,0.001346
appoint,0.001853
approach,0.001297
approxim,0.003073
april,0.013799
archduchess,0.005743
archduk,0.013407
archibald,0.003734
arcissuraub,0.005931
area,0.003359
arena,0.003116
argu,0.008999
aristocraci,0.003178
arm,0.030563
armament,0.007000
arme,0.010578
armi,0.215275
armistic,0.007195
arrang,0.005514
array,0.004920
arriv,0.005445
art,0.006899
arthur,0.009200
articl,0.001340
artilleri,0.027737
ascend,0.002954
ask,0.001863
aspernessl,0.011194
assembl,0.001760
assert,0.003873
asset,0.002084
assist,0.005043
associ,0.003304
assum,0.001562
assur,0.002568
asturia,0.004173
atlant,0.002389
attach,0.002134
attack,0.018179
attempt,0.012861
attent,0.005515
auerstdt,0.017794
auerstedt,0.005743
august,0.013707
austerlitz,0.031274
austria,0.065216
austrian,0.067519
austrorussian,0.017229
author,0.002539
autonomi,0.002356
auxiliari,0.006363
avail,0.001378
avoid,0.003368
away,0.006870
b,0.002986
baciocchi,0.005931
background,0.001936
badajoz,0.005080
badli,0.006130
balanc,0.003569
balkan,0.003198
balloon,0.003505
baltic,0.003188
bamford,0.005597
barclay,0.003734
base,0.003929
batavian,0.004758
batric,0.005477
battl,0.104341
battlefield,0.009545
bautzen,0.005931
bavaria,0.023887
bear,0.002110
beat,0.002859
beaten,0.003469
beauharnaiss,0.005931
becam,0.013670
becaus,0.004093
beck,0.003479
becom,0.004353
befor,0.011611
began,0.019006
begin,0.010605
begun,0.002161
belgium,0.008005
belief,0.003639
believ,0.001406
bell,0.007896
belliger,0.003897
berat,0.004923
berezina,0.005931
berlin,0.007264
bernadott,0.015868
berthier,0.011486
besieg,0.013446
best,0.002996
bibliographi,0.001977
big,0.002058
biographi,0.013112
birth,0.002003
black,0.001834
blcher,0.016130
block,0.006075
blockad,0.034249
bloodiest,0.004402
bloodless,0.003555
blow,0.002880
bolster,0.003288
bombard,0.003017
bonapart,0.054936
book,0.003876
bookkeep,0.003726
border,0.006008
borodino,0.005376
bothnia,0.005143
boulogn,0.009591
bound,0.002034
boundari,0.001898
bourbon,0.022594
bra,0.004543
braganza,0.004835
braveri,0.004188
brazil,0.012147
brazilian,0.003134
breach,0.003076
break,0.007496
brian,0.002780
bring,0.008450
brink,0.003757
britain,0.135988
britannica,0.013825
british,0.124478
briton,0.007468
broke,0.002331
broken,0.002266
brother,0.009119
brotherinlaw,0.003878
brought,0.006703
bruce,0.002793
brumair,0.004877
brune,0.005376
bruun,0.005143
bryant,0.003992
bt,0.004051
budget,0.002128
buffer,0.003188
build,0.002877
built,0.001694
bulk,0.004820
bureaucraci,0.006055
burgo,0.010047
burnt,0.003494
busi,0.001532
butnapoleon,0.005931
c,0.007806
cadiz,0.009086
came,0.011910
campaign,0.055189
campo,0.004203
canada,0.001950
cann,0.004543
capabl,0.003586
capac,0.003775
cape,0.020019
capit,0.002961
capitul,0.007547
captur,0.022435
carlo,0.002591
carnot,0.011814
carolin,0.003567
carri,0.001467
case,0.002277
cassel,0.008102
casualti,0.020880
catastroph,0.002702
catch,0.002741
categor,0.002314
cathol,0.002198
catriona,0.005597
caught,0.002804
caus,0.007292
cautiou,0.003484
cavalri,0.013328
cdiz,0.004304
cede,0.005828
central,0.010211
centralis,0.003555
centuri,0.008184
certain,0.001246
challeng,0.003253
chamber,0.002416
chanc,0.002192
chandler,0.007409
chang,0.004106
channel,0.004495
characteris,0.002729
charg,0.003514
charl,0.019183
chatham,0.004543
chaumont,0.005931
choic,0.001789
choke,0.004342
christi,0.004089
christoph,0.002386
chunk,0.003629
church,0.002057
circumst,0.002091
citi,0.004717
citizen,0.001863
cityst,0.003195
ciudad,0.004381
civil,0.006248
civilian,0.011836
claim,0.001382
clash,0.002710
class,0.003020
clear,0.003389
clearli,0.002047
client,0.015734
close,0.002436
clung,0.004402
coalit,0.156669
coalitieoorlogen,0.005931
coast,0.004156
coastlin,0.002832
code,0.007048
cog,0.004027
coincid,0.002449
collaps,0.008024
collect,0.002656
colloqui,0.003168
coloni,0.022596
colour,0.002599
column,0.002587
combat,0.009561
combin,0.009089
come,0.005209
command,0.028659
commanderinchief,0.003162
commerc,0.002269
commerci,0.001744
commit,0.009543
common,0.001101
commun,0.002381
compar,0.004040
compass,0.002934
compel,0.005692
compens,0.002301
compet,0.001877
complain,0.002956
complet,0.002515
complex,0.002665
compon,0.001568
comprehens,0.002006
compromis,0.005236
concentr,0.003564
concept,0.002541
concern,0.002557
concert,0.006141
concess,0.005760
conclud,0.005587
concurr,0.005616
condit,0.002548
conduct,0.001560
confeder,0.021746
confisc,0.003198
conflict,0.016962
confront,0.005031
confus,0.002049
congress,0.016324
conquer,0.004931
conquest,0.012269
conscript,0.022937
consensu,0.002271
consequ,0.004645
conserv,0.001807
conservativehierarch,0.005931
consid,0.004248
consider,0.003061
consist,0.006094
consolid,0.007173
constabl,0.003815
constant,0.007242
constitut,0.004314
consul,0.006015
consum,0.001813
contest,0.002396
context,0.001602
contin,0.018774
continent,0.050934
continu,0.015449
contrari,0.002381
contrast,0.003076
contribut,0.004010
control,0.018150
conveni,0.002431
convent,0.001763
convinc,0.002424
cookson,0.005289
copenhagen,0.003236
core,0.003868
corp,0.016120
corrupt,0.002236
corunna,0.005931
cossack,0.004173
cost,0.004803
count,0.006231
counterattack,0.003655
countermand,0.011486
counterord,0.005931
counterpart,0.002442
countri,0.008389
countrysid,0.002985
coup,0.002480
cours,0.003174
court,0.003454
crack,0.003030
creat,0.008911
creation,0.001657
crimin,0.002306
crippl,0.003344
crisi,0.001879
cross,0.007951
crossroad,0.003469
crown,0.004717
crush,0.005572
cs,0.002782
culmin,0.002413
cultur,0.008216
cumbersom,0.003749
currenc,0.001995
curtail,0.003303
cut,0.003867
d,0.004423
dam,0.003073
damag,0.005896
danish,0.011521
danonorwegian,0.010578
danub,0.003642
danzig,0.008848
data,0.001453
date,0.004566
davey,0.004971
david,0.011324
davout,0.023726
day,0.016492
dead,0.002283
dealt,0.002729
death,0.001595
debt,0.002111
decad,0.004966
decemb,0.010027
decept,0.003201
decid,0.008874
decis,0.004606
declar,0.022868
declin,0.001729
decre,0.007846
deep,0.002027
deeper,0.002721
defeat,0.094812
defect,0.002688
defenc,0.004434
defend,0.002037
defin,0.001249
definit,0.001440
delay,0.006978
demand,0.006504
democraci,0.002028
demolish,0.003773
demonstr,0.003274
deni,0.002111
denmark,0.026716
denmarknorway,0.004517
departur,0.002797
depend,0.001201
deplor,0.004188
deploy,0.007394
depot,0.003712
depriv,0.002925
describ,0.001120
desert,0.010359
deserv,0.006451
desir,0.001714
desper,0.003218
despit,0.006177
destabil,0.003392
destroy,0.009522
destruct,0.006466
detach,0.002963
determin,0.003794
devast,0.002585
develop,0.000910
diari,0.003406
dictatorship,0.005886
dictionari,0.004416
did,0.010815
die,0.005235
differ,0.000965
difficult,0.001588
difficulti,0.001966
digbi,0.004877
diplomaci,0.006130
diplomat,0.006491
direct,0.006046
directori,0.006114
disadvantag,0.005401
disast,0.012579
disastr,0.006370
disclaim,0.004269
diseas,0.001907
disord,0.002347
dispers,0.002499
display,0.002069
disput,0.001831
disrupt,0.011734
dissolv,0.009048
distinct,0.001402
distract,0.003269
distribut,0.001502
ditali,0.005931
divid,0.002888
divis,0.001578
doiacprofoso,0.004971
domin,0.005994
dominiqu,0.003959
donald,0.002567
doubl,0.004032
dowd,0.004627
downer,0.004758
dozen,0.002547
draft,0.004701
drag,0.003153
dragoon,0.005212
drain,0.003140
dramat,0.006170
draw,0.001867
dream,0.002629
dresden,0.004089
dri,0.002385
drill,0.006035
drive,0.005870
driven,0.002120
drove,0.008849
dtat,0.002922
du,0.005148
dual,0.002567
duchi,0.031949
duke,0.008616
dupuy,0.009140
dure,0.031451
dutch,0.004473
duti,0.004334
dwyer,0.010161
e,0.005903
eager,0.003340
earl,0.003315
earli,0.008773
earlier,0.001620
earth,0.001721
eas,0.002524
easi,0.004453
east,0.006743
eastern,0.009099
econom,0.014399
economi,0.002994
ed,0.015350
edit,0.001716
effect,0.009586
effici,0.001716
effort,0.009111
egypt,0.011577
ehrman,0.005143
elba,0.040191
elder,0.002694
elector,0.007057
element,0.001394
elev,0.002446
elimin,0.003792
elisa,0.004116
elit,0.002434
elsewher,0.004520
elt,0.004971
embargo,0.003292
emerg,0.007026
emperor,0.019346
emphasis,0.005909
empir,0.042839
employ,0.004363
en,0.002694
enabl,0.001738
enact,0.004861
encourag,0.001802
encroach,0.003379
encyclopdia,0.011376
encyclopedia,0.001888
end,0.037164
endeavour,0.003165
endur,0.005352
enemi,0.041661
enfant,0.005023
enforc,0.006166
engag,0.012154
english,0.003054
enjoy,0.004174
enlarg,0.008402
enlighten,0.002394
enlist,0.013737
enorm,0.004723
ensu,0.002680
ensur,0.007205
enter,0.009617
entic,0.003878
entir,0.007111
envelop,0.003195
equal,0.001493
equip,0.007841
era,0.005197
erect,0.002973
erfurt,0.005080
ernest,0.002821
erster,0.005931
escal,0.002840
escap,0.008805
escarp,0.009196
esdail,0.026061
especi,0.007639
essay,0.002124
essenc,0.002476
essenti,0.001524
establish,0.007021
et,0.007539
eugn,0.004116
eurasian,0.006723
europ,0.049064
european,0.039605
evacu,0.029976
evalu,0.001899
event,0.002853
eventu,0.009350
everi,0.002744
everincreas,0.003704
exacerb,0.003035
exampl,0.000982
excerpt,0.057580
exchang,0.003099
execut,0.004982
exhibit,0.002069
exil,0.012521
exist,0.002180
expand,0.004653
expans,0.001850
expect,0.003013
expedit,0.002480
expel,0.002643
experi,0.004045
experienc,0.001968
explan,0.001930
explor,0.005012
explos,0.002430
extend,0.001446
extens,0.005922
extent,0.003608
extern,0.000857
extracontinent,0.005931
eylau,0.005931
face,0.008228
fact,0.001392
facto,0.005316
factor,0.002780
fail,0.026377
failur,0.005723
fall,0.004490
fals,0.006671
famili,0.001518
famou,0.001811
far,0.005947
fatal,0.002850
fate,0.002768
fathom,0.004361
favour,0.004312
fear,0.002057
featur,0.002965
februari,0.005344
felic,0.004689
fell,0.006353
felt,0.004629
ferdinand,0.002963
fernando,0.003406
fervent,0.004144
fewer,0.006975
fiction,0.002338
fiefdom,0.004342
field,0.020356
fifth,0.023350
fight,0.024689
figur,0.001623
final,0.012764
financ,0.006949
financi,0.004696
finish,0.002523
finisterr,0.005743
finland,0.011727
finnish,0.003379
fit,0.001996
flank,0.007380
fledgl,0.003690
flee,0.002811
fleet,0.026365
fleuru,0.005289
fluctuat,0.002448
focus,0.001526
follow,0.015944
fontainebleau,0.004657
food,0.001687
forag,0.003332
forc,0.098717
forcesit,0.005931
form,0.015235
formal,0.004401
format,0.003198
formio,0.005477
forrest,0.011783
fortifi,0.006417
fought,0.024870
fourth,0.014320
fox,0.003020
fraction,0.002294
franc,0.147711
francais,0.005023
francorussian,0.005289
francospanish,0.009671
frank,0.004591
frankfurt,0.006480
frans,0.005931
freder,0.003484
frederick,0.018515
free,0.004017
freeli,0.002550
french,0.197241
frenchbavarian,0.005931
frenchcontrol,0.021157
frenchdomin,0.011863
frenchmen,0.016411
frequent,0.001648
fresh,0.005267
fri,0.003510
friedland,0.017972
frigat,0.007453
frontier,0.010338
frontlin,0.011446
fulltim,0.003122
fund,0.001616
fundament,0.003002
furthermor,0.002009
futil,0.003573
futur,0.001428
fyodor,0.004269
g,0.006344
gain,0.005705
galicia,0.003970
gallah,0.005376
garrison,0.014855
gate,0.005676
gather,0.006132
gave,0.006824
gdp,0.002205
gener,0.007582
genoa,0.003635
geoffrey,0.003065
georg,0.008449
german,0.018214
germani,0.026481
germanywhich,0.005931
ghent,0.004051
global,0.004671
globe,0.002670
glover,0.004381
godechot,0.005597
gold,0.002038
golden,0.002375
good,0.001303
govern,0.010034
governor,0.002152
gradual,0.001884
grand,0.036439
gre,0.005289
great,0.021143
greater,0.002953
greatest,0.008253
greatli,0.007680
greenhil,0.005477
grievanc,0.007158
griffith,0.003494
grip,0.003527
gross,0.002292
grouchi,0.023726
ground,0.001706
group,0.002115
grow,0.001503
growth,0.001484
guarante,0.006452
guard,0.002450
guardsmen,0.005080
guerr,0.004219
guerrilla,0.026825
guid,0.006631
guillaum,0.003798
gulf,0.005304
gunboat,0.003927
gunther,0.013145
ha,0.000781
habsburg,0.003629
half,0.004841
hall,0.002224
hambledon,0.005289
hand,0.001452
hanov,0.008054
haphazard,0.004361
harbour,0.003015
harold,0.002813
harri,0.002465
harsher,0.004144
harvey,0.002973
hat,0.003280
haythornthwait,0.017794
hazen,0.005023
heart,0.002152
heavi,0.008105
heavili,0.005670
height,0.004675
heilsberg,0.005597
heir,0.006000
held,0.005545
helena,0.007232
help,0.002567
helvetian,0.005931
hfranc,0.005931
hi,0.057820
high,0.001187
higher,0.002787
highli,0.004630
histor,0.006585
histori,0.020508
historian,0.017781
historiographi,0.014878
historiqu,0.004877
hitandrun,0.004971
hofer,0.005143
hold,0.002824
holi,0.009930
holland,0.018326
holt,0.003579
home,0.001674
homogen,0.002640
hope,0.007985
hopeless,0.003938
hostil,0.007294
hotair,0.005143
hour,0.006181
hous,0.004718
howev,0.000951
hubri,0.004627
huge,0.004361
human,0.002259
hundr,0.010688
hurri,0.004158
husband,0.006108
hussar,0.005212
hyatt,0.004923
hyslop,0.005143
ian,0.002894
iberia,0.011136
iberian,0.019776
idea,0.001315
ideal,0.005723
ideolog,0.006644
ignor,0.002033
iii,0.006726
ill,0.002276
immigr,0.004666
impact,0.004820
imperi,0.011420
imperium,0.008986
implicit,0.002746
import,0.003000
impos,0.002016
impregn,0.004015
impuls,0.003005
inadequ,0.002784
incap,0.003159
incit,0.003521
includ,0.011394
incom,0.001795
inconclus,0.003415
inconveni,0.003773
increas,0.010147
increasingli,0.003457
indecis,0.012229
independ,0.016859
indi,0.002975
india,0.001795
indian,0.001940
indic,0.001442
individu,0.001209
industri,0.009368
ineffect,0.002966
inexperienc,0.003859
infantri,0.009506
inflict,0.009575
inflow,0.003212
influenc,0.002582
inherit,0.002174
initi,0.007643
innov,0.008123
inquiri,0.002338
insid,0.001966
inspir,0.001939
instal,0.004627
instead,0.002746
institut,0.002481
instruct,0.002207
insult,0.007000
intact,0.006010
integr,0.001414
intellectu,0.002011
intend,0.007260
intens,0.001947
intent,0.003946
intercontinent,0.003765
interdisciplinari,0.002410
interf,0.003340
interfer,0.004786
intern,0.005137
interpret,0.001564
interrel,0.002861
intervent,0.002127
introduct,0.003108
invad,0.028140
invalid,0.002943
invas,0.021380
investor,0.002233
involv,0.011366
ireland,0.004901
irrat,0.003020
irregular,0.002742
irrit,0.007021
isbn,0.001386
island,0.008689
isol,0.007614
issi,0.005597
issu,0.011323
itali,0.040090
italian,0.011000
iv,0.002545
j,0.007362
jacqu,0.002719
jame,0.004960
januari,0.003346
jean,0.002431
jeanbaptist,0.003178
jeanclment,0.005931
jena,0.017292
jenni,0.003888
jeremi,0.003093
jervi,0.004795
jo,0.002789
joachim,0.007366
john,0.009335
join,0.012207
jonathon,0.005289
joseph,0.005796
josephin,0.004543
journal,0.006032
jrme,0.004657
jstor,0.005899
juli,0.018628
june,0.025622
junta,0.003292
just,0.001367
justifi,0.002357
kagan,0.012756
kaluga,0.005597
karl,0.002205
keen,0.003229
kennedi,0.003119
kept,0.004225
kevin,0.009228
key,0.002983
kill,0.003871
king,0.022409
kingdom,0.034309
knight,0.008809
knigsberg,0.004158
knock,0.007146
knot,0.003474
know,0.001776
known,0.002938
krieg,0.004835
kritika,0.011194
kutuzov,0.011486
la,0.005870
lack,0.008968
laid,0.002212
lampedusa,0.005477
land,0.025221
lane,0.002997
larg,0.015496
larger,0.010831
largest,0.006476
late,0.009500
later,0.009326
latin,0.005527
launch,0.005922
laveri,0.005289
law,0.001180
lawan,0.005931
lax,0.003781
lazar,0.008938
le,0.002335
lead,0.008187
leader,0.003428
leadership,0.002126
leagu,0.004810
leas,0.002959
leav,0.001660
led,0.022772
left,0.018750
legaci,0.007394
legal,0.003235
legend,0.002761
leggier,0.005931
legisl,0.001794
legitim,0.002434
leiberich,0.005931
leighton,0.004570
leipzig,0.013876
leisur,0.003215
lempir,0.004877
lengthi,0.003057
leo,0.002934
let,0.002196
letter,0.001935
leve,0.004381
level,0.002344
liber,0.007069
librari,0.001841
lieven,0.009591
life,0.001260
light,0.003232
ligni,0.015868
limit,0.004788
linch,0.017794
line,0.008417
link,0.001704
lisbon,0.006868
list,0.002179
littl,0.006000
littlefield,0.003742
live,0.003802
lloyd,0.003022
local,0.001327
logist,0.008486
london,0.003300
long,0.003818
longer,0.004849
longev,0.003510
longterm,0.004125
look,0.003236
lord,0.006959
lose,0.004123
loss,0.018858
lost,0.008516
loui,0.011059
louisiana,0.006775
lowintens,0.004570
ltgen,0.005597
ltzen,0.005143
lucca,0.004689
lull,0.004173
lunvil,0.011863
lyngr,0.005931
machin,0.005677
machineri,0.002417
mack,0.008439
macmillan,0.002677
madrid,0.009853
main,0.011167
mainland,0.005092
mainli,0.001627
maint,0.003134
maintain,0.006833
mainz,0.004219
major,0.019757
make,0.005980
maloyaroslavet,0.005931
malta,0.032294
manag,0.002807
mani,0.015060
manipul,0.002098
manoeuvr,0.007984
manpow,0.017220
manufactur,0.001869
map,0.003586
maratha,0.004361
march,0.027631
marengo,0.005597
marielouis,0.005080
market,0.002934
marri,0.002457
marshal,0.031174
martin,0.004149
mass,0.011251
massiv,0.004171
massna,0.005743
massproduc,0.003734
masteri,0.003532
materialis,0.004469
matthew,0.002842
maud,0.004269
mccormack,0.005212
mclynn,0.017794
meant,0.006031
measur,0.002567
mechan,0.001447
medic,0.001805
meet,0.001585
memoir,0.003162
memori,0.008155
men,0.083605
menofwar,0.005477
mercantil,0.003098
mercenari,0.003353
merchant,0.004655
messeng,0.003107
method,0.002427
metternich,0.005023
michael,0.003607
michel,0.002686
middl,0.004848
midth,0.002418
migrat,0.002094
mikaberidz,0.005743
mike,0.006509
mikhail,0.006175
mile,0.004556
militar,0.003458
militari,0.061838
militia,0.003033
militiamen,0.004342
million,0.043106
mind,0.001848
minist,0.003536
ministri,0.006322
minor,0.005441
miscalcul,0.009140
misfortun,0.004003
mislead,0.002963
miss,0.002472
mixtur,0.002450
mj,0.003815
mobil,0.008327
mobilis,0.003579
modern,0.005878
modest,0.002861
monarch,0.010354
monarchi,0.017587
money,0.003503
mont,0.002938
month,0.012121
moral,0.003921
moravia,0.004144
moreau,0.004469
morn,0.005696
moscow,0.016848
mostli,0.005016
motiv,0.007659
movement,0.002703
muir,0.008288
multipl,0.003015
munit,0.003591
murat,0.028338
musket,0.003773
n,0.001760
najaden,0.005931
napl,0.036693
napoleon,0.684321
napoleonisch,0.005931
narr,0.002579
nation,0.028238
nationalist,0.002541
nationst,0.003288
natur,0.001046
natusch,0.005931
naval,0.037087
navi,0.051610
nd,0.009118
neapolitan,0.013710
near,0.004834
nearli,0.003414
necessari,0.003124
necessit,0.003156
need,0.005891
negoti,0.010257
neighbour,0.002394
nelson,0.011846
nester,0.010424
netherland,0.018272
neuros,0.004723
neutral,0.004290
new,0.014008
newspap,0.002426
ney,0.014914
nicola,0.005872
niemen,0.005931
night,0.004808
nineteenth,0.002451
nomenclatur,0.002782
nonprussian,0.005931
nord,0.008288
north,0.012450
northern,0.003664
northward,0.003332
norway,0.016528
norwegian,0.003046
note,0.003390
noth,0.004148
novemb,0.012305
number,0.012746
numer,0.008712
ny,0.002836
object,0.002679
obtain,0.004570
occasion,0.004422
occup,0.006126
occupi,0.011789
occur,0.001245
octob,0.022033
offens,0.002731
offer,0.010202
offset,0.008550
old,0.003243
onc,0.007322
oneandahalf,0.005289
onli,0.011729
onlin,0.013723
onset,0.006030
open,0.001341
oper,0.016074
opinion,0.002083
oppon,0.007304
opportun,0.005554
oppos,0.004913
opposit,0.003225
order,0.010801
ordinari,0.002137
organ,0.002138
organis,0.003711
origin,0.003258
ostens,0.003175
otranto,0.005080
ottoman,0.005544
oudinot,0.011863
outbreak,0.008001
outnumb,0.009763
outpost,0.003415
output,0.002045
outrag,0.003374
outstrip,0.003726
overal,0.001793
overli,0.003137
oversaw,0.003383
oversea,0.004675
overthrew,0.003307
overthrow,0.005692
overview,0.001963
overwhelm,0.002628
overwhelmingli,0.003178
oxford,0.001841
p,0.002992
paddi,0.004286
paid,0.005995
palgrav,0.002909
paneuropean,0.004063
papal,0.003396
paper,0.001617
pari,0.021433
parker,0.003484
particip,0.006184
particular,0.002453
partit,0.002715
partner,0.002142
parttim,0.003449
past,0.003109
path,0.003974
patriot,0.002859
paul,0.001703
pave,0.002772
pax,0.003992
pay,0.001829
payment,0.002112
peac,0.043476
peak,0.017206
peasant,0.002732
penetr,0.005236
peninsula,0.020858
peninsular,0.047974
peopl,0.002161
percentag,0.002184
percept,0.002086
perform,0.001377
period,0.011646
perman,0.005698
persist,0.002222
person,0.007695
personnel,0.004844
peter,0.003574
petersburg,0.003527
phase,0.001884
philip,0.012045
philosophi,0.003337
physic,0.001282
pick,0.002551
piec,0.004328
piedmont,0.004689
piombino,0.005597
pit,0.006209
pitt,0.011007
place,0.003325
plan,0.005937
play,0.005660
pledg,0.002779
point,0.001136
pois,0.003878
poland,0.037487
pole,0.002715
polici,0.001450
polish,0.007944
polit,0.008611
polotsk,0.005143
pomerania,0.013338
poor,0.001937
pope,0.002756
popul,0.006972
popular,0.002804
port,0.002214
portug,0.018328
portugues,0.019960
pose,0.002387
posit,0.012777
possess,0.005283
possibl,0.003439
post,0.001902
postur,0.003429
potenti,0.002910
pound,0.002817
power,0.046007
powerhous,0.004039
pp,0.038479
preced,0.004258
precipit,0.002584
preemptiv,0.004173
prelud,0.003781
premier,0.002813
prepar,0.014582
prerevolutionari,0.009086
present,0.001123
presentday,0.002524
preserv,0.001894
presid,0.001625
press,0.005291
pressburg,0.005023
pressur,0.003383
prestig,0.002971
prevent,0.008034
previou,0.005084
previous,0.003426
primari,0.001483
primarili,0.001536
prime,0.001805
princ,0.004850
princip,0.007022
principl,0.001349
prior,0.001697
prison,0.004770
privat,0.001611
process,0.003187
proclaim,0.007627
proclam,0.009667
procrastin,0.004795
produc,0.003508
product,0.002342
profession,0.003642
profound,0.002563
progress,0.001531
promis,0.002111
proport,0.001858
propos,0.004160
protect,0.001497
protest,0.002088
prove,0.006938
provid,0.007977
provinc,0.002077
provok,0.005752
prussia,0.073215
prussian,0.091841
public,0.002263
publicli,0.002405
publish,0.002494
pull,0.005158
punish,0.002472
purchas,0.001911
pursu,0.002044
pyrene,0.004469
qualiti,0.003349
quarter,0.004675
quarterli,0.002747
quatr,0.005289
quickli,0.005488
quit,0.003798
r,0.007519
radic,0.004120
rage,0.003516
rain,0.002854
rais,0.001657
ran,0.002515
random,0.002144
rapid,0.001947
rapidattack,0.005931
rapidli,0.007579
rapport,0.008179
raszyn,0.011194
ravag,0.003494
rd,0.002012
reach,0.007243
reactionari,0.003549
read,0.001238
reader,0.002430
readi,0.007859
realis,0.011496
realiti,0.001938
rear,0.003188
rearguard,0.005023
reason,0.006396
rebel,0.002589
rebellion,0.005090
recal,0.002756
receiv,0.004085
recent,0.004937
recognis,0.004401
reconnoitr,0.005743
record,0.003004
recov,0.004388
recruit,0.002628
recur,0.003043
redefin,0.006306
redraw,0.004493
reduc,0.002700
reduct,0.002050
reemerg,0.003463
reenact,0.008153
reenter,0.003648
refer,0.003563
reform,0.005230
refus,0.012480
regain,0.005475
regard,0.002735
regiment,0.006424
region,0.002552
regroup,0.007515
regular,0.005858
reign,0.002464
reinforc,0.004855
reject,0.005271
rel,0.007668
relat,0.000961
releas,0.007125
reli,0.003435
reliev,0.002982
religi,0.001820
reloc,0.002938
remain,0.016504
remaind,0.007935
rememb,0.002616
reminisc,0.003429
remnant,0.002850
remot,0.002413
remov,0.003291
renew,0.004168
reoccupi,0.008504
reorder,0.004089
reorgan,0.002980
reorganis,0.011028
replac,0.004357
replenish,0.007146
report,0.001370
repres,0.001169
republ,0.021748
republican,0.002546
requir,0.003366
requisit,0.003463
reserv,0.011374
resist,0.003694
resiz,0.005023
resolut,0.002180
resourc,0.004329
respond,0.005767
respons,0.008654
rest,0.001670
restor,0.030237
restrict,0.006608
result,0.008936
resumpt,0.007366
resund,0.005143
retain,0.007498
retak,0.003704
retali,0.003128
retent,0.003315
retreat,0.046802
return,0.010098
reunit,0.003307
revers,0.003924
review,0.004791
revitalis,0.004323
revolt,0.002595
revolut,0.040613
revolutieoorlogen,0.005931
revolutionari,0.029490
revolutionaryegalitarian,0.005931
revolutionis,0.004252
rgime,0.007424
rhine,0.022184
rhineland,0.008260
richard,0.001760
rifl,0.003365
right,0.010232
riley,0.004076
rimini,0.005080
rinehart,0.004323
rise,0.005737
rival,0.002355
river,0.005846
road,0.004140
robert,0.004701
robinson,0.005845
robson,0.004469
rochefort,0.009943
rodrigo,0.004269
roger,0.002390
role,0.009989
roman,0.007648
rome,0.002433
root,0.001800
rori,0.009254
rose,0.006489
ross,0.005832
rostopchin,0.005931
rothenberg,0.014275
roughli,0.001999
rout,0.002146
routin,0.005117
routledg,0.002540
rowman,0.003841
royal,0.037615
rudimentari,0.006723
ruin,0.002834
rule,0.005204
ruler,0.004763
run,0.001566
russia,0.092176
russian,0.083474
rvolut,0.004758
s,0.003032
said,0.001464
sailor,0.006098
saint,0.007150
salamanca,0.008573
sam,0.003165
santand,0.004361
sardinia,0.008007
satisfact,0.008856
satisfi,0.002114
savag,0.003361
saw,0.005233
saxoni,0.026530
say,0.013899
scale,0.004840
scandinavia,0.003307
scarecrow,0.003938
scatter,0.002632
scheme,0.002145
schnbrunn,0.005743
schneid,0.023726
scholar,0.005430
scholarli,0.010092
schroeder,0.008205
scope,0.006286
scorch,0.004361
scorchedearth,0.005023
score,0.002612
scourg,0.004469
sea,0.023643
seal,0.002673
search,0.023718
seat,0.002109
second,0.008189
secondlargest,0.006803
secondli,0.003134
secret,0.004398
sector,0.001868
secur,0.012115
sedentari,0.003579
seed,0.002529
seiz,0.026957
semaphor,0.005080
semiindepend,0.004286
send,0.002229
sens,0.001466
sent,0.011854
separ,0.005209
septemb,0.010313
septemberoctob,0.004469
serfdom,0.007515
seri,0.004260
seriou,0.003993
serv,0.007094
servic,0.001388
set,0.003312
setback,0.003303
settlement,0.002080
seven,0.005611
seventh,0.014381
sever,0.011376
shape,0.003397
share,0.002778
shield,0.002795
ship,0.014157
shipth,0.005931
short,0.006079
shortag,0.002588
shorter,0.005075
shortli,0.002218
shrink,0.003125
sicili,0.006553
sick,0.002798
sidelin,0.003970
sieg,0.008863
sight,0.002645
sign,0.017966
signifi,0.002876
signific,0.005065
silesia,0.004173
simpli,0.001618
sinc,0.000991
singl,0.006638
singleday,0.005597
sir,0.002239
sister,0.005475
situat,0.003054
sixth,0.015802
size,0.009269
skill,0.001911
slightli,0.002150
slow,0.002048
small,0.010925
smaller,0.005060
smith,0.002101
smolensk,0.009517
smoother,0.004286
smuggl,0.006444
smuggler,0.004342
soar,0.003215
socal,0.002001
social,0.005047
societi,0.003728
societiesa,0.005597
sold,0.002094
soldier,0.049659
solid,0.002132
solidifi,0.003265
someth,0.001907
sometim,0.001291
soon,0.007276
sort,0.002080
sought,0.003865
soul,0.002561
sourc,0.003743
south,0.004660
southern,0.001841
sow,0.003981
spain,0.065351
span,0.004583
spanish,0.042907
spearhead,0.003463
spectat,0.003798
speed,0.002028
spell,0.002737
spent,0.002192
sphere,0.002220
spread,0.003507
spring,0.002237
spurt,0.004446
squad,0.003815
squadron,0.006723
st,0.012793
stabil,0.001850
stabl,0.003904
staff,0.002338
stage,0.006929
stalem,0.007111
stand,0.003728
standard,0.004008
start,0.006278
starv,0.003555
state,0.024304
station,0.002167
statist,0.001627
statu,0.003313
steadili,0.005233
step,0.001682
stephen,0.002203
steven,0.004999
stipul,0.003000
stirk,0.005931
stone,0.002215
stood,0.005337
stop,0.015678
stori,0.002010
storm,0.002779
strait,0.003113
strateg,0.010825
strategi,0.009239
stray,0.003781
strength,0.008048
strife,0.006538
strike,0.002206
string,0.002635
strip,0.002603
strong,0.004324
strongli,0.001912
strongmen,0.004627
structur,0.001159
struggl,0.006238
studi,0.003145
subject,0.002523
subjug,0.003379
subsequ,0.006192
subsidi,0.008290
subsidiari,0.003000
substanti,0.003683
succeed,0.008112
success,0.013155
suffer,0.010863
suggest,0.001388
suitabl,0.002202
sum,0.001978
summer,0.004589
superior,0.011040
superiorityor,0.005931
superpow,0.003410
suppli,0.022641
support,0.022410
supremaci,0.003243
surpris,0.005217
surrend,0.013664
surround,0.003633
surveil,0.006263
survey,0.007627
surviv,0.001710
sustain,0.005821
sutherland,0.003948
sweden,0.039648
swedish,0.010822
swedishnorwegian,0.005376
swept,0.003243
swiss,0.014153
switzerland,0.022883
sword,0.006501
t,0.005178
tactic,0.026379
taken,0.002905
talk,0.002134
task,0.001840
tauri,0.004203
tax,0.003728
taxpay,0.003311
techniqu,0.001524
temper,0.002992
temporari,0.002339
tendenc,0.002227
tenet,0.002920
tenuou,0.003781
term,0.008436
terribl,0.003429
territori,0.019100
text,0.022246
th,0.013650
theatr,0.014012
themselv,0.001471
thereaft,0.002593
thi,0.017066
thielmann,0.005597
thinli,0.004381
thirdlin,0.005931
thought,0.002811
thousand,0.003498
threat,0.008323
threaten,0.009022
throne,0.011195
thu,0.002319
thwart,0.003516
tie,0.003870
tilsit,0.025119
time,0.014043
tini,0.002676
titan,0.003458
titl,0.001780
tobago,0.003629
today,0.002850
togeth,0.004103
tolentino,0.005743
toler,0.002510
toll,0.003162
tolli,0.005931
tolstoy,0.003970
tomb,0.003159
took,0.018596
torr,0.003591
total,0.013841
town,0.004074
trade,0.015785
tradit,0.003747
trafalgar,0.013794
train,0.001713
transatlant,0.003510
transform,0.008119
trap,0.002599
travel,0.001751
treati,0.047648
trend,0.001894
trevor,0.003832
tri,0.006245
trigger,0.007239
triumph,0.003087
troop,0.038065
truce,0.003474
tsar,0.007338
turmoil,0.003093
turn,0.005485
twovolum,0.003981
tyrol,0.004627
tyroles,0.005931
uglow,0.005376
ulcer,0.003907
ulm,0.009517
ultimatum,0.003597
unabl,0.004123
unaccomplish,0.005931
unambigu,0.003353
unbroken,0.003719
uncommit,0.005080
underestim,0.003311
undermin,0.002629
undertak,0.002692
uneasi,0.011249
unfavour,0.003824
unfit,0.003841
unfortun,0.002859
unif,0.002821
unifi,0.002076
uniform,0.002300
union,0.002948
unit,0.011006
univers,0.001027
unleash,0.003719
unlik,0.003304
unmitig,0.005143
unpopular,0.003153
unpreced,0.002817
unprepar,0.004116
unquest,0.004286
unravel,0.003726
unreli,0.003178
unresolv,0.003370
unrest,0.002751
unstabl,0.002646
unsuccess,0.002551
unsuit,0.003527
unwil,0.003449
upris,0.002754
usag,0.002080
use,0.013780
usual,0.001193
v,0.003537
vacant,0.003610
vandamm,0.005597
variabl,0.001813
variou,0.002258
vedra,0.005477
venetia,0.005080
verg,0.003505
veri,0.003398
veteran,0.006040
vicin,0.003201
victor,0.008010
victori,0.041355
vienna,0.022706
view,0.001271
vii,0.006035
vilifi,0.004543
villag,0.004533
villeneuv,0.009671
violat,0.004389
violent,0.002449
visit,0.001993
vital,0.002215
vitoria,0.009446
voic,0.007093
vol,0.008528
volum,0.003398
von,0.004024
vow,0.003489
w,0.003329
wa,0.080526
wage,0.002179
wagram,0.027986
wait,0.005379
wake,0.005293
walcheren,0.005289
walker,0.003125
want,0.009157
war,0.293118
warfar,0.040255
wari,0.003655
warminist,0.005931
warsaw,0.017245
warsjourn,0.005931
water,0.001530
waterloo,0.031262
watermark,0.004657
wavr,0.010753
way,0.005303
weaken,0.009939
weaker,0.002824
weapon,0.004405
wear,0.002688
websit,0.001875
week,0.004170
welcom,0.002737
wellarm,0.004570
wellesley,0.018508
wellington,0.043553
wellord,0.004269
wellorganis,0.004877
wellrun,0.005477
welltrain,0.003948
wellwritten,0.009591
went,0.005458
west,0.006813
western,0.007461
westphalia,0.012390
whi,0.001825
wide,0.001277
widespread,0.003811
wife,0.002557
willi,0.003327
william,0.006358
win,0.004461
wing,0.008102
winston,0.003344
winter,0.004916
wit,0.004832
withdraw,0.016691
withdrawn,0.003073
withstand,0.003392
wittgenstein,0.003424
won,0.010040
word,0.002754
world,0.007040
worri,0.005845
wors,0.005456
wouldnt,0.003850
wound,0.005443
wrap,0.003323
write,0.001551
wrote,0.001690
xiv,0.003348
xvi,0.003505
xviii,0.012860
year,0.017019
younger,0.007394
z,0.002420
