academi,0.011947
achiev,0.007802
activ,0.006188
adapt,0.029627
addit,0.006274
adject,0.016951
advanc,0.007659
advantag,0.009626
age,0.023300
ago,0.072104
agreement,0.009466
alabama,0.059466
alaska,0.075042
alaskan,0.024333
alberta,0.019557
allow,0.012334
alongsid,0.012898
altern,0.007969
america,0.191218
american,0.028107
amerindian,0.104696
ancient,0.017971
andor,0.032559
anim,0.078127
anoth,0.005965
anthropolog,0.014060
anthropologist,0.015911
appear,0.014366
appli,0.006630
approxim,0.008451
aquat,0.033424
archaeogenet,0.027633
archaeolog,0.066395
archaeologist,0.051280
archaic,0.053347
arctic,0.017158
area,0.006159
arid,0.018086
arriv,0.009983
art,0.009487
artifact,0.014695
asia,0.010648
asian,0.011815
associ,0.018175
atla,0.014541
avail,0.015162
band,0.040456
base,0.005403
basin,0.014736
bce,0.082341
beaver,0.021334
becam,0.006835
becaus,0.005629
becom,0.005986
befor,0.031934
began,0.022401
believ,0.015469
belong,0.010566
bere,0.045909
beringia,0.157042
berri,0.020417
bifaci,0.027947
big,0.022646
biganim,0.032626
biggam,0.056581
bipoint,0.030130
bird,0.012765
bison,0.069893
bisonori,0.032626
blackwat,0.030786
blood,0.012178
boat,0.044723
bone,0.028052
bp,0.224821
bradshaw,0.023883
bridg,0.012354
british,0.016699
broadspectrum,0.030130
broke,0.012824
burial,0.016998
busi,0.008430
butcher,0.020846
c,0.114509
cactu,0.022567
california,0.011471
camel,0.019557
camp,0.013551
carib,0.020220
carolina,0.016875
carri,0.008074
caus,0.006685
ce,0.013723
center,0.007988
central,0.014041
centuri,0.006431
certain,0.013710
chang,0.022586
chile,0.016200
chip,0.033630
chromosom,0.032554
circumscrib,0.021181
classic,0.008275
classif,0.022103
classifi,0.020263
climat,0.032084
cloth,0.026188
clovi,0.115611
coast,0.045726
coastal,0.054619
coastlin,0.015580
collect,0.007306
colon,0.026580
columbia,0.027862
come,0.014328
common,0.006056
commonli,0.008318
commun,0.006549
composit,0.010384
consist,0.006704
construct,0.015514
contend,0.014439
contin,0.051634
continu,0.012139
contrast,0.008462
cordilleran,0.029575
core,0.010638
corridor,0.056592
cousin,0.016474
cover,0.016495
craft,0.015068
cross,0.010933
crow,0.019822
cultur,0.022596
current,0.006413
dakota,0.022217
dalton,0.018044
data,0.015989
databas,0.011719
date,0.050235
day,0.015118
debat,0.018652
densiti,0.012088
depart,0.026350
deplet,0.015633
deriv,0.007616
determin,0.006956
develop,0.005010
did,0.007436
die,0.009598
dieoff,0.030786
diet,0.014812
differ,0.005310
differenti,0.010143
direct,0.006652
directli,0.008049
disappear,0.012736
discuss,0.008173
distinct,0.023146
distribut,0.033062
divers,0.009634
dna,0.012928
doe,0.006778
draw,0.010269
dure,0.040365
earli,0.036193
earliest,0.060485
easili,0.010332
east,0.018545
eastern,0.020021
economi,0.008236
ecuador,0.019281
edibl,0.019463
effici,0.018886
el,0.043506
employ,0.007999
end,0.019782
enter,0.008817
environ,0.015989
episod,0.029625
erect,0.016354
eurasia,0.017574
europ,0.008178
european,0.007511
event,0.007848
eventu,0.017144
everi,0.007546
evid,0.074018
exact,0.011505
exampl,0.005401
exclus,0.010303
exhibit,0.011385
exist,0.011994
experienc,0.010827
expos,0.012080
extend,0.007955
extern,0.004715
extinct,0.027421
extrem,0.008651
factor,0.015294
fall,0.016465
famili,0.033404
far,0.016356
favor,0.009961
featur,0.008156
final,0.007800
fish,0.045010
fishtail,0.061573
flake,0.043323
flat,0.013793
flora,0.016302
flourish,0.013273
flute,0.066067
focu,0.017695
follow,0.025794
folsom,0.054157
food,0.037127
foodstuff,0.018610
foot,0.042037
forag,0.018327
forest,0.024805
foundat,0.008409
frame,0.024649
fresh,0.014486
fur,0.017821
gain,0.007846
game,0.044267
gather,0.022486
gene,0.012513
gener,0.018536
genet,0.043816
genograph,0.027078
geograph,0.031465
geolog,0.012324
giant,0.028204
given,0.006468
glacial,0.076102
glaciat,0.020583
glacier,0.016860
glacierfre,0.030786
gradual,0.010367
grassland,0.018760
great,0.014537
greek,0.009132
greenland,0.018735
groov,0.022717
ground,0.009384
group,0.081444
gulf,0.014589
ha,0.008600
habit,0.013673
half,0.017754
hammerston,0.029575
hand,0.007990
haplogroup,0.075412
haplotyp,0.023389
happen,0.010192
harvest,0.014296
hemispher,0.014686
herbivor,0.019108
herd,0.034415
hide,0.030533
high,0.006530
higher,0.007666
highli,0.033960
hill,0.012828
histor,0.007244
hors,0.013931
howev,0.015702
human,0.043493
hundr,0.009798
hunt,0.130157
hunter,0.065366
huntergather,0.054009
ice,0.070337
icefre,0.077936
identifi,0.007796
includ,0.017907
increas,0.006201
indic,0.039668
indigen,0.090010
individu,0.013304
inhabit,0.011211
initi,0.021021
inland,0.030952
instead,0.007553
interior,0.037968
inuit,0.022567
isol,0.020941
jobo,0.090390
journey,0.029974
ka,0.039309
km,0.012137
knap,0.026379
known,0.010776
lake,0.012717
land,0.016320
larg,0.022729
late,0.037325
later,0.006412
laurentid,0.029094
layov,0.029575
lead,0.006433
left,0.008594
level,0.012894
lifestyl,0.030709
like,0.017276
line,0.007716
lineag,0.031916
linguist,0.012674
link,0.014064
lithic,0.166451
live,0.006971
local,0.007302
locat,0.023781
long,0.014000
low,0.008262
lower,0.007966
magallan,0.029575
mainli,0.008950
major,0.011439
make,0.010964
mammal,0.054594
mammoth,0.044706
mani,0.019491
mankind,0.015559
map,0.009862
marsh,0.018490
mastodon,0.082036
materi,0.007554
maximum,0.023446
meadowcroft,0.030786
mean,0.011874
meat,0.029921
megafauna,0.092836
meiosi,0.019962
melt,0.015384
member,0.006878
meter,0.014509
method,0.006676
mexico,0.026900
mi,0.013593
microblad,0.029094
microsatellit,0.024215
middl,0.008888
migrant,0.050490
migrat,0.126713
mix,0.020739
mobil,0.034355
molecular,0.011268
mont,0.032327
montana,0.022086
month,0.019050
mostli,0.018396
mountain,0.011598
mtdna,0.047354
musk,0.023578
mutat,0.044908
naden,0.030786
nation,0.017921
near,0.017728
new,0.033709
norm,0.012504
north,0.059920
northern,0.040314
northwest,0.014744
northwestern,0.016367
nowextinct,0.050581
nuclear,0.011015
number,0.005393
numer,0.007987
nut,0.018610
occup,0.022467
occur,0.013699
old,0.017840
ongo,0.023593
open,0.007380
origin,0.011949
overland,0.039375
ox,0.022567
pacif,0.049982
paijan,0.032626
palaio,0.027345
paleo,0.030786
paleoamerican,0.031590
paleoindian,0.553027
paleolith,0.017841
park,0.012600
particular,0.006748
particularli,0.007560
passag,0.012843
patagonia,0.024101
patchi,0.024713
pattern,0.027595
pennsylvania,0.016151
peopl,0.065383
perhap,0.010021
period,0.070463
peru,0.017014
phase,0.010367
piec,0.011905
place,0.012193
placement,0.016920
plain,0.028176
plano,0.024990
plant,0.018719
pleistocen,0.098438
plenti,0.016951
plu,0.012129
point,0.106311
popul,0.107387
possibl,0.006305
poverti,0.012717
precis,0.010183
predat,0.013723
prefer,0.009466
prefix,0.016612
prehistor,0.014942
present,0.012362
presentday,0.013884
primari,0.016320
primarili,0.008450
prime,0.009932
primit,0.027359
probabl,0.017741
process,0.011688
procur,0.017077
product,0.006443
progress,0.008425
project,0.007649
projectil,0.121324
promis,0.011616
propos,0.007627
protein,0.012558
q,0.013845
qm,0.023037
quaternari,0.039052
quintana,0.026173
quit,0.010447
rang,0.029683
read,0.006809
readi,0.014409
reappear,0.019311
recent,0.013578
recombin,0.016302
reduct,0.022562
reexamin,0.019557
refer,0.003920
reflect,0.008425
region,0.042125
reindeer,0.022873
reintroduc,0.018086
reli,0.028341
relianc,0.015720
remain,0.006484
repair,0.013958
research,0.006360
resid,0.010387
resourc,0.015874
result,0.005461
return,0.007934
rich,0.011243
rise,0.015779
river,0.021438
rockshelt,0.029575
roo,0.025137
root,0.009904
rout,0.070824
savanna,0.019856
saw,0.009594
scienc,0.006594
scientif,0.007889
scraper,0.024456
sea,0.030011
season,0.012670
secondli,0.017241
sedentari,0.019687
separ,0.007162
seri,0.007810
servic,0.007638
settlement,0.022883
share,0.007640
sheet,0.014180
shelter,0.030572
short,0.008359
siberia,0.018709
siberian,0.041693
significantli,0.020125
sinc,0.010912
singl,0.014604
site,0.091911
situ,0.019371
sloth,0.024101
small,0.026707
smaller,0.018556
social,0.006941
sophist,0.012554
sought,0.010629
sourc,0.027454
south,0.059815
southern,0.020254
southwest,0.015315
spanish,0.011800
spear,0.097473
speci,0.030106
specif,0.032642
spread,0.009645
spring,0.024615
stabil,0.010176
stage,0.009529
start,0.006907
state,0.004774
statu,0.009113
stepp,0.018943
stone,0.060931
store,0.011054
strait,0.017125
strategi,0.010164
stretch,0.013755
studi,0.005766
style,0.044972
subject,0.013882
subsequ,0.008515
subsist,0.045070
success,0.007236
suggest,0.038194
summer,0.012623
suppli,0.008895
sustain,0.010672
susten,0.021181
taimataima,0.030130
technolog,0.023601
teem,0.023883
temporari,0.012868
tennesse,0.019557
term,0.015468
terrestri,0.014855
territori,0.028652
th,0.006256
theori,0.012791
thi,0.032650
thought,0.007733
thousand,0.009622
thu,0.031892
tie,0.010643
time,0.038622
today,0.007838
togeth,0.007524
tool,0.061160
topper,0.031590
town,0.011205
trade,0.023680
tradit,0.034355
trap,0.014296
travel,0.038539
travers,0.017743
type,0.006560
typic,0.007320
undoubtedli,0.019252
uniqu,0.018608
unit,0.005503
univers,0.011302
use,0.035668
util,0.019743
valley,0.025237
vari,0.008043
variat,0.010228
varieti,0.024578
variou,0.012423
veget,0.013026
venezuela,0.066966
verd,0.039179
veri,0.006231
virginia,0.015720
wa,0.035792
warm,0.013944
warmer,0.018684
went,0.010008
western,0.024623
wide,0.007027
wider,0.012424
widerang,0.019053
widespread,0.010483
wild,0.013998
winter,0.040563
wisent,0.028669
wood,0.012591
woolli,0.025137
world,0.011064
worldwid,0.011069
wyom,0.023297
y,0.023240
ydna,0.054691
year,0.071588
yearli,0.016175
yukon,0.051588
zone,0.011278
