africa,0.037052
airraid,0.108800
alana,0.108800
anim,0.031935
architectur,0.043035
australian,0.047451
basic,0.027676
bivouac,0.120026
blast,0.067341
bothi,0.120026
bu,0.067341
build,0.029112
common,0.022282
dogon,0.099617
dwell,0.065205
emerg,0.028436
environ,0.029411
extern,0.017349
fallout,0.077204
form,0.018134
habit,0.050301
home,0.033878
homeless,0.072796
human,0.022857
hut,0.154760
indigen,0.047304
link,0.017246
list,0.022055
local,0.026863
media,0.036379
miamia,0.120026
peopl,0.021866
protect,0.030311
provid,0.020178
ramada,0.113258
refer,0.014423
relat,0.019447
rock,0.045168
shelter,0.899755
structur,0.023453
temporari,0.047340
tent,0.061588
toguna,0.120026
transit,0.034947
type,0.024134
use,0.016402
wikimedia,0.055951
women,0.038203
