ababfrac,0.017711
abbrevi,0.008879
abc,0.010452
abcab,0.018096
abcabcabcbca,0.018096
abcdelta,0.017384
abcr,0.018096
abcsqrt,0.018096
abfrac,0.015385
abov,0.009334
abright,0.016427
abrighttan,0.018096
absin,0.018096
ac,0.009928
academi,0.007022
accompani,0.007047
accur,0.006211
accuraci,0.007906
acfrac,0.034769
acid,0.007345
aco,0.030117
acoust,0.020368
acsc,0.018096
acut,0.009567
ad,0.009304
add,0.013903
addit,0.003688
adjac,0.100125
adjacentfrac,0.036193
adjacenttextrm,0.036193
afrac,0.153753
aircraft,0.008096
al,0.006253
aldin,0.011713
alexandria,0.009937
alfr,0.007469
algebra,0.007828
algorithm,0.007308
allow,0.003625
almagest,0.050411
altusi,0.013308
analog,0.006514
analysi,0.004394
analyt,0.006646
ancient,0.005281
angl,0.296231
ani,0.012851
anoth,0.017531
answer,0.006491
apm,0.016243
appar,0.006223
appli,0.011691
applic,0.021768
arab,0.006733
arbitrari,0.023616
arccosin,0.017711
archimed,0.010786
architectur,0.006876
arcsin,0.016074
arctang,0.015917
area,0.028966
argument,0.006124
arithmet,0.008901
aryabhata,0.012982
asec,0.017711
asia,0.006259
asin,0.025143
associ,0.003561
astronom,0.049252
astronomi,0.049110
attest,0.009598
audio,0.009567
b,0.226950
ba,0.009700
babylonian,0.009910
bannek,0.016629
bartholomaeu,0.016852
base,0.003176
basic,0.008844
basilio,0.015771
battani,0.017384
bc,0.026014
bcfrac,0.018096
bco,0.018096
becaus,0.006618
befor,0.003754
benjamin,0.008335
besid,0.007520
bessarion,0.015385
bfrac,0.044881
bibliographi,0.006393
biolog,0.010426
bisect,0.013917
bmp,0.044069
book,0.004177
boyer,0.012025
bpm,0.029213
branch,0.014024
brook,0.009676
bsin,0.036193
builtin,0.011908
button,0.011692
byzantin,0.018086
c,0.130414
ca,0.008085
cababco,0.018096
calcul,0.050484
calculu,0.008216
cambridg,0.005830
came,0.004813
cardin,0.009652
carl,0.007350
cartographi,0.011135
cat,0.009339
caught,0.009067
cb,0.011651
cbfrac,0.017384
celesti,0.009332
centuri,0.037805
certain,0.004029
cfrac,0.012733
chapter,0.013723
chemistri,0.006452
chines,0.006328
chip,0.009884
choic,0.005784
chord,0.067957
christoph,0.007715
ci,0.010298
circl,0.028377
circumcircl,0.017384
circumscrib,0.012450
civil,0.005050
clark,0.008524
coelestium,0.014375
colin,0.010134
combin,0.004198
common,0.007120
compani,0.004649
complementari,0.017179
complet,0.008133
complex,0.012926
compress,0.009091
comput,0.019516
concept,0.004109
constant,0.005854
convent,0.011404
converg,0.007757
copernicu,0.010997
copi,0.007098
corral,0.014866
correspond,0.005345
cosapm,0.018096
cosec,0.047751
cosin,0.150858
cot,0.205658
cotang,0.043580
cotapm,0.018096
cours,0.015396
cover,0.004848
creat,0.003601
cretan,0.014449
crfrac,0.018096
cryptolog,0.014689
crystallographi,0.010656
csc,0.058759
csin,0.015771
curvatur,0.021441
cyclic,0.009145
dave,0.011954
david,0.005230
defin,0.032329
definit,0.018624
degre,0.048223
delta,0.008434
demand,0.005257
describ,0.010873
determin,0.016357
develop,0.008834
devot,0.006960
diagram,0.008100
did,0.004371
differ,0.006243
discov,0.005185
displaystyl,0.168633
distanc,0.012541
distribut,0.004858
divers,0.005663
divid,0.004669
divis,0.005103
document,0.011370
driven,0.006855
dure,0.003389
e,0.057260
earliest,0.011851
easi,0.007199
ecolog,0.006680
econom,0.003879
ed,0.009926
egypt,0.007486
einstein,0.008547
eixco,0.017711
eixeixiqquad,0.018096
eixeixqquad,0.018096
electr,0.011723
electron,0.005932
elementari,0.007997
ellipt,0.010558
emerg,0.004543
encourag,0.005826
encyclopedia,0.006105
engin,0.020436
enorm,0.007635
equal,0.009655
equat,0.017688
equival,0.011421
eric,0.008421
especi,0.004116
essenti,0.004928
euclid,0.010800
eudoxu,0.013139
euler,0.039642
europ,0.009614
european,0.008831
everi,0.004436
exampl,0.006350
exist,0.003525
exiyexco,0.018096
expand,0.010029
explain,0.004772
exponenti,0.008533
express,0.009186
extend,0.009352
extens,0.004787
extern,0.002772
fact,0.004501
field,0.015486
figur,0.005250
finit,0.007331
fix,0.011253
flat,0.008108
float,0.008395
follow,0.012130
formula,0.066200
foundat,0.004943
fourier,0.009892
frac,0.025450
free,0.008660
frisiu,0.016427
fulli,0.005715
function,0.124200
fundament,0.014563
game,0.006505
gave,0.005516
gemma,0.014866
gener,0.002724
geodesi,0.011692
geograph,0.006165
geographi,0.006978
geometr,0.015591
geometri,0.038657
georg,0.005463
german,0.005353
given,0.015208
gnu,0.012872
gradian,0.016629
graphic,0.008153
grecoegyptian,0.017102
greek,0.026841
gregori,0.009221
grew,0.006335
grow,0.004861
ha,0.005055
half,0.005218
hardwar,0.008868
hazewinkel,0.011459
hellenist,0.019273
henc,0.011829
heron,0.013180
hi,0.010197
higher,0.004506
hipparchu,0.012667
hippi,0.028077
histori,0.009472
hold,0.004566
hyperbol,0.010225
hypotenus,0.135530
hypotenusefrac,0.036193
hypotenusetextrm,0.036193
ident,0.048853
ieixeixeixeix,0.018096
imag,0.017511
imaginari,0.009928
includ,0.007894
incorpor,0.015617
independ,0.003893
indian,0.012550
infinit,0.007422
influenti,0.006096
ingold,0.014375
inscrib,0.011651
instanc,0.010268
instruct,0.007136
interpol,0.008857
interv,0.007986
invers,0.016009
involv,0.014700
isbn,0.008962
islam,0.018931
jame,0.005346
john,0.004311
joyc,0.011931
kenyon,0.013977
khan,0.009866
knowledg,0.004767
known,0.034840
land,0.004796
landmark,0.008923
languag,0.004763
larg,0.003340
later,0.007538
latin,0.011913
law,0.045816
lectur,0.006891
lefttfrac,0.030117
leg,0.037633
length,0.069169
leonhard,0.011477
letter,0.018768
librari,0.005954
licens,0.007546
light,0.005225
link,0.002755
linton,0.015162
list,0.014096
littl,0.004850
live,0.004097
locat,0.004659
longest,0.009085
look,0.010465
loui,0.007151
m,0.004532
maclaurin,0.015162
macmillan,0.008657
main,0.004012
major,0.010086
mani,0.008593
map,0.005797
mathemat,0.039855
mathematician,0.062056
mathworld,0.013265
mboxareadelta,0.036193
mean,0.003490
measur,0.020753
mechan,0.009359
medic,0.005835
mediev,0.013518
memor,0.010522
meteorolog,0.009292
method,0.031398
metron,0.015385
michael,0.005832
michiel,0.011232
micro,0.010374
microprocessor,0.012099
minor,0.011729
mnemon,0.049124
modern,0.011403
moivr,0.014375
monro,0.012124
music,0.013929
nasir,0.012667
navig,0.031652
nd,0.005896
nearbi,0.007799
need,0.003809
neg,0.010990
nicaea,0.012982
nicolau,0.011386
nonrightangl,0.036193
northern,0.011848
note,0.003653
nubian,0.013222
number,0.012681
object,0.004332
ocean,0.006521
oceanographi,0.010464
old,0.005243
onc,0.004735
onli,0.002917
onlin,0.005546
opposit,0.067787
oppositefrac,0.036193
oppositetextrm,0.036193
optic,0.007623
orbium,0.014449
overal,0.005800
overview,0.006349
particularli,0.004444
pass,0.004923
peopl,0.003493
perform,0.004454
period,0.015061
perpendicular,0.010558
persian,0.007962
person,0.004146
pervas,0.009964
pharmaci,0.011351
phenomena,0.006050
phonet,0.023817
physic,0.008293
pitiscu,0.017384
planar,0.011755
plane,0.007632
point,0.003675
polygon,0.012025
posit,0.011267
precalculu,0.015270
present,0.007267
press,0.004276
print,0.006824
problem,0.011659
produc,0.007562
product,0.003787
program,0.004571
pronounc,0.008778
properti,0.013199
prove,0.011216
provid,0.006448
ptolemi,0.059305
publish,0.004033
pure,0.005746
puzzl,0.009676
pythagorean,0.032775
question,0.004563
r,0.024313
radian,0.055910
radiu,0.019227
ratio,0.052429
rd,0.013014
rdcenturi,0.014776
reach,0.004683
reciproc,0.008657
reduc,0.004366
refer,0.004609
regardless,0.006967
regiomontanu,0.015771
relat,0.012429
relationship,0.013197
remain,0.007623
rememb,0.033844
repeat,0.006652
repres,0.003780
respect,0.021914
revolutionibu,0.013859
rfrac,0.013308
right,0.012407
rightangl,0.080371
rule,0.012620
s,0.016343
satellit,0.008041
scale,0.005216
scan,0.009202
scholar,0.005852
school,0.004688
scienc,0.003876
scientif,0.004637
scottish,0.008847
sec,0.044864
secant,0.026798
second,0.003782
seismolog,0.012201
semiperimet,0.016427
sentenc,0.007879
separ,0.004210
seri,0.013773
sever,0.003343
sfrac,0.013748
shape,0.005493
short,0.004913
shorter,0.008204
shown,0.005557
siddhanta,0.013977
similar,0.011490
simpli,0.005233
sin,0.255396
sinapm,0.018096
sinc,0.006414
sine,0.180523
size,0.004994
slide,0.010010
sohcahtoa,0.052154
sokto,0.018096
soktoeuh,0.018096
solv,0.005902
sometim,0.012526
son,0.006141
soon,0.011763
sound,0.013506
space,0.004945
special,0.004011
sphere,0.007177
spheric,0.037467
springer,0.007763
sqrt,0.010352
ssasbscfrac,0.018096
star,0.007113
state,0.008419
string,0.008519
student,0.005459
studi,0.023727
sumerian,0.011058
surfac,0.011615
survey,0.018495
surya,0.014102
synthesi,0.007160
systemat,0.006127
tabl,0.049383
tabul,0.012001
tan,0.245682
tanapm,0.018096
tangent,0.100220
taught,0.014302
taylor,0.016141
techniqu,0.004929
term,0.006061
text,0.005533
textbook,0.007229
textrm,0.085823
th,0.022066
thcenturi,0.007395
theorem,0.021570
theori,0.011278
therebi,0.006638
therefor,0.004359
thi,0.004798
thu,0.003749
time,0.008513
today,0.018431
tool,0.005135
transform,0.010500
translat,0.016565
treatis,0.007737
trebizond,0.015771
triangl,0.360491
triangul,0.024901
trianguli,0.017711
trignon,0.018096
trigonometr,0.329739
trigonometri,0.269883
trigonometria,0.017384
trippin,0.018096
true,0.005193
turn,0.004434
twice,0.007644
twodimension,0.010330
ultrasound,0.011672
understand,0.004353
unit,0.009705
univers,0.006643
use,0.068141
valu,0.036998
virtual,0.006343
w,0.005381
wa,0.015779
wave,0.012936
way,0.006859
weisstein,0.013353
western,0.009649
wiley,0.007848
word,0.008904
work,0.012577
world,0.006503
write,0.005014
x,0.096544
xfrac,0.036005
xisin,0.017711
y,0.027321
year,0.006474
yisin,0.018096
