abrupt,0.022390
administr,0.010205
adopt,0.010072
agricultur,0.043393
al,0.012519
alluvi,0.025917
alluvium,0.034239
alubaid,0.153587
analysi,0.017596
ancient,0.010574
anim,0.030648
appear,0.016907
appropri,0.011699
approxim,0.009946
arabia,0.017854
arabian,0.060871
archaeolog,0.015627
architectur,0.013767
area,0.007249
arid,0.042571
artifact,0.017294
associ,0.007129
baghdad,0.020270
bahrain,0.023054
base,0.006359
bc,0.039061
bce,0.145356
befor,0.007516
began,0.008787
bifacialubaid,0.038396
black,0.011877
blackwel,0.018398
bogucki,0.074355
british,0.029479
brown,0.014933
buff,0.032182
bulk,0.015601
bull,0.020310
ca,0.016187
came,0.009637
canal,0.017482
cemeteri,0.021623
central,0.008262
centralis,0.023016
chalcolith,0.027748
character,0.022359
charvt,0.038396
chicago,0.028731
chieftain,0.023620
choga,0.076793
civilis,0.020116
class,0.009776
clay,0.018822
clear,0.032914
coast,0.013453
coin,0.012206
collect,0.017197
coloni,0.012189
color,0.014684
come,0.008431
commun,0.015416
compar,0.008719
competit,0.011592
condit,0.008248
conduct,0.010104
confer,0.011604
conflict,0.010980
connect,0.019412
contain,0.008457
contextu,0.021623
contrast,0.009958
coordin,0.012497
copper,0.032743
council,0.010749
craftspeopl,0.030356
crop,0.014575
cultur,0.097508
dark,0.015245
date,0.009853
decor,0.019140
decreas,0.011609
defin,0.008090
democraci,0.013132
depend,0.007778
deposit,0.013957
deriv,0.008964
describ,0.014512
descript,0.010776
design,0.008659
develop,0.011792
differ,0.006249
disput,0.011858
distinct,0.018159
divid,0.009348
divis,0.010217
doi,0.031216
domest,0.036646
downward,0.018921
dune,0.023208
durat,0.016790
dure,0.006786
dynast,0.022139
earli,0.021297
earlier,0.031464
earliest,0.035591
east,0.032738
eastern,0.011780
effort,0.009829
egalitarian,0.021816
element,0.009027
elit,0.015760
elman,0.029084
eloueili,0.038396
elsewher,0.014632
end,0.023281
equip,0.012689
eridu,0.099882
establish,0.007574
ethnic,0.014006
euphrat,0.025426
event,0.009236
evid,0.019357
excav,0.038162
exist,0.007058
expans,0.023952
expansion,0.026388
express,0.009196
extend,0.009362
extens,0.009584
extent,0.011678
extern,0.005550
extrem,0.020363
fall,0.009688
far,0.019248
farmer,0.030046
figur,0.010511
fine,0.015173
folk,0.036696
form,0.005801
format,0.010351
fri,0.022726
geometr,0.015608
good,0.008438
grain,0.016490
granari,0.026645
grave,0.018500
greenish,0.032182
group,0.013692
grow,0.009732
growth,0.019213
gulf,0.034338
ha,0.020243
hadji,0.038396
halaf,0.070918
halafubaid,0.038396
hall,0.014400
han,0.015168
hard,0.012456
harriet,0.024811
head,0.009798
hectar,0.044716
henri,0.012233
herd,0.020251
hereditari,0.018165
hierarchi,0.015466
high,0.007685
histori,0.018964
hous,0.020363
household,0.015097
human,0.014624
hunterfish,0.038396
husbandri,0.022078
hut,0.024754
hydraul,0.021211
hypothesis,0.025493
ident,0.010867
ideolog,0.014336
ii,0.009933
inch,0.020451
includ,0.005268
increas,0.007298
increasingli,0.011188
indic,0.009336
indigen,0.015132
initi,0.008246
instanc,0.010278
intens,0.037816
intragroup,0.034805
introduc,0.008903
iraq,0.084923
irrig,0.038372
isbn,0.035888
isohyet,0.035459
j,0.009531
jacobsen,0.028233
jame,0.010704
jemdet,0.036231
jstor,0.038191
just,0.008849
kiln,0.027865
kiloyear,0.036231
kin,0.022797
known,0.012682
kuwait,0.021464
labour,0.025693
lake,0.014966
larg,0.026749
late,0.008785
later,0.015092
lead,0.007570
led,0.008189
leonard,0.019550
like,0.006777
limit,0.007749
link,0.016551
littor,0.053469
live,0.008204
local,0.017187
london,0.010683
long,0.008238
longer,0.010464
lower,0.009375
m,0.009074
ma,0.016026
maintain,0.008847
major,0.006731
malden,0.026068
mami,0.065780
martin,0.013429
materi,0.017782
mediat,0.015543
mediterranean,0.016596
mellaart,0.035459
mesopotamia,0.135056
metal,0.013205
metalwork,0.024028
method,0.007857
middl,0.020921
millennium,0.015836
mobil,0.013477
moor,0.017122
morton,0.024028
mountain,0.013650
movement,0.008748
mudbrick,0.030356
muham,0.027211
multiroom,0.037177
museum,0.045898
nasr,0.026146
near,0.031295
need,0.007627
neolith,0.018906
network,0.010606
new,0.017001
nissen,0.031867
nomad,0.039201
north,0.060443
northern,0.011861
note,0.007315
numer,0.009399
obscur,0.017575
oecumen,0.038396
older,0.013314
oman,0.068938
onli,0.005840
onset,0.019517
order,0.006991
origin,0.028125
oueili,0.038396
p,0.009685
paint,0.016113
past,0.010065
pastoralist,0.049972
peac,0.012236
peasant,0.017691
peer,0.017691
peninsula,0.016877
peopl,0.006995
perhap,0.023588
period,0.173390
perman,0.012295
peron,0.031867
persian,0.031881
peter,0.011569
petr,0.027211
phase,0.073205
photograph,0.017462
pioneer,0.013253
place,0.007175
plain,0.016579
plough,0.025560
polaris,0.023450
popul,0.009027
possibl,0.007420
potter,0.023092
potteri,0.039899
practic,0.015568
preced,0.013784
prehistor,0.017585
presenc,0.011002
press,0.008562
previous,0.011091
primit,0.016099
princip,0.011365
problem,0.007780
public,0.007327
qualiti,0.010839
rainfal,0.020023
rapid,0.012608
rapidli,0.012265
reactiv,0.017382
recent,0.007990
record,0.009725
rectangular,0.021844
reed,0.021930
reevalu,0.022762
refer,0.004614
region,0.016525
relat,0.006221
replac,0.009402
requir,0.007263
research,0.007485
resolv,0.013402
respons,0.008003
result,0.012854
rise,0.009285
routledg,0.016442
run,0.010139
sail,0.034904
samara,0.031867
samarra,0.032890
saw,0.056457
scribner,0.024480
season,0.014911
sedentari,0.023169
semidesert,0.031045
servic,0.008989
settlement,0.053860
shore,0.035088
shrine,0.022726
sickl,0.026306
site,0.054083
smaller,0.010919
socal,0.025914
social,0.032676
societi,0.016091
sometim,0.041797
south,0.080450
southern,0.011918
specialis,0.018605
spread,0.068105
statu,0.010724
stein,0.023663
stone,0.028683
stratif,0.022797
stretch,0.016187
subsist,0.017680
succeed,0.013128
suffici,0.011871
sumerian,0.044278
superfici,0.020251
surround,0.011759
t,0.011172
tabl,0.012358
tell,0.072322
templ,0.033951
tentdwel,0.037177
term,0.006067
thank,0.017659
thi,0.024015
thorkild,0.033294
thu,0.007506
tier,0.022979
tigri,0.027418
time,0.017045
took,0.010031
tool,0.010282
trade,0.009289
transegalitarian,0.038396
transform,0.010511
transit,0.011179
tribe,0.015808
tripartit,0.022589
turkey,0.016747
type,0.007720
ubaid,0.798754
univers,0.006650
unwal,0.038396
urban,0.013469
urbanis,0.025493
uruk,0.088231
use,0.010494
variou,0.007310
veri,0.007333
villag,0.044022
wa,0.036857
water,0.009905
way,0.006866
weaver,0.023534
whatev,0.015808
wide,0.008270
woolley,0.032890
year,0.006480
york,0.019780
zagro,0.031045
zbal,0.038396
zeidan,0.031867
