aarhu,0.006508
abandon,0.003157
abbey,0.021759
aberdeenshir,0.007709
abil,0.002325
abl,0.008539
abov,0.002163
absenc,0.003107
academ,0.002531
accentu,0.005934
accept,0.002121
access,0.004676
accompani,0.003267
accord,0.010139
account,0.003981
accustom,0.005706
achiev,0.004252
acquir,0.002752
act,0.005794
activ,0.003372
actual,0.002163
ad,0.004313
adept,0.005597
advanc,0.004174
advantag,0.005246
adventur,0.008479
affect,0.004417
aforement,0.004784
africa,0.002744
aft,0.007709
aftermath,0.004211
age,0.065612
agre,0.012740
agreement,0.002579
agricultur,0.002512
aground,0.006771
ahola,0.008608
aid,0.005070
ailpn,0.008389
air,0.002596
alah,0.008210
alandalu,0.005950
alcuin,0.007079
aldeigja,0.008890
aldeigjuborg,0.008608
alexand,0.006476
alfr,0.006926
allen,0.003901
alli,0.006243
allianc,0.003160
allow,0.010084
alreadi,0.002462
alt,0.006277
altern,0.002171
america,0.011842
analysi,0.002037
ancient,0.002448
andor,0.002957
angelo,0.005887
anglia,0.007188
anglodanish,0.008608
anglosaxon,0.031673
ani,0.001489
anker,0.008059
annal,0.004534
annex,0.007689
anoth,0.013004
antivik,0.008890
apart,0.006194
appar,0.002885
appear,0.015660
appoint,0.002778
approach,0.003890
approxim,0.002303
april,0.002585
archaeolog,0.021711
archaeologist,0.013974
archbishop,0.005270
archeolog,0.004906
archer,0.005392
area,0.023499
aristocraci,0.009528
arklow,0.008890
arkona,0.008890
armi,0.029069
arno,0.005785
arriv,0.008161
arrow,0.004339
arrowhead,0.006255
art,0.012927
artefact,0.005401
articl,0.004017
artistri,0.006664
ashdown,0.007709
asia,0.002901
aspect,0.002221
associ,0.001650
assum,0.002341
asturia,0.006255
atlant,0.010744
attack,0.029973
attain,0.003421
attempt,0.011566
attent,0.002755
attract,0.002719
attribut,0.002627
author,0.005708
autonom,0.003417
aux,0.012381
avail,0.002065
away,0.005148
awkward,0.005967
axe,0.009247
ayrshir,0.007379
background,0.005805
bagsecg,0.026672
balanc,0.002674
bald,0.006001
baltic,0.019116
baptis,0.006399
barbar,0.005828
bardywielubi,0.017781
bareleg,0.008389
bartholin,0.007379
base,0.013253
battl,0.060643
battlefield,0.004769
bay,0.015266
bbc,0.003844
beach,0.004414
becam,0.024215
becaus,0.004602
beck,0.005215
becom,0.003262
befor,0.015664
began,0.032558
begin,0.011922
belaru,0.005215
belarusian,0.006399
believ,0.010538
belong,0.002879
benjamin,0.003864
bernhard,0.005312
betroth,0.006935
beziehungen,0.008059
bi,0.004779
bilater,0.003875
birka,0.008059
birth,0.003002
bishop,0.004170
bjarni,0.007709
bjrgvin,0.008890
bjrn,0.006698
black,0.002750
bloodax,0.008890
bloodthirsti,0.007928
boanta,0.008890
board,0.005879
bodi,0.002044
bone,0.007644
boneless,0.016779
boom,0.007732
booti,0.006537
bordeaux,0.006149
border,0.006003
bornhv,0.008608
boru,0.008210
boundari,0.005689
bounti,0.005842
bran,0.006850
branch,0.002167
brattahlid,0.008389
break,0.002809
bremenhamburg,0.008389
brethren,0.005644
breton,0.006036
brian,0.008336
bribe,0.005215
bridg,0.006733
bring,0.002533
brink,0.005632
britain,0.025837
british,0.013652
brother,0.013669
brought,0.010048
bruno,0.004900
brutal,0.004442
build,0.004312
built,0.005080
bulk,0.003612
burdensom,0.006110
burgh,0.007615
burn,0.006986
bust,0.005479
byzantin,0.012577
byzantium,0.015763
c,0.001950
ca,0.003748
caith,0.017781
cake,0.005857
cambridg,0.002703
came,0.006694
canada,0.002923
cap,0.004157
capabl,0.005375
capac,0.002829
capit,0.004439
captain,0.004118
captur,0.014012
carey,0.005934
carolingian,0.016897
carri,0.006600
case,0.006826
caspian,0.011062
catalogu,0.013961
caus,0.016395
cdiz,0.006452
ceas,0.003447
cede,0.004368
celt,0.006001
center,0.004353
centr,0.016838
central,0.011479
centralis,0.005329
centuri,0.064847
certain,0.001868
certainli,0.003895
chain,0.003049
challeng,0.004876
chang,0.004616
chant,0.005222
charl,0.020912
charlemagn,0.027297
chief,0.002842
chiefli,0.004425
chieftain,0.010938
christian,0.034386
christoph,0.003577
chronicl,0.051586
church,0.009251
cine,0.007379
cite,0.002854
citi,0.025928
cityst,0.004789
claim,0.002071
clare,0.006300
class,0.002263
clear,0.002540
cli,0.008059
climat,0.002914
clinkerbuilt,0.008890
clive,0.005499
clontarf,0.016779
close,0.007305
cnut,0.024632
coalesc,0.005006
coast,0.068534
coastal,0.011163
coastlin,0.008491
coin,0.008479
coincid,0.022030
collect,0.001991
colon,0.003621
coloni,0.005644
colonis,0.018494
colonist,0.009333
columbu,0.004666
combat,0.003582
combin,0.003892
come,0.005856
common,0.001650
commun,0.008924
compass,0.004397
compet,0.002814
compign,0.008059
complet,0.003770
compon,0.004701
concentr,0.002671
concern,0.001916
concret,0.003739
condit,0.001910
conduct,0.007018
confer,0.002687
conflict,0.007627
connect,0.008990
conquer,0.014784
conquest,0.025747
consequ,0.004642
consid,0.006368
consider,0.004588
consist,0.005481
consolid,0.003584
constantinopl,0.009442
constitut,0.002155
construct,0.006341
contact,0.005729
contemporari,0.008010
context,0.002401
continu,0.014886
contradictori,0.004819
contrast,0.004611
contribut,0.006010
control,0.007254
convert,0.002782
copenhagen,0.004851
cork,0.011656
correspond,0.002478
cotentin,0.007812
counterfeit,0.005813
counteroffens,0.006537
counterraid,0.007812
counti,0.004062
countri,0.014371
courland,0.007188
cours,0.002379
cover,0.002247
cowri,0.013016
craft,0.004106
craftsmen,0.010659
creat,0.003339
creation,0.002484
crew,0.012878
crop,0.006750
cross,0.002979
crossroad,0.005199
crovan,0.008890
crowd,0.004254
crown,0.007071
cruden,0.008890
crusad,0.009264
crush,0.004176
cuerdal,0.008890
culmin,0.007234
cultur,0.014368
cumbria,0.007530
curonian,0.008210
current,0.001747
customarili,0.005609
cut,0.002898
cuthbert,0.007379
cwenland,0.008890
d,0.002209
da,0.003633
dalin,0.008890
damag,0.002946
dame,0.010676
dane,0.028859
danegeld,0.007615
danelaw,0.025825
danish,0.030221
danishnorwegian,0.008059
date,0.020534
daughter,0.003746
david,0.002424
day,0.008240
death,0.011954
debat,0.002541
decad,0.002481
decemb,0.002505
decentr,0.004460
decid,0.002660
declar,0.002636
declin,0.002591
decor,0.004432
deep,0.003039
deeper,0.016317
defeat,0.022609
defend,0.009163
defens,0.005992
deliv,0.003217
demis,0.004824
demograph,0.003665
demon,0.004830
den,0.004894
denier,0.006935
denmark,0.028031
denot,0.003331
depict,0.003405
descend,0.009912
descript,0.002495
desir,0.002569
destroy,0.017128
destruct,0.003230
devast,0.003875
develop,0.006826
dictionari,0.006619
did,0.016211
die,0.013078
dierkow,0.017781
differ,0.005788
dig,0.005091
dioces,0.005401
direct,0.001812
directli,0.002193
disarray,0.006054
disciplin,0.002515
disconnect,0.005287
discontinu,0.004144
discov,0.002404
discoveri,0.002556
discuss,0.004454
disord,0.003519
dispers,0.003746
displac,0.003502
disput,0.005491
dissolut,0.004113
distanc,0.008720
distribut,0.002252
district,0.003301
divid,0.004329
dl,0.006190
dm,0.011041
dnen,0.008890
document,0.007906
documentari,0.004195
domin,0.004492
donald,0.003848
dorset,0.006599
doubt,0.003523
dougal,0.008059
downham,0.008890
dowri,0.006425
dozen,0.003818
draft,0.007046
drag,0.004726
dragon,0.005045
drakkar,0.008608
drawn,0.006443
dread,0.005872
dreg,0.007812
drive,0.005866
driven,0.003178
drown,0.005439
dublin,0.045524
duchi,0.010642
dudo,0.008890
duke,0.008610
dumzil,0.007928
dunedin,0.006891
dure,0.020428
dwindl,0.005479
dyflin,0.008890
dynasti,0.010649
e,0.002212
earl,0.009940
earldom,0.008389
earli,0.018082
earlier,0.004857
earliest,0.005494
earn,0.006178
easi,0.010013
easiest,0.005510
easili,0.002815
east,0.032849
eastern,0.032735
eastward,0.005032
eat,0.003835
eaten,0.004958
ecclesiast,0.004894
ecgberht,0.008890
econom,0.003597
ed,0.013804
edgar,0.009608
edinburgh,0.004471
edit,0.002572
edmund,0.004181
effect,0.004789
effici,0.002573
eighth,0.004586
element,0.004180
elsewher,0.003388
emerg,0.004212
emir,0.004684
empir,0.006879
emporia,0.007709
enabl,0.005212
encamp,0.006348
encroach,0.005064
end,0.023360
enemi,0.014693
engag,0.002602
england,0.102669
english,0.022889
englishman,0.005680
engu,0.008890
engusa,0.008890
enlighten,0.003588
ensu,0.008036
ensur,0.002700
enter,0.007208
environ,0.002178
eogn,0.008890
episcop,0.005799
equip,0.002938
era,0.005193
eric,0.003904
ericsfjord,0.008890
ericson,0.007079
erik,0.014821
error,0.006250
especi,0.003816
establish,0.017539
estim,0.002312
estuari,0.011084
ethnic,0.003243
ethnogenesi,0.007615
europ,0.044571
european,0.012282
event,0.006416
eventu,0.011679
everi,0.002056
evid,0.011205
exact,0.009406
exampl,0.002943
excav,0.008836
exchang,0.002323
exempt,0.004271
exhibit,0.009307
exil,0.003753
exist,0.006537
expand,0.006974
expans,0.008319
expedit,0.014870
experienc,0.005901
explicitli,0.003345
explor,0.005008
extend,0.002167
extens,0.006658
extent,0.008112
extern,0.002570
eystein,0.008890
f,0.002420
fabric,0.004111
fabula,0.007530
face,0.002466
fact,0.002086
factor,0.012503
fail,0.004942
fairhair,0.025168
famili,0.004551
familiar,0.003477
famin,0.004401
far,0.006685
farm,0.013116
farmer,0.003478
farmland,0.005254
faro,0.023550
fealti,0.006850
fear,0.003083
fell,0.003174
fellow,0.003715
femal,0.003299
fennica,0.007928
fennoscandia,0.008389
fergusa,0.008890
feudal,0.004245
fibula,0.006734
fidel,0.004982
fieri,0.006091
fiesol,0.007928
fight,0.006167
final,0.002125
finland,0.004394
finnic,0.014622
finnish,0.005064
firmament,0.006935
fixat,0.005071
fjord,0.016626
flatnos,0.008890
fled,0.007955
flee,0.004214
fleet,0.051374
fli,0.003668
float,0.003891
florenc,0.004730
fog,0.005706
follow,0.014058
forc,0.014092
fore,0.005706
foreign,0.004575
forewarn,0.007615
forkbeard,0.008890
form,0.005373
format,0.004794
formid,0.005071
fort,0.004332
fortifi,0.004809
fortriu,0.008890
fought,0.007455
fragment,0.003456
franc,0.012579
francia,0.006452
frank,0.010323
frankish,0.011685
franz,0.004640
freckl,0.007615
frederik,0.006054
free,0.002007
french,0.004730
frequent,0.004941
frisia,0.007311
frisian,0.006734
frog,0.005006
frontier,0.003874
fuglesang,0.008210
fullscal,0.005119
furi,0.006211
furor,0.007188
g,0.002377
gaelic,0.013469
galicia,0.005950
galloway,0.007379
gararki,0.008608
gardariki,0.017781
gasconi,0.007530
gasp,0.007132
gather,0.003063
gave,0.007671
gener,0.007577
georg,0.002532
german,0.012409
germani,0.005292
given,0.005287
gnezdovo,0.008890
goblin,0.006981
god,0.003075
godr,0.008890
godthbsfjord,0.008890
godwinson,0.016779
good,0.003907
gotland,0.015060
govern,0.001671
gower,0.006373
gradual,0.002825
grahamcampbel,0.026672
grammaticu,0.007928
grandson,0.009846
grant,0.002694
great,0.019807
greek,0.004977
greenland,0.040843
grew,0.002936
grimsbi,0.008389
gro,0.006810
grobin,0.017781
ground,0.002557
group,0.007926
grove,0.005098
grow,0.006760
guard,0.003673
gulf,0.003975
guthrum,0.008890
gwyn,0.007311
ha,0.005859
haakon,0.013871
haithabu,0.008890
half,0.004838
halfdan,0.025168
hall,0.003334
hand,0.002177
harald,0.057584
haraldr,0.008890
haraldsson,0.008389
harbour,0.004519
harck,0.008890
hardhit,0.007709
hardrada,0.008890
harefoot,0.008890
harold,0.008434
harri,0.007392
harrow,0.006850
harsh,0.008363
harvest,0.003895
hast,0.005449
hastein,0.008890
hautevil,0.007615
haverfordwest,0.008608
havoc,0.006169
hazm,0.007079
head,0.004537
heart,0.003225
heat,0.003098
heathen,0.019612
heavili,0.005666
hebrid,0.053315
hedebi,0.017217
held,0.002077
helsinki,0.005329
heritag,0.003594
herjlfsson,0.008890
hersir,0.008890
hi,0.042546
hibernonorman,0.008389
higher,0.002089
highli,0.004627
hilgenri,0.008890
hilltown,0.008890
hinterland,0.011084
hispanicis,0.008890
histor,0.013819
histori,0.019029
historian,0.011845
historica,0.007248
hitandrun,0.007451
hkon,0.007928
hkonarson,0.008890
hlymrekr,0.008890
hoard,0.022529
holberg,0.007311
holi,0.014884
holmgard,0.008890
holyisland,0.008890
home,0.002509
homeland,0.004546
homestead,0.006110
hostil,0.003644
hour,0.003088
hous,0.002357
howev,0.015689
hudson,0.010051
hundr,0.005340
hurl,0.006452
hutchison,0.006891
ibn,0.003825
ice,0.011500
iceland,0.072310
icelandicnorwegian,0.008890
ide,0.006211
ident,0.005032
identifi,0.002124
ideolog,0.003319
idiom,0.005632
ihren,0.008059
ii,0.004600
iii,0.013443
imag,0.002706
immens,0.004222
immigr,0.003497
import,0.013490
impun,0.013469
includ,0.010979
increas,0.005069
incurs,0.014322
indecis,0.006110
independ,0.005415
indiana,0.004439
indic,0.002161
indigen,0.003504
inequ,0.003697
infanticid,0.006508
influenc,0.017421
inform,0.003494
inhabit,0.003055
initi,0.003819
inland,0.004217
inner,0.003532
innov,0.003044
inoper,0.006981
inroad,0.005857
inscript,0.004745
insight,0.003259
instal,0.003468
instanc,0.002380
instead,0.004116
integr,0.002120
intens,0.002918
interact,0.002192
intermix,0.006091
intern,0.004620
internecin,0.006452
invad,0.038664
invas,0.022432
invent,0.002859
invit,0.010865
involv,0.003407
iona,0.021934
ireland,0.066119
irish,0.033345
iron,0.006295
ironsid,0.016421
isbn,0.024930
isl,0.108284
islam,0.002925
island,0.036467
itali,0.015813
item,0.003223
iv,0.003814
ivar,0.012601
ivigtut,0.008389
j,0.006621
jame,0.004957
januari,0.007524
jarl,0.036895
jarldom,0.008890
jomsborg,0.008890
jomsvik,0.008890
jone,0.003901
joona,0.008608
jorvic,0.008890
jorvik,0.017781
jrvk,0.017781
jumig,0.008890
june,0.005120
just,0.006147
jutland,0.007029
karlsefni,0.008890
kaup,0.007709
kaupang,0.008608
kent,0.005270
kept,0.003166
ketil,0.035563
key,0.002236
khagan,0.006664
kiev,0.011837
kievan,0.018902
kill,0.011604
kilometr,0.004074
kin,0.005278
king,0.109165
kingdom,0.051427
kintyr,0.008890
klindtjensen,0.008890
kmh,0.005731
knarr,0.007709
knland,0.008890
knot,0.005207
know,0.002662
known,0.010278
koobrzeg,0.008890
kulturformidlingen,0.008890
kvad,0.008890
kvenland,0.062236
lack,0.006721
ladoga,0.016118
lager,0.007709
lake,0.003465
lament,0.005459
land,0.035580
landless,0.005799
langbaraland,0.008890
languag,0.017668
lans,0.012959
larg,0.010839
larger,0.011596
lashbuna,0.008890
late,0.010171
later,0.008737
latterli,0.006810
latvia,0.005184
launch,0.005918
law,0.001770
lawmend,0.008890
lbke,0.008890
leader,0.007707
leadership,0.006375
learn,0.002468
leav,0.002488
led,0.020859
left,0.004684
legend,0.004139
legendari,0.004889
leidang,0.008608
leif,0.006771
leipzig,0.005199
lens,0.005000
lesser,0.003602
libera,0.007530
life,0.003777
lifestyl,0.004184
liffey,0.008890
light,0.002422
lightsplit,0.008890
ligurian,0.007709
like,0.004708
likelihood,0.004074
limerick,0.027086
limit,0.001794
lincolnshir,0.014058
lindisfarn,0.057060
line,0.002102
linguist,0.006907
link,0.002555
lion,0.004574
lisbon,0.005147
listen,0.004149
liter,0.003378
literatur,0.010500
littl,0.008994
live,0.003799
loan,0.003408
local,0.005969
locat,0.004320
logan,0.006348
loir,0.007311
lombard,0.005903
london,0.017317
long,0.009538
longer,0.002423
longphort,0.026672
longship,0.059033
longterm,0.003091
look,0.004851
loot,0.009952
lord,0.003477
lordship,0.006348
lost,0.010212
loui,0.006630
low,0.002251
lower,0.004341
lowland,0.005133
loyal,0.004478
ludvig,0.006479
luni,0.008890
lure,0.005632
m,0.002101
mac,0.020449
maddadsson,0.008890
magnu,0.020505
maier,0.006981
main,0.005579
mainland,0.019083
mainli,0.004878
majesti,0.005133
major,0.006234
make,0.001494
man,0.028593
manag,0.002104
mani,0.026558
mann,0.016438
manor,0.006110
mar,0.004020
mark,0.007076
market,0.002199
marri,0.003683
marvel,0.005365
mass,0.002409
materi,0.004117
maximum,0.003194
meadow,0.011806
meagr,0.006425
mean,0.004853
measur,0.001924
mecklenburgian,0.017781
mediev,0.015667
mediterranean,0.003842
mele,0.006599
melt,0.004192
member,0.001874
memori,0.003056
men,0.010897
mention,0.002844
menzlin,0.026672
mercenari,0.010051
merchant,0.013957
merg,0.003538
met,0.003004
method,0.001819
microclim,0.006479
mid,0.002925
middl,0.012111
midth,0.010874
mighti,0.006190
migrat,0.003139
mile,0.010244
militari,0.004753
millennium,0.003666
minho,0.007812
mint,0.004809
miracul,0.005620
missionari,0.004160
mistaken,0.004851
mobil,0.003120
mobilis,0.005365
model,0.021960
modern,0.010573
modernday,0.008363
monasteri,0.022319
mongol,0.004615
monk,0.017382
month,0.002595
moss,0.005238
mostli,0.002506
motherhous,0.008890
mothertongu,0.007530
motiv,0.005740
mount,0.003424
mountain,0.006321
mouth,0.012496
mullaghboden,0.008890
murder,0.003731
museum,0.007085
muslim,0.003285
n,0.002638
nachbarn,0.008890
naddodd,0.008890
nasebi,0.008890
nativ,0.003036
natur,0.003136
nautic,0.010803
naval,0.003705
navig,0.011005
near,0.021740
nearbi,0.003615
nearli,0.002558
neck,0.004819
neg,0.002547
neglig,0.004371
negoti,0.003075
netherland,0.003423
network,0.002456
new,0.013122
newfoundland,0.010938
nineteen,0.005270
nomin,0.003066
nordic,0.025357
norditi,0.008890
nordmann,0.008389
nordrey,0.008890
normal,0.002341
norman,0.045533
normandi,0.057319
normanni,0.008890
normannorum,0.008608
norreyjar,0.017781
norrn,0.008389
nors,0.126978
norsegael,0.025168
norsemen,0.049203
north,0.034990
northeast,0.008368
northern,0.038451
northmen,0.017781
northumberland,0.007132
northumbria,0.027567
northumbrian,0.015856
northwestern,0.008920
norway,0.123874
norwegian,0.068492
note,0.003387
notr,0.011490
novgorod,0.033858
nowher,0.005058
number,0.002939
numer,0.002176
numismat,0.006373
o,0.003098
oath,0.005013
obodrit,0.008890
obtain,0.002283
occasion,0.003314
occur,0.005599
ocean,0.003023
oclc,0.004231
offer,0.002184
offici,0.004460
og,0.005950
ohther,0.008890
olafr,0.008890
olau,0.007188
olav,0.006373
old,0.031601
older,0.003082
ole,0.012182
olof,0.006452
olov,0.008059
onesid,0.006211
ongo,0.003214
onli,0.008114
oper,0.001853
oppon,0.003649
oppos,0.009820
opposit,0.004834
oppress,0.004332
optic,0.003534
oram,0.008890
organis,0.002781
origin,0.009768
orkney,0.071914
outlaw,0.004716
outsid,0.011205
overal,0.002688
overk,0.008890
overli,0.004702
overpopul,0.010784
overrun,0.005270
oversea,0.003504
overtook,0.005872
overview,0.005887
overwint,0.022355
oxford,0.008281
p,0.004485
pact,0.004411
pagan,0.018062
paid,0.002995
palha,0.008890
pari,0.006425
parti,0.002270
particip,0.002317
particularli,0.004120
partli,0.003158
pass,0.002282
past,0.002330
pastor,0.009281
pawn,0.006399
pay,0.008228
peac,0.005666
pedersen,0.006399
peen,0.008890
penetr,0.007849
peninsula,0.007816
pentz,0.008608
peopl,0.012958
perform,0.004130
perhap,0.002731
period,0.015710
peripher,0.004523
perman,0.008541
persia,0.004374
persian,0.003691
persist,0.003331
person,0.007689
perth,0.005718
phenomenon,0.003025
pict,0.014377
pictish,0.024632
pictur,0.003288
piec,0.003244
pillag,0.017804
pioneer,0.006138
piou,0.011656
piraci,0.015621
pirat,0.018721
pisa,0.005731
place,0.008307
plan,0.004449
plant,0.002550
platform,0.003597
play,0.004242
pledg,0.008331
plunder,0.015135
poem,0.004336
point,0.003408
poland,0.004013
polarisationfilt,0.008890
polit,0.007375
politi,0.004542
pomerania,0.006664
pomeranian,0.014496
poorli,0.003889
popul,0.008361
popular,0.004203
port,0.013278
portag,0.007530
portland,0.005609
portray,0.011472
portug,0.003924
possess,0.002640
possibl,0.015464
post,0.002851
power,0.008620
pp,0.002746
practic,0.003604
pragmat,0.004106
prayera,0.008890
precipit,0.003874
precis,0.002775
predominantli,0.003739
presenc,0.007642
present,0.008422
presentday,0.015134
press,0.011896
pressur,0.002535
prey,0.009180
price,0.002493
primari,0.013342
primarili,0.006908
princ,0.003635
princip,0.002631
probabl,0.009669
problem,0.001801
proceed,0.006165
prodigi,0.006018
product,0.001755
professor,0.003010
profit,0.002910
projectil,0.005510
prompt,0.003687
pron,0.007928
pronoun,0.006348
proper,0.003022
properti,0.004079
prosecut,0.004554
prosper,0.010448
protourban,0.008389
prove,0.002599
proverb,0.005828
provid,0.002989
prussia,0.004988
public,0.005089
pull,0.007732
puppet,0.005032
pure,0.002663
purpos,0.006573
pursu,0.003063
push,0.012814
qualiti,0.002510
quarrel,0.005479
quickli,0.005484
ragnarsson,0.008890
raid,0.140394
raider,0.060386
rais,0.004969
ralswiek,0.026672
ran,0.003771
ransack,0.006567
rapaci,0.007530
rapid,0.005839
rapidli,0.005680
rapin,0.008210
rare,0.002772
ratifi,0.004292
ration,0.002903
reach,0.015199
read,0.003711
readership,0.005706
reason,0.007670
reassess,0.005374
rebel,0.015527
recent,0.003700
recognis,0.003298
record,0.006756
recoveri,0.003556
red,0.014807
redeem,0.005025
refer,0.004273
reflect,0.002296
refug,0.009116
regain,0.008207
regard,0.002049
region,0.009566
reign,0.022166
rel,0.001915
relat,0.001440
reli,0.002574
relic,0.005321
religi,0.002729
religion,0.008163
remain,0.015903
remark,0.003276
remedi,0.004225
renaiss,0.003532
replac,0.004354
report,0.004107
reportedli,0.004242
repres,0.001752
reput,0.003717
reric,0.026672
resettl,0.005084
resist,0.002768
resourc,0.002163
respect,0.002031
respons,0.003706
rest,0.007509
result,0.010417
retali,0.009378
retreat,0.008253
return,0.006486
reveal,0.002810
revert,0.004675
rewrit,0.005000
rfinnr,0.008890
rgen,0.007928
riata,0.008210
ribe,0.008210
richard,0.005278
richer,0.005105
rimbert,0.008890
rise,0.004299
river,0.043816
roam,0.005718
roesdahl,0.008389
role,0.003743
rollo,0.050596
romanc,0.004970
roncevaux,0.008059
root,0.005397
rope,0.015465
ross,0.004371
rostock,0.007530
rouen,0.013262
rout,0.012866
routledg,0.007614
rover,0.005785
row,0.004131
royal,0.008457
ru,0.049406
rudbeck,0.007709
rudolf,0.008782
rule,0.023403
ruler,0.007139
rumour,0.005918
runeston,0.008389
runic,0.007812
rural,0.003455
rurik,0.014903
rush,0.004666
russ,0.006129
russia,0.018840
russian,0.003128
s,0.009092
sack,0.022230
saga,0.043675
sail,0.036370
sailor,0.004570
saint,0.003572
saintclairsurept,0.008890
saintquentin,0.008608
salomon,0.012072
samarkand,0.013016
satellit,0.003727
saw,0.002614
saxo,0.007928
saxon,0.017156
saxoni,0.005680
scale,0.004836
scandinavia,0.064455
scandinavian,0.220857
scenario,0.003870
scholar,0.018993
scholarli,0.003781
scholarship,0.003820
scientif,0.002149
score,0.003916
scot,0.027764
scotland,0.072284
scowl,0.008389
scribal,0.014158
sea,0.049069
seafar,0.005785
seamanship,0.007709
search,0.002734
seat,0.003161
second,0.005260
secondari,0.003042
secur,0.002269
seeburg,0.008890
seek,0.002397
seen,0.002096
sein,0.023738
select,0.004646
semi,0.006149
semilegendari,0.007379
send,0.003341
sent,0.002961
separ,0.001951
seri,0.002128
seriou,0.005986
serkland,0.008890
serv,0.002126
set,0.008275
settl,0.039475
settlement,0.056122
settler,0.016081
sever,0.007750
sh,0.005469
shallow,0.018077
sheep,0.004305
sheet,0.003864
shell,0.007192
shelter,0.004165
sheppey,0.008890
shetland,0.046418
ship,0.054567
shipbuild,0.005246
shire,0.006149
shoot,0.004530
shore,0.008124
short,0.002278
shortag,0.003879
sicili,0.009823
sieg,0.004428
sign,0.007344
signific,0.001898
significantli,0.002742
sigurd,0.007451
silk,0.008878
silver,0.003717
simek,0.017781
similar,0.003551
simpl,0.004725
simplifi,0.003463
sinc,0.002973
sindon,0.008389
sineu,0.008608
sister,0.004103
sit,0.003930
site,0.007513
situat,0.002289
sixth,0.003947
sk,0.006599
skill,0.002864
skin,0.003771
skipen,0.008890
skiringss,0.008890
skirt,0.006169
skokholm,0.008890
skomer,0.008890
sktkonung,0.008608
sky,0.004228
skye,0.008210
slant,0.006072
slaughter,0.009869
slav,0.017617
slave,0.003513
slavic,0.046865
slavicis,0.008890
slawischen,0.008890
sli,0.007188
slowli,0.006854
small,0.012736
smaller,0.002528
smile,0.005133
smithsonian,0.005084
societi,0.001862
sodor,0.008059
solidifi,0.004894
somerl,0.008890
sometim,0.001935
somewhat,0.003152
somewher,0.004554
son,0.011388
soon,0.016360
sophist,0.003421
sought,0.005793
sound,0.003130
sourc,0.024314
south,0.009314
southeastern,0.004619
southern,0.019317
southward,0.004976
southwest,0.004173
southwestern,0.004640
spain,0.006319
spar,0.006698
speaker,0.003818
spear,0.010624
speed,0.003040
spell,0.012311
split,0.003056
spoken,0.004000
sporad,0.004745
spread,0.007885
st,0.002397
stabl,0.002926
stamford,0.013620
stand,0.005589
standard,0.002002
start,0.007528
state,0.003903
statu,0.002483
statut,0.004368
stay,0.003254
steersman,0.007311
steiner,0.005575
stiklestad,0.008389
stop,0.002937
store,0.003012
strateg,0.003245
strathclyd,0.007812
straw,0.005552
strength,0.003015
strike,0.003307
string,0.003949
strmkendorf,0.008890
strong,0.006481
strongbow,0.008890
strongli,0.002865
struck,0.008457
studia,0.006348
style,0.006127
subdu,0.009608
subsequ,0.004640
subsist,0.004093
success,0.005915
successor,0.010020
sudrey,0.017781
suffici,0.005498
suggest,0.018734
suit,0.003456
summer,0.010319
sun,0.003298
superior,0.003309
supernatur,0.004320
suppli,0.002424
support,0.003535
supremaci,0.004861
sureyjar,0.017217
survey,0.002858
surviv,0.005129
sutherland,0.005918
swansea,0.006631
swede,0.024846
sweden,0.033428
swedish,0.012165
sweyn,0.044454
sword,0.004872
swore,0.006567
tabl,0.002861
tack,0.006567
tactic,0.011862
tagu,0.007615
taken,0.002177
talk,0.003199
target,0.013843
task,0.002758
tax,0.002794
tay,0.006891
technic,0.002644
techniqu,0.002285
technolog,0.017151
tekster,0.008890
telescop,0.009140
tend,0.004883
tens,0.005254
term,0.004215
terrain,0.004432
terrifi,0.005967
territori,0.015615
terror,0.003958
text,0.005130
th,0.066495
thame,0.011516
thanet,0.017781
thele,0.008890
themselv,0.008822
theori,0.006971
theoris,0.005542
thi,0.034477
thirdpersonsingular,0.008890
thirst,0.005903
thoma,0.002659
thormodu,0.008890
thoroughli,0.004712
thorp,0.006091
thorstein,0.006277
thought,0.004214
thousand,0.002622
threefold,0.005401
throne,0.008390
thrown,0.004952
thu,0.001738
thwait,0.008059
time,0.015787
titl,0.002669
today,0.006408
todd,0.005192
toft,0.008890
togeth,0.004100
token,0.005006
tolley,0.007615
took,0.006968
torfu,0.008890
touch,0.003924
town,0.006107
trace,0.002851
trade,0.047322
trader,0.010981
tradit,0.003744
transit,0.002588
travel,0.013127
treasur,0.009222
treati,0.012420
tremend,0.004320
tri,0.002340
tribal,0.004147
tribe,0.014642
tribut,0.013306
troop,0.003356
truso,0.015231
truvor,0.008890
tui,0.006255
turkey,0.003877
turmoil,0.004636
turn,0.002055
turner,0.004774
tuscan,0.006810
twice,0.003544
type,0.001787
ubba,0.008890
ukrain,0.008885
ukrainian,0.005155
ulster,0.006567
unattest,0.007928
uncivilis,0.007451
und,0.008749
undat,0.006981
undergo,0.003447
understood,0.002790
undertook,0.004636
unesco,0.004038
uniform,0.003447
uniformli,0.004845
uniqu,0.002535
unit,0.005999
univers,0.006160
unlik,0.002476
unwin,0.005499
upper,0.003002
upstream,0.005430
urban,0.006237
usag,0.003118
use,0.021869
usual,0.005368
vacat,0.005105
vale,0.006348
valkyri,0.007928
valley,0.006877
valuabl,0.003490
varagian,0.008890
varahi,0.008890
varangian,0.100640
varangoi,0.008890
vari,0.002192
variagian,0.008890
variou,0.001692
varr,0.008890
varyag,0.017781
varyagi,0.008890
vassal,0.004952
vassalag,0.006664
vast,0.005971
veisafjrr,0.008890
verafjrr,0.008890
verb,0.009834
veri,0.001698
verlag,0.004774
vessel,0.003620
viabl,0.004091
vicin,0.004799
victori,0.003443
victoria,0.004371
victorian,0.004774
vike,0.758226
vikingag,0.008890
vikingera,0.008890
vikingl,0.008890
villag,0.003397
vineta,0.017217
vinland,0.023128
violenc,0.003541
violent,0.003671
visbi,0.008389
visibl,0.003286
vkingrl,0.008890
volga,0.012466
volkhov,0.008608
volum,0.005094
vom,0.006734
von,0.003015
vow,0.005230
voyag,0.004067
wa,0.081686
wait,0.004031
wale,0.012418
wall,0.003148
want,0.002745
war,0.012673
warfar,0.011313
warlead,0.008210
warm,0.003800
warrior,0.013446
water,0.011468
waterford,0.022591
waterway,0.005105
wave,0.002998
way,0.001589
weak,0.008861
weaken,0.007448
wealth,0.006124
wealthier,0.005620
websit,0.002811
welldefend,0.008389
welsh,0.005312
wemhoff,0.008890
went,0.002727
wessex,0.021934
west,0.010212
western,0.035787
wexford,0.015625
weymouth,0.008389
whenev,0.004184
whi,0.002735
whirlwind,0.007311
whitbi,0.007029
wic,0.007709
wicklow,0.008389
wider,0.003385
william,0.009530
wilson,0.007428
windey,0.008890
window,0.004178
winter,0.018423
wismar,0.008389
witch,0.005365
withdraw,0.003574
woefulli,0.007615
wolin,0.030463
wolv,0.005842
women,0.002829
won,0.003010
word,0.014448
work,0.001457
world,0.013567
worm,0.004684
wors,0.004089
written,0.014125
wrong,0.003497
wrote,0.002533
year,0.018007
yield,0.002904
york,0.029772
yorkshir,0.012798
zwischen,0.015625
