abstract,0.019927
accept,0.004739
access,0.010446
achiev,0.004748
advanc,0.009324
aerial,0.010630
aggreg,0.007983
aim,0.010780
airborn,0.011268
algorithm,0.015135
allow,0.011261
analysi,0.031853
analyz,0.025381
anoth,0.003630
appli,0.016142
applic,0.081148
approach,0.039099
archeolog,0.010958
architectur,0.021361
area,0.014996
artici,0.018339
assembl,0.005893
augment,0.019441
autocad,0.019858
autom,0.025341
automat,0.015412
automot,0.010823
averag,0.005638
avoid,0.005638
b,0.005000
base,0.029603
bavarian,0.013605
becom,0.003643
belong,0.006431
berlin,0.008106
better,0.005132
bim,0.034901
block,0.006780
brec,0.019858
browser,0.012194
build,0.115600
c,0.004356
cach,0.012661
cad,0.050867
cadast,0.018739
cadastr,0.016330
calcul,0.005808
captur,0.006259
cartographyori,0.019858
case,0.003811
categori,0.011633
cell,0.013112
central,0.004273
challeng,0.010891
citi,0.394868
citygml,0.059576
client,0.079018
cloud,0.017440
coher,0.008403
collada,0.019858
cologn,0.012580
common,0.025806
commun,0.007973
complet,0.004211
complex,0.035692
compon,0.073512
comput,0.030313
concept,0.004255
concern,0.004280
concurr,0.009401
consid,0.003555
consist,0.004080
consortium,0.032024
construct,0.023608
contain,0.004374
content,0.018049
continu,0.003694
convert,0.006215
coordin,0.006463
core,0.019425
correct,0.006140
correspond,0.011070
cost,0.005360
creat,0.003729
cube,0.011357
cultur,0.013753
current,0.003903
d,0.597272
data,0.141119
databas,0.057068
day,0.004601
decoupl,0.012862
defin,0.008369
degre,0.004993
delay,0.007787
deliv,0.007187
deliveri,0.008812
depict,0.007605
deploy,0.008251
describ,0.003753
descript,0.005573
design,0.008957
detorba,0.019858
develop,0.003049
devic,0.013629
differ,0.022627
digit,0.027235
disast,0.008423
discuss,0.004975
display,0.013859
dissemin,0.009496
distinguish,0.005413
distribut,0.015093
divers,0.005864
doe,0.004125
domain,0.011910
download,0.010765
ds,0.011865
dtm,0.018339
dxf,0.019858
easili,0.006289
efcient,0.019858
effect,0.007132
effici,0.005747
element,0.014006
embed,0.008537
emerg,0.009409
encapsul,0.034641
encod,0.017878
enhanc,0.006799
environ,0.004866
error,0.006980
establish,0.003917
exampl,0.046028
exchang,0.010378
exist,0.007300
experi,0.004514
explicit,0.008015
explor,0.016779
explos,0.016275
export,0.006734
extend,0.009684
extern,0.002870
extrud,0.043235
facilit,0.013236
fast,0.007514
featur,0.004964
file,0.008193
filebas,0.019858
flood,0.008666
fme,0.018001
footprint,0.059234
forc,0.003934
form,0.009001
format,0.021415
frame,0.015003
framework,0.022496
free,0.004483
fulli,0.011836
function,0.008037
furnitur,0.011631
fusion,0.009149
game,0.013472
gbuffer,0.019858
gener,0.016924
geo,0.013116
geocoordin,0.019858
geodata,0.087252
geodesign,0.039717
geograph,0.006384
geoinform,0.016644
geometr,0.016144
geometri,0.032023
georeferenc,0.049446
geospati,0.068679
geotiff,0.019858
gi,0.109833
given,0.003937
global,0.005212
graph,0.017467
graphic,0.042216
grid,0.009938
gridbas,0.016819
group,0.003540
grow,0.005033
handl,0.007137
hard,0.006442
hardwar,0.018366
height,0.007826
help,0.004297
heritag,0.024086
heterogen,0.029606
hierarch,0.018011
high,0.023848
highest,0.006011
human,0.003781
illumin,0.009222
illustr,0.006694
imag,0.012088
imagebas,0.030250
implement,0.010930
importantli,0.008995
includ,0.010899
incorpor,0.005390
inform,0.031220
infrastructur,0.046523
initi,0.004265
inspect,0.009808
integr,0.023685
intellig,0.012249
interact,0.024488
interior,0.007703
intermedi,0.015429
interoper,0.012985
key,0.009990
keyhol,0.015812
land,0.004967
landscap,0.016366
languag,0.004932
larg,0.017293
laser,0.019542
lead,0.003915
level,0.035318
levelsofdetail,0.019858
link,0.002853
list,0.003649
load,0.009005
locat,0.009650
lod,0.205564
loss,0.005739
main,0.008308
mainten,0.007872
manag,0.070496
manner,0.006333
map,0.066035
mapbas,0.072005
market,0.004912
markup,0.012922
massiv,0.020947
mean,0.010841
medium,0.007481
merg,0.015806
metric,0.008812
million,0.005154
model,0.404666
monetari,0.007034
multi,0.012502
multiperspect,0.019858
multipl,0.005047
multiscal,0.014022
multitud,0.020711
municip,0.007996
navig,0.024581
need,0.003944
network,0.016457
night,0.008048
nois,0.009358
notion,0.006208
number,0.013131
obj,0.018739
object,0.008971
obliqu,0.012954
obtain,0.005100
offer,0.004879
offic,0.005281
ogc,0.034901
omnipres,0.012862
onli,0.009061
onlin,0.005743
open,0.013477
openstreetmap,0.015491
oper,0.004139
origin,0.003636
overal,0.006005
panorama,0.013291
particip,0.005176
particular,0.012322
pedestrian,0.013827
percentag,0.007312
perform,0.004613
phenomena,0.006265
photogrammetr,0.018339
plan,0.014908
platform,0.016071
point,0.007612
polygon,0.024904
portal,0.009463
portray,0.034165
possibl,0.011513
potenti,0.004871
practic,0.004025
precis,0.006198
precomput,0.018739
predict,0.005505
pregener,0.019858
prepar,0.006102
present,0.007524
prevent,0.005379
primit,0.008326
process,0.024900
project,0.027935
properti,0.013667
provid,0.043401
provis,0.007329
purpos,0.004894
qualiti,0.005606
rang,0.004516
rasterbas,0.018739
realest,0.014739
realiti,0.012982
realtim,0.100030
recognit,0.013082
reconstruct,0.029913
refer,0.007159
region,0.008546
relat,0.009652
reliabl,0.007135
render,0.172186
repres,0.035231
represent,0.024081
request,0.014506
requir,0.037567
rescu,0.009470
resolut,0.021901
respons,0.016556
risk,0.005871
road,0.020795
roman,0.006401
roof,0.046455
safeti,0.007691
sampl,0.007111
scalabl,0.026369
scan,0.019057
scene,0.060175
schema,0.023472
scope,0.007015
sdi,0.034901
semant,0.008846
semiautomat,0.015812
sens,0.004910
sent,0.006614
separ,0.004359
serv,0.009500
server,0.056416
servic,0.023247
servicebas,0.015211
serviceori,0.014811
set,0.007393
shadow,0.009298
share,0.004650
signicantli,0.019858
simpl,0.005277
simplest,0.008471
simpli,0.005419
simplifi,0.015470
simul,0.036082
sinc,0.003321
singl,0.008889
site,0.016783
sky,0.009444
smart,0.010433
smartphon,0.012172
soa,0.014602
soabas,0.034439
solar,0.007922
solv,0.006112
sound,0.006992
sourc,0.008355
space,0.010241
spatial,0.062113
spatiosemant,0.019858
special,0.008307
specif,0.003973
stabl,0.006536
standard,0.008946
statist,0.005448
storag,0.023710
store,0.033643
stream,0.015921
structur,0.015521
supplement,0.008222
support,0.039488
surfac,0.024055
survey,0.006384
synthes,0.008631
tablet,0.010587
taken,0.004863
task,0.024644
techniqu,0.015311
technolog,0.004788
term,0.003138
terrain,0.079196
terrestri,0.009042
textur,0.035049
therefor,0.009028
thermograph,0.016644
thi,0.009936
threedimension,0.009122
tile,0.049419
tin,0.010365
tool,0.026590
topolog,0.018277
transfer,0.005683
transform,0.010873
transport,0.011387
twodimension,0.010697
type,0.007986
typic,0.013367
underli,0.006307
understand,0.004508
uniqu,0.005663
upload,0.012832
urban,0.076628
usag,0.013932
use,0.035279
user,0.007367
usual,0.007993
valid,0.006342
variou,0.003780
vectorbas,0.018339
veget,0.007928
veri,0.007585
video,0.007309
view,0.021283
virtual,0.039409
virtualcitywarehous,0.019858
visibl,0.007341
visual,0.084088
water,0.005123
way,0.010653
wd,0.013874
web,0.021601
workflow,0.013255
wv,0.015211
xmlbase,0.016819
