abat,0.034351
abil,0.013773
academ,0.029987
act,0.022882
action,0.036899
activ,0.009988
add,0.019088
addit,0.010127
address,0.015074
agenc,0.047243
air,0.046132
airborn,0.029882
airport,0.022050
aliv,0.025012
alter,0.017956
altern,0.012862
alway,0.013461
amphibian,0.059092
analysi,0.060335
analyz,0.067306
anim,0.014011
appli,0.010701
applic,0.011955
approach,0.034561
aquat,0.026975
area,0.019884
arlington,0.037050
arriv,0.016114
arthropod,0.031465
aspect,0.013156
assess,0.017050
assist,0.029851
atmospher,0.176492
awar,0.018111
b,0.013259
barbara,0.026504
bay,0.022606
becom,0.009662
befor,0.010308
biolog,0.071577
biologist,0.090336
biota,0.031831
bodi,0.024224
bond,0.017240
book,0.011471
boston,0.022253
breadth,0.028671
bring,0.015005
c,0.011551
calcul,0.030805
came,0.013217
carbon,0.019703
carson,0.033722
case,0.010107
catch,0.024337
center,0.012893
certain,0.011064
chang,0.018228
character,0.015333
characterist,0.013934
chemic,0.138540
chemist,0.069699
chemistri,0.070874
circul,0.021152
classif,0.017838
cleveland,0.031885
climat,0.017262
climatolog,0.030490
close,0.010817
common,0.009776
commun,0.010572
competit,0.015898
complex,0.011831
compon,0.013924
comput,0.026795
concentr,0.015822
consequ,0.013749
consid,0.018859
consider,0.013588
construct,0.012520
contain,0.011599
contamin,0.077388
contribut,0.023735
control,0.021485
creat,0.019780
criteria,0.020249
crust,0.026928
cuyahoga,0.044603
defin,0.011096
degrad,0.046393
deputi,0.021653
describ,0.009952
design,0.011876
develop,0.032346
diegotijuana,0.043707
differ,0.008571
dioxid,0.023759
discharg,0.027141
dispers,0.022191
document,0.015610
drive,0.017372
driven,0.018824
dure,0.009307
dynam,0.015159
ea,0.031316
earth,0.045849
echo,0.027117
ecolog,0.128413
ecologist,0.085011
educ,0.012401
effect,0.028371
element,0.012380
emerg,0.012476
emiss,0.023099
emphasi,0.017657
endang,0.054091
energi,0.013627
enforc,0.036500
engin,0.028058
england,0.016892
enlighten,0.021256
enter,0.014231
environ,0.154850
environment,0.641669
eros,0.026251
estuari,0.032826
estuarin,0.040108
evalu,0.016867
evapor,0.027262
event,0.012668
everi,0.012181
evolut,0.015805
examin,0.045709
exampl,0.061028
expans,0.049275
explos,0.021579
extent,0.016017
extern,0.007611
fact,0.012360
fauna,0.049664
field,0.053154
flora,0.052628
flow,0.015330
fluvial,0.037184
flux,0.025608
focu,0.014281
focus,0.027101
follow,0.008327
food,0.014981
form,0.007956
formerli,0.019499
forth,0.021161
francisco,0.022464
ga,0.017513
geodesi,0.032106
geolog,0.039786
geologist,0.028105
geomorphologist,0.041350
geoscienc,0.092394
global,0.027647
glossari,0.025373
govern,0.019797
greenhous,0.028926
grow,0.013348
ha,0.013882
habitat,0.024278
health,0.014511
help,0.011396
histori,0.008670
houston,0.030981
human,0.020057
hydrolog,0.027590
impact,0.071327
implement,0.014492
improv,0.025619
includ,0.101165
incorpor,0.014294
increas,0.020019
independ,0.010691
industri,0.011881
inform,0.010348
infrar,0.026882
instruct,0.019597
integr,0.025123
interact,0.064939
interchang,0.023826
interdisciplinari,0.064192
intern,0.009121
interrel,0.025409
interst,0.031075
inventori,0.027069
investig,0.058344
involv,0.010091
issu,0.044680
key,0.013246
lake,0.020527
landmark,0.024502
law,0.020968
leak,0.029193
light,0.028694
like,0.009295
limnolog,0.032163
link,0.007567
list,0.009676
local,0.011786
localscal,0.043306
major,0.018464
manag,0.024925
mandat,0.021681
marsh,0.059688
mathemat,0.013679
mbta,0.044603
medicin,0.016591
meteorolog,0.025517
meteorologist,0.035247
method,0.010777
metro,0.033797
metropolitan,0.026440
mineralog,0.029619
minist,0.015700
mitig,0.025012
model,0.043357
molecular,0.018188
mud,0.030406
multidisciplinari,0.026029
multiphas,0.038217
nation,0.019284
natur,0.037159
need,0.020921
nepa,0.079779
new,0.007772
nois,0.024816
numer,0.012891
oceanograph,0.034782
oceanographi,0.028733
oceanolog,0.038901
offic,0.014006
ohio,0.028105
oil,0.017368
onli,0.008010
option,0.018157
organ,0.047458
overland,0.031777
overlap,0.019340
percept,0.018522
phenomena,0.066458
physic,0.079705
physicist,0.061790
plant,0.030215
polici,0.025754
pollut,0.210667
ponddwel,0.044603
popul,0.024761
practic,0.010675
prepar,0.016183
prime,0.016032
princip,0.015587
principl,0.023956
problem,0.053358
process,0.018866
program,0.025104
project,0.012346
propag,0.022232
propos,0.012311
protect,0.026598
protocol,0.022562
provid,0.008853
public,0.050246
pure,0.015778
qualiti,0.014867
quantit,0.037076
rachel,0.032050
radiat,0.019983
reaction,0.016227
read,0.010991
receiv,0.012090
refer,0.012656
regul,0.044945
relat,0.034130
relationship,0.048318
requir,0.019924
resolv,0.018381
resourc,0.025623
river,0.017301
runoff,0.028861
s,0.017950
san,0.040193
santa,0.025079
scienc,0.180939
scientif,0.012734
scientist,0.072354
sediment,0.027993
set,0.029409
sever,0.009181
silent,0.026231
site,0.014835
social,0.011204
societi,0.011034
soil,0.199556
solut,0.030136
solvent,0.141832
sound,0.018543
space,0.013578
speci,0.032395
specialist,0.021853
specif,0.042150
spill,0.031122
spring,0.019865
spur,0.024736
state,0.023118
statement,0.016168
statist,0.028898
stressor,0.033087
studi,0.167538
subject,0.022408
subsequ,0.013744
subset,0.022090
substant,0.059612
subsurfac,0.032955
surfac,0.015947
symbiot,0.030533
tank,0.024396
technic,0.015663
technolog,0.012698
term,0.016644
terminolog,0.020738
thi,0.019762
time,0.007792
today,0.012652
topic,0.013974
transit,0.015333
transmiss,0.043514
transport,0.075492
treatment,0.016201
turbid,0.041350
type,0.010588
uk,0.016143
ultim,0.015233
understand,0.059775
unit,0.017766
unlik,0.014667
upshot,0.039474
usag,0.018473
use,0.007196
veri,0.010058
virginia,0.025373
visibl,0.019467
volcan,0.025268
wa,0.007221
wale,0.024518
warm,0.022507
wastewat,0.036667
water,0.067928
work,0.025902
yield,0.017205
zoolog,0.026591
