accord,0.015426
achiev,0.019407
agil,0.050590
analysi,0.055791
analyz,0.025931
anoth,0.014838
anthropolog,0.034975
area,0.015322
associ,0.015070
basic,0.018714
boundari,0.025969
british,0.020770
captur,0.025581
cartographi,0.047123
center,0.039742
challeng,0.022255
claim,0.018912
cognat,0.050395
cognit,0.029539
commun,0.016293
comput,0.061942
concept,0.017389
conceptu,0.029991
confer,0.073585
contest,0.032785
context,0.021920
contrast,0.021049
contribut,0.018289
core,0.026462
cosit,0.081158
data,0.039774
david,0.022135
defin,0.034202
definit,0.039407
develop,0.012462
differ,0.013210
disagre,0.035824
disciplin,0.068885
draw,0.051089
europ,0.020342
examin,0.023481
field,0.081917
fundament,0.020543
geodesi,0.049480
geograph,0.391353
geographi,0.088589
geoinformat,0.119905
geomat,0.058897
geostatist,0.056898
gi,0.089773
giscienc,0.656192
giscientist,0.081158
goodchild,0.193868
ha,0.010697
histori,0.026723
ijgi,0.081158
impact,0.021984
incept,0.041754
includ,0.011136
incorpor,0.022029
independ,0.016476
individu,0.016547
influenc,0.017669
influenti,0.025801
inform,0.334924
intern,0.042173
journal,0.061900
laboratori,0.027219
list,0.014913
mark,0.021531
mathemat,0.021082
michael,0.024680
nation,0.014860
natur,0.014316
open,0.018359
organ,0.014627
orient,0.027943
overlap,0.029806
particular,0.016785
polit,0.016831
principl,0.018459
process,0.014537
progress,0.020959
properti,0.018619
psycholog,0.026212
recent,0.016888
redefin,0.043141
reexamin,0.048650
refer,0.009752
relat,0.013149
repres,0.015998
represent,0.024604
research,0.047465
s,0.027664
scienc,0.229642
scientif,0.078502
seek,0.021884
sinc,0.013572
societi,0.051017
softwar,0.028757
spatial,0.190382
special,0.016975
state,0.023752
statist,0.022268
statu,0.022669
structur,0.015858
studi,0.071721
subset,0.034043
summar,0.069142
support,0.016138
systemat,0.025931
techniqu,0.020858
theme,0.030061
theori,0.015909
thi,0.010152
tool,0.021733
tradit,0.017091
ucsb,0.072371
uncertainti,0.031587
use,0.011090
visual,0.057275
