abil,0.003022
abl,0.001387
abov,0.007031
absenc,0.004038
absent,0.002677
absolut,0.005589
absorb,0.002195
access,0.004559
accompani,0.004247
accord,0.003295
accru,0.003207
accumul,0.004214
acid,0.006639
acidsulfur,0.005778
action,0.002699
activ,0.020825
adjac,0.002514
adob,0.004110
advantag,0.001705
aerosol,0.011509
affect,0.001435
age,0.001375
agglomer,0.003806
agricultur,0.006530
air,0.008436
airborn,0.003279
allow,0.001092
alluvi,0.003900
alluvia,0.005778
alphabet,0.002645
alpin,0.003581
alter,0.001970
altitud,0.002972
amap,0.004949
america,0.001539
american,0.002489
analys,0.002147
analysi,0.001324
andor,0.003844
angular,0.002962
ani,0.004840
anim,0.006150
annual,0.005062
anoth,0.006339
anthracit,0.004426
anyth,0.002170
apart,0.004025
appalachian,0.004159
appear,0.001272
appli,0.002348
approach,0.001264
approxim,0.001496
april,0.001680
arbitrari,0.002371
archipelago,0.002788
archiv,0.006065
arctic,0.003039
area,0.050184
arid,0.003203
arrang,0.001790
arroyo,0.004568
art,0.001680
articl,0.001305
artifact,0.002602
artifici,0.003709
ash,0.002967
aspect,0.001443
assign,0.001973
associ,0.001073
atla,0.002575
atlant,0.004655
atmospher,0.019366
attitud,0.002255
attract,0.001767
august,0.001669
aunt,0.003778
autonomi,0.002295
avail,0.001342
avalanch,0.015787
averag,0.003281
away,0.003346
b,0.002909
backslop,0.005595
bacteria,0.002521
badland,0.005238
bank,0.003177
barrier,0.006704
base,0.003828
basement,0.003889
basi,0.001368
basic,0.009327
basin,0.002610
batholith,0.004796
bay,0.004961
beach,0.002869
bear,0.004111
becaus,0.006979
becom,0.003180
bed,0.008581
bedrock,0.008252
befor,0.001131
begin,0.002582
behavior,0.001553
belief,0.001773
bend,0.003096
beneath,0.002862
benefit,0.001607
bequest,0.004037
bilingu,0.003700
bind,0.002287
biolog,0.003141
biom,0.003504
biospher,0.002761
biota,0.003492
bitumin,0.004601
blast,0.006484
blockad,0.003033
blow,0.002806
blowingth,0.005778
blue,0.004721
bodi,0.003987
bold,0.003254
border,0.003902
born,0.001871
boulder,0.006720
bound,0.003963
boundari,0.003698
break,0.005477
breakinbulk,0.005778
broad,0.003558
broken,0.002208
brother,0.002221
brownish,0.004635
brownsvil,0.005077
build,0.002803
built,0.003302
bureau,0.005010
busi,0.001493
butt,0.012528
byproduct,0.005879
c,0.002535
canada,0.001899
canal,0.002631
cancer,0.004879
canyon,0.003806
capabl,0.001746
capac,0.005516
cape,0.002786
capit,0.001442
capricorn,0.004193
caprock,0.011557
carri,0.008580
carrier,0.002664
cartograph,0.007204
case,0.001109
cash,0.002217
cattl,0.002598
caus,0.001184
cavern,0.004126
cbd,0.004752
censu,0.005202
center,0.002829
centimet,0.003742
central,0.003730
centuri,0.001139
certain,0.001214
chaff,0.004568
chang,0.003000
channel,0.004379
chaotic,0.003039
chaparr,0.004601
chapter,0.002067
charact,0.003666
character,0.013460
characterist,0.010703
charg,0.001711
chart,0.007580
chemic,0.005067
child,0.004261
china,0.001704
chinook,0.004710
choic,0.001743
churn,0.004377
cinder,0.013523
circl,0.008550
circul,0.002321
circular,0.007756
circumfer,0.003481
circumv,0.003296
citi,0.010724
classifi,0.001794
clay,0.002832
clear,0.001651
clearcut,0.003574
cliff,0.011881
climat,0.017047
climax,0.003430
close,0.001187
closer,0.006585
cluster,0.002434
coal,0.007760
coalesc,0.006508
coastal,0.009673
coastlin,0.005518
code,0.001716
cold,0.002114
collaps,0.001954
collater,0.003230
collect,0.005176
colleg,0.001925
coloni,0.001834
columbia,0.002467
combin,0.001265
come,0.002537
commit,0.001859
common,0.003218
commonli,0.005893
commun,0.005800
compact,0.002617
compar,0.001312
compass,0.005716
complementar,0.007400
complex,0.001298
compon,0.001527
compos,0.001683
composit,0.003678
compris,0.001814
conceiv,0.002329
concentr,0.005208
concept,0.001238
condit,0.006207
cone,0.006265
confluenc,0.003725
confus,0.001996
conif,0.003889
conifer,0.008619
connect,0.005843
conserv,0.001761
consid,0.002069
consider,0.002982
consist,0.001187
constitu,0.002077
construct,0.002747
consum,0.003533
consumpt,0.002069
contain,0.007637
contamin,0.002830
content,0.001750
contin,0.013717
continent,0.009451
continu,0.003225
contour,0.006973
contract,0.001779
contrast,0.001498
control,0.002357
conurb,0.004672
convers,0.001830
cool,0.002485
cooler,0.003409
coordin,0.001880
copi,0.002138
copyright,0.025087
coral,0.002932
core,0.003768
correctli,0.002549
cost,0.004679
costdist,0.005778
coule,0.005452
counti,0.002640
countri,0.003502
cours,0.003092
cousin,0.002917
cover,0.010225
crater,0.010009
creat,0.003255
creativ,0.002292
crop,0.006580
croplien,0.005778
cross,0.003873
crust,0.023639
cryospher,0.008020
cryoturb,0.005778
crystal,0.002489
crystallin,0.003291
cuesta,0.005452
culmin,0.002350
cultiv,0.006798
cultur,0.008004
current,0.001135
curv,0.002182
cut,0.003767
d,0.001436
dad,0.004601
daili,0.002075
dam,0.002994
data,0.001415
date,0.004448
day,0.004016
dc,0.009827
debri,0.016998
decemb,0.001628
decidu,0.003984
decompos,0.002876
decor,0.002880
deep,0.001975
deeproot,0.004710
defin,0.007305
degre,0.010171
delta,0.005082
demand,0.004752
demographi,0.002983
dens,0.005051
densiti,0.002141
depart,0.004666
depend,0.001170
depict,0.002213
deposit,0.018905
depress,0.002204
depth,0.002329
deriv,0.001349
descend,0.002147
describ,0.002184
descript,0.001621
desert,0.002523
design,0.002606
destin,0.002483
detect,0.003896
determin,0.001232
detrit,0.004752
develop,0.001774
deviat,0.002517
devot,0.008389
diamet,0.005797
differ,0.004702
diffus,0.004847
dimens,0.002041
diminish,0.004804
dioxid,0.002607
dip,0.007058
direct,0.008247
directli,0.001425
discriminatori,0.003700
displac,0.002276
display,0.002016
dissolv,0.004407
distanc,0.017004
distant,0.002466
distinct,0.005466
distinguish,0.001575
distribut,0.001463
distributari,0.005452
district,0.004292
disturb,0.002491
divers,0.003412
divid,0.014069
divis,0.001537
doe,0.002401
dolomit,0.004635
domain,0.001732
dome,0.003541
domest,0.001838
domin,0.002920
dormant,0.003374
downward,0.002847
downwind,0.004452
drainag,0.003430
draw,0.001818
drawn,0.004187
dredg,0.004080
dri,0.016267
drill,0.002939
droplet,0.007869
droughttoler,0.005452
drown,0.003535
duplic,0.002910
dure,0.004085
dwarf,0.003222
dwell,0.006278
dye,0.003039
e,0.001437
earli,0.001068
earlier,0.001578
earth,0.073788
earthquak,0.008117
east,0.009854
eastern,0.003546
ecolog,0.004025
econom,0.009352
economi,0.013129
ecoregion,0.003163
educ,0.004082
effect,0.001037
effort,0.001479
eject,0.003250
elev,0.021449
elig,0.002672
elimin,0.001847
elsewher,0.002202
emerg,0.001369
enclav,0.003318
enclos,0.002901
encount,0.002103
encroach,0.003291
end,0.004671
energi,0.001495
engag,0.003383
engin,0.001539
england,0.005560
entir,0.001385
entiti,0.005437
envelop,0.003112
environ,0.005663
epoch,0.003050
equal,0.005818
equat,0.007106
erod,0.012299
eros,0.023045
erosionresist,0.005778
errat,0.003595
erupt,0.042676
escarp,0.008958
especi,0.001240
essenti,0.001484
establish,0.001139
estuari,0.003602
eurocentr,0.004065
european,0.001330
evalu,0.001850
evapor,0.002991
evapotranspir,0.004230
eventu,0.001518
exampl,0.002870
exchang,0.001510
exist,0.002124
exot,0.002845
expect,0.002935
expens,0.001907
experienc,0.001917
explan,0.001880
explos,0.009471
expos,0.004279
express,0.001384
extend,0.004226
extens,0.005769
extent,0.001757
extinct,0.002428
extract,0.006168
extrud,0.004193
exurb,0.005238
f,0.003146
face,0.001603
facilit,0.001925
facto,0.002589
fall,0.005832
fallow,0.011769
famili,0.004437
fan,0.003005
far,0.005793
farm,0.010656
fault,0.022955
faultblock,0.005778
featur,0.014446
feder,0.001700
feed,0.002452
fenc,0.003554
feral,0.003867
ferment,0.003135
fertil,0.002239
field,0.001166
figur,0.001581
final,0.002763
financ,0.001692
fine,0.006850
fir,0.004309
fish,0.003985
fissur,0.003826
fjord,0.003602
flat,0.002443
flattop,0.005336
float,0.002529
flood,0.005043
floor,0.005196
florida,0.005608
flow,0.025232
fluid,0.004503
fluiditi,0.003878
focal,0.006406
focu,0.003134
focus,0.001486
fodder,0.003959
fold,0.002723
follow,0.002741
forag,0.006492
forc,0.003434
forest,0.006590
forev,0.003044
form,0.025319
fractur,0.016112
fragment,0.004493
freez,0.002960
frequent,0.001605
frost,0.010408
frozen,0.006060
fulli,0.001722
function,0.003508
futur,0.001391
g,0.001545
gain,0.001389
gase,0.007640
gaug,0.002824
gener,0.004924
gentl,0.007021
gentli,0.004051
geograph,0.016719
geographi,0.016820
geolog,0.013097
geomorpholog,0.006710
geospher,0.004010
ghetto,0.004159
given,0.001145
glacial,0.010109
glaciat,0.007291
glacier,0.032847
globe,0.005202
glossari,0.008352
good,0.005079
govern,0.006517
grain,0.002481
granit,0.003554
grassland,0.013291
gravel,0.007735
great,0.003862
green,0.001964
greenwich,0.007520
grew,0.001908
grid,0.005784
ground,0.011634
group,0.005151
grow,0.008788
growth,0.004337
groyn,0.005778
gulch,0.004894
gulf,0.002583
gulli,0.004377
h,0.001586
ha,0.008378
habit,0.002421
half,0.001572
halfway,0.003561
hallmark,0.003492
hard,0.007498
harden,0.007009
harmon,0.005553
harvest,0.005064
hazard,0.007825
headland,0.004568
hearth,0.015936
heat,0.004028
heatgener,0.005238
heavi,0.007896
height,0.006832
help,0.005002
hemispher,0.002601
hi,0.001024
high,0.006939
higher,0.004073
highli,0.001503
hill,0.009088
hinterland,0.007204
histori,0.001902
hold,0.001375
home,0.001631
horizon,0.008352
horizont,0.002634
hot,0.010061
hour,0.002007
human,0.003301
humid,0.009125
humu,0.004568
hydraul,0.003192
hydrographi,0.004353
hydrospher,0.010292
ice,0.019932
idea,0.001281
ideagener,0.005778
ident,0.003271
identifi,0.002761
igneou,0.007520
iip,0.928551
imaginari,0.014957
immedi,0.003358
impenetr,0.004159
import,0.001948
improv,0.001405
inch,0.006155
inclin,0.002826
includ,0.001585
increas,0.004393
indent,0.004193
indentur,0.003481
index,0.001814
indian,0.001890
indic,0.001405
indigo,0.003668
individu,0.002356
indonesia,0.002705
industri,0.006518
inequit,0.004142
inertia,0.003222
influenc,0.001258
inform,0.002271
inhabit,0.001985
initi,0.001241
inland,0.002741
inlet,0.004037
innov,0.001978
instrument,0.001758
insular,0.003360
insur,0.002202
integr,0.001378
intellectu,0.001959
interact,0.007125
interconnect,0.005522
interdepend,0.002867
interior,0.004483
intermedi,0.004489
intern,0.002001
interrupt,0.002841
intersect,0.002574
interven,0.002454
intracoast,0.005778
invers,0.002411
invert,0.003087
invest,0.001626
involv,0.002214
ireland,0.002387
irregular,0.005344
irrig,0.002887
island,0.011850
isohyet,0.005336
isol,0.009272
item,0.004190
j,0.001434
japan,0.001888
jew,0.002685
jhoom,0.005778
jhum,0.005778
jungl,0.003254
jure,0.003420
jurisdict,0.004636
k,0.001731
karst,0.004601
key,0.001453
kilomet,0.008662
kudzu,0.004752
l,0.001681
labor,0.007500
lack,0.001456
lacustrin,0.005153
ladder,0.003309
lagoon,0.003616
lahar,0.005778
lake,0.015767
lakeb,0.005452
land,0.037578
landform,0.007058
landscap,0.007143
languag,0.004306
larg,0.011070
larger,0.009044
largest,0.001577
largevolum,0.005010
later,0.001135
latitud,0.026070
latitudin,0.004095
lava,0.031330
law,0.002300
layer,0.010991
leach,0.007468
lead,0.001139
learn,0.004812
leav,0.003234
lee,0.002596
leeward,0.006894
left,0.001522
legal,0.003151
legend,0.002690
legum,0.003787
legumin,0.005010
length,0.001894
lessen,0.003036
level,0.014844
levi,0.002683
lie,0.005613
life,0.007365
lifecycl,0.003404
lift,0.002549
light,0.003148
lignit,0.004479
limeston,0.013049
limit,0.004664
line,0.028701
linear,0.006095
link,0.000830
linkag,0.003010
liquid,0.004093
list,0.002123
lithospher,0.031330
littl,0.001461
live,0.004938
livestock,0.002695
loan,0.004431
locat,0.030888
loess,0.004537
long,0.007439
longitud,0.016291
longterm,0.002009
loos,0.004748
lose,0.002008
lost,0.001659
lot,0.002351
low,0.008780
lower,0.004233
lowest,0.004542
lowgrad,0.004288
lowland,0.006672
lumber,0.003630
m,0.001365
machineri,0.002354
magma,0.017941
main,0.001208
maintain,0.003994
major,0.006078
make,0.002913
mani,0.001726
manner,0.001842
mantl,0.019381
manufactur,0.005462
manycent,0.005778
map,0.022709
maritim,0.002458
mark,0.001533
market,0.001429
mass,0.017225
materi,0.033452
matter,0.005745
mean,0.001051
measur,0.011256
media,0.001751
mediterranean,0.002497
megalopoli,0.004949
melt,0.016349
meltwat,0.005010
member,0.001218
merg,0.002299
meridian,0.010870
mesa,0.012240
mesquit,0.004752
metamorph,0.003959
mete,0.004268
method,0.001182
metric,0.002564
metropolitan,0.011605
mi,0.004815
middl,0.003148
migrat,0.004080
mild,0.002947
mile,0.002219
militari,0.001544
milk,0.002820
million,0.002999
miner,0.006342
minimum,0.002082
minimums,0.005778
minor,0.001767
mix,0.001836
mixtur,0.009549
mode,0.002149
moder,0.002187
modern,0.001145
moist,0.010625
moister,0.004894
moistur,0.006627
molass,0.004176
molten,0.014167
mom,0.004331
monadnock,0.005778
money,0.001706
montan,0.004065
monument,0.002733
morain,0.009202
morpholog,0.002616
mosaic,0.003181
mound,0.003567
mountain,0.028760
mouth,0.005414
movement,0.013166
mudflow,0.010905
multilingu,0.003630
multipl,0.001468
municip,0.002326
n,0.003429
narrow,0.008624
nativ,0.001973
natur,0.008155
nautic,0.003510
navig,0.002384
near,0.003139
nearli,0.001663
new,0.001705
news,0.002084
nitrogen,0.002635
nitrogenfix,0.004331
nodal,0.004401
nonliv,0.003218
normal,0.006087
north,0.013644
northeastern,0.002949
northerli,0.004142
northern,0.001785
notabl,0.001465
note,0.001100
nuclear,0.001951
number,0.001910
numer,0.001414
nutrient,0.002709
o,0.002013
object,0.001305
observatori,0.002952
obtain,0.001484
occupi,0.005742
occur,0.014557
occurr,0.002469
ocean,0.025544
octob,0.003302
oeri,0.132908
offic,0.007684
offshor,0.002784
old,0.003159
oldest,0.002065
onc,0.001426
onedegre,0.005778
onli,0.001757
open,0.005228
oper,0.002409
opportun,0.007214
opposit,0.004713
order,0.001052
ordin,0.002816
organ,0.001041
orient,0.001989
origin,0.007407
orograph,0.004507
otherwis,0.001816
outer,0.002439
outermost,0.006672
outlin,0.003717
output,0.001992
outsid,0.002913
outwash,0.004949
overburden,0.004309
overhead,0.003399
overli,0.003056
owner,0.002159
oxid,0.002533
oxygen,0.002324
p,0.001457
pair,0.002034
palisad,0.004331
panhandl,0.010905
parallel,0.003957
parcel,0.003452
parti,0.001475
partial,0.005269
particl,0.006157
particul,0.003415
pass,0.002966
pastur,0.003581
pattern,0.008145
pay,0.005347
pebbl,0.003787
peopl,0.007369
percent,0.003835
perform,0.001342
period,0.007941
permafrost,0.008190
perman,0.005551
permit,0.003889
perpendicular,0.003181
person,0.002498
ph,0.003024
phenomenon,0.001966
phrase,0.002300
physic,0.007496
physiograph,0.008352
physiographi,0.004401
pick,0.002485
pictur,0.004275
piec,0.002108
piedmont,0.013705
place,0.039954
plain,0.014971
plane,0.002299
plant,0.009946
plastic,0.002567
plat,0.005010
plate,0.024793
plateau,0.006206
pleistocen,0.010460
plow,0.003751
plural,0.002455
point,0.008860
pole,0.010580
polit,0.008388
pollut,0.007705
polynod,0.005778
poor,0.003775
popul,0.016302
port,0.002157
portion,0.017268
pose,0.002325
possess,0.006863
possibl,0.001116
post,0.001853
postindustri,0.004065
potenti,0.001417
power,0.003361
practic,0.001171
precambrian,0.004126
preced,0.002074
precipit,0.015107
preclud,0.003139
predetermin,0.003135
predomin,0.002497
prepar,0.001775
presenc,0.001655
present,0.004379
presidio,0.004635
pressur,0.001648
presum,0.002444
prevail,0.002316
primari,0.010117
primarili,0.002993
prime,0.005277
proceed,0.002003
process,0.006210
produc,0.003417
product,0.015976
program,0.001377
project,0.001354
promontori,0.004601
protect,0.002918
protest,0.002034
public,0.003308
pueblo,0.003984
purpos,0.002848
push,0.002082
q,0.002452
qualiti,0.003262
quarter,0.002277
quaternari,0.006916
quiescenc,0.004710
r,0.001465
rail,0.005511
railroad,0.002818
rain,0.005560
rainfal,0.006026
rainshadow,0.005778
rang,0.007886
rapid,0.001897
rate,0.001356
raw,0.004530
reach,0.002822
realm,0.002193
receiv,0.002653
recogn,0.001488
record,0.002927
recreat,0.002682
rectangular,0.003287
reduc,0.002631
refer,0.002777
referenc,0.002983
reflect,0.002984
region,0.022383
regul,0.001643
rel,0.017431
relat,0.003745
relationship,0.002651
relief,0.002475
remain,0.006890
remov,0.004809
rent,0.002673
repos,0.004601
repres,0.006834
research,0.002253
resembl,0.002190
resid,0.003679
residenti,0.002988
resist,0.001799
resourc,0.004217
respect,0.001320
restrict,0.003218
result,0.013542
retail,0.005023
retriev,0.008252
revers,0.001911
revert,0.003039
revolutionincreas,0.005778
rhythmic,0.003676
ria,0.004601
ride,0.003019
ridg,0.018251
right,0.003738
rigid,0.005167
ring,0.004703
riparian,0.004249
rise,0.005589
river,0.024680
riverin,0.004249
rock,0.071762
rocki,0.006636
rocksgradu,0.005778
roof,0.003379
room,0.002252
root,0.001754
rose,0.002107
roughli,0.001947
round,0.002199
rout,0.008362
royal,0.001832
run,0.006104
s,0.001969
said,0.001426
salmon,0.007021
salt,0.002379
sanction,0.002607
sand,0.002867
sandi,0.003409
sandston,0.003826
satur,0.003149
savanna,0.003516
scale,0.003143
scarp,0.010306
scatter,0.002564
scheme,0.002090
scientif,0.001397
scotland,0.002610
scotsirish,0.005153
sea,0.023033
seaboard,0.004023
seam,0.003878
search,0.001777
season,0.017952
second,0.001139
secondari,0.001977
section,0.010323
sector,0.009102
sediment,0.009215
sedimentari,0.017291
segreg,0.006078
seismic,0.003609
seismograph,0.008958
selfreproduc,0.004710
semiarid,0.003857
separ,0.012686
septemb,0.003349
seri,0.004150
servic,0.005411
set,0.003227
settl,0.001973
settlement,0.004052
sever,0.003022
shale,0.003826
shallow,0.002937
shape,0.008275
share,0.002706
sharecrop,0.004479
sharp,0.002347
sheepranch,0.005778
sheet,0.002511
shell,0.007011
shelter,0.005414
shield,0.008169
shingl,0.004353
ship,0.003940
shipment,0.003188
shipper,0.008802
shore,0.005280
shorelin,0.011479
shortest,0.003415
shrub,0.007046
shrubland,0.008707
sidewaysdirect,0.005778
signific,0.002467
silag,0.005452
silo,0.004426
silt,0.003959
similar,0.004616
singl,0.001293
sinkhol,0.004635
sister,0.002667
site,0.003255
situat,0.004463
size,0.012040
slab,0.007778
slashandburn,0.004309
slope,0.025111
slow,0.001995
small,0.004730
smaller,0.003286
smog,0.004377
smsa,0.005778
snow,0.014971
snowfre,0.005778
snowlin,0.005778
social,0.006147
societi,0.001210
soft,0.002467
softer,0.011804
soil,0.041605
solid,0.010385
solubl,0.003090
solut,0.003306
someth,0.001858
sometim,0.002516
sourc,0.003646
south,0.012107
southeastern,0.003002
southern,0.003587
southwestern,0.006032
soybean,0.003630
space,0.002980
spanish,0.004180
spatial,0.013555
spawn,0.006161
speak,0.003706
specif,0.002312
specifi,0.003929
spent,0.002136
spheric,0.002822
spini,0.004452
split,0.001986
spot,0.004839
spread,0.001708
spring,0.004359
spruce,0.004193
stabl,0.001901
stage,0.001687
standard,0.002603
stapl,0.006119
state,0.021985
statist,0.004756
steadi,0.002476
steep,0.021676
steepsid,0.017335
step,0.001638
stepp,0.003355
stone,0.002158
store,0.001957
stori,0.001959
strata,0.003355
stratovolcano,0.005778
stratum,0.003923
stream,0.020847
strip,0.002536
strongli,0.001862
structur,0.002258
studi,0.003064
subarct,0.008904
subcontinent,0.005010
subdivis,0.005678
subduct,0.003946
subject,0.002458
subsahara,0.004710
subsequ,0.001508
subsid,0.002867
substanc,0.002031
substanti,0.001794
subsurfac,0.010848
suburb,0.003355
success,0.001281
suggest,0.001352
sulfur,0.002841
summer,0.006707
summit,0.008479
sun,0.002143
suppli,0.004726
support,0.001149
surfac,0.057747
surfaceiip,0.005778
surround,0.005309
survey,0.007430
suspend,0.002402
sustain,0.003780
swiftli,0.003574
swim,0.003139
symbol,0.003509
systemat,0.001846
t,0.001681
tabl,0.003719
taffi,0.005778
taiga,0.004353
task,0.001792
technic,0.001718
technolog,0.001393
tecton,0.006119
temper,0.005831
temperatur,0.015629
templatehari,0.005778
tenanc,0.004479
tenant,0.003360
tephra,0.013907
term,0.008218
terrain,0.011522
territori,0.011841
tertiari,0.002922
texa,0.002728
th,0.001108
thaw,0.003806
theori,0.001132
therebi,0.002000
thi,0.012288
thicket,0.009137
thing,0.001537
threedimension,0.002654
threshold,0.005384
throw,0.002967
thu,0.002259
tide,0.003005
till,0.005835
time,0.003420
tini,0.002607
tip,0.002695
titl,0.003469
today,0.001388
togeth,0.003998
topic,0.003066
topmost,0.004159
topograph,0.009928
topographi,0.012611
total,0.006742
tourist,0.002575
town,0.003969
township,0.003934
tract,0.002755
trade,0.001398
trait,0.002289
transfer,0.006615
transhum,0.004843
transpar,0.002473
transpir,0.003581
transport,0.008283
travel,0.001706
tree,0.019907
treeless,0.004752
tremor,0.007756
tribe,0.002379
tributari,0.003441
tropic,0.009864
truck,0.003188
truetoscal,0.005778
tundra,0.007633
twodimension,0.003112
type,0.008133
typic,0.001296
u,0.002255
ultim,0.001671
uncl,0.003090
unconform,0.004949
underemploy,0.003946
underground,0.002678
underli,0.001835
underpopul,0.004796
undisturb,0.004080
uneven,0.003254
unfit,0.003742
uniform,0.002240
unimport,0.003645
unit,0.023394
univers,0.001000
unload,0.004023
unnavig,0.004949
unnecessari,0.002854
unprocess,0.004211
unseed,0.005778
unstabl,0.002578
unstratifi,0.004949
untam,0.005010
unwant,0.006437
upland,0.008131
uplift,0.006916
upper,0.007806
upstream,0.003529
upward,0.002690
urban,0.014189
usc,0.007368
use,0.014214
usg,0.173394
usual,0.022097
v,0.001723
valley,0.006704
valu,0.003716
vapor,0.006038
vari,0.001424
variat,0.001811
varieti,0.002902
variou,0.001100
vat,0.003469
veget,0.009228
vent,0.020428
veri,0.007725
vertic,0.002500
vibrat,0.002820
villag,0.006625
vine,0.003581
viscos,0.007009
viscou,0.007384
visibl,0.002136
volatil,0.005142
volcan,0.036045
volcano,0.054309
volum,0.003310
w,0.001621
wa,0.001584
want,0.001784
warm,0.002469
warrior,0.002913
washington,0.008511
wast,0.004636
water,0.053668
watercours,0.004507
waterway,0.006636
wave,0.001948
way,0.001033
weather,0.007109
weight,0.003895
west,0.008297
westand,0.005778
western,0.001453
wherebi,0.002183
white,0.001834
wholesal,0.003007
wide,0.001244
widespread,0.001856
wild,0.004958
wind,0.016073
windth,0.005153
windward,0.010870
winnow,0.008904
winter,0.007184
word,0.002683
work,0.005684
worker,0.001799
write,0.001511
year,0.005852
yearli,0.002865
yield,0.005663
york,0.001488
z,0.002357
zone,0.009987
