aerial,0.038800
affect,0.018004
alga,0.038117
area,0.013683
arrang,0.022461
attribut,0.021417
autom,0.030830
avail,0.016841
backslop,0.070178
basin,0.032737
bathymetri,0.058602
bay,0.031113
berm,0.057712
biolog,0.019702
bodi,0.016670
bound,0.024857
camera,0.035962
canal,0.033001
canyon,0.047750
cap,0.033893
cartographi,0.042084
case,0.013911
categor,0.028284
channel,0.027465
characterist,0.038356
class,0.018455
cliff,0.037256
cohes,0.036102
compil,0.028710
consum,0.022158
contin,0.028676
contour,0.043736
coral,0.073562
data,0.053281
definit,0.017596
dem,0.049505
deposit,0.026347
describ,0.041092
desert,0.031645
develop,0.022259
differ,0.011797
digit,0.024850
dimens,0.025605
directli,0.017881
discontinu,0.033787
distribut,0.018362
divis,0.019287
dune,0.043809
earth,0.042068
element,0.068160
elementari,0.030225
elev,0.059786
eros,0.036131
exampl,0.023998
exemplifi,0.034133
expens,0.023929
exposur,0.029776
extern,0.010476
extract,0.025790
facet,0.039767
factor,0.033976
featur,0.163076
foreslop,0.072480
forest,0.027552
format,0.019540
gather,0.024976
gener,0.020589
geograph,0.023300
geolog,0.027379
geomorpholog,0.084168
given,0.043108
grassland,0.041676
great,0.016147
gross,0.028012
ha,0.009553
harbor,0.035852
henc,0.022354
hierarchi,0.029195
highestord,0.066934
highord,0.064632
hill,0.142498
hilltop,0.055843
homogen,0.064537
hundr,0.043535
identifi,0.017318
includ,0.069618
influenc,0.015780
inland,0.034380
intuit,0.030656
involv,0.013888
irregular,0.033516
kilomet,0.036216
kind,0.019083
known,0.023940
lake,0.028252
land,0.054385
landform,0.752543
landscap,0.029867
lidar,0.048122
line,0.034285
link,0.010414
list,0.013318
make,0.012179
manhour,0.048647
mani,0.043301
manmad,0.038489
marsh,0.041075
measur,0.015686
meter,0.032233
midocean,0.049355
model,0.014918
modern,0.014365
morphometr,0.056539
mound,0.044752
mountain,0.077301
natur,0.012785
network,0.020022
note,0.013808
number,0.011981
numer,0.017743
object,0.016372
observ,0.015806
ocean,0.073937
opengeomorphometri,0.144960
orient,0.024955
pass,0.018605
peak,0.026280
peninsula,0.063718
physic,0.047014
pit,0.037937
plain,0.031297
planet,0.081519
planetari,0.034334
plate,0.031098
plateau,0.077840
polar,0.029340
pond,0.042326
pool,0.031359
port,0.027062
project,0.033986
properti,0.016628
rang,0.032971
recent,0.030164
reef,0.038227
refer,0.017419
rel,0.015616
relief,0.155264
requir,0.013711
restrict,0.020186
ridg,0.114462
river,0.023812
rock,0.027275
role,0.015257
saddl,0.042084
salt,0.029841
satellit,0.030389
scale,0.019713
scaledepend,0.072480
scaleresolut,0.072480
scientif,0.017526
sea,0.022223
segment,0.029841
set,0.013492
shorelin,0.047996
shoulder,0.040665
similar,0.014474
sizesc,0.072480
slope,0.034995
smallest,0.031549
soil,0.054931
solid,0.026051
spatial,0.028337
stereoscop,0.054058
strata,0.042084
stratif,0.043033
structur,0.014162
studi,0.025620
submerg,0.043033
subsurfac,0.045358
surfac,0.087795
surveil,0.038264
synonym,0.030252
systemat,0.023158
techniqu,0.074512
tecton,0.038376
term,0.022908
terrain,0.144524
terrestri,0.033001
time,0.010725
tin,0.037831
togeth,0.016715
topographi,0.079094
triangul,0.047053
type,0.014573
typic,0.016262
underwat,0.039082
unit,0.012226
univers,0.012554
use,0.059428
valley,0.084098
variou,0.027599
veget,0.028937
vertic,0.031359
volcano,0.071704
vs,0.058535
waterbodi,0.064632
word,0.016826
work,0.011883
