abraham,0.026459
accord,0.011266
achiev,0.007086
advanc,0.006957
affili,0.012886
africa,0.274450
afroeurasia,0.023773
agreement,0.025796
aka,0.015355
alaska,0.017040
alphabet,0.013564
altiplano,0.023117
amazon,0.016116
america,0.142106
american,0.019147
analysi,0.006790
andean,0.036528
angloamerica,0.025384
ani,0.004964
antarct,0.017040
antarctica,0.050384
antil,0.034974
arab,0.124857
arabia,0.068901
arabian,0.046981
archaean,0.022102
archipelago,0.014298
area,0.016784
arrang,0.018367
asean,0.018437
ashmor,0.026041
asia,0.328861
asian,0.032195
assign,0.010118
associ,0.005502
assumpt,0.009597
australasia,0.018734
australia,0.058749
australian,0.023431
austria,0.013033
autonom,0.011390
balkan,0.047939
baltic,0.031859
base,0.004908
basin,0.053541
bay,0.012721
belaru,0.017382
belgium,0.013332
benelux,0.020776
bloc,0.027259
book,0.006455
bouvet,0.024596
brazil,0.012138
british,0.015168
cafta,0.024596
caledonia,0.036733
canada,0.009743
canadian,0.011547
capit,0.007398
cardin,0.014915
caribbean,0.064895
caricom,0.018197
carri,0.007333
cartier,0.022832
caucasu,0.099639
central,0.108413
centralian,0.029635
chaco,0.022571
charg,0.008779
china,0.139847
christma,0.016030
cisfta,0.027964
classif,0.010038
clipperton,0.050200
coco,0.018935
code,0.008803
collect,0.006636
committe,0.009761
commonli,0.007555
commun,0.023797
cone,0.016064
confoederatio,0.027964
congo,0.046578
consid,0.031838
contin,0.082075
continent,0.024235
conveni,0.012148
coral,0.015038
countri,0.035927
craton,0.216935
cultur,0.020524
custom,0.018401
dach,0.055928
deccan,0.022699
defin,0.006244
deutschland,0.021891
develop,0.009101
devis,0.012482
dharmic,0.022699
direct,0.006042
dissemin,0.014170
district,0.022012
divis,0.086749
doe,0.006156
east,0.176873
eastern,0.090927
econom,0.041965
economi,0.007481
elizabeth,0.039099
eurasia,0.015963
eurasian,0.033589
europ,0.066854
european,0.040939
euroregion,0.027964
eurozon,0.018067
exclud,0.020611
expert,0.010820
extent,0.009013
extern,0.004283
far,0.029712
fennoscandia,0.027964
follow,0.004685
fragment,0.011521
free,0.026764
french,0.007883
gawler,0.029635
genesi,0.014738
geograph,0.085742
geographi,0.064697
geolog,0.067168
geopolit,0.048091
georgia,0.014001
geoschem,0.172172
germani,0.017640
gneiss,0.022328
goal,0.008057
gran,0.018366
great,0.019806
greater,0.044269
greenland,0.017017
group,0.036988
guiana,0.018067
guianan,0.024838
guinea,0.082992
hainan,0.023269
heard,0.013929
helvetica,0.026863
higherlevel,0.018894
himalaya,0.019675
hispan,0.018545
histor,0.006580
hong,0.027391
horn,0.059421
howe,0.061696
iberian,0.016467
impli,0.009107
includ,0.044730
india,0.071747
indian,0.038787
indochina,0.018401
indochines,0.022832
indoganget,0.025696
indu,0.016860
inform,0.005823
inner,0.023551
iranian,0.029546
isl,0.030077
island,0.225740
italian,0.010991
jame,0.008261
japan,0.009687
jervi,0.023960
kaapvaal,0.029635
kazakhstan,0.016926
keel,0.018977
kinmen,0.023773
kong,0.027629
korea,0.035467
korean,0.013597
kurdistan,0.021329
lake,0.011551
land,0.007412
lapland,0.024370
larger,0.007730
latin,0.046024
leagu,0.048065
lesser,0.012006
levant,0.016506
link,0.004258
list,0.010891
locat,0.007200
lord,0.034772
luxembourg,0.016647
macau,0.039147
macrogeograph,0.059270
maghreb,0.019946
mainland,0.025442
mainli,0.008129
malay,0.033213
malesia,0.027367
manchuria,0.059027
maritim,0.012605
matsu,0.023597
mcdonald,0.018813
mekong,0.021329
melanesia,0.040607
mercosur,0.020303
mesoamerica,0.019378
mesoamerican,0.020704
mesopotamia,0.014891
mexico,0.024434
micronesia,0.036328
middl,0.056517
middleton,0.063988
militari,0.007921
millenni,0.021244
minor,0.009062
mongolia,0.050983
municip,0.011932
muslim,0.010951
nafta,0.020431
narryer,0.026426
nation,0.054261
near,0.016103
netherland,0.011411
new,0.039366
nonexhaust,0.021891
nordic,0.016904
norfolk,0.038662
north,0.101077
northeast,0.167365
northern,0.082391
northwest,0.013393
numer,0.007254
ocean,0.010076
oceania,0.029928
ore,0.014029
outer,0.025022
pacif,0.011349
pampa,0.021891
pantan,0.027367
papua,0.017134
paracel,0.026041
patagonia,0.021891
penghu,0.023960
peninsula,0.143290
peninsular,0.018437
perth,0.019062
peter,0.008929
petrocarib,0.026426
pilbara,0.023773
plain,0.025593
plateau,0.063653
polar,0.011996
polit,0.006145
polynesia,0.035357
possibl,0.005727
prata,0.027367
process,0.005308
proper,0.010074
public,0.005655
purpos,0.007304
qinghai,0.024838
queensland,0.018332
reef,0.046890
refer,0.003561
regard,0.006832
region,0.095658
religion,0.126984
report,0.006844
russia,0.010466
russian,0.020852
sahara,0.016526
saharan,0.060540
sahel,0.019426
sakhalin,0.046858
sandwich,0.017735
savanna,0.054108
scandinavia,0.016526
scandinavian,0.016730
sea,0.009086
select,0.007743
senkaku,0.024596
shield,0.069826
shoal,0.020367
siberia,0.033988
slave,0.011711
south,0.139708
southeast,0.036399
southeastern,0.015397
southern,0.082787
southwest,0.027822
specif,0.005929
spratli,0.023597
stan,0.058278
state,0.030356
statist,0.113837
subcontin,0.045820
submerg,0.017595
subregion,0.394254
subsaharan,0.015526
sudan,0.045780
sudanian,0.079280
sudd,0.025100
superbasin,0.029635
supercontin,0.019523
superior,0.011031
switzerland,0.012702
taiwan,0.027894
taoic,0.026041
tasmania,0.020180
territori,0.052050
thi,0.029657
tibet,0.017678
trade,0.028678
trend,0.009466
ukrainian,0.017182
union,0.036824
unit,0.044991
use,0.008099
usual,0.005964
valley,0.011461
victoria,0.014570
visegrd,0.023960
wa,0.004063
wale,0.013797
west,0.034041
western,0.119285
women,0.009432
world,0.040198
worldwid,0.010054
wyom,0.021161
xinjiang,0.021002
yilgarn,0.029635
zealand,0.023570
zealandia,0.023773
zhongsha,0.029635
zimbabw,0.016205
