abov,0.026755
affect,0.027310
agricultur,0.031063
america,0.029289
american,0.023679
ani,0.018418
appli,0.022341
area,0.166056
associ,0.020415
atlant,0.132861
bank,0.030223
bay,0.094391
becaus,0.018969
begin,0.024571
border,0.037121
carolina,0.113732
case,0.021102
chang,0.019028
chesapeak,0.164824
coastal,0.092027
coloni,0.034902
come,0.024141
commonli,0.028032
compos,0.032025
consid,0.019686
correctli,0.048505
cover,0.027792
design,0.024794
earli,0.020327
east,0.031247
eastern,0.067466
effect,0.019744
end,0.022220
expans,0.034291
extend,0.026807
extrem,0.029153
face,0.030504
fall,0.055483
farmland,0.064975
flat,0.046481
flora,0.109874
foothil,0.078509
forest,0.041794
fring,0.058156
gain,0.026440
gener,0.015616
geograph,0.070688
given,0.021796
hampton,0.153104
higher,0.025836
host,0.039739
includ,0.045258
inner,0.043687
known,0.018157
land,0.054998
larg,0.019148
level,0.043452
line,0.052006
local,0.024607
low,0.027844
lower,0.053691
maritim,0.046766
mark,0.029169
marsh,0.062307
maryland,0.120646
middl,0.029953
natur,0.019394
neck,0.059599
north,0.057691
northeastern,0.056124
northern,0.067925
ocean,0.074769
peninsula,0.096654
piedmont,0.173842
pine,0.061914
plain,0.094949
planter,0.067030
poquoson,0.106453
portion,0.073012
primarili,0.028476
product,0.021712
rapid,0.036103
refer,0.013211
region,0.118295
rest,0.030954
rise,0.026586
river,0.036121
road,0.076753
round,0.041853
scarp,0.098041
shore,0.100471
sound,0.038714
south,0.028794
southeast,0.090027
southeastern,0.057123
southern,0.034126
specif,0.021999
state,0.016088
suffolk,0.080481
swamp,0.067148
term,0.017374
thi,0.013753
tidal,0.066232
tide,0.171527
tidewat,0.645045
tobacco,0.051810
unit,0.018546
use,0.015024
virginia,0.370814
water,0.056727
waterfal,0.062070
