accord,0.014924
activ,0.059568
answer,0.026574
approach,0.051528
area,0.014823
background,0.025632
becaus,0.013546
branch,0.019137
busi,0.020286
characterist,0.020774
china,0.023156
chinabas,0.074087
classic,0.019914
concern,0.050772
connect,0.019847
consid,0.042176
consist,0.016134
consumpt,0.028116
cover,0.019847
creat,0.029490
cultur,0.054378
daili,0.028194
deal,0.019420
dean,0.039294
destin,0.101209
develop,0.024112
differ,0.012779
divers,0.023186
economi,0.019821
ecotour,0.056285
environ,0.019239
environment,0.046667
essenti,0.020175
everyday,0.031003
extend,0.019143
extern,0.011348
field,0.015849
fit,0.026424
form,0.011862
fundament,0.019874
gaze,0.052551
gener,0.011151
geograph,0.025240
geographi,0.285677
geotour,0.148174
heritag,0.031743
hospit,0.030604
human,0.014952
impact,0.063806
includ,0.032320
industri,0.035428
intern,0.013599
involv,0.015045
isol,0.025197
issu,0.016653
john,0.017652
journal,0.039922
landscap,0.032353
leisur,0.127685
link,0.011281
list,0.014427
literatur,0.023181
live,0.016776
locat,0.019076
maccannel,0.078514
major,0.013764
manag,0.074324
march,0.021514
methodolog,0.027461
motiv,0.025345
movement,0.017889
natur,0.013850
occur,0.016483
onli,0.011942
origin,0.028755
peopl,0.014303
person,0.016976
physic,0.016976
pioneer,0.027101
place,0.190737
produc,0.015479
provid,0.013199
quantit,0.027639
rang,0.017858
recent,0.016338
refer,0.009434
region,0.016895
relationship,0.054029
remain,0.015604
result,0.013142
rout,0.028405
routledg,0.033622
scienc,0.015868
selfident,0.056741
sens,0.019414
social,0.016704
sociolog,0.093337
space,0.020244
studi,0.083262
suppli,0.021406
theoret,0.021530
thi,0.009821
tourism,0.824773
tourist,0.174966
transport,0.022510
travel,0.115930
urri,0.072507
vari,0.019357
wide,0.016912
