abl,0.004410
abov,0.004470
absenc,0.002139
absolut,0.001974
absorb,0.009307
acceler,0.004477
accept,0.004383
accompani,0.004500
accord,0.006983
account,0.001370
accret,0.088084
accur,0.001983
achiev,0.004392
act,0.003990
action,0.001430
activ,0.006968
actual,0.004468
ad,0.001485
adaf,0.006123
addit,0.005887
adm,0.004746
adopt,0.001606
advanc,0.001437
advectiondomin,0.012246
advertis,0.002734
afterward,0.002563
age,0.002915
agn,0.012546
albert,0.002365
allow,0.012731
alon,0.001990
alreadi,0.003391
altern,0.008973
alway,0.003130
american,0.001318
analog,0.008319
analogu,0.003181
analysi,0.001403
andrew,0.002363
andromeda,0.004355
angular,0.047087
ani,0.029747
ann,0.002726
announc,0.003909
anoth,0.004477
anticip,0.002588
anyth,0.002300
apart,0.002132
apm,0.005186
appar,0.001986
appear,0.024266
appli,0.001244
approach,0.005358
approxim,0.004758
arbitrari,0.002513
arcsecond,0.004637
area,0.006936
argu,0.003096
arguabl,0.002836
argument,0.003911
arthur,0.004748
articl,0.001383
artifact,0.005515
artist,0.002442
ask,0.001924
associ,0.001136
assum,0.008062
assumpt,0.003966
astronom,0.015724
astronomi,0.002613
astrophys,0.006631
astrophysicist,0.003920
atmospher,0.002280
attain,0.002356
attempt,0.003982
attent,0.001897
attribut,0.001809
averag,0.005215
avoid,0.005215
away,0.024821
axisymmetr,0.005131
background,0.007995
balanc,0.001842
bang,0.009409
bardeen,0.004195
baryon,0.004208
base,0.002028
bbc,0.002647
becam,0.005131
becaus,0.016903
becom,0.007864
befor,0.004794
begin,0.001368
behavior,0.003292
behaviour,0.006491
bekenstein,0.009824
bekensteinhawk,0.005460
believ,0.001451
belinski,0.005654
bend,0.006562
best,0.003093
bet,0.003550
betelgeus,0.005460
better,0.003165
big,0.006375
billion,0.001993
billionth,0.004589
binari,0.030829
birkhoff,0.004195
bizarr,0.004003
black,0.490560
blackbodi,0.004054
blackhol,0.005035
block,0.002090
blown,0.004054
bodi,0.016899
bokulich,0.006123
bolton,0.004544
book,0.001333
bound,0.002099
boundari,0.023511
brandon,0.004690
braneworld,0.005550
breakdown,0.005778
breviti,0.004323
briefli,0.005206
bright,0.003069
brightest,0.004121
bubbl,0.002942
build,0.002970
bulg,0.003903
bunch,0.003994
burst,0.003161
c,0.004029
calcul,0.008954
came,0.001536
candid,0.030311
captur,0.001929
car,0.002483
care,0.001765
carri,0.007576
carter,0.006638
case,0.008226
caught,0.002894
caus,0.017564
causal,0.005234
censorship,0.003426
center,0.008995
centr,0.001932
central,0.006588
centuri,0.002414
cern,0.003629
certain,0.005146
cg,0.003994
chandrasekhar,0.017489
chang,0.001059
character,0.001782
characterist,0.001620
charg,0.036278
charl,0.001800
circular,0.013697
circumst,0.002159
class,0.003118
classic,0.007765
classicalsemiclass,0.006123
classifi,0.001901
clock,0.005884
close,0.006288
cloud,0.002688
cluster,0.005158
coagul,0.004462
coauthor,0.003223
coin,0.001946
coincid,0.005057
collabor,0.002159
collaps,0.062122
collect,0.002742
collid,0.012736
collis,0.008661
combin,0.001340
comment,0.002251
common,0.001136
commonli,0.004683
commun,0.002458
compact,0.047149
companion,0.013557
compar,0.002780
complet,0.006491
comprehens,0.002070
compress,0.002902
comput,0.003115
conceiv,0.002468
concern,0.001319
conclud,0.003845
concret,0.002575
condens,0.002720
condit,0.005261
conduct,0.001611
configur,0.002597
confin,0.002524
confirm,0.002026
connect,0.001547
consensu,0.002345
consequ,0.001598
conserv,0.009330
consid,0.003289
consist,0.002516
constant,0.001869
constitu,0.002201
constrain,0.002733
contain,0.006743
contemporari,0.001838
contend,0.002709
continu,0.005695
contradict,0.002511
contrari,0.002458
coordin,0.005978
core,0.003992
corona,0.004144
corpuscl,0.004249
correct,0.009465
correctli,0.002701
correl,0.002191
correspond,0.003413
cosmic,0.014380
cosmolog,0.002748
count,0.004288
creat,0.005749
creation,0.010267
credit,0.001819
cross,0.014363
crush,0.002876
cumrun,0.005309
curiel,0.005777
curios,0.006719
current,0.004814
curv,0.006939
curvatur,0.006845
cycl,0.001927
cyg,0.006123
cygnu,0.004991
d,0.001521
damp,0.003839
dampen,0.003816
dark,0.002431
data,0.006001
date,0.004713
david,0.005010
decay,0.002585
decreas,0.007405
deduc,0.002807
deem,0.005088
defici,0.002981
defin,0.001290
deflect,0.006967
deform,0.012277
degeneraci,0.012790
delay,0.002401
dens,0.010704
denser,0.003794
densiti,0.034031
depend,0.004961
depict,0.002345
descent,0.002697
describ,0.013885
despit,0.001594
destroy,0.003931
detect,0.020645
determin,0.010444
develop,0.003760
diamet,0.009215
did,0.002791
differ,0.005979
difficult,0.001639
dilat,0.007317
dim,0.003887
dimmer,0.010263
direct,0.008738
directli,0.009063
disappear,0.002390
disc,0.041073
discern,0.003089
disclik,0.005654
discov,0.003311
discoveri,0.007043
disk,0.029064
dismiss,0.002504
dispers,0.002580
display,0.002136
displaystyl,0.010767
dissip,0.003344
distanc,0.002001
distant,0.005226
distort,0.002654
distribut,0.004653
divid,0.001490
doe,0.006360
domin,0.003094
don,0.003120
doubt,0.002426
drag,0.006509
drawn,0.002218
drost,0.005777
dure,0.006493
dust,0.006138
dwarf,0.003414
dynam,0.001762
earli,0.007924
earlier,0.001672
earth,0.008884
echo,0.009458
eddington,0.012624
eddingtonfinkelstein,0.005928
edg,0.002469
effect,0.019792
effici,0.001772
eht,0.011555
eighteenth,0.002892
einstein,0.021832
electr,0.013100
electromagnet,0.015225
electrondegener,0.005380
emerg,0.002901
emiss,0.018800
emit,0.070829
encod,0.002756
encyclopedia,0.001949
end,0.003712
energet,0.006133
energi,0.019014
energyproduc,0.004950
enorm,0.002437
entangl,0.017417
enter,0.004964
enthusiasm,0.003452
entir,0.002936
entropi,0.043005
entropyladen,0.006123
environ,0.001500
epoch,0.003232
equat,0.009412
equival,0.003646
ergospher,0.027300
ergosurfac,0.006123
erik,0.003402
escap,0.029542
especi,0.001314
essenti,0.001573
establish,0.002415
estim,0.003185
evapor,0.034868
evenli,0.003378
event,0.063337
eventu,0.008043
everi,0.004249
everyth,0.002253
evgeni,0.004355
evid,0.016978
evolut,0.001837
ewe,0.004087
exact,0.004318
exampl,0.005068
exce,0.008869
exceed,0.002376
exceedingli,0.003878
excit,0.002759
exclud,0.006387
exclus,0.001933
exhibit,0.002136
exist,0.021385
exit,0.002969
exot,0.018090
expect,0.026437
experi,0.002783
explain,0.004571
explan,0.001992
explos,0.002509
extend,0.004478
extens,0.006113
extern,0.005310
extra,0.002592
extract,0.002178
extrem,0.006494
ezra,0.004065
fact,0.002874
factor,0.002870
fade,0.003232
fail,0.001701
faint,0.007678
fall,0.016995
faq,0.003824
far,0.009208
faster,0.004722
fate,0.002857
featur,0.013776
februari,0.001838
fermi,0.003613
field,0.024721
final,0.001464
finit,0.011704
finkelstein,0.013913
firewal,0.013700
firmli,0.002958
firstev,0.004144
firstli,0.003333
fit,0.002060
fix,0.001796
flash,0.006356
flatspac,0.005777
flicker,0.004717
flow,0.007129
follow,0.001936
forc,0.004852
forev,0.006452
form,0.028679
format,0.018158
formul,0.005814
frac,0.005417
frame,0.004626
framedrag,0.005186
free,0.002764
freefal,0.004443
frequenc,0.009252
frequent,0.001701
friction,0.017891
frozen,0.006421
fuel,0.002242
fulli,0.003649
fundament,0.003099
furthermor,0.002074
fusion,0.002821
futur,0.004422
fuzzbal,0.012246
fuzzi,0.003520
g,0.003274
ga,0.014254
galact,0.010774
galaxi,0.036153
gamma,0.002988
gammaray,0.004235
gausss,0.004249
gave,0.001761
gener,0.034788
geometri,0.007405
georg,0.001744
gerard,0.003565
gevc,0.005309
giant,0.002646
global,0.001607
globular,0.004169
gmc,0.005244
gmcapprox,0.006123
goe,0.002178
golden,0.004904
gone,0.002685
govern,0.001150
gr,0.003831
grandfath,0.003470
gravit,0.108283
graviti,0.052774
gravitomagnet,0.005186
great,0.004092
greater,0.001524
grow,0.009312
grown,0.002330
growth,0.004595
gw,0.004182
h,0.001681
ha,0.020176
hadron,0.003809
half,0.001666
halt,0.002757
hand,0.001499
happen,0.003825
hawk,0.073922
haystack,0.005380
heat,0.004268
heavi,0.008367
heavier,0.003057
heavili,0.001951
held,0.002861
help,0.001325
henc,0.011330
hendrik,0.003676
hi,0.004340
hide,0.005730
high,0.008578
highenergi,0.013989
highli,0.001593
histori,0.001008
hit,0.005011
hole,0.702457
holograph,0.004235
hooft,0.004355
horizon,0.126858
horizona,0.005928
host,0.002213
howev,0.017680
hubbl,0.003824
human,0.001166
hundr,0.001838
hypothesi,0.002108
hypothet,0.013608
idea,0.001358
ideal,0.003938
ident,0.001733
identifi,0.004389
imag,0.007454
immedi,0.003558
impli,0.003763
implos,0.004307
import,0.002064
importantli,0.002773
impos,0.002081
imposs,0.008185
impress,0.002470
inaccess,0.003367
inbound,0.004443
includ,0.004200
incom,0.001853
incorrect,0.002881
increas,0.003491
increasingli,0.001784
inde,0.002057
independ,0.007458
indestruct,0.003994
indic,0.002977
indirect,0.002629
indirectli,0.002608
indistinguish,0.003422
individu,0.001248
inequ,0.005093
inevit,0.002666
infal,0.028382
infer,0.011629
infinit,0.014219
infinitesim,0.003201
influenc,0.003999
inform,0.022862
initi,0.003945
inner,0.009732
innermost,0.012471
insid,0.014209
inspir,0.002002
instabl,0.002617
instanc,0.001639
instant,0.006256
instead,0.005670
institut,0.002561
insuffici,0.005488
interact,0.004530
interior,0.002375
intermediatemass,0.016380
intern,0.002121
interpret,0.004844
interstellar,0.003511
interven,0.002600
invalid,0.003038
invers,0.007667
invis,0.011817
involv,0.001173
inward,0.010357
isaak,0.004544
isco,0.017333
israel,0.002478
j,0.004559
jacob,0.002729
jame,0.001706
januari,0.001727
jet,0.008881
jmrightleq,0.006123
johann,0.002589
john,0.004129
journalist,0.002848
june,0.001763
just,0.015523
k,0.005504
karl,0.006828
kelvin,0.003431
keplerian,0.004950
kerr,0.020435
kerrnewman,0.011309
kg,0.003152
khalatnikov,0.005550
km,0.006833
know,0.001833
known,0.010112
kruskal,0.004690
landau,0.003652
laplac,0.003474
larg,0.007464
larger,0.004791
late,0.001400
later,0.002406
launch,0.002037
law,0.014627
layer,0.002329
lead,0.007243
leav,0.003427
lectur,0.002200
led,0.003917
left,0.003225
lematr,0.004443
len,0.003069
lens,0.010331
leonard,0.006235
lepton,0.008339
letter,0.001997
lev,0.003586
level,0.001209
lie,0.005947
life,0.001300
lifshitz,0.004235
light,0.041704
lightcan,0.006123
lightyear,0.004121
ligo,0.032293
like,0.014050
likewis,0.002396
limit,0.014828
line,0.002896
linearli,0.003602
link,0.002639
listen,0.002857
littl,0.003097
local,0.002740
locat,0.004463
long,0.002627
longer,0.006675
loop,0.002786
lorentz,0.003439
lose,0.004256
loss,0.008848
lost,0.007033
louis,0.003912
low,0.006202
lower,0.002990
lowermass,0.005777
luminos,0.004144
m,0.036176
macroscop,0.002898
magnet,0.004750
mainli,0.001679
mainstream,0.002455
maintain,0.001410
major,0.002146
make,0.005144
manag,0.001449
mani,0.008230
mark,0.001624
martin,0.002141
mass,0.134401
massiv,0.017223
match,0.002151
materi,0.008507
mathemat,0.003181
mathrm,0.003226
matter,0.038048
max,0.002472
maximum,0.006600
mean,0.003342
meant,0.002075
measur,0.005300
mechan,0.016435
medium,0.002306
meet,0.001637
membran,0.008595
mere,0.001990
merg,0.012184
merger,0.014659
metric,0.016303
michel,0.013867
micro,0.006624
microlens,0.005035
microscop,0.005223
microst,0.004109
microwav,0.006645
milki,0.014496
millimet,0.003887
million,0.011124
minor,0.001872
mit,0.002458
mmmathrm,0.005460
mode,0.011389
model,0.012603
modern,0.002427
momentum,0.039898
monogami,0.004776
monograph,0.003158
month,0.005362
moon,0.002634
moreov,0.004642
motion,0.016333
movi,0.002767
mp,0.002984
msigma,0.005460
msun,0.005928
multimedia,0.003602
mundan,0.003759
murdin,0.006123
mutual,0.002134
n,0.001816
nake,0.003229
nanokelvin,0.005928
nanosecond,0.004544
nasa,0.003054
natur,0.007560
naturecom,0.005035
near,0.011644
nearbi,0.002490
nearli,0.003524
nebula,0.003535
necessari,0.001612
need,0.001216
neutral,0.002214
neutron,0.044661
new,0.000903
newli,0.002128
newman,0.003739
newtonian,0.003131
ngc,0.024377
nohair,0.015734
nois,0.002885
noncharg,0.006123
nonquantum,0.004776
nonradi,0.005654
nonrot,0.029949
noodl,0.004443
normal,0.004838
notabl,0.001552
note,0.004666
noth,0.004282
nothingnot,0.006123
notic,0.004592
notion,0.001914
novemb,0.001814
nowher,0.003483
nuclear,0.002067
nuclei,0.011640
nucleosynthesi,0.004087
number,0.005060
numer,0.004496
o,0.002133
object,0.085752
oblat,0.009226
observ,0.070773
observatori,0.006256
obstacl,0.002919
obtain,0.003145
occur,0.010283
odd,0.002854
oj,0.005131
omnipres,0.003965
onc,0.007559
onli,0.018626
onset,0.003112
open,0.001385
oppenheim,0.011762
opportun,0.001911
oppos,0.001690
opposit,0.001664
optic,0.002433
orbit,0.053888
order,0.004459
ordinari,0.004412
origin,0.005606
oscil,0.005855
outer,0.007755
outgo,0.015012
outsid,0.016978
outward,0.006230
overli,0.003238
page,0.001983
paper,0.001669
paradigm,0.002451
paradox,0.018112
paramet,0.011662
partial,0.001861
particl,0.036972
particular,0.002532
partli,0.002175
pass,0.003143
past,0.004815
path,0.004102
patholog,0.005752
paul,0.001758
pauli,0.003646
peculiar,0.006300
penros,0.011363
penrosehawk,0.005244
perceiv,0.002034
perfect,0.004521
perform,0.002844
perhap,0.001880
period,0.003606
perpendicular,0.003370
persist,0.002294
persuad,0.002923
perturb,0.015723
peter,0.001844
phase,0.003891
phenomena,0.001931
philosophi,0.001722
photon,0.044346
phrase,0.004875
physic,0.011915
physicist,0.004789
pictur,0.002264
pierresimon,0.004121
pioneer,0.002113
plain,0.002643
planck,0.018430
plane,0.002436
planetari,0.002900
plausibl,0.006048
play,0.001460
point,0.007041
pole,0.005605
popular,0.002895
pose,0.002464
posit,0.002398
possess,0.003636
possibl,0.031950
postmerg,0.005777
potenti,0.003004
power,0.001187
precis,0.001911
predict,0.028858
preon,0.010372
presenc,0.010526
present,0.001160
preserv,0.001955
pressur,0.008732
prevent,0.001658
previous,0.001768
primari,0.003062
primordi,0.016306
principl,0.008356
print,0.002178
prior,0.001752
probabl,0.001664
problem,0.002481
problemat,0.002796
process,0.017548
produc,0.007242
product,0.001209
progress,0.001581
prolong,0.002950
proper,0.006244
properti,0.016856
proport,0.013427
propos,0.010019
prove,0.005371
proven,0.004901
provid,0.005146
proxim,0.002681
public,0.001168
publish,0.003863
pullinteract,0.006123
pulsar,0.008390
pulsat,0.004589
pumpkinshap,0.006123
push,0.002206
puzzl,0.006178
q,0.010393
qlefttfrac,0.006123
qualit,0.002690
qualiti,0.001728
quantiti,0.003779
quantum,0.060840
quark,0.017628
quarter,0.002413
quasar,0.008615
quasiperiod,0.010372
question,0.005827
quickli,0.003776
quiescenc,0.014974
quit,0.001960
r,0.004657
radiat,0.074352
radio,0.007125
radiu,0.061386
rais,0.001711
random,0.002213
rang,0.001392
rapidli,0.001955
ray,0.015080
reach,0.008972
read,0.002555
real,0.001527
realist,0.002528
realiti,0.002001
realiz,0.002057
reason,0.001320
receiv,0.002811
recent,0.001274
red,0.002039
redder,0.005460
redshift,0.008007
refer,0.003678
refin,0.002308
reflect,0.001581
regard,0.001411
regardless,0.002224
region,0.011858
regular,0.002015
reissnernordstrm,0.010163
rel,0.032982
relat,0.002976
relativist,0.006076
releas,0.003677
relentless,0.004221
relev,0.001924
reli,0.003545
remain,0.001216
remark,0.002256
remnant,0.011768
repel,0.003193
report,0.004242
reportedli,0.002921
represent,0.001856
reproduc,0.002496
requir,0.003474
research,0.004774
resist,0.003813
resistanceth,0.006123
resolv,0.002137
respect,0.001399
respons,0.001276
rest,0.005171
result,0.013324
retain,0.001935
return,0.001489
reveal,0.001935
review,0.001648
ring,0.002492
ringdown,0.017785
riscorsfrac,0.006123
rmathrm,0.005035
robert,0.001617
robinson,0.003017
roger,0.002467
role,0.001288
rotat,0.038974
roughli,0.004128
roy,0.003017
rsh,0.005460
rule,0.002686
run,0.001616
s,0.008348
sagittariu,0.031469
satisfactori,0.003348
satisfi,0.004365
scalar,0.003294
scale,0.003330
scenario,0.005330
scholar,0.001868
schwarzschild,0.105347
scienc,0.002475
search,0.005650
second,0.008453
secondari,0.002095
secondli,0.003235
seed,0.002610
seemingli,0.002887
seen,0.001443
semiclass,0.004182
separ,0.001344
septemb,0.001774
set,0.001139
settl,0.002091
sever,0.002135
sh,0.003766
sha,0.004502
shape,0.005261
share,0.001433
shift,0.003566
shoot,0.003120
shortli,0.004580
shown,0.008872
shrink,0.012905
sign,0.001686
signal,0.023288
signific,0.001307
silhouet,0.005777
similar,0.004891
similarli,0.003880
simpl,0.001627
simplest,0.002611
simplist,0.003658
simul,0.006675
sinc,0.010239
singl,0.004111
singular,0.078256
site,0.003449
situat,0.007883
size,0.006378
slightli,0.004438
slow,0.012685
slowli,0.004720
small,0.008771
smaller,0.005223
smear,0.004087
socal,0.002066
soft,0.002614
solar,0.014656
solid,0.002200
solut,0.045552
sombrero,0.004991
sometim,0.005332
sourc,0.006440
space,0.007894
spacetim,0.040633
spaghettif,0.006123
spark,0.002709
special,0.002561
specialist,0.002540
specif,0.002450
spectral,0.006289
spectrum,0.012108
specul,0.002130
speed,0.006282
sphere,0.034375
spheric,0.017943
sphericallysymmetr,0.005777
spheroid,0.004307
spin,0.008520
spiral,0.003133
spur,0.002876
squar,0.002169
stabil,0.001909
stabl,0.020152
stabli,0.004389
stage,0.001788
stand,0.003849
standard,0.001379
stanford,0.002378
star,0.161240
starscal,0.006123
start,0.002592
state,0.008064
static,0.007858
stationari,0.008907
statist,0.003360
stellar,0.037789
stellarmass,0.016963
stephen,0.002274
stone,0.002287
stop,0.014161
strang,0.003038
strength,0.002076
strengthen,0.002316
stretchi,0.005777
strictli,0.002415
string,0.010880
stringent,0.003452
stroming,0.005380
strong,0.014879
strongli,0.005921
structur,0.002392
student,0.003485
studi,0.006493
subject,0.002605
subrahmanyan,0.004566
substanti,0.001901
success,0.001358
suck,0.003895
suffici,0.003786
suggest,0.017203
sum,0.002042
sun,0.015902
supermass,0.109602
supersymmetr,0.008744
support,0.001217
surfac,0.022250
surround,0.013127
surviv,0.001766
suspect,0.005472
susskind,0.009046
swallow,0.003488
swept,0.003348
symmetr,0.002916
symmetri,0.002850
t,0.008908
taken,0.002998
tangent,0.003555
techniqu,0.001573
telescop,0.012589
temperatur,0.035192
tend,0.003363
tent,0.003141
tenth,0.003139
term,0.003870
test,0.005022
tevc,0.012246
textbook,0.002308
th,0.001174
thank,0.002816
theorem,0.011477
theoret,0.015111
theori,0.030007
therefor,0.005567
thermal,0.005251
thermodynam,0.021027
thi,0.051318
thirdli,0.003887
thoma,0.001831
thornehawkingpreskil,0.006123
thought,0.010159
thousand,0.001805
threat,0.002147
thu,0.009576
tick,0.007492
tidal,0.003688
time,0.026275
timelik,0.004339
timerevers,0.004950
timetest,0.005380
tolmanoppenheimervolkoff,0.017333
took,0.001599
torn,0.003766
total,0.012859
trace,0.001963
track,0.004531
trajectori,0.006109
transient,0.003319
transport,0.001755
trap,0.002683
travel,0.001808
treatment,0.003767
tri,0.001611
truli,0.002566
type,0.006155
typic,0.004121
u,0.002389
ultralumin,0.006123
unabl,0.002128
uncertainti,0.002383
unclear,0.002690
undersid,0.004263
understood,0.007687
unidirect,0.004235
uniform,0.002374
uniqu,0.003492
unit,0.002065
unitar,0.018092
univers,0.011666
unknown,0.002120
unlik,0.001705
unphys,0.009824
unsatisfi,0.004121
unstabl,0.002731
unsuccess,0.002633
unusu,0.004965
upper,0.006203
urg,0.002702
use,0.008367
usual,0.002464
v,0.001825
vacuum,0.002672
vafa,0.005309
valid,0.001955
valu,0.005249
vari,0.001509
variou,0.004663
vast,0.002056
veloc,0.008078
veri,0.015203
verifi,0.002588
vicin,0.003305
video,0.002253
view,0.006562
violat,0.015860
visibl,0.013580
visualis,0.003847
vital,0.002287
vladimir,0.002914
volum,0.014032
wa,0.020991
water,0.001579
wave,0.020651
wavelik,0.004109
way,0.016424
weak,0.004068
web,0.002220
webster,0.003938
weigh,0.002885
weight,0.002064
went,0.003756
werner,0.003241
wheeler,0.010742
white,0.001944
wide,0.003956
wider,0.002331
work,0.003011
wormhol,0.004637
wrongli,0.003929
wrote,0.001744
x,0.001813
xray,0.041892
year,0.006200
yearlong,0.004323
young,0.003802
zero,0.012921
