abov,0.008527
absolut,0.033895
accept,0.025088
accur,0.022697
acoust,0.018609
actual,0.008525
addit,0.013477
affair,0.011014
affect,0.008704
agreement,0.010167
altern,0.008559
anoth,0.006406
applic,0.007955
approxim,0.009077
arrheniu,0.024399
associ,0.006507
atom,0.081534
avail,0.016285
averag,0.059697
avogadro,0.047582
base,0.005804
becaus,0.006046
becom,0.006429
befor,0.006859
big,0.012161
black,0.010839
bodi,0.008059
boltzmann,0.405791
boundari,0.011213
bridg,0.026539
brochur,0.025767
c,0.015373
calcul,0.030748
capac,0.022302
carri,0.008671
case,0.006726
central,0.015081
centuri,0.006907
chamber,0.014274
chang,0.024259
chapter,0.012537
characterist,0.037089
charg,0.010381
chemic,0.020486
choic,0.010570
choos,0.011572
chosen,0.012292
classic,0.026664
clausiu,0.024083
close,0.007198
codata,0.028567
coincid,0.014471
combin,0.007671
committe,0.011542
complic,0.012193
consequ,0.009148
consid,0.006274
consider,0.009041
constant,0.224630
constraint,0.013358
consult,0.012424
context,0.009464
continu,0.006519
correspond,0.048837
current,0.006888
d,0.034841
data,0.008586
debat,0.010016
defin,0.014768
definit,0.025522
degre,0.079302
delta,0.030822
denot,0.013128
depend,0.014198
deriv,0.008180
determin,0.022415
diatom,0.020615
differ,0.005703
dimens,0.024759
dimensionless,0.024238
diod,0.022489
direct,0.007144
disagr,0.015300
displaystyl,0.160225
distinct,0.008286
distribut,0.008877
divid,0.025596
dof,0.030016
dqt,0.031248
draft,0.013886
e,0.043594
easi,0.013155
effect,0.006293
ek,0.023266
ektrightz,0.035042
electr,0.021421
electrolyt,0.020678
electron,0.021679
electronvolt,0.026999
electrostat,0.019833
ellipsoid,0.024160
emathrm,0.026543
encount,0.025517
energi,0.217641
energylik,0.035042
entropi,0.228540
eponym,0.020972
equal,0.026464
equat,0.053868
equationth,0.033929
equilibrium,0.027076
equipartit,0.055031
ev,0.021217
evk,0.070085
evm,0.031765
exactli,0.025380
exampl,0.005801
excit,0.015792
exp,0.043519
expect,0.008900
experiment,0.010820
explicitli,0.013187
express,0.008392
extern,0.005065
f,0.009541
fact,0.008224
factor,0.024640
figur,0.009593
fix,0.020563
flow,0.010201
follow,0.011082
form,0.037062
formula,0.012096
frac,0.062004
freedom,0.098414
fulli,0.010443
function,0.007091
ga,0.174807
gase,0.077218
gave,0.010079
gener,0.004977
given,0.013894
great,0.007806
h,0.009622
ha,0.009237
half,0.009534
hc,0.024399
hck,0.035042
heat,0.024428
held,0.008189
helium,0.018536
heurist,0.017723
hi,0.018632
histori,0.005769
hold,0.008343
homogen,0.015601
icon,0.018646
idea,0.007774
ideal,0.101436
illustr,0.011812
import,0.017723
includ,0.004808
increas,0.006660
inform,0.013772
inscrib,0.021290
instead,0.008113
intern,0.018209
introduc,0.024376
invers,0.014626
involv,0.006715
ion,0.015020
isol,0.011245
j,0.008698
jk,0.124172
jkmol,0.031248
junctiondepend,0.035042
k,0.262539
kb,0.021478
kelvin,0.019636
kfrac,0.024399
kinet,0.078391
kt,0.192067
laboratori,0.011752
law,0.027905
lectur,0.025183
leftfrac,0.018996
limit,0.007072
link,0.010070
ln,0.078547
logarithm,0.018740
lower,0.017113
ludwig,0.015900
m,0.016563
macroscop,0.132713
magnitud,0.028573
make,0.011776
mani,0.010467
map,0.010593
mass,0.018992
mathrm,0.018464
max,0.014150
mean,0.019131
measur,0.037921
mechan,0.042755
micromet,0.024567
microscop,0.104640
microst,0.047039
microwav,0.019016
millivolt,0.031248
mol,0.023519
mole,0.041612
molecul,0.112529
molecular,0.012102
monatom,0.049669
motion,0.023368
movement,0.007984
moverlin,0.033929
ms,0.034801
multipli,0.014927
mv,0.021759
n,0.093589
na,0.017510
nat,0.024927
nation,0.006416
natur,0.024726
need,0.006960
new,0.010344
nineteenth,0.014484
nobel,0.013479
number,0.023171
numer,0.025735
nvmoverlin,0.035042
o,0.012210
obey,0.016524
occupi,0.011608
onli,0.005330
order,0.006380
p,0.079553
particip,0.009134
particl,0.037340
partit,0.016040
peculiar,0.018028
pfrac,0.022749
physic,0.075768
pi,0.049932
piln,0.035042
pipropto,0.033929
planck,0.158220
plasma,0.016967
pn,0.021364
possess,0.031216
potenti,0.008596
precis,0.010937
predict,0.009715
prepar,0.010768
pressur,0.019990
prize,0.012383
probabl,0.028583
problem,0.007101
product,0.013840
proport,0.021956
proportion,0.039130
provid,0.011782
pvnkt,0.070085
pvnrt,0.028567
q,0.074353
qkt,0.035042
quantiti,0.021630
quantum,0.013392
r,0.044426
radiat,0.013297
rang,0.007970
ratio,0.011974
real,0.008740
redefin,0.018627
redefinit,0.022246
refer,0.008421
reflect,0.009049
relat,0.034067
relationship,0.040190
relev,0.011014
requir,0.006629
rescal,0.075363
research,0.006831
reson,0.016116
result,0.011731
review,0.009435
revis,0.012583
rm,0.020015
rntexta,0.035042
role,0.029507
room,0.040978
root,0.021275
rootmeansquar,0.031248
rotat,0.013940
s,0.047780
scale,0.009531
scientif,0.008473
scientist,0.009629
second,0.006911
semiconductor,0.036753
serv,0.008382
set,0.013046
shannon,0.020938
shockley,0.025767
si,0.055287
simpl,0.018624
simpli,0.009563
simplifi,0.013649
sinc,0.005860
sint,0.045717
skln,0.035042
sln,0.030793
small,0.014342
solut,0.010026
solv,0.010785
sound,0.012339
spatial,0.027401
specif,0.007012
speed,0.035954
squar,0.024833
ssum,0.028111
state,0.030767
statist,0.048074
step,0.009937
subsequ,0.009145
substanc,0.024642
t,0.173346
temperatur,0.248802
term,0.011075
ters,0.027515
tfrac,0.039517
theori,0.013739
thermal,0.135252
thermodynam,0.075213
thi,0.048219
thu,0.006850
time,0.005185
today,0.008419
tombston,0.052805
tool,0.009384
total,0.016354
transform,0.009593
translat,0.030268
triaxial,0.033066
turn,0.008102
uk,0.010742
unit,0.094579
uniti,0.012882
use,0.023943
v,0.104498
valu,0.090138
vector,0.014173
veloc,0.015411
veri,0.006692
vibrat,0.017102
vmathrm,0.026999
volt,0.021843
voltag,0.172082
volum,0.010038
vt,0.023390
vtfrac,0.027902
w,0.059001
wa,0.024026
wavelength,0.035506
way,0.006266
weight,0.023625
work,0.005745
wquad,0.035042
written,0.009278
wrote,0.009985
xenon,0.022858
z,0.028597
