accur,0.015201
actual,0.011419
allow,0.017745
analysi,0.021511
ani,0.007863
annual,0.013706
anoth,0.017163
appropri,0.014302
approxim,0.012159
aris,0.014556
aspect,0.011726
attract,0.014356
averag,0.013327
b,0.011818
bc,0.031834
becaus,0.008098
becom,0.008612
beginalignednto,0.046938
behavior,0.012620
best,0.011857
bestknown,0.023454
beta,0.044010
better,0.012132
bigi,0.046938
boson,0.056002
branch,0.011441
break,0.029659
calcul,0.027457
caus,0.019234
charm,0.030845
chiral,0.059471
chosen,0.016465
chromodynam,0.061846
classificatori,0.036164
clear,0.013411
collinear,0.037654
common,0.017427
concret,0.019743
condens,0.041704
condit,0.010083
conjunct,0.020139
consist,0.009645
construct,0.044640
contain,0.020677
context,0.025355
cooper,0.013774
credenc,0.030472
deal,0.011610
decay,0.079266
degre,0.047209
deriv,0.021916
describ,0.026611
develop,0.007207
discuss,0.011759
displaystyl,0.016508
dissip,0.025639
distanc,0.030693
dobaczewski,0.049039
dure,0.008296
dynam,0.027023
e,0.046714
earli,0.017356
effect,0.269735
eft,0.080412
electrodynam,0.052102
electromagnet,0.019452
electron,0.043558
electroweak,0.030472
emr,0.037950
emri,0.042548
emu,0.030768
endalign,0.030472
energet,0.023510
energi,0.048587
energymomentum,0.034673
enu,0.042548
eoverlin,0.046938
equival,0.013976
especi,0.010075
eventu,0.012332
exampl,0.031083
expand,0.036821
expans,0.073200
expect,0.011921
experi,0.021339
explan,0.015273
extern,0.006784
extrem,0.012446
factor,0.011001
famou,0.014334
fermi,0.110790
fermion,0.029735
field,0.284262
finites,0.043346
flavourchang,0.044291
forc,0.018599
form,0.021275
free,0.010597
freedom,0.058587
fundament,0.011881
gaug,0.045883
gener,0.033334
gev,0.033921
ginzburglandau,0.038599
goldston,0.035365
gr,0.058747
gravit,0.020751
graviti,0.040456
great,0.010456
gross,0.018140
group,0.025107
ha,0.043306
hadrodynam,0.093876
hadron,0.175213
hartmann,0.031164
heavi,0.080177
higher,0.011030
histori,0.007727
hope,0.015797
houch,0.045447
hqet,0.046938
hydrodynam,0.057437
ignor,0.016093
immens,0.022294
includ,0.006440
inde,0.015775
inspiral,0.093876
integr,0.011196
interact,0.138914
internet,0.015220
intuit,0.019853
involv,0.008994
jacek,0.035952
k,0.014066
kaon,0.041246
km,0.017461
known,0.007751
larg,0.008174
larger,0.012244
lattic,0.046260
le,0.018477
lectur,0.033732
lend,0.019928
length,0.123118
lepton,0.031962
light,0.012788
link,0.006744
longer,0.012792
low,0.011887
lowenerget,0.046938
m,0.066557
magnitud,0.019136
main,0.009819
major,0.008228
make,0.007887
mani,0.007010
mass,0.063598
matter,0.035001
maximum,0.016866
mean,0.008541
mechan,0.022907
mediat,0.019000
met,0.015860
metal,0.016143
method,0.019211
mev,0.034209
microscop,0.020023
model,0.038645
modern,0.009303
momentum,0.020390
mu,0.024591
n,0.027857
need,0.009323
neglect,0.020288
new,0.006927
nonrelativist,0.057855
nrgr,0.046938
nrqcd,0.046938
nu,0.055395
nuclear,0.047544
nuclei,0.044618
number,0.007759
object,0.010602
occur,0.009854
onli,0.014279
order,0.025641
p,0.023679
pair,0.033056
paramet,0.071523
particl,0.116702
particular,0.019416
peoverlin,0.046938
perturb,0.024106
phenomena,0.014808
phenomenolog,0.023454
philosophi,0.013204
phonon,0.134070
physic,0.101489
pich,0.046938
pion,0.070016
planck,0.023547
point,0.008996
pointlik,0.035008
posit,0.009191
possibl,0.009071
postnewtonian,0.038265
power,0.036406
predict,0.013013
present,0.017785
probe,0.022119
problem,0.019023
process,0.016815
properti,0.010768
qcd,0.096474
quantum,0.197320
quark,0.189187
radiat,0.017811
ratio,0.016039
reaction,0.043390
reduct,0.016229
refer,0.005640
rel,0.050567
remark,0.017300
renorm,0.126369
renormaliz,0.076530
requir,0.026638
result,0.007857
review,0.012638
rg,0.061846
s,0.007999
satisfi,0.016732
scale,0.178733
scatter,0.020829
scet,0.046938
school,0.011475
scienc,0.009486
scientif,0.011350
seen,0.011067
sens,0.011606
separ,0.030915
set,0.008737
shifman,0.041856
short,0.012026
shorter,0.040161
signatur,0.022975
similar,0.009373
similarli,0.014872
simplifi,0.054847
sinc,0.007849
singl,0.010505
situat,0.024172
small,0.009605
smaller,0.013348
soft,0.020042
softcollinear,0.045447
spectacular,0.027331
spontan,0.020288
standard,0.021146
statist,0.025757
string,0.020852
strong,0.011406
studi,0.033184
substructur,0.031164
success,0.052051
suffici,0.014512
summer,0.018160
superconduct,0.082113
symmetri,0.065559
systemat,0.014997
techniqu,0.024127
theori,0.552085
thi,0.052844
treat,0.027491
treatment,0.014440
trivial,0.023435
type,0.009438
typic,0.021063
undergo,0.018200
underli,0.074538
understand,0.010655
understood,0.014732
uraltsev,0.046938
use,0.051314
v,0.013997
valid,0.014990
veloc,0.020642
vibrat,0.022908
w,0.026343
wa,0.019309
wave,0.015831
wavelength,0.023779
weak,0.031187
wherea,0.013621
work,0.007695
write,0.012273
written,0.012428
