aalpha,0.026352
abandon,0.005832
abeta,0.030997
abov,0.007994
acceler,0.006004
accord,0.003122
accuraci,0.006771
achiev,0.003927
action,0.003836
activ,0.003115
actual,0.007991
add,0.005953
addit,0.003158
adopt,0.004308
albert,0.006345
algebra,0.006704
allow,0.006209
alpha,0.101182
alway,0.004198
analyz,0.005248
anoth,0.003002
antisymmetr,0.011597
appear,0.007232
applic,0.003728
approach,0.003593
approxim,0.038294
arch,0.009550
archibald,0.010340
arrang,0.010180
assert,0.005363
assumpt,0.005319
astronom,0.007030
atwat,0.014888
author,0.007030
becaus,0.002833
beginalignedfalpha,0.016424
beginalignedgmu,0.016424
bertsching,0.016424
beta,0.223309
bianchi,0.012580
biggest,0.007067
binari,0.007518
black,0.010161
blunder,0.011640
bodi,0.003777
boerhaav,0.013176
bracket,0.008981
c,0.054044
calcul,0.004804
caltech,0.010218
case,0.012610
chang,0.002842
charg,0.009731
charl,0.004829
chart,0.007182
choic,0.004954
choos,0.005424
class,0.004182
classifi,0.010201
collin,0.008903
comma,0.011640
commonli,0.004187
compact,0.007439
complet,0.010448
complic,0.011430
compon,0.008685
condit,0.003528
confirm,0.005436
consequ,0.008576
conserv,0.035041
consid,0.002941
consider,0.004238
consist,0.006750
constant,0.080218
contain,0.007235
content,0.004976
context,0.008872
contract,0.005058
conveni,0.006733
convent,0.029300
coordin,0.010692
core,0.005355
correspond,0.009156
cosmolog,0.103222
coupl,0.011671
covari,0.027783
cpi,0.022173
current,0.006457
curv,0.006204
curvatur,0.055089
d,0.044908
defin,0.010382
definit,0.011962
degre,0.004130
delta,0.014447
denomin,0.007513
denot,0.012307
depend,0.003327
deriv,0.026841
describ,0.009312
despit,0.008552
det,0.022648
determin,0.024515
detg,0.032849
detgtfrac,0.016424
develop,0.002522
deviat,0.021470
dfrac,0.023030
dgmu,0.016424
diag,0.029293
dictat,0.014424
differ,0.005347
differenti,0.015319
difficult,0.004398
dimens,0.029013
discov,0.008882
discuss,0.004114
displaystyl,0.127092
distinguish,0.004477
distribut,0.008322
diverg,0.006815
dlambda,0.014433
downtown,0.010541
drdlambda,0.016424
dtgmu,0.016424
dynam,0.004728
ed,0.004250
edmund,0.007725
edwin,0.008010
efe,0.356053
effort,0.004204
efstathi,0.015903
einstein,0.234255
einsteinmaxwel,0.032849
electr,0.005020
electromagnet,0.034034
elli,0.009192
encyclopedia,0.005229
endalign,0.010663
energi,0.038254
energymomentum,0.036399
ensur,0.004988
equat,0.318134
equival,0.019562
establish,0.003240
evolut,0.004929
exact,0.028961
exampl,0.021753
exist,0.009057
expand,0.012885
explain,0.004087
explan,0.005344
explor,0.004626
express,0.031471
exterior,0.008971
extern,0.002374
f,0.080503
fact,0.007710
falpha,0.028484
far,0.004117
fbeta,0.027823
featur,0.004106
ff,0.010663
fgamma,0.029777
field,0.116050
fix,0.009638
flat,0.013888
follow,0.007791
form,0.024816
formul,0.015597
fourdimension,0.010934
fpsi,0.098549
frac,0.123514
frame,0.006204
francisco,0.007006
free,0.007417
freedom,0.010250
freelyfal,0.015498
freeman,0.008124
fulli,0.004894
function,0.003324
fundament,0.008315
g,0.224001
galpha,0.071210
gamma,0.136275
gaug,0.008027
gbeta,0.028484
gcfrac,0.015498
gclefttmu,0.032849
gcmu,0.016424
gct,0.016424
gctmu,0.058586
gdelta,0.027532
gener,0.018663
geodes,0.031695
geometr,0.006676
geometri,0.013243
ggamma,0.031806
ggmu,0.015903
given,0.009768
global,0.008623
gmu,0.113894
gravit,0.079878
graviti,0.007078
h,0.004510
ha,0.002164
haslam,0.014888
hazewinkel,0.009814
hi,0.008733
higher,0.003859
histori,0.002704
hole,0.014779
howev,0.010539
hsu,0.011870
hubbl,0.010258
hyperbolicellipt,0.016424
ident,0.009297
ignor,0.005631
improv,0.003995
includ,0.009015
inconsist,0.007545
independ,0.010003
inerti,0.018762
initi,0.003527
interact,0.004050
interchang,0.007431
interpret,0.004331
introduc,0.011425
introduct,0.004304
invers,0.027422
investig,0.004549
isbn,0.011514
john,0.007385
kappa,0.043174
kerr,0.010963
kip,0.011324
known,0.005425
kohli,0.013632
lack,0.004138
lambda,0.124519
law,0.013079
lead,0.006477
leav,0.004596
leblanc,0.013280
lectur,0.005901
left,0.008653
leftfalpha,0.065699
leftgamma,0.015168
leiden,0.009509
lemma,0.009418
levicivita,0.012441
light,0.008949
limit,0.003314
linear,0.034651
link,0.002360
local,0.018380
loss,0.004747
maccallum,0.014888
magnet,0.006371
make,0.011039
mani,0.007359
manifold,0.042515
manner,0.005237
martin,0.005744
mass,0.004450
massenergi,0.010405
massiv,0.005775
mathemat,0.012800
mathrm,0.017309
matter,0.012247
matterenergi,0.028866
maxwel,0.032375
mean,0.002989
mechan,0.004008
method,0.006722
metric,0.196800
michiel,0.009619
minkowski,0.050520
misner,0.038437
mit,0.006594
model,0.010142
modifi,0.005295
momentum,0.028540
motion,0.005476
motiv,0.005302
mtw,0.015903
mu,0.086053
multipli,0.006996
museum,0.006544
n,0.004874
nabla,0.010541
need,0.003262
neg,0.004706
new,0.004848
newton,0.020557
nonlinear,0.059485
nonpolynomi,0.014433
nontrivi,0.009393
nonzero,0.017826
note,0.003129
noth,0.005743
novemb,0.004867
nu,0.377993
number,0.002715
numer,0.004020
obey,0.007745
object,0.003710
observ,0.003582
obtain,0.004218
onli,0.004996
operatornam,0.010319
ordinari,0.005918
origin,0.009023
orthonorm,0.011919
outsid,0.004140
p,0.004143
paramet,0.006257
partial,0.014977
particl,0.005833
peacock,0.010613
peebl,0.013507
phenomena,0.015546
physic,0.014205
pi,0.078013
pioneer,0.005669
poincar,0.009001
point,0.003148
polynomi,0.024840
posit,0.003216
possibl,0.003174
postnewtonian,0.013390
potenti,0.008058
power,0.003184
predict,0.004553
presenc,0.009412
principl,0.003735
procedur,0.005419
professor,0.005562
proport,0.010291
psi,0.018940
ptrmu,0.016424
publish,0.003454
quadrat,0.009032
quantum,0.006277
quit,0.005259
r,0.087456
radiat,0.012465
ralpha,0.027532
recent,0.003417
redefinit,0.010427
reduc,0.018695
refer,0.009868
region,0.003534
rel,0.035389
relat,0.005322
relationship,0.003767
replac,0.004022
repres,0.012951
requir,0.003107
resourc,0.003995
respect,0.003753
restor,0.005581
result,0.019245
revers,0.005433
rewritten,0.019659
rfrac,0.022796
rgalpha,0.016424
rgmu,0.042726
rho,0.009368
ricci,0.065605
ricciflat,0.014888
right,0.024793
rightendalign,0.013632
rightptgmu,0.016424
righttfrac,0.015903
rindler,0.013280
rmu,0.104627
rotat,0.006534
s,0.025194
san,0.006268
scaffold,0.010362
scalar,0.017676
schrdinger,0.008801
schwarzschild,0.011774
second,0.006478
secondrank,0.014069
selfsimilar,0.012732
semicolon,0.013911
set,0.018345
sigma,0.033860
sign,0.036182
signific,0.003506
similar,0.003280
simpl,0.008729
simplest,0.007006
simplif,0.009032
simplifi,0.006397
sinc,0.005493
slowmot,0.014433
small,0.006722
solut,0.093995
solv,0.015166
son,0.005259
sourc,0.003455
space,0.016940
spacetim,0.150922
special,0.003435
specifi,0.005585
speed,0.011234
springer,0.006648
squir,0.012441
standard,0.003699
star,0.006091
steven,0.006921
stime,0.073233
stressenergi,0.088066
structur,0.003209
studi,0.008709
substitut,0.006104
suitabl,0.006097
sum,0.010959
symbol,0.004987
symmetr,0.015644
symmetri,0.007647
t,0.095588
taken,0.008044
talpha,0.037742
tau,0.037934
techniqu,0.004221
tensor,0.255512
term,0.023361
tfrac,0.092612
tgmu,0.016424
themselv,0.004074
theoret,0.004504
theori,0.016099
theorist,0.006402
thi,0.026710
think,0.004763
thorn,0.029586
thought,0.003893
thu,0.006422
time,0.002430
tmu,0.026352
today,0.003946
togeth,0.003787
trace,0.010534
tracerevers,0.049274
trajectori,0.008194
true,0.004447
tutori,0.009105
twoform,0.014646
unaffect,0.009798
understood,0.005155
unit,0.002770
univers,0.019915
unstabl,0.007328
unsuccess,0.007064
use,0.031423
usual,0.003305
v,0.009795
vac,0.029777
vacuum,0.078844
valu,0.003520
vanish,0.008057
varepsilon,0.043974
veloc,0.007223
veri,0.006274
version,0.004805
video,0.006045
w,0.004609
wa,0.009009
wainwright,0.011970
wall,0.005816
wave,0.005539
wavefunct,0.010362
way,0.008811
weak,0.010913
weakfield,0.029293
weinberg,0.020320
wheeler,0.028817
wherea,0.004766
wiley,0.006721
write,0.004295
written,0.043491
year,0.002772
zero,0.028884
