abduct,0.033507
academ,0.016264
accord,0.021717
account,0.038368
accumul,0.020831
accur,0.074003
acknowledg,0.020939
ad,0.013858
addit,0.010985
adher,0.043931
adopt,0.014985
advoc,0.018640
ahead,0.025350
analys,0.021230
analysi,0.026180
analyz,0.018253
ancient,0.015733
ani,0.009570
anova,0.044562
answer,0.058005
appear,0.012577
appli,0.023217
appropri,0.017406
area,0.010785
argument,0.036488
aris,0.017715
aspect,0.014271
attack,0.017507
attempt,0.012386
b,0.014383
base,0.018923
befor,0.022365
begin,0.012767
bernard,0.025502
better,0.014765
broader,0.021831
calibr,0.094566
campbel,0.029364
case,0.043859
caus,0.011704
central,0.012293
certain,0.024005
chi,0.031414
chosen,0.020039
cite,0.055026
claim,0.013312
clearli,0.019719
coeffici,0.025310
collect,0.038379
combin,0.012506
come,0.025087
common,0.010605
complementari,0.025586
concept,0.122400
concern,0.036941
conclus,0.039086
confirm,0.018909
conflict,0.016336
consid,0.020458
construct,0.013582
content,0.017306
context,0.015429
contrast,0.014816
cool,0.024570
correspond,0.015922
critic,0.012902
cycl,0.035961
data,0.111985
day,0.013236
deduct,0.076134
defin,0.012037
definit,0.013869
depend,0.069440
deriv,0.026673
describ,0.032387
design,0.077298
determin,0.012180
develop,0.017544
dictionari,0.021265
differ,0.037194
differenti,0.017760
direct,0.023294
disagr,0.074826
display,0.019934
distinct,0.027018
doctrin,0.021034
document,0.016934
doe,0.011868
dogmat,0.032848
dure,0.010096
earli,0.010562
educ,0.026906
effect,0.041035
effort,0.014624
empir,0.294700
empiric,0.171541
empiricist,0.204473
end,0.011545
entiti,0.017917
evalu,0.018297
event,0.013742
everi,0.013214
evid,0.172800
exampl,0.018915
exist,0.031502
expect,0.014508
experi,0.272701
experiment,0.035277
explan,0.037177
extern,0.008257
fact,0.013407
fals,0.021417
featur,0.014281
fewer,0.022393
field,0.023064
focu,0.015491
follow,0.027098
form,0.025893
formul,0.072332
formula,0.039438
fundament,0.014460
gain,0.068690
gather,0.039371
gener,0.016228
greek,0.015990
groot,0.041817
ha,0.030118
hand,0.013991
help,0.024724
hisher,0.032458
hjrland,0.049534
hold,0.013601
human,0.032637
hypothes,0.134723
hypothesi,0.078676
import,0.019261
increas,0.010858
independ,0.023195
indirect,0.024534
individu,0.011647
induct,0.025006
inform,0.033678
initi,0.012269
innat,0.194457
inquiri,0.022523
insofar,0.062546
instead,0.013226
instrument,0.069549
interact,0.014088
interpret,0.015064
intuit,0.048325
investig,0.031645
involv,0.021893
judg,0.020851
key,0.028737
kind,0.015040
knowledg,0.326640
known,0.047172
laboratori,0.019159
larg,0.009949
later,0.033682
learn,0.031717
limit,0.023058
link,0.008208
list,0.041988
listen,0.079990
logic,0.018270
main,0.011950
major,0.010014
make,0.009599
mani,0.008532
mean,0.020791
measur,0.012363
medicin,0.017997
memori,0.039271
mental,0.020426
merit,0.026937
method,0.023381
mind,0.017801
modifi,0.018418
music,0.041492
need,0.011347
neg,0.016368
negat,0.030042
nonempir,0.041457
null,0.030836
number,0.009443
object,0.051615
observ,0.186875
onli,0.026067
oper,0.011908
opt,0.029364
option,0.019696
order,0.010402
origin,0.010461
outcom,0.038596
outstrip,0.071785
overal,0.034553
paper,0.015575
particular,0.011815
particularli,0.013238
pearc,0.038784
peopl,0.020814
perceiv,0.018983
percept,0.020092
perform,0.013270
person,0.012351
phenomena,0.018023
phenomenon,0.058322
philosoph,0.016568
philosophi,0.016071
piec,0.041690
place,0.032025
plan,0.014295
plausibl,0.028214
play,0.013628
point,0.010949
popular,0.027009
possess,0.016962
practic,0.011581
practition,0.022717
predict,0.047513
preexperiment,0.051783
prefer,0.016575
present,0.021646
previou,0.016323
primari,0.014288
principl,0.012993
probabl,0.015532
procedur,0.018850
proof,0.022070
propos,0.013354
provid,0.019207
provis,0.084332
qualit,0.075291
quantifi,0.024322
quantit,0.060330
quasiexperiment,0.044013
question,0.054371
random,0.020648
ration,0.111926
rationalist,0.187850
reach,0.013951
read,0.011922
reason,0.049282
record,0.014470
refer,0.041188
refut,0.027115
regard,0.013170
regardless,0.020752
regress,0.027079
reject,0.067693
relat,0.027767
reli,0.016541
rememb,0.025202
remov,0.015849
report,0.026388
research,0.267284
respect,0.013055
respons,0.023813
result,0.038249
review,0.015381
rigor,0.023115
role,0.012025
room,0.044534
scienc,0.011545
scientif,0.069070
scope,0.020181
second,0.022533
sens,0.169506
set,0.010634
sever,0.009960
share,0.026754
signific,0.012195
silenc,0.030612
skeptic,0.025163
social,0.012153
sourc,0.036052
specif,0.057154
squar,0.020241
standard,0.025736
stanley,0.025163
statement,0.017539
statist,0.062697
staunch,0.036039
studi,0.050483
subject,0.060769
suggest,0.013375
suitabl,0.021208
support,0.045437
taken,0.013989
temperatur,0.038628
tend,0.015688
tendenc,0.021453
term,0.018055
terminolog,0.022497
test,0.140568
theori,0.089589
thermomet,0.103588
thi,0.042876
thought,0.027080
time,0.016906
topic,0.015158
true,0.015469
truth,0.040654
ttest,0.043271
type,0.011486
typolog,0.032983
uncertainti,0.022234
understand,0.012968
unknown,0.019780
usag,0.020039
use,0.078065
usual,0.022994
valid,0.036488
valu,0.012245
vari,0.028168
variabl,0.034929
varianc,0.028681
variou,0.010876
version,0.016712
view,0.061226
vocal,0.089536
voic,0.022771
wa,0.015667
warm,0.024415
warrant,0.029468
way,0.030646
weiskopf,0.049534
wide,0.012305
wiktionari,0.035892
word,0.092834
yield,0.018663
