abil,0.001521
abov,0.007080
abovement,0.003554
absolut,0.024391
absorb,0.013268
abstract,0.001946
academi,0.002130
acceler,0.002127
access,0.009183
accompani,0.002138
accord,0.004424
account,0.003908
accumul,0.002122
achiev,0.001391
action,0.001359
activ,0.002207
actual,0.001415
adam,0.004489
adapt,0.001761
addison,0.003573
addit,0.005595
adiabat,0.026445
adjust,0.002117
agreement,0.001688
air,0.011894
akin,0.002960
alevel,0.003939
algebra,0.002375
allow,0.003300
altern,0.002842
alway,0.007437
ambigu,0.005198
american,0.001253
analog,0.005929
analysi,0.001333
analyz,0.003718
ani,0.021447
anoth,0.003191
apart,0.002027
appli,0.004730
applic,0.009247
appreci,0.002454
approach,0.006365
approvingli,0.004877
arbitrari,0.002388
arbitrarili,0.003054
area,0.003296
argu,0.005886
argument,0.003717
arieh,0.004785
aris,0.005413
aros,0.004393
arrang,0.003606
arrow,0.011360
ask,0.001828
aspect,0.001453
assembl,0.001726
associ,0.002161
assum,0.007662
assumpt,0.007538
atkin,0.008188
atom,0.007737
attract,0.001779
author,0.003736
avail,0.008113
averag,0.006609
avoid,0.001652
away,0.001685
b,0.026373
baierlein,0.005634
balanc,0.012255
base,0.007710
basi,0.008267
basic,0.004025
bear,0.002070
becam,0.001219
becaus,0.009036
becom,0.006406
befor,0.001139
begin,0.001300
beginn,0.003547
behav,0.002372
behavior,0.004693
bekenstein,0.004668
believ,0.001379
bennaim,0.005819
beretta,0.005045
bigger,0.002993
bit,0.002712
black,0.012600
blemish,0.004600
bodi,0.012046
boil,0.002983
boltzmann,0.057279
boltzmanngibb,0.005491
bore,0.002993
bound,0.003991
boundari,0.011172
bradi,0.003873
braunschweig,0.004877
brayton,0.005634
bring,0.001658
broad,0.001791
build,0.001411
c,0.024253
calcul,0.005106
callen,0.004705
calor,0.007520
calori,0.003663
cambridg,0.001769
came,0.001460
cannon,0.003102
capac,0.020369
carathodori,0.008967
carnot,0.100456
carnotclapeyron,0.005819
case,0.007818
cast,0.002269
caus,0.004769
cave,0.002686
cd,0.003075
cell,0.001921
central,0.002504
centuri,0.002294
certain,0.002445
chain,0.001995
chang,0.057408
channel,0.002205
chao,0.005170
chapter,0.002082
character,0.003388
characterist,0.001539
charl,0.001710
chellaboina,0.005819
chemic,0.020412
chemist,0.002567
chemistri,0.009789
choic,0.001755
choos,0.003843
chosen,0.002041
christian,0.001731
ci,0.009374
claim,0.001356
clarif,0.003523
classic,0.025092
claud,0.002894
clausiu,0.055992
clausiuss,0.005189
clerk,0.003078
clock,0.002796
close,0.005976
closer,0.002210
cold,0.014907
colder,0.010052
coldest,0.004205
collaps,0.003936
collect,0.002606
combin,0.005095
commonli,0.001483
compact,0.002635
compani,0.001410
compar,0.001321
complementari,0.002606
complet,0.004936
complex,0.001307
complic,0.002024
compon,0.003077
compos,0.003390
composit,0.005556
compound,0.002013
comprehens,0.001968
compress,0.005517
concept,0.022443
condit,0.003750
condition,0.008024
configur,0.017278
conform,0.002466
confus,0.004022
conjunct,0.004993
consequ,0.003038
conserv,0.019509
consid,0.002084
consider,0.004504
consist,0.003587
constant,0.040855
constantin,0.003233
constantli,0.002490
constantpressur,0.005189
constantvolum,0.004984
constitu,0.010461
constitut,0.002821
constraint,0.002218
construct,0.002767
contain,0.003845
contemporari,0.001747
content,0.007052
context,0.001571
contrast,0.004527
contribut,0.002622
controversi,0.001760
convert,0.003642
cool,0.012514
cooler,0.010301
correl,0.002082
correspond,0.004866
cosmolog,0.005224
count,0.002037
cp,0.003413
crc,0.003218
creat,0.002185
crystal,0.002506
current,0.001143
cutnel,0.005819
cv,0.003786
cycl,0.051286
cyclic,0.002775
d,0.011571
dali,0.003702
daniel,0.002222
ddt,0.004223
death,0.007824
debat,0.001663
decreas,0.024633
deduc,0.002668
deep,0.001989
deeper,0.002670
defin,0.012262
definit,0.046622
degre,0.001463
delta,0.035830
demon,0.003161
demonstr,0.003212
demystifi,0.004432
denot,0.004360
densiti,0.015093
depend,0.002357
der,0.002338
deriv,0.008151
describ,0.010997
descript,0.008166
determin,0.014890
develop,0.006255
deviat,0.005071
devic,0.003993
devis,0.002451
diagon,0.003341
dictionari,0.002166
did,0.001326
diesel,0.003620
differ,0.018944
differenti,0.001809
difficult,0.003116
diffus,0.002441
dimens,0.008223
direct,0.008305
directli,0.005742
discharg,0.002999
discov,0.003147
discoveri,0.001673
discret,0.002107
discuss,0.004373
disord,0.034549
dispers,0.024522
displaystyl,0.128946
dissip,0.009536
distanc,0.001902
distinct,0.002752
distinguish,0.001586
distribut,0.005897
divid,0.014168
doe,0.003626
domain,0.001745
dot,0.025986
doubt,0.002306
dover,0.002986
dqrev,0.005819
drive,0.003839
drop,0.003922
ds,0.003477
dsdtsum,0.005819
dsfrac,0.005045
dugdal,0.005045
dure,0.004114
dutdspdv,0.005374
dynam,0.005025
e,0.008687
earli,0.006455
earlier,0.001589
easi,0.002184
ecolog,0.006081
econom,0.010595
economist,0.004039
ed,0.010541
educ,0.001370
effect,0.006270
effici,0.013474
effort,0.001489
egg,0.002602
ehlieb,0.005819
eigenst,0.004079
element,0.002736
elementari,0.002426
enabl,0.001705
end,0.004704
energet,0.002914
energi,0.084333
engin,0.012402
enorm,0.002316
enrico,0.003477
ensembl,0.009298
entail,0.002510
enter,0.004717
enthalpi,0.014685
entir,0.005581
entri,0.002080
entrop,0.016687
entropi,0.846636
entropyincreas,0.005491
entropysiteoxyedu,0.005819
environ,0.007129
ep,0.003488
equal,0.023439
equat,0.026836
equilibrium,0.044964
equival,0.008663
erwin,0.003249
escap,0.002159
essenti,0.004486
establish,0.002296
eu,0.002342
evalu,0.003727
event,0.004199
eventu,0.004586
everi,0.002692
everyday,0.002297
everyth,0.002142
evolut,0.001746
evolv,0.005297
exact,0.004104
exampl,0.008670
exchang,0.001520
exergi,0.004744
exist,0.003209
exit,0.002821
expand,0.003043
expans,0.010890
expect,0.001478
expel,0.002593
expend,0.003444
experi,0.002645
experiment,0.003593
explain,0.002896
explan,0.001893
explicitli,0.002189
explos,0.004769
exponenti,0.002589
express,0.020906
extend,0.004256
extens,0.010168
extent,0.003540
extern,0.005888
extract,0.002070
extrem,0.001543
f,0.003169
fact,0.006829
factor,0.001363
fall,0.005873
familiar,0.002276
famou,0.001777
far,0.002917
fate,0.002716
fermi,0.003433
field,0.001174
final,0.009739
finit,0.004449
fix,0.006829
flow,0.028798
fluid,0.004534
follow,0.006441
forbidden,0.002844
forc,0.002305
form,0.003517
formal,0.001439
formul,0.003684
formula,0.014061
forward,0.002041
foundat,0.001500
founder,0.002016
frac,0.036038
framework,0.001648
franci,0.002202
frank,0.002252
free,0.005255
freeman,0.002878
french,0.001548
friction,0.014169
fu,0.007573
function,0.030620
fundament,0.019149
fusion,0.005362
g,0.006224
ga,0.036770
gap,0.004478
gave,0.005021
gener,0.015704
georgescuroegen,0.020858
gerhard,0.003341
german,0.001624
gibb,0.019448
gile,0.004223
given,0.021920
glass,0.007606
globular,0.003962
golden,0.002330
goldstein,0.003814
govern,0.001093
gp,0.003134
graviti,0.005015
great,0.001296
greater,0.005795
greek,0.001628
ground,0.001673
grundlagen,0.004340
guid,0.003252
gyftopoulo,0.005634
h,0.033556
ha,0.029913
haddad,0.004744
hall,0.002182
hamper,0.003048
han,0.002298
happen,0.005454
harald,0.003769
haran,0.004259
harvard,0.002247
hat,0.003218
hawk,0.009163
heat,0.150098
heatengin,0.005819
heatfrict,0.005819
help,0.001259
henc,0.007179
henceforth,0.003686
herbert,0.004981
herman,0.003072
hi,0.008251
high,0.001164
higher,0.004102
hill,0.002288
hint,0.003131
histor,0.003876
histori,0.001916
hittmair,0.005819
hklogw,0.005819
hole,0.018326
homogen,0.002590
horizon,0.005607
hot,0.015198
hotter,0.011083
hourlong,0.004569
hous,0.001543
howev,0.005601
hsum,0.004457
htextfusttextm,0.005819
htextvapttextb,0.005819
hxsum,0.005634
hypothesi,0.006010
ice,0.017563
ideal,0.014973
ident,0.003294
ignor,0.001995
ilog,0.005275
impli,0.010729
implic,0.002004
import,0.005886
imposit,0.003306
imposs,0.001944
includ,0.006388
incorpor,0.001579
incorrect,0.005477
increas,0.026547
increasingli,0.001695
increment,0.011622
inde,0.001955
independ,0.003544
indestruct,0.007592
indic,0.002830
individu,0.002372
inequ,0.007260
infinitesim,0.006086
influenc,0.001266
influenti,0.001850
inform,0.022871
ing,0.003962
inher,0.006613
initi,0.008748
inpxilog,0.005819
insight,0.002133
instanc,0.006231
instantan,0.003018
instead,0.001347
int,0.003207
integr,0.009716
intens,0.003820
intent,0.001935
interdisciplinari,0.002364
intermedi,0.002260
intern,0.014112
interpret,0.012276
interv,0.004846
introduc,0.001349
introduct,0.003049
intuit,0.004922
ipilog,0.010378
irrevers,0.038102
isaac,0.002489
isbn,0.025836
isol,0.031748
isotherm,0.019369
ith,0.004079
iwplogplogw,0.005819
j,0.014445
jacob,0.002593
jame,0.003244
januari,0.001641
jk,0.012372
jkgk,0.005374
jmolk,0.005045
john,0.005233
johnson,0.002628
josiah,0.003383
joul,0.021325
jth,0.004569
julio,0.003796
just,0.001341
justifi,0.002313
jw,0.003962
k,0.043598
kb,0.007133
kelvin,0.029348
kenneth,0.002581
kg,0.005993
khan,0.002993
kilogram,0.003249
kind,0.003064
kinet,0.002603
kittel,0.004744
kkdot,0.011638
knopf,0.003843
known,0.008649
kroemer,0.004984
l,0.003385
laboratori,0.001951
lack,0.001466
lambda,0.009453
lambert,0.003398
landsberg,0.004384
larg,0.004054
larger,0.001518
largescal,0.002240
largest,0.001588
later,0.004574
law,0.035914
lay,0.002164
lazar,0.008769
lead,0.005737
leav,0.003257
lectur,0.010455
left,0.001532
letter,0.001898
level,0.002299
lfrac,0.004668
lieb,0.004483
light,0.001585
like,0.002054
limit,0.005872
line,0.002752
linear,0.002046
link,0.003344
liquid,0.006184
list,0.001069
ln,0.032609
log,0.037720
logarithm,0.018672
logwidehat,0.005819
long,0.001248
longman,0.003269
look,0.001587
loop,0.002648
loos,0.002390
lose,0.002022
loss,0.006727
lost,0.006684
low,0.002947
lower,0.001420
ludwig,0.007921
m,0.006876
machin,0.007426
macroscop,0.035813
macrost,0.016122
magnitud,0.002372
magnum,0.003649
make,0.004889
mani,0.004345
markov,0.003277
martin,0.002035
mass,0.011038
mathbb,0.003547
mathemat,0.009070
mathematician,0.002353
mathematisch,0.004038
mathrm,0.003066
matrix,0.014482
matter,0.010125
maxim,0.006560
maximum,0.018819
maxwel,0.008602
mboxdisordercd,0.005819
mboxorderco,0.005819
mcgraw,0.003620
mcgrawhil,0.002778
mean,0.007413
measur,0.040303
mechan,0.031240
melt,0.005488
merrifield,0.004877
messag,0.016728
method,0.002381
michael,0.001769
microcanon,0.004829
microscop,0.029789
microst,0.054681
minu,0.002842
miss,0.002425
mistak,0.002646
mit,0.002336
mix,0.016646
mixedup,0.005491
mixtur,0.002404
mkhat,0.011638
mllerkirsten,0.005491
model,0.007186
modern,0.002306
mol,0.003905
molar,0.017275
mole,0.020731
molecul,0.012458
molecular,0.008039
moment,0.002187
monatom,0.004124
monograph,0.003001
monoton,0.006878
moriarti,0.004539
motion,0.005821
motiv,0.003757
movement,0.001325
multipl,0.001478
multipli,0.002478
n,0.024176
nat,0.012418
natur,0.005132
nd,0.007156
near,0.003162
necessari,0.001532
need,0.006935
neglect,0.002515
nersesov,0.005819
net,0.010106
neumann,0.012116
new,0.002576
newton,0.002427
newtonian,0.005951
nichola,0.002586
nonconserv,0.008724
nondegener,0.004600
nonequilibrium,0.003939
nonisol,0.005045
nonquasistat,0.005819
nonsi,0.004877
nonuniform,0.007727
note,0.002217
noth,0.002034
notic,0.002182
notion,0.001819
nottingham,0.003843
number,0.017315
o,0.002027
object,0.002629
obscur,0.005327
observ,0.011422
obtain,0.002989
occup,0.002003
occupi,0.005783
occur,0.010995
ocw,0.005491
oint,0.004928
omega,0.006302
onli,0.007966
open,0.006582
oper,0.004852
oppos,0.001606
opu,0.003477
order,0.007417
orderdisord,0.005189
organ,0.001048
origin,0.006393
otherwis,0.007316
otto,0.005418
outcom,0.001965
output,0.008028
outsid,0.001466
overal,0.003519
oxford,0.001806
oyc,0.005819
p,0.030825
paper,0.003173
paradigm,0.002329
paramet,0.006650
parcel,0.006954
partial,0.003537
particl,0.012401
particular,0.012036
pass,0.001493
path,0.015597
pathindepend,0.005634
paula,0.003895
pdvdt,0.005819
penros,0.007199
perfect,0.002148
perfectli,0.002671
perform,0.001351
permit,0.007834
perpetu,0.005210
perspect,0.003441
pessim,0.007747
peter,0.005260
phase,0.014793
phi,0.003147
philip,0.002363
phonon,0.004155
photon,0.002809
photovolta,0.004155
phrase,0.002316
physic,0.027681
physicist,0.004552
pi,0.016584
pick,0.005005
pioneer,0.002008
place,0.001087
plainli,0.004065
play,0.002776
playlist,0.004877
plu,0.004326
point,0.005577
polym,0.005779
port,0.002172
portion,0.003864
posit,0.005698
possibl,0.019119
postul,0.004744
potenti,0.002855
power,0.002256
pp,0.003595
practic,0.001179
predecessor,0.002404
predict,0.009680
prefer,0.001688
prentic,0.002980
prescrib,0.002692
present,0.001102
press,0.005191
pressur,0.024897
pressurevolum,0.004483
prevent,0.003152
previou,0.003325
previous,0.001680
primer,0.003189
princeton,0.002434
principl,0.007941
priori,0.002955
probabilist,0.002867
probabl,0.028480
problem,0.001179
proce,0.002684
process,0.036483
produc,0.013767
product,0.005746
profess,0.002304
progenitor,0.003627
progress,0.006011
prohibit,0.002249
project,0.001364
proof,0.002248
properti,0.021361
propertyeith,0.005819
propon,0.002310
proport,0.007292
proportion,0.003249
propos,0.002720
provid,0.006848
psychodynam,0.004025
publish,0.001223
pure,0.006974
purpos,0.001434
push,0.002096
pw,0.004094
pxi,0.004705
q,0.056798
qc,0.016687
qcfrac,0.005634
qctc,0.010748
qh,0.023927
qhqcleftfrac,0.005819
qhthfrac,0.010748
qj,0.005113
qjtj,0.005819
qrev,0.005819
qrevt,0.011638
qt,0.017039
qtdot,0.005634
qtextrevt,0.023277
qualifi,0.002318
qualit,0.005113
quantenmechanik,0.004744
quantifi,0.007433
quantiti,0.019756
quantiz,0.003269
quantum,0.020015
quantummechan,0.003796
question,0.004154
quickli,0.003589
quit,0.001863
quo,0.003075
r,0.011804
radiat,0.002208
ralph,0.002965
random,0.008413
rapid,0.001910
rapidli,0.001858
rate,0.010931
ratio,0.003977
raymond,0.005748
reach,0.001421
reactant,0.006899
reaction,0.012552
read,0.001214
realiti,0.001902
reason,0.002510
recent,0.006054
recept,0.002767
reconcil,0.005498
redefin,0.003093
reduc,0.002649
reduct,0.002012
refer,0.005594
reflect,0.003005
refriger,0.003383
regard,0.004024
reif,0.005275
rel,0.003761
relat,0.014143
relationship,0.001334
releas,0.001747
remain,0.006939
remark,0.002144
repel,0.003034
replac,0.002850
repres,0.004588
requir,0.005504
reservoir,0.040922
residu,0.005398
respect,0.003989
result,0.005844
return,0.005661
rev,0.012499
revers,0.044280
reword,0.004600
rho,0.016597
righthand,0.003599
rigor,0.002354
rise,0.002814
road,0.002031
roger,0.004690
role,0.006125
romanian,0.003383
room,0.027220
rudolf,0.008622
rumford,0.004407
s,0.052566
sackurtetrod,0.005819
sadi,0.004079
said,0.001436
satisfi,0.002074
saunder,0.003398
scale,0.004748
scholarpedia,0.003743
school,0.001422
schrdinger,0.003118
schroeder,0.004025
scienc,0.004704
scientif,0.002814
scientist,0.003198
second,0.025250
secondli,0.003075
section,0.001732
sector,0.001833
seen,0.001372
sens,0.001438
separ,0.001277
sergey,0.003895
seri,0.001393
serway,0.004829
set,0.009749
sever,0.005073
sgen,0.011638
shaft,0.003627
shannon,0.031294
shock,0.002390
shown,0.003372
shsc,0.011638
shulman,0.004984
si,0.009181
sign,0.001602
signific,0.001242
similar,0.004648
similarli,0.007375
simpl,0.009278
simpler,0.002595
simpli,0.001588
sinc,0.011678
singapor,0.002564
singl,0.005209
sink,0.002898
sint,0.003796
siqiti,0.005819
sixti,0.002960
size,0.004546
sk,0.004319
skfrac,0.005819
skmathrm,0.038438
small,0.002381
sncpln,0.011638
sncvln,0.011638
snrln,0.005819
socal,0.001963
solid,0.006275
solut,0.001665
sometim,0.003800
somewhat,0.004126
son,0.005590
sourc,0.001224
speci,0.001789
special,0.001217
specif,0.012808
specifi,0.013851
specul,0.002024
spider,0.003428
spin,0.002699
spiraxsarco,0.005819
spontan,0.015091
spread,0.006881
spring,0.002195
ssurround,0.005819
stage,0.001699
stanc,0.002682
standard,0.007865
standpoint,0.006199
star,0.002158
start,0.003695
state,0.065571
statist,0.047901
statu,0.001625
steadili,0.002567
steadyst,0.003686
steam,0.005797
step,0.004950
stephen,0.002161
stextfusfrac,0.005819
stextvapfrac,0.005819
storag,0.002316
store,0.003943
student,0.003313
studi,0.005142
subburst,0.005819
subject,0.003714
substanc,0.038877
subsystem,0.003398
suggest,0.001362
suitabl,0.002160
sum,0.009707
summari,0.002342
summat,0.006710
sunivers,0.005819
suppli,0.001586
supposit,0.003606
surfac,0.001762
surround,0.016040
symbol,0.003533
t,0.074507
tabl,0.001873
taken,0.005700
taylor,0.002448
tb,0.003986
tc,0.003627
tcth,0.005275
tcthqh,0.005819
tcthrightqh,0.011638
temperatur,0.121985
tend,0.007991
tendenc,0.004370
term,0.013794
textbook,0.006581
texttr,0.005819
texttrwidehat,0.005819
th,0.006695
theori,0.013689
theorist,0.002268
therefor,0.001322
thermal,0.034938
thermodynam,0.267293
thermoeconomicsecolog,0.005819
thermostatist,0.004829
thi,0.037125
thought,0.001379
throttl,0.004319
thu,0.013652
time,0.011194
tj,0.003999
tm,0.003694
togeth,0.002684
topic,0.001544
total,0.019011
tr,0.027684
trace,0.003732
tradit,0.001225
trajectori,0.002903
transfer,0.021650
transform,0.004779
transformationcont,0.005819
transit,0.008471
transmit,0.007153
transport,0.001668
trap,0.002549
trop,0.005491
tsalli,0.005275
tt,0.007159
ttnrln,0.011638
type,0.003510
typic,0.001305
u,0.009083
uk,0.001783
unabl,0.002022
unavail,0.003182
uncertainti,0.011324
undergo,0.004513
underli,0.001848
understand,0.006605
understood,0.001826
unexpect,0.002842
uniform,0.011282
uniqu,0.001659
unit,0.022577
univers,0.018144
unknown,0.002015
unlik,0.003241
unreli,0.003118
unspecifi,0.003529
unus,0.003408
uphold,0.003200
upper,0.003930
usabl,0.002986
use,0.025447
usual,0.008198
v,0.026030
vacuum,0.005079
valid,0.013009
valu,0.009979
vanish,0.002854
vap,0.010227
vapor,0.006080
vari,0.004304
variabl,0.016012
variat,0.001824
variou,0.002215
veloc,0.002559
veri,0.004445
versa,0.005524
viabl,0.002678
vice,0.004506
video,0.002142
view,0.004989
vieweg,0.005045
viewpoint,0.002561
vijaysekhar,0.005819
violat,0.004306
viscos,0.003529
visual,0.002053
volum,0.026673
von,0.007895
vonbaey,0.005819
vv,0.004051
vvnrln,0.005819
w,0.014697
wa,0.022343
warm,0.007461
warmer,0.003332
warmth,0.003743
wassim,0.005491
wast,0.004669
water,0.013511
wave,0.001962
way,0.005203
wesley,0.003332
wheel,0.002931
whenev,0.002738
whi,0.005372
wide,0.001253
widehat,0.004785
widespread,0.001869
wikibook,0.007727
wiley,0.004763
willard,0.003229
wleftfrac,0.005819
word,0.006754
work,0.048660
world,0.001973
write,0.001521
written,0.001540
wrmetheori,0.005819
wrote,0.003316
ws,0.004188
x,0.031018
yale,0.002660
yesno,0.004171
yield,0.001901
yngvason,0.010748
york,0.004496
zero,0.022514
