aamu,0.008584
abdu,0.005881
abelian,0.010970
abl,0.002061
abov,0.004178
abstract,0.011485
accord,0.001631
account,0.001921
accur,0.005560
action,0.030075
ad,0.004164
addit,0.004952
adequ,0.006846
affect,0.006397
affin,0.012027
aim,0.002330
aiparti,0.008584
algebra,0.014016
algebravalu,0.017168
allow,0.009736
altern,0.002096
alway,0.002194
amathbf,0.006886
amathrm,0.006835
amplitud,0.004798
amu,0.041169
analog,0.011663
analogu,0.004460
analyz,0.002742
angl,0.007366
ani,0.010066
anomali,0.044561
anoth,0.007847
ansatz,0.006654
appear,0.007560
appli,0.005233
applic,0.009744
approach,0.003755
appropri,0.005231
arbitrari,0.007047
area,0.001620
arightright,0.008584
aris,0.005324
arrang,0.002660
articl,0.003878
arxivhepph,0.007443
arxivmathph,0.008311
arxivphys,0.007195
ask,0.002697
associ,0.003188
assum,0.004521
assumpt,0.002780
asymptot,0.014344
ata,0.006284
atiyah,0.013150
atom,0.002853
attempt,0.007445
attract,0.002625
avarepsilon,0.008311
avoid,0.002437
awedg,0.016200
ax,0.034197
axi,0.003742
b,0.008645
bar,0.014754
bare,0.004019
barebon,0.007927
base,0.008531
basi,0.016260
becam,0.001798
becaus,0.004443
becchi,0.008584
becom,0.004725
began,0.001964
begin,0.001918
beginalignedmathbf,0.014118
behavior,0.002308
believ,0.002035
belong,0.002780
bf,0.005547
bibcodeamjphj,0.008584
bibliographi,0.002861
book,0.001870
borninfeld,0.008311
boson,0.046089
bound,0.002944
boundari,0.019228
bracket,0.004694
break,0.005424
broadli,0.003293
bromley,0.007124
brst,0.007353
bruce,0.004042
built,0.002452
bundl,0.039372
c,0.018830
calcul,0.012554
calculu,0.003677
cancel,0.014931
canon,0.007156
carri,0.002124
case,0.011533
caus,0.001758
cdot,0.009163
central,0.001847
certain,0.007214
cgamma,0.016200
chang,0.017828
chaotic,0.004514
charact,0.002723
character,0.009997
characterist,0.004542
charg,0.007629
chen,0.004816
cheng,0.005730
chernsimon,0.007781
chi,0.004720
chiral,0.010876
choic,0.010357
choos,0.002834
chosen,0.006022
chpt,0.006886
chromodynam,0.011310
class,0.006557
classic,0.023950
classif,0.005815
classifi,0.005331
clockwis,0.005899
close,0.008816
color,0.003283
commut,0.008756
compact,0.003888
compactli,0.006229
compens,0.006662
complet,0.012742
complex,0.007714
complic,0.002986
compon,0.002269
comput,0.017471
concept,0.001839
concern,0.001850
condens,0.003813
condit,0.014753
configur,0.069182
confus,0.005933
conjectur,0.004162
connect,0.028210
consequ,0.002241
conserv,0.005232
consid,0.003074
consist,0.012348
constant,0.031444
constraint,0.006545
construct,0.004082
contain,0.001890
context,0.002318
continu,0.003194
continuum,0.031472
contribut,0.003869
convent,0.002552
convolv,0.007655
coordin,0.050293
corioli,0.005714
cornerston,0.004628
correct,0.005308
correl,0.003072
correspond,0.009570
coulomb,0.005188
counterterm,0.008311
counterweigh,0.008584
coupl,0.015250
covari,0.053244
covariantli,0.014706
cover,0.004340
creat,0.001612
crystallographi,0.004770
current,0.006749
curvatur,0.009597
d,0.059745
da,0.003508
daili,0.003082
dealt,0.003950
decay,0.003624
deep,0.002934
def,0.006696
defin,0.010853
definit,0.002084
degre,0.008634
delta,0.015101
demand,0.004706
denomin,0.003927
densiti,0.003180
depend,0.005217
deriv,0.040082
describ,0.022712
descript,0.024094
design,0.001935
determin,0.007321
develop,0.009227
diffeomorph,0.012935
differ,0.008383
differenti,0.010675
dimens,0.003032
dimension,0.004077
dirac,0.009755
direct,0.003500
discov,0.002321
discuss,0.004301
dispersivewiki,0.008584
displaystyl,0.175119
distinguish,0.002340
distribut,0.010874
dmu,0.033934
dnu,0.007781
doctor,0.003145
doe,0.005350
doi,0.003489
domin,0.002168
donaldson,0.012167
dont,0.003683
dot,0.008518
doublet,0.006886
dual,0.003716
dx,0.011146
dxvarepsilon,0.008584
dynam,0.014826
e,0.029902
earlier,0.002344
earliest,0.005304
eclips,0.004252
ed,0.004443
edward,0.002886
effect,0.009249
ehbar,0.021812
ehresmann,0.007927
eichinvarianz,0.008584
einstein,0.007652
eitheta,0.007927
elabor,0.003302
electr,0.023615
electrodynam,0.061938
electromagnet,0.053364
electron,0.010621
electrostat,0.004858
electroweak,0.011146
element,0.006054
elementari,0.017899
elimin,0.002744
els,0.003267
emphasi,0.002878
enabl,0.002516
encount,0.003125
encyclopedia,0.002733
endalign,0.005573
energi,0.006664
ensur,0.002607
entir,0.004116
equal,0.006483
equat,0.026392
equival,0.007668
esp,0.005521
especi,0.001842
essenti,0.004411
establish,0.003387
euclidean,0.004436
everi,0.007942
everywher,0.004121
evid,0.002163
exactli,0.003108
exampl,0.014212
excess,0.006133
exchang,0.002243
exemplifi,0.004042
exhibit,0.002995
exist,0.003156
exot,0.008454
expand,0.002244
experi,0.011708
experiment,0.010602
explain,0.008544
explicit,0.003465
express,0.012336
extend,0.002093
exterior,0.004689
extern,0.002481
extrem,0.002276
f,0.058437
fact,0.006044
factor,0.002012
faddeevpopov,0.007927
fail,0.002385
failur,0.002761
familiar,0.003357
faraday,0.004834
featur,0.002146
fermion,0.005438
fiber,0.020609
field,0.150766
final,0.002052
finitedimension,0.011094
fix,0.017630
flow,0.002498
fluid,0.010034
fmathrm,0.006654
fmu,0.034991
fock,0.006130
follow,0.004072
forc,0.008503
form,0.019455
formal,0.014863
formul,0.010869
formula,0.002963
fourpotenti,0.007059
fourvector,0.006434
fpartial,0.006886
frac,0.034175
frame,0.009728
framedepend,0.008100
framework,0.002431
frampton,0.007124
freedman,0.005918
freedom,0.016072
freeli,0.003690
frequent,0.002385
fritz,0.004576
function,0.013898
fundament,0.004345
futur,0.002066
fvarepsilon,0.008584
fvrightarrow,0.008584
fwedg,0.008584
fx,0.014728
g,0.061980
galilean,0.005252
gamma,0.004189
gamu,0.017168
gaug,0.776220
gaugecovari,0.008584
gaugedepend,0.017168
gaugeinvari,0.015855
gaugetheoret,0.008584
gaugetransform,0.008584
gdmu,0.007927
gener,0.042676
geometr,0.010468
geometri,0.006921
georg,0.002445
gf,0.025365
gfrac,0.007353
gg,0.005957
ghost,0.004609
gint,0.008584
given,0.010211
gl,0.005641
global,0.036055
gluon,0.005745
good,0.001886
gpartial,0.021374
gphi,0.025753
gradient,0.004037
gravit,0.011385
graviti,0.011098
graviton,0.006434
great,0.001912
gross,0.003317
group,0.061226
groupref,0.008584
gstructur,0.008100
guptableul,0.008584
gx,0.006106
ha,0.010183
handl,0.009256
hazewinkel,0.005129
heat,0.002992
henc,0.002647
hermann,0.004147
heurist,0.004341
hi,0.003042
high,0.001718
highenergi,0.004903
highli,0.002233
hilbert,0.004554
histor,0.005718
histori,0.002826
hodg,0.005252
hold,0.008175
homeomorph,0.006178
homogen,0.003821
homotopi,0.005881
hopkin,0.004180
howev,0.006885
idea,0.009522
ident,0.009718
identifi,0.004102
ifrac,0.024815
igamu,0.008584
igdmu,0.008584
igparti,0.008584
ihbar,0.013393
illustr,0.002893
impli,0.005276
implicitli,0.004497
import,0.008683
impos,0.002918
incident,0.005112
includ,0.004711
incomplet,0.011093
increas,0.001631
independ,0.003485
individu,0.005250
inerti,0.009806
infinitesim,0.013467
influenc,0.001868
inform,0.008434
inleftfrac,0.007655
insid,0.002845
instanc,0.004596
instanton,0.014706
instead,0.001987
int,0.014194
integr,0.004095
intend,0.002626
interact,0.033874
interpret,0.002263
intrins,0.007185
introduc,0.019905
introduct,0.002249
invari,0.093798
invent,0.002761
involv,0.008224
iparti,0.006835
iright,0.007655
isbn,0.008023
isol,0.002754
isospin,0.006940
j,0.008523
jackson,0.004389
jd,0.005461
jet,0.004150
jmu,0.014541
john,0.001930
just,0.015828
kane,0.005613
kind,0.006780
know,0.002570
knowledg,0.004268
known,0.009924
l,0.042456
label,0.003052
lagrangian,0.139397
lanczo,0.007195
landau,0.005121
languag,0.008529
largest,0.002343
later,0.005061
lattic,0.004230
ldot,0.005918
lead,0.006770
led,0.005492
leftmathc,0.007927
lepton,0.005845
lf,0.006312
lfrac,0.006886
li,0.004397
lie,0.036133
liealgebravalu,0.008584
life,0.001823
light,0.002338
like,0.003030
likelihood,0.003934
limit,0.005197
link,0.001233
list,0.001577
littl,0.002171
lmathcal,0.007655
lmathrm,0.078372
loc,0.012869
local,0.044191
localis,0.005449
locat,0.002085
london,0.002388
long,0.001841
loop,0.003906
loos,0.003526
lorenz,0.005050
lowdimension,0.006502
m,0.012172
main,0.001795
mainli,0.002354
make,0.008655
mani,0.007692
manifold,0.017776
manual,0.003583
map,0.002595
mapsto,0.024301
mass,0.002326
mathbf,0.076232
mathcal,0.078506
mathemat,0.066899
mathrm,0.018093
matric,0.014051
matrix,0.007121
matter,0.004267
maxwel,0.012690
mcpsi,0.016623
mean,0.004686
measur,0.013005
mechan,0.006284
mediat,0.003475
mention,0.002746
mere,0.002790
method,0.010540
metric,0.007619
michael,0.007831
michiel,0.005027
minim,0.002993
mishandl,0.006614
model,0.022970
modern,0.006805
modifi,0.002767
modul,0.003830
motion,0.002862
motiv,0.008313
mphi,0.014887
ms,0.008525
mu,0.107941
mvarphi,0.008584
n,0.017831
nabla,0.022037
nathan,0.005065
natur,0.004543
nave,0.005215
nbyn,0.007443
necessari,0.002260
necessarili,0.002776
need,0.003410
neighborhood,0.008592
neq,0.006835
neutron,0.004472
new,0.003801
newtonian,0.004389
nice,0.005145
ning,0.007059
noether,0.005699
nonabelian,0.043608
noncommut,0.005761
noninerti,0.006341
noninteract,0.011875
nonlinear,0.011658
nonlinearli,0.006940
nonperturb,0.013393
nontrivi,0.004909
notabl,0.002176
notat,0.003811
note,0.001635
noth,0.003001
notion,0.005367
nt,0.005382
nu,0.025327
nuclear,0.002898
nuclei,0.004080
nucleon,0.005669
nullfield,0.008584
number,0.005676
o,0.008973
object,0.009695
obtain,0.008819
occur,0.003604
omiss,0.005473
oninvari,0.008584
onli,0.002611
oper,0.003578
operatornam,0.010787
orbit,0.010793
order,0.007815
origin,0.004716
orthogon,0.009609
outcom,0.014500
output,0.002960
oxford,0.002665
p,0.017322
paramet,0.019621
parameter,0.005547
partial,0.036531
particl,0.021343
particular,0.012428
pass,0.004407
past,0.002250
path,0.008628
pathord,0.008100
pattern,0.002420
pauli,0.010225
pedagog,0.005300
perform,0.005982
perhap,0.002636
perseu,0.005438
perturb,0.013226
phase,0.005455
phenomena,0.005416
phenomenon,0.005842
phi,0.120734
photon,0.012434
physic,0.064964
physicist,0.016787
picker,0.005845
pictur,0.003175
pion,0.006402
place,0.003208
plefteint,0.008584
point,0.027971
pointwis,0.006467
pole,0.003929
poor,0.002804
popularis,0.005013
posit,0.005043
possibl,0.021567
postul,0.010499
potenti,0.018953
power,0.001664
precis,0.005358
predict,0.007139
prefer,0.002490
prepar,0.002638
prescript,0.004286
present,0.003252
preserv,0.005483
press,0.003828
previou,0.004905
primarili,0.002223
princip,0.010163
principl,0.013667
priori,0.004359
probabl,0.009336
problem,0.005218
procedur,0.005665
process,0.003075
produc,0.001692
product,0.008476
propag,0.003624
properti,0.005908
proton,0.004205
provid,0.001443
psi,0.039597
pure,0.007716
q,0.003642
qcd,0.011762
qed,0.029228
qualit,0.003771
quanta,0.010899
quantiti,0.029143
quantiz,0.081979
quantum,0.088579
quark,0.009885
question,0.002042
rang,0.001952
rate,0.006047
rd,0.002912
reader,0.003517
real,0.002141
realiz,0.005768
recognis,0.003184
rectifi,0.005497
reduc,0.003908
redund,0.009126
refer,0.007221
reflect,0.002216
regard,0.003958
regul,0.002442
reinterpret,0.004775
rel,0.014797
relat,0.008345
relationship,0.001969
relativist,0.004259
remain,0.003412
remaind,0.003828
renew,0.003016
renorm,0.011555
replac,0.006306
repres,0.016922
represent,0.020819
representationand,0.008584
reproduc,0.003499
requir,0.009743
resembl,0.003254
resolv,0.002996
respect,0.001961
restrict,0.004781
result,0.007184
retriev,0.003064
rho,0.004896
richer,0.004929
rightarrow,0.006039
rigid,0.007677
rise,0.004151
robert,0.002268
ronald,0.003685
rotat,0.023905
rs,0.005162
rule,0.001883
run,0.004534
s,0.005852
said,0.002119
sake,0.004310
salam,0.005559
satisfi,0.009180
scalar,0.032334
scale,0.014009
scheme,0.018628
scholarpedia,0.005521
schumm,0.006402
search,0.002640
second,0.005079
section,0.033229
seen,0.008096
seiberg,0.007443
seibergwitten,0.008584
selfenergi,0.014390
sens,0.006368
seriou,0.002889
set,0.014382
setup,0.014484
shaw,0.004871
sigma,0.004424
signific,0.001832
significantli,0.002647
similar,0.003428
similarli,0.002719
simon,0.003449
simpl,0.006843
simplest,0.010985
simplif,0.004720
simplifi,0.003343
sinc,0.001435
sint,0.011199
sir,0.003240
situat,0.033156
small,0.001756
smaller,0.004882
smallest,0.003736
smooth,0.007614
smoothli,0.005252
socal,0.002896
solidst,0.005121
solut,0.004912
solv,0.002642
somewhat,0.003043
son,0.002748
sophist,0.003303
sourc,0.001805
space,0.030989
spaceflight,0.005613
spacetim,0.030675
span,0.003316
speak,0.002752
special,0.001795
specif,0.001717
specifi,0.005838
spell,0.003962
spinor,0.006153
spoil,0.005449
springer,0.006950
stackrel,0.006886
stand,0.008094
standard,0.009668
start,0.007269
state,0.005024
statement,0.002635
static,0.003672
strength,0.008735
stricter,0.005188
string,0.003813
strong,0.010430
structur,0.006709
student,0.002443
studi,0.006069
su,0.017650
subfield,0.003695
subtleti,0.005794
subtract,0.004416
success,0.005711
suffici,0.002654
suit,0.003337
sum,0.005727
supercomput,0.005129
supersymmetri,0.005828
svetlichni,0.008584
symmetri,0.183849
t,0.044963
ta,0.009997
taken,0.002102
tamu,0.025753
tdmu,0.008584
technic,0.007660
techniqu,0.013237
tendalign,0.007124
tensor,0.013814
term,0.025775
test,0.002347
text,0.002476
themselv,0.004259
theorem,0.003218
theori,0.212037
therefor,0.011708
thesi,0.003552
theta,0.004936
thi,0.064431
thing,0.004568
thu,0.001678
time,0.008891
tmathbf,0.006083
today,0.002062
togeth,0.003959
topolog,0.011851
total,0.002003
tp,0.006061
tpartial,0.013393
tphi,0.013773
tr,0.020419
trace,0.002752
tractabl,0.005290
transform,0.136307
transpar,0.003674
treat,0.002513
treatment,0.002641
tremend,0.004171
triplet,0.005404
trivial,0.004286
true,0.004649
truli,0.007195
ttaphi,0.008584
turbul,0.004452
turn,0.001984
twelv,0.003787
type,0.005178
typic,0.001926
u,0.020099
understand,0.001948
understood,0.005388
unif,0.008165
unifi,0.009015
uniqu,0.004896
univers,0.004460
unnot,0.011068
unusu,0.003480
usag,0.003011
use,0.017596
usual,0.012093
ususu,0.008311
v,0.025599
vacuum,0.003746
valid,0.002741
valu,0.016561
vanish,0.008422
varepsilon,0.028728
vari,0.004232
variabl,0.002624
varieti,0.002155
variou,0.001634
varphi,0.035985
vc,0.010922
vector,0.041665
veloc,0.011326
veri,0.001639
version,0.005022
vfrac,0.012407
view,0.001840
vladimir,0.004085
vrightarrow,0.015310
wa,0.009417
ward,0.004393
wave,0.002895
way,0.006140
weak,0.014259
wedg,0.016213
welldevelop,0.004775
weyl,0.011310
whenev,0.004040
wide,0.005547
wileyvch,0.006203
wilson,0.003586
witten,0.005977
word,0.001992
work,0.004222
written,0.004546
x,0.088971
xamu,0.024935
xfrac,0.005372
xgamma,0.014390
xjmu,0.008584
xmathbf,0.006940
xpartial,0.013573
xrightarrow,0.006402
xsum,0.006696
xvarepsilon,0.008100
y,0.009172
yang,0.004736
yangmil,0.046298
yield,0.002804
zero,0.006038
