accord,0.006788
actual,0.008688
affect,0.008870
ajmc,0.035712
allow,0.006750
alreadi,0.009889
altern,0.008722
angular,0.018308
ani,0.011965
anoth,0.026117
aris,0.011074
assumpt,0.011565
atom,0.011870
avoid,0.010139
away,0.020681
background,0.023317
backward,0.016883
ball,0.016763
bang,0.054879
basic,0.008234
becom,0.065525
befor,0.006990
begin,0.015962
believ,0.008466
big,0.037182
black,0.220938
blow,0.017341
bodi,0.008213
book,0.007779
boyerlindquist,0.035712
break,0.011283
brian,0.016742
c,0.039168
came,0.008963
candid,0.012627
case,0.027418
catastroph,0.016269
caus,0.007317
causal,0.015263
celesti,0.017378
censorship,0.039975
center,0.026231
certain,0.015006
chandrasekhar,0.025501
chang,0.012361
characterist,0.009449
charg,0.010579
check,0.014212
circular,0.015977
classic,0.009058
colder,0.020562
collaps,0.024154
common,0.006629
complet,0.007572
complex,0.016046
comput,0.009085
concept,0.015303
cone,0.038718
conic,0.086198
conserv,0.010884
consid,0.012789
contain,0.007866
continu,0.006643
conveni,0.014640
coordin,0.127860
cosmic,0.067098
cosmolog,0.032061
cover,0.009027
curv,0.013490
curvatur,0.059890
defin,0.007525
delin,0.018835
demonstr,0.009855
densiti,0.026464
depend,0.007235
describ,0.013498
determin,0.007614
diffeomorph,0.080722
differ,0.017438
dimens,0.012616
disappear,0.055765
displaystyl,0.175847
distanc,0.035029
doe,0.014838
dust,0.017901
earli,0.006602
earliest,0.011034
effect,0.012826
eleg,0.019683
emerg,0.008460
encount,0.013002
energi,0.036966
enter,0.009651
entropi,0.071663
epsilon,0.021968
equat,0.021959
evapor,0.018487
event,0.111683
everi,0.024782
everywher,0.017147
evid,0.009002
exampl,0.023649
exist,0.032823
express,0.008553
extend,0.008707
extens,0.008914
extrapol,0.018964
fall,0.009011
far,0.017902
featur,0.008927
felt,0.013936
field,0.014418
finit,0.054611
forc,0.007075
forev,0.018817
form,0.021583
formula,0.012327
freelyfal,0.033698
g,0.028649
gain,0.008588
gener,0.045652
geodes,0.114855
geometri,0.014397
gmc,0.061180
gravit,0.094732
graviti,0.061561
green,0.012140
ha,0.004707
hand,0.008746
hawk,0.037491
heat,0.012447
help,0.007728
hi,0.012658
hide,0.016710
high,0.007147
hole,0.321335
horizon,0.223688
hotter,0.022671
howev,0.034374
hydrogen,0.014621
hypothes,0.028073
hypothesi,0.012295
hypothet,0.015873
iasacin,0.107136
idea,0.007922
impli,0.010974
imposs,0.011936
inappropri,0.018606
includ,0.004900
incompat,0.017988
incomplet,0.015382
increas,0.013576
indic,0.008683
infin,0.055364
infinit,0.138223
inhabit,0.012271
initi,0.007669
insid,0.023678
instabl,0.015263
interpenetr,0.025309
interpret,0.009417
introduct,0.009358
invari,0.062433
j,0.008865
kerr,0.071513
kind,0.009402
known,0.023591
kretschmann,0.033698
kruskal,0.027354
larg,0.006219
larger,0.009315
larmor,0.026259
law,0.014219
layman,0.023903
layperson,0.024392
light,0.009729
like,0.018910
limit,0.021622
line,0.008446
locat,0.017354
longer,0.009733
look,0.029232
loop,0.016251
lose,0.012411
loss,0.010321
m,0.025319
make,0.018002
mani,0.010667
manner,0.011388
mask,0.018710
mass,0.019355
mathemat,0.009276
matter,0.008876
mean,0.019496
measur,0.015458
mechan,0.017429
mere,0.011609
metric,0.142631
million,0.009268
minimum,0.012872
miss,0.014885
model,0.022051
modern,0.007078
moment,0.013425
momentum,0.015513
motion,0.011907
mu,0.168391
nake,0.113012
nonrot,0.087340
normal,0.009405
note,0.013607
nu,0.042146
object,0.008066
observ,0.007788
occur,0.037486
order,0.006502
origin,0.006539
outdat,0.020947
p,0.009008
particl,0.038053
past,0.018722
penros,0.044183
penrosehawk,0.030590
perfectli,0.016395
perform,0.008295
period,0.007011
permit,0.012018
physic,0.023164
physicist,0.013967
piec,0.013031
plane,0.014212
pm,0.035746
point,0.082140
posit,0.006993
possibl,0.006901
predict,0.029702
problem,0.007236
provid,0.012007
q,0.121239
qgqpi,0.035712
quantiti,0.066130
quantum,0.054592
question,0.016995
r,0.072439
radiat,0.054207
radiu,0.035803
reach,0.017442
read,0.007453
redshift,0.023352
refer,0.008582
region,0.007684
regular,0.047028
reissnernordstrm,0.029639
rel,0.053862
relev,0.011224
remov,0.009908
renorm,0.024036
result,0.017933
rho,0.040741
riemann,0.021137
ring,0.029069
rmu,0.056871
roger,0.028782
rotat,0.028414
rpm,0.114596
s,0.006086
saul,0.020706
scalar,0.057649
schwarzschild,0.076803
second,0.007043
section,0.010633
seen,0.008420
shape,0.010228
shapiro,0.021889
shorter,0.015278
shown,0.020698
sigma,0.036811
sign,0.009833
similarli,0.011315
simplifi,0.013909
simul,0.025955
sinc,0.011944
singh,0.021203
singl,0.007993
singular,0.582336
size,0.009301
slowli,0.013766
small,0.007308
smaller,0.010155
smooth,0.047518
solut,0.040874
solv,0.010991
space,0.009208
spacetim,0.182302
spatial,0.013962
specif,0.007146
spin,0.016564
squar,0.012654
star,0.013245
start,0.007560
state,0.010451
stephen,0.013267
strength,0.012113
string,0.047595
structur,0.006978
stuart,0.016564
suggest,0.025084
suitabl,0.013258
supergrav,0.026635
t,0.010391
temperatur,0.036222
tend,0.019615
tensor,0.019156
term,0.005643
termin,0.027988
test,0.009763
teukolski,0.029931
text,0.010303
theorem,0.013388
theoret,0.009793
theori,0.063006
therefor,0.008118
thermodynam,0.015330
thi,0.049140
thousand,0.010532
thu,0.013963
time,0.021137
timelik,0.025309
tip,0.016657
transform,0.009776
type,0.014361
ultraviolet,0.018657
uncharg,0.026769
understand,0.008107
univers,0.024743
unknown,0.012365
use,0.024401
vacuum,0.015584
valu,0.015310
verifi,0.015098
version,0.010447
view,0.007655
wa,0.014691
wave,0.012044
wavelength,0.018092
way,0.006386
wherea,0.010364
wide,0.007692
word,0.008290
work,0.005855
wormhol,0.027050
zero,0.012560
