abov,0.008659
absolut,0.011473
absorb,0.006761
absorpt,0.008232
accept,0.004246
actual,0.012985
ad,0.017264
addit,0.006843
adiabat,0.034652
advantag,0.010499
air,0.025977
albr,0.016789
allow,0.003363
aluminium,0.009476
alway,0.009096
ambient,0.009829
ammonia,0.009773
analysi,0.004077
ani,0.035768
anoth,0.006505
antiqu,0.006998
apart,0.006197
appli,0.003615
applic,0.016156
approach,0.003892
approxim,0.004609
assum,0.009370
atkinson,0.023047
atmospher,0.006625
attain,0.013692
attempt,0.003857
augment,0.008709
automot,0.009697
auxiliari,0.009544
avedr,0.017792
averag,0.005051
b,0.004479
barton,0.011470
base,0.002946
bath,0.009495
becaus,0.006139
behavior,0.014351
bend,0.009534
better,0.009197
bird,0.013923
bodi,0.008184
bound,0.006102
brayton,0.034454
break,0.005621
bring,0.010139
bromid,0.012656
build,0.004315
c,0.050737
callen,0.043157
calor,0.011496
cannon,0.009486
capac,0.005661
car,0.007217
carbon,0.006656
carnot,0.165382
case,0.010245
caus,0.003645
cell,0.005874
centuri,0.003507
chang,0.030793
character,0.005180
charl,0.005231
chemic,0.020803
circul,0.021439
classic,0.004512
close,0.010964
cm,0.008590
coalfir,0.013970
cold,0.065111
colder,0.020489
combin,0.007790
combinedcycl,0.017792
combust,0.047195
common,0.003303
compani,0.004313
complet,0.003772
compon,0.004704
compress,0.016868
compressor,0.026540
concern,0.003835
confus,0.012297
consequ,0.004645
consid,0.003185
consider,0.009181
constant,0.027155
constantli,0.007615
continu,0.003310
convect,0.010203
convent,0.005289
convert,0.038981
cool,0.038263
coolant,0.013708
cooler,0.010499
correspond,0.004959
coupl,0.006321
creat,0.003341
criterion,0.008202
critic,0.008036
cryocool,0.016789
cubic,0.009429
cycl,0.336012
cyclon,0.010230
d,0.013267
data,0.008719
date,0.004565
decreas,0.010759
defin,0.003749
deliv,0.012878
delta,0.007824
densiti,0.006592
depend,0.003604
deriv,0.004153
descent,0.007837
descript,0.004993
desir,0.005141
despit,0.004632
develop,0.005464
devic,0.030527
diagram,0.007515
diesel,0.033208
differ,0.017376
differenti,0.005531
dimer,0.011470
dinitrogen,0.014912
dioxid,0.016054
direct,0.003627
discrep,0.009429
displac,0.007009
displaystyl,0.081352
dissip,0.009718
distinguish,0.004850
distribut,0.004507
divid,0.004332
doe,0.007392
domest,0.005660
drastic,0.008178
drawback,0.021262
dri,0.021465
drink,0.016202
drive,0.005869
driven,0.012719
drop,0.005996
dsc,0.013405
dsh,0.016128
dure,0.012578
earlier,0.004860
earth,0.015490
easili,0.005634
ed,0.009208
effect,0.006390
effici,0.185395
effort,0.009109
electr,0.005438
electron,0.005503
emiss,0.007804
empir,0.004589
end,0.007192
endorevers,0.071169
energet,0.008911
energi,0.064460
energyand,0.015866
energyto,0.016431
engin,0.450291
enginear,0.017792
enhanc,0.006091
entropi,0.044630
environ,0.004359
environment,0.005287
equal,0.013437
equatori,0.009863
equip,0.005880
ericsson,0.053080
eta,0.033403
evapor,0.036843
everyday,0.014051
exact,0.012549
exactli,0.006443
exampl,0.017673
excess,0.006356
exclus,0.005618
exot,0.008761
exotherm,0.012115
expand,0.009305
expans,0.011098
exploit,0.042858
expon,0.009330
express,0.008522
extens,0.004441
extern,0.007715
extract,0.031655
fact,0.008351
fairli,0.014899
famou,0.005433
fed,0.008801
figur,0.019483
fluctuat,0.007344
fluid,0.083192
flux,0.008652
focu,0.004825
follow,0.005626
form,0.002688
frac,0.015740
freeman,0.008801
friction,0.008664
frost,0.010683
fuel,0.006517
fuelair,0.017792
fulli,0.005302
fundament,0.004503
ga,0.059170
gai,0.015634
gain,0.012836
gasabsorpt,0.017792
gasbas,0.017792
gase,0.023523
gasolin,0.010175
gasolinepetrol,0.017792
gasonli,0.017792
gener,0.022744
given,0.017637
globe,0.008009
goal,0.004837
goe,0.006329
good,0.003910
gradient,0.008368
greater,0.008859
h,0.083053
ha,0.009380
hadley,0.025716
heat,0.595350
heav,0.015866
henc,0.005487
herbert,0.015231
high,0.017805
highentropi,0.016431
higher,0.004181
highperform,0.011496
histori,0.002929
horsepow,0.013405
hot,0.085191
hotter,0.022590
hpin,0.017792
hydrosphereearth,0.017792
ice,0.038357
ideal,0.022890
ident,0.005035
identifi,0.004251
imaginari,0.009210
imbal,0.009121
implement,0.019586
import,0.002999
improb,0.011634
improv,0.008655
inch,0.009476
includ,0.007324
increas,0.033819
indic,0.012979
industri,0.004014
inequ,0.007399
infinitesim,0.027912
inform,0.003496
injector,0.017792
inlet,0.024861
input,0.006371
intern,0.012327
introduct,0.004662
investig,0.004928
irrevers,0.009708
isbn,0.008315
isentrop,0.028133
isobar,0.012805
isometricisochor,0.017792
isotherm,0.011844
isovolumetr,0.017227
jet,0.008602
job,0.006073
john,0.012000
johnson,0.008036
joul,0.010866
k,0.005332
kalina,0.014504
kelvin,0.029910
kilowatt,0.013205
kind,0.004684
kinet,0.007960
kittel,0.014504
known,0.002938
kroemer,0.015240
kwl,0.017792
lack,0.004483
larg,0.003098
larger,0.009282
law,0.007084
lean,0.009604
lenoir,0.015634
lift,0.007849
light,0.004847
like,0.009421
limit,0.028726
liquid,0.063025
litr,0.012609
locat,0.004323
lost,0.005109
lot,0.007241
low,0.013518
lowentropi,0.017227
lower,0.026066
machin,0.005676
magnet,0.013803
maintain,0.008199
major,0.003119
make,0.008969
malon,0.012912
mani,0.005314
match,0.006252
materi,0.016479
mathemat,0.009243
max,0.007184
maxim,0.013372
maximum,0.025572
measur,0.007701
mechan,0.030391
melt,0.008389
mesoscop,0.043894
method,0.003641
miller,0.016415
minto,0.015427
mix,0.011310
mixtur,0.014701
model,0.025635
modern,0.010579
moist,0.021811
molecul,0.006348
molecular,0.006145
motion,0.005932
motor,0.007582
nanoscal,0.012115
natur,0.009416
nd,0.010940
necessari,0.004685
neg,0.020392
net,0.012360
new,0.005252
newer,0.008633
nitrogen,0.008115
nocl,0.016128
nois,0.008384
nonzero,0.009655
note,0.010169
novel,0.006507
nox,0.029009
nuanc,0.010436
object,0.004019
observ,0.003880
ocean,0.012100
offer,0.004371
onc,0.004393
onli,0.010825
open,0.004024
oper,0.014835
organ,0.003206
origin,0.003258
otec,0.017792
otto,0.016567
output,0.030682
overal,0.010761
overview,0.005890
p,0.004487
particl,0.006319
pdv,0.015069
peak,0.006451
peltierseebeck,0.015240
percent,0.005904
perform,0.012399
phase,0.011307
phasechang,0.015634
physic,0.015388
piston,0.011523
point,0.013641
posit,0.010452
possibl,0.017193
potenti,0.008729
power,0.048300
practic,0.003606
predict,0.004932
pressur,0.005074
problem,0.003605
process,0.054180
produc,0.003507
product,0.007027
promis,0.006334
properti,0.016327
propos,0.008318
provid,0.005982
puls,0.008984
pump,0.042395
q,0.083054
qc,0.012754
qcqh,0.016128
qctcdelta,0.017792
qh,0.029263
qhqcqhfrac,0.016128
qhthdelta,0.017792
qualiti,0.005023
r,0.004511
radic,0.006180
rainfal,0.009278
rang,0.016187
rankin,0.050626
rapidli,0.005683
ratio,0.012160
reach,0.008690
reaction,0.005482
realiz,0.005978
realworld,0.008883
reason,0.003837
reciproc,0.008031
recombin,0.008890
reduc,0.004050
refer,0.004276
refin,0.006707
refriger,0.082764
regard,0.004102
regen,0.024379
region,0.003828
reject,0.005270
rel,0.003833
relat,0.008648
reliabl,0.006393
remov,0.014809
requir,0.006731
reservoir,0.019248
resist,0.005540
rest,0.005009
restrict,0.004955
result,0.005956
revers,0.047090
revolut,0.005296
rise,0.004302
rock,0.006695
rule,0.003902
run,0.018794
s,0.024259
say,0.004632
sc,0.010791
scale,0.004839
scdelta,0.017227
scthdelta,0.017792
second,0.003509
serv,0.004256
sh,0.021890
shfrac,0.017792
ship,0.006066
shown,0.010312
signific,0.003798
simplest,0.007589
simplifi,0.006930
sinc,0.023804
sink,0.079762
small,0.003641
smog,0.013477
socal,0.018012
solar,0.007097
solid,0.012790
son,0.005697
sort,0.006241
sought,0.005796
sourc,0.037429
speci,0.005472
specif,0.003560
sqrt,0.009604
standard,0.004007
state,0.010414
station,0.013001
statist,0.004881
steam,0.035450
steamcool,0.017792
stirl,0.058315
studi,0.003144
sublim,0.010390
substanc,0.031280
subtrop,0.010828
supercrit,0.027416
suppli,0.004851
surfac,0.005388
surround,0.010898
t,0.051773
taken,0.004357
tc,0.011090
tcdelta,0.017227
tcth,0.032256
technolog,0.004290
temperatur,0.204527
term,0.005623
tesla,0.011393
tetraoxid,0.016789
textmaxfrac,0.017227
th,0.006824
themselv,0.004413
theorem,0.006670
theoret,0.024395
therefor,0.004044
thereof,0.009145
thermal,0.061042
thermion,0.013708
thermoacoust,0.017792
thermodynam,0.084014
thermoelectr,0.025934
thermogalvan,0.017792
thermomagnet,0.016431
thermostatist,0.014767
thermosynthesi,0.016431
thermotunnel,0.017792
thi,0.037836
thu,0.010435
time,0.002632
timelin,0.007004
today,0.008549
tool,0.004764
toxic,0.016455
toy,0.009740
transfer,0.030552
transform,0.004870
turbin,0.066288
type,0.003577
typic,0.011976
underli,0.005650
understand,0.008078
unfortun,0.008578
unit,0.003001
upper,0.006009
usabl,0.009129
use,0.065648
usual,0.014323
v,0.005305
vapor,0.009295
vaporcompress,0.017792
variat,0.005577
variou,0.010162
veri,0.013592
versatil,0.010648
version,0.005205
virtual,0.005884
volum,0.005097
vuilleumi,0.016789
w,0.024964
warm,0.007604
warrant,0.009178
wast,0.007137
water,0.032130
way,0.012726
weight,0.005997
wheel,0.008962
wide,0.003832
wiley,0.007281
wind,0.007069
woint,0.016431
word,0.004130
work,0.093349
workabl,0.011295
workextract,0.017792
wqhfrac,0.017792
xenon,0.011606
zero,0.006257
