abc,0.003113
abcfrac,0.005713
abov,0.008342
absenc,0.001996
absent,0.005293
acceler,0.025065
accord,0.004343
account,0.003837
act,0.011171
action,0.013344
actual,0.001389
ad,0.004157
addit,0.003296
adject,0.002968
adopt,0.001498
advanc,0.001341
advantag,0.001685
aequiv,0.005276
afrac,0.004163
agreement,0.001657
al,0.001862
allow,0.003239
alongsid,0.004517
alpha,0.012569
alsoedit,0.003419
altern,0.002790
alway,0.007302
amathrm,0.009098
analog,0.003881
analogu,0.002968
analysi,0.001309
analyt,0.001979
analytiquewilliam,0.005713
angl,0.009805
angular,0.020503
ani,0.007657
anoth,0.003133
appear,0.005031
appli,0.016253
applic,0.009079
approach,0.001249
appropri,0.005222
aquad,0.004698
ar,0.003124
arbitrari,0.009380
arc,0.002918
area,0.001078
aris,0.001771
arriv,0.003496
assert,0.001865
associ,0.001060
assum,0.003009
astronom,0.002445
ath,0.004839
attach,0.002056
attract,0.001747
avoid,0.004866
away,0.001654
awkward,0.003834
b,0.023015
bead,0.010129
becaus,0.004928
becom,0.001048
beginarrayrclltvfrac,0.005713
beginarrayrllxmathrm,0.005713
bernoulli,0.009664
best,0.001443
beta,0.005356
bmathrm,0.009908
bob,0.006092
bodi,0.003942
br,0.003763
brachistochron,0.004741
bracket,0.003124
breviti,0.004034
broad,0.001758
bypass,0.003036
c,0.033837
calcul,0.005013
calculu,0.014686
cambridg,0.003474
canon,0.009525
capacit,0.003878
care,0.001647
carri,0.001413
cartesian,0.021072
case,0.014255
cassel,0.003902
cast,0.002227
caus,0.001170
cdot,0.003049
center,0.002797
centerofmass,0.004954
central,0.007376
centrifug,0.013767
centripet,0.004128
certain,0.002400
cf,0.002957
chain,0.003918
chandra,0.003650
chang,0.004944
character,0.001663
characterist,0.001511
charg,0.008462
choic,0.010339
choos,0.001886
chosen,0.008016
christoffel,0.009166
circuit,0.002474
circumst,0.002014
cjk,0.005094
class,0.001454
classic,0.014491
cleanli,0.003754
clear,0.001632
close,0.002347
cm,0.002758
cmathrm,0.010189
coeffici,0.012656
coincid,0.002359
collect,0.001279
combin,0.001250
common,0.001060
compar,0.003892
comparison,0.001839
complet,0.001211
complex,0.001283
complic,0.011927
complt,0.004893
compon,0.012085
concentr,0.001716
condit,0.003682
configur,0.012116
conflict,0.001633
conjug,0.012041
connect,0.004332
conserv,0.036566
conservationedit,0.005713
consid,0.002046
consist,0.003522
constant,0.026159
constantli,0.002445
constrain,0.007651
constraint,0.121967
constraintsedit,0.005713
construct,0.002716
contain,0.005033
context,0.003086
continu,0.002125
contravari,0.004376
contribut,0.001287
conveni,0.014052
convers,0.001809
convert,0.007152
coordin,0.178518
coordinatesedit,0.011426
corot,0.008803
correct,0.003532
correspond,0.007962
count,0.002000
coupl,0.012179
cours,0.001528
covari,0.006442
curv,0.012949
curvilinear,0.016515
cyclic,0.019071
d,0.241417
dalembert,0.033623
damp,0.003582
daniel,0.002181
david,0.001558
ddot,0.029828
ddt,0.016584
deal,0.001413
decreas,0.001727
dedit,0.005094
deep,0.001952
defin,0.014446
definit,0.009709
degre,0.002873
delta,0.030151
denot,0.006421
densiti,0.016935
depend,0.019676
deriv,0.052018
describ,0.005398
desir,0.001650
determin,0.002436
develop,0.001754
deviat,0.002489
dfrac,0.004005
did,0.001302
differ,0.001859
differenti,0.028419
difficulti,0.001894
dimens,0.004036
dimension,0.002713
direct,0.003494
directli,0.004228
disappear,0.004460
discov,0.001544
discret,0.004137
discuss,0.001431
displac,0.027009
displaystyl,0.172812
dissip,0.012483
distinguish,0.001557
doe,0.005934
dot,0.206939
doubl,0.003884
dpartial,0.011426
dpdt,0.004839
dqdt,0.016173
dqjdt,0.005713
dr,0.002176
drdt,0.016173
drive,0.001884
driven,0.002042
dure,0.001009
dvdr,0.005713
dvdrmu,0.005713
dynam,0.009867
dzdt,0.005713
e,0.021322
easi,0.002144
easili,0.001809
effect,0.002052
effici,0.001653
einstein,0.002546
el,0.012697
electr,0.006985
electromagnet,0.007103
electromagnetismedit,0.005713
electron,0.003534
element,0.001343
elimin,0.007305
ell,0.022881
end,0.003464
endarray,0.009678
energi,0.057661
energytim,0.005276
engin,0.004566
enter,0.003087
entir,0.008219
equal,0.010067
equat,0.193216
equationedit,0.005713
equilibrium,0.002207
equival,0.005103
er,0.003336
error,0.002008
establish,0.001127
esum,0.005094
etv,0.004401
euler,0.005904
eulerian,0.004240
eulerlagrang,0.066430
evalu,0.001829
eventu,0.001501
everi,0.002643
evid,0.001440
evolv,0.001733
exactli,0.004137
exampl,0.007566
examplesedit,0.004893
excel,0.002284
exchang,0.001492
exclud,0.003973
exert,0.002423
exist,0.001050
explanationwebpag,0.005713
explicit,0.002306
explicitli,0.017200
exploit,0.003932
express,0.008210
extend,0.001393
extens,0.004278
extern,0.006606
extra,0.002418
extrem,0.003029
f,0.035780
fa,0.003346
fact,0.001340
factor,0.005356
famleftfrac,0.005713
fast,0.004323
fcr,0.004788
featur,0.001428
fermat,0.007016
fewer,0.002239
feynman,0.003100
fi,0.007029
fictiti,0.010192
field,0.019606
fimathbf,0.005713
final,0.004098
fiparti,0.020715
firk,0.011426
fix,0.003352
flat,0.004830
flow,0.001663
fmathbf,0.004240
fmathrm,0.004428
follow,0.018971
foot,0.002453
footnotesedit,0.005531
forc,0.097346
forceedit,0.005713
forcesedit,0.005713
form,0.012948
formal,0.002826
formul,0.028936
formulationedit,0.010552
formulationsedit,0.005713
fq,0.004839
fr,0.008365
frac,0.098562
frame,0.025898
free,0.005159
freedom,0.001782
frequent,0.001587
friction,0.005564
function,0.033530
fundament,0.004338
furthermor,0.001935
g,0.009166
gallicamath,0.005094
gbc,0.005713
gell,0.004893
gener,0.057616
geodes,0.022049
geometr,0.004644
geometri,0.002303
given,0.015857
gradient,0.005374
graviti,0.002462
gsin,0.005713
gupta,0.003604
h,0.001568
ha,0.006777
half,0.001554
hamilton,0.028027
hamiltonian,0.022934
hand,0.001399
handl,0.002053
happen,0.001784
held,0.001335
help,0.001236
henc,0.003524
hi,0.001012
higher,0.004027
hildebrand,0.008565
histor,0.001268
hold,0.002720
holonom,0.015284
homogen,0.007630
howev,0.007332
hsum,0.004376
hybrid,0.002359
hypothet,0.002539
iclambda,0.028566
idea,0.005070
ideal,0.003675
ident,0.001617
identifi,0.004095
ifrac,0.020644
ignor,0.003917
illustr,0.001925
immedi,0.003320
implicit,0.007935
import,0.001926
impos,0.001942
includ,0.006271
incorpor,0.001550
increas,0.002171
increment,0.005705
independ,0.022038
index,0.001794
indic,0.002778
individu,0.002329
indot,0.028566
induct,0.002500
inequ,0.002376
inerti,0.029368
inertia,0.003186
infinitesim,0.002987
influenc,0.004975
inform,0.005613
initi,0.003681
insignific,0.003267
instanc,0.001529
instant,0.011675
instead,0.005291
int,0.012595
integr,0.020442
integrand,0.004240
interact,0.015499
interfer,0.002305
interpret,0.006026
introduc,0.009273
introductionedit,0.004893
invari,0.009988
invers,0.002384
involv,0.003284
inward,0.003221
iquad,0.004893
italianfrench,0.005531
iter,0.002826
itfimathbf,0.005713
j,0.080840
jacobi,0.003554
jacqu,0.002619
jean,0.002342
jmsum,0.005713
jnfrac,0.016595
jnleftfrac,0.016595
jnleftqjleftfrac,0.005713
jnqjdelta,0.005713
joseph,0.001860
josephloui,0.004201
judici,0.002168
just,0.002633
k,0.148957
kcdot,0.032335
kequiv,0.011426
kevin,0.002963
kfrac,0.019890
kind,0.016546
kinet,0.051122
kiran,0.004893
kmathbf,0.015828
kmathrm,0.010357
kmcjkdot,0.005713
kmkmathbf,0.011426
knleftfrac,0.010357
knmathbf,0.031656
knmkmathbf,0.005713
knmkvk,0.005713
know,0.001711
known,0.000943
kpartial,0.030122
kquad,0.005178
krightcdot,0.011426
ksum,0.033519
kt,0.007828
kunderbrac,0.005713
l,0.157902
la,0.001884
lab,0.004934
label,0.002031
labori,0.003745
lagrang,0.100385
lagrangian,0.388275
lambda,0.006187
larg,0.000995
later,0.002245
law,0.020473
lawsedit,0.005276
lb,0.003254
lcm,0.004428
ldot,0.015756
ldqjdt,0.005713
lead,0.004506
leav,0.001598
lectur,0.002052
leftfrac,0.006194
leftmmrightdot,0.005713
legendr,0.007508
leibniz,0.002817
lemma,0.003276
length,0.013112
lengthmomentum,0.005713
let,0.004231
lfrac,0.009166
lhpital,0.004741
light,0.003113
like,0.004033
limit,0.002306
line,0.010810
linear,0.004017
link,0.001641
linksedit,0.003447
llalb,0.005713
llalblab,0.005713
llfrac,0.005531
llmathbf,0.005713
llrightn,0.005713
lmathbf,0.005094
lmathrm,0.018967
locat,0.005552
longer,0.001557
look,0.003117
lorentz,0.003209
loss,0.003302
loui,0.002130
lp,0.003658
lpartial,0.179444
lphi,0.005713
lq,0.010040
lr,0.007712
lrel,0.005713
lrtheta,0.005713
lsum,0.005094
lt,0.003477
ltextcmunderbrac,0.005713
ltextrel,0.005713
ltextrelfrac,0.005713
ltextrelparti,0.005713
ltint,0.005713
ltv,0.004741
lunderbrac,0.005713
lxyzdot,0.005713
m,0.081013
magnet,0.004432
magnitud,0.006987
maintain,0.002632
make,0.000960
manifestli,0.004401
mass,0.023223
massiv,0.006026
mathbf,0.225138
mathcal,0.006966
mathemat,0.004452
mathematician,0.002310
mathrm,0.165572
matter,0.001420
maupertui,0.004549
maximum,0.002052
mcaniqu,0.004583
mddot,0.025102
mdot,0.035143
measur,0.002473
mechan,0.068313
mechanicsedit,0.014517
medium,0.002152
mell,0.009678
method,0.004676
metric,0.002535
mgbcfrac,0.005713
mgell,0.005713
minim,0.003985
minimum,0.002059
minu,0.005580
mleftdot,0.005713
mleftleftdot,0.005713
mmathbf,0.004282
mmddot,0.005713
mmm,0.004583
mn,0.003419
modern,0.001132
modifi,0.005526
moment,0.002147
momenta,0.036307
momentaedit,0.005713
momentum,0.039709
motion,0.078105
motiv,0.003688
movabl,0.003408
mr,0.002538
mrm,0.004893
mrsin,0.011426
mu,0.023946
multiparticl,0.004893
multipli,0.034071
mutual,0.001991
mv,0.003547
n,0.120373
nabla,0.018333
nalpha,0.004583
natur,0.002015
necessari,0.001504
necessarili,0.003696
need,0.007944
neg,0.001637
neglig,0.005618
net,0.001984
new,0.009275
newton,0.042904
newtonian,0.035058
nk,0.003813
noether,0.015173
non,0.002720
nonautonom,0.004657
nonconserv,0.038542
nonconstraint,0.050204
nonholonom,0.015828
noninerti,0.004220
nonintegr,0.004657
noninteract,0.019758
nonlinear,0.002586
nonpotenti,0.005713
nonrelativist,0.007042
nonzero,0.009301
notat,0.005073
note,0.001088
notesedit,0.003878
notic,0.002142
nquad,0.005094
ntupl,0.005094
number,0.004722
numer,0.002797
nvmathbf,0.005391
object,0.002581
observ,0.001245
obtain,0.013206
obviou,0.004769
omit,0.002949
onebodi,0.005531
onedimension,0.009937
onli,0.020856
optic,0.006813
opticsedit,0.005713
optimis,0.003483
orbit,0.002394
order,0.009363
ordinari,0.010293
origin,0.007323
outgrowth,0.003465
outward,0.005813
overal,0.005183
overcompl,0.005178
overdot,0.005531
p,0.030263
page,0.001850
paramet,0.002176
partial,0.171926
particl,0.148137
particlesedit,0.005713
particular,0.004726
particularli,0.002647
path,0.022969
pend,0.022302
pendulum,0.032114
perform,0.002654
perpendicular,0.003145
phase,0.001815
phi,0.015452
photon,0.002758
physic,0.017294
pick,0.002457
pifrac,0.009678
planck,0.002866
plane,0.002273
plateau,0.003067
plu,0.008495
point,0.014236
polar,0.006938
posit,0.027970
possibl,0.013249
potenti,0.039243
pphi,0.005276
practic,0.002316
preced,0.002051
prescript,0.002852
presenc,0.001637
press,0.001274
prevent,0.001547
principl,0.028588
principleedit,0.016173
probabl,0.001553
problem,0.020839
problemedit,0.005713
procedur,0.003770
process,0.001023
produc,0.001126
product,0.001128
prone,0.002990
properti,0.005242
prototyp,0.002792
provid,0.002881
ps,0.003322
psfrac,0.004954
ptheta,0.005094
publish,0.001201
pvarphi,0.005391
pxfrac,0.005178
pz,0.004428
pzfrac,0.005178
q,0.208506
qdot,0.010357
qi,0.017841
qifrac,0.032346
qil,0.011426
qilright,0.005713
qisum,0.005713
qit,0.005713
qj,0.075306
qjdelta,0.028566
qjdot,0.011063
qjequiv,0.005713
qjfrac,0.082977
qjmathrm,0.022853
qjrightdelta,0.005713
qjrightfrac,0.005531
qjrightquad,0.005713
qjrightrightdelta,0.005713
qjrightttint,0.005713
qjsum,0.011426
qjt,0.011063
qk,0.005178
qmathbf,0.009396
qn,0.004304
qphi,0.005531
qs,0.004282
quad,0.025282
quantiti,0.021159
quantum,0.017467
quantummechan,0.003726
quark,0.003289
quickli,0.001762
quit,0.001829
r,0.260752
radial,0.013140
ratio,0.001952
ray,0.004690
rayleigh,0.003642
rdot,0.022127
reaction,0.001760
read,0.001192
readili,0.002349
readingedit,0.003856
real,0.002850
rearrang,0.002941
reason,0.001232
recal,0.002655
recogn,0.001472
reduc,0.003901
redund,0.003036
refer,0.004805
referencesedit,0.003381
reflect,0.001475
reformul,0.003107
regim,0.002000
region,0.001229
rel,0.014771
relat,0.007405
relativist,0.008504
remain,0.003406
remov,0.001585
replac,0.002798
reproduc,0.002329
requir,0.007565
respect,0.015667
respons,0.001190
rest,0.001608
restrict,0.003182
result,0.021996
retain,0.001805
return,0.002778
reveal,0.001805
revers,0.001890
revert,0.003004
rfrac,0.007929
right,0.001232
rightarrow,0.020098
rightleftel,0.005713
rightmel,0.005713
rightrightmgel,0.005713
rigid,0.002554
rk,0.065558
rkt,0.011426
rmrdot,0.005713
rn,0.003336
rod,0.002968
role,0.001202
rotat,0.004545
routhian,0.005276
rowan,0.003964
rrdot,0.010189
rsin,0.005276
rule,0.003759
s,0.021422
safest,0.003902
satisfi,0.002036
say,0.002974
scalar,0.009222
scale,0.007769
scienc,0.001154
sdot,0.005276
second,0.019155
seek,0.001540
select,0.001492
sens,0.001412
separ,0.008780
set,0.012762
shape,0.001636
shortest,0.006752
shorthand,0.007055
shown,0.003311
si,0.003004
sifrac,0.005713
similar,0.002281
similarityedit,0.005713
similarli,0.001810
simpl,0.003036
simpli,0.007795
simplic,0.002764
simplif,0.006283
simplifi,0.008901
sin,0.046193
sinc,0.015287
singl,0.002557
sint,0.003726
situat,0.001471
size,0.002975
slide,0.002982
small,0.001169
solut,0.004904
solv,0.026377
sometim,0.002487
sought,0.001861
space,0.019151
spacetim,0.005833
spatial,0.004467
special,0.007170
specif,0.003429
spheric,0.002790
split,0.003927
squad,0.003674
squar,0.002024
start,0.001209
state,0.003344
statement,0.001754
static,0.002444
stationari,0.011081
step,0.003240
straight,0.013250
straightforward,0.006050
subject,0.008508
substitut,0.004246
subsystem,0.013345
suffici,0.001766
suggest,0.001337
suit,0.002221
suitabl,0.002121
sum,0.036214
summand,0.014094
summar,0.004867
support,0.003408
supportedit,0.005391
suppos,0.002099
swing,0.003152
symbol,0.003469
symmetri,0.015959
t,0.242721
taken,0.004197
tdot,0.005020
tend,0.001569
tension,0.002170
tensor,0.006129
tequiv,0.005391
term,0.012640
test,0.003124
tfrac,0.067650
tgamma,0.004788
theorem,0.008567
theoremedit,0.005713
theoret,0.001566
theori,0.005599
theoryedit,0.004516
therefor,0.003896
theta,0.144548
thi,0.028587
think,0.006628
threebodi,0.004583
thu,0.004467
tie,0.001863
time,0.049034
timedepend,0.007366
timevari,0.010858
tint,0.003978
tleftfrac,0.013647
tleftmdot,0.005713
tleftsum,0.005391
tmathbf,0.004048
tmathrm,0.004401
tmrdot,0.005713
tmrsin,0.005713
togeth,0.002635
tong,0.004034
topic,0.001516
total,0.023997
tpartial,0.049024
tq,0.005094
tquad,0.009577
track,0.002114
trajectori,0.017101
transfer,0.001635
transform,0.010948
transformationsedit,0.005531
translat,0.003289
travel,0.001687
travers,0.006214
treat,0.005019
treatis,0.002305
treatment,0.001757
trightfrac,0.004839
trivial,0.002852
true,0.003094
tsum,0.009315
tt,0.003514
ttdelta,0.015828
ttleftfrac,0.005391
ttlmathbf,0.005531
ttlmathrm,0.005713
ttsum,0.017139
turn,0.002641
tv,0.002641
twobodi,0.009396
twodimension,0.003077
txkmathbf,0.005713
tykmathbf,0.005713
tzkmathbf,0.005713
ubiquit,0.003013
unconsci,0.002857
underbrac,0.004788
understand,0.002594
understood,0.001793
unfortun,0.002754
uniform,0.002215
uniqu,0.006516
uniquenessedit,0.005713
unit,0.001927
univers,0.000989
updat,0.002314
usag,0.002004
use,0.021080
user,0.002119
usual,0.002299
uvr,0.004549
v,0.086889
valid,0.001824
valpha,0.005020
valu,0.003673
valuabl,0.002243
vari,0.007042
variabl,0.015720
variat,0.019702
varieti,0.001434
varphi,0.023949
vector,0.041595
veloc,0.067841
velocitydepend,0.005276
veri,0.001091
verifi,0.002415
vertic,0.002471
view,0.002449
viewpoint,0.002515
virtual,0.024565
viscou,0.003650
vk,0.026256
vmathbf,0.008857
vmathrm,0.004401
vmgymathrm,0.005713
volum,0.003273
vpartial,0.029977
vr,0.020644
vz,0.004619
w,0.001603
wa,0.001566
wave,0.001926
way,0.008173
wide,0.002461
wiley,0.002338
wire,0.005521
work,0.003746
write,0.001493
written,0.004538
x,0.077823
xdirect,0.004698
xdot,0.014094
xell,0.032346
xfrac,0.014301
xi,0.026500
xk,0.008702
xkfrac,0.010552
xmathrm,0.008752
xmdot,0.011426
xmell,0.011426
xmmdot,0.005713
xquad,0.009483
xrightfrac,0.005020
xrightmddot,0.005713
xto,0.004456
y,0.030522
ydot,0.010782
year,0.000964
yield,0.001866
yk,0.009238
ykfrac,0.010782
ymathrm,0.014681
z,0.041961
zdot,0.005713
zero,0.022103
zfrac,0.004401
zk,0.009908
zkright,0.005713
zkrightquad,0.005713
zquad,0.005178
zveloc,0.005713
zvxyz,0.005713
