ablat,0.099693
angioplasti,0.056229
ani,0.011555
applic,0.015658
attach,0.024822
cancer,0.058239
cauter,0.063697
coher,0.029187
common,0.012804
consist,0.014174
cosmet,0.038940
cut,0.022483
dental,0.040457
dermatolog,0.093383
devic,0.023668
diagnosi,0.064265
diod,0.088533
dye,0.036273
electron,0.021336
endoven,0.062523
especi,0.014805
exampl,0.011419
excim,0.060610
fiber,0.033118
free,0.015573
frenectomi,0.065085
ga,0.022938
hair,0.032461
imag,0.020993
includ,0.028393
laser,0.882388
laserassist,0.063697
lasik,0.059807
level,0.013630
light,0.018791
liposuct,0.056720
lithotripsi,0.061506
low,0.017468
mammographi,0.057810
media,0.020905
medic,0.041977
medicin,0.086921
melanoma,0.051443
microscopi,0.035869
new,0.010180
ophthalmolog,0.046294
optic,0.027418
photocoagul,0.137949
photodynam,0.113441
photomedicin,0.062523
plastic,0.030641
practic,0.013982
principl,0.015688
procedur,0.045520
prostatectomi,0.065085
refer,0.008288
relat,0.011175
remov,0.038274
resurfac,0.043787
revis,0.024768
scalpel,0.053142
scar,0.043250
semiconductor,0.036170
skin,0.029256
soft,0.029451
softtissu,0.052831
specialti,0.032760
surgeri,0.130097
tattoo,0.046040
therapi,0.176287
tissu,0.055750
tomographi,0.040397
treat,0.020199
treatment,0.042440
type,0.013868
use,0.028277
util,0.020868
vapor,0.036035
wikimedia,0.032153
