acoust,0.020422
activ,0.003647
aircraft,0.008118
ambient,0.010622
amplifi,0.010036
antenna,0.010997
antinois,0.019229
art,0.005591
artifici,0.012345
artist,0.007671
audio,0.028779
aweight,0.017757
background,0.012555
barrier,0.014874
black,0.011896
block,0.006565
blue,0.007856
burst,0.009927
cancel,0.008361
carriertoreceiv,0.019229
channel,0.007286
circuit,0.008328
code,0.005712
color,0.007353
comfort,0.018755
control,0.011767
convert,0.006018
cosmic,0.009032
crackl,0.016471
current,0.003779
db,0.012368
dba,0.014204
dbrn,0.019229
dbx,0.017430
decibel,0.016286
densiti,0.007124
detect,0.006483
differ,0.003129
differenti,0.005978
dither,0.017147
dolbi,0.015547
drag,0.010221
dynam,0.005535
econom,0.003889
effect,0.006906
electron,0.005948
engin,0.005122
environ,0.004711
environment,0.017143
equival,0.011451
error,0.006759
extern,0.002779
f,0.010471
figur,0.005264
fix,0.005641
flicker,0.014815
floor,0.008646
gate,0.009201
gaussian,0.010538
gener,0.005462
generationrecombin,0.019229
harsh,0.009043
headphon,0.014565
health,0.005298
helicopt,0.010336
hiss,0.014488
hush,0.016116
imag,0.011705
impuls,0.009741
industri,0.004338
input,0.006886
intermodul,0.019229
internet,0.006235
itur,0.018144
janski,0.015000
japanois,0.019229
johnson,0.008685
johnsonnyquist,0.018144
kit,0.011829
level,0.015199
line,0.004547
link,0.002763
list,0.014133
low,0.004869
lownois,0.018144
machin,0.006135
measur,0.008323
mitig,0.009133
mode,0.007153
modul,0.008579
muffler,0.019229
music,0.027933
musician,0.011087
neuron,0.009284
noboom,0.020089
nois,0.987697
noisecancel,0.019229
noiseequival,0.019229
noisi,0.023658
partit,0.008801
pattern,0.005421
peak,0.006972
pepper,0.011278
perlin,0.017430
phase,0.006110
photon,0.009284
physic,0.008315
pink,0.011508
pollut,0.008547
pop,0.010897
power,0.014914
print,0.006842
proof,0.007428
pseudonoisepseudorandom,0.019229
puls,0.009709
quantiz,0.010801
quantum,0.007348
race,0.007158
radio,0.014918
random,0.006950
rang,0.004373
ratio,0.013142
receiv,0.004414
red,0.006404
reduct,0.046541
refer,0.002310
regul,0.010940
residu,0.008919
resist,0.005987
reson,0.008843
rf,0.012156
roadway,0.013481
rock,0.007236
salt,0.007916
shape,0.005507
shield,0.009061
shot,0.008986
signal,0.006648
signaltonois,0.029811
sound,0.006771
sourc,0.004045
statist,0.010552
stochast,0.008924
suppressor,0.013577
tape,0.010491
temperatur,0.019503
theori,0.003769
thermal,0.008246
thi,0.002405
topic,0.010205
train,0.005553
underwat,0.010368
video,0.007078
wall,0.006809
weight,0.012963
white,0.018317
