advanc,0.007602
align,0.013297
alway,0.016554
analog,0.021998
angl,0.013893
ani,0.010849
anoth,0.005920
area,0.018340
articl,0.007315
aspect,0.008090
associ,0.006013
attribut,0.009568
b,0.195678
behavior,0.008706
biint,0.032382
bmathbf,0.053752
boint,0.032382
boundari,0.051809
broken,0.012375
bsco,0.032382
calcul,0.018942
carl,0.012411
carri,0.016027
caus,0.006635
cdot,0.103695
cg,0.021123
chang,0.022417
charg,0.057558
circuit,0.028049
clerk,0.034257
close,0.053215
coil,0.038393
collabor,0.011419
comparison,0.010425
complementari,0.014504
complet,0.006866
complex,0.007275
compon,0.025686
conduct,0.008521
conduit,0.020107
consequ,0.008454
consid,0.011596
constant,0.039538
contain,0.007132
context,0.008746
contour,0.019540
contrast,0.008398
convers,0.010257
curl,0.021174
current,0.006365
d,0.080490
db,0.020829
dboldsymbol,0.056157
decid,0.009689
defin,0.020470
definit,0.007861
deform,0.016232
demonstr,0.017874
denot,0.024264
densiti,0.011998
deriv,0.007559
describ,0.018359
descript,0.009088
determin,0.006904
develop,0.004972
difficult,0.008671
direct,0.019807
displaystyl,0.136673
distinct,0.007657
dmathbf,0.091131
dphi,0.056911
drop,0.010912
ds,0.019348
dt,0.019606
e,0.096683
electr,0.138570
electromagnet,0.040260
electromot,0.077353
electron,0.010016
element,0.022839
elementari,0.013503
ell,0.043230
emf,0.051955
empir,0.008352
enclos,0.032517
eoint,0.030556
equal,0.008151
equat,0.069690
ernest,0.015401
evalu,0.010372
exampl,0.005361
experi,0.007361
extern,0.004680
faraday,0.018236
field,0.150352
firstli,0.017630
flow,0.009426
flux,0.503905
fluxmet,0.030556
forc,0.044910
frac,0.014324
free,0.014622
friedrich,0.013092
fruit,0.012684
function,0.006553
fundament,0.008196
gauss,0.019380
gausss,0.089887
gener,0.018398
given,0.006419
hole,0.014568
hypothet,0.014393
import,0.010918
indic,0.007874
induc,0.012674
infinitesim,0.050801
insid,0.010735
instead,0.007497
integr,0.030897
interact,0.015972
jame,0.018055
knowledg,0.008050
law,0.038680
led,0.006906
lee,0.014552
leftmathbf,0.025426
level,0.019197
limit,0.013070
line,0.061271
loop,0.044207
loos,0.013303
lorentz,0.036381
magnet,0.565263
magneticflux,0.032382
magnitud,0.013201
mathbf,0.071891
mathcal,0.039485
matter,0.008049
maxwel,0.111701
measur,0.021025
meter,0.014401
method,0.006627
minu,0.015815
mislead,0.016180
monopol,0.055860
motion,0.010797
need,0.006432
neg,0.018557
net,0.011248
new,0.004779
normal,0.025586
note,0.018507
number,0.026765
nwb,0.032382
observ,0.007062
onli,0.004925
open,0.036627
oper,0.006750
partial,0.019686
particl,0.011501
pass,0.083127
patent,0.028557
permitt,0.024398
perpendicular,0.017827
phi,0.087583
physic,0.028006
pictur,0.011978
point,0.012413
pole,0.014822
posit,0.012682
possibl,0.006258
potenti,0.007943
precis,0.010107
presenc,0.009278
principl,0.007365
professor,0.010966
project,0.007592
properli,0.012903
proport,0.010144
q,0.027483
qepsilon,0.029353
quantiti,0.009994
quantum,0.024751
quit,0.010369
relat,0.005246
relationship,0.007427
rightcdot,0.024034
s,0.143496
scriptstyl,0.043348
secondli,0.017112
set,0.006028
si,0.017030
sigma,0.016689
sign,0.017833
simplifi,0.012612
sinc,0.005415
smathbf,0.053259
sometim,0.007050
space,0.016699
specif,0.006479
state,0.004738
statement,0.009942
superconductor,0.021226
surfac,0.323607
t,0.009422
taken,0.007929
tape,0.035337
technic,0.009631
term,0.005117
tesla,0.020736
test,0.008853
theorem,0.012140
therefor,0.007361
theta,0.018620
thi,0.028355
time,0.009583
total,0.022669
track,0.011982
unit,0.027312
univers,0.005609
use,0.004425
usual,0.006517
v,0.019313
vari,0.007983
vector,0.078586
veloc,0.014241
vicci,0.032382
visual,0.022853
voltag,0.017668
voltsecond,0.031354
volum,0.009276
vtime,0.026398
way,0.005790
wb,0.021920
wbm,0.031354
weber,0.033117
width,0.018213
wilhelm,0.013633
wire,0.031292
wolfram,0.019848
word,0.007517
work,0.005309
zero,0.045557
