abov,0.004984
absent,0.004744
absolut,0.003301
absorb,0.007783
acad,0.014993
accommod,0.004520
accompani,0.003763
account,0.002292
accur,0.006633
act,0.004449
adam,0.003950
addit,0.021663
adx,0.009663
affect,0.002543
aharonovbohm,0.008879
airvacuum,0.010240
algebra,0.004180
algorithm,0.007805
allow,0.003871
altern,0.010005
amper,0.042783
ampr,0.042097
amsterdam,0.009903
analog,0.006956
analysi,0.004693
analyt,0.003549
angular,0.010500
ani,0.018872
anisotrop,0.006994
anoth,0.001872
antisymmetr,0.014462
anywher,0.004764
apart,0.003567
appear,0.002254
appli,0.006243
applic,0.004649
appropri,0.003120
approxim,0.023876
arbitrari,0.033629
arbitrarili,0.010751
archiv,0.003582
area,0.005800
articl,0.009254
artifici,0.003287
aspect,0.007675
assembl,0.006077
assum,0.002696
asymptot,0.005704
atom,0.023827
austin,0.005600
automat,0.003974
auxiliari,0.016480
averag,0.005815
away,0.002965
b,0.136659
ball,0.004807
bar,0.004400
base,0.005088
becaus,0.008834
becom,0.007516
befor,0.002004
begin,0.004577
beginalignedfrac,0.008041
beginalignedmathbf,0.008421
beginalignednabla,0.009663
beginalignedqqtextfqtextbiiint,0.010240
beginalignedrho,0.017544
behav,0.008350
behavior,0.002753
behaviour,0.003619
best,0.002587
bfield,0.008879
blaze,0.007496
bold,0.005767
boldsymbol,0.007179
book,0.002230
bookkeep,0.006434
bound,0.077269
boundari,0.045877
box,0.004400
bracket,0.005600
break,0.006471
bring,0.002918
built,0.002926
bulk,0.008322
c,0.024710
calcul,0.017972
calculu,0.013162
camera,0.005081
carnegi,0.011354
case,0.011793
catt,0.009283
caus,0.002098
caviti,0.005683
cdot,0.076518
center,0.005014
centimetregramsecond,0.009915
central,0.002203
centuri,0.002018
certain,0.002151
cfrac,0.027197
cg,0.026721
chang,0.019496
character,0.002981
charg,0.206300
chargecarri,0.009663
chosen,0.010777
circuit,0.004435
circul,0.028794
classic,0.018182
clerk,0.016251
close,0.027347
cmathrm,0.009132
cohomolog,0.022202
collect,0.004586
colleg,0.003412
combin,0.002241
come,0.002248
common,0.005703
commonli,0.005222
commun,0.002055
compat,0.004510
compil,0.004056
complement,0.004636
complet,0.004343
complic,0.014253
compon,0.016246
compt,0.007638
comput,0.007816
conceptu,0.003784
conclud,0.006431
condit,0.026400
configur,0.004343
conflict,0.002928
conform,0.008679
connect,0.005177
consequ,0.013368
conserv,0.009363
consid,0.003667
consist,0.002104
constant,0.018756
constitu,0.011046
constitut,0.019861
contain,0.002255
context,0.002766
contribut,0.002307
conveni,0.012594
convent,0.027403
coordin,0.009999
correct,0.003166
correspondingli,0.005937
cost,0.002764
count,0.003586
coupl,0.007277
covari,0.023097
creat,0.013463
crowel,0.007757
cryptographi,0.005849
crystal,0.004411
ctxyz,0.009915
curl,0.060268
current,0.092598
curv,0.015474
cycl,0.003223
d,0.157821
dalembert,0.013393
dalembertlaplacebeltrami,0.010240
davidson,0.006148
ddtiiint,0.010240
ddtiint,0.010240
ddtqomega,0.010240
decemb,0.002885
defin,0.021579
definit,0.012431
demonstr,0.002826
denot,0.023020
densiti,0.041739
depend,0.020747
deriv,0.016735
describ,0.036772
descript,0.017245
despit,0.005332
detector,0.005593
determin,0.010918
develop,0.004717
deviat,0.004462
diag,0.009132
did,0.002334
dielectr,0.013528
differ,0.015002
differenti,0.063677
difficult,0.005484
dimens,0.010853
dimension,0.004864
dipol,0.025436
direct,0.008351
directli,0.002526
discuss,0.005131
disk,0.005401
dispers,0.008631
displac,0.016138
displaystyl,0.122464
distanc,0.013393
distribut,0.005188
divcurlident,0.010240
diverg,0.029748
divers,0.003024
divid,0.002493
dmathbf,0.007205
doe,0.006382
drop,0.003451
ds,0.006119
duanehunt,0.010240
dummi,0.006873
dv,0.007083
dx,0.006648
dynam,0.014739
dynamiqu,0.008096
e,0.101920
earli,0.001893
easier,0.004053
ecg,0.008041
ed,0.002650
effect,0.003678
einstein,0.004564
electr,0.212854
electrodynam,0.011367
electromagnet,0.135811
electron,0.006335
element,0.009630
elimin,0.003273
ell,0.006835
em,0.006024
eman,0.005569
empti,0.009026
enclos,0.015425
encompass,0.003544
encyclopedia,0.003260
end,0.004139
endalign,0.013296
energi,0.002650
entangl,0.011652
enter,0.005535
entir,0.002455
epsilon,0.012599
equal,0.015468
equat,0.387267
equival,0.015246
esi,0.008583
et,0.006508
euclidean,0.005292
eulerheisenberg,0.010240
everi,0.004737
everincreas,0.006396
exact,0.014445
exactli,0.007417
exampl,0.013563
excel,0.004095
exhibit,0.003573
exist,0.003764
exit,0.004965
experi,0.004655
experiment,0.003162
explain,0.007645
explan,0.006664
explicit,0.004133
explicitli,0.003853
express,0.002452
extend,0.002497
extens,0.002556
exterior,0.005593
extern,0.002960
extra,0.004335
extraordinarili,0.006408
extrem,0.008146
f,0.030673
fact,0.012018
factor,0.009601
familiar,0.004005
far,0.002566
faraday,0.069205
fdx,0.009915
featur,0.002560
feynman,0.005557
field,0.217071
figur,0.002803
final,0.002448
fine,0.004047
finit,0.011745
finitediffer,0.008499
fitzpatrick,0.007083
fix,0.015023
flat,0.004329
flow,0.005962
fluctuat,0.004227
fluid,0.015961
flux,0.029880
follow,0.008096
foot,0.008796
forc,0.012173
form,0.040230
formal,0.005066
format,0.002760
formul,0.126427
foundat,0.002639
fourpotenti,0.008421
frac,0.058890
frame,0.003868
free,0.030059
freeli,0.004402
frequenc,0.003868
fuller,0.005929
fullerton,0.007844
fulli,0.003051
fundament,0.002592
g,0.002738
galileo,0.004983
gaug,0.005005
gauss,0.030644
gaussian,0.028063
gausss,0.092387
gener,0.024728
geometr,0.004162
given,0.010151
googl,0.004867
gradient,0.004816
granular,0.014076
gravit,0.004527
gross,0.003957
group,0.003652
h,0.036556
ha,0.010798
hand,0.002508
handsid,0.010240
hazewinkel,0.006119
heavisid,0.007060
help,0.002216
henc,0.009475
hendrik,0.012297
henri,0.009788
hi,0.001815
hidden,0.004457
high,0.004099
higher,0.002406
histor,0.006821
histori,0.003372
hodg,0.012531
homogen,0.013678
howev,0.013143
hypothet,0.004551
hysteresi,0.007676
ib,0.006602
ident,0.002898
identifi,0.002447
ignor,0.007022
iiint,0.048317
iint,0.041400
immeasur,0.007341
imperfect,0.004983
impli,0.006294
import,0.003452
imposs,0.010268
inaccur,0.005487
incid,0.004005
includ,0.015457
inde,0.006883
indic,0.014941
individu,0.008351
induc,0.016033
induct,0.004482
inerti,0.005849
infin,0.010584
infinit,0.003963
inhomogen,0.013493
initi,0.008797
insepar,0.006033
inspir,0.003349
instead,0.002371
integr,0.056185
integrand,0.015202
interatom,0.007370
interchang,0.009266
interpret,0.002700
intrins,0.004286
introduc,0.011872
intuit,0.004331
invari,0.031331
involv,0.009812
iron,0.003625
isbn,0.002393
isol,0.006573
isomorph,0.005864
isotrop,0.006892
ital,0.006254
iv,0.004393
j,0.076265
jame,0.005709
jb,0.012160
jc,0.013002
jcdot,0.008421
jefimenko,0.018566
jf,0.007341
joseph,0.003335
juliu,0.005150
just,0.007081
kelvinstok,0.028990
key,0.002575
kind,0.002696
known,0.005073
la,0.010135
lab,0.004422
laboratori,0.003434
lacadmi,0.008215
lagrangian,0.006159
larg,0.003567
largescal,0.003943
larmor,0.007530
laser,0.005038
law,0.083590
layer,0.007791
le,0.004031
lead,0.006057
leav,0.002866
lectur,0.011039
lefthand,0.013058
leftmathbf,0.008041
leftnabla,0.008879
leftrho,0.009457
level,0.002023
lewin,0.006892
lhypoths,0.010240
light,0.041851
like,0.012653
likewis,0.008016
limit,0.006200
linardwiechert,0.008673
line,0.041176
linear,0.021605
link,0.004414
list,0.001881
littl,0.002590
llectron,0.009915
local,0.004584
locat,0.009953
london,0.002849
long,0.002197
longer,0.005582
loop,0.032621
lorentz,0.046022
lorentzheavisid,0.010240
lorentzian,0.023271
lorenz,0.012049
lower,0.005001
luminifer,0.006873
m,0.026622
macroscop,0.082417
magnet,0.266160
magnetis,0.026639
main,0.004284
mainli,0.002809
major,0.003590
make,0.010325
mani,0.007647
manifest,0.011678
manifold,0.005301
march,0.002806
mass,0.002775
match,0.003598
materi,0.075884
mathbf,0.346717
mathemat,0.015961
mathematician,0.004142
mathrm,0.118714
matrix,0.004247
matter,0.010182
maxwel,0.383535
maxwellfaraday,0.009457
maxwelllorentz,0.009915
maxwellsequationscom,0.010240
mean,0.009318
measur,0.002216
mechan,0.009996
medium,0.007715
mellon,0.012443
memori,0.007040
method,0.008383
metric,0.018178
michiel,0.005998
microscop,0.065529
midth,0.004175
mileston,0.010865
minkowski,0.025199
minut,0.004039
mit,0.004111
model,0.002107
modern,0.002029
modifi,0.016509
molecul,0.010961
moment,0.007699
momentum,0.008897
monopol,0.029443
moreov,0.003882
motor,0.004364
movement,0.004666
mp,0.004990
mu,0.037557
mutual,0.003569
nabla,0.046007
natur,0.005419
nearbi,0.004164
necessari,0.005393
necessarili,0.006625
need,0.004068
neg,0.011737
nerlandais,0.009915
net,0.007114
new,0.001511
non,0.004877
nonclass,0.013174
nonlinear,0.009272
nonrelativist,0.006311
nonuniform,0.006799
normal,0.002697
notabl,0.002596
notat,0.004547
note,0.007804
notic,0.003840
nuclei,0.004867
number,0.003385
numer,0.007521
object,0.002313
observ,0.006700
obtain,0.010520
obviou,0.004274
occur,0.002149
ohm,0.006835
oint,0.017347
oliv,0.004798
omega,0.072092
onli,0.010903
oper,0.017078
opposit,0.002784
optic,0.028496
order,0.003729
orient,0.003526
origin,0.011252
otherwis,0.003218
outsid,0.005162
overdetermin,0.014741
p,0.041331
paper,0.011168
paramet,0.003901
partial,0.080934
particl,0.010912
particular,0.002118
particularli,0.002373
pass,0.005257
pde,0.006764
pdf,0.003916
perfect,0.003780
perhap,0.003145
period,0.002010
permeabl,0.024802
permitt,0.046296
perpendicular,0.005638
perpetu,0.004584
phase,0.006508
phenomena,0.022616
phenomenolog,0.010234
phenomenon,0.006970
phil,0.006179
philosoph,0.002970
photoelectr,0.006277
photon,0.024723
photonphoton,0.010240
physic,0.024357
physicist,0.004005
physnet,0.008673
pictur,0.003788
planck,0.010275
plane,0.004075
play,0.002443
poincar,0.016837
point,0.003925
pointlik,0.007638
polar,0.024873
polaris,0.018764
popular,0.004842
posit,0.010027
posner,0.013747
possibl,0.009895
potenti,0.020098
power,0.003971
practic,0.002076
precis,0.009589
predecessor,0.004231
predict,0.017035
prefer,0.005942
present,0.005820
pressur,0.002920
princip,0.003031
principl,0.004658
problem,0.002075
proc,0.013528
produc,0.008076
professor,0.003468
project,0.002401
propag,0.012970
properti,0.002349
proport,0.006416
propos,0.002394
proven,0.004098
pseudovector,0.008348
public,0.001954
publish,0.002153
puls,0.005171
pure,0.003068
q,0.030421
qb,0.008879
qf,0.009457
qiiint,0.010240
quad,0.025896
quantiti,0.022124
quantum,0.043051
quaternion,0.006873
r,0.046739
raction,0.009663
radiat,0.011658
radio,0.011917
rais,0.005724
rank,0.003276
rare,0.003193
rate,0.002404
ray,0.004203
read,0.002137
real,0.005108
realworld,0.005113
rearrang,0.010546
reason,0.002208
recognis,0.003799
reduc,0.004662
redund,0.005443
refer,0.002461
region,0.011018
rel,0.022065
relat,0.031526
relationship,0.004698
relativist,0.030487
remark,0.003774
remov,0.002841
renam,0.004272
rendu,0.008041
repres,0.010093
represent,0.003104
reproduc,0.004175
requir,0.003874
research,0.001996
resembl,0.003882
reson,0.004709
respect,0.009361
respond,0.006638
respons,0.004269
rest,0.005766
restrict,0.002852
result,0.003428
retard,0.006033
rewrit,0.017279
rham,0.008280
rho,0.035049
ricci,0.006817
right,0.002208
righthand,0.006335
rm,0.005849
role,0.002155
rotat,0.004074
roy,0.005046
royal,0.006494
s,0.043635
satisfi,0.007301
scalar,0.011021
scale,0.019498
scarc,0.004712
scatter,0.004544
scienc,0.008279
scope,0.003617
scriptstyl,0.034272
search,0.003149
second,0.006059
section,0.003049
selfsustain,0.006617
separ,0.011241
seri,0.007354
set,0.005719
short,0.002623
shown,0.002967
si,0.043086
sigma,0.052780
sign,0.002819
similar,0.004090
similarli,0.009734
simpl,0.005442
simpli,0.008384
simplifi,0.011966
sinc,0.010275
singlephoton,0.008215
sinusoid,0.007431
siparti,0.010240
situat,0.013185
slightli,0.003712
small,0.010479
soc,0.006835
socal,0.003455
societi,0.004291
solenoid,0.008041
solut,0.032233
solv,0.018912
sometim,0.006688
somewhat,0.003630
somewher,0.005245
sourc,0.010771
space,0.066015
spacetim,0.052277
special,0.012852
specif,0.002049
specifi,0.013929
speed,0.024517
split,0.010560
springer,0.004145
sqrt,0.011055
squar,0.003628
standard,0.004613
star,0.030386
start,0.002168
state,0.004495
statement,0.006288
static,0.021906
stood,0.004607
stratton,0.008421
strong,0.002488
structur,0.004002
subject,0.002178
substitut,0.003805
success,0.002271
suffici,0.006332
suggest,0.002397
suitabl,0.003802
sum,0.003416
summari,0.004121
superpos,0.008421
supersed,0.004948
sur,0.005499
surfac,0.074429
symbol,0.015547
symmetr,0.014631
symmetri,0.009535
t,0.050659
taught,0.003818
tcdot,0.008096
technic,0.006092
technolog,0.002469
televis,0.003860
temperatur,0.003462
tendalign,0.025498
tensor,0.060428
term,0.014565
test,0.002799
texa,0.004835
textbmathbf,0.010240
textbnabla,0.020481
textbook,0.003860
textbrho,0.010240
textbrightcdot,0.010240
textbrightmathrm,0.010240
textfendalign,0.010240
textfmathbf,0.020481
textfrho,0.010240
textfsigma,0.010240
textmtext,0.010240
textr,0.010240
textrvarepsilon,0.010240
tfrac,0.005774
themselv,0.005081
theorem,0.023036
theoret,0.002808
theori,0.022083
therebi,0.003545
therefor,0.009311
thi,0.038432
thori,0.006696
thorough,0.005137
thought,0.002427
threedimension,0.004704
time,0.034854
timedomain,0.008215
timeindepend,0.014927
tini,0.013861
tmathbf,0.021773
tnabla,0.032862
togeth,0.007085
topolog,0.009425
total,0.045404
tran,0.005254
transact,0.003687
travel,0.006048
treat,0.005998
treatis,0.016527
treatment,0.003150
tri,0.002695
trightcdot,0.010240
trivial,0.015339
true,0.002773
turn,0.004735
tutori,0.005677
tvarepsilon,0.009283
underpin,0.004994
understand,0.002324
understood,0.006428
unifi,0.003585
uniform,0.003971
unimport,0.006460
uniqu,0.002920
unit,0.036277
univers,0.012417
unknown,0.007092
unless,0.003838
unlik,0.002852
unwieldi,0.007312
use,0.050381
usual,0.010305
v,0.042754
vacuum,0.040221
valu,0.002195
vanish,0.010047
varepsilon,0.027418
vari,0.012624
variabl,0.006261
variant,0.020745
variat,0.006421
varieti,0.002571
variou,0.005849
vector,0.057990
veloc,0.027023
veri,0.003911
versa,0.004860
version,0.023967
vice,0.003965
video,0.003769
viewpoint,0.004508
viiint,0.010240
viitextfitextbiint,0.010240
violat,0.011368
virtual,0.003387
vm,0.007530
volum,0.044007
vortic,0.007038
vtextpfrac,0.010240
wa,0.011234
wall,0.003626
walter,0.004085
walton,0.006854
wave,0.055264
waveguid,0.008583
way,0.010987
wiki,0.005724
wire,0.004948
wireless,0.011102
word,0.002377
world,0.005209
write,0.005355
x,0.024260
xray,0.004671
yield,0.003345
zero,0.014407
