abov,0.007027
academ,0.016443
academi,0.031723
accret,0.018882
activ,0.005477
actividad,0.054498
ad,0.014010
addit,0.005553
administr,0.015350
advent,0.012004
aeroespaci,0.028877
aeronaut,0.051847
aeronomi,0.023747
aeronutica,0.028877
aerospac,0.141964
affair,0.009076
africa,0.017828
african,0.009621
agenc,0.215885
agencia,0.086632
air,0.008432
algerian,0.019024
america,0.023078
american,0.006219
andromeda,0.020542
antrix,0.028877
apparatu,0.013661
applic,0.006555
appreci,0.012180
archaeoastronomi,0.021757
argo,0.021138
armi,0.009441
articl,0.006523
asia,0.056550
asiapacif,0.017172
asteroid,0.015862
astrobiolog,0.018574
astrochemistri,0.019328
astrometri,0.021234
astronaut,0.033439
astronom,0.111241
astronomi,0.456008
astrophotographi,0.023747
astrophys,0.187648
atmospher,0.053767
austrian,0.013148
author,0.006180
aviat,0.014440
azerbaijan,0.016839
background,0.018855
basic,0.013317
beauti,0.012576
behavior,0.007764
belaru,0.016938
belgian,0.015411
belt,0.014429
biolog,0.007850
black,0.017865
board,0.009548
bodi,0.019925
boi,0.019664
bolivariana,0.026176
book,0.012581
bound,0.009903
branch,0.028155
brazilian,0.030520
bright,0.014475
bulgarian,0.016938
burst,0.014909
canadian,0.011252
categori,0.008458
celesti,0.056211
celestia,0.025039
center,0.042422
centr,0.036460
central,0.006214
centuri,0.005692
chang,0.009995
chemic,0.008441
chemistri,0.019432
chilena,0.026668
china,0.051102
cientfica,0.024735
cloud,0.012680
cluster,0.012163
cne,0.023348
colombian,0.018703
comet,0.031409
comisin,0.022993
command,0.037206
commiss,0.044132
committe,0.047559
commonwealth,0.011452
commun,0.011594
compact,0.013080
compani,0.007000
compon,0.007635
composit,0.027574
comput,0.022040
concern,0.012449
consid,0.005170
constel,0.116876
consult,0.010238
context,0.015599
cooper,0.016948
coordin,0.009399
core,0.018831
corpor,0.026097
cosmic,0.067821
cosmolog,0.051851
curios,0.015844
current,0.005676
curricula,0.016582
czech,0.014208
danish,0.014022
data,0.021228
day,0.006690
deal,0.014285
defens,0.029195
defin,0.006084
degre,0.007261
del,0.013386
dens,0.012621
densiti,0.010699
depart,0.023322
describ,0.005457
detector,0.015773
develop,0.022171
differ,0.004700
diffus,0.012113
disciplin,0.016340
divid,0.007030
dust,0.014475
dwarf,0.016103
dynam,0.008312
earth,0.016761
east,0.008207
educ,0.006800
effect,0.010371
egypt,0.011273
electromagnet,0.011967
elib,0.028877
elibrari,0.027249
elucid,0.014856
embodi,0.012342
empir,0.007448
energi,0.014945
engin,0.007692
environ,0.007076
esa,0.017668
espaci,0.028877
espacial,0.057755
espacio,0.027249
especi,0.006198
eumetsat,0.028877
europ,0.007238
european,0.019946
event,0.006946
evolut,0.052002
examin,0.008354
exoplanet,0.021046
exoplanetolog,0.024735
experi,0.006564
expertis,0.013021
explor,0.024400
extern,0.004174
extinct,0.012135
extragalact,0.020039
extrasolar,0.039692
fat,0.014617
feder,0.008499
feng,0.019973
field,0.017488
filter,0.013305
flyer,0.021873
follow,0.009132
forb,0.015443
forc,0.011442
format,0.046712
forum,0.011723
free,0.006520
freeview,0.020390
g,0.007722
galact,0.033876
galaxi,0.156296
galilean,0.017668
gammaray,0.039947
gener,0.016406
geolog,0.021817
geophys,0.014936
german,0.008061
govern,0.005428
gravit,0.051068
graviton,0.021645
guid,0.016141
halley,0.017396
harri,0.012004
hemispher,0.012999
high,0.011559
histor,0.006412
histori,0.019017
hobbi,0.017897
hole,0.025983
home,0.008150
howto,0.025039
hubbl,0.018035
hubblesiteorg,0.026668
hungarian,0.014716
identifi,0.006900
includ,0.047549
indian,0.009448
industri,0.019545
inform,0.005674
infrar,0.014741
institut,0.084563
instituto,0.059921
interact,0.014243
intercosmo,0.028877
intergalact,0.020390
interior,0.022403
intern,0.020008
intersputnik,0.028877
interstellar,0.066239
investigacion,0.022830
iran,0.012948
iranian,0.014395
ireland,0.011930
israel,0.011689
italian,0.010710
iya,0.025751
japan,0.028318
journal,0.014683
journey,0.026530
june,0.008316
kazakh,0.020106
kazcosmo,0.028877
kinemat,0.015898
korea,0.011520
korean,0.013249
kroto,0.020869
kuiper,0.020465
laboratori,0.009685
languag,0.007173
lanka,0.015230
largest,0.007882
latest,0.012746
launch,0.009611
lectur,0.020752
lens,0.016242
life,0.018403
link,0.004149
list,0.015918
luminos,0.019548
luxinnov,0.028877
m,0.020474
magazin,0.011047
magellan,0.018332
magnet,0.011201
magnetospher,0.019548
main,0.012082
mainli,0.007921
malaysian,0.017254
matter,0.007177
medium,0.032635
meteorolog,0.013992
method,0.011819
mexicana,0.022249
microwav,0.015670
ministri,0.010260
missil,0.014869
mm,0.013962
model,0.005943
modern,0.005723
moon,0.062132
motherlod,0.025751
motion,0.009628
multipl,0.007339
nacion,0.031724
nasa,0.028813
nation,0.126898
natur,0.015282
navi,0.011420
nebula,0.016673
net,0.010030
netherland,0.011119
neutrino,0.035400
neutron,0.015045
news,0.020830
nl,0.019436
nm,0.061962
north,0.015152
norwegian,0.014830
nuclei,0.013725
object,0.104367
observ,0.018893
obsolet,0.014883
occur,0.006062
oceania,0.014581
offic,0.046083
optic,0.011479
organ,0.031228
organis,0.018068
origin,0.010576
outer,0.036574
outlin,0.018575
outsid,0.029117
overview,0.009561
panarab,0.022249
para,0.017830
parttim,0.016791
pass,0.007412
peac,0.009202
person,0.006243
pewdiepi,0.028877
phenomena,0.036442
philippin,0.013688
photometri,0.027249
physic,0.043706
pictur,0.010682
planet,0.151569
planetari,0.123116
plasma,0.041947
portugues,0.012146
posit,0.011310
practic,0.005854
preced,0.010366
product,0.005702
prof,0.016719
program,0.013766
project,0.006770
properti,0.026499
provid,0.009709
ptolemi,0.029766
public,0.011021
publish,0.006073
punk,0.020317
pursuit,0.012336
quasar,0.040634
radiat,0.021916
radio,0.011201
ray,0.023706
recogn,0.007440
reconnaiss,0.017199
record,0.007314
refer,0.003470
rel,0.012444
relativist,0.014328
remaind,0.012877
remot,0.082238
research,0.090075
resourc,0.007025
review,0.007775
ring,0.023506
romanian,0.016791
royal,0.009156
rule,0.006334
russian,0.030479
satellit,0.036323
satisfact,0.014372
scale,0.007854
scienc,0.081710
scientif,0.027932
search,0.008882
sector,0.009097
seek,0.007786
sens,0.049983
sequenc,0.009633
seri,0.006913
servic,0.006761
set,0.005375
shock,0.011863
sir,0.010901
site,0.008135
size,0.007521
sky,0.027468
small,0.011819
smallest,0.012569
smithsoniannasa,0.025751
societi,0.006050
solar,0.138242
south,0.022689
southeast,0.011823
southern,0.008963
southwest,0.013555
soviet,0.020921
space,0.551006
spacerel,0.023541
span,0.011156
special,0.018120
specif,0.005778
spectra,0.015739
spectroscopi,0.014440
sri,0.014052
stabil,0.009006
standard,0.006504
star,0.064262
state,0.016903
stellar,0.048605
strateg,0.010540
structur,0.005642
studi,0.081663
subdisciplin,0.039491
submillimetr,0.025375
subsaharan,0.015129
sun,0.021428
superearth,0.024458
supernova,0.033977
surfac,0.017489
swedish,0.013171
swiss,0.013780
tbtak,0.027249
tcnica,0.023967
techniqu,0.007421
technolog,0.076595
tecnolgico,0.023747
telecommun,0.012589
telescop,0.044531
temperatur,0.009763
terrestri,0.013148
text,0.008331
th,0.011075
thai,0.017310
theoret,0.015837
thi,0.003612
today,0.006938
tool,0.007733
topic,0.007662
total,0.006738
transform,0.007905
trust,0.010557
turkmenistan,0.018492
typic,0.006479
uk,0.008852
ukrain,0.014429
ultraviolet,0.015086
union,0.007176
unit,0.024356
univers,0.025010
unman,0.018492
upper,0.009752
use,0.023677
uzay,0.028877
uzbekcosmo,0.028877
variabl,0.017657
variou,0.005498
vega,0.015971
vehicl,0.010965
venezolano,0.026176
veri,0.005515
vietnam,0.013087
watch,0.012312
wave,0.019479
weather,0.011843
websit,0.009132
white,0.009169
wide,0.006220
world,0.009792
xray,0.013171
year,0.004874
