abil,0.003256
abov,0.018182
absolut,0.044165
acceler,0.009105
accord,0.004734
accordingli,0.005327
account,0.002787
act,0.035170
actual,0.003029
ad,0.003020
add,0.004513
air,0.014545
allow,0.002353
alway,0.003183
ambient,0.013758
analog,0.008459
angl,0.016028
ani,0.022948
anoth,0.011383
anyth,0.004678
anywher,0.005794
appar,0.004040
appear,0.002741
append,0.016669
appli,0.017713
applic,0.005653
approach,0.002724
approxim,0.012903
arbitrari,0.010223
area,0.025861
artesian,0.010942
ascent,0.007552
associ,0.002312
assumpt,0.004032
atim,0.010942
atm,0.038887
atmospher,0.106655
atom,0.004139
attach,0.004481
attract,0.007617
attribut,0.003679
automobil,0.005930
avail,0.002893
averag,0.010607
avoid,0.010607
ba,0.006298
balanc,0.003746
ball,0.005845
bar,0.021403
barg,0.008858
bary,0.024905
base,0.002062
beach,0.006183
becaus,0.019337
becom,0.004569
befor,0.002437
beneath,0.012338
bernoulli,0.021064
blais,0.007348
block,0.004251
blood,0.009296
boat,0.005689
bodi,0.005728
boil,0.012768
bond,0.004076
boundari,0.015938
boyl,0.007093
brake,0.008046
bubbl,0.011966
bucket,0.031360
bulk,0.005059
buoyanc,0.008334
c,0.005463
calcul,0.003642
cancel,0.005414
casimir,0.008641
caus,0.002551
cell,0.004111
centimetr,0.089571
cg,0.008123
chamber,0.005072
chang,0.015086
channel,0.004718
charact,0.003950
chemic,0.003640
choic,0.003756
chosen,0.004368
close,0.020464
cm,0.006012
cobra,0.009199
cohes,0.006202
collid,0.006475
column,0.054315
come,0.002734
common,0.006935
commonli,0.003175
comparison,0.004009
complex,0.002797
compon,0.019755
compress,0.005902
comput,0.006336
concentr,0.003741
concept,0.002668
conclud,0.003910
condens,0.011064
condit,0.016051
conduit,0.007732
confin,0.005133
conform,0.010554
confus,0.012910
conjug,0.006561
connect,0.009443
consequ,0.003251
consid,0.004459
const,0.021094
constant,0.038011
constantdens,0.012452
contact,0.008024
contain,0.021943
continu,0.002316
contribut,0.002806
convers,0.007889
convert,0.003897
correspondingli,0.014440
cosmolog,0.005589
creat,0.004677
cubic,0.006599
cup,0.006417
current,0.002447
curv,0.004704
customari,0.012746
cut,0.020296
d,0.018571
da,0.005089
dam,0.019357
damag,0.004126
daniel,0.004755
dbar,0.011500
deal,0.006160
decibar,0.037358
decompress,0.027111
decreas,0.003765
deep,0.012769
deeper,0.022854
defin,0.015743
definit,0.006046
deflagr,0.023000
demonstr,0.003436
denot,0.004665
dens,0.010885
denser,0.007717
densiti,0.078438
densityacceler,0.012452
densitytim,0.012452
depend,0.032796
depth,0.120485
der,0.005003
deriv,0.002907
describ,0.004706
detect,0.008397
determin,0.005310
differ,0.006080
differenti,0.003871
direct,0.033006
discov,0.003367
discoveri,0.003581
discuss,0.003119
displac,0.004905
displaystyl,0.122635
distanc,0.012214
distinct,0.002944
distribut,0.012619
dive,0.034639
diver,0.008065
divid,0.003031
dmathbf,0.008761
doe,0.018109
doesnt,0.005716
downward,0.012272
dunk,0.022576
dustair,0.012452
dynam,0.010754
dyncm,0.012452
dyne,0.010068
e,0.018589
ear,0.006108
eardrum,0.010068
earth,0.003613
easili,0.007887
edg,0.005022
effect,0.004472
electromagnet,0.005160
element,0.014638
elev,0.005135
els,0.004740
enclos,0.006252
encount,0.009067
energi,0.041893
equal,0.034483
equat,0.038285
equationofst,0.012057
equilibrium,0.004810
equival,0.007415
erron,0.006593
establish,0.002456
evapor,0.006446
everi,0.008641
everpres,0.009777
everyday,0.004917
exampl,0.020616
exceed,0.004834
exert,0.042255
exhibit,0.004345
exit,0.006038
experiment,0.007690
explain,0.006197
explicitli,0.004686
explos,0.015308
exposur,0.015347
express,0.032807
expressli,0.007282
extern,0.001799
extrem,0.003302
f,0.033907
fa,0.007293
fact,0.005845
factor,0.005837
fall,0.003142
farthest,0.008405
feel,0.008606
feet,0.005621
felt,0.009718
field,0.012569
finger,0.013373
fish,0.021474
fl,0.006995
flat,0.010529
flow,0.010875
fluid,0.184382
fluidic,0.010547
focus,0.003204
follow,0.007876
foot,0.016044
forbidden,0.006086
forc,0.098688
form,0.005644
format,0.003357
formerli,0.004610
formula,0.012895
frac,0.049576
free,0.002811
freeli,0.005353
friction,0.006064
fruit,0.014633
fsigma,0.011288
fsw,0.067728
ft,0.026899
ftime,0.010666
fundament,0.003152
g,0.033299
ga,0.066261
gage,0.008531
gap,0.004791
gase,0.027440
gaseou,0.006919
gaug,0.091297
gcm,0.008761
gener,0.005306
gh,0.033719
given,0.024688
gradient,0.005856
gram,0.006879
gramforc,0.024905
gramsforc,0.012452
graph,0.005476
gravit,0.027527
graviti,0.032199
great,0.005548
greater,0.031003
h,0.027354
ha,0.013130
half,0.006776
hardli,0.006580
head,0.028599
hecto,0.011750
hectopasc,0.012452
height,0.024539
held,0.002910
helium,0.006586
hg,0.007592
high,0.002492
higher,0.014631
hisher,0.021226
hole,0.033614
howev,0.009988
hpa,0.009845
hydraul,0.013758
hydrogen,0.005098
hydrostat,0.023716
ideal,0.028036
identifi,0.002975
ignit,0.007170
imperi,0.009590
import,0.006298
impress,0.005024
inch,0.066326
includ,0.003417
incompress,0.026998
incorrect,0.005860
increas,0.021303
increment,0.006217
individu,0.005077
inform,0.002447
initi,0.002674
inlet,0.008700
inner,0.004948
insid,0.012385
instanc,0.006667
instead,0.002883
institut,0.002604
integr,0.002970
interact,0.006142
interestingli,0.007974
intermolecular,0.016020
introduct,0.003263
invers,0.005197
investig,0.003449
inviscid,0.009915
isnt,0.006679
isotherm,0.008289
iupac,0.007021
j,0.006182
jm,0.007688
joul,0.007605
k,0.007463
kgcm,0.011750
kgfcm,0.011288
kgm,0.009115
kiel,0.009287
kilogram,0.006952
kilogramforc,0.035251
kilogramsforc,0.012452
kilopasc,0.011750
kilopond,0.011750
kinemat,0.034278
kip,0.008585
knife,0.007956
known,0.002056
kpa,0.153098
kpaa,0.012452
kpag,0.012452
l,0.010868
label,0.004428
lake,0.009708
larg,0.008675
later,0.002447
law,0.004958
leak,0.006903
leav,0.006969
length,0.008165
level,0.009843
lift,0.005493
like,0.002198
limit,0.002513
line,0.008835
linear,0.008757
linearli,0.014652
link,0.001789
liquid,0.172034
local,0.005574
locat,0.006051
long,0.005343
longer,0.003393
low,0.003153
lower,0.003040
lowercas,0.007747
lung,0.006435
m,0.023543
magnitud,0.005076
maintain,0.002869
make,0.008370
mani,0.005579
manner,0.003971
manomet,0.042667
manometr,0.037358
mass,0.003374
massenergi,0.007888
materi,0.002883
mathemat,0.009704
mathrm,0.039369
matter,0.006190
mbar,0.011500
mean,0.006798
measur,0.045817
mercuri,0.078779
meteorologist,0.008334
method,0.002548
metr,0.070236
metric,0.011052
micrometr,0.008531
micron,0.009382
middl,0.006785
millibar,0.022209
millimetr,0.055338
millionth,0.009199
minu,0.012164
mist,0.008792
mixtur,0.005144
mm,0.006021
modifi,0.008030
molecul,0.026659
momentum,0.005409
motion,0.020760
ms,0.006183
msw,0.062012
mtorr,0.010666
n,0.029562
nabla,0.007992
narrow,0.004646
nation,0.002280
natur,0.002196
navierstok,0.017522
nearbi,0.005064
neg,0.028545
neglect,0.005382
neglig,0.006122
neighbor,0.004641
net,0.008650
neutron,0.006487
newton,0.015585
nm,0.006679
nonisotrop,0.023501
nonmov,0.020874
nonsi,0.020874
nontox,0.009242
normal,0.045917
note,0.007117
npdmathbf,0.012452
nrtv,0.012452
nu,0.007348
number,0.002058
o,0.021695
object,0.002812
occur,0.002614
ocean,0.012703
oceanograph,0.008224
older,0.004318
onli,0.011364
open,0.011268
opposit,0.003385
order,0.002267
orient,0.008575
origin,0.002280
otherwis,0.003914
ounceforc,0.012452
outward,0.006335
overcom,0.005053
overlay,0.008123
p,0.116221
pa,0.057710
paramet,0.004743
parenthes,0.007552
partial,0.007570
particl,0.004423
particular,0.007726
particularli,0.005771
pascal,0.019203
perform,0.005785
permit,0.004190
perpendicular,0.054845
person,0.024232
pfrac,0.032337
pg,0.007808
pgamma,0.033864
phase,0.003956
physic,0.002692
physnet,0.010547
pi,0.005914
piez,0.012452
pipe,0.006887
pitot,0.010151
plant,0.007144
plate,0.005342
plu,0.004629
plumb,0.008429
pmathbf,0.010335
pnu,0.010068
point,0.035802
pond,0.007272
pool,0.010775
popular,0.002943
posit,0.007315
potenti,0.015274
pound,0.005914
poundal,0.011750
poundforc,0.023000
power,0.002414
pprho,0.011750
practic,0.007573
precis,0.007773
predominantli,0.005237
prefer,0.007226
prefix,0.006340
presenc,0.003568
present,0.004718
press,0.008331
pressur,0.756539
pressurearea,0.012452
previou,0.003558
prho,0.010437
principl,0.005664
probe,0.017604
produc,0.002455
project,0.002919
properli,0.004961
properti,0.008570
proportion,0.006952
psi,0.064621
psia,0.024905
psig,0.037358
ptextweight,0.012452
push,0.013461
pythagorean,0.007093
quantiti,0.046119
quickli,0.003840
quot,0.004936
r,0.012629
random,0.009002
rare,0.003883
read,0.002599
readili,0.005120
real,0.003105
reason,0.005371
recogn,0.003208
recommend,0.008822
reduc,0.002834
refer,0.005985
regard,0.002871
regardless,0.004523
rel,0.010732
relat,0.014123
relationship,0.002856
relev,0.003914
remain,0.002474
repres,0.002454
repuls,0.006606
requir,0.002355
restat,0.007180
result,0.002084
revers,0.004119
rho,0.021309
right,0.008056
righthand,0.007703
rigid,0.005568
root,0.003780
run,0.003288
s,0.008489
said,0.003074
sampl,0.004459
sap,0.015293
say,0.006484
scalar,0.053606
scale,0.003387
scriptstyl,0.008334
sea,0.022909
seal,0.005611
second,0.002456
section,0.025955
seek,0.003357
seen,0.002936
sens,0.003079
sever,0.002171
shallow,0.006329
shape,0.003566
share,0.002916
shoot,0.006346
short,0.006381
shorter,0.005327
shrink,0.006561
si,0.039293
sideway,0.028002
sign,0.006857
signific,0.002658
similar,0.004973
similarli,0.003945
simpli,0.003398
sinc,0.004165
singl,0.005574
situat,0.009619
size,0.003243
small,0.012742
smaller,0.007082
smooth,0.005523
smoothli,0.007619
solid,0.017903
someon,0.019459
sometim,0.016266
space,0.006421
specif,0.007475
speed,0.012776
spell,0.005747
spurt,0.018668
sqrt,0.006721
squar,0.057361
stagnat,0.037423
standard,0.011220
standstil,0.008381
star,0.004618
state,0.003644
static,0.053274
sthene,0.012452
stop,0.004114
storag,0.004956
store,0.004219
strength,0.004223
stress,0.034166
stressenergi,0.009538
style,0.004291
submerg,0.022180
substanc,0.017514
suffici,0.003850
suffix,0.007112
sum,0.008308
surfac,0.150841
surround,0.003813
suspens,0.006470
swim,0.040590
symbol,0.018905
t,0.018117
tabl,0.004008
taken,0.003049
tall,0.006626
taller,0.008858
technic,0.014815
technolog,0.003002
temperatur,0.029471
tendenc,0.009353
tension,0.014191
tensor,0.040079
term,0.017711
test,0.003404
textdepth,0.012452
theori,0.002441
therefor,0.014153
thermal,0.005340
thermodynam,0.010691
thi,0.026481
threedimension,0.005720
threefold,0.007565
thu,0.002434
thumbtack,0.024905
tilt,0.007428
time,0.005528
tire,0.014674
today,0.002991
tonforc,0.058753
tonneforc,0.024905
torr,0.022619
total,0.020341
tradit,0.002622
transmit,0.005102
tree,0.004289
tri,0.009834
triangular,0.007220
true,0.003372
tube,0.005754
tunabla,0.012452
turgid,0.010666
twice,0.014891
twodimension,0.013415
type,0.005007
typic,0.002794
u,0.034016
unabla,0.011500
unconfin,0.011750
underwat,0.026859
unit,0.084024
unlik,0.003468
unnotic,0.011104
uparti,0.009287
uppercas,0.008267
upright,0.007416
upward,0.011595
usag,0.004368
use,0.032332
usual,0.007518
v,0.037134
vacuum,0.016302
valu,0.008007
valv,0.007122
van,0.004555
vapor,0.052047
vari,0.009210
variabl,0.003807
variat,0.003903
variou,0.002370
vase,0.078573
vec,0.035433
vector,0.040294
veloc,0.021906
veri,0.002378
vertic,0.005387
vessel,0.020281
vg,0.009652
vgzmboxconst,0.012452
viscos,0.015105
viscou,0.007956
volum,0.064214
vp,0.008479
vs,0.005028
w,0.003494
wa,0.005122
waal,0.007370
wall,0.017639
water,0.138141
waterbas,0.009115
wave,0.004200
way,0.004453
weight,0.012593
whenev,0.005860
wherev,0.006679
whi,0.003831
wide,0.005364
work,0.010208
world,0.002111
write,0.003256
written,0.006594
xylem,0.009242
y,0.004435
z,0.015243
zero,0.008759
zmboxconst,0.012452
