abid,0.046927
absolut,0.027099
acceler,0.046092
access,0.011052
accord,0.015976
ad,0.020388
add,0.015232
admiss,0.021308
aether,0.025487
affect,0.010438
albert,0.032471
alon,0.013661
alongsid,0.016613
alway,0.010742
ani,0.028161
anim,0.022362
anoth,0.015366
anybodi,0.025316
appear,0.009252
appli,0.008539
arbitrari,0.017249
area,0.007933
assert,0.013722
assum,0.022133
astrophys,0.022756
away,0.012168
background,0.027438
base,0.006960
basic,0.029070
becaus,0.007250
becom,0.007710
behav,0.017132
belief,0.012893
bodi,0.019331
calcul,0.024583
caltech,0.026145
case,0.008066
centrifug,0.025316
certain,0.026489
chang,0.007273
charg,0.024898
chief,0.013434
circl,0.015545
classic,0.010659
clip,0.048394
combin,0.009200
complet,0.008911
comprehens,0.014212
concept,0.018008
concern,0.009058
confus,0.014522
conjug,0.022143
consequ,0.021943
conserv,0.038423
consid,0.007524
consider,0.021686
constanc,0.050632
constant,0.012827
context,0.022701
coordin,0.013678
corioli,0.027975
cornerston,0.022660
cosmic,0.019739
cosmolog,0.018864
cours,0.022491
covari,0.094781
cover,0.010623
curv,0.015874
curvatur,0.023491
day,0.009736
defin,0.017710
deriv,0.029432
describ,0.031767
determin,0.008960
develop,0.006453
dialogu,0.018013
diamet,0.021082
differ,0.006840
differenti,0.013065
direct,0.017136
disciplin,0.011889
discov,0.011363
doe,0.008730
doesnt,0.038585
earth,0.048783
effect,0.015093
einstein,0.131109
electrodynam,0.023324
electromagnet,0.017415
elev,0.017332
emit,0.038890
energi,0.010875
enunci,0.027828
equat,0.064600
everi,0.009720
exampl,0.020872
experi,0.009552
explain,0.010457
explicitli,0.031629
extend,0.010246
extern,0.006074
fact,0.009863
fast,0.015902
faster,0.032411
fictiti,0.074971
field,0.008483
film,0.015755
fix,0.012329
forc,0.033304
form,0.019048
formul,0.013302
frame,0.349247
framesinerti,0.039654
framework,0.023802
free,0.009488
fundament,0.021275
galilean,0.077136
galilei,0.022980
galileo,0.040901
gener,0.089535
geometri,0.033883
global,0.011031
gravit,0.037158
graviti,0.018110
hendrik,0.025232
henri,0.026777
hi,0.007448
histor,0.018662
histori,0.006918
hold,0.010005
howev,0.006741
impli,0.025828
implicitli,0.022017
includ,0.023065
incompat,0.021168
incorpor,0.011407
independ,0.017063
inerti,0.216025
influenc,0.009149
inquiri,0.016568
interv,0.035002
introduct,0.033036
invari,0.091836
investig,0.011639
invit,0.017118
involv,0.008052
isotropi,0.032575
joseph,0.013688
journal,0.010684
just,0.009685
larmor,0.030901
law,0.150593
learn,0.011666
left,0.011070
length,0.013778
level,0.008304
lie,0.013606
light,0.103043
link,0.006038
list,0.007722
live,0.008979
local,0.009405
look,0.022932
lorentz,0.165249
lorentzian,0.063663
luminifer,0.028205
make,0.007061
mani,0.006276
manner,0.013401
mathemat,0.032749
mathpag,0.033224
matter,0.020891
max,0.016969
maxwel,0.062126
mean,0.015295
measur,0.009095
mechan,0.051273
metaphor,0.019529
microwav,0.022805
mit,0.016872
motion,0.028024
natur,0.029653
necessari,0.011066
new,0.012405
newton,0.017532
newtonian,0.085957
noether,0.027901
noninerti,0.310438
note,0.008006
object,0.037970
observ,0.054989
obtain,0.021586
offer,0.010325
onc,0.010376
onli,0.019176
onlin,0.024307
open,0.009506
order,0.007652
paper,0.011457
particl,0.059706
path,0.028158
peerref,0.038809
perfectli,0.019292
perform,0.009761
person,0.009086
philosoph,0.012188
physic,0.109037
physicist,0.016436
planck,0.021082
poincar,0.069095
point,0.008054
possibl,0.016243
postul,0.068531
predict,0.034952
prefer,0.012193
prescrib,0.019445
presenc,0.024082
present,0.007961
principl,0.305872
problem,0.008516
public,0.008019
publish,0.008838
quantiti,0.012969
radiat,0.047841
read,0.008771
reconcil,0.019855
reexamin,0.025191
refer,0.111099
reflect,0.010852
regardless,0.015266
rel,0.516116
relativist,0.020851
requir,0.015899
research,0.008192
rest,0.047326
result,0.007034
return,0.010220
review,0.022630
rotat,0.016718
scienc,0.008493
scientif,0.030486
scientist,0.011547
selfcontradictori,0.032188
sever,0.014654
shift,0.012238
ship,0.014329
short,0.010767
simpl,0.022334
simul,0.015271
sinc,0.014055
situat,0.021642
sky,0.019986
sole,0.014266
sort,0.014741
sourc,0.008840
south,0.011006
space,0.032507
spacetim,0.064357
speak,0.013476
special,0.219752
speed,0.114981
spot,0.017595
star,0.046759
state,0.018448
statement,0.012902
strength,0.014254
strong,0.010212
success,0.009320
symmetri,0.058696
synchrotron,0.029163
tensor,0.022542
testabl,0.023188
theorem,0.015755
theoret,0.011524
theori,0.057667
thi,0.042055
thought,0.009960
time,0.031092
transform,0.069028
travel,0.012410
treat,0.036920
treatment,0.012928
trivial,0.020982
tutori,0.023296
underli,0.013347
uniform,0.016295
uniformli,0.022904
unit,0.007088
univers,0.007279
use,0.040199
vacuum,0.036678
vari,0.010360
veloc,0.018481
visual,0.014828
wa,0.028813
wale,0.019565
way,0.007514
wide,0.009052
widespread,0.013503
wikibook,0.027901
world,0.007125
write,0.010989
year,0.014186
