ab,0.006257
abandon,0.004665
abar,0.012397
abelian,0.008394
abov,0.012789
abovement,0.024072
abrikosov,0.011392
absenc,0.009182
absorb,0.009985
acceler,0.004803
accident,0.006459
accord,0.004994
account,0.002941
accur,0.004254
act,0.008563
actual,0.003196
add,0.004762
addit,0.017686
adjoint,0.019503
adscft,0.010804
advanc,0.003084
advis,0.005048
agfabcmathc,0.013138
alan,0.005294
albert,0.010151
alic,0.007639
allow,0.004967
allus,0.008323
alreadi,0.007276
american,0.005659
amu,0.027004
analog,0.031238
analysi,0.003010
analyt,0.009106
andrea,0.019935
ani,0.008804
anneal,0.008723
announc,0.004193
anomali,0.013640
anoth,0.002402
answer,0.004446
antiparticl,0.009147
antiquark,0.042842
anu,0.016443
aparti,0.024266
appear,0.002892
appli,0.010679
applic,0.002982
approach,0.028742
approxim,0.023824
area,0.007441
argu,0.003322
arrang,0.004071
articl,0.005936
aspect,0.006564
associ,0.004879
asymptot,0.058543
atyp,0.008677
award,0.004402
ax,0.008723
axial,0.015777
b,0.016539
bag,0.023258
band,0.010861
baryon,0.027088
base,0.008704
basi,0.006221
basic,0.012118
bc,0.004455
becam,0.002752
becaus,0.018135
becom,0.007231
bed,0.006503
begin,0.002936
behaviour,0.027857
believ,0.012458
belong,0.004254
best,0.009957
bibcodephthw,0.013138
bjorken,0.012133
blow,0.006379
blue,0.005367
bmathcal,0.012397
bodi,0.003021
bogolyubov,0.031619
bori,0.030137
boson,0.047026
bound,0.004505
break,0.012452
briefli,0.005585
broken,0.015063
brst,0.011254
bubbl,0.006312
c,0.014410
cambridg,0.003994
came,0.003297
candid,0.004645
carri,0.019508
carrier,0.018171
case,0.002521
categori,0.003848
cern,0.007788
certain,0.016563
chamber,0.010703
charact,0.004167
characterist,0.003476
charg,0.066166
chemic,0.003840
chen,0.007371
chipt,0.039415
chiral,0.108201
chroma,0.010622
chromodynam,0.069244
claim,0.003061
claimant,0.008288
classic,0.003332
classifi,0.004079
clay,0.006440
clear,0.003754
close,0.008096
coin,0.004176
collabor,0.004633
collid,0.020497
collis,0.006195
color,0.085418
colour,0.005757
combin,0.002876
come,0.002884
commun,0.002637
complet,0.002785
complex,0.002951
complic,0.004571
compos,0.007653
composit,0.004181
comput,0.016712
concept,0.002815
concern,0.002832
condens,0.011673
condit,0.002822
confer,0.003970
configur,0.005572
confin,0.086661
confirm,0.008697
connect,0.013285
consent,0.006191
consequ,0.003430
consid,0.007057
consist,0.008099
constant,0.016041
constitu,0.004723
construct,0.006247
contain,0.002893
content,0.007960
context,0.003548
continu,0.002444
continuum,0.006020
contrast,0.017038
control,0.005360
conveni,0.005386
correct,0.012186
correctli,0.005796
correl,0.018808
correspond,0.047606
correspondend,0.013138
coupl,0.028007
cours,0.003515
creat,0.004934
creutz,0.012397
cri,0.007445
cross,0.004402
crossrel,0.023819
crystal,0.005659
culmin,0.005345
current,0.002582
data,0.003219
date,0.003371
david,0.014333
deal,0.006499
dealt,0.006046
decay,0.011093
deconfin,0.011715
decreas,0.003972
deduc,0.012049
deep,0.022454
defin,0.008305
definit,0.019138
degre,0.016517
demonstr,0.003625
deni,0.004676
densiti,0.004868
depend,0.002661
depth,0.005296
deriv,0.006134
describ,0.009931
descript,0.003687
despit,0.003420
determin,0.002801
develop,0.008069
deviat,0.005724
diagon,0.007544
diagram,0.011098
dictionari,0.004890
differ,0.023524
difficult,0.007036
diffract,0.007317
diffus,0.005511
diminish,0.005461
dirac,0.014929
direct,0.005357
directli,0.003241
discov,0.014210
discoveri,0.003778
discret,0.009515
discrimin,0.011203
discuss,0.009874
disguis,0.007353
disord,0.005200
displaystyl,0.069314
distanc,0.025774
distinguish,0.003581
distribut,0.003328
doe,0.008188
doi,0.005340
domin,0.006639
doublet,0.010539
drellyan,0.013138
dual,0.017062
dualiti,0.013845
dub,0.006489
dure,0.002322
dynam,0.015128
earli,0.002429
earlier,0.003588
earwick,0.013138
easi,0.004932
editor,0.005170
effect,0.028312
eightfold,0.008793
elast,0.006082
electr,0.020079
electrodynam,0.029168
electromagnet,0.016334
electron,0.004064
element,0.006177
elementari,0.010957
emerg,0.003112
emit,0.012158
employ,0.003221
enclos,0.006596
energet,0.006580
energi,0.040799
english,0.003382
enjoy,0.004623
entangl,0.007474
entrop,0.009418
entropi,0.006591
entropyelast,0.013138
epsilon,0.024246
equal,0.003307
equival,0.003912
essenti,0.006752
establish,0.002591
eugen,0.005937
european,0.003024
event,0.009481
evergrow,0.009534
everi,0.006078
everyday,0.005188
evid,0.016559
exact,0.018533
exactli,0.004757
exampl,0.002175
excit,0.005920
exclus,0.004149
exist,0.012075
expand,0.006871
expans,0.024587
expect,0.006673
experi,0.026879
experiment,0.020283
explain,0.013077
explicit,0.005303
exploit,0.004521
explor,0.007400
extent,0.007992
extern,0.001899
f,0.007154
fabc,0.050884
fact,0.015418
factor,0.003079
faddeevpopov,0.024266
fail,0.003651
failur,0.004225
familiar,0.005138
featur,0.003284
fermion,0.024969
ferromagnet,0.008677
fewer,0.005150
feynman,0.035648
field,0.055697
final,0.003141
finit,0.005022
finnegan,0.010804
fix,0.007709
flavor,0.103843
fluctuat,0.010846
fluxlin,0.013138
fm,0.007850
footnot,0.006474
forbidden,0.006421
forc,0.023427
forev,0.006922
fork,0.008173
form,0.007940
format,0.007084
formul,0.004158
fradkin,0.012397
franci,0.004973
frank,0.015255
franz,0.006857
free,0.005932
freedom,0.049197
fritzsch,0.011392
frozen,0.006889
frustrat,0.019985
fulli,0.003915
function,0.005317
fundament,0.016628
futur,0.003163
g,0.024593
gain,0.003159
gather,0.004527
gaug,0.166960
gellmann,0.102046
gener,0.009330
genuin,0.006024
georg,0.003742
ggmu,0.012721
ghost,0.014110
given,0.005209
glass,0.040073
global,0.013795
glu,0.008818
glue,0.008746
gluebal,0.048532
gluon,0.202257
gmu,0.020245
good,0.005774
got,0.005858
greater,0.003271
greek,0.003677
green,0.004466
greenberg,0.009001
greiner,0.010184
gross,0.010155
group,0.039824
h,0.003607
ha,0.019048
hadron,0.130782
halzen,0.011715
hamiltonian,0.007534
han,0.010380
handed,0.011011
harald,0.008509
harder,0.006454
hc,0.009147
heard,0.006175
heavi,0.017953
heavyquark,0.013138
heavyquarkonium,0.013138
heinrich,0.006445
heisenberg,0.007607
hi,0.004657
high,0.013148
highenergi,0.007504
hightemperatur,0.008413
histori,0.004326
hold,0.003128
howev,0.012646
hsum,0.010063
huberman,0.010904
human,0.002502
hypercharg,0.011011
hyperon,0.012721
ident,0.003718
igamma,0.011127
ijepsilon,0.013138
ijikepsilon,0.013138
ijldot,0.013138
impli,0.008074
import,0.011074
inaccess,0.007224
includ,0.012619
independ,0.010669
index,0.008251
indic,0.009584
inelast,0.032823
infin,0.006789
infinit,0.005085
influenc,0.002860
ingredi,0.006820
initio,0.009751
insid,0.004355
insight,0.014452
instanton,0.011254
institut,0.002748
integr,0.003133
interact,0.055084
interior,0.015289
interiour,0.013138
intern,0.002275
intract,0.007941
introduc,0.006092
introduct,0.003442
introductori,0.006191
invari,0.028711
invent,0.008451
invers,0.005483
involv,0.005035
iquad,0.011254
isbn,0.009210
isol,0.008432
isospin,0.042491
itali,0.004673
ix,0.007585
j,0.048921
jame,0.007325
jet,0.019057
jik,0.013138
jikepsilon,0.013138
jikto,0.013138
john,0.002953
jonalasinio,0.013138
joyc,0.032695
june,0.003783
just,0.003028
k,0.062996
kaon,0.011545
kazuhiko,0.011545
keiichi,0.012397
kenneth,0.005827
kind,0.017296
kondo,0.010316
kquad,0.011909
kronfeld,0.026276
l,0.003822
label,0.004672
lagrangian,0.063213
lambda,0.007114
langl,0.008591
larg,0.020594
later,0.005164
lattic,0.077691
law,0.005231
lead,0.002590
led,0.002802
left,0.003461
leftarrow,0.012397
lefthand,0.016753
length,0.008615
lep,0.020922
lepton,0.008946
lesser,0.010645
letter,0.004285
leutwyl,0.013138
level,0.005192
liber,0.003914
lie,0.008507
light,0.007158
lightest,0.008746
like,0.013914
limit,0.018560
line,0.003107
link,0.005663
local,0.020584
london,0.003655
longdist,0.007617
loop,0.083701
loos,0.005397
lorentz,0.007380
low,0.009982
lowenergi,0.008920
lowtemperatur,0.009087
lr,0.008868
m,0.012420
magnet,0.015289
magnitud,0.005356
make,0.013246
mani,0.005886
mark,0.010457
martin,0.004595
mass,0.039163
massiv,0.004619
massless,0.025710
mathcal,0.032040
mathemat,0.013651
matric,0.014337
matrix,0.005449
matter,0.013062
matti,0.030019
mean,0.021518
meant,0.008905
measur,0.008530
mechan,0.003206
mediat,0.005318
mention,0.012609
mere,0.004270
meson,0.037107
method,0.008066
metric,0.005830
mev,0.009575
michael,0.003995
millennium,0.010837
mister,0.011011
model,0.059494
modern,0.007812
momentum,0.011414
mooyoung,0.012397
moreov,0.004980
mostsimpl,0.013138
motion,0.004380
moveup,0.013138
mu,0.013766
multiplet,0.011127
murray,0.018834
muster,0.018763
mysteri,0.005730
n,0.019493
nambu,0.031868
nambujonalasinio,0.065691
natur,0.002317
near,0.003569
necess,0.005440
necessit,0.006990
neeman,0.011254
neg,0.003764
net,0.004563
neutron,0.020535
new,0.001939
nf,0.009346
nikolay,0.026309
ning,0.010804
nishijima,0.011545
nobel,0.010107
nomenclatur,0.006163
nonabelian,0.028603
nonfavor,0.013138
nonloc,0.008591
nonperturb,0.051244
nontrivi,0.030056
note,0.005006
noth,0.009188
notion,0.028751
novel,0.004804
nu,0.023258
nuclear,0.004436
nucleon,0.008677
number,0.021718
numer,0.006432
object,0.002967
observ,0.022922
obtain,0.013497
occur,0.002758
occurr,0.005615
octet,0.009418
omega,0.007114
onli,0.009992
open,0.002972
oper,0.005477
oppos,0.003628
opposit,0.003572
order,0.009569
origin,0.009623
oscar,0.007565
otherwis,0.004129
overview,0.004350
oxford,0.004079
p,0.006628
pair,0.004626
paper,0.007164
parallel,0.008996
paramet,0.010010
park,0.005073
particip,0.006849
particl,0.144663
particular,0.010869
parton,0.032132
path,0.008803
pauli,0.007825
pdf,0.005024
peculiar,0.013518
penetr,0.005799
perceiv,0.004365
percent,0.004360
perfect,0.014551
perform,0.003051
perhap,0.004035
perturb,0.047232
petra,0.019410
phase,0.008349
phd,0.005609
phenomenon,0.008942
photon,0.031718
phrase,0.005230
physic,0.036929
physicist,0.025693
pion,0.019598
plasma,0.031808
plausibl,0.006489
play,0.006268
point,0.007554
pointlik,0.009799
polar,0.005318
politz,0.021079
polyakov,0.009951
polyakovnambujonalasinio,0.013138
polym,0.013047
posit,0.007718
possess,0.007802
possibl,0.002539
potenti,0.003223
practic,0.002663
precis,0.024604
predict,0.021855
premis,0.005839
preprint,0.026033
present,0.007467
press,0.002929
principl,0.005976
privat,0.003569
prize,0.018571
probabl,0.007144
probe,0.006191
problem,0.013312
procedur,0.004335
process,0.002353
produc,0.005180
product,0.015567
project,0.003080
promis,0.004677
prompt,0.005449
pronounc,0.006013
proof,0.005075
properli,0.005235
properti,0.018085
proport,0.008232
propos,0.009214
propto,0.023090
proton,0.019307
prove,0.003842
proven,0.005258
psi,0.015150
pub,0.007445
pulldown,0.012397
pun,0.008842
punish,0.005476
purpos,0.003238
puzzl,0.006628
pw,0.018487
pwjikjkljnmjmi,0.013138
pwrangl,0.013138
qcd,0.522078
qcdoc,0.013138
qed,0.035786
qualit,0.017316
quantit,0.027750
quantiti,0.020274
quantiz,0.014760
quantum,0.115484
quark,0.506856
quarkgluon,0.050317
quart,0.010622
quench,0.009029
r,0.009993
radiat,0.009971
radic,0.004563
radii,0.008189
radiu,0.019757
random,0.004748
randomli,0.006729
ratio,0.004489
rc,0.032887
reaction,0.004048
read,0.002742
real,0.009830
recent,0.008201
red,0.004376
reduc,0.002990
refer,0.003157
reflect,0.003392
rel,0.002830
relat,0.014901
relativist,0.006518
remain,0.002611
remark,0.009684
renorm,0.008842
repres,0.010359
represent,0.031864
requir,0.007456
research,0.002561
resolv,0.004586
resourceintens,0.010904
result,0.006597
rh,0.008112
rho,0.007494
rhyme,0.016681
richard,0.003900
right,0.002833
rightaway,0.013138
righthand,0.024382
rise,0.006354
robert,0.003471
role,0.005531
rotat,0.015680
rubber,0.013702
rule,0.014410
run,0.006939
s,0.029110
said,0.003243
sakata,0.010904
say,0.003420
scale,0.010720
scatter,0.029152
scheme,0.004751
schfer,0.011909
scientist,0.003610
scope,0.004641
search,0.012123
second,0.002591
section,0.007824
segment,0.005409
sens,0.003248
separ,0.011537
seri,0.003145
seriou,0.004422
set,0.004891
sever,0.002290
shape,0.003763
shenker,0.011715
shoichi,0.011715
short,0.010099
shortdist,0.010804
shortrang,0.009494
shortwav,0.009001
sicdot,0.013138
sign,0.003617
signatur,0.006431
sijiksk,0.013138
similar,0.013119
simpl,0.010473
simpli,0.007170
simultan,0.004604
sinc,0.021972
singlet,0.009751
sipm,0.013138
sito,0.011909
situat,0.006766
skcdot,0.013138
skto,0.013138
slac,0.021421
slow,0.004536
small,0.005377
smaller,0.003736
smatrix,0.030019
socal,0.008867
softcollinear,0.025442
sole,0.004460
solid,0.014167
son,0.004207
sort,0.004608
sourc,0.005527
space,0.003387
spacetim,0.033534
spark,0.005814
special,0.002748
specif,0.002628
spectacularli,0.009346
spectra,0.007160
spin,0.079224
spinglass,0.013138
spinor,0.009418
split,0.004516
spontan,0.011357
springer,0.005318
standard,0.008878
star,0.004872
start,0.002781
state,0.007690
statement,0.004033
stiff,0.014872
strang,0.026075
strength,0.008913
stress,0.009011
string,0.011673
strong,0.025542
strongli,0.004235
structur,0.005134
struminski,0.052553
student,0.003739
studi,0.002322
su,0.128315
subject,0.005590
suffici,0.004062
suggest,0.006152
sulnf,0.013138
sum,0.004383
supercomput,0.007850
superconductor,0.008612
support,0.002612
suppos,0.004828
surnf,0.013138
suvnf,0.013138
symbol,0.003989
symmetr,0.006257
symmetri,0.214091
systemat,0.004197
t,0.003823
tavchelidz,0.013138
tavkhelidz,0.013138
techniqu,0.010130
temperatur,0.013326
tensor,0.014095
term,0.010381
terminolog,0.005174
test,0.025144
themselv,0.006518
theoret,0.014411
theori,0.128777
theorist,0.005121
therebi,0.004548
thermodynam,0.011279
thi,0.059166
thing,0.003496
thought,0.003114
threejet,0.013138
thu,0.002568
tijapsi,0.013138
time,0.001944
today,0.003156
togeth,0.006059
topic,0.003486
total,0.003065
transform,0.014387
transit,0.003825
travel,0.003879
treat,0.007695
triest,0.008973
trivial,0.006559
true,0.003557
turn,0.006075
type,0.007925
typeii,0.011909
typic,0.002947
u,0.005127
ua,0.016979
ub,0.017400
ud,0.009243
unabl,0.004566
unexpect,0.006416
unitar,0.009705
univers,0.002275
unpolar,0.012721
unproven,0.008323
unrel,0.006282
use,0.017954
usual,0.015865
vacuum,0.034400
valu,0.011265
vanish,0.006445
variabl,0.008033
variant,0.005322
variou,0.002501
vector,0.031884
veri,0.010037
verif,0.006689
verifi,0.011109
version,0.011530
vicin,0.007091
violat,0.004861
w,0.025807
wa,0.036032
wake,0.005862
walter,0.005241
want,0.004056
wavelength,0.006656
way,0.002349
weak,0.017458
weakli,0.007514
wegner,0.019798
weight,0.004428
wellknown,0.010316
went,0.004030
werner,0.006956
wherea,0.003812
wide,0.005660
wigner,0.008376
wilczek,0.029697
wiley,0.005376
wilson,0.032932
winner,0.006049
wll,0.012133
word,0.015250
work,0.010770
world,0.002227
written,0.003478
wrote,0.007487
x,0.007781
yang,0.007249
year,0.002217
yoichiro,0.010710
yuval,0.010316
zero,0.009241
zweig,0.010063
