address,0.035081
age,0.029175
agricultur,0.034626
agroecosystem,0.088569
agrophys,0.090117
analyt,0.042472
appli,0.049809
bachmann,0.094425
becaus,0.021145
buckingham,0.092832
bulk,0.049797
canada,0.040296
capacit,0.083206
chemistri,0.041235
chesworth,0.115645
compon,0.032405
content,0.037129
day,0.028395
deal,0.030314
densiti,0.045410
diffus,0.051408
divis,0.032613
domain,0.073503
draw,0.038574
dynam,0.035279
ecolog,0.042692
ecosystem,0.051385
ed,0.031715
edgar,0.066224
edt,0.094425
encyclopedia,0.039017
engin,0.097947
environment,0.036422
especi,0.026306
essenti,0.031493
extern,0.017714
farmer,0.047951
flow,0.035676
frequenc,0.046296
ga,0.040757
gase,0.054012
gener,0.034815
geotechn,0.089321
guelph,0.096231
horn,0.061434
horton,0.082723
import,0.020661
irrig,0.122477
isbn,0.057275
john,0.027554
link,0.017610
liquid,0.043413
lorenzo,0.075813
manag,0.058008
measur,0.026525
mechan,0.029906
meteorolog,0.059384
natur,0.021619
neutron,0.063851
note,0.023348
peth,0.122556
phase,0.038943
philip,0.049776
physic,0.238490
physicist,0.047933
poros,0.090533
potenti,0.030064
practic,0.024845
predict,0.033977
principl,0.055751
probe,0.115506
problem,0.024835
process,0.021952
promin,0.036414
properti,0.056233
publ,0.088208
r,0.031074
reflectomet,0.102719
requir,0.023184
richard,0.036383
schedul,0.048950
schweizerbart,0.115645
scienc,0.024769
sensor,0.061046
soil,0.743064
solid,0.044051
solut,0.035067
springer,0.049611
sssa,0.100783
studi,0.021661
tensiomet,0.102719
theori,0.024025
thermal,0.052558
thi,0.015330
time,0.018135
transport,0.070275
understand,0.027822
uniw,0.115645
unsatur,0.077003
use,0.016747
vados,0.097585
ward,0.062723
water,0.158086
zone,0.042364
