action,0.014394
adiabat,0.040008
advanc,0.014468
aerospac,0.033663
agent,0.019973
ai,0.058858
alberto,0.037573
alexand,0.022444
analyst,0.026585
anatomi,0.027512
appli,0.087664
applic,0.027981
approach,0.013482
area,0.011635
away,0.017845
basic,0.014210
beam,0.095798
becom,0.011307
behav,0.100500
behavior,0.049709
bernoulli,0.034749
bibliographi,0.020543
bifurc,0.041136
bigoni,0.055864
book,0.013424
branch,0.030043
buckl,0.044007
butterworthheinemann,0.042910
c,0.013518
cambridg,0.037473
carlo,0.026921
case,0.011828
castigliano,0.055864
central,0.013261
chang,0.021332
chou,0.049439
civil,0.016228
claudeloui,0.053437
clough,0.047771
coeffici,0.027304
column,0.026880
common,0.034322
compani,0.014940
complex,0.013845
comprehens,0.020841
comput,0.031357
concern,0.013284
condit,0.013239
conduct,0.016217
contain,0.027149
continu,0.011465
continuum,0.112969
contribut,0.013888
convert,0.019288
correct,0.019054
coupl,0.021896
courant,0.045112
cours,0.016491
cross,0.020652
curv,0.023280
d,0.030636
da,0.025188
damp,0.077287
daniel,0.023535
definit,0.014961
deflect,0.035061
deform,0.216247
dental,0.036148
depart,0.016590
departur,0.029060
deriv,0.014387
describ,0.034940
design,0.027796
develop,0.009463
directli,0.015204
discret,0.022317
displac,0.024279
dissert,0.032227
distribut,0.015612
divid,0.015004
doe,0.012803
domain,0.018480
dover,0.094869
dyadic,0.046681
dynam,0.017740
eas,0.026226
ed,0.015948
effect,0.011067
elast,0.456532
elastici,0.055864
em,0.036256
energi,0.015948
engin,0.032835
equat,0.075788
especi,0.013228
euler,0.031846
eulerbernoulli,0.158368
examin,0.017830
exhibit,0.021505
extens,0.015383
extern,0.008908
failur,0.019821
field,0.012440
finit,0.047121
finiteel,0.053437
fluid,0.024013
follow,0.009744
forc,0.012210
formal,0.015243
foundat,0.015885
fourier,0.031790
fractur,0.068735
frame,0.023280
framework,0.017453
freund,0.047482
fundament,0.015599
galilei,0.033700
galileo,0.029990
gener,0.017506
geolog,0.023280
goodier,0.055864
greater,0.015343
h,0.016922
ha,0.032491
hardi,0.035682
heat,0.042961
hi,0.021845
hill,0.024232
hook,0.098278
howev,0.009886
hrennikoff,0.054955
hugh,0.028585
hysteresi,0.046194
idea,0.013672
ignaczak,0.055864
implant,0.032991
impli,0.018938
import,0.010389
impos,0.020949
includ,0.008456
indetermin,0.036533
inhabit,0.021177
innov,0.021100
instabl,0.026339
intern,0.010674
intorno,0.053437
introduc,0.028579
involv,0.011809
isaac,0.026365
isbn,0.057602
isotherm,0.041026
j,0.076491
je,0.038051
jn,0.039731
known,0.020356
l,0.017929
landau,0.036764
lattic,0.030368
law,0.049076
lb,0.035107
ld,0.038800
leonardo,0.033336
leonhard,0.036882
lifshitz,0.042626
limit,0.012437
linear,0.043338
linearli,0.072512
live,0.013168
load,0.027947
loop,0.028044
low,0.015607
lublin,0.044724
luri,0.049828
m,0.014564
macmillan,0.027820
mani,0.027613
marsden,0.041718
martin,0.021555
materi,0.256868
mathemat,0.032017
mathematica,0.032257
mcgrawhil,0.029429
mechan,0.255654
method,0.050448
model,0.063424
modulu,0.039552
mohr,0.043675
moment,0.023168
motion,0.041097
n,0.018287
naturali,0.035989
navier,0.052789
new,0.027288
newton,0.051422
nonlinear,0.111596
note,0.011740
nuclear,0.020808
occur,0.012938
ogden,0.043206
old,0.016849
oppos,0.017017
origin,0.011285
ostojastarzewski,0.052789
otto,0.028692
overlap,0.022633
oxford,0.038266
pagano,0.049828
paper,0.016802
partial,0.018732
pc,0.033058
perman,0.019734
phase,0.019582
philosophia,0.038566
physic,0.039975
place,0.011516
plane,0.024526
plastic,0.109512
practic,0.012493
present,0.023352
press,0.041230
previou,0.017609
principia,0.032410
principl,0.014017
problem,0.012488
proport,0.077227
prosthes,0.046681
public,0.011760
publish,0.051844
push,0.022206
r,0.046878
real,0.015371
realist,0.025450
recogn,0.015879
refer,0.007405
region,0.026523
relationship,0.042409
remov,0.034197
respond,0.019973
respons,0.038535
rest,0.052053
result,0.010316
return,0.029976
rheolog,0.044179
robert,0.016283
rw,0.045964
s,0.010503
scienc,0.037367
shape,0.070606
shown,0.017859
simpl,0.016376
simplest,0.026289
sistemi,0.052789
size,0.016050
small,0.012612
solid,0.265815
solv,0.018968
special,0.012890
specif,0.024663
speed,0.021077
springer,0.024947
state,0.018036
static,0.026365
stiff,0.034881
strain,0.153716
strength,0.020904
stress,0.232495
stressstrain,0.048390
structur,0.048169
studi,0.010892
subregion,0.039041
suffici,0.019054
surgic,0.031221
tabl,0.019836
temperatur,0.020836
tensor,0.066117
theorem,0.046209
theoret,0.016899
theori,0.108730
thermal,0.026429
thermoelast,0.164867
thi,0.023127
timedepend,0.039731
timelin,0.024260
timoshenko,0.108309
tj,0.042354
today,0.014806
topp,0.050679
treatis,0.024865
treatment,0.018959
turner,0.033092
undeform,0.049439
understand,0.013990
univers,0.042699
use,0.033687
valu,0.013210
vinci,0.035153
virtual,0.020383
viscoelast,0.045741
w,0.017293
wave,0.020785
way,0.011020
wide,0.013274
work,0.030312
x,0.018249
yield,0.060403
york,0.015874
