abl,0.007193
abov,0.007291
absolut,0.035419
absorb,0.003795
abstract,0.003340
accompani,0.003670
accord,0.005694
accur,0.012937
accuraci,0.012351
achiev,0.004776
ad,0.004845
adc,0.007841
addit,0.001920
adiabat,0.006483
adjust,0.003633
adopt,0.005239
adult,0.003716
advantag,0.002946
ago,0.003678
agre,0.011448
agreement,0.002897
aid,0.005695
air,0.040826
aircraft,0.004216
airport,0.004181
al,0.003256
alcohol,0.021790
alexandria,0.010349
allbutt,0.008775
allow,0.005663
alloy,0.005282
alon,0.006492
altern,0.002439
alway,0.002552
ander,0.011750
angular,0.005120
ani,0.010038
anisotropi,0.006977
anomal,0.011548
anoth,0.003651
appear,0.002198
applic,0.004534
approxim,0.010348
aris,0.003097
arteri,0.005610
articl,0.002256
assum,0.002629
atmospher,0.014875
author,0.002137
autom,0.004248
avoid,0.005671
away,0.002891
b,0.005028
bacteri,0.004959
balco,0.009986
baltimor,0.005589
bandgap,0.008775
baromet,0.006453
base,0.009924
basi,0.009458
bath,0.026649
bear,0.007105
becaus,0.008615
beckmann,0.008074
becom,0.003664
begin,0.002231
behav,0.004071
behaviour,0.007058
best,0.002522
biancani,0.009423
bimet,0.008554
bimetal,0.014824
bin,0.005277
blackbodi,0.033066
block,0.006819
blockad,0.005242
bodi,0.025266
boerhaav,0.008011
boil,0.030720
bragg,0.006423
breguet,0.009986
british,0.002555
built,0.005707
bulb,0.018048
c,0.054767
calcul,0.005842
calibr,0.088171
calorimetri,0.006907
candi,0.006885
capillari,0.006154
care,0.002880
carlo,0.004362
case,0.005750
caus,0.004092
caviti,0.022171
celsiu,0.012549
centuri,0.005905
certain,0.004196
certifi,0.005002
chang,0.025926
channel,0.003784
charact,0.006336
check,0.007949
chemic,0.008757
christiaan,0.006132
circuit,0.004325
classifi,0.003101
clear,0.002853
clifford,0.005719
climat,0.013094
climatolog,0.005782
clinic,0.011995
close,0.010257
coeffici,0.017698
coil,0.005920
cold,0.010964
colder,0.011500
colour,0.004376
come,0.006578
commonli,0.007638
compar,0.006803
comparison,0.003215
complet,0.004235
compound,0.003455
comput,0.002540
concept,0.002139
condit,0.010727
condition,0.006885
conductor,0.005529
conform,0.004232
consequ,0.002607
consid,0.005364
consist,0.002052
constant,0.030484
constantvolum,0.008554
constitut,0.009684
contact,0.006435
contain,0.002199
content,0.003025
contract,0.015379
contrast,0.005180
control,0.014260
conveni,0.008188
convent,0.002969
convert,0.006251
cook,0.017292
cool,0.021477
coordin,0.003250
core,0.003256
corpor,0.003008
correct,0.003087
correctli,0.004405
coulomb,0.006036
credit,0.002967
critic,0.002255
cryogen,0.006630
cryomet,0.019973
crystal,0.021508
curi,0.006110
current,0.001963
customarili,0.006300
daniel,0.003813
deal,0.002470
decreas,0.006039
decrement,0.007694
defin,0.004208
definit,0.002424
degre,0.015066
delay,0.003916
deliv,0.003614
demonstr,0.002756
densiti,0.007400
depend,0.012139
describ,0.009436
design,0.013513
determin,0.012776
develop,0.006134
deviat,0.004351
devic,0.013707
diagram,0.004218
diamet,0.005010
did,0.002276
differ,0.011378
differenti,0.003104
difficult,0.002674
digit,0.020544
direct,0.002036
directli,0.004927
disadvantag,0.004547
disagre,0.004408
discoveri,0.002871
discret,0.003616
displac,0.003934
display,0.006969
displaystyl,0.014050
distanc,0.003265
distinct,0.002361
distribut,0.002530
divid,0.002431
divis,0.002657
doe,0.012448
dr,0.003804
duke,0.004835
ear,0.004899
earli,0.003692
ed,0.002584
educ,0.002351
effect,0.003586
electr,0.015262
electromagnet,0.004138
electron,0.012356
element,0.004695
els,0.007603
emerg,0.002366
emiss,0.004380
emit,0.013862
empir,0.015455
end,0.004036
energi,0.005168
engin,0.002660
enter,0.005397
entitl,0.003811
environment,0.002967
equal,0.005028
equat,0.003070
equilibrium,0.019291
error,0.003510
especi,0.002143
essenti,0.002566
et,0.003173
ethylen,0.006684
european,0.002299
everi,0.002310
evolv,0.003030
exact,0.003521
exampl,0.013226
exergen,0.009986
exhibit,0.013939
exist,0.007343
expand,0.007834
expans,0.040493
experi,0.004540
experienc,0.003314
extend,0.002435
extern,0.001443
extrem,0.002648
f,0.016315
facil,0.003538
fact,0.002343
fahrenheit,0.026185
fail,0.002775
far,0.002503
feel,0.003451
ferdinando,0.007131
fever,0.005262
fiber,0.009590
field,0.004032
final,0.011939
finer,0.005893
fish,0.003444
fix,0.041021
flight,0.004044
flow,0.002907
fludd,0.008659
fluoresc,0.005379
follow,0.001579
food,0.017046
foodborn,0.007694
forecast,0.004349
forehead,0.013261
form,0.006035
fraction,0.003863
francesco,0.011597
freez,0.005115
freezer,0.008011
french,0.002656
frequenc,0.011317
frigorif,0.009986
function,0.002021
fundament,0.002527
ga,0.019927
gabriel,0.009964
galilei,0.005461
galileo,0.024299
gamma,0.004874
gase,0.008802
gener,0.002837
giusepp,0.005938
given,0.007919
glass,0.004351
glow,0.006262
glycol,0.007217
good,0.002194
gradient,0.004697
gradual,0.003173
grand,0.003834
grate,0.006562
greater,0.004972
greek,0.005590
growth,0.002498
ha,0.013163
hand,0.002445
harm,0.003805
health,0.002752
healthi,0.004310
heat,0.066137
heater,0.014262
held,0.002333
help,0.004322
henc,0.003080
herman,0.005272
hero,0.009364
hi,0.007080
high,0.007995
higher,0.004693
highest,0.006045
histori,0.011509
hold,0.007133
hole,0.004493
hopkin,0.004863
hot,0.043470
hotter,0.012680
hour,0.003468
howev,0.004806
huygen,0.006026
hygromet,0.008011
hypotherm,0.008775
ic,0.006262
ice,0.025835
identifi,0.002386
ii,0.002583
ill,0.003833
imag,0.003039
immedi,0.002901
immers,0.011378
imperfect,0.004859
import,0.008418
improv,0.002429
inaccur,0.005351
includ,0.002740
increas,0.011389
increasingli,0.002910
increment,0.009972
indefinit,0.009276
independ,0.004055
indic,0.007285
indiffer,0.005455
indirectli,0.004254
individu,0.004072
indoor,0.018171
indooroutdoor,0.009986
industri,0.009012
inform,0.005887
infrar,0.025490
initi,0.006434
input,0.003576
insepar,0.005884
insid,0.006621
instrument,0.015198
integr,0.002382
intend,0.003055
interfac,0.008595
intern,0.010379
interpol,0.009225
introduc,0.002315
invent,0.016060
inventor,0.009769
invers,0.004168
isaac,0.004272
isbn,0.002333
isochor,0.007895
isol,0.003204
j,0.002479
jame,0.002784
john,0.002245
k,0.005985
kauppinen,0.008458
kelvin,0.005596
kind,0.005258
knew,0.004649
knowledg,0.004965
known,0.008246
l,0.005810
la,0.003294
laboratori,0.003349
lamp,0.005562
larg,0.001739
larger,0.002605
latent,0.011059
later,0.005888
law,0.009940
lead,0.003938
leav,0.005589
leurechon,0.009423
level,0.009867
light,0.002720
like,0.001762
limit,0.002015
line,0.002362
linear,0.007022
link,0.001435
liquid,0.053064
liquidinglass,0.029960
liquidinmet,0.009986
list,0.003670
low,0.002529
lower,0.002438
lowest,0.011776
luminesc,0.014754
m,0.014161
magnet,0.019369
mainli,0.002739
maintain,0.004602
make,0.001678
male,0.003701
manag,0.002363
mani,0.007457
manifold,0.015510
manual,0.004168
manufactur,0.006294
map,0.003018
mark,0.013247
materi,0.048563
mathemat,0.002594
mathmatiqu,0.006630
matter,0.004964
maximum,0.003588
mean,0.014539
measur,0.054036
meat,0.009158
mechan,0.009747
medic,0.009116
medici,0.006274
medicin,0.003146
melt,0.018836
meltdown,0.006907
mercuri,0.038879
mercuryinglass,0.055336
metal,0.006869
meteorolog,0.009678
meter,0.004441
methanol,0.006953
method,0.002043
metron,0.008011
micrometr,0.006842
middleton,0.007187
minut,0.003939
mixtur,0.012378
model,0.002055
modern,0.005938
modernstyl,0.009052
monitor,0.007137
monoton,0.011804
mood,0.005203
multipl,0.002538
nanoscal,0.006800
nanoscalereview,0.010433
nanothermomet,0.009986
nanothermometri,0.029960
nation,0.001828
near,0.005426
nearest,0.005319
necessarili,0.003230
need,0.003967
new,0.002948
newton,0.004166
nist,0.006546
nmr,0.005976
nois,0.004706
noninvas,0.006300
nonluminesc,0.009986
nonregist,0.016577
notabl,0.010128
note,0.001902
nowaday,0.004994
ntc,0.008659
nuclear,0.010115
nuclei,0.004746
number,0.003301
numer,0.009779
object,0.006767
observ,0.002177
occasion,0.003722
occur,0.004193
ocean,0.003395
offici,0.002505
old,0.002730
onli,0.007595
opaqu,0.012012
open,0.002259
oper,0.004163
oppos,0.005515
optic,0.007939
oral,0.004264
organ,0.001799
origin,0.007315
outsid,0.002517
packag,0.004183
pair,0.003516
paramagnet,0.006721
partfil,0.009986
partial,0.003035
particular,0.006196
past,0.002617
path,0.003345
person,0.002159
phase,0.009520
phenomenon,0.006797
philosoph,0.002896
phosphor,0.006977
physic,0.012956
physician,0.004162
pill,0.006300
place,0.003732
planck,0.010020
plastic,0.004436
platinum,0.011877
point,0.053597
pompei,0.009423
poorli,0.008738
popular,0.002360
portion,0.009948
posit,0.003911
possess,0.002965
possibl,0.005790
pot,0.005790
potenti,0.007349
power,0.003872
ppm,0.006530
practic,0.006073
precis,0.015585
present,0.001892
press,0.002227
pressur,0.045575
preston,0.006760
prevent,0.002705
primari,0.014987
primarili,0.002586
principl,0.024986
probe,0.004706
problem,0.002023
problemat,0.004560
process,0.007155
produc,0.009844
product,0.001972
prone,0.005227
properli,0.003979
properti,0.032076
proport,0.006257
propos,0.007004
provid,0.010073
proxim,0.004373
publish,0.002100
pure,0.005984
purpos,0.004922
pyromet,0.009669
qualifi,0.003979
qualiti,0.002819
quantifi,0.004252
quantit,0.003515
quantiti,0.009246
quartz,0.006353
radianc,0.007310
radiat,0.030317
radiationtyp,0.009986
radioact,0.004643
radiometr,0.019738
rang,0.022715
rapid,0.003279
rate,0.002345
raw,0.003914
ray,0.004099
rcration,0.009986
reach,0.007316
reactor,0.005467
read,0.029181
readabl,0.006132
readout,0.015683
reason,0.002153
recent,0.004156
record,0.007588
rectal,0.007841
refer,0.002400
reflect,0.010316
refriger,0.011613
regist,0.014885
regnault,0.008212
regul,0.002841
rel,0.004303
relat,0.011326
reli,0.002891
reliabl,0.003588
rememb,0.008811
remot,0.004062
remov,0.005541
renaldini,0.009986
replac,0.004891
reprint,0.004615
reproduc,0.020357
requir,0.007557
research,0.003893
reset,0.006340
resist,0.015549
resistor,0.006821
resolut,0.003671
reson,0.009186
respect,0.004564
rest,0.005623
restrict,0.002781
result,0.001671
return,0.002428
revers,0.006607
review,0.002689
rigid,0.004465
ring,0.004064
roadway,0.014003
robert,0.002638
room,0.007785
safe,0.003923
safeti,0.007736
sagredo,0.009986
said,0.007397
salt,0.004111
santorio,0.016149
say,0.007800
scale,0.081489
scan,0.004791
scientif,0.007244
scientist,0.005488
seal,0.004500
second,0.001969
secondari,0.017087
section,0.002973
select,0.002609
sens,0.014816
sensibl,0.005308
sensit,0.007730
sensor,0.024872
separ,0.002192
seri,0.002390
serrin,0.009423
serv,0.004777
set,0.001859
sever,0.006964
shake,0.006057
shift,0.005816
shown,0.002894
signal,0.003453
signific,0.002132
silicon,0.005098
simpli,0.002725
sinc,0.003340
singl,0.002235
sir,0.003769
slightest,0.007159
slightli,0.018099
small,0.004087
smaller,0.002840
socal,0.003370
sole,0.003390
solid,0.014358
solut,0.002857
sound,0.003516
special,0.002088
specif,0.005995
specifi,0.006791
spectra,0.010886
spectral,0.010257
spectrum,0.003949
stage,0.002916
standard,0.017996
standardis,0.005986
star,0.003704
state,0.013152
statement,0.003066
station,0.003648
steam,0.004974
stem,0.003754
stir,0.005911
strictli,0.003939
strip,0.004382
studi,0.001765
submicrometr,0.009986
substanc,0.007022
suffer,0.003048
suffici,0.003087
sugar,0.004069
suggest,0.002338
suitabl,0.011123
summar,0.004254
superconduct,0.005823
supersced,0.009986
suppli,0.002722
surfac,0.003024
suscept,0.009630
taken,0.002445
tank,0.004626
techniqu,0.002566
temperatur,0.368037
tempor,0.004401
tend,0.005485
term,0.001578
textbook,0.003764
th,0.009575
theori,0.001957
therefor,0.002270
thermal,0.034262
thermistor,0.053433
thermo,0.007485
thermochrom,0.029960
thermocoupl,0.015580
thermodynam,0.038583
thermographi,0.008011
thermomet,0.851139
thermometerfrom,0.009986
thermometr,0.069276
thermometri,0.099464
thermoscop,0.046448
thermostat,0.021835
thi,0.042475
thoma,0.002987
thomson,0.005188
thought,0.002367
thousand,0.002945
thousandth,0.007412
thu,0.011714
time,0.007388
tm,0.006340
today,0.002399
topolog,0.004595
tradit,0.002103
transit,0.005815
tripl,0.009202
troublesom,0.006189
true,0.005408
tube,0.032307
tune,0.005425
tuscani,0.007001
twenti,0.004108
type,0.004016
typic,0.006722
uncertainti,0.007773
uniquether,0.009986
univers,0.010379
unknown,0.003458
unless,0.003742
unlik,0.002781
unsatisfactori,0.005996
upper,0.006745
use,0.075061
user,0.003705
usual,0.008039
util,0.006043
valid,0.006378
valu,0.006422
vapour,0.006498
vari,0.007386
varieti,0.002507
variou,0.013309
various,0.005165
veloc,0.004392
veri,0.005722
vertic,0.004320
vessel,0.004066
visibl,0.007383
vol,0.003589
voltag,0.005449
volum,0.040054
wa,0.023281
wall,0.010609
water,0.046375
waterair,0.009423
way,0.010715
weather,0.020479
wek,0.009222
wellreproduc,0.009986
whatev,0.004111
whi,0.003073
wide,0.010755
wien,0.006177
word,0.006955
work,0.006549
world,0.001693
year,0.001685
zero,0.010537
zeroth,0.021651
