aba,0.012186
abnorm,0.008194
academi,0.025370
acaud,0.051961
accord,0.003292
accredit,0.016679
acoust,0.018395
addit,0.009992
address,0.004958
administ,0.006454
adult,0.006445
affect,0.004302
aid,0.054331
aim,0.004701
alberta,0.010382
ali,0.008162
altern,0.004230
american,0.018651
anatomi,0.015464
andor,0.028808
anglia,0.014004
ani,0.005803
annual,0.010115
annum,0.010349
applic,0.003932
appropri,0.021110
approv,0.005655
approxim,0.008973
area,0.013080
arizona,0.009492
articl,0.003913
assess,0.028040
assist,0.004909
associ,0.012865
associao,0.014120
aston,0.013266
attain,0.006664
attend,0.012564
aud,0.089152
auda,0.017320
audiolog,0.700211
audiologist,0.495857
audiologista,0.018095
audiometri,0.016343
audiometrist,0.017320
auditori,0.041877
audr,0.017320
august,0.005003
auricular,0.015700
australia,0.074396
australian,0.006847
autonom,0.006657
avail,0.008049
award,0.005804
b,0.004360
ba,0.008760
bachelor,0.017148
bachelorsmast,0.017320
background,0.005654
balanc,0.020843
baslp,0.017320
bc,0.005873
becam,0.003628
becom,0.006356
befor,0.003390
began,0.003964
benign,0.010694
berger,0.011218
biograph,0.009015
board,0.022909
bodi,0.011951
born,0.005608
bppv,0.015995
branch,0.004221
british,0.013298
broad,0.005332
brunswick,0.010734
bsc,0.022707
bschon,0.015700
bureau,0.007509
byl,0.017320
caledonian,0.012736
canada,0.017084
canadian,0.006748
candidaci,0.011499
canfield,0.015700
capac,0.005511
carhart,0.027387
carri,0.004286
caus,0.003548
ccca,0.017320
ccp,0.013266
central,0.003727
certain,0.007278
certif,0.061824
certifi,0.008675
chandigarh,0.015220
chhospit,0.017320
client,0.007657
clientel,0.013050
clinic,0.069346
cochlear,0.051932
code,0.005145
coimbra,0.026533
coin,0.005506
colleg,0.034633
columbia,0.022187
commit,0.005573
commun,0.013908
compens,0.006721
compet,0.038379
competit,0.005229
complet,0.003672
complex,0.003891
compulsori,0.008410
confer,0.005234
consid,0.003101
continu,0.009666
convers,0.005486
cope,0.008535
council,0.009698
counsel,0.017122
countri,0.013998
cours,0.023175
cpd,0.068467
creator,0.007970
credit,0.005146
curb,0.009659
current,0.013618
dalhousi,0.013894
damag,0.011478
davi,0.007711
deaf,0.011353
decreelaw,0.017320
defin,0.003649
definit,0.004205
degre,0.087104
demand,0.004747
demonstr,0.009560
depend,0.003509
design,0.003906
determin,0.007386
develop,0.007979
development,0.007486
devic,0.005943
diagnos,0.017228
diagnosi,0.008069
dilut,0.009272
diploma,0.020259
discuss,0.004339
disord,0.054844
dispens,0.037013
display,0.006044
distanc,0.005663
district,0.006432
doctor,0.038080
document,0.010268
ear,0.059478
earn,0.012036
edinburgh,0.008710
educ,0.024473
electrophysiolog,0.023122
elig,0.024028
emin,0.009108
emiss,0.007597
employ,0.008493
employe,0.006708
enabl,0.015232
encourag,0.005262
engag,0.005070
english,0.004459
entri,0.012386
entrylevel,0.012855
equival,0.015472
especi,0.003717
establish,0.003416
ethic,0.005892
evalu,0.005547
exam,0.009179
excel,0.006926
exercis,0.005501
expect,0.004399
experi,0.011811
expertis,0.007810
extend,0.004223
extern,0.005007
famili,0.004433
far,0.004341
faridkot,0.017320
fast,0.006554
fdsc,0.017320
field,0.006993
fit,0.011658
flinder,0.013426
florida,0.008404
focus,0.004456
follow,0.008216
formal,0.008568
forum,0.007031
fratern,0.010505
french,0.009215
frequenc,0.006542
fulltim,0.009117
function,0.003505
galambo,0.014243
gener,0.002460
glasgow,0.010056
global,0.004546
gobind,0.012275
govern,0.009767
gpa,0.012623
graduat,0.051324
greek,0.004848
group,0.003088
guru,0.010220
ha,0.015980
hallowel,0.015220
handicap,0.010817
hargrav,0.015018
health,0.014318
healthcar,0.016128
hear,0.274347
held,0.008095
help,0.011244
high,0.013867
higher,0.004070
highest,0.005242
histori,0.002851
hold,0.004123
hospit,0.013502
hour,0.006016
howev,0.008335
identifi,0.008277
ii,0.004480
illeg,0.006898
impair,0.008895
implant,0.037088
implement,0.004766
impli,0.005322
includ,0.011883
increas,0.003292
india,0.052416
indian,0.011334
individu,0.003531
industri,0.007815
infant,0.008226
inhous,0.011019
inner,0.013764
institut,0.043474
instruct,0.012891
intern,0.009000
introduct,0.004538
isa,0.010734
isha,0.014375
islam,0.005699
issu,0.003673
jung,0.010597
kebangsaan,0.014836
kingdom,0.009107
knowledg,0.004305
la,0.005713
labor,0.005620
languag,0.021512
latedeafen,0.017320
latin,0.005379
lead,0.003415
learn,0.004808
leed,0.011141
legal,0.004723
lesion,0.010755
level,0.003422
licens,0.020447
licensur,0.011625
like,0.003057
link,0.002488
local,0.003876
locat,0.004208
logia,0.010014
london,0.009638
longer,0.004720
loss,0.025030
low,0.004386
macquari,0.012623
mainli,0.004751
maintain,0.007981
malaysia,0.033451
malaysian,0.010349
malpractic,0.011830
manag,0.016396
manchest,0.017965
mani,0.010347
manitoba,0.012230
map,0.005235
margaret,0.008362
maslp,0.017320
mass,0.004693
master,0.042756
mayer,0.010734
measur,0.003748
median,0.008911
medic,0.015811
meet,0.009261
melbourn,0.010283
member,0.040168
membership,0.006304
met,0.005852
method,0.007089
middl,0.009437
middlesex,0.013191
minim,0.006040
minimum,0.024972
monitor,0.006189
montfort,0.014517
month,0.005056
montral,0.013693
msc,0.042239
mscaudiolog,0.017320
multilingualmulticultur,0.017320
mumbai,0.022880
nair,0.014517
nation,0.015856
nearli,0.004984
necessarili,0.005602
need,0.010321
neonat,0.011625
nerv,0.008804
nervou,0.007836
neurolog,0.008661
new,0.005112
newborn,0.010056
nh,0.009492
nidcd,0.017320
nois,0.008162
nonmed,0.011941
normal,0.004561
norman,0.008064
northern,0.005350
northwestern,0.008689
nowak,0.013791
ns,0.011019
offer,0.046814
offic,0.004606
onli,0.005269
ontario,0.018819
option,0.005972
order,0.003153
origin,0.009515
otoacoust,0.016343
ottawa,0.010523
outer,0.007312
oversea,0.013652
paroxysm,0.013426
particip,0.004514
particularli,0.004013
pass,0.004446
past,0.004540
patholog,0.024407
pathologist,0.011499
patient,0.006971
pediatr,0.010220
pension,0.007951
peopl,0.003155
percentil,0.012983
percept,0.006091
perform,0.004023
peripher,0.008811
person,0.003745
phd,0.014791
phonet,0.010755
phonolog,0.010927
physic,0.003745
physician,0.007219
physiolog,0.013482
plagu,0.008243
platform,0.007008
plug,0.010616
polytechn,0.020974
popul,0.004072
portion,0.011502
porto,0.011469
portug,0.022936
portuguesa,0.014120
posit,0.003391
possibl,0.003347
post,0.005554
postbaccalaur,0.014836
postgradu,0.009590
practic,0.045647
practicum,0.014120
practition,0.013775
praxi,0.011724
preparatori,0.011166
prerequisit,0.009492
prescrib,0.008014
prescript,0.008647
present,0.009844
prevent,0.009383
prior,0.004957
privat,0.009411
proactiv,0.010839
problem,0.003509
process,0.003102
profess,0.027432
profession,0.095722
profil,0.007085
program,0.086696
programm,0.006308
promin,0.005146
protect,0.004374
protest,0.006099
provid,0.020382
provinc,0.006066
provinci,0.007937
psycholog,0.005594
psychophys,0.010755
public,0.003305
punjab,0.011499
purpos,0.004268
qc,0.012416
qualif,0.025018
qualiti,0.009779
quebec,0.009635
queen,0.006887
queensland,0.010714
rang,0.007879
raymond,0.008554
rci,0.031401
receiv,0.007953
recent,0.003604
recogn,0.004463
recognis,0.012852
recognit,0.011410
recommend,0.006135
refer,0.002081
referr,0.010927
regist,0.025816
registr,0.008104
regul,0.009855
regulatori,0.007203
rehabilit,0.044873
relat,0.005612
relev,0.010888
remain,0.003442
renew,0.012173
requir,0.039319
research,0.016883
residenti,0.008958
resourc,0.008427
respons,0.003610
result,0.002899
robert,0.004576
role,0.003646
rout,0.006266
run,0.004574
ruskin,0.012794
s,0.005904
safeti,0.006708
salari,0.007698
saskatchewan,0.012275
say,0.004509
scd,0.014375
schier,0.016343
school,0.021173
scienc,0.021004
scientist,0.004759
screen,0.023059
second,0.003416
seek,0.004670
semest,0.011593
seri,0.004146
servic,0.016221
short,0.004437
shortag,0.007558
shown,0.005019
sign,0.004769
sinc,0.002896
singh,0.010283
skill,0.016741
societi,0.007258
someon,0.006766
soon,0.005311
sound,0.006099
southampton,0.023960
special,0.007245
specialist,0.007187
specif,0.003465
speech,0.056169
speechlanguagehear,0.033541
stakehold,0.009310
standard,0.019507
stanley,0.007629
start,0.011000
state,0.027880
statist,0.009504
stay,0.006340
sti,0.013693
stop,0.005722
strategi,0.005396
structur,0.003384
student,0.019721
studi,0.012245
subject,0.003685
supervis,0.013852
swansea,0.012918
tafe,0.014836
teach,0.011349
technolog,0.004176
term,0.013686
test,0.023677
thenpreval,0.015220
therapi,0.007378
thi,0.008666
tie,0.005650
time,0.005125
tinnitu,0.046336
tnmedic,0.017320
trace,0.005554
track,0.006409
train,0.030012
transit,0.005043
treat,0.015217
treatment,0.005328
trobe,0.015445
typic,0.011658
ucl,0.012517
uk,0.005309
undergradu,0.007715
undertak,0.007863
undevelop,0.010635
uniqu,0.004939
unit,0.020452
univers,0.102006
universit,0.011043
unknown,0.005997
use,0.002366
user,0.012852
usual,0.006971
variou,0.003297
veri,0.003308
vertigo,0.013050
vestibular,0.082749
vetassess,0.017320
veteran,0.026457
videonystagmographi,0.017320
wa,0.007125
war,0.008229
way,0.003097
western,0.017429
wide,0.003730
wiggl,0.014004
willard,0.009613
work,0.017038
world,0.002936
yavar,0.017320
year,0.008770
