aaron,0.004742
abdomen,0.010406
abdomin,0.034633
abil,0.008592
abl,0.003944
abnorm,0.003885
abov,0.005996
abrupt,0.004789
absenc,0.002870
absolut,0.002648
absorb,0.018726
accord,0.003122
account,0.003677
accur,0.010639
achiev,0.003928
acquir,0.017800
acquisit,0.006751
acta,0.004981
activ,0.001557
actual,0.005994
acut,0.020487
adapt,0.002486
addit,0.003158
address,0.002350
adjac,0.003573
adjust,0.008965
administ,0.003060
administr,0.013097
adult,0.009168
advanc,0.003856
advantag,0.016963
advent,0.003414
advers,0.010969
advic,0.003397
advis,0.006311
affect,0.004080
africanborn,0.006956
age,0.003910
agenc,0.002455
agent,0.031942
agre,0.002353
aid,0.002342
air,0.004796
airport,0.003438
alessandro,0.004768
algebra,0.013410
algorithm,0.015649
allan,0.012908
allergictyp,0.007749
allianc,0.002919
allow,0.015525
alon,0.005339
altern,0.008024
alway,0.002099
ambul,0.005438
america,0.004375
american,0.010613
analysi,0.005645
anaphylaxi,0.013912
anatom,0.016657
anatomi,0.007332
andor,0.002732
angel,0.003743
angiogram,0.021651
angiograph,0.007444
angiographi,0.011971
angl,0.017619
ani,0.009631
anisotrop,0.005609
annihil,0.004428
announc,0.002621
anod,0.005576
anoth,0.009009
anterior,0.015048
apart,0.002861
apparatu,0.007770
appear,0.014466
append,0.010994
appl,0.004065
appli,0.001668
applic,0.009322
approach,0.003593
appropri,0.005005
approxim,0.004255
archaeolog,0.003342
area,0.013955
arrang,0.002545
array,0.013626
art,0.002388
artefact,0.009979
artefactsppt,0.007749
arteri,0.023068
arterioven,0.006883
articl,0.003710
artifact,0.051788
asia,0.002680
asic,0.006255
assembl,0.004874
assess,0.005318
assist,0.002327
associ,0.010675
assum,0.004325
assur,0.003557
asymptomat,0.006539
atkinson,0.005319
atom,0.008189
atresia,0.007121
attempt,0.001780
attenu,0.039647
australian,0.003246
austrian,0.003739
autom,0.006987
automat,0.009561
avail,0.011450
averag,0.009327
avidli,0.006695
avoid,0.009327
award,0.002752
axi,0.014321
axial,0.054244
background,0.008043
baggageparcel,0.007749
barium,0.022111
base,0.017684
basic,0.001893
batteri,0.004229
beam,0.042556
beat,0.003959
beatl,0.006188
becaus,0.017004
becom,0.007534
befor,0.004823
began,0.003759
believ,0.001947
bend,0.004401
benefit,0.004568
benign,0.005071
bertil,0.006493
best,0.008299
better,0.008491
big,0.002850
biolog,0.002232
black,0.002540
block,0.005608
blood,0.003065
blur,0.030683
blurri,0.006188
bodi,0.030224
bodili,0.004113
bomb,0.003564
bond,0.002688
bone,0.042369
bore,0.004225
bowel,0.021481
bracewel,0.007444
brain,0.018074
brainscan,0.007444
branch,0.002001
break,0.002594
breast,0.004619
bright,0.004116
broaden,0.004014
broke,0.003228
bronchi,0.006493
build,0.007968
built,0.009387
builtin,0.005099
bulk,0.003337
busi,0.002122
calcif,0.012986
calculatoramerican,0.007749
calgari,0.006067
campaign,0.011320
canada,0.002700
cancel,0.003571
cancer,0.072815
capacitor,0.005410
captur,0.002588
cardiac,0.019475
care,0.002368
carri,0.002032
cartilag,0.021988
case,0.014187
cat,0.007999
cathet,0.006448
cathod,0.005247
caus,0.021876
ceas,0.003184
cell,0.005423
center,0.004021
central,0.003534
centuri,0.001618
ceram,0.004433
certain,0.005176
cervicomedullari,0.007749
cesium,0.013177
chamber,0.003345
chanc,0.003035
chang,0.002842
characterist,0.002173
chemic,0.002400
chest,0.009484
children,0.015558
chosen,0.002881
chronic,0.007750
circl,0.009114
circular,0.003674
circumst,0.002896
claim,0.001913
clear,0.004693
clinic,0.009864
closest,0.003816
closet,0.005911
cohort,0.005139
coil,0.004868
colleg,0.008211
colon,0.010036
colonographi,0.015499
colonoscopi,0.020449
color,0.006282
combin,0.003596
commerci,0.007247
commiss,0.002510
common,0.012197
commonli,0.018846
compact,0.003720
compani,0.005973
compar,0.014920
comparison,0.002644
complaint,0.004178
complet,0.006966
complex,0.007380
compon,0.006514
compos,0.002392
compromis,0.003625
compton,0.005259
comput,0.066862
computer,0.013875
computerprocess,0.007444
conceal,0.004501
conceiv,0.006622
concentr,0.002467
concept,0.001759
conceptu,0.003035
concern,0.005311
concert,0.004251
condit,0.003528
cone,0.004452
conebeam,0.007749
confirm,0.002718
conic,0.009911
connect,0.002076
consensu,0.003145
conserv,0.002503
consider,0.002119
consist,0.003375
construct,0.005858
contain,0.003618
contemporari,0.002466
content,0.002488
context,0.004436
contigu,0.004729
continu,0.003055
contrast,0.042603
contrastinduc,0.007749
contribut,0.001850
convent,0.026860
cope,0.004047
copi,0.003040
cormack,0.032943
coron,0.004742
coronari,0.016358
correct,0.005078
correspond,0.009156
cosmic,0.003857
cost,0.008868
council,0.002299
count,0.017255
countri,0.001659
coupl,0.002918
coverag,0.011379
cranial,0.010589
creat,0.003084
cross,0.002752
crosssect,0.023486
crystal,0.003537
ct,0.637403
ctcasescomput,0.007749
ctdi,0.007749
ctguid,0.007217
ctisusct,0.007749
ctpa,0.007749
ctx,0.007121
cumul,0.004002
cup,0.004232
current,0.009686
curvedplan,0.007749
cut,0.005354
cycl,0.002585
d,0.014290
damag,0.010885
dark,0.003260
data,0.026162
date,0.002107
david,0.002240
dd,0.005213
death,0.004417
dec,0.004972
decad,0.004584
decid,0.002457
dedic,0.003029
defect,0.007444
definit,0.001993
deflect,0.009345
degre,0.002065
dehydr,0.005247
delay,0.003220
delin,0.004331
demonstr,0.002266
dens,0.003589
densiti,0.012172
dental,0.004817
depart,0.006633
depend,0.006655
depth,0.003311
deriv,0.001917
describ,0.004656
design,0.012965
desir,0.007120
despit,0.002138
detect,0.030462
detector,0.103183
determin,0.001751
determinist,0.004026
develop,0.016395
devic,0.008454
diabet,0.004461
diagnos,0.012253
diagnosi,0.022957
diagnost,0.024228
dialysi,0.018036
did,0.003743
differ,0.017379
differenti,0.005106
difficult,0.002199
digit,0.002815
dilut,0.013189
dimension,0.007801
direct,0.003349
disadvantag,0.003739
disc,0.004591
disciplin,0.002323
discoveri,0.002361
discuss,0.004115
diseas,0.010566
disjunct,0.005424
disloc,0.005061
disord,0.003250
display,0.042989
disput,0.005073
distinguish,0.004477
distort,0.003560
distressingli,0.007444
divid,0.001999
dna,0.006509
doctor,0.006018
doe,0.010237
doinpr,0.007749
domin,0.002075
dosag,0.005452
dose,0.225239
doubl,0.002791
dramat,0.005695
driven,0.002935
drug,0.005948
dti,0.006816
dure,0.007258
dynam,0.007092
earli,0.007592
earlier,0.002243
earliest,0.002537
earth,0.004767
easier,0.003250
easili,0.005202
ebt,0.014889
edema,0.012078
edg,0.009937
edholm,0.007749
editori,0.004327
effect,0.028023
eightfold,0.005497
elderli,0.008503
electr,0.005020
electromagnet,0.003403
electron,0.012702
element,0.007723
elimin,0.005251
embol,0.006125
emerg,0.011674
emi,0.039532
emiscann,0.030999
emiss,0.014410
emit,0.003800
emphysema,0.006753
employ,0.004027
enabl,0.002407
enclos,0.004123
endors,0.003593
enema,0.006588
energi,0.019128
engin,0.002187
england,0.002634
enhanc,0.005624
ensur,0.002494
entir,0.005907
equal,0.002067
equat,0.002525
equip,0.016286
equival,0.004891
error,0.002886
especi,0.007051
essenti,0.002110
establish,0.008101
estim,0.023500
etymolog,0.003231
europ,0.002058
evalu,0.013153
everi,0.007599
evid,0.008281
exagger,0.004232
exam,0.008705
examin,0.021386
exampl,0.010877
examsamerican,0.007749
exceed,0.003188
excel,0.003284
excess,0.014669
excit,0.003701
exist,0.009058
expect,0.004171
experienc,0.002725
expert,0.005997
expir,0.004103
explicitli,0.003090
explos,0.006730
explosivedetect,0.007749
expos,0.015205
exposur,0.037115
extend,0.002002
extent,0.004996
extern,0.002374
extinguish,0.005061
extrem,0.002177
facil,0.005820
fact,0.001927
factor,0.007699
failur,0.013207
faith,0.003035
famou,0.002508
far,0.002058
fast,0.009323
faster,0.009501
fatal,0.003946
fda,0.005016
fear,0.002848
feasibl,0.003688
februari,0.002466
feet,0.003707
femal,0.003048
fetu,0.009911
fewer,0.006439
fibrosi,0.005662
field,0.011605
filler,0.006188
film,0.012316
filter,0.011352
final,0.001963
financi,0.002167
finit,0.003139
fix,0.007229
flaw,0.003870
flow,0.002390
fluoroscop,0.007035
fluoroscopi,0.006290
focal,0.004553
focu,0.004454
follow,0.006493
followingchapt,0.007749
food,0.002336
form,0.008686
forth,0.003300
fossa,0.012312
foundat,0.002116
fourphas,0.007749
fpga,0.006640
fractur,0.009160
frank,0.003178
fraught,0.005662
frequenc,0.003102
frequent,0.006846
frostbitten,0.007749
fruit,0.003217
fs,0.010714
fullbodi,0.012312
fullmot,0.007749
function,0.009972
fund,0.002238
furthermor,0.002782
fusion,0.007568
futur,0.001977
ga,0.002731
gabor,0.005985
garnet,0.006448
gemston,0.005576
gener,0.013998
gentli,0.011515
geometri,0.009933
georgetown,0.005225
given,0.004884
global,0.002155
godfrey,0.016728
goe,0.002921
gpu,0.005718
gradual,0.002609
grain,0.003527
graphein,0.006588
gray,0.008100
grayscal,0.006539
greater,0.006134
greatest,0.002856
greatli,0.002658
greek,0.002298
grey,0.004327
greyscal,0.007035
group,0.002928
grow,0.002081
grown,0.003126
gsi,0.006493
guid,0.002295
guidelin,0.018003
gun,0.003811
ha,0.030310
haemorrhag,0.013633
hair,0.003865
half,0.006704
harden,0.009962
harder,0.004035
hardwar,0.003797
harm,0.003129
hay,0.004531
head,0.027245
headach,0.010542
headcap,0.007749
health,0.009052
healthi,0.003544
heart,0.011919
height,0.003236
helic,0.024992
help,0.003554
hemorrhag,0.006012
henc,0.002533
herman,0.004335
hi,0.004366
high,0.024657
highcontrast,0.007217
highdens,0.012510
higher,0.019300
higherresolut,0.014647
highest,0.004972
highli,0.006411
highlight,0.003342
highperform,0.005307
highpressur,0.005738
highradi,0.007749
histor,0.003647
histori,0.004056
homogen,0.003656
hospit,0.006402
hounsfield,0.056972
hour,0.005705
howev,0.018445
hu,0.034809
human,0.001564
hvac,0.006753
hydrat,0.005307
hyperdens,0.014889
hypodens,0.007749
iaea,0.004553
idea,0.005466
ift,0.007323
imag,0.259977
imagebas,0.006255
imaginari,0.004251
imatron,0.007749
impact,0.004449
impair,0.008436
implant,0.008793
import,0.002769
imposs,0.005490
improv,0.015982
incent,0.003379
incid,0.006424
incident,0.004891
incidentaloma,0.015169
includ,0.012396
incompress,0.005935
incorrect,0.003865
increas,0.028100
increasingli,0.007179
independ,0.001667
index,0.005158
indic,0.005991
individu,0.006698
induc,0.009644
industri,0.016677
ineffect,0.004107
inertia,0.004580
infarct,0.011870
infinit,0.003178
inform,0.006455
inher,0.003111
initi,0.005291
inject,0.008016
injuri,0.017994
inplan,0.007444
insert,0.003766
insid,0.008168
inspect,0.004056
inspir,0.002686
instal,0.006407
instead,0.007606
institut,0.003435
instrument,0.002499
insuffici,0.007361
integr,0.001959
intens,0.010785
interact,0.002025
interbodi,0.007749
interchang,0.003715
interior,0.006371
intern,0.008535
interpret,0.002165
intersect,0.003658
interstiti,0.005842
intervent,0.005891
intervertebr,0.006493
intracrani,0.012581
intravascular,0.006956
intraven,0.032717
introduc,0.003808
introduct,0.004304
intussuscept,0.007217
invas,0.002960
invent,0.010566
invers,0.003428
investig,0.011374
involv,0.009442
iodid,0.011324
iodin,0.019790
iodinebas,0.007749
ion,0.003520
ionic,0.004491
ioniz,0.008589
iron,0.002907
irradi,0.010142
isotrop,0.016583
issu,0.003484
italian,0.003046
itch,0.006255
item,0.002977
iter,0.008125
jacobson,0.005757
japan,0.002684
johann,0.003473
joint,0.002858
juli,0.002344
kaczmarz,0.007323
key,0.002065
kidney,0.022213
kingdom,0.004318
knive,0.005626
known,0.016276
laboratori,0.002754
landmark,0.003821
larg,0.017165
larger,0.006427
lasker,0.006640
late,0.003758
later,0.008070
launch,0.005466
law,0.001635
layer,0.003124
lead,0.009716
leakag,0.005512
learn,0.004560
led,0.003503
ledley,0.007217
left,0.002163
leftright,0.005497
legal,0.002239
length,0.005385
lesion,0.010199
level,0.009737
lie,0.002659
lifetim,0.010426
ligament,0.005609
lightweight,0.005247
like,0.001449
likelihood,0.003763
limit,0.013260
line,0.001942
linear,0.011551
lineartifact,0.007749
link,0.001180
liquid,0.002909
list,0.001509
literatur,0.004849
littl,0.006231
live,0.001754
lo,0.003722
local,0.001838
long,0.001762
longer,0.002238
look,0.002240
lost,0.002358
low,0.008320
lower,0.016043
lowerosmolar,0.007749
lowest,0.012912
lumbar,0.006125
lung,0.025465
machin,0.018343
magnet,0.003185
magnitud,0.003348
main,0.003436
mainli,0.002253
maintain,0.001892
major,0.004319
make,0.008280
malform,0.005626
malign,0.010123
mani,0.011039
manipul,0.002905
manner,0.005238
manual,0.003428
manufactur,0.015528
map,0.004965
mar,0.007427
margin,0.002974
markedli,0.004642
market,0.002031
mass,0.002225
massachusett,0.003558
massiv,0.002887
match,0.002886
materi,0.020919
mathemat,0.014934
mathematician,0.006643
matrix,0.010220
maxim,0.003086
maximum,0.002951
maximumintens,0.007749
mayo,0.010663
mcfadden,0.006588
mcleod,0.018872
mean,0.007473
measur,0.010665
mechan,0.008016
media,0.002489
medic,0.049984
medicalimag,0.007749
medicin,0.015525
medium,0.003093
meet,0.002195
mere,0.002669
mesh,0.004762
metal,0.011298
method,0.026892
metrolog,0.005864
mgi,0.053092
michael,0.002497
midtwentieth,0.005370
mild,0.008377
million,0.006394
millisecond,0.005129
minicomput,0.018663
minim,0.002864
minimumintens,0.007749
minor,0.002511
minut,0.009718
mip,0.018376
mipminip,0.007749
miscalibr,0.007749
mm,0.003971
mobil,0.002882
modal,0.004307
mode,0.003055
model,0.005071
modelbas,0.005911
moder,0.006217
modern,0.008139
molecul,0.002930
money,0.002425
mono,0.005911
monochromat,0.005985
month,0.004795
morley,0.005576
mortal,0.007254
mostli,0.002315
motion,0.010954
motiv,0.002651
mount,0.006327
movement,0.001871
mpr,0.013633
mri,0.018814
msct,0.007749
msv,0.033477
multidetector,0.007444
multimateri,0.007749
multipl,0.018786
multiplanar,0.022753
multisl,0.007749
multislic,0.022753
muscl,0.003763
museum,0.003272
music,0.002982
n,0.002437
nail,0.009979
nation,0.004511
nativephas,0.007749
natter,0.007035
natur,0.002897
nausea,0.005757
near,0.002231
need,0.006525
negat,0.004319
neglig,0.004038
neoplasm,0.006366
nephropathi,0.007217
neuroimag,0.005225
neurolog,0.004107
neurologist,0.005799
neurosurgeri,0.005842
new,0.004848
newer,0.015941
nirvana,0.005294
nlocal,0.007323
nobel,0.003159
nodul,0.017461
nois,0.034832
nondestruct,0.005864
nonion,0.006039
nonorthogon,0.006753
nontomograph,0.007584
nonuniform,0.005452
normal,0.004326
north,0.004309
note,0.004694
notic,0.003080
nova,0.004090
nuclear,0.005546
number,0.013576
numer,0.002010
object,0.027827
obliqu,0.010714
obscur,0.003759
observ,0.001791
obsolet,0.004232
obstruct,0.004602
obtain,0.018984
occur,0.018966
octob,0.007040
offer,0.006054
offici,0.002060
offset,0.003946
ogilvi,0.006188
old,0.006736
oldendorf,0.023249
older,0.002847
onc,0.004055
ongo,0.005939
onli,0.019987
oper,0.006848
opportun,0.002563
opposit,0.006699
optim,0.005757
option,0.002831
oral,0.007013
order,0.002991
organ,0.010362
origin,0.006015
orthogon,0.009193
orthopantomographi,0.007749
os,0.004955
otherwis,0.002581
outcom,0.005549
outofplan,0.007444
outsid,0.004140
outweigh,0.009215
overal,0.002483
overcom,0.003332
overdos,0.005757
overread,0.007749
overst,0.005543
overus,0.005213
overview,0.002719
oxid,0.003600
pain,0.003437
pancreat,0.005527
paper,0.002239
parallel,0.005624
paramet,0.009386
parenchyma,0.006366
parent,0.003056
partial,0.007489
particular,0.005096
particularli,0.003806
partli,0.002918
pass,0.002108
past,0.002152
patch,0.004433
patent,0.003621
path,0.005503
patholog,0.003857
patient,0.066112
pattern,0.002315
paul,0.002359
pay,0.002533
pcd,0.020086
pct,0.006366
pdp,0.005778
pe,0.004853
pediatr,0.029078
peel,0.005482
pelvi,0.005842
pelvic,0.005497
pend,0.004580
penetr,0.003625
peopl,0.017955
percent,0.005451
percentag,0.003024
perfect,0.003032
perfor,0.005576
perform,0.020986
perfus,0.006327
perhap,0.002522
period,0.003225
periton,0.006366
permit,0.005528
perpendicular,0.004521
person,0.003551
perspex,0.006956
persuad,0.003921
pet,0.004302
pfizer,0.012897
phenomenon,0.002795
photodiod,0.006493
photomultipli,0.028140
photon,0.043620
physic,0.012430
physician,0.010270
physicist,0.006424
pictur,0.006076
pillar,0.004113
pioneer,0.002834
pitch,0.009273
pivot,0.004044
pixel,0.031486
place,0.001534
plain,0.007092
plan,0.002055
plane,0.042492
platten,0.007749
play,0.001959
pluridirect,0.007323
pneumoencephalographi,0.007444
point,0.004722
polar,0.003324
polish,0.003666
polychromat,0.006816
polyp,0.006067
poor,0.002683
popul,0.005792
portabl,0.009053
portion,0.002727
posit,0.008041
positron,0.009285
possibl,0.004761
postcontrast,0.007444
posterior,0.009814
postnov,0.007749
potenti,0.004029
power,0.007962
practic,0.013319
precaut,0.005016
preced,0.002948
precis,0.002563
precontrast,0.007749
predominantli,0.003454
preexist,0.008473
prefer,0.002383
present,0.004668
preshap,0.007444
pressur,0.002342
preval,0.003426
prevent,0.002224
previou,0.002346
primarili,0.002127
principl,0.003736
print,0.002922
prior,0.004701
prize,0.002902
probabl,0.004466
problem,0.006657
procedur,0.010840
process,0.016182
produc,0.021049
product,0.004865
profession,0.005043
profound,0.003549
program,0.005872
progress,0.002121
project,0.021181
promis,0.002924
prompt,0.003406
properti,0.001884
proport,0.012864
propos,0.001920
protect,0.004148
protocol,0.007037
prototyp,0.016056
provid,0.004142
public,0.003134
publicli,0.003330
publish,0.001727
pulmonari,0.031088
purchas,0.002646
purpos,0.006072
pyramid,0.004181
qualiti,0.016230
quantit,0.002891
quickli,0.002533
radiant,0.005181
radiat,0.174530
radiocontrast,0.051266
radiodens,0.037224
radiograph,0.023741
radiographi,0.023943
radiolog,0.079162
radiologist,0.006012
radiosurgeri,0.006956
radon,0.036734
rais,0.004590
ramp,0.005559
rang,0.007472
rapidli,0.002623
rare,0.005122
rash,0.011253
rate,0.009642
ratio,0.005613
raw,0.006439
reach,0.004011
reaction,0.012653
read,0.001714
realiti,0.002684
reason,0.005314
receiv,0.016970
recent,0.008545
recognis,0.003047
recognit,0.002705
recommend,0.008727
reconstruct,0.083507
record,0.004160
reduc,0.022436
reduct,0.011359
refer,0.005921
reformat,0.020261
regard,0.001893
region,0.001767
reject,0.002433
rel,0.005308
relat,0.001330
relationship,0.001883
relev,0.002581
reliabl,0.002951
remain,0.006529
rememb,0.003623
remov,0.004557
renal,0.016273
render,0.022658
replac,0.006033
report,0.011381
repres,0.004856
represent,0.012449
requir,0.017090
research,0.009606
resolut,0.051327
reson,0.003777
respond,0.002661
respons,0.008559
rest,0.002312
restrict,0.002287
result,0.004124
revenu,0.002879
revers,0.002717
review,0.004422
right,0.005313
ring,0.023399
rise,0.001986
risk,0.048569
rntgenographi,0.007749
robert,0.002170
rod,0.004267
role,0.001728
ronald,0.003525
room,0.006402
rotat,0.035941
routin,0.003542
row,0.015266
rubber,0.004282
run,0.002168
s,0.013997
safer,0.004824
safeti,0.006362
sagitt,0.006539
sale,0.002875
sampl,0.002941
saraswat,0.007749
sarcophagi,0.006695
saw,0.002415
scale,0.004467
scan,0.334965
scanner,0.165532
scatter,0.003644
scenario,0.007149
schedul,0.003280
scintil,0.017335
screen,0.032802
second,0.006479
secondari,0.002810
section,0.012227
secur,0.006290
sedat,0.005699
seek,0.002214
seen,0.011619
segment,0.006762
select,0.002146
sell,0.002791
semitranspar,0.006883
senior,0.003271
sensor,0.008181
separ,0.003606
sequenc,0.002739
seri,0.005898
servomechan,0.006539
set,0.010702
seven,0.002589
sever,0.010023
shade,0.004496
shape,0.004704
share,0.003846
sharp,0.006671
sharper,0.011476
shield,0.003870
short,0.006313
shorten,0.004171
shown,0.007140
shroud,0.005738
siemen,0.005512
sievert,0.020651
signal,0.005679
signific,0.003506
significantli,0.002533
sijber,0.007444
similar,0.019682
simpl,0.004364
simplest,0.003503
simpli,0.002241
simplifi,0.003198
simultan,0.002878
sinc,0.006867
singl,0.016543
singlephoton,0.006588
sinogram,0.015169
sir,0.006200
site,0.006941
situat,0.004229
sixfold,0.006067
size,0.002139
skin,0.003483
skull,0.004387
slice,0.072807
slid,0.006125
slowli,0.003166
small,0.008403
smaller,0.002335
smoker,0.005438
smoothli,0.005025
societi,0.012046
soft,0.003506
softwar,0.017461
solar,0.006552
solid,0.002952
solut,0.007050
solv,0.005055
someon,0.006417
sometim,0.007152
soon,0.002518
sophist,0.003160
sourc,0.015549
south,0.002151
space,0.004235
spatial,0.006422
special,0.008589
specif,0.009860
spect,0.011822
spectral,0.008436
spectrum,0.006496
speed,0.011235
spent,0.003036
spin,0.011428
spine,0.013945
spiral,0.008406
spun,0.010320
stack,0.008565
stage,0.002398
standard,0.001850
start,0.001738
starvat,0.004531
state,0.009614
stationari,0.007964
steadili,0.003623
steel,0.003440
stefan,0.004703
stereotact,0.006406
straighten,0.011437
strand,0.003916
strategi,0.002558
streak,0.033262
strict,0.006383
strictli,0.003239
stripe,0.005007
stroke,0.008775
structur,0.027282
studi,0.014516
subject,0.001747
subsecond,0.007749
subsequ,0.004287
substanti,0.002549
success,0.001821
suffici,0.002539
suggest,0.001922
suitabl,0.009147
sulfat,0.014745
superimposit,0.006753
superior,0.003057
supplant,0.004387
supplement,0.003400
suppli,0.004478
support,0.004899
suppress,0.006291
surfac,0.009948
surgeri,0.007745
surgic,0.004160
surround,0.007546
surveil,0.008671
suscept,0.007919
suspect,0.014682
suspens,0.004267
sweep,0.004207
swell,0.004537
symptom,0.003908
synchron,0.004511
syndrom,0.004185
synthes,0.003569
t,0.002389
tabl,0.005287
taken,0.008044
tank,0.007609
target,0.007672
task,0.002548
techniqu,0.059103
technolog,0.009902
technologist,0.021429
tempor,0.007239
temporal,0.007444
tend,0.002255
term,0.011681
test,0.006736
theori,0.003220
therapeut,0.004053
therefor,0.003733
thi,0.063698
thinner,0.005307
threat,0.002881
threedimension,0.015091
threshold,0.011478
thu,0.001605
time,0.008507
tissu,0.019915
titanium,0.004915
titl,0.002465
today,0.003946
togeth,0.001894
tome,0.005203
tomogram,0.007217
tomograph,0.063664
tomographi,0.173170
took,0.004291
tool,0.004398
tractor,0.005410
tradit,0.001729
trailer,0.005960
transform,0.013490
transit,0.002391
translaterot,0.015499
transmit,0.003365
transpar,0.003515
transport,0.002354
transvers,0.019048
trauma,0.013611
traumat,0.004748
travel,0.002425
treat,0.004810
treatabl,0.006067
treatment,0.007580
tribut,0.004097
tube,0.056934
tuft,0.005370
tumor,0.022051
tunabl,0.005887
turn,0.001898
twodimension,0.013272
twoyear,0.004466
type,0.023120
typic,0.014742
ucla,0.005052
uk,0.002517
ultrasonographi,0.006255
unabl,0.002854
undemand,0.007217
underestim,0.004585
undersampl,0.007749
unit,0.031864
univers,0.004267
unlik,0.002287
unnecessari,0.004056
unnecessarili,0.005294
unsharp,0.007444
unwant,0.004574
urgent,0.004672
urographi,0.007749
use,0.098766
user,0.003047
usual,0.009917
util,0.004969
vallebona,0.007749
valu,0.010562
vari,0.006074
variabl,0.005021
variat,0.007724
varieti,0.006187
variou,0.007818
vascular,0.009053
vastli,0.004294
vc,0.010450
veri,0.012549
versa,0.007796
versu,0.003206
vertebr,0.008162
vessel,0.010032
veteran,0.004181
viabl,0.003779
vice,0.006360
video,0.003023
view,0.008802
viewer,0.004817
violin,0.006012
virtual,0.008149
visibl,0.006072
vision,0.002975
visual,0.005796
visualis,0.015480
voltag,0.008962
volum,0.042351
volumetr,0.005738
vomit,0.005331
voxel,0.025627
wa,0.031534
wall,0.002908
war,0.001951
watch,0.003501
water,0.004237
waterfil,0.006125
watertank,0.007749
way,0.001468
week,0.002886
wellknown,0.003224
west,0.002358
wheel,0.004136
white,0.002607
wholebodi,0.006695
wide,0.001769
william,0.002201
wimbledon,0.007444
windmil,0.005626
window,0.027022
wise,0.004290
word,0.001906
work,0.004039
worker,0.002556
workstat,0.005718
world,0.005570
write,0.002147
wv,0.006290
x,0.002432
xenon,0.005357
xray,0.221020
xyaxi,0.007749
year,0.012476
yearold,0.004002
zaxi,0.006012
zdirect,0.007121
