acquir,0.022735
acut,0.036634
addit,0.014121
agent,0.095198
america,0.019562
antibiot,0.078782
antifung,0.058055
antimicrobi,0.053754
antivir,0.054502
appropri,0.044750
area,0.013863
ask,0.023075
associ,0.013635
bacteri,0.036463
base,0.012162
blood,0.027409
board,0.024281
care,0.021177
case,0.028189
caus,0.045138
certain,0.015428
chain,0.025184
chronic,0.034649
clinic,0.058800
common,0.027264
complex,0.016497
consist,0.015090
consult,0.052070
control,0.014979
cultur,0.016952
deal,0.018163
depend,0.014876
determin,0.015657
diagnos,0.036520
diagnosi,0.068419
diagnost,0.072209
difficult,0.019664
diseas,0.141708
employ,0.036010
ensur,0.022301
expertis,0.033111
extern,0.010614
fellow,0.030691
fever,0.038692
form,0.011095
formal,0.018163
fungal,0.043464
genotyp,0.041723
gram,0.040566
help,0.063563
histor,0.016305
histori,0.012089
hiv,0.042167
hivaid,0.047450
hospit,0.057247
hospitalacquir,0.073432
id,0.559102
identifi,0.035093
idsa,0.069292
immunodefici,0.050958
improv,0.017861
includ,0.010076
infect,0.527120
infecti,0.272164
infectiolog,0.073432
inpati,0.052236
intern,0.012719
internist,0.057659
investig,0.020339
involv,0.014071
known,0.012127
larg,0.012789
link,0.010551
longterm,0.025536
manag,0.034757
mani,0.021935
medic,0.044691
medicin,0.115674
natur,0.012953
nosocomi,0.073432
organ,0.013235
origin,0.013447
outcom,0.024807
outpati,0.097768
pathogen,0.039034
patient,0.088666
pcr,0.045256
pediatr,0.043331
pediatrician,0.053996
physician,0.061217
polymeras,0.042457
practic,0.029773
provid,0.012345
qualifi,0.029259
reaction,0.022627
recommend,0.052024
refer,0.008824
scope,0.025942
serolog,0.059372
serv,0.017565
sit,0.032465
societi,0.015386
sourc,0.015447
specialist,0.304726
specialti,0.034878
stain,0.040473
state,0.021491
subspecialti,0.045597
subtrop,0.044691
test,0.080308
time,0.010866
train,0.042414
travel,0.021685
treat,0.129029
treatment,0.067775
tropic,0.062680
type,0.029530
typic,0.016476
unit,0.024774
unknown,0.025426
use,0.020069
varieti,0.036879
viral,0.040290
year,0.012394
