academi,0.019974
accord,0.010368
accur,0.017665
adult,0.020298
age,0.012985
al,0.017785
altern,0.026647
america,0.014531
american,0.023496
andor,0.036290
applic,0.012383
approach,0.011933
area,0.010298
art,0.015862
articul,0.050084
articular,0.043125
asia,0.017803
associ,0.030387
atlant,0.021972
audibl,0.035496
australasia,0.034484
author,0.011674
ayurved,0.036410
b,0.013734
berkeley,0.024418
biomechan,0.031672
bodi,0.037638
bodywork,0.090545
bonesett,0.052815
book,0.011882
breakdown,0.025738
bubbl,0.026209
burnham,0.073020
butterworthheinemann,0.037980
calif,0.036819
cam,0.101040
care,0.015730
categori,0.015977
caus,0.011176
cavit,0.041545
center,0.013355
chines,0.017999
chiropractor,0.125344
classif,0.018477
clinic,0.021839
clinician,0.032860
commonli,0.041723
complementari,0.048863
complex,0.012255
conjunct,0.023404
connect,0.027578
consensu,0.020891
contact,0.017574
contractil,0.038951
control,0.011127
convent,0.016217
cs,0.025589
ct,0.028995
cultur,0.012593
defin,0.034482
definit,0.013243
describ,0.020617
determin,0.011631
diagnos,0.027128
differ,0.017757
direct,0.011121
directli,0.013457
disabl,0.024391
dispel,0.037488
dissemin,0.026083
distract,0.030064
dure,0.028923
dynam,0.015702
elast,0.025255
elimin,0.017437
et,0.017332
europ,0.013672
exclud,0.018969
extens,0.013616
extern,0.007884
facilit,0.018178
featur,0.027273
feder,0.016054
fluid,0.021254
focus,0.014036
forc,0.021614
form,0.032966
function,0.011039
fundament,0.013807
ga,0.018140
ha,0.014379
half,0.014841
hand,0.013359
handson,0.073851
hartford,0.041318
health,0.030063
healthcar,0.025396
howev,0.008750
improv,0.079610
includ,0.014969
increas,0.010368
index,0.017128
induc,0.021350
inflamm,0.033315
inform,0.042877
instantan,0.028289
integr,0.039035
intend,0.016691
interact,0.013452
intern,0.009448
interstiti,0.038802
introduct,0.014293
isbn,0.025492
j,0.013540
joint,0.094926
journal,0.055472
kain,0.041099
karel,0.036410
kimberli,0.041545
knead,0.092401
korr,0.052815
lay,0.020285
lewit,0.052815
limit,0.011008
link,0.015676
list,0.010023
locomotor,0.047298
mainstream,0.021874
maint,0.028825
mangalor,0.052815
mani,0.008147
manipul,0.212293
manipulationmobil,0.052815
manual,0.455352
massag,0.109530
mckenzi,0.037371
medic,0.016598
medicin,0.085926
member,0.023000
method,0.011163
mobil,0.076583
modul,0.024338
mohanti,0.047933
motion,0.018188
movement,0.012429
mtfi,0.052815
multipl,0.013863
muscl,0.049995
musculoskelet,0.035845
myofasci,0.145926
myth,0.023018
nation,0.009987
nccih,0.046724
new,0.008051
noncontractil,0.050374
north,0.028622
notabl,0.013830
number,0.018034
occup,0.037562
order,0.009932
organ,0.009831
orthopaed,0.086867
osteopath,0.151922
osteopathi,0.046724
oxford,0.016935
pain,0.045658
patient,0.021954
peer,0.025132
peerreview,0.028825
pelvic,0.036510
permit,0.018358
physiatrist,0.051472
physic,0.070765
physician,0.045473
physiolog,0.021230
physiotherapist,0.041099
physiotherapistsphys,0.052815
pop,0.030913
practic,0.033174
practition,0.065076
prayer,0.027234
primarili,0.014128
princip,0.016145
procedur,0.017999
process,0.009770
profess,0.086394
profession,0.016747
provid,0.027510
psychotherapi,0.031073
public,0.010409
pubm,0.046200
purpos,0.013444
qigong,0.042551
qualiti,0.015399
rang,0.012407
rapid,0.017912
rd,0.018507
read,0.011384
reader,0.022352
reduc,0.012418
refer,0.006554
rehabilit,0.028264
relax,0.025057
releas,0.032764
repair,0.023336
repetit,0.026739
research,0.010634
restrict,0.015192
review,0.029374
rom,0.038242
rotat,0.021700
rub,0.033617
s,0.009296
scope,0.019270
shear,0.030795
skelet,0.031948
slower,0.026209
soft,0.069874
softtissu,0.041781
sound,0.019208
special,0.011409
specif,0.032745
stabil,0.017013
state,0.023946
stretch,0.022997
strip,0.023939
structur,0.021317
studi,0.009641
style,0.037594
survey,0.017535
techniqu,0.014019
therapeut,0.053841
therapi,0.557662
therapist,0.252664
tissu,0.154313
tradit,0.022975
treat,0.047923
treatment,0.016781
typic,0.012238
umasankar,0.052815
unit,0.018402
use,0.081996
usual,0.010978
util,0.016504
wa,0.029920
weiselfishgiammatteo,0.052815
west,0.015664
western,0.013722
whi,0.016785
world,0.009248
year,0.009206
