abandon,0.008924
aborigin,0.028673
academ,0.007156
access,0.006610
accomplish,0.009602
accord,0.009555
achiev,0.006010
achomawi,0.025134
act,0.043684
activ,0.004767
actual,0.006114
address,0.007194
adher,0.009664
adopt,0.006593
affect,0.012486
agenc,0.007516
aim,0.006822
airfa,0.050268
aka,0.013023
alcohol,0.010968
aleut,0.022783
allegori,0.015116
alreadi,0.006960
altern,0.006139
america,0.013391
american,0.184049
ancc,0.021793
ancestor,0.010268
ancient,0.006922
anhuac,0.023716
ani,0.004210
animist,0.016241
anthropologist,0.012257
antonio,0.012442
apach,0.052863
apocalyps,0.016317
apocalypt,0.016731
apolog,0.058210
appli,0.015322
arapaho,0.023716
area,0.009490
arriv,0.007690
articl,0.005678
ask,0.007898
aspir,0.012010
assembl,0.007458
assimil,0.024941
attend,0.009116
august,0.014520
authent,0.012101
author,0.010758
aztec,0.029987
backtoourheritag,0.025134
ban,0.019252
band,0.031166
base,0.012489
becam,0.010531
becaus,0.008673
befor,0.009840
belief,0.053981
believ,0.017875
belong,0.008139
beneficent,0.025134
big,0.008722
black,0.007774
blackfoot,0.025134
bless,0.013654
board,0.008310
boern,0.050268
bolemaru,0.025134
broad,0.007737
brother,0.009660
brush,0.015141
build,0.006096
burden,0.010996
buy,0.009113
c,0.005513
caddo,0.050268
california,0.008837
calpulli,0.047433
came,0.018925
canada,0.024792
canadian,0.009793
canon,0.010476
carri,0.006219
carrizo,0.050268
carv,0.012786
case,0.009648
cast,0.009800
cathol,0.009315
caus,0.005149
cavalri,0.014119
cede,0.012348
centro,0.016965
centuri,0.009909
ceremoni,0.213018
cheyenn,0.041720
chicano,0.068350
chief,0.008034
children,0.015870
christ,0.036935
christian,0.119640
christianst,0.023211
church,0.095896
circl,0.009297
citi,0.026654
claim,0.011714
clan,0.012650
close,0.005162
cloth,0.010087
cofound,0.013256
columbia,0.010732
combin,0.027512
come,0.011037
common,0.004666
commun,0.015137
conclud,0.007892
confeder,0.011518
confederado,0.025134
confer,0.015192
congress,0.017293
congression,0.013698
congresss,0.020013
connect,0.006353
conserv,0.007660
consider,0.006485
construct,0.005975
consumpt,0.009000
continu,0.014027
control,0.005127
convers,0.015923
convert,0.015733
cooper,0.007375
creation,0.007024
cree,0.043059
cult,0.012609
cultur,0.069630
cultura,0.018398
dakota,0.068460
danc,0.396040
dancer,0.016965
david,0.006855
day,0.005823
dead,0.029024
debt,0.008948
decad,0.007015
decemb,0.014163
decis,0.006506
declar,0.014907
deep,0.008591
del,0.011651
deleg,0.010896
dene,0.021288
denomin,0.011497
describ,0.004749
desir,0.007263
desper,0.013639
despit,0.006543
destroy,0.008070
develop,0.011578
differ,0.012273
difficult,0.006730
disappear,0.019623
disrespect,0.017621
distinct,0.005943
doctrin,0.009254
dream,0.033425
dreamer,0.057114
drum,0.029313
drummer,0.020163
dure,0.013327
eagl,0.014699
earli,0.004647
earlier,0.013730
earliest,0.007765
earth,0.043765
earthquak,0.011768
eclips,0.012451
effort,0.012869
element,0.017727
elk,0.018398
els,0.009567
emphasis,0.012519
encompass,0.008698
end,0.015239
endow,0.011768
enforc,0.008710
english,0.006470
environ,0.006158
epidem,0.025794
episcop,0.016395
eskimo,0.018937
especi,0.005395
espirita,0.025134
essenc,0.010495
establish,0.009916
estim,0.019614
etern,0.011746
european,0.023147
europeanamerican,0.042132
evangel,0.014593
everi,0.005813
exactli,0.009101
exampl,0.004161
exempt,0.012076
exercis,0.015965
explor,0.007079
extern,0.003633
face,0.013947
fact,0.005899
faith,0.018576
famili,0.012866
farmer,0.009834
fast,0.009511
feast,0.014614
feather,0.014492
featur,0.006283
feder,0.066577
fell,0.008973
fever,0.013243
firearm,0.014374
flore,0.033645
follow,0.019871
forcibl,0.027134
foreshadow,0.014899
forgiv,0.015192
form,0.015190
founder,0.008707
francisco,0.010721
free,0.005674
freedom,0.054901
fund,0.006850
fundamentalist,0.015922
funerari,0.017384
gaiwiio,0.050268
gather,0.008661
gener,0.014279
ghost,0.161958
god,0.008695
gonzal,0.021066
good,0.011047
govern,0.037795
governmentoper,0.021529
grassroot,0.015350
grave,0.024220
great,0.011198
group,0.008963
grown,0.019135
guid,0.007024
ha,0.029815
half,0.006838
handsom,0.035494
hawaiian,0.015270
headquart,0.011007
heal,0.012178
heavili,0.008009
held,0.011747
henotheist,0.020321
heritag,0.010161
hi,0.022273
histori,0.008276
homli,0.025134
honestli,0.017683
honor,0.010277
honorif,0.018090
honour,0.011716
hope,0.008458
hous,0.013329
howev,0.004032
huichol,0.021793
human,0.009573
huntergather,0.013868
ident,0.014227
identif,0.009786
illeg,0.010010
illinoi,0.012161
impact,0.006808
import,0.004237
includ,0.027590
indian,0.098689
indiana,0.012549
indigen,0.069340
individu,0.015373
influenc,0.027360
inherit,0.009212
inspir,0.008219
instanc,0.006728
institut,0.005257
intellectu,0.017046
invad,0.009936
involv,0.014448
iroquoi,0.036797
island,0.007363
item,0.018226
jack,0.011746
jacob,0.011202
jame,0.007006
jamieson,0.023716
januari,0.007090
jesu,0.012169
jimenez,0.023716
john,0.011301
joint,0.008747
kainai,0.025134
kalpulli,0.025134
kalton,0.021793
karankawa,0.025134
kenekuk,0.025134
kept,0.008951
kiowa,0.025134
klamath,0.023716
knee,0.015192
knowledg,0.012496
known,0.020754
kotiakan,0.025134
la,0.008291
lake,0.019594
lakota,0.062007
land,0.006286
languag,0.018729
later,0.014819
law,0.035026
leader,0.036315
led,0.032164
legal,0.013707
legisl,0.007604
lenap,0.023716
level,0.004966
life,0.016017
light,0.006847
like,0.013309
link,0.003611
lipan,0.050268
liquor,0.016822
live,0.016111
local,0.011250
lodg,0.070508
longhous,0.107647
longstand,0.012002
lophophora,0.025134
lower,0.006137
lpez,0.015490
mainstream,0.010079
maintain,0.005791
major,0.004406
make,0.008446
man,0.022045
mani,0.030031
massacr,0.012110
mean,0.004573
meant,0.017037
medicin,0.015837
medit,0.012619
member,0.015897
membership,0.018296
men,0.007701
mescalero,0.025134
messag,0.010321
messiah,0.032790
mexcayotl,0.025134
mexica,0.020669
mexicah,0.025134
mexican,0.105846
mexicanidad,0.050268
mexicatl,0.025134
mexicayo,0.025134
mexicayotl,0.071150
mexico,0.051808
milit,0.012976
mind,0.007832
ministri,0.008930
mission,0.016561
missionari,0.023521
mitotiliztli,0.025134
model,0.005173
moder,0.009514
modoc,0.025134
mohawk,0.021288
monotheist,0.014742
moon,0.010815
mostli,0.007086
motion,0.008380
mountain,0.008935
mourn,0.016355
movement,0.045815
movimiento,0.018318
municip,0.010120
music,0.009127
nac,0.042132
nagpra,0.021793
nahuatl,0.018937
nakoda,0.025134
nakota,0.023716
nation,0.041418
nativ,0.343367
natur,0.004433
neolin,0.050268
neusner,0.022413
nevada,0.015990
new,0.003709
news,0.009064
nieva,0.025134
nonindian,0.019870
nonn,0.016687
north,0.006594
northern,0.015528
northwest,0.011358
notabl,0.006372
note,0.009576
noth,0.008788
novemb,0.007449
nueva,0.016516
number,0.012464
numutiboo,0.025134
o,0.008758
oakerhat,0.025134
object,0.022709
occur,0.010553
occurr,0.010742
offer,0.006175
offici,0.012610
ojibw,0.022413
oklahoma,0.015066
old,0.006871
onli,0.011469
onward,0.010528
open,0.005685
oral,0.010732
order,0.009153
oregon,0.014136
organ,0.009060
origin,0.009205
overview,0.008321
pacif,0.009626
paiut,0.047433
parker,0.014764
particip,0.026207
particular,0.005198
pass,0.032260
passag,0.009894
patrimoni,0.018481
pay,0.007753
pendleton,0.020321
peopl,0.091579
persecut,0.035909
person,0.005434
peyot,0.161305
philosophi,0.014141
pia,0.018654
pierc,0.014299
piikani,0.025134
pilgrimag,0.014635
pipe,0.013901
plain,0.065118
plural,0.010681
polytheist,0.015990
pomo,0.022783
pop,0.014244
possess,0.007463
power,0.004873
practic,0.061144
pray,0.014808
prayer,0.012549
predict,0.041809
presenc,0.007201
prevent,0.006808
primarili,0.006509
principl,0.005716
prior,0.007193
privat,0.006828
problem,0.005093
proper,0.008544
properli,0.010014
properti,0.005766
prophet,0.087500
prosecut,0.025749
protect,0.038083
protest,0.008850
protocol,0.010768
provid,0.008450
publ,0.018090
public,0.014388
pueblo,0.017328
pure,0.007530
purpos,0.006194
quannah,0.025134
quautlata,0.025134
rain,0.012093
reach,0.006138
read,0.005245
realiti,0.008215
receiv,0.005770
recent,0.005230
recogn,0.006476
recognis,0.009325
recoveri,0.010054
red,0.008371
refer,0.003020
refrain,0.013901
regul,0.007150
reject,0.022337
reli,0.007277
religi,0.146588
religion,0.307708
remain,0.004995
remak,0.016822
remov,0.020920
repatri,0.029398
requir,0.009509
research,0.004899
reserv,0.008032
residenti,0.013000
resolut,0.009239
respect,0.011487
respons,0.010477
restaurador,0.025134
restor,0.042709
resurrect,0.040201
return,0.030563
revel,0.012110
revit,0.029355
reviv,0.038394
revivalist,0.018937
revolt,0.021993
rfra,0.050268
right,0.021680
ritual,0.022527
river,0.008257
road,0.008773
robert,0.013282
rodolfo,0.019251
roll,0.011270
rule,0.005513
s,0.025702
sacr,0.080965
said,0.006205
saint,0.010099
salmon,0.015270
sanchez,0.038076
saulteaux,0.025134
saw,0.007391
scattamek,0.025134
school,0.018435
secreci,0.014808
seen,0.005926
sell,0.008544
seneca,0.016278
sent,0.016743
septemb,0.007283
seri,0.012034
serv,0.006012
servic,0.005884
session,0.011491
settler,0.022730
seven,0.015851
seventh,0.024374
sever,0.004382
shake,0.015244
shaker,0.055196
shape,0.007198
shasta,0.025134
shawne,0.021793
shoshon,0.025134
shout,0.017115
shun,0.015547
sick,0.011859
significantli,0.007751
siksika,0.025134
siletz,0.025134
similar,0.010038
simpli,0.006859
sin,0.011953
sinc,0.012609
sing,0.013917
singular,0.011076
sioux,0.020489
site,0.014161
skin,0.010660
slocum,0.041720
small,0.005143
smallpox,0.014899
smith,0.035623
smohalla,0.125671
someth,0.008081
son,0.008048
song,0.022295
soon,0.015416
sourc,0.005287
southern,0.007801
spanish,0.018181
speak,0.008060
specif,0.005029
spirit,0.056987
spiritu,0.058112
spoke,0.011601
spread,0.037150
squaxin,0.025134
st,0.020328
start,0.010641
stat,0.017812
state,0.055169
statist,0.006896
stori,0.008520
strengthen,0.009507
strong,0.006107
style,0.008661
substanti,0.023409
suburban,0.016241
suffer,0.007672
sun,0.065276
sunday,0.013949
sung,0.015990
suppress,0.019252
suprem,0.008608
swan,0.015116
sweat,0.015217
syncret,0.014993
synod,0.032634
taught,0.009372
tavibo,0.075402
teach,0.032938
tecumseh,0.019142
tell,0.009468
tenskwatawa,0.071150
tepehuan,0.025134
tepehun,0.025134
term,0.007944
theolog,0.020493
thereof,0.012919
thi,0.031441
thing,0.006688
thirst,0.016687
thought,0.023829
thousand,0.007412
throw,0.012908
tie,0.008199
time,0.014876
tlacaelel,0.025134
today,0.018116
togeth,0.005796
tonkawa,0.025134
tool,0.006730
trader,0.010348
tradit,0.105864
treat,0.007360
tri,0.006616
tribal,0.011723
tribe,0.124177
tschadam,0.025134
twitch,0.019038
type,0.005053
unarm,0.016516
unclear,0.011042
unconstitut,0.015518
underestim,0.014033
understand,0.011411
uniao,0.025134
unit,0.055117
univers,0.004353
urban,0.008816
urbanachampaign,0.017219
urg,0.011094
use,0.030912
usual,0.010116
v,0.022485
valu,0.021550
vari,0.006196
varieti,0.006311
veget,0.010034
velasco,0.019483
veri,0.009600
violent,0.010379
vision,0.036419
visit,0.016890
wa,0.082718
waasan,0.025134
waashat,0.100536
walk,0.010737
walla,0.042576
wanapam,0.050268
want,0.015521
warfar,0.010660
warm,0.010742
wartim,0.013387
washani,0.025134
washat,0.050268
way,0.053934
web,0.009113
west,0.007217
western,0.012646
weyekin,0.025134
white,0.063846
whiteamerican,0.025134
wide,0.005413
williamsii,0.025134
wilson,0.010500
wintun,0.025134
witchhunt,0.019038
wodziwob,0.023716
word,0.011669
world,0.021308
worship,0.034174
wound,0.011531
wovoka,0.118584
yakama,0.025134
year,0.021211
york,0.006474
yotl,0.025134
yuyunipitqana,0.025134
zeal,0.017115
