abl,0.008543
abov,0.008659
abscess,0.014166
access,0.004679
account,0.003983
accuraci,0.014669
activ,0.003374
ad,0.012948
addit,0.006842
adler,0.010389
adult,0.013241
advanc,0.025062
affect,0.004419
age,0.008470
aid,0.005073
alcohol,0.007764
alexand,0.006479
alimloui,0.017791
allow,0.003363
alon,0.005783
alzahrawi,0.012911
alzheim,0.021656
america,0.004739
american,0.007663
amyotroph,0.013405
analysi,0.004076
anatom,0.009021
anatomi,0.015885
ancient,0.004900
andor,0.011836
anesthesia,0.011812
anesthesiolog,0.013205
aneurysm,0.027757
angiographi,0.012966
angioma,0.035583
angioplasti,0.014504
ani,0.008941
anim,0.009467
anterior,0.010866
appear,0.003917
appli,0.003615
applic,0.004039
approach,0.007784
appropri,0.005421
arabia,0.008273
arterioven,0.014912
arthriti,0.023100
artifici,0.005711
aspect,0.004444
assist,0.015127
associ,0.006607
astley,0.015427
astrocytoma,0.016788
austrian,0.008100
autopsi,0.011908
avm,0.031268
awak,0.022940
away,0.005151
awok,0.014631
ayub,0.014631
bachelor,0.017614
balanc,0.005352
bangladeshi,0.012704
base,0.002946
basic,0.004102
bc,0.006033
bci,0.014504
becam,0.003727
becom,0.003264
befor,0.006965
begin,0.003976
ben,0.008721
benabid,0.017791
benign,0.010985
bennett,0.020965
biopsi,0.013142
bleed,0.021810
bodi,0.008184
bonespur,0.017791
boni,0.011134
botanist,0.009686
boundari,0.005693
brain,0.189245
branch,0.013010
brother,0.006838
brought,0.005026
bypass,0.009457
callosotomi,0.017791
callosum,0.014631
came,0.004465
camera,0.008827
canal,0.016201
cancer,0.037556
candid,0.006291
canton,0.010965
capillari,0.010965
captur,0.005607
car,0.007217
carbon,0.006656
care,0.015392
carotid,0.028132
carpal,0.013336
carri,0.004402
carson,0.011393
case,0.010244
cater,0.010019
catheter,0.014385
caus,0.007290
cavern,0.012704
central,0.011485
centuri,0.007014
cerebr,0.010647
cerebrospin,0.026165
cerebrovascular,0.014912
certain,0.003738
cervic,0.071648
chair,0.007671
chang,0.006158
children,0.011234
chisel,0.026410
chordoma,0.017791
chorea,0.015240
chronic,0.008395
circul,0.007146
clamp,0.011271
clear,0.005083
clinic,0.014246
clip,0.010244
clot,0.012043
coca,0.013082
cochlear,0.013336
cocktail,0.012857
coexist,0.008633
cognit,0.012951
colloid,0.012189
combat,0.007169
combin,0.007790
come,0.007813
commerci,0.005233
common,0.023120
commonli,0.013608
commun,0.003571
competit,0.010742
complet,0.007545
complex,0.003997
compon,0.004704
compos,0.005182
compress,0.042168
comput,0.022631
computer,0.010019
concern,0.003835
condit,0.026755
conduct,0.004681
congenit,0.021889
congress,0.006120
conjoin,0.024612
conjunct,0.007633
consciou,0.008077
consid,0.003185
consist,0.003656
consult,0.006308
context,0.004805
convent,0.010579
cooper,0.005221
cord,0.087757
corpu,0.018488
correct,0.005501
countri,0.007189
cover,0.008995
craft,0.024652
cranialperipher,0.017791
craniofaci,0.014166
craniopagu,0.017791
craniopharyngioma,0.017791
cranioplasti,0.017791
craniosynostosi,0.015634
craniotomi,0.016127
creat,0.006682
critic,0.004018
ct,0.009457
curett,0.016788
current,0.006994
curv,0.006720
cush,0.013205
cut,0.011599
cyberknif,0.031731
cyst,0.012857
damag,0.011790
dandi,0.014066
datura,0.016788
davi,0.007921
deaf,0.011662
decid,0.005323
decompress,0.025823
deep,0.018244
degener,0.009563
delgado,0.013970
dementia,0.011577
depend,0.003604
deriv,0.004153
describ,0.003362
desir,0.005141
deterior,0.008045
develop,0.010928
diagnosi,0.024865
diagnost,0.008747
differ,0.014479
difficult,0.004764
difficulti,0.005899
dioscorid,0.012805
dioxid,0.008027
direct,0.003627
disc,0.139240
discectomi,0.035583
discov,0.009621
diseas,0.062946
diskectomi,0.017791
disord,0.056336
dissector,0.017791
distractor,0.015634
disturb,0.007671
dittrich,0.016788
divis,0.014203
doctor,0.006519
doe,0.003696
dr,0.006777
drill,0.009051
drugresist,0.015865
dull,0.010965
dure,0.018867
earli,0.006579
ecic,0.017791
edg,0.007175
educ,0.012569
effus,0.013142
electr,0.005438
electrod,0.039978
electromagnet,0.007373
elev,0.014675
embol,0.013269
emerg,0.008430
emiss,0.007804
end,0.003595
endarterectomi,0.017791
endonas,0.035583
endoscop,0.062536
endoscopi,0.026810
endovascular,0.063462
english,0.009161
ent,0.013707
enter,0.004808
entrap,0.012754
entri,0.012723
epilepsi,0.033813
epilept,0.027415
esquir,0.014631
european,0.004096
evacu,0.008991
everyth,0.006549
exam,0.009429
excel,0.007114
expect,0.004518
experi,0.004044
expos,0.006587
extern,0.002571
extracrani,0.017791
father,0.028910
feet,0.008031
fellowship,0.028316
fiber,0.008542
field,0.007183
fluid,0.013865
foci,0.012656
focus,0.013734
forcept,0.035583
form,0.016129
foundat,0.004586
fractur,0.029765
frank,0.006886
function,0.028805
fusion,0.032789
gain,0.004278
gait,0.012911
gamma,0.017366
gazi,0.015240
gene,0.006823
gener,0.010108
glioblastoma,0.015427
glioma,0.031731
global,0.004670
god,0.006155
godle,0.016788
gp,0.009583
graduat,0.006590
guid,0.014917
guidanc,0.007929
gunshot,0.012608
ha,0.014070
hand,0.008715
harvey,0.008918
head,0.018160
headach,0.011418
hear,0.014832
held,0.004158
help,0.003850
hemispher,0.008008
hemispherectomi,0.033577
hemorrhag,0.078143
henban,0.015634
henderson,0.009863
hermann,0.017193
herniat,0.046281
hi,0.003153
high,0.003561
highclar,0.017791
higher,0.004180
highli,0.009259
hippocr,0.010202
hirotaro,0.017791
histori,0.014646
hodgkin,0.011812
hook,0.018915
hopkin,0.008664
horsley,0.014912
hospit,0.034675
howev,0.005708
hugh,0.008252
human,0.006776
humphri,0.011201
hundr,0.010686
huntington,0.010647
hydrocephalu,0.072521
hydrogen,0.007284
imag,0.043321
impactor,0.030480
implant,0.085719
implement,0.004896
import,0.002999
inca,0.010828
incis,0.011662
includ,0.048826
independ,0.003612
india,0.005384
indic,0.008652
individu,0.003627
infect,0.007982
injuri,0.023388
insid,0.011796
instead,0.008238
institut,0.003721
instrument,0.027076
intens,0.005840
interdepartment,0.015427
interfac,0.007656
interspin,0.016788
intracellular,0.010580
intracerebr,0.014631
intracrani,0.027255
intract,0.021508
intraop,0.014631
intraventricular,0.033577
introduc,0.004125
invad,0.007033
invas,0.019238
invent,0.034334
involv,0.020455
issu,0.003773
john,0.008000
join,0.005230
jose,0.010405
joseph,0.005795
junior,0.009269
k,0.005331
karin,0.012966
kennedi,0.009356
key,0.004475
kind,0.004684
kingdom,0.009355
knife,0.022736
know,0.005328
known,0.032322
krishna,0.011068
kurz,0.015427
kyphoplasti,0.017791
lamina,0.012805
laminectomi,0.033577
lar,0.011271
larg,0.003098
laser,0.008754
late,0.008141
later,0.003496
leak,0.009863
learn,0.004939
leav,0.004979
legal,0.004851
leksel,0.016788
lesion,0.011047
lessen,0.009347
level,0.007031
like,0.012561
limit,0.003590
link,0.002556
list,0.003269
lobe,0.010700
lobectomi,0.016127
locat,0.008645
long,0.003817
look,0.004854
ludvig,0.012966
luke,0.010772
lumbar,0.039809
macewen,0.067154
magnet,0.006901
magnetoencephalographi,0.012911
main,0.011165
mainli,0.004880
maintain,0.004099
maixner,0.017791
make,0.005979
malform,0.036568
malign,0.010965
manag,0.008421
mandrak,0.014385
mani,0.002657
march,0.004875
market,0.004400
maxillofaci,0.013336
mayfield,0.030480
mbb,0.014066
md,0.008702
medic,0.054140
medicin,0.011210
mediwiki,0.017791
medulloblastoma,0.017791
meg,0.012857
melbourn,0.010563
men,0.005451
mening,0.024612
metastas,0.015069
method,0.032769
michigan,0.008484
microdiscectomi,0.017791
microneurosurgeri,0.035583
microscop,0.037948
microscopi,0.009252
microsurgeri,0.028333
microvascular,0.015865
middl,0.014541
millimet,0.011294
minim,0.024819
minimallyinvas,0.032861
minimum,0.006412
minut,0.007017
mitochondria,0.010647
mobil,0.018734
modern,0.031737
modernday,0.008367
monitor,0.006357
mortem,0.015634
mouth,0.008335
movement,0.012161
moyamoya,0.016127
mri,0.030567
multiform,0.013336
multipl,0.004521
muraszko,0.017791
muscl,0.008153
narabayashi,0.017791
navig,0.022023
need,0.003534
nerv,0.099482
nervou,0.072448
neural,0.031598
neuroanesthesia,0.071167
neurocysticercosi,0.017791
neuroemerg,0.017791
neurolog,0.080075
neurologist,0.012562
neurooncolog,0.016430
neuropatholog,0.043512
neuroradiolog,0.030480
neurosurg,0.092563
neurosurgeon,0.260451
neurosurgeri,0.556875
neurotrauma,0.017791
neurovascular,0.015634
newli,0.006185
nitrogen,0.008115
normal,0.004686
notabl,0.009022
note,0.003389
novali,0.015427
novemb,0.010545
nph,0.016788
numb,0.014066
numer,0.004355
nw,0.013405
obtain,0.004569
occasion,0.006631
occupi,0.005893
offer,0.004371
ommaya,0.035583
onc,0.004392
oncolog,0.043237
oncologist,0.013970
onion,0.011319
onli,0.010824
open,0.040247
oper,0.029670
opium,0.010580
order,0.006479
organbas,0.017791
orient,0.006125
outsid,0.004484
paid,0.005994
pain,0.044677
parkinson,0.032154
partial,0.010816
patholog,0.016714
pathway,0.015790
patient,0.107413
pediatr,0.073490
penfield,0.014166
peopl,0.003241
perform,0.033063
period,0.003493
peripher,0.108617
perman,0.005697
person,0.003846
peru,0.009278
pet,0.009321
pgi,0.016430
pharmacologist,0.012966
phase,0.005653
philip,0.007226
physician,0.037080
physiolog,0.006924
piec,0.006492
pioneer,0.030707
pituitari,0.026539
place,0.003324
placement,0.009227
plant,0.005104
plastic,0.015807
play,0.004244
polyaxi,0.017791
pontin,0.014912
portion,0.011815
posit,0.003484
positron,0.010057
possibl,0.006876
post,0.011411
potenti,0.008729
pour,0.008848
power,0.010349
practic,0.028854
pre,0.009795
precancer,0.015634
precis,0.011106
premedit,0.015427
present,0.003370
presidenti,0.006893
pressur,0.005074
prevent,0.004819
primari,0.004450
primarili,0.004608
primit,0.007459
prior,0.005091
probe,0.016768
problem,0.007210
procedur,0.111547
professor,0.006025
program,0.008481
proper,0.006048
prosthet,0.011343
psychiatr,0.009543
publish,0.003741
pump,0.008478
pursu,0.006131
puusepp,0.017791
qualif,0.008566
qualifi,0.007089
r,0.004511
radiat,0.006751
radic,0.006179
radiolog,0.010718
radiosurg,0.017226
radiosurgeri,0.060277
rand,0.009969
rang,0.004046
ransohoff,0.016788
rare,0.011095
recent,0.007404
refer,0.004275
region,0.003828
rehabilit,0.009218
rel,0.003833
relat,0.002882
relay,0.009933
reli,0.005151
relief,0.007622
remain,0.003536
remov,0.059236
repair,0.015223
replac,0.008713
requir,0.006731
research,0.006937
reservoir,0.009624
resid,0.022657
reson,0.008182
restor,0.006046
result,0.011912
retir,0.007275
retriev,0.006352
richard,0.010563
rickman,0.015069
robert,0.004701
robot,0.015850
role,0.003745
rongeur,0.017791
room,0.027740
root,0.005400
rout,0.006436
royal,0.005641
run,0.004698
samohin,0.017791
sampl,0.012742
saw,0.005232
schloffer,0.035583
school,0.017399
scienc,0.003595
sclerosi,0.012115
scottish,0.008207
screw,0.011523
secondari,0.006088
sedat,0.049386
seizur,0.038136
select,0.004649
senior,0.007086
separ,0.007812
set,0.003311
seven,0.011221
sever,0.006204
shunt,0.027757
sign,0.004899
signal,0.006151
similar,0.003553
sinc,0.008926
sir,0.020148
sit,0.007865
situat,0.004581
skull,0.057030
skullbas,0.017791
sleep,0.008467
small,0.007282
smaller,0.005059
societi,0.003728
sophist,0.013692
southern,0.005522
space,0.009175
special,0.026050
specialti,0.050703
spinal,0.228248
spine,0.130910
spondylosi,0.035583
spread,0.005259
st,0.004796
stab,0.012306
stanford,0.006911
start,0.007533
state,0.005207
stealthstat,0.017791
stem,0.006688
stenosi,0.041910
stent,0.014066
stereotact,0.124909
stereotaxi,0.017791
stimul,0.033294
stone,0.006645
stop,0.005878
stroke,0.019010
student,0.015193
studi,0.012578
sub,0.010498
subarachnoid,0.015634
subdur,0.016127
subject,0.003785
success,0.011838
suction,0.012346
suffici,0.005501
superfici,0.009383
surgeon,0.120614
surgeri,0.327194
surgic,0.081122
swedish,0.008115
symptom,0.008467
talk,0.006402
target,0.005540
team,0.012427
techniqu,0.036581
technolog,0.004290
telangectasia,0.017791
textbook,0.006706
th,0.010235
theodor,0.008143
therapi,0.007578
therefor,0.004044
thi,0.031158
thoma,0.005322
thorac,0.011975
thousand,0.005247
threedimension,0.008172
time,0.007898
tingl,0.015240
tissu,0.086283
togeth,0.004103
tomographi,0.020840
tool,0.038116
total,0.008303
tradit,0.003746
train,0.030829
transmit,0.007290
transposit,0.011812
transsphenoid,0.017791
trauma,0.058972
traumaneurocrit,0.017791
traumat,0.010286
treat,0.015631
treatment,0.038315
trepan,0.071926
tri,0.004683
trishna,0.017791
tube,0.008222
tumor,0.124199
tunnel,0.008983
twin,0.017508
type,0.007154
undergradu,0.007925
understand,0.004039
unit,0.015006
univers,0.006163
unlik,0.004955
unstabl,0.007938
use,0.077802
util,0.026915
vari,0.004386
vascular,0.019612
vasospasm,0.017791
venou,0.012911
ventricular,0.013336
ventriculoperiton,0.017791
veri,0.020388
vertebr,0.017683
vertebra,0.012306
vertebroplasti,0.017791
victor,0.008008
vinegar,0.012656
vision,0.012890
visual,0.006278
vp,0.012115
wa,0.014638
walter,0.007097
want,0.005493
websit,0.011253
wheeler,0.010405
wherea,0.005163
wilder,0.010095
william,0.004768
wine,0.008373
wirginia,0.017791
wohn,0.017791
woman,0.007429
work,0.005834
world,0.003016
wound,0.008163
yaargil,0.017791
year,0.033032
