accord,0.011987
account,0.014118
achiev,0.015080
act,0.013700
affair,0.019821
allopathi,0.059508
analysi,0.014450
ani,0.010564
announc,0.020130
anthroposoph,0.106827
approach,0.013796
appropri,0.057647
april,0.018339
associ,0.011710
author,0.013497
avail,0.043961
b,0.031756
background,0.020588
bag,0.074426
base,0.010445
basic,0.029083
befor,0.012345
began,0.014433
board,0.020852
c,0.027667
cam,0.038938
carri,0.046819
case,0.012104
certif,0.028137
characteris,0.029021
chines,0.083239
clinic,0.025249
compar,0.014320
comparison,0.020303
compil,0.024980
complementari,0.338954
complet,0.026745
comprehens,0.021327
compris,0.019807
compulsori,0.061245
concern,0.013593
conclus,0.021574
conflict,0.018033
continu,0.011732
convent,0.018749
cost,0.034047
costeffect,0.074201
cover,0.031883
criticis,0.028500
d,0.031350
data,0.030906
decis,0.032650
defin,0.026576
demonstr,0.017404
depart,0.016977
design,0.014222
determin,0.013446
dha,0.052340
director,0.023282
disown,0.048304
dissatisfi,0.039234
download,0.068372
dr,0.024023
draft,0.024990
e,0.031381
effect,0.045300
efficaci,0.064059
elig,0.029162
empir,0.016266
end,0.012745
evalu,0.222191
everincreas,0.039387
evid,0.015896
expand,0.016490
feder,0.074243
felix,0.034077
final,0.015078
fmh,0.063064
follow,0.019943
foundat,0.016255
french,0.016776
german,0.017604
given,0.012502
govern,0.035562
gurtner,0.063064
health,0.104270
healthcar,0.058722
herbal,0.078022
hierarchi,0.025402
home,0.017800
homeopathi,0.179443
homoeopathi,0.119016
howev,0.020233
impact,0.017083
includ,0.017306
inconclus,0.036311
insur,0.096129
intern,0.021847
issu,0.013376
juli,0.036010
june,0.036322
klv,0.126128
komplementrmedizin,0.119016
lancet,0.045766
limit,0.012727
list,0.023176
literatur,0.055858
medic,0.038380
medicin,0.278155
method,0.012905
methodolog,0.022057
misconduct,0.038866
nation,0.011546
neural,0.056001
normal,0.016609
note,0.012014
offer,0.015495
offic,0.050319
offici,0.015820
onli,0.009592
outcom,0.042608
page,0.020428
panmedion,0.063064
paper,0.017194
parliament,0.021016
patient,0.050764
peerreview,0.033325
pek,0.488491
period,0.024763
permit,0.021224
physician,0.052573
phytotherapi,0.112472
placebo,0.040295
placebocontrol,0.052340
play,0.015045
point,0.024175
precis,0.039366
preval,0.026310
primarili,0.016333
problem,0.012779
procam,0.063064
procedur,0.020809
profici,0.037681
program,0.075157
programm,0.091871
promot,0.017045
prompt,0.026158
propon,0.050078
provid,0.010602
provis,0.023274
public,0.024068
publish,0.039789
purport,0.033794
recours,0.037561
reduc,0.014356
refer,0.015156
referendum,0.026310
reimburs,0.078930
reinstat,0.034447
relev,0.019821
remov,0.017497
report,0.101959
research,0.012294
result,0.042225
retain,0.019929
revers,0.020863
review,0.050941
role,0.026551
safeti,0.048853
scheme,0.068426
scientif,0.015249
separ,0.013845
servic,0.044296
state,0.009228
statu,0.017614
strongli,0.020328
studi,0.078023
summari,0.025382
support,0.037620
swiss,0.270850
switzerland,0.108127
systemat,0.020150
taken,0.015443
tank,0.029216
team,0.022025
term,0.009966
termsofrefer,0.063064
text,0.018194
therapi,0.241771
thi,0.015777
think,0.018290
timerel,0.051411
tradit,0.053124
translat,0.018157
treatment,0.019401
trial,0.048133
undeclar,0.047035
util,0.019080
version,0.036898
wa,0.095126
webpag,0.040207
websit,0.019943
weight,0.021258
withdraw,0.025351
year,0.010644
