abdomin,0.047546
abl,0.006316
ablat,0.009506
abnorm,0.006223
abscess,0.031422
abstain,0.007822
abu,0.006803
abulcasi,0.009763
academ,0.003745
access,0.020758
accessori,0.016274
accord,0.002500
accordingli,0.005627
account,0.002945
accumul,0.004796
accur,0.004260
achil,0.009098
acid,0.005037
act,0.002857
activ,0.002495
adapt,0.003981
addit,0.007588
adjac,0.011445
adject,0.006834
adjuv,0.010723
administ,0.014705
administr,0.006992
adolesc,0.007275
adopt,0.006901
adult,0.009790
advanc,0.012353
advent,0.005468
advers,0.011712
advic,0.010883
advoc,0.004292
aesthet,0.006064
afford,0.005369
africa,0.004060
age,0.006262
agent,0.012790
ago,0.004845
aid,0.007502
ailment,0.007951
aim,0.003570
air,0.003841
airflow,0.009587
alabba,0.010817
allow,0.012432
alqasim,0.009190
altern,0.003212
alzahrawi,0.009546
ambrois,0.010817
ambros,0.008957
american,0.002833
amput,0.037870
anaerob,0.008122
anaesthesia,0.009717
anaesthet,0.029151
analysi,0.006028
anastomosi,0.011267
anatom,0.013339
anatomi,0.011744
ancient,0.028982
andalusianarab,0.013154
andor,0.017503
andrea,0.006653
anesthesia,0.165939
anesthesiologist,0.010134
anesthet,0.026792
anesthetistanesthesiologist,0.013154
aneurysm,0.010261
angioplasti,0.021447
ani,0.002203
anim,0.017499
ankl,0.009159
anoth,0.007214
antibiot,0.056450
antireject,0.013154
antisepsi,0.021835
antisept,0.067109
aorta,0.009717
appear,0.005792
appli,0.010692
applic,0.005972
approach,0.008633
approv,0.004295
approxim,0.003407
archaeolog,0.005353
area,0.027318
arm,0.003986
armi,0.004300
art,0.003825
arteri,0.007389
arthrodesi,0.013154
artifici,0.004222
asa,0.008137
asclepieia,0.011559
asclepieion,0.023460
asclepiu,0.010474
asepsi,0.025473
asept,0.020948
asia,0.004293
ask,0.004133
aspect,0.003286
aspir,0.006285
assess,0.012777
assist,0.018641
associ,0.007327
astley,0.011406
atelectasi,0.012736
attir,0.009860
audaci,0.009393
august,0.003799
author,0.005630
autolog,0.010917
avail,0.009169
avoid,0.011204
awar,0.004524
bacteria,0.005740
bad,0.010258
barbersurgeon,0.011267
bariatr,0.024295
base,0.008715
basic,0.006066
battlefield,0.007056
bc,0.017842
becam,0.002755
becom,0.007240
bed,0.006511
befor,0.020600
began,0.009031
begin,0.002939
believ,0.003118
benefit,0.007317
best,0.003323
better,0.006799
billion,0.008565
bleed,0.016125
block,0.004491
blood,0.078559
bodi,0.081688
bodili,0.013177
boil,0.006743
bologna,0.008048
bone,0.045239
bowel,0.008601
bower,0.008984
brain,0.009649
breast,0.007398
british,0.010099
broken,0.005027
bronz,0.006068
brought,0.003716
built,0.003758
bypass,0.013984
c,0.002885
cadav,0.009429
cage,0.007872
calculi,0.008666
cancer,0.011107
cap,0.006151
capac,0.004185
captur,0.004146
carbol,0.010917
carcinogen,0.009128
cardiac,0.007798
cardiothorac,0.010474
cardiovascular,0.007483
care,0.034141
carri,0.009765
cartilag,0.008804
case,0.007574
castrat,0.009506
catastroph,0.005992
categor,0.005133
caus,0.008085
cauter,0.024295
caviti,0.021902
center,0.003220
central,0.002830
centuri,0.005186
certain,0.008291
chang,0.004553
charact,0.004172
check,0.005235
cheirourgik,0.013154
chemic,0.011535
chemist,0.005803
chemotherapi,0.008756
chest,0.037975
children,0.016612
chimney,0.008930
china,0.011639
chirurgia,0.021634
chlorhexidin,0.012147
chloroform,0.010635
choic,0.003967
circul,0.005283
civil,0.003464
clamp,0.008333
class,0.003349
classic,0.003336
classif,0.004455
clean,0.005911
clear,0.003758
clearanc,0.007774
clip,0.015148
clog,0.029432
close,0.010808
closur,0.013043
cloth,0.005279
cochran,0.008034
coercion,0.007924
collect,0.002945
colorect,0.009672
combat,0.005300
combin,0.002879
commiss,0.004020
common,0.007326
commonli,0.006707
compar,0.017922
compens,0.005104
complet,0.008368
complic,0.032039
compon,0.003478
compos,0.007663
compris,0.004131
compulsori,0.006387
concept,0.002818
conclud,0.004130
conclus,0.013500
condit,0.025433
conduct,0.003461
confirm,0.013062
congenit,0.008092
connect,0.016626
consciou,0.005972
consent,0.024795
consequ,0.003434
consid,0.009421
consider,0.003394
consist,0.002703
contact,0.004238
contamin,0.019330
content,0.003985
context,0.003552
continu,0.002447
contrast,0.006823
control,0.008050
controversi,0.003979
cooper,0.003860
cornea,0.009763
corpori,0.009128
correct,0.008134
cosmet,0.037132
cost,0.017754
costeffect,0.007738
count,0.004606
countri,0.007973
cover,0.003325
craniofaci,0.010474
crawford,0.008878
crdoba,0.008756
creation,0.003676
credit,0.003908
crucial,0.004916
curar,0.011267
cure,0.006194
cut,0.051455
da,0.005376
damag,0.021793
danger,0.014232
data,0.006446
date,0.016878
day,0.006095
dead,0.005063
death,0.021224
debilit,0.008499
debrid,0.010917
decid,0.003936
decis,0.010215
decreas,0.007954
dedic,0.004851
deep,0.004496
deficienti,0.013154
definit,0.003193
deform,0.006593
degre,0.009922
deliveri,0.005837
demand,0.003605
demonstr,0.003630
dental,0.007715
dentist,0.008930
dermat,0.010474
describ,0.007457
descript,0.003692
desir,0.003801
despit,0.003424
determin,0.002804
develop,0.014139
dhanvantari,0.012736
diagnos,0.006542
diagnosi,0.012256
diagnost,0.006467
did,0.005996
differ,0.004282
difficult,0.003522
digest,0.018512
digit,0.004510
direct,0.002681
disabl,0.011764
disarticul,0.011141
discharg,0.020338
disciplin,0.003721
discov,0.014227
discoveri,0.011348
diseas,0.021154
disinfect,0.009357
dismiss,0.005381
disord,0.005206
displac,0.005182
dissect,0.029857
doctor,0.009640
doe,0.002732
donat,0.006049
donor,0.012667
drain,0.041789
dramat,0.004561
drape,0.029580
drill,0.013384
drink,0.011978
droplet,0.008957
drum,0.007670
dub,0.006496
dublin,0.007483
duct,0.027036
dura,0.010261
dure,0.025574
dynasti,0.005251
ear,0.006453
earli,0.007296
earliest,0.004064
east,0.003738
econom,0.002661
ectomi,0.013154
effect,0.014173
effici,0.003807
egg,0.005882
egypt,0.015405
elderli,0.034049
elect,0.010759
elimin,0.004205
elsewher,0.005012
embol,0.009810
emerg,0.003116
emolli,0.010723
empir,0.006785
employ,0.003225
encourag,0.007993
end,0.015951
endocrin,0.007774
endoscop,0.011559
endoscopi,0.009911
engag,0.003850
english,0.003386
enlighten,0.005309
enter,0.007109
environ,0.006446
environment,0.003909
epidauru,0.011267
epidemiolog,0.006885
equip,0.017389
era,0.007683
error,0.004623
especi,0.002823
estim,0.003421
ether,0.015107
europ,0.013188
european,0.003028
evalu,0.004213
everyon,0.005614
evid,0.013263
exam,0.006971
examin,0.015223
exampl,0.015244
excess,0.004699
excis,0.046502
exhaust,0.005685
expand,0.003439
expect,0.003340
expenditur,0.005376
experi,0.011960
experiment,0.004061
exploratori,0.007389
expos,0.014612
exposur,0.027020
extend,0.003207
extent,0.004001
extern,0.003802
extrem,0.003488
extub,0.013154
eye,0.004861
fabrica,0.009098
face,0.003649
facil,0.013983
fact,0.003087
factor,0.009249
fall,0.003319
father,0.008550
ferment,0.007138
fetal,0.008281
field,0.010621
figur,0.010803
filtrat,0.008560
fistula,0.010635
flap,0.009069
fluid,0.010251
follow,0.002079
followup,0.007715
food,0.003742
foot,0.005649
forearm,0.010399
foreign,0.006769
form,0.007949
formal,0.003253
format,0.003546
foundat,0.006781
frail,0.030056
frailti,0.019927
free,0.002970
french,0.006998
fresh,0.005840
friday,0.007523
function,0.010648
fusion,0.006060
gain,0.006326
galen,0.022364
gangren,0.020799
gastrointestin,0.008298
gener,0.016815
germ,0.014026
german,0.003672
given,0.007823
global,0.006906
glove,0.045061
glucon,0.012147
glycol,0.009506
god,0.004550
govern,0.002472
gown,0.010261
graft,0.042306
greatest,0.004575
greatli,0.004258
greec,0.009829
greek,0.011046
grew,0.004345
groundbreak,0.007407
groundwork,0.007344
grow,0.006668
growth,0.006582
gunshot,0.009322
gynaecolog,0.009963
ha,0.010402
hair,0.006190
half,0.003579
halstead,0.010635
hand,0.022552
handl,0.004728
handson,0.008904
handwash,0.011730
harappan,0.009587
head,0.003356
heal,0.025495
healergod,0.011559
health,0.018124
healthcar,0.006124
healthi,0.005677
heart,0.009545
heat,0.004584
help,0.005693
herbal,0.008137
hernia,0.010635
hesh,0.008106
hi,0.034970
high,0.005265
higher,0.006182
highest,0.011945
himalaya,0.008733
hindu,0.006028
hip,0.016463
histori,0.004331
hold,0.006263
hole,0.005918
hollow,0.007464
home,0.011138
honey,0.007847
hospit,0.061529
hour,0.004569
howev,0.002110
human,0.012525
humani,0.008984
hungarian,0.006703
hunter,0.013177
hypoventil,0.012412
ibn,0.005660
ignaz,0.009672
immun,0.005691
implement,0.003620
import,0.013305
improv,0.012798
inadvert,0.007991
inappropri,0.006853
incarcer,0.008405
incid,0.015434
incis,0.094850
includ,0.021659
incom,0.003982
incompet,0.007670
increas,0.005000
india,0.003980
indian,0.008608
indic,0.009595
indispens,0.007258
indu,0.007483
infect,0.094425
inflamm,0.008034
influenc,0.002863
inform,0.005170
inhal,0.008048
initi,0.002825
inject,0.006419
injur,0.006593
injuri,0.005764
insert,0.048254
insidi,0.009963
instead,0.006091
institut,0.002751
instruct,0.009790
instrument,0.048044
insur,0.005012
integr,0.003137
interior,0.005102
intermedi,0.005110
intern,0.006835
intervent,0.009435
intestin,0.014987
intracrani,0.010075
intric,0.007233
introduc,0.009150
introduct,0.006893
intub,0.011141
invas,0.023706
invest,0.003702
investig,0.003643
involv,0.045372
irradi,0.008122
irrit,0.015571
islam,0.004328
item,0.004769
iv,0.005643
jame,0.007334
john,0.005914
joint,0.004578
joseph,0.004284
journal,0.003344
judg,0.004801
just,0.003031
kasi,0.012412
khalaf,0.011267
knowledg,0.006540
known,0.008689
lack,0.006629
laid,0.009813
lancet,0.019092
laparoscop,0.011025
laparoscopi,0.011559
laparotomi,0.025473
larg,0.009164
laser,0.019417
later,0.010341
latex,0.009322
latin,0.004085
launch,0.004378
lay,0.004891
layer,0.015011
lead,0.002593
learn,0.003651
led,0.002805
lesion,0.008168
lesser,0.005329
level,0.002599
life,0.002794
ligat,0.028519
ligatur,0.010196
like,0.013931
likewis,0.005148
limb,0.013607
line,0.009333
link,0.003780
liquid,0.004659
list,0.004834
lister,0.052826
live,0.005621
local,0.011776
locat,0.003196
long,0.005644
loop,0.005985
lord,0.005144
loss,0.011405
lost,0.003777
loui,0.004904
low,0.009994
make,0.013262
mandibl,0.009672
mani,0.011788
manipul,0.009308
manner,0.004194
manual,0.010980
manuscript,0.005898
mask,0.013783
mater,0.009393
materi,0.003045
matern,0.020833
matter,0.003269
maxillofaci,0.009860
mean,0.009575
meant,0.004458
mechan,0.003209
medic,0.076054
medicin,0.012432
men,0.004030
mental,0.009406
mention,0.004208
metabol,0.005761
method,0.016152
methodolog,0.004600
miasma,0.010474
microorgan,0.019475
microscop,0.005611
microsurgeri,0.010474
middl,0.007167
middleincom,0.009159
midnight,0.008480
midth,0.005362
midwiv,0.009546
millennia,0.006333
million,0.017070
miniatur,0.007648
minim,0.018350
minimallyinvas,0.012147
minimis,0.007810
minut,0.005188
misdiagnosi,0.011267
moderatequ,0.012736
modern,0.023464
modifi,0.004241
molar,0.007810
monitor,0.004700
montpelli,0.009963
mortal,0.005809
mostli,0.003708
mouth,0.006163
movement,0.002997
muscl,0.024112
mutil,0.008688
mytholog,0.006079
nation,0.004817
near,0.003573
necessari,0.003464
necessarili,0.004254
need,0.015677
neg,0.003769
neurosurgeri,0.009357
new,0.003883
night,0.010663
nonfrail,0.025473
noninvas,0.008298
nonlatex,0.013154
nonlifethreaten,0.013154
nonmatern,0.012412
nonneonat,0.013154
normal,0.010393
nose,0.029169
note,0.002506
notic,0.014799
npo,0.010817
number,0.004348
numer,0.003220
nurs,0.025299
obes,0.024017
object,0.002971
occur,0.005523
odd,0.006131
offic,0.003498
oil,0.008676
ointment,0.010399
older,0.009122
oldest,0.009404
onc,0.006495
oncolog,0.007991
onefourth,0.009254
ongo,0.004756
onli,0.006002
onsteril,0.013154
open,0.017854
oper,0.068552
operationsinclud,0.010723
ophthalmolog,0.008828
oplasti,0.013154
opposit,0.003576
oral,0.005616
order,0.004790
organ,0.040305
organis,0.004115
origin,0.002408
orthopaed,0.010474
orthoped,0.008984
oscopi,0.013154
ostomi,0.013154
otherwis,0.004134
otolaryngolog,0.009963
otomi,0.011924
outcom,0.017775
outer,0.005553
overal,0.003978
overtreat,0.011267
pacemak,0.009040
padua,0.017467
paediatr,0.009672
pain,0.022021
pair,0.004632
panel,0.006405
paper,0.003586
par,0.013339
paralyz,0.008957
partial,0.007996
particularli,0.006096
partli,0.004673
pasteur,0.030133
paston,0.012412
patholog,0.012357
patient,0.201186
payment,0.004684
pediatr,0.007762
penetr,0.011612
peopl,0.019171
percentag,0.004843
perciv,0.009506
percutan,0.010917
perfor,0.026792
perform,0.058057
period,0.018078
peripher,0.006692
peritoneum,0.011406
perman,0.012636
persist,0.009856
person,0.034130
pertain,0.006010
photograph,0.005982
physic,0.022753
physician,0.027415
physicist,0.005144
piec,0.009599
pin,0.007371
pioneer,0.013621
pivot,0.006477
place,0.019665
plant,0.003773
plastic,0.017531
plate,0.011287
plung,0.007435
podiatr,0.010817
pole,0.006021
polyethylen,0.009254
polym,0.006531
poorer,0.007100
poorest,0.007344
popul,0.015462
posit,0.010304
possibl,0.005084
post,0.004218
postop,0.059161
postpon,0.007078
postsurg,0.034677
postul,0.005362
pott,0.010134
povidoneiodin,0.012736
practic,0.026667
practis,0.006557
predict,0.003646
prefix,0.006697
prehistor,0.012049
premis,0.005846
preoper,0.062398
prep,0.020657
prepar,0.004042
prescrib,0.006086
present,0.007476
pressur,0.003751
prevent,0.024943
previous,0.007599
priest,0.005901
primari,0.003290
principl,0.011967
prior,0.011293
privat,0.003573
problem,0.010662
proce,0.006068
procedur,0.177967
produc,0.002593
profession,0.004038
professor,0.004454
prognosi,0.017079
progress,0.003397
project,0.003084
prolaps,0.011559
promot,0.003555
promptli,0.007681
proport,0.004120
prosthes,0.009963
prosthet,0.016773
prothrombin,0.012412
provid,0.006634
publish,0.005532
pulmonari,0.008298
purpos,0.003242
qualiti,0.003713
queen,0.005231
question,0.006260
radiat,0.004991
radiosurg,0.012736
rapid,0.004319
rate,0.009266
ray,0.005399
reaction,0.004053
read,0.002745
readdress,0.013154
realign,0.008350
realis,0.006373
realist,0.005432
rearrang,0.006773
reason,0.002837
reattach,0.010474
receiv,0.003020
recipi,0.012203
recommend,0.009319
reconnect,0.027207
reconstruct,0.029721
record,0.003331
recov,0.004865
recoveri,0.021049
reduc,0.020962
reduct,0.009096
refer,0.006322
refus,0.004613
regard,0.009098
region,0.002830
rehabilit,0.006815
rel,0.002834
relat,0.004262
relax,0.006042
reli,0.003808
reliev,0.006615
remain,0.007843
remark,0.004848
remov,0.043796
renaiss,0.005226
render,0.005184
renown,0.013487
reoper,0.025473
repair,0.022510
replac,0.016106
replant,0.009860
reprint,0.006079
reput,0.005500
request,0.004804
requir,0.007465
research,0.002564
resect,0.030590
resembl,0.004986
resewn,0.013154
resid,0.008375
resist,0.008192
resort,0.005865
respect,0.003006
respons,0.008225
resteril,0.013154
restor,0.004470
restrict,0.003663
restructur,0.006243
result,0.013211
retain,0.008314
retractor,0.011730
retrospect,0.006958
return,0.006398
revers,0.004351
review,0.007083
reward,0.005468
rhino,0.010474
rhinoplasti,0.020948
rib,0.008560
ridicul,0.007417
rigor,0.005322
rise,0.006361
risk,0.042784
rntgen,0.009393
robot,0.011719
rod,0.006834
rogeriu,0.011924
room,0.035892
root,0.003993
rose,0.004796
rot,0.008480
routin,0.017023
royal,0.004170
rraphi,0.013154
rubber,0.006859
rubric,0.008499
rule,0.002885
ruptur,0.007937
russia,0.004645
s,0.006725
safe,0.005168
safer,0.007727
sage,0.006231
salernitanu,0.013154
samhita,0.009040
satisfactori,0.007193
save,0.008977
saw,0.003868
scale,0.003577
scalpel,0.010134
scienc,0.002658
scientif,0.009542
scientist,0.007229
score,0.023176
scrape,0.008957
scratch,0.007715
screen,0.005837
screw,0.008519
scrotal,0.011559
scrub,0.028289
second,0.002594
section,0.003916
sed,0.008780
sedat,0.009128
seed,0.005608
seen,0.003101
semielect,0.013154
semiperman,0.019927
semmelwei,0.019434
separ,0.008663
servic,0.015399
set,0.007346
sever,0.013760
shang,0.008756
short,0.003370
shorten,0.006680
sign,0.014488
signific,0.005616
similar,0.005254
simplest,0.005611
simpli,0.007179
simpson,0.007371
sing,0.007283
singl,0.002944
site,0.048173
skelet,0.007704
skill,0.004238
skin,0.044636
skull,0.021082
slow,0.009083
small,0.005384
smaller,0.003740
snow,0.006815
socal,0.004439
societi,0.005512
solut,0.011291
sometim,0.005727
soot,0.009911
sound,0.004632
span,0.005082
special,0.016508
specialti,0.024991
specif,0.002632
specimen,0.006822
speed,0.004498
spell,0.006071
spend,0.004566
spinal,0.023012
spine,0.007445
spray,0.008281
spread,0.007777
stabl,0.004329
staff,0.005186
stage,0.003841
stain,0.007250
stapl,0.020894
start,0.005569
state,0.007699
statu,0.007348
stay,0.033707
steam,0.006552
steril,0.082214
sterilis,0.022050
sternum,0.010196
stoma,0.023118
stomach,0.007371
stone,0.004913
stop,0.004346
street,0.005019
stress,0.004511
strict,0.005112
structur,0.023133
student,0.003744
studi,0.009299
subcontin,0.006779
subcutan,0.009717
subject,0.011194
suburb,0.007637
success,0.005834
suffer,0.008030
suggest,0.018479
surfac,0.007966
surgeon,0.116614
surgeri,0.601674
surgerythat,0.013154
surgic,0.506480
surround,0.004028
sushruta,0.018197
susruta,0.011141
sustain,0.004303
sutur,0.048362
sweep,0.006738
swift,0.007326
syme,0.020799
syndrom,0.006703
systemat,0.004203
tabl,0.004233
taken,0.012885
taper,0.008853
team,0.009188
techniqu,0.030427
technolog,0.003171
technologist,0.008580
teeth,0.006924
templ,0.005815
tendon,0.008804
term,0.002078
terminolog,0.005180
test,0.010789
testimoni,0.007078
text,0.015180
th,0.005045
thcenturi,0.005072
theater,0.014216
theatr,0.006214
themselv,0.003263
therapeut,0.006491
therapi,0.011206
therefor,0.002990
thi,0.019746
thing,0.007001
thorac,0.008853
thoroughli,0.006971
thromboplastin,0.013154
thu,0.002571
tie,0.004291
time,0.017518
tissu,0.074425
today,0.006320
togeth,0.006067
tool,0.007045
tooth,0.008019
topic,0.017452
total,0.006139
touch,0.005806
tract,0.012546
train,0.003798
trajectori,0.006562
transfer,0.007529
transit,0.003830
transplant,0.036722
trauma,0.007266
traumat,0.015211
travers,0.007153
treat,0.023113
treati,0.004594
treatis,0.005307
treatment,0.032375
trepan,0.010635
tri,0.003462
truth,0.004680
tube,0.006079
tuberculosi,0.015644
tubular,0.009254
tumor,0.014127
turpentin,0.010635
twenti,0.005411
twice,0.005243
type,0.018514
typic,0.011805
uncommon,0.006743
unconsci,0.006578
understand,0.002986
undertaken,0.005668
undid,0.011406
unfortun,0.006342
unintent,0.007762
unit,0.008875
univers,0.004557
unknown,0.009109
unless,0.004929
unnecessari,0.006496
unremark,0.010018
unsteril,0.048591
unwant,0.007326
urgenc,0.008622
urinalysi,0.010917
urolog,0.009717
usag,0.004614
use,0.061118
usual,0.010589
valley,0.005087
valv,0.007523
vari,0.003243
variou,0.002504
vascular,0.007250
vener,0.007283
ventil,0.017332
verb,0.007275
veri,0.002512
vertebra,0.009098
vesaliu,0.008710
vessel,0.037492
veterinarian,0.009357
victoria,0.006467
vinci,0.007503
vital,0.004913
volum,0.003768
vomit,0.008539
vulner,0.005595
wa,0.037880
walk,0.005619
wall,0.004658
ward,0.013464
wash,0.020655
way,0.004704
weak,0.004370
wear,0.011923
week,0.009247
weekday,0.010261
weekend,0.032610
weight,0.008868
western,0.003309
whilst,0.005682
wide,0.008500
wilhelm,0.005538
work,0.023723
world,0.006691
worldwid,0.008926
worn,0.007627
wors,0.006049
wound,0.072424
wrist,0.009128
written,0.003483
wrote,0.003748
xray,0.035999
year,0.013321
yolk,0.009357
young,0.004084
youth,0.005548
zahra,0.010635
zeu,0.008480
