abl,0.010519
abv,0.027561
academ,0.016632
accept,0.020911
accord,0.005551
accredit,0.035158
achiev,0.003492
activ,0.002770
actor,0.006399
addit,0.008425
admiss,0.014809
admit,0.005854
advanc,0.010286
advantag,0.012927
advis,0.005611
aftercar,0.014604
age,0.003476
agenc,0.004367
agent,0.009466
agribusi,0.010428
agricultur,0.016504
alameda,0.011715
allow,0.005521
america,0.011671
american,0.018872
anatomi,0.019558
andor,0.004858
andrew,0.005638
anesthesiolog,0.010839
ani,0.009786
anim,0.209827
animalbas,0.011628
animalshousehold,0.014604
anticoagul,0.010892
applic,0.016576
appropri,0.008899
approxim,0.011349
aquacultur,0.019242
aquat,0.022442
area,0.011028
aris,0.004528
arman,0.012509
art,0.004246
aspect,0.007297
assist,0.004139
associ,0.010847
australasia,0.009232
australasian,0.009436
australia,0.004825
australian,0.005773
avail,0.006786
averag,0.012439
avma,0.058416
avoid,0.004146
award,0.019576
baccalaureu,0.014604
bachelor,0.014459
basal,0.008740
base,0.004837
basic,0.003367
bateson,0.009251
bbc,0.012631
bear,0.005195
becom,0.002679
beethoven,0.021576
befor,0.008576
behavior,0.007853
bel,0.010101
believ,0.003462
benoit,0.010388
biochemistri,0.026613
biolog,0.015879
biophys,0.007423
bird,0.011428
blood,0.010902
board,0.033803
bodi,0.010076
book,0.015906
born,0.004728
botul,0.013238
bourgelat,0.025019
bovin,0.019099
box,0.006275
branch,0.003559
breed,0.020137
breeder,0.010238
brick,0.008265
britain,0.004715
british,0.003737
broadcast,0.006494
brown,0.005679
brucella,0.012833
built,0.004172
busi,0.003773
bv,0.010349
bvetm,0.014604
bvm,0.014604
bvsc,0.014604
cabl,0.007297
calculu,0.006256
came,0.003665
campaign,0.005032
canada,0.004801
candid,0.005163
canin,0.009774
canineonli,0.014604
captiv,0.007180
cardiolog,0.009886
care,0.021058
career,0.010999
carri,0.003614
carrier,0.006732
case,0.011212
cat,0.014224
cattl,0.013133
caus,0.005984
cell,0.009643
centuri,0.002878
certain,0.012273
certifi,0.007314
charact,0.004632
chariti,0.007274
charter,0.006031
chassi,0.012240
chemistri,0.004913
children,0.004610
chile,0.007251
chinchilla,0.011807
class,0.003718
claud,0.007263
client,0.012913
clinic,0.064318
close,0.002999
cockatoo,0.013780
cod,0.009194
colleg,0.034068
colloqui,0.007802
colorado,0.007908
combat,0.005885
combin,0.006394
come,0.003206
comment,0.005370
common,0.008133
commonplac,0.008003
compani,0.007081
companion,0.012934
companionship,0.011062
compar,0.009949
comparison,0.004701
compens,0.005667
compet,0.009245
competit,0.008818
complet,0.021677
complex,0.006562
complianc,0.007196
concern,0.006295
conclus,0.004996
condit,0.006274
conditionsto,0.014604
conserv,0.008901
consid,0.010460
consider,0.003768
consist,0.006002
constrain,0.006519
contain,0.003216
content,0.008848
continent,0.005971
continu,0.002716
contribut,0.006582
conveni,0.005986
core,0.004761
cosmet,0.008244
cost,0.023654
council,0.004088
countri,0.014754
cours,0.031264
cover,0.007383
creatur,0.013676
credit,0.004339
critic,0.003298
crop,0.005543
ct,0.007763
culmin,0.005941
cultur,0.003371
current,0.002870
curriculum,0.034729
custom,0.004534
dairi,0.016510
day,0.006767
dead,0.005621
deal,0.010836
dean,0.007309
death,0.003927
debark,0.012833
debat,0.004174
decis,0.003780
declaw,0.013023
declin,0.004257
degre,0.040393
degu,0.014604
dental,0.017132
dentistri,0.009393
denver,0.009857
depart,0.003931
depend,0.002958
depict,0.005593
dermatolog,0.019772
descript,0.004098
design,0.006587
destroy,0.004689
devast,0.006366
develop,0.006727
devot,0.005300
diagnosi,0.006803
diagnost,0.014360
dictat,0.006412
differ,0.016640
directli,0.003602
disast,0.006194
disciplin,0.004131
diseas,0.046971
diseasecaus,0.010690
disord,0.011560
dispatch,0.007680
distemp,0.011807
distinct,0.003453
divers,0.004312
dmoz,0.005938
dmv,0.012663
dock,0.008244
doctor,0.042810
documentari,0.006891
dog,0.053701
dolittl,0.026476
dolphin,0.008698
domest,0.004646
doubl,0.004964
dr,0.027817
drmedvet,0.014604
drvetm,0.014604
duo,0.009915
dure,0.005162
dvm,0.038499
ear,0.007164
earli,0.002700
earn,0.005074
east,0.004150
echo,0.007520
econom,0.002954
eddi,0.009139
educ,0.010317
effort,0.003738
egg,0.006530
elect,0.007963
elmo,0.022124
embryolog,0.008903
emerg,0.003459
emphas,0.004737
emphasi,0.014690
employ,0.021485
encompass,0.005053
enforc,0.005061
england,0.009369
english,0.011279
enter,0.007893
environment,0.004340
epidemiolog,0.030576
equin,0.055615
equip,0.004826
equival,0.004348
establish,0.008643
ethic,0.014905
etymolog,0.005746
europ,0.007321
european,0.003362
euthanasia,0.019194
eventu,0.003837
evet,0.014604
evil,0.006566
evolut,0.004383
exactli,0.005288
exam,0.015480
examin,0.012676
exampl,0.007253
exceed,0.005669
exclus,0.004611
exot,0.021573
expens,0.004821
experi,0.013279
expos,0.005407
exposur,0.005999
extens,0.007291
extern,0.002110
face,0.004051
facil,0.015524
facilit,0.004866
fact,0.003427
famili,0.007476
farm,0.021545
farrieri,0.012663
featur,0.003650
felin,0.010788
felineonli,0.014604
femal,0.005420
ferret,0.011715
fever,0.007695
fiction,0.011515
field,0.017688
film,0.010950
final,0.003491
financ,0.004277
fish,0.005036
flock,0.017839
focu,0.011881
focus,0.018789
foil,0.008872
follow,0.009236
food,0.024928
foodborn,0.011252
forefront,0.008491
foreign,0.003757
formal,0.007224
fortifi,0.007899
foundat,0.007528
founder,0.005059
franc,0.004132
french,0.003884
frenchman,0.009549
frequent,0.004058
freyberg,0.013780
fulli,0.008704
function,0.002955
futur,0.007031
gener,0.012446
genet,0.004903
gerbil,0.012509
good,0.003209
got,0.006512
govern,0.016470
grade,0.006732
graduat,0.070322
grandma,0.012833
grant,0.004425
granvil,0.011123
great,0.006507
greater,0.003636
greatli,0.004727
green,0.004964
griffin,0.009085
grossli,0.009458
group,0.005207
gutkind,0.013238
ha,0.011549
hamster,0.011186
handl,0.005249
hansen,0.009000
har,0.008049
harm,0.005565
harvey,0.007320
health,0.032195
healthcar,0.006799
heart,0.005298
heavi,0.004989
help,0.006320
hematolog,0.009944
herd,0.030810
herman,0.007710
herriot,0.024480
hershel,0.013238
hi,0.015530
high,0.002923
higher,0.003431
hipjoint,0.014604
histolog,0.036136
histori,0.007213
holt,0.008812
home,0.004122
horror,0.008255
hors,0.006235
hospit,0.017077
hour,0.005072
hous,0.003872
howev,0.007028
human,0.050062
husband,0.007520
husbandri,0.008397
identifi,0.003489
ill,0.016816
illeg,0.005816
impact,0.003956
import,0.007386
includ,0.028055
incom,0.013264
increas,0.011103
independ,0.005929
india,0.004419
individu,0.008932
industri,0.009884
inflict,0.007858
inform,0.005739
inhibit,0.007106
injuri,0.025597
inorgan,0.006749
instanc,0.011728
insur,0.016696
intern,0.005059
internship,0.027583
intervent,0.010475
introduct,0.003826
involv,0.011194
ireland,0.006033
isol,0.009373
issu,0.006195
j,0.003625
jame,0.004071
jim,0.007629
john,0.003283
jone,0.006409
journal,0.003712
judg,0.005330
jurisdict,0.011717
kingdom,0.023038
knowledg,0.003630
koharik,0.014604
l,0.004248
laboratori,0.019592
landlock,0.009175
larg,0.012717
larger,0.003809
larva,0.009121
late,0.003341
later,0.002870
latin,0.004536
lawsuit,0.007968
leav,0.004087
legal,0.003982
level,0.002885
licens,0.017240
licensur,0.009802
life,0.006204
like,0.015466
limb,0.007553
limit,0.002947
link,0.002098
list,0.005367
littl,0.003693
live,0.006240
livestock,0.027248
local,0.009806
locat,0.007096
london,0.004063
loss,0.004221
love,0.005729
low,0.003698
lupton,0.012240
lyon,0.016489
macdhui,0.014604
maintain,0.003365
major,0.005120
make,0.002454
malaria,0.008630
male,0.005412
malpractic,0.039899
mammal,0.012218
manag,0.003456
mani,0.021812
manifest,0.005551
marin,0.005524
martin,0.005108
match,0.005132
materi,0.003381
mathemat,0.003793
mcfadyean,0.013023
mcgoohan,0.014604
mean,0.007973
meat,0.006696
med,0.020202
medic,0.048884
medicin,0.165637
medicina,0.045569
meet,0.003904
member,0.003079
microbiolog,0.037836
milk,0.007127
minim,0.005093
minor,0.008931
mobil,0.020503
modern,0.005789
monitor,0.005218
mortar,0.009017
mostli,0.004117
movi,0.013200
mri,0.008363
multiplechoic,0.011467
murphi,0.008617
mvb,0.013238
narrow,0.010898
nation,0.002674
natur,0.002576
nearli,0.008406
neglig,0.007180
neighbour,0.005894
network,0.004034
new,0.004311
newli,0.005077
newton,0.012185
nomenclatur,0.013702
normal,0.007692
north,0.011494
norway,0.006782
notabl,0.007405
nutrit,0.027727
observ,0.006369
occur,0.003065
odiham,0.013023
offer,0.007176
oil,0.004816
oliv,0.006842
oncovirus,0.013238
onli,0.011106
open,0.003303
oper,0.009133
order,0.007977
organ,0.013161
orient,0.005028
otter,0.009722
outsid,0.003681
overal,0.004416
ovin,0.013486
owner,0.016375
p,0.003683
pain,0.006112
paperback,0.008124
paraveterinari,0.013023
pariti,0.006945
parker,0.008578
parrot,0.009974
particular,0.003020
particularli,0.006768
pass,0.007497
past,0.003828
pathogen,0.007763
patholog,0.034299
patient,0.029389
patrick,0.013976
patsi,0.012833
pedigre,0.020699
penalti,0.014436
penn,0.008903
percentag,0.005377
perform,0.016962
permit,0.004915
person,0.003157
persuad,0.006973
pertin,0.008630
pet,0.030605
pharmaceut,0.006574
pharmacolog,0.045200
physic,0.006315
physician,0.042611
physiolog,0.022736
pjf,0.014604
place,0.005458
plagu,0.013900
planet,0.005475
platt,0.010788
play,0.010452
point,0.002799
pool,0.006318
poor,0.004771
popular,0.006905
porcin,0.025019
portray,0.012562
posit,0.002859
possibl,0.002822
postdoctor,0.018745
postgradu,0.016173
poultri,0.017132
practic,0.088819
practition,0.011615
prepar,0.017951
prerequisit,0.008003
prescrib,0.006757
present,0.002766
pressur,0.004165
prevent,0.019780
preveterinari,0.014604
previous,0.004218
primari,0.007305
primarili,0.003782
principl,0.003321
print,0.005196
prison,0.005873
privat,0.011903
problem,0.002959
procedur,0.004819
produc,0.002879
profess,0.028913
profession,0.022419
professorship,0.008935
profil,0.005974
program,0.006961
promot,0.007894
propag,0.006165
prophylact,0.011252
prophylaxi,0.012833
prospect,0.005880
protect,0.007376
prove,0.004270
provid,0.004910
public,0.008360
publish,0.006142
puls,0.007374
punit,0.009311
pure,0.004375
purebr,0.023091
pursu,0.005032
qualif,0.014063
qualifi,0.005819
qualiti,0.004122
question,0.003475
rabbit,0.008566
rabi,0.009436
radiographi,0.010643
rais,0.008163
ranch,0.009271
rate,0.010287
ratio,0.004990
ration,0.004768
reach,0.007133
read,0.009144
readi,0.006449
reason,0.003149
receiv,0.010058
recent,0.003038
recogn,0.011289
refer,0.005264
referr,0.009213
regimen,0.009549
region,0.003142
regist,0.032651
registr,0.020500
regul,0.008309
reindeer,0.010238
rel,0.006293
relationship,0.003349
releas,0.004386
relev,0.009180
reli,0.004228
remad,0.011715
remedi,0.006941
remov,0.004051
render,0.005755
replac,0.003576
reproduct,0.005961
reptil,0.015434
requir,0.016576
research,0.014235
resid,0.013948
resolv,0.005097
respect,0.003337
respons,0.012175
restor,0.004963
restrict,0.004067
result,0.004889
revers,0.004831
review,0.003932
risk,0.004318
rodent,0.008919
role,0.012297
rose,0.005325
royal,0.009261
run,0.007713
s,0.002489
safeti,0.005656
salari,0.012982
salmon,0.008872
salmonella,0.010388
scan,0.007007
scarciti,0.007332
scenario,0.006356
school,0.042846
scienc,0.026564
scientif,0.003531
scientist,0.004013
scope,0.005159
scotland,0.006596
scott,0.006494
sea,0.004477
seat,0.005193
seek,0.003938
seen,0.003443
semest,0.009774
seri,0.017480
servic,0.006838
set,0.005437
sever,0.002546
share,0.003419
sheep,0.007071
shelter,0.013684
short,0.003741
shorten,0.007417
shropshir,0.011123
sick,0.006891
sign,0.004021
signific,0.003117
similar,0.008749
sir,0.011025
situat,0.003760
skill,0.004705
sleep,0.006950
slightli,0.005293
small,0.017932
societi,0.006120
someth,0.004696
song,0.012954
speci,0.053903
special,0.012218
specialis,0.007076
specialist,0.018181
specialti,0.097111
specif,0.008766
spend,0.005069
spill,0.008630
spread,0.004317
st,0.007874
stabl,0.004806
standard,0.006579
stanley,0.006432
star,0.005416
startup,0.008491
state,0.038467
stationari,0.007081
stay,0.005346
steve,0.007506
stock,0.004712
storag,0.005812
stori,0.004951
stress,0.010017
student,0.020786
studi,0.023230
subject,0.003107
suffer,0.004457
supplement,0.006047
suppress,0.005593
surgeon,0.015231
surgeri,0.048205
surgic,0.014797
surviv,0.008425
survivor,0.007587
sustain,0.004777
suv,0.011392
swine,0.010203
symptom,0.006950
tail,0.007071
taken,0.007152
techniqu,0.003753
temperatur,0.004937
tend,0.004010
term,0.002307
test,0.015971
text,0.004213
textbook,0.005505
th,0.002800
themselv,0.003622
thi,0.021922
thing,0.007772
thoma,0.004369
thomasina,0.014604
threat,0.005122
time,0.008644
titl,0.013152
topic,0.003875
touch,0.006446
trade,0.003533
tradit,0.006151
train,0.012652
transmiss,0.006033
transplant,0.008153
transport,0.004187
travel,0.004312
treat,0.042768
treatment,0.040437
tucci,0.013238
turn,0.006753
tv,0.013506
twoyear,0.015884
type,0.002936
typic,0.006553
unabl,0.005075
undertak,0.006630
undertaken,0.006293
unemploy,0.005720
uniform,0.005662
unit,0.049270
univers,0.005059
unlik,0.012202
unnecessari,0.007213
upgrad,0.007012
upward,0.006799
urinalysi,0.012120
usbas,0.009232
use,0.015965
usual,0.020574
vaccin,0.008105
valu,0.006260
vari,0.010801
variou,0.002780
various,0.007553
varnick,0.029208
ventresca,0.014604
veri,0.008367
vernon,0.009175
versu,0.005701
vertebr,0.007257
vet,0.118982
veterina,0.014604
veterinari,0.624853
veterinaria,0.053947
veterinarian,0.592159
vial,0.011628
villag,0.005581
vincent,0.007740
virolog,0.009121
visual,0.005153
vmd,0.014604
vocal,0.007629
vs,0.005897
wa,0.024031
wage,0.005366
walk,0.006238
want,0.004509
way,0.002611
welfar,0.005625
wellknown,0.005733
whale,0.007608
wherea,0.008476
whilst,0.006309
wide,0.003145
widen,0.007601
widespread,0.004692
wife,0.006296
wildlif,0.020879
wilson,0.006101
wish,0.010800
word,0.003390
work,0.023944
worker,0.013639
written,0.003867
year,0.017254
yellow,0.006859
zoo,0.017684
zoologist,0.008540
zoonos,0.012369
