abelian,0.061786
abstract,0.056604
ad,0.005864
addisonwesley,0.013049
admit,0.009690
algebra,0.394731
algorithm,0.009212
allegretti,0.024174
allen,0.021219
allow,0.018279
ambient,0.013354
american,0.005206
ani,0.016199
antipod,0.018311
appear,0.010645
appl,0.011967
appli,0.004912
applic,0.016464
approach,0.031731
approxim,0.006262
archiv,0.008457
area,0.004564
aris,0.007496
aspect,0.006039
assign,0.016508
associ,0.017956
axiom,0.022918
axiomat,0.012653
b,0.006086
ball,0.011348
base,0.008008
basi,0.005723
basic,0.022297
becaus,0.004171
better,0.006248
betti,0.049238
book,0.005266
booksurg,0.020475
borsukulam,0.021243
bottl,0.013546
branch,0.011785
bredon,0.022811
broad,0.007442
broader,0.009238
brouwer,0.016225
brown,0.056412
c,0.010605
calcul,0.007070
cambridg,0.022049
case,0.004640
categor,0.009433
categori,0.035405
categorytheoret,0.020962
certain,0.015238
chain,0.008290
chang,0.004183
character,0.007038
characterist,0.006396
chicago,0.009044
circl,0.008942
class,0.006155
classic,0.006131
classifi,0.030028
close,0.004965
coboundari,0.024174
cochain,0.072524
cocycl,0.022811
cohomolog,0.279531
colimit,0.020475
combinator,0.014243
combinatori,0.052307
complet,0.005126
complex,0.065174
comput,0.006150
concis,0.011304
confus,0.008354
connect,0.012222
construct,0.028739
contain,0.005324
continu,0.017989
conveni,0.009910
correspond,0.026952
counterpart,0.019906
cours,0.019407
cover,0.018333
cross,0.016202
cubic,0.012812
cut,0.007880
cw,0.017543
cwcomplex,0.023407
daili,0.008681
deal,0.005979
decomposit,0.012118
deepli,0.010480
defin,0.025469
deform,0.012118
deriv,0.011287
dieck,0.022811
differ,0.007869
differenti,0.030063
difficult,0.006473
dimens,0.025621
dimension,0.034446
discuss,0.006056
doe,0.010044
doubl,0.008217
dualiti,0.012737
dualiz,0.021243
dylan,0.018516
e,0.012029
easi,0.009075
easier,0.009568
ech,0.040128
ed,0.012511
edit,0.006994
eilenberg,0.019546
em,0.028444
embed,0.010392
emphas,0.007842
emphasi,0.016211
encyclopedia,0.007696
end,0.004885
equat,0.014864
equip,0.007989
equival,0.021594
euclidean,0.037477
eulerpoincar,0.022325
european,0.011132
everi,0.016775
exampl,0.012006
exist,0.008887
extend,0.005894
f,0.006582
field,0.004880
filter,0.011138
finit,0.036968
fix,0.014185
flavor,0.013648
flavour,0.015515
focu,0.006555
fraleigh,0.021913
free,0.038208
functor,0.035238
functori,0.043114
fundament,0.067312
g,0.019393
gener,0.034337
geometr,0.019653
geometri,0.009745
georg,0.006887
given,0.004792
glen,0.015967
global,0.006345
glu,0.016225
goal,0.006572
graduat,0.008954
graph,0.021263
great,0.005385
greek,0.006766
greenberg,0.033125
group,0.150866
groupoid,0.173243
grow,0.006127
h,0.026552
ha,0.012745
hairi,0.018120
hand,0.011841
handl,0.008689
hardi,0.013997
harper,0.024618
hatcher,0.038498
hausdorff,0.017196
hazewinkel,0.014444
higgin,0.067104
higher,0.011361
higherdimension,0.015967
hole,0.010876
homeomorph,0.052198
homo,0.012526
homolog,0.184482
homomorph,0.032923
homotopi,0.215313
ident,0.006842
identifi,0.005776
illustr,0.008149
impli,0.007429
import,0.008151
includ,0.006634
induc,0.009462
inform,0.014252
inspir,0.007906
integ,0.011459
integr,0.005766
interrel,0.011664
introduc,0.005605
introduct,0.006334
intuit,0.010225
invari,0.042263
investig,0.020087
involv,0.009264
isbn,0.050840
isomorph,0.013844
isotopi,0.018982
j,0.018003
john,0.010870
join,0.007107
journal,0.006146
jp,0.014539
k,0.007244
kamp,0.019880
kampen,0.160513
kind,0.006364
klein,0.012653
knot,0.113270
known,0.007985
l,0.007033
languag,0.012009
lectur,0.008686
led,0.005156
life,0.005135
line,0.005717
list,0.004442
llc,0.015515
london,0.013453
loop,0.011000
lot,0.009839
main,0.015171
major,0.004238
make,0.004062
manag,0.005721
mani,0.003610
manifold,0.112634
manipul,0.008553
map,0.029231
marvin,0.014200
materi,0.005597
math,0.024766
mathemat,0.087917
mathematician,0.019555
maunder,0.020261
meet,0.006463
method,0.019789
michiel,0.014158
modern,0.014374
modul,0.021572
morphism,0.033125
multipl,0.006144
n,0.014347
natur,0.012793
nd,0.007432
ndimension,0.015158
ndisk,0.024174
near,0.006568
need,0.009604
nonabelian,0.035087
nonconnect,0.024174
nondifferenti,0.019393
nonexist,0.012404
nonorient,0.022325
nostrand,0.016412
nostrandreinhold,0.024174
notabl,0.006129
note,0.009211
notion,0.015115
nowherevanish,0.024174
nspace,0.019707
nsphere,0.041415
nth,0.032101
number,0.011988
object,0.005460
odd,0.011269
older,0.008382
onli,0.007354
open,0.005468
orient,0.016647
origin,0.008853
p,0.006097
pair,0.008512
particularli,0.005602
pass,0.012411
pdf,0.009245
pj,0.030565
plane,0.019242
planetmath,0.038224
poincar,0.013249
point,0.027801
porter,0.013481
possibl,0.004672
pp,0.014935
precis,0.007545
present,0.009160
press,0.016173
primarili,0.006261
problem,0.009797
proc,0.015967
procedur,0.007977
project,0.005667
proof,0.018679
properti,0.005546
prove,0.021208
provid,0.008128
pure,0.014486
quantiti,0.007461
question,0.011504
quit,0.007741
r,0.061296
rank,0.007733
razak,0.020707
read,0.010091
real,0.006029
realiz,0.032491
recast,0.015128
record,0.012246
refer,0.002905
refin,0.009113
reinhold,0.015220
rel,0.005208
relat,0.011750
resembl,0.009163
respect,0.005524
result,0.012139
retain,0.007639
retriev,0.017261
revis,0.008681
rham,0.097730
ronald,0.020754
rope,0.014016
s,0.012360
satisfi,0.008617
second,0.004767
section,0.007198
segment,0.009953
sens,0.011955
sequenc,0.016129
seri,0.005787
set,0.027001
shape,0.006924
sheaf,0.035716
shoelac,0.020707
simpler,0.010780
simplest,0.020625
simpli,0.006597
simplici,0.243612
singular,0.010654
sivera,0.024174
smaller,0.006874
smooth,0.021444
soc,0.016136
societi,0.010131
solv,0.007440
solvabl,0.030893
sometim,0.015789
space,0.205703
sphere,0.009047
springer,0.019572
standard,0.005445
statement,0.029689
steenrod,0.021243
string,0.032218
structur,0.023619
studi,0.021363
subgroup,0.050903
subject,0.010286
t,0.014068
techniqu,0.006213
tell,0.009106
term,0.003820
text,0.006974
textbook,0.009113
theorem,0.135949
theoret,0.006629
theori,0.056868
therefor,0.005495
thi,0.027216
togeth,0.011150
tom,0.011091
tool,0.012947
topdimension,0.022325
topolog,0.533999
topologist,0.020707
toru,0.016271
tract,0.011528
transform,0.026472
triangl,0.011958
type,0.014582
typic,0.005424
u,0.009433
underli,0.007678
undon,0.017399
union,0.012015
uniqu,0.006893
unit,0.008155
univers,0.008374
use,0.029732
usual,0.004865
van,0.088439
vector,0.009777
verifi,0.010220
version,0.014144
view,0.010363
vol,0.017378
wa,0.016575
way,0.004322
weak,0.008031
westviewperseu,0.024174
whitehead,0.013324
work,0.011890
x,0.028634
xii,0.014587
y,0.017219
yield,0.007898
zrich,0.015549
