abacu,0.028191
abov,0.007882
abstract,0.008125
abstractli,0.005362
absurdum,0.005565
academ,0.004611
academi,0.002965
accept,0.001932
access,0.004259
accomplish,0.003093
accord,0.004617
account,0.003625
accumul,0.002952
accur,0.005245
achiev,0.001936
acmassoci,0.007641
act,0.001759
action,0.003782
activ,0.003071
ad,0.007857
ada,0.005028
adapt,0.004902
add,0.005870
addit,0.009343
address,0.002317
adjac,0.003523
adject,0.004207
admit,0.006492
adopt,0.002124
advanc,0.003802
advantag,0.002389
advis,0.003111
aesthet,0.003733
affect,0.002011
age,0.003855
agent,0.007873
ahead,0.003593
aid,0.004618
alan,0.016316
alexandr,0.004735
alfr,0.003154
algebra,0.019833
algor,0.026406
algorismo,0.007641
algorismu,0.022923
algorithm,0.802337
algorithmexampl,0.007641
algorithmprogram,0.007340
algorithmsom,0.007641
algorithmu,0.007641
algoritmi,0.021347
algridhm,0.007641
alkhwarizmi,0.024405
alkhwrizm,0.011963
alonzo,0.011130
alreadi,0.004484
alter,0.005522
altern,0.003955
alway,0.008279
ambigu,0.007234
amplifi,0.004226
analog,0.005501
analysi,0.018555
analyt,0.005612
analyz,0.002587
ancient,0.008920
andrew,0.003126
ani,0.023062
anneal,0.010752
anoth,0.013324
answer,0.021926
antisemit,0.004963
appar,0.002627
appeal,0.002866
appear,0.016046
appli,0.006582
applic,0.014706
apprehend,0.005057
approach,0.003543
approxim,0.016781
approximationssuch,0.007641
ar,0.004428
arab,0.002843
arbitrari,0.016619
arbitrarili,0.004250
architectur,0.002903
argu,0.002047
argument,0.012930
arian,0.005601
aris,0.002511
arithmet,0.026309
arithmo,0.007115
array,0.006717
arriv,0.002477
arrow,0.003952
art,0.004709
articl,0.001829
artifici,0.002599
ask,0.002544
assembl,0.002402
assert,0.002644
assign,0.019354
assignmentreplacementsubstitut,0.007641
associ,0.003007
assum,0.008529
assumpt,0.002622
astronom,0.006932
asymmetr,0.004211
asymptot,0.004510
atom,0.002691
attempt,0.008779
attent,0.002510
attest,0.004052
augment,0.003963
author,0.006932
authorthen,0.007641
autocomplet,0.007478
autom,0.013778
automat,0.006284
automata,0.004722
avail,0.005644
averag,0.002299
avoid,0.004598
axiom,0.015354
axiomat,0.004238
b,0.034660
babbag,0.020651
babylonian,0.008369
background,0.002643
backtrack,0.006167
badli,0.004184
baghdad,0.004275
barkley,0.013094
base,0.004023
basi,0.001917
basic,0.005601
baudot,0.007340
bc,0.002746
beaver,0.005295
becaus,0.005588
becom,0.005943
befor,0.001585
beforeaft,0.007115
began,0.003706
begin,0.005429
begun,0.002951
behavior,0.002177
behaviour,0.002861
believ,0.003839
bell,0.007187
benchmark,0.004222
benefici,0.003406
benefit,0.002252
benign,0.004999
benson,0.005321
bertrand,0.004043
besid,0.003175
best,0.006137
better,0.004186
bezroukov,0.007641
bhmjacopini,0.015282
bi,0.004352
big,0.005620
bigger,0.004166
binari,0.018532
biograph,0.004215
biolog,0.002201
blindli,0.005738
boa,0.005162
boldfac,0.012716
bolter,0.007221
book,0.003528
booki,0.006659
bool,0.005129
boolean,0.004675
boolo,0.012804
bound,0.013886
box,0.020877
boy,0.003657
brahmagupta,0.005717
brain,0.002970
branch,0.001973
broad,0.002492
brook,0.012256
bruteforc,0.012020
bubbl,0.003890
build,0.003928
built,0.002313
buraliforti,0.006547
burdensom,0.005565
busi,0.002092
c,0.010657
ca,0.010241
cach,0.005162
calcul,0.045001
calculu,0.010408
came,0.004064
camera,0.008035
canon,0.016876
capabl,0.009791
card,0.017660
carlo,0.003537
carmen,0.005362
carri,0.012023
case,0.021760
casebycas,0.006239
categor,0.006320
categori,0.009487
censu,0.003645
central,0.001742
centuri,0.020751
certain,0.013611
cf,0.008384
chaitin,0.025108
challeng,0.002220
chang,0.018219
character,0.007073
characterica,0.007641
charl,0.002380
chart,0.003541
chaucer,0.005420
cheap,0.003851
chess,0.004543
child,0.002985
choic,0.004885
church,0.022470
churchtur,0.016695
circuit,0.003507
circumst,0.002855
cite,0.002600
claim,0.001887
class,0.010309
classif,0.005486
classifi,0.015088
clay,0.007939
clear,0.004627
clever,0.004785
clock,0.011672
close,0.008317
closer,0.012304
code,0.028866
coincid,0.003344
collect,0.005440
coloop,0.007340
combin,0.003545
combinatori,0.004380
combinatoricaunivers,0.007641
come,0.005334
commerci,0.002381
common,0.018039
commun,0.003251
compact,0.014671
compactnessan,0.007641
compani,0.003926
compar,0.005516
comparison,0.002607
complaint,0.004119
complet,0.022322
complex,0.032747
compon,0.008564
compos,0.004717
compress,0.007677
comput,0.160691
computationsand,0.007641
computercomputor,0.007641
computor,0.028884
concept,0.013880
concern,0.001745
conclud,0.002542
concret,0.006812
condit,0.015656
configur,0.003434
confirm,0.002680
congeni,0.006202
conjectur,0.003926
connect,0.006141
conquer,0.043762
consequ,0.002114
conserv,0.004935
consid,0.008699
consider,0.002089
consist,0.001664
constant,0.002471
constitut,0.003926
constraint,0.006174
construct,0.013477
consum,0.002475
consumpt,0.005799
contagion,0.005547
contain,0.007134
content,0.017173
context,0.002187
continu,0.012051
contriv,0.020563
control,0.013215
controversi,0.004900
core,0.010561
correct,0.015022
correspond,0.009028
corrupt,0.003052
cost,0.004371
count,0.011342
counter,0.003361
countess,0.006133
cours,0.002166
creat,0.003041
creation,0.002263
credit,0.004812
crimin,0.003149
criteria,0.006227
criterion,0.003733
critic,0.010973
crucial,0.003026
cryptograph,0.005405
cryptographi,0.009250
culmin,0.003294
curat,0.005067
cure,0.003813
current,0.004775
customari,0.004144
cycl,0.002548
danger,0.002920
dash,0.005334
data,0.035717
datastructur,0.006720
date,0.002078
davi,0.003605
david,0.002208
dealt,0.003726
decad,0.002260
deceiv,0.004735
decid,0.002423
decim,0.004147
decis,0.006288
decod,0.005028
decreas,0.009793
decrement,0.012478
deduct,0.007194
deem,0.003364
defin,0.025594
definit,0.041285
deliv,0.005861
demand,0.002219
demonstr,0.004469
depend,0.004921
deriv,0.005671
describ,0.027546
descript,0.020455
deserv,0.004403
design,0.007304
desir,0.002340
detect,0.002730
deter,0.004554
determin,0.008633
determinist,0.027787
develop,0.008704
devic,0.025008
diagram,0.006840
diamond,0.007549
dice,0.005197
dicitur,0.007340
dictionari,0.003014
did,0.003691
diehr,0.007641
differ,0.018453
differenti,0.002517
difficult,0.004337
difficulti,0.002685
digit,0.005552
dilson,0.007641
dimens,0.002860
direct,0.009906
directli,0.001997
disciplin,0.004582
discov,0.002189
discret,0.026392
discuss,0.010143
display,0.002825
distinguish,0.008829
distribut,0.008206
disturb,0.003491
ditto,0.007340
divid,0.025630
divis,0.004309
divisor,0.015771
dmoz,0.003293
document,0.004800
doe,0.011776
doesnt,0.003717
domain,0.002428
domin,0.002046
dont,0.003474
dot,0.008035
dowhil,0.007641
dr,0.003084
drakonchart,0.022021
dreamt,0.006496
dure,0.002862
dynam,0.023310
e,0.008059
earli,0.001497
easi,0.009120
easili,0.002564
east,0.002301
ed,0.002095
effect,0.034901
effectivethat,0.007641
effici,0.021094
effort,0.008292
egyptian,0.003373
elect,0.004415
electr,0.004950
electromechan,0.022056
electron,0.005009
eleg,0.098190
elegantsuch,0.007641
element,0.011422
elementari,0.013507
elimin,0.005177
els,0.009247
embed,0.003481
embellish,0.005481
embodi,0.003461
emd,0.007115
emil,0.016844
emot,0.009225
emphas,0.002627
empir,0.004177
employ,0.001985
employe,0.009409
empti,0.007137
enabl,0.002373
encod,0.003645
encyclopedia,0.002578
end,0.004909
engag,0.004740
engin,0.019415
english,0.012508
ensur,0.004918
entangl,0.004606
enter,0.004376
entir,0.001941
entiti,0.002539
entscheidungsproblem,0.023607
enumer,0.021630
environ,0.001984
envis,0.004088
equal,0.010192
equat,0.012448
equip,0.008028
equival,0.009644
eras,0.004830
eratosthen,0.005282
eric,0.003555
erickson,0.006202
error,0.005692
escap,0.003005
especi,0.005214
essenti,0.006242
establish,0.001597
estim,0.004212
etymolog,0.006373
euclid,0.095764
euclidean,0.012553
europ,0.004059
european,0.001864
event,0.001948
eventu,0.008510
everi,0.013111
evid,0.002041
evolv,0.002457
exact,0.014278
examin,0.002342
exampl,0.034856
examplenumb,0.007641
exchangestep,0.007641
execut,0.018140
exhaust,0.007000
exist,0.004465
exit,0.003926
expand,0.004235
expect,0.002056
expens,0.005346
experi,0.001840
experienc,0.002687
experiment,0.002500
expert,0.002956
explain,0.002015
explicit,0.003268
explicitli,0.006094
explor,0.002280
exponenti,0.010809
export,0.005492
expos,0.002998
express,0.023273
extend,0.003948
extens,0.002021
extern,0.001170
extract,0.002881
extrem,0.004294
eye,0.002992
face,0.002246
facebook,0.065640
fact,0.005701
fail,0.002250
failur,0.007813
fairli,0.003390
fake,0.024231
fall,0.002043
famou,0.002472
far,0.004059
fast,0.012257
faster,0.012491
fastest,0.008453
fault,0.004021
favor,0.004944
fda,0.004945
featur,0.002024
feder,0.002383
feed,0.006872
feedback,0.003635
fellow,0.003384
fewer,0.003174
fft,0.006547
field,0.013077
figur,0.002216
figuri,0.007340
final,0.003872
fine,0.003200
finit,0.024766
fit,0.002725
fix,0.004751
flaw,0.003815
flight,0.003279
flock,0.004945
flow,0.014143
flowchart,0.043673
floydwarshal,0.007115
focus,0.002083
follow,0.024328
food,0.002303
foot,0.003477
footnot,0.007980
forc,0.001604
forefront,0.004708
forev,0.008533
form,0.012235
formal,0.028041
format,0.002183
formul,0.005126
formula,0.002795
forth,0.003253
foundat,0.002087
fourstep,0.007115
fr,0.003952
fraction,0.003133
frame,0.006117
free,0.001828
frege,0.019480
french,0.002154
frequent,0.004500
friend,0.003179
fruimur,0.007641
function,0.037692
furnish,0.004554
furthermor,0.002743
gain,0.001947
gcd,0.006720
gdel,0.027534
gdelherbrandkleen,0.007641
gear,0.004062
gener,0.013802
genet,0.002718
geograph,0.002603
geomet,0.005514
geometr,0.003291
georg,0.004613
giusepp,0.004815
given,0.022475
gizmodo,0.007221
goal,0.008806
good,0.010677
googl,0.026941
goto,0.097202
gottlob,0.004870
gottschalk,0.006358
grain,0.003477
graph,0.021367
graphbasestanford,0.007641
graphic,0.003442
grasp,0.003993
greater,0.002016
greatest,0.011267
greec,0.003025
greedi,0.022477
greek,0.006799
guarante,0.002936
guess,0.008978
gurevich,0.013872
ha,0.009605
haec,0.007641
half,0.002203
halt,0.025530
hand,0.003966
hanoi,0.005738
happen,0.005059
hard,0.007881
hardwar,0.014978
hate,0.009190
hazewinkel,0.004838
head,0.004132
headlin,0.009962
heavili,0.002580
heijenoort,0.006358
help,0.014018
henc,0.004995
herbrand,0.019804
heurist,0.020478
hi,0.030139
high,0.003241
higher,0.001902
highest,0.002451
highlevel,0.021133
highli,0.006321
highprob,0.006858
hilbert,0.008592
hindu,0.003710
hint,0.004357
histor,0.001798
histori,0.005332
hold,0.001928
holder,0.003639
hollerith,0.018502
home,0.002285
hone,0.005954
hope,0.002725
hous,0.002147
howev,0.009093
huffman,0.006010
human,0.013879
hundr,0.002431
ibid,0.006239
idea,0.008982
ident,0.006875
identif,0.006305
identifi,0.001934
ifthen,0.011908
ifthenels,0.014043
ignor,0.002776
ii,0.008379
iii,0.003061
ill,0.003108
illinoi,0.003918
illustr,0.002729
imag,0.007394
imagin,0.006400
immedi,0.007058
imper,0.004330
implement,0.031199
impli,0.004976
import,0.008191
impract,0.009238
improv,0.025606
includ,0.016667
incorpor,0.002198
increasingli,0.002359
independ,0.006576
indian,0.010598
indic,0.007876
indirect,0.003477
indistinguish,0.004526
indorum,0.019641
induct,0.014178
industri,0.001827
ineffici,0.003706
ineleg,0.061727
inequ,0.003367
infer,0.003076
infinit,0.015671
influenc,0.007052
inform,0.017504
informatik,0.006659
inher,0.006135
initi,0.005217
innov,0.002772
input,0.057998
insect,0.003637
insert,0.003713
insight,0.002969
instanc,0.010838
instanti,0.005257
instead,0.005624
institut,0.001693
instruct,0.093416
integ,0.038385
integerfract,0.007641
integerssymbol,0.007641
intellig,0.002497
intend,0.014867
interact,0.003994
interchang,0.003663
intern,0.002805
internet,0.002625
interpret,0.002135
intervent,0.002904
introduc,0.003755
introduct,0.004243
intuit,0.013700
invent,0.013022
inventor,0.003960
invok,0.007687
involv,0.007758
iowa,0.004945
iran,0.003631
isbn,0.001892
islam,0.002664
issu,0.006870
italic,0.006133
iter,0.016022
iv,0.003474
j,0.006030
jacqu,0.003713
jacquard,0.012267
jaundic,0.006402
jb,0.004807
jeff,0.004756
jeffrey,0.008317
jevon,0.015626
jevonss,0.006787
john,0.001820
journalist,0.003767
judg,0.002955
judgment,0.003392
june,0.002331
just,0.007465
justifi,0.003218
karnaugh,0.006858
kemeni,0.007340
key,0.004073
keyword,0.020930
khwarezm,0.006358
kind,0.002132
kleen,0.051275
knew,0.003770
know,0.009700
known,0.016048
knuth,0.040798
kruskal,0.006202
kudo,0.007221
kurt,0.004215
kurtz,0.005927
l,0.049472
la,0.002671
laboratori,0.005431
lambda,0.004385
lambek,0.020162
languag,0.042241
laptop,0.005390
larg,0.005641
larger,0.008449
largest,0.015472
late,0.007411
later,0.007957
latin,0.012576
law,0.001612
lead,0.006386
learn,0.004496
lectur,0.005819
led,0.003454
ledaprevi,0.007641
left,0.008532
legal,0.004416
leibniz,0.007986
lend,0.003438
length,0.050446
let,0.008995
letter,0.007924
level,0.008001
liarthat,0.007641
librari,0.002514
life,0.003440
lifetim,0.003426
like,0.017152
likewis,0.003169
limit,0.003268
line,0.001915
linear,0.017083
lingua,0.005269
link,0.002327
list,0.022319
liter,0.003077
literatur,0.002390
local,0.003624
locat,0.015740
logarithm,0.008661
logic,0.064748
logicaldiagram,0.007641
logician,0.004742
long,0.005212
longer,0.002207
look,0.004418
lookup,0.005638
loom,0.009724
loop,0.022109
loopthrough,0.007641
loos,0.003326
lovelac,0.011656
lower,0.001977
lowest,0.003182
lrm,0.007340
lzw,0.007115
m,0.007655
machin,0.121432
machinebegin,0.007641
machinein,0.007641
machineri,0.003299
machinesth,0.007641
magnitud,0.003301
main,0.001694
maintain,0.003731
make,0.014967
manag,0.001916
mani,0.015722
manipul,0.020055
manner,0.007747
manual,0.003379
map,0.007343
mark,0.015038
market,0.002002
massivescal,0.007641
match,0.005691
materi,0.001875
mathemat,0.031553
mathematica,0.008477
mathematician,0.019651
mathworld,0.005601
matter,0.004025
maximum,0.005819
maxplanckinstitut,0.007340
mean,0.022104
meant,0.008233
measur,0.033299
mechan,0.023712
mechanismmodel,0.007641
median,0.004166
medic,0.007392
mediev,0.002854
meet,0.004330
melzak,0.015282
member,0.003414
memoiz,0.027745
memori,0.002783
men,0.002481
menascomput,0.007641
mention,0.002590
mere,0.002632
merg,0.009668
merit,0.007636
method,0.029829
methodolog,0.002832
metric,0.007187
michiel,0.004742
middl,0.006618
midth,0.009904
million,0.002101
mind,0.017663
mindlessli,0.007340
minim,0.002824
minski,0.044051
minuend,0.021347
mislead,0.004046
mn,0.004846
model,0.018334
modern,0.006419
modif,0.003180
modifi,0.002610
modulu,0.010394
molecul,0.002889
moment,0.009132
money,0.002391
monitor,0.002893
mont,0.004011
moreov,0.003069
mors,0.004878
motion,0.002700
moveabl,0.005601
mr,0.003597
multipl,0.008232
multitud,0.004222
n,0.021626
naiv,0.004408
nation,0.002965
nativ,0.002765
natur,0.009999
near,0.002200
necessari,0.002132
necessarili,0.007857
need,0.012868
neg,0.004640
nest,0.004144
netlib,0.006936
network,0.013421
neural,0.003595
new,0.007171
newel,0.005028
news,0.055490
newsfe,0.014680
nicomachu,0.024670
nikolai,0.004749
nondeterminist,0.015964
nonoptim,0.015282
normal,0.004265
north,0.002124
notabl,0.002053
notat,0.010786
note,0.003085
notion,0.030378
nowfam,0.006547
np,0.004838
nth,0.005376
null,0.004371
number,0.085671
numer,0.011894
numero,0.007021
nut,0.004619
o,0.005643
oak,0.004308
object,0.001829
observ,0.026490
obtain,0.004159
occur,0.001700
offer,0.003979
old,0.002213
olog,0.005805
onc,0.001999
onedimension,0.004695
onetoon,0.004756
ongo,0.005855
onli,0.025865
onlin,0.016393
open,0.003663
oper,0.020256
oppos,0.002236
optim,0.056762
optima,0.006659
optimum,0.004443
order,0.007372
ordinari,0.002917
organ,0.001459
orient,0.002788
origin,0.002965
orti,0.007641
otherwis,0.002545
outcom,0.002735
outdon,0.006720
outer,0.003418
outlet,0.008550
outperform,0.004662
output,0.022342
outputinteg,0.007641
outsid,0.002041
overhead,0.009527
overlap,0.008921
owe,0.003256
p,0.004085
page,0.015739
paper,0.022078
paradigm,0.016210
paradox,0.020531
parallel,0.016635
paralleliz,0.006936
pars,0.005129
partial,0.004922
particular,0.018423
patent,0.024994
path,0.005425
paycheck,0.006069
peano,0.010465
pen,0.004287
peopl,0.007376
perform,0.018810
perhap,0.007462
period,0.001589
persian,0.010085
person,0.001750
phase,0.002573
philosophi,0.002278
phone,0.003818
physic,0.001750
piano,0.005295
pick,0.003482
pictur,0.002995
pidgin,0.006277
pin,0.004537
place,0.007566
plan,0.002026
platform,0.006553
play,0.003863
poem,0.003949
point,0.003104
polit,0.001679
polynomi,0.016329
popular,0.005743
portion,0.008066
pose,0.006518
posit,0.006343
possibl,0.025040
post,0.025968
posttur,0.014680
potenti,0.003973
power,0.003140
practic,0.008208
praesen,0.007641
preced,0.002907
precis,0.022747
precursor,0.010028
predic,0.004234
prefac,0.004403
prefer,0.002349
premarket,0.006601
premis,0.003599
present,0.009205
presidenti,0.003137
pretti,0.004990
preval,0.003378
prevent,0.002193
previous,0.004678
prim,0.006787
primari,0.002025
primarili,0.004194
prime,0.009860
primit,0.006790
princeton,0.003387
principia,0.008517
principl,0.003683
print,0.008644
probabilist,0.003990
problem,0.108304
proce,0.011206
procedur,0.016032
proceed,0.002807
process,0.036263
processor,0.017322
produc,0.012771
prof,0.009377
program,0.100366
programm,0.023593
progress,0.002091
promin,0.002406
promot,0.002188
promulg,0.003912
proof,0.025027
proper,0.002752
properli,0.003226
properti,0.003715
proport,0.002536
propos,0.009465
proposit,0.007053
prose,0.017357
prototyp,0.003957
prove,0.011840
provid,0.005445
pseudocod,0.027434
pseudorandomli,0.007221
public,0.001545
publicli,0.003283
pull,0.003521
punch,0.009756
punchedpap,0.007641
pure,0.009704
purpos,0.001995
q,0.006872
qs,0.006069
qua,0.005232
quadrat,0.008906
quadrupl,0.004999
quantit,0.002850
quantiti,0.004998
quantum,0.018568
quasiform,0.007641
question,0.007707
quicker,0.004954
quinqu,0.007115
quit,0.002593
quotat,0.004075
quotient,0.004972
r,0.067756
random,0.020488
randomli,0.004147
rang,0.001841
rank,0.005181
rapid,0.005318
rare,0.005050
ratiocin,0.005901
ration,0.002644
reach,0.001977
read,0.010140
reader,0.003318
real,0.010098
realist,0.003344
realiz,0.005441
realli,0.006261
reason,0.005239
receiv,0.001859
recent,0.003370
recogn,0.002086
recommend,0.002868
recomput,0.006601
rectangl,0.010348
recurs,0.046668
reduc,0.018434
reduct,0.005599
reductio,0.005601
redund,0.004304
refer,0.003892
refin,0.003052
refut,0.003843
regard,0.001866
regardless,0.002941
region,0.001742
regul,0.002303
rel,0.006979
relat,0.006560
relay,0.018084
relev,0.002545
reli,0.009379
remain,0.012875
remaind,0.036110
remainderloop,0.007641
remark,0.002984
rememb,0.003572
renam,0.003378
repeat,0.005617
repeatedli,0.010388
repetit,0.007939
replac,0.005949
report,0.001870
repositori,0.004583
repositoryst,0.007641
repositoryunivers,0.007641
repres,0.004788
represent,0.007364
requir,0.029105
research,0.003157
resembl,0.003069
resourc,0.005910
respect,0.001850
respond,0.005249
respons,0.001687
restrict,0.009021
result,0.012199
return,0.003938
reveal,0.005119
revers,0.002679
review,0.002180
revis,0.002907
rhetor,0.003767
richard,0.002404
ridg,0.004262
right,0.001746
rigor,0.003276
rise,0.001958
rocket,0.004133
rod,0.004207
roger,0.003263
role,0.001704
roman,0.002610
room,0.003156
root,0.009832
rosser,0.038150
royal,0.002567
rp,0.005232
rubber,0.004222
rudimentari,0.004589
rule,0.017763
run,0.014969
russel,0.006821
s,0.051065
sack,0.004049
safeti,0.003136
said,0.003998
satisfi,0.005773
savag,0.009178
say,0.006324
scale,0.002202
scholar,0.002471
scienc,0.006546
scientif,0.001958
scope,0.002860
scratch,0.004749
scratchpad,0.007641
search,0.064759
second,0.001597
section,0.004822
seek,0.002183
segment,0.010001
select,0.002116
selfcontain,0.005321
semant,0.003607
sens,0.012013
sequenc,0.027015
sequenti,0.008430
serial,0.017634
serv,0.003874
servic,0.001895
set,0.043715
sever,0.002823
shall,0.007104
shape,0.004638
shift,0.002358
short,0.002074
shorter,0.013857
shortest,0.009571
shown,0.004693
siev,0.005450
signal,0.002799
signific,0.005186
similar,0.003234
simpl,0.023670
simpler,0.003611
simplest,0.010363
simplex,0.005308
simpli,0.002209
simplic,0.007836
simplif,0.004453
simplifi,0.003154
simul,0.023541
simulatorcomputercomputor,0.007641
sinc,0.001354
singl,0.009062
site,0.002281
size,0.012654
skip,0.004990
slip,0.004473
small,0.008286
smaller,0.013816
smallest,0.003524
social,0.005168
societi,0.005090
softwar,0.011477
sold,0.002859
sole,0.002749
sollin,0.007641
solut,0.067194
solv,0.049848
solver,0.005129
someth,0.005207
sometim,0.010578
somewhat,0.002871
sort,0.028406
sound,0.002851
sourc,0.003407
space,0.016704
spaghetti,0.006601
span,0.003128
special,0.008468
specif,0.014583
specifi,0.024781
speed,0.013847
speedup,0.006069
split,0.002783
spokeswoman,0.007021
spread,0.002393
springer,0.003278
squar,0.031562
stack,0.004222
stage,0.002365
standard,0.001824
stanford,0.003145
stanley,0.003566
start,0.013714
startinginitialinput,0.007641
state,0.027254
statement,0.004972
stem,0.003044
step,0.043632
stephen,0.006016
stibitz,0.029361
stick,0.004072
stipul,0.004095
stone,0.006049
stoni,0.016129
stop,0.010702
storag,0.003222
store,0.013718
stori,0.013726
straightforward,0.004287
strategi,0.002522
string,0.003597
stroke,0.008652
strong,0.001967
stronger,0.003260
structur,0.022152
structuresn,0.007641
student,0.002305
studi,0.008587
style,0.002790
subclass,0.004963
subproblem,0.065498
subprogram,0.007115
subsequ,0.004226
substanti,0.002514
substitut,0.003009
substructur,0.016129
subtract,0.041661
subtrahend,0.021347
succeed,0.005537
success,0.010775
successor,0.003042
suffic,0.004722
suggest,0.009479
suit,0.006296
suitabl,0.003006
summar,0.003449
superfici,0.004270
superposit,0.004688
superstructur,0.005465
suppli,0.002207
suppos,0.014879
suppress,0.003101
surround,0.004960
swap,0.004130
switch,0.003325
syllog,0.005308
symbol,0.068843
symmetr,0.003856
synthet,0.003358
systemat,0.002587
tabl,0.020851
tablet,0.004317
tabu,0.013441
taken,0.005949
talibu,0.015282
talli,0.010590
tallymark,0.007641
tape,0.026510
target,0.005043
task,0.015074
tausworth,0.015282
technic,0.004817
techniqu,0.006243
technolog,0.011715
telegraph,0.004192
telegraphi,0.011394
telephon,0.007404
telephoneswitch,0.007641
telephonyth,0.007641
teleprint,0.006447
teletypewrit,0.006787
temporari,0.003193
tend,0.004447
tennesse,0.004854
term,0.007678
termin,0.012692
test,0.024353
th,0.012423
thcenturi,0.003122
themselv,0.004017
theoret,0.002220
theori,0.009524
therefor,0.005522
thesi,0.043569
thi,0.056726
thing,0.002154
think,0.002348
thirteen,0.012187
thought,0.001919
thu,0.011082
tick,0.004954
ticker,0.011477
time,0.045533
tinker,0.006101
titl,0.009723
tock,0.007340
today,0.005836
togeth,0.011205
tone,0.004109
took,0.002115
tool,0.006505
total,0.001889
touch,0.003574
tower,0.003960
track,0.002996
tradeoff,0.004366
transform,0.004433
transit,0.007073
translat,0.009326
travers,0.004403
treatis,0.003267
tree,0.008369
trend,0.005173
tri,0.006395
trial,0.003090
true,0.008771
truth,0.002881
ture,0.118775
turingcomplet,0.012335
turinghi,0.007641
turn,0.001872
tutt,0.018831
type,0.011397
typescondit,0.007641
typewrit,0.017783
typewriterlik,0.007641
typic,0.005450
ultim,0.002342
unaccept,0.004413
unalter,0.005901
unari,0.005782
unavail,0.004428
uncertainti,0.003151
uncondit,0.022975
uncov,0.003851
undecid,0.004954
underli,0.002571
understand,0.003676
understood,0.005083
undisciplin,0.006239
unexpect,0.003955
unfortun,0.003904
uniform,0.003140
unintent,0.004778
uniqu,0.002309
unisi,0.007340
unit,0.002731
univers,0.007013
unknown,0.005607
unless,0.006069
unmark,0.005738
unrel,0.003872
unsolv,0.012850
unsort,0.006787
unstructur,0.005087
upper,0.002734
usag,0.005681
use,0.084101
user,0.021030
uspto,0.007115
usual,0.016297
util,0.002450
uzbekistan,0.004862
v,0.004829
valid,0.002586
valu,0.012150
van,0.002962
vari,0.001996
variabl,0.007427
variant,0.003280
variat,0.002538
varieti,0.002033
variou,0.004625
vega,0.004478
venn,0.006010
verbos,0.006601
verg,0.004785
veri,0.010826
versa,0.003843
version,0.014213
versu,0.012644
vertex,0.005185
vertic,0.007007
vice,0.003135
view,0.001735
vii,0.004119
villedieu,0.007641
virtual,0.002678
visitor,0.003704
w,0.002272
wa,0.035533
want,0.005000
wasnt,0.004489
wast,0.003248
way,0.020272
web,0.008808
websit,0.002560
weight,0.002729
weightdriven,0.007221
weisstein,0.005638
welldefin,0.012110
went,0.002484
western,0.002037
wherea,0.009400
whi,0.004983
whiledo,0.007641
whitehead,0.004463
whittl,0.006239
wide,0.003488
winner,0.003728
wisdom,0.003585
wish,0.002994
wood,0.003125
wooden,0.004348
word,0.022559
work,0.030536
worker,0.005042
world,0.002746
wors,0.007448
write,0.014822
written,0.012865
wrote,0.002307
y,0.008652
ye,0.008643
year,0.002733
yesno,0.005805
yield,0.013228
york,0.004171
youd,0.006547
youth,0.003415
zero,0.028481
zpp,0.007115
