ablat,0.039439
abov,0.006640
absenc,0.009535
absolut,0.017595
absorpt,0.037877
academ,0.015537
access,0.007176
accomplish,0.010424
accord,0.005186
accur,0.008837
accuraci,0.022497
achiev,0.006525
acid,0.010450
acidbas,0.018525
activ,0.005175
actual,0.006638
ad,0.019858
addit,0.026236
advanc,0.006406
advantag,0.008051
aid,0.007781
aj,0.017672
allow,0.005158
alter,0.009303
amp,0.019561
amperometri,0.023111
amplifi,0.014242
analog,0.009268
analys,0.010140
analysi,0.231345
analyt,0.397168
analyz,0.034874
andor,0.018153
anoth,0.004988
appli,0.005544
applic,0.068139
approach,0.011938
approxim,0.007068
aqueou,0.015271
area,0.010303
aris,0.025385
asid,0.011829
aspect,0.006817
assist,0.007733
associ,0.020267
assur,0.011817
atom,0.045348
attract,0.008345
autom,0.023213
avail,0.006340
averag,0.023242
avoid,0.015494
b,0.020610
backbon,0.014760
bandwidth,0.034288
bard,0.018213
base,0.013558
basi,0.006460
basic,0.012583
becaus,0.004708
becom,0.015019
befor,0.005341
began,0.006245
bettencourt,0.022062
bind,0.010800
bioanalysi,0.023977
bioanalyt,0.023660
biochemistri,0.012431
biolog,0.029670
biomed,0.013733
birth,0.009215
blood,0.020369
bodi,0.006275
boil,0.013989
boltzmann,0.015798
bombard,0.013881
boxcar,0.022062
branch,0.006651
breakdown,0.012875
broad,0.008400
bulska,0.023977
bunsen,0.019887
cabl,0.013634
caesium,0.018935
calibr,0.060226
calorimetri,0.018873
camera,0.013538
cancer,0.011519
candid,0.009648
capabl,0.008248
capillari,0.016816
carbon,0.010209
carrier,0.025159
categor,0.031944
categori,0.007992
caviti,0.015144
cell,0.054052
centimet,0.017672
centuri,0.016136
certain,0.005733
chang,0.009445
channel,0.010340
character,0.023834
charg,0.032334
chemic,0.103688
chemist,0.024076
chemistri,0.266244
chemometr,0.020900
chip,0.028126
chromagraphyinfrar,0.023977
chromatographi,0.051537
chromatographyinfrar,0.023977
chromatographymass,0.044124
chromatographynmr,0.023977
circuit,0.023635
classic,0.027683
clinic,0.021849
colleg,0.009093
color,0.020871
combin,0.017920
common,0.005065
compact,0.012359
compar,0.012392
comparison,0.008784
competit,0.008237
complet,0.011572
complex,0.006130
compon,0.007214
compound,0.028320
comput,0.020825
concentr,0.090183
conduct,0.007180
confirm,0.027096
consist,0.011214
constant,0.016658
constitut,0.006615
contain,0.018031
contemporari,0.008194
contribut,0.006149
control,0.011132
correl,0.009765
cost,0.014731
coulometri,0.023977
coupl,0.009694
creation,0.015252
critic,0.012325
cs,0.012800
current,0.037545
curv,0.041230
cyclotron,0.018637
da,0.022305
data,0.006686
day,0.012644
deal,0.013498
decreas,0.016500
defin,0.005749
definit,0.006624
delta,0.012000
densiti,0.010110
design,0.012307
desir,0.007885
desorpt,0.022439
detect,0.027601
determin,0.052363
develop,0.050280
development,0.011794
devic,0.028090
differ,0.035531
digit,0.009355
dilut,0.029214
diod,0.017512
direct,0.005563
directli,0.006731
discov,0.014756
discoveri,0.031387
displaystyl,0.067180
distil,0.015005
distribut,0.006912
dm,0.016943
dmoz,0.011096
dna,0.032438
domin,0.020683
driven,0.009753
drug,0.019762
dual,0.011811
dure,0.014468
dynam,0.007854
e,0.054312
earli,0.010090
edit,0.015789
educ,0.025703
effect,0.009800
effort,0.013971
eidelta,0.023373
electr,0.033361
electroanalyt,0.021425
electrochem,0.048231
electrod,0.015328
electromagnet,0.022616
electron,0.067525
electrophoresi,0.034500
electrophoresismass,0.023660
electrospray,0.023373
element,0.038490
elementari,0.011378
elimin,0.008722
emiss,0.035907
enabl,0.007999
engin,0.007269
ensembl,0.014533
entir,0.006542
environment,0.056764
eot,0.023977
equat,0.008389
equival,0.016249
error,0.086323
especi,0.017571
et,0.017341
exampl,0.049691
expand,0.014270
expans,0.008510
expect,0.006930
expedi,0.017042
experiment,0.008425
express,0.006535
extend,0.006653
extern,0.003944
extract,0.009709
extrem,0.007235
f,0.066869
factor,0.006395
familiar,0.010672
fast,0.010325
faulkner,0.019719
field,0.093642
figur,0.007470
filter,0.025144
fingerprint,0.017286
finit,0.010431
fj,0.019130
flame,0.029942
flicker,0.063070
flow,0.015886
fluctuat,0.022527
fluid,0.010632
fluoresc,0.044094
focu,0.014799
focus,0.014042
follow,0.008629
food,0.007762
forens,0.072237
form,0.008245
fourier,0.014075
frac,0.024140
fraction,0.021114
frequenc,0.041230
function,0.011044
fundament,0.020721
ga,0.018148
gener,0.015502
genet,0.009161
genom,0.036746
given,0.010819
godlewskazylkiewicz,0.023977
gold,0.009379
gravimetr,0.039439
great,0.006078
greater,0.006793
group,0.004865
gustav,0.013801
ha,0.025175
handl,0.009807
hardwar,0.025236
heat,0.028532
hedrich,0.023977
high,0.010922
higher,0.006412
histolog,0.016879
histori,0.004492
holler,0.022439
human,0.005196
hybrid,0.056343
hydrat,0.017631
hyphen,0.094367
ideal,0.008776
identif,0.031872
identifi,0.019560
impact,0.007391
import,0.023000
improv,0.013274
impur,0.015690
includ,0.018720
inclus,0.011110
increas,0.025933
increasingli,0.023854
indic,0.013270
indispens,0.015056
induct,0.011944
industri,0.030781
influenc,0.005940
inform,0.005362
infrar,0.013929
initi,0.005860
inorgan,0.025220
instead,0.012634
instrument,0.174408
integr,0.006508
interact,0.033648
interferometri,0.017672
intern,0.018905
invers,0.011389
involv,0.031372
ion,0.058481
ioniz,0.057076
irmssqrt,0.023977
isbn,0.006376
isol,0.017513
isotop,0.013065
isotopicallyenrich,0.023977
john,0.006134
justu,0.017886
k,0.008177
kastlemey,0.023977
kb,0.016724
kbtrdelta,0.023977
kept,0.009718
kirchhoff,0.018116
known,0.022532
lab,0.011782
labonachip,0.046746
laboratori,0.009151
lamp,0.015198
larg,0.009504
laser,0.080556
laserbas,0.023373
laserinduc,0.023111
late,0.012486
lead,0.005380
leader,0.007885
liebig,0.018164
light,0.007434
limit,0.005506
line,0.012907
linear,0.009594
link,0.003920
lipid,0.014203
lipidom,0.022870
liquid,0.028997
list,0.010027
lockin,0.020668
long,0.005854
loss,0.007886
lr,0.018418
m,0.025794
machin,0.008706
magnet,0.031754
magneticsector,0.023977
magnusson,0.021727
main,0.011416
majcen,0.023977
major,0.004783
make,0.004585
mani,0.036678
manufactur,0.008598
marinc,0.023977
mass,0.073943
masstocharg,0.021425
materi,0.044229
matrix,0.022636
matter,0.006782
maxim,0.010254
mean,0.014896
measur,0.112207
medic,0.008303
medicin,0.008596
melt,0.012866
merit,0.012866
metabolit,0.017110
metabolom,0.020668
metal,0.009384
metalom,0.023977
method,0.150773
metrolog,0.019484
micro,0.014760
microanalysi,0.022062
microarray,0.017886
microscal,0.019063
microscop,0.023280
microscopi,0.070951
millimet,0.017322
minim,0.009516
mixtur,0.011273
modern,0.027041
modif,0.010716
modul,0.024349
molecul,0.048679
monitor,0.009750
motion,0.018196
motor,0.011628
mrna,0.016635
mssbauer,0.021889
multipl,0.006934
n,0.008097
nanomateri,0.019719
nanotechnolog,0.014622
narrow,0.010181
nd,0.008389
new,0.044302
nois,0.372896
nuclear,0.009213
number,0.009021
numer,0.020039
o,0.019016
object,0.006163
observ,0.023803
occur,0.005728
odor,0.017009
onc,0.006737
onli,0.004150
open,0.006172
oper,0.005688
optic,0.054233
organ,0.009836
oscil,0.013047
p,0.006882
papadaki,0.023977
parametr,0.015754
particl,0.009691
particular,0.011287
particularli,0.012646
pathlength,0.023977
patient,0.010982
patriarca,0.023977
peptid,0.030183
peptidom,0.023977
perform,0.025353
period,0.016072
pharmaceut,0.012283
photoemiss,0.023660
photon,0.013174
physic,0.005899
picolit,0.023977
place,0.005099
plasma,0.026424
play,0.013019
point,0.020920
poisson,0.032202
polar,0.011045
popular,0.006450
possibl,0.005273
potenti,0.026775
potentiometr,0.023660
potentiometri,0.023977
power,0.010582
practic,0.011063
precipit,0.011889
precis,0.008516
presenc,0.023455
present,0.025848
previous,0.007881
principl,0.006206
probe,0.038575
problem,0.005529
process,0.014663
produc,0.005379
product,0.005388
progress,0.021140
project,0.006397
promot,0.007375
protein,0.031510
proteom,0.035263
provid,0.004587
public,0.005206
publish,0.005738
purchas,0.008793
pure,0.008175
purpos,0.013450
qa,0.036731
quadrupol,0.042571
qualit,0.095902
qualiti,0.023110
quantif,0.014775
quantifi,0.034853
quantit,0.048028
quantiti,0.016842
question,0.025970
r,0.034593
radiat,0.010354
radio,0.010584
radioact,0.012688
raman,0.018314
rang,0.037238
rapid,0.008960
rapidli,0.017433
rare,0.008508
ratio,0.018648
rb,0.017322
reach,0.013327
reactant,0.016175
reaction,0.025224
reactiv,0.012352
read,0.005695
recent,0.011356
recombin,0.013634
reduc,0.006211
reduct,0.037739
refer,0.009836
refin,0.010286
rel,0.011758
relat,0.013263
remov,0.007570
repres,0.005378
requir,0.005161
research,0.010639
resist,0.008496
resistor,0.018637
reson,0.025099
respons,0.005687
result,0.013702
reviv,0.010420
revolution,0.013766
rise,0.013196
risk,0.008068
robert,0.007209
robust,0.011877
role,0.011488
root,0.024849
rubidium,0.019130
s,0.023253
sampl,0.117259
saunder,0.015934
saw,0.008024
scan,0.026185
scheme,0.019738
scienc,0.044119
scientist,0.007498
secondari,0.009337
select,0.007130
sensit,0.021122
sensori,0.012711
separ,0.065897
sequenc,0.027309
seri,0.013064
set,0.005079
sever,0.009514
shield,0.012858
shot,0.051007
shrink,0.014377
signal,0.047174
signaltonois,0.021151
signific,0.005825
silva,0.017110
similar,0.010898
simpli,0.007446
sinc,0.004563
singl,0.024428
situat,0.007026
size,0.014213
sizeport,0.023977
skoog,0.023977
slash,0.017434
small,0.022336
smaller,0.007759
sn,0.015366
snr,0.022062
softwar,0.019337
solid,0.009807
solut,0.023422
solv,0.008398
solvent,0.014698
sometim,0.017822
somewhat,0.009674
son,0.008737
sophist,0.010499
sourc,0.017220
space,0.007035
specif,0.010920
spectral,0.014013
spectrometr,0.042571
spectrometri,0.218617
spectroscop,0.015888
spectroscopi,0.204680
spectrum,0.021583
speed,0.018664
squar,0.029005
stage,0.007969
standard,0.061464
standardless,0.023977
start,0.005776
stateoftheart,0.017842
static,0.011673
station,0.009969
statist,0.014973
stressor,0.017144
structur,0.005331
studi,0.009645
substanc,0.009594
surfac,0.008263
surround,0.008357
suspect,0.012194
systemat,0.026156
t,0.047639
ta,0.015888
taken,0.006682
taylor,0.011482
techniqu,0.133246
technolog,0.006579
televis,0.010286
temperatur,0.018450
tend,0.014987
test,0.052222
th,0.020930
therefor,0.006202
thermal,0.070211
thermogravimetr,0.023977
thi,0.030720
thousand,0.008047
time,0.020188
timeofflight,0.020559
tissu,0.011027
titrat,0.103911
today,0.013111
togeth,0.006292
tool,0.014614
total,0.006367
tradit,0.017239
train,0.007880
transcriptom,0.020668
transfer,0.015618
transform,0.022410
transistor,0.016052
trap,0.011956
true,0.029555
tunabl,0.019561
type,0.021946
ultravioletvis,0.021425
uncertainti,0.021240
undergradu,0.024309
understand,0.012388
univers,0.004726
unknown,0.018896
use,0.115594
usual,0.010983
v,0.008136
valu,0.040942
varieti,0.020556
variou,0.015585
vassileva,0.022062
vibrat,0.013317
virtual,0.009025
visual,0.019256
volt,0.017009
voltammetri,0.021889
volum,0.015634
volumetr,0.019063
von,0.009255
vrmssqrt,0.023977
wa,0.003741
water,0.021118
weigh,0.012858
weight,0.009198
west,0.007835
wet,0.013623
wherea,0.007918
white,0.017328
wide,0.011755
widespread,0.008767
wiley,0.011166
wireless,0.014791
work,0.008947
xray,0.012445
york,0.014057
