abil,0.002747
abov,0.007668
abus,0.004294
accept,0.002506
access,0.002762
accord,0.011979
account,0.002351
achiev,0.007535
act,0.002281
action,0.002453
activ,0.001992
ad,0.005096
add,0.003807
addit,0.042418
address,0.003006
adequ,0.008377
adjust,0.007643
administr,0.002791
adult,0.003908
advantag,0.006198
advis,0.004035
agricultur,0.002967
ai,0.005015
algebra,0.008575
alloc,0.003984
allow,0.011913
alter,0.017907
altern,0.012827
alway,0.002684
american,0.004524
analys,0.003903
analysi,0.156445
analyt,0.003640
analyz,0.006712
ancova,0.010503
andrew,0.008109
ani,0.012317
annal,0.016071
anova,0.639100
anscomb,0.015059
answer,0.003555
anteced,0.005712
antibiot,0.005634
anyth,0.003945
appar,0.006816
appear,0.002312
applet,0.007089
appli,0.023478
applic,0.011922
approach,0.013787
appropri,0.016002
approxim,0.016325
archiv,0.003674
arguabl,0.004866
arnold,0.005075
articl,0.002372
assess,0.006801
assign,0.014345
assist,0.002976
associ,0.011702
assum,0.022127
assumpt,0.074837
astronom,0.004495
astronomi,0.004482
athlet,0.011539
atmospher,0.003911
attempt,0.006832
attribut,0.006207
authorit,0.005572
avail,0.012203
averag,0.002982
b,0.081983
background,0.003429
bacteri,0.005215
bailey,0.006626
balanc,0.031600
barbara,0.005286
base,0.019137
basingstok,0.006771
batch,0.006392
bbib,0.010503
becam,0.002200
becaus,0.007249
becom,0.001927
befor,0.012336
behavior,0.002824
believ,0.002490
belknap,0.007011
bell,0.004661
bernard,0.004689
besid,0.004119
best,0.002653
bi,0.005646
bia,0.004590
big,0.003645
bin,0.005550
binari,0.004807
biologist,0.004504
biometrika,0.016387
bishop,0.004927
blacksburg,0.009911
blind,0.009854
block,0.035863
blue,0.004291
board,0.003473
book,0.006864
boston,0.004438
bound,0.003602
box,0.018053
breed,0.028967
broadbalk,0.010503
bth,0.009366
budget,0.003768
bulletin,0.005413
c,0.009216
ca,0.004428
calcul,0.024577
caliski,0.010503
cambridg,0.025547
candid,0.007428
care,0.003029
carri,0.005198
case,0.022176
cauchi,0.006787
caus,0.002152
caution,0.011351
cautious,0.007289
cell,0.003467
centuri,0.004141
certain,0.004413
certainli,0.004602
chanc,0.015526
chancemight,0.010503
chang,0.019996
chapman,0.005809
chapter,0.003758
character,0.006116
characterist,0.011117
chihuahua,0.008045
chisquar,0.014943
chosen,0.003684
christensen,0.006937
circa,0.005418
citeseerx,0.007688
class,0.013372
classic,0.005328
classif,0.007115
clear,0.003001
close,0.010788
cochran,0.006415
code,0.003120
coeffici,0.009307
cohen,0.010616
coinbi,0.010503
collaps,0.003552
collect,0.007056
colleg,0.003500
combin,0.022994
common,0.007799
commonli,0.008034
compani,0.005092
compar,0.040548
comparison,0.023671
compet,0.003324
complet,0.011136
complex,0.028317
complic,0.014618
compon,0.011109
compound,0.007267
comput,0.008016
concaten,0.015377
concentr,0.003155
conceptu,0.003881
concern,0.002264
concis,0.004911
conclud,0.006596
conclus,0.007186
concret,0.004418
condens,0.004666
condit,0.009026
conduct,0.011056
confid,0.016501
confirm,0.010430
conflict,0.003003
connect,0.007965
consequ,0.016453
conserv,0.009603
consid,0.011284
consider,0.002710
consist,0.002158
constant,0.022443
constraint,0.004004
construct,0.002497
consult,0.003724
contain,0.002313
context,0.002836
continu,0.005862
contraposit,0.008363
contrari,0.004217
contrast,0.002724
contribut,0.002367
control,0.010713
coordinatefre,0.009700
correct,0.006495
correl,0.015036
cover,0.002655
cox,0.041509
critic,0.009489
crop,0.007974
d,0.013054
data,0.077214
david,0.020053
decis,0.002719
declar,0.003114
deem,0.004364
deeper,0.004819
defens,0.003539
defin,0.008853
definit,0.005100
degre,0.010564
denomin,0.004804
denot,0.003935
depart,0.002827
depend,0.012767
deriv,0.009808
describ,0.003970
descript,0.002948
design,0.068694
designbas,0.018732
designofexperi,0.010503
desir,0.003035
detect,0.003541
determin,0.022396
develop,0.012903
deviat,0.036613
df,0.014943
dftexttotaldftexterrordftexttreat,0.010503
dictionari,0.003910
differ,0.039323
difficult,0.008438
digit,0.003601
dimens,0.007421
dimension,0.004988
directli,0.002591
disadvantag,0.004782
disciplin,0.002971
discoveri,0.003020
discuss,0.013157
dispers,0.004426
displaystyl,0.181020
disproportion,0.005628
distinct,0.004967
distinguish,0.005726
distribut,0.050559
divid,0.007672
divisor,0.006818
doe,0.026185
dog,0.096557
doi,0.017078
doiaom,0.019400
doibiomet,0.009366
doix,0.007289
dougla,0.004765
dress,0.005357
drop,0.003539
dunnett,0.009521
duxburythomson,0.010503
e,0.013066
earli,0.005826
easi,0.011829
econom,0.002124
ed,0.038054
edit,0.006077
edward,0.003532
effect,0.090540
effects,0.009911
effici,0.006080
ehandbook,0.010503
el,0.004668
eleg,0.005789
eloqu,0.006851
elus,0.006497
emerg,0.002488
emphas,0.006815
encod,0.018912
encount,0.007648
engin,0.005596
enhanc,0.003596
enjoy,0.003696
ensur,0.006379
entiti,0.003294
entri,0.007511
equal,0.021153
equat,0.012917
equival,0.006255
era,0.006135
error,0.151377
especi,0.002254
estim,0.027323
everi,0.012148
evid,0.002647
evolutionari,0.003825
exact,0.003704
exactli,0.011411
examin,0.009116
exampl,0.027822
exemplari,0.006835
exist,0.003861
expand,0.002746
expect,0.008003
expens,0.003467
experi,0.105057
experiment,0.123241
explain,0.015682
explan,0.010253
explanatori,0.005472
exploratori,0.005900
exposit,0.005321
express,0.002515
extend,0.005122
extens,0.002621
extern,0.001518
f,0.048621
face,0.002914
facilit,0.003500
fact,0.002465
factor,0.108322
factori,0.029738
fail,0.002919
fair,0.003932
fals,0.023627
falsifi,0.011339
famili,0.002688
fcritic,0.009911
fdistribut,0.017994
ffrac,0.015059
fidel,0.005885
field,0.004240
finitepopul,0.010503
fisher,0.030735
fit,0.038885
fix,0.021572
fixedeffect,0.037465
flip,0.006217
focus,0.002702
follow,0.019930
followup,0.024643
footnot,0.005175
form,0.007935
formal,0.010392
fortun,0.004709
frac,0.004646
franci,0.003976
fratio,0.010503
freedman,0.014483
freedom,0.013110
freeman,0.005195
friedman,0.005366
fruition,0.007089
fstatist,0.009107
ftest,0.065565
fulli,0.006260
function,0.010628
fundament,0.002658
furthermor,0.003557
g,0.028087
gauss,0.006286
gbibmapsto,0.010503
gbzkb,0.021007
gelman,0.017607
gener,0.019394
geodesi,0.006403
georg,0.002992
gerald,0.005385
gertrud,0.007241
given,0.004164
glossari,0.005060
goal,0.005711
good,0.004616
graecolatin,0.009911
grain,0.004511
grand,0.008065
grant,0.003182
graphic,0.013397
greater,0.002615
gross,0.004059
ground,0.003021
group,0.076786
grove,0.006023
grow,0.002662
guidelin,0.004604
h,0.008652
ha,0.026304
hall,0.003939
hallcrc,0.007338
hampshir,0.006392
handbook,0.008403
handl,0.003775
harvard,0.004056
heavi,0.003588
heaviest,0.006612
heavili,0.006694
henri,0.003346
hettmansperg,0.010503
hi,0.005584
hide,0.004914
high,0.008409
highdimension,0.007289
hinkelmann,0.009521
hint,0.005651
histogram,0.007622
histori,0.003458
hoboken,0.006885
hoc,0.017427
hold,0.002500
homogen,0.018705
homoscedast,0.028099
howel,0.007655
howev,0.013480
hypothes,0.020642
hypothesi,0.090412
ib,0.013543
idea,0.004660
ident,0.002972
identifi,0.005019
ii,0.016303
iii,0.003970
illustr,0.014162
immedi,0.003052
impact,0.002845
imparti,0.006327
impli,0.012911
import,0.007083
improv,0.002554
includ,0.015854
inconsist,0.014474
incorpor,0.002851
increas,0.013975
increasingli,0.003060
incumb,0.005566
independ,0.021324
individu,0.004283
inequ,0.008736
infer,0.015960
inform,0.002064
inherit,0.003850
initi,0.002255
input,0.003761
insignific,0.012014
insuffici,0.004707
interact,0.056990
intercept,0.012095
intern,0.001819
interpret,0.011079
interv,0.008748
introduc,0.002435
introduct,0.005504
introductori,0.004949
intuit,0.004442
invari,0.004590
investig,0.002909
involv,0.008050
iowa,0.006415
isbn,0.058905
isnt,0.005634
isol,0.006741
issu,0.002227
iter,0.005195
ith,0.007363
j,0.039110
jacob,0.009362
jersey,0.005141
john,0.004723
journal,0.008011
jstor,0.010447
judgment,0.008799
justifi,0.012526
k,0.050363
kageyama,0.010503
kempthorn,0.062274
kendal,0.007443
kept,0.003740
klau,0.006217
knew,0.004890
know,0.003145
known,0.005204
krieger,0.007529
kruskalw,0.010503
ktextth,0.010503
lack,0.015880
lackoffit,0.019822
laplac,0.023841
larg,0.005488
larger,0.002739
largest,0.002866
later,0.004128
latin,0.006525
ldot,0.007241
lead,0.006213
learn,0.002915
leastsquar,0.008363
lectur,0.003774
led,0.002240
lehmann,0.007559
leland,0.007265
lengthi,0.005413
lentner,0.010503
let,0.003889
level,0.045663
librari,0.003261
light,0.002861
lighter,0.005447
like,0.009270
limit,0.010599
linda,0.005724
linear,0.062784
linearli,0.006179
linguist,0.004080
link,0.001509
list,0.003860
literatur,0.003101
logarithm,0.011234
logic,0.006718
long,0.002253
longhair,0.019042
longitudin,0.005900
look,0.011463
low,0.002660
m,0.012411
machin,0.003351
macmillan,0.004741
madhav,0.009107
magnitud,0.004282
main,0.010986
maintain,0.002420
major,0.001841
make,0.008824
mani,0.010981
manipul,0.003716
manova,0.010503
marvin,0.006170
mask,0.005503
mass,0.002846
materi,0.004864
mathemat,0.010914
matrix,0.004356
maxim,0.003947
maximum,0.003774
mccabe,0.008997
mckean,0.008193
mean,0.064989
meaning,0.009022
meanseg,0.010503
meanunbias,0.010170
measur,0.015913
mechan,0.007689
medic,0.003196
medicin,0.003309
mendelian,0.006449
met,0.003549
method,0.060187
michael,0.003194
minim,0.010989
miss,0.004378
mixedeffect,0.031510
model,0.123232
modelbas,0.015119
modelsnot,0.010503
modif,0.004125
montgomeri,0.006851
moor,0.004683
motiv,0.003390
mr,0.013998
ms,0.010431
mstexttreatmentsmstexterrorsstexttreatmentsi,0.010503
multilevel,0.006741
multipl,0.032034
multiplecomparison,0.010503
multipli,0.008948
multivari,0.017789
multiway,0.009700
n,0.021818
nanci,0.005878
natur,0.003705
nd,0.016146
nearli,0.003023
necessari,0.005531
need,0.004172
neg,0.012038
new,0.017053
neyman,0.008045
nist,0.006885
nistsematech,0.009911
nj,0.005093
nois,0.004949
nonlinear,0.004755
nonmathemat,0.007795
nonnorm,0.007559
nonparametr,0.014348
nonrandom,0.007030
nonstandard,0.006265
normal,0.035964
normalmodel,0.021007
norton,0.005408
notat,0.004663
note,0.006003
notori,0.005508
nsigma,0.017792
nsum,0.007529
nt,0.006586
nti,0.009229
null,0.073706
nullhypothesi,0.009366
number,0.022572
numer,0.010285
object,0.009490
obscur,0.004807
observ,0.082464
obtain,0.002697
occur,0.008820
offer,0.002580
old,0.002871
omit,0.005423
onc,0.005186
onehot,0.042014
oneway,0.041311
onli,0.007988
onlin,0.003037
oper,0.002189
optim,0.003681
order,0.015301
origin,0.001923
orthogon,0.005878
oscar,0.018143
outcom,0.003548
outlier,0.007338
outlin,0.003378
output,0.007245
overal,0.003176
overcom,0.004262
overlap,0.003857
overlook,0.005361
p,0.013247
pacif,0.004022
pairwis,0.006902
palgrav,0.010305
paramet,0.008002
parametr,0.006064
partial,0.006385
particular,0.006517
particularli,0.004868
partit,0.028846
past,0.002753
patient,0.008455
pattern,0.002961
paul,0.003016
pdf,0.008034
pearson,0.005467
peirc,0.005999
perform,0.012199
perhap,0.006452
permut,0.012267
person,0.004542
pet,0.011006
phadk,0.010503
pisani,0.009366
place,0.001962
plan,0.015770
plane,0.004180
plausibl,0.005187
plot,0.008507
pmid,0.005348
po,0.006286
pointer,0.006937
polish,0.004689
popul,0.012347
popular,0.004966
posit,0.006170
possibl,0.004059
post,0.010105
power,0.020367
pp,0.009734
practic,0.019164
precis,0.003278
predict,0.005824
predictor,0.006370
prefer,0.006095
prentic,0.005380
preparatori,0.006771
prepubl,0.008363
present,0.003980
press,0.014054
prevent,0.002845
previou,0.003001
previous,0.003034
primer,0.005756
principl,0.002389
priori,0.010669
probabilist,0.005175
probabl,0.028558
problem,0.014899
procedur,0.010397
process,0.011288
prod,0.006937
produc,0.016566
product,0.002074
profession,0.003224
prolifer,0.004899
prone,0.005497
proof,0.004057
proper,0.003570
properti,0.004819
propos,0.004911
protocol,0.022500
proven,0.004203
provid,0.010594
prudent,0.006586
psycholog,0.023747
psychologist,0.004560
ptr,0.009107
public,0.002004
publish,0.004418
pure,0.006294
purebr,0.008304
purpos,0.005177
purv,0.009700
pvalu,0.032774
quadrat,0.017328
quagmir,0.008304
qualiti,0.002965
question,0.002499
r,0.018642
random,0.121490
randomassign,0.010503
randomeffect,0.031510
randomizationbas,0.064609
randomizationdistribut,0.009911
randomli,0.016141
rang,0.007167
rare,0.003275
rate,0.009865
ratio,0.014357
raw,0.004117
reach,0.002565
reaction,0.003236
read,0.002192
real,0.002619
reason,0.013592
receiv,0.004823
recognit,0.003459
recommend,0.014882
reduc,0.007173
refer,0.002524
regard,0.007264
regress,0.044810
reid,0.006246
reject,0.018669
rel,0.009052
relat,0.006807
relationship,0.007228
relev,0.003301
reli,0.003041
reliabl,0.003774
remov,0.002914
reorder,0.007241
repeat,0.007286
replic,0.026731
report,0.009703
reprint,0.009708
requir,0.013909
research,0.006143
residu,0.038976
respons,0.039406
restor,0.003569
restrict,0.002925
result,0.033406
review,0.002828
right,0.002265
risk,0.003105
robert,0.005550
robust,0.018288
roger,0.004232
ronald,0.027053
rosenbaum,0.016090
rothamst,0.008247
routledg,0.004497
royal,0.003330
rule,0.004608
run,0.011095
s,0.032223
sampl,0.071467
sanpei,0.010503
satisfi,0.011232
say,0.008204
scale,0.011427
schedul,0.008390
scheff,0.008997
scienc,0.004245
second,0.010358
section,0.006255
select,0.010978
sens,0.005194
separ,0.011530
sequenti,0.005467
seri,0.007543
set,0.013686
setter,0.008247
sever,0.020144
share,0.002459
short,0.002691
shorthair,0.021007
shown,0.009131
signific,0.060545
similar,0.012585
simpl,0.013955
simpler,0.004683
simplest,0.017922
simpli,0.008599
simplic,0.005082
simplifi,0.012273
simul,0.003816
sinc,0.007026
singl,0.016456
singlefactor,0.008896
situat,0.002704
size,0.041034
small,0.004299
smaller,0.008960
smallest,0.004572
societi,0.002200
socr,0.009521
solut,0.003005
solv,0.003232
sometim,0.002286
somewhat,0.003724
son,0.006726
soon,0.006442
sourc,0.006628
southampton,0.007265
speci,0.003230
special,0.004394
specif,0.006305
specifi,0.014286
split,0.010831
splitplot,0.009700
springer,0.004251
springerverlag,0.010914
squar,0.066992
ss,0.010798
sstexterrornti,0.010503
sstexttotalsstexterrorsstexttreat,0.010503
st,0.002831
stabil,0.003276
standard,0.023660
state,0.003074
statement,0.003224
station,0.003837
statist,0.149863
statistician,0.035187
statu,0.002933
stephen,0.003902
stextstyl,0.010503
stigler,0.013947
strength,0.003562
strictli,0.004142
strong,0.005104
structur,0.006157
student,0.002989
studi,0.038985
subject,0.008938
subsequ,0.002741
subtract,0.005403
success,0.009318
suggest,0.002459
suit,0.004083
suitabl,0.003899
sum,0.045553
summar,0.008948
summari,0.008455
summat,0.006056
suppli,0.002863
support,0.012531
suppos,0.007720
supposit,0.006509
survey,0.003376
synthes,0.004565
synthesi,0.003921
systemat,0.003356
t,0.033620
tabachnick,0.010503
tabl,0.013523
tadeusz,0.007559
taken,0.002572
teach,0.006882
teacher,0.004025
techniqu,0.024296
tediou,0.007049
tend,0.002884
term,0.026558
terminolog,0.016545
test,0.140716
text,0.018182
textbook,0.019797
texterror,0.010503
texttreatmentsigma,0.010503
textvari,0.010503
th,0.014099
themselv,0.002605
theorem,0.015751
theori,0.006177
therefor,0.007162
thi,0.019708
thicksim,0.010503
thing,0.002795
think,0.003046
thoma,0.003142
threshold,0.004893
throw,0.005394
thu,0.008213
thumb,0.012163
tide,0.005462
tight,0.005361
time,0.006217
tj,0.014437
tool,0.016877
total,0.019608
tradit,0.002212
transform,0.020128
treat,0.003076
treatment,0.203582
treatmenteffect,0.021007
treatmentstextvari,0.010503
treatmentunit,0.009911
trend,0.006710
tri,0.002765
trickeri,0.007655
trivial,0.005244
true,0.005688
truli,0.004401
trust,0.003840
truth,0.003737
ttest,0.039780
tukey,0.008304
turn,0.002428
twice,0.004186
twofactor,0.008045
twogroup,0.009700
twosampl,0.010503
twoway,0.019838
type,0.023232
typic,0.016496
unbalanc,0.054297
uncertainti,0.004088
understand,0.009537
unexplain,0.006522
unit,0.028349
unittreat,0.084029
univers,0.014555
unlik,0.002925
urea,0.006338
use,0.084687
usual,0.004227
v,0.012528
va,0.006107
vagu,0.005195
valid,0.010063
valley,0.004062
valu,0.027017
van,0.003842
varepsilon,0.014060
vari,0.002589
variabl,0.038534
varianc,0.279504
variant,0.004255
variat,0.026343
varieti,0.002637
variou,0.005999
vector,0.025490
veri,0.008024
verifi,0.004440
view,0.002251
vk,0.024136
vkgzkgzkldot,0.010503
volum,0.006018
vs,0.016965
w,0.005894
wa,0.012963
want,0.006486
warrant,0.005418
way,0.016904
weigh,0.004949
weight,0.035407
whi,0.003232
wichura,0.009911
wide,0.004525
wiley,0.034388
wilkinson,0.006327
william,0.002814
wish,0.003884
work,0.006888
worker,0.003270
written,0.005562
ww,0.006286
x,0.031103
xiv,0.011859
xk,0.015999
xy,0.006207
xyz,0.006919
xz,0.008997
y,0.041149
yelloworang,0.019042
yi,0.006560
yibar,0.010503
yield,0.003431
yij,0.009911
yijyitj,0.010503
yk,0.016985
york,0.024350
young,0.009785
yz,0.008562
z,0.038572
zero,0.011082
zkb,0.009911
zki,0.021007
