aar,0.038938
abduct,0.056032
abil,0.012492
ad,0.011586
addit,0.009185
advanc,0.011213
ai,0.022808
alfr,0.018604
allen,0.020962
allow,0.009028
analog,0.016223
analysi,0.010944
analyt,0.016553
anoth,0.017465
appeal,0.016909
appli,0.029118
applic,0.021686
approach,0.010449
area,0.018035
argument,0.030508
artifici,0.061329
aspect,0.023865
assist,0.040612
associ,0.008869
assumpt,0.015468
attempt,0.010356
autom,0.548564
automat,0.055604
axiom,0.022641
base,0.007911
basi,0.011309
bayesian,0.025240
befor,0.009350
began,0.010931
bertrand,0.023847
big,0.016576
bledso,0.039642
boyermoor,0.040913
brought,0.013495
build,0.011585
built,0.013647
c,0.010477
cade,0.073601
calculi,0.031467
calculu,0.020463
came,0.011988
caml,0.043296
case,0.009167
casebas,0.036378
casuistri,0.038938
chapter,0.017089
check,0.057028
cic,0.038317
circuit,0.020686
classic,0.024229
clean,0.021464
cliff,0.024551
code,0.014188
come,0.010487
commonli,0.012178
commonsens,0.029436
commun,0.009588
competit,0.028839
complet,0.020256
comput,0.085061
concis,0.022335
confer,0.072178
connect,0.012074
consid,0.017105
consist,0.009815
constraint,0.018208
construct,0.011356
contribut,0.010763
coq,0.074518
cornel,0.023193
correct,0.014768
creat,0.008970
davi,0.021265
decis,0.012364
dedic,0.017616
deduct,0.063657
definit,0.011596
demonstr,0.013182
deriv,0.011150
design,0.032315
develop,0.036672
differ,0.007774
dont,0.020493
duck,0.030195
earli,0.017662
edinburgh,0.024020
effect,0.008577
effici,0.013824
eighti,0.026386
eleg,0.026325
empir,0.012320
entropi,0.023962
error,0.016789
essenti,0.012273
evalu,0.030597
everi,0.011048
exampl,0.031630
execut,0.013374
express,0.011439
extens,0.035769
extern,0.006904
extract,0.016995
failur,0.015362
fewer,0.018723
field,0.019284
fiftytwo,0.036800
fix,0.014013
formal,0.094515
foundat,0.012311
franc,0.013516
fulli,0.014234
function,0.009666
fundament,0.012090
futur,0.011499
fuzzi,0.027464
gener,0.006784
good,0.010496
got,0.021299
grow,0.012106
guarante,0.017318
guidanc,0.021288
ha,0.031477
handl,0.017168
hardwar,0.022087
haskel,0.031712
held,0.011162
help,0.010336
herbert,0.040888
heurist,0.024158
higher,0.011224
hoc,0.026417
hol,0.068755
howev,0.007662
human,0.027288
iceberg,0.032724
ijcar,0.042592
implement,0.039434
import,0.016104
includ,0.019662
increas,0.009079
induct,0.062724
infer,0.036288
influenc,0.010398
initi,0.010258
intellig,0.058925
interact,0.011779
intermedi,0.018555
intern,0.033093
intuit,0.060608
john,0.021477
joint,0.016624
journal,0.024286
just,0.011008
know,0.014304
languag,0.023729
larg,0.016637
learn,0.013259
led,0.010187
librari,0.029658
light,0.026026
link,0.006863
lisp,0.059781
logic,0.305529
logician,0.027974
lt,0.029069
luckili,0.038317
machin,0.015239
main,0.009992
mani,0.014267
martin,0.016706
mathemat,0.062037
mathematica,0.125004
maxim,0.017949
mccarthi,0.028632
mean,0.008692
meet,0.012770
method,0.009774
microsoft,0.025000
mileston,0.025339
mimic,0.026447
mind,0.014883
minim,0.016657
moreov,0.018106
nearli,0.013746
new,0.007049
newel,0.088977
nineti,0.028632
nonmonoton,0.034964
north,0.012531
nqthm,0.129890
number,0.031582
object,0.010789
ocaml,0.040455
oftentim,0.033257
omiss,0.030452
oper,0.009956
order,0.008697
origin,0.008746
oscar,0.027502
outlin,0.015362
pelleti,0.040455
philosophi,0.013437
plan,0.011952
play,0.011395
pollock,0.032525
popular,0.011291
pragmat,0.022060
presburg,0.039278
principia,0.125596
principl,0.021728
problem,0.038716
procedur,0.015761
produc,0.009416
program,0.113846
project,0.011198
proof,0.239890
properti,0.010957
prove,0.111740
prover,0.240644
provid,0.016059
public,0.009114
publish,0.020090
pure,0.014310
purpos,0.023544
qualifi,0.019031
rang,0.021728
rapidli,0.015257
reason,0.288441
recurs,0.025024
refer,0.005739
regular,0.015724
regularli,0.019539
relat,0.007739
relianc,0.023013
report,0.011031
requir,0.018071
research,0.018623
result,0.007995
reviv,0.018240
rewrit,0.026864
role,0.010054
routin,0.020604
russel,0.060355
say,0.012435
scienc,0.038614
scientist,0.013125
scotland,0.021573
select,0.012481
semant,0.021276
seri,0.011434
shaw,0.081310
signific,0.020394
simon,0.038386
simpl,0.012692
softwar,0.016924
solv,0.014701
sourc,0.010048
specif,0.028672
standard,0.010759
start,0.020223
step,0.027091
studi,0.008442
subarea,0.032333
subfield,0.041127
success,0.010593
sum,0.015934
summer,0.018480
suppli,0.013022
suscept,0.023029
sutcliff,0.074050
suttner,0.080910
symbol,0.043507
tableaux,0.037259
techniqu,0.024551
technolog,0.011517
tell,0.017993
term,0.007548
test,0.013059
theorem,0.268606
theoret,0.013098
theori,0.009363
theorist,0.055854
thi,0.011949
thing,0.012710
think,0.013853
thirtyeight,0.036800
thu,0.009338
togeth,0.011015
tool,0.012791
topic,0.025348
total,0.011145
tptp,0.083943
translat,0.013752
uncertainti,0.037180
unclutt,0.042592
understand,0.010843
unsuccess,0.020543
updat,0.019351
use,0.032635
verif,0.048640
version,0.013973
view,0.010238
visibl,0.017656
visual,0.016854
volum,0.013683
wa,0.058948
went,0.014651
whitehead,0.078977
winter,0.019794
woodi,0.030387
work,0.023493
workshop,0.070934
world,0.008098
written,0.037942
year,0.008061
