abandon,0.006310
abid,0.009923
abov,0.004325
academ,0.015180
academi,0.006508
access,0.009349
accid,0.016289
accident,0.008738
accur,0.005756
act,0.007722
action,0.004151
activ,0.003371
actual,0.004323
actuat,0.011679
ad,0.004311
adjac,0.007732
administ,0.006622
advanc,0.012518
aerostructur,0.016110
aesthet,0.008193
africa,0.005486
agreement,0.005156
agronomia,0.016771
air,0.010379
airport,0.007441
alden,0.013536
allow,0.010079
alloy,0.009401
aluminum,0.010619
american,0.003827
analysi,0.008145
analyz,0.005678
ancient,0.029369
angular,0.009111
anoth,0.006498
anuradhapura,0.013536
appian,0.015617
appli,0.021670
applic,0.016139
approach,0.003888
approv,0.005803
aqueduct,0.023076
aquif,0.011928
archimed,0.029989
architect,0.008981
architectur,0.012745
area,0.023488
aris,0.005511
arithmet,0.008249
arrang,0.005507
art,0.010337
articl,0.004015
artifici,0.005705
artisan,0.009320
asbuilt,0.016110
aspect,0.008880
asphalt,0.012844
assist,0.005037
associ,0.013201
attent,0.005509
australia,0.017617
author,0.011411
automat,0.006896
award,0.011912
bachelor,0.026394
base,0.008831
basic,0.008196
bc,0.036162
becam,0.007447
becaus,0.003066
becom,0.003261
befor,0.006958
begin,0.003972
behavior,0.009557
benefit,0.004943
bengbsc,0.016771
biolog,0.004831
blatch,0.016771
board,0.005876
bodi,0.012263
border,0.006000
boundari,0.034123
brahmagupta,0.012549
branch,0.017328
breakwat,0.014258
bridg,0.033651
broken,0.006792
bu,0.009971
build,0.034486
builder,0.009911
built,0.010156
bulk,0.007221
buoyanc,0.011896
busi,0.004592
businesslik,0.014489
c,0.007797
cadastr,0.014615
campus,0.011621
canada,0.017531
canadian,0.006925
canal,0.032369
captain,0.008233
car,0.007209
carbon,0.006649
carpent,0.010671
carri,0.004398
case,0.017056
caus,0.010924
centuri,0.014014
ceram,0.009593
certain,0.003734
certif,0.015860
certifi,0.044510
chair,0.007663
challeng,0.004873
chamber,0.007239
chang,0.006152
channel,0.006734
characterist,0.004702
charg,0.005265
charter,0.029359
chemic,0.005195
chemistri,0.005979
chen,0.009971
chin,0.011538
china,0.005241
circa,0.009168
citi,0.004711
civil,0.304221
civilian,0.007093
claim,0.008283
class,0.009050
clear,0.005078
client,0.007857
close,0.007301
coastal,0.044630
code,0.015839
coin,0.005650
colleagu,0.007375
collect,0.011940
colleg,0.011846
combin,0.007781
commenc,0.008254
commerc,0.006799
commerci,0.005227
commonli,0.004531
commonwealth,0.014096
commun,0.007136
compani,0.004308
compil,0.007040
complet,0.011306
compli,0.008996
complianc,0.008758
compon,0.009398
comput,0.004521
computeris,0.013129
concept,0.003808
concern,0.026817
concret,0.022427
condit,0.011454
conduc,0.010290
conduct,0.004677
conduit,0.011036
conselho,0.014896
consequ,0.013920
conserv,0.005416
consid,0.006364
consider,0.009171
construct,0.126773
consult,0.006301
contamin,0.017412
contemporari,0.005337
content,0.005384
contract,0.010948
contractor,0.010008
contractu,0.009697
control,0.032630
conveni,0.007286
convert,0.011125
convey,0.008238
coordin,0.005784
cornel,0.008630
correct,0.010990
cost,0.004797
council,0.004975
countri,0.017956
coupl,0.006314
cours,0.004756
court,0.005175
cover,0.008985
crc,0.009829
creat,0.006675
creation,0.004967
crimin,0.013824
crowd,0.008504
cruis,0.009665
cs,0.016675
culvert,0.015848
curriculum,0.008453
cycl,0.005594
dam,0.036837
damag,0.005889
data,0.004355
databas,0.006384
dead,0.006841
deal,0.017584
dealt,0.008179
defens,0.017968
defin,0.011235
degre,0.040221
demand,0.004872
depend,0.003600
depot,0.011122
deriv,0.004149
descript,0.004988
design,0.096197
desir,0.015407
determin,0.003789
develop,0.008187
deviat,0.007744
devic,0.012197
difficult,0.009519
dilat,0.010619
dimens,0.006278
dinner,0.010874
direct,0.003623
disciplin,0.025142
dispos,0.016147
distanc,0.011622
distinct,0.012608
distinguish,0.004844
distribut,0.004502
divers,0.005248
divis,0.004729
dock,0.010034
doe,0.003692
draft,0.007042
drainag,0.042210
draw,0.011188
drawn,0.006440
dure,0.009423
dynam,0.010232
e,0.004422
earli,0.003286
earliest,0.010983
earth,0.015473
earthquak,0.083217
ecolog,0.006191
econom,0.003595
ed,0.013798
eddyston,0.015617
editor,0.013987
edm,0.013322
educ,0.012556
effici,0.005144
effort,0.004550
egypt,0.013876
electr,0.010864
electron,0.005497
element,0.012535
emerg,0.004210
emin,0.009347
emperor,0.007245
empir,0.004584
enact,0.007282
end,0.003592
enforc,0.006159
engag,0.005202
engenharia,0.016413
engin,0.804915
environ,0.008710
environment,0.079229
equip,0.005873
eros,0.017719
especi,0.007630
establish,0.010518
ethic,0.006046
european,0.012276
evalu,0.005692
evid,0.004480
exam,0.009419
exampl,0.008827
excav,0.008832
exchang,0.004644
execut,0.004976
exhibit,0.006202
exist,0.016335
expand,0.004647
experi,0.004040
exposur,0.007301
extens,0.004436
extent,0.005405
extern,0.005138
extrem,0.004712
f,0.004839
facil,0.025190
fact,0.004171
fail,0.009879
failur,0.017149
feder,0.015692
feedback,0.007978
fiber,0.008533
field,0.017939
finish,0.007560
firm,0.011735
fix,0.005214
flood,0.007756
flow,0.010347
fluid,0.027701
flyover,0.014615
focu,0.004819
focus,0.009146
follow,0.002810
forc,0.003521
forefront,0.010334
forens,0.037641
forese,0.010276
form,0.005370
formal,0.004396
foundat,0.004581
frederick,0.007925
fulfil,0.007104
function,0.007193
fundament,0.004498
furnitur,0.010409
furthermor,0.006020
futur,0.004278
ga,0.005910
gener,0.022720
geoenvironment,0.016771
geograph,0.011427
geographi,0.006466
geolog,0.006713
geotechn,0.064767
glasgow,0.010319
glossari,0.008563
good,0.003905
govern,0.003340
gp,0.009573
grade,0.008193
grant,0.005385
graphic,0.007556
great,0.007919
greater,0.004424
greec,0.006640
green,0.006041
ground,0.010224
groundwat,0.011057
group,0.003169
guid,0.004967
guild,0.009729
ha,0.011712
handbook,0.014220
harbor,0.017583
harbour,0.009034
hazard,0.024069
health,0.009795
hi,0.003150
higher,0.004176
highway,0.017733
hill,0.006988
hinduarab,0.013191
histor,0.007892
histori,0.020483
homeown,0.012375
horizont,0.008101
howev,0.002851
huang,0.011015
human,0.013538
hydraul,0.049092
hydrolog,0.018623
identif,0.006920
identifi,0.004246
iktino,0.016771
impact,0.004814
implement,0.004891
import,0.005992
improv,0.004323
includ,0.046336
incorpor,0.009648
increas,0.003378
increasingli,0.005179
increment,0.008873
index,0.005581
india,0.005378
indian,0.005815
indic,0.004321
individu,0.003623
indu,0.010111
industri,0.016039
industryaccredit,0.016771
inform,0.013970
infrastructur,0.053533
initi,0.003817
injuri,0.007788
input,0.012729
insid,0.005892
instanc,0.004757
institut,0.055763
instrument,0.005409
insula,0.013191
intellectu,0.006027
intellig,0.005481
intend,0.005438
interact,0.004383
interchang,0.008041
intercours,0.011709
interfac,0.007648
intern,0.015392
intim,0.008791
intric,0.009773
investig,0.019691
involv,0.023840
ioe,0.015411
iraq,0.007861
ireland,0.007343
irrig,0.008880
isbn,0.008306
j,0.004411
jetavanaramaya,0.016771
john,0.003995
jonathan,0.008213
jurisdict,0.007130
kent,0.010536
kingdom,0.009345
km,0.006611
knowledg,0.013255
lake,0.006927
land,0.035563
landfil,0.013068
landmark,0.008269
lanka,0.009373
larg,0.012381
larger,0.004636
laser,0.008745
law,0.024768
lay,0.006609
layout,0.009841
lead,0.007008
leader,0.005135
left,0.004681
legal,0.009693
legisl,0.005377
length,0.005827
leve,0.013129
level,0.010536
liabil,0.008254
licens,0.034969
licensur,0.011928
liew,0.016771
life,0.007551
light,0.004842
lighthous,0.023187
like,0.009411
limit,0.007173
line,0.008407
link,0.012769
list,0.009797
littl,0.004495
live,0.003797
load,0.112837
local,0.003977
locat,0.012955
loftin,0.016110
logist,0.008475
london,0.004945
longer,0.004843
lot,0.007233
m,0.004200
machineri,0.014485
macroengin,0.016771
main,0.003718
mainli,0.009751
maint,0.018784
maintain,0.020475
mainten,0.014091
make,0.005973
man,0.005196
manag,0.050474
manner,0.005667
map,0.016118
marker,0.009034
mass,0.004816
master,0.006267
materi,0.045270
mathemat,0.018467
mathematician,0.007188
mcgraw,0.011057
mean,0.006468
measur,0.023080
mechan,0.013011
media,0.005386
mediev,0.006264
meet,0.009503
member,0.003747
meng,0.012595
mengmsc,0.015224
merritt,0.013191
mesopotamia,0.008930
met,0.006005
metal,0.018337
meteorolog,0.008611
militari,0.023755
mit,0.007136
mix,0.005648
model,0.007316
modern,0.003522
mole,0.010552
monitor,0.006351
multidisciplinari,0.008784
municip,0.057250
nanosci,0.013693
nanotechnolog,0.009524
nation,0.009762
natur,0.015676
navig,0.014666
near,0.004828
need,0.007060
neglig,0.008738
nepalnepali,0.016771
network,0.029458
new,0.013116
nomad,0.009072
nonlinear,0.008045
nonmilitari,0.012214
nora,0.013391
normal,0.004681
norwich,0.013129
number,0.002938
numer,0.008701
obey,0.008380
object,0.004014
occup,0.006119
occur,0.003731
offer,0.004367
oil,0.005861
older,0.006162
oldest,0.006353
onc,0.004388
onli,0.002703
opencoursewar,0.012066
oper,0.011114
oppos,0.004907
optim,0.006229
order,0.003236
output,0.006129
overal,0.005375
overlap,0.006527
overpass,0.016110
paint,0.007458
pakistan,0.008027
paramet,0.013541
parcel,0.031858
park,0.013727
parthenon,0.012953
parti,0.004538
particular,0.003676
partridg,0.014258
patent,0.007836
pavement,0.027227
peopl,0.003237
perform,0.028900
person,0.003842
philippin,0.008424
physic,0.023057
pipelin,0.019207
place,0.006642
plan,0.031133
planet,0.006663
plant,0.005098
plot,0.007197
pmma,0.014896
point,0.003406
pollut,0.023699
polym,0.008825
polymethylmethacryl,0.015224
polytechn,0.021522
popular,0.004201
port,0.013272
portion,0.005901
posit,0.006961
possess,0.005277
possibl,0.006869
postgradu,0.009841
potabl,0.013864
power,0.006892
practic,0.014412
predict,0.014782
prepar,0.010923
present,0.003367
presid,0.004870
press,0.003963
pressur,0.005069
pretreat,0.015053
prevent,0.004814
price,0.004985
primarili,0.004603
princip,0.005260
principl,0.012127
privat,0.019315
problem,0.007203
procedur,0.005864
process,0.006367
produc,0.003503
product,0.010529
profess,0.042224
profession,0.043655
program,0.008472
project,0.020835
properti,0.020387
propos,0.004154
protect,0.013465
provid,0.002987
provinci,0.008144
public,0.027132
purif,0.019682
purpos,0.008761
putney,0.014896
pyramid,0.009049
qanat,0.015617
qualif,0.017115
qualiti,0.005017
quantiti,0.005485
quebec,0.009887
queensland,0.010994
queue,0.011189
rail,0.008475
railway,0.015938
rang,0.008085
rd,0.006030
read,0.003709
realtor,0.014370
receiv,0.004080
recent,0.003698
recognis,0.006594
reduct,0.006145
refer,0.010678
regul,0.010112
relat,0.011518
relationship,0.004076
relev,0.005586
remedi,0.016894
renssela,0.012417
repetit,0.008712
repres,0.003503
represent,0.005388
requir,0.016811
research,0.013859
residenti,0.009192
resist,0.005534
resourc,0.025943
respect,0.008123
result,0.002975
retain,0.011233
retrac,0.012504
review,0.004785
revolut,0.005290
richard,0.005276
rickett,0.014751
rise,0.004297
risk,0.005255
river,0.011678
road,0.049630
rock,0.006688
role,0.003741
roman,0.011458
rout,0.006430
royal,0.016906
rule,0.003898
s,0.003029
safe,0.027932
safeti,0.006884
sail,0.008078
salt,0.007317
sand,0.008818
sanitari,0.023792
satisfi,0.006335
scale,0.004834
scan,0.008527
scienc,0.025145
scientif,0.008595
screw,0.011511
sea,0.010899
seal,0.016019
secondoldest,0.014896
sector,0.011198
seismic,0.011100
seldom,0.009697
self,0.007339
selfproclaim,0.012031
selfweight,0.016110
sensor,0.008852
separ,0.007804
serv,0.004251
servic,0.024967
set,0.003308
settingout,0.016771
sever,0.003098
sewer,0.036418
shaki,0.012214
shear,0.010034
shelter,0.008327
shih,0.013462
shore,0.008120
sidewalk,0.013536
sign,0.004894
simultan,0.006229
sinc,0.002972
site,0.050068
size,0.009257
slope,0.008581
small,0.003637
smeaton,0.027073
smeatonian,0.016771
social,0.003781
societi,0.018620
softwar,0.012595
soil,0.047144
solid,0.012776
solut,0.005085
solv,0.005470
sourc,0.003738
south,0.004654
spawn,0.018952
special,0.014870
specialis,0.008611
specialti,0.008441
specif,0.007112
specifi,0.012086
speed,0.006078
spend,0.006170
sri,0.008649
stabil,0.005543
stakehold,0.009553
standard,0.004003
stanton,0.013010
start,0.003762
state,0.020806
static,0.015207
station,0.006493
statu,0.004964
steel,0.014890
step,0.005040
stiff,0.020119
stonemason,0.014151
storag,0.007073
storm,0.008327
stream,0.007124
street,0.027130
strength,0.012057
stress,0.012191
stressdepend,0.016771
strong,0.004319
structur,0.104188
student,0.010118
studi,0.012565
stupa,0.013462
subdisciplin,0.056713
subdivis,0.008732
subject,0.011343
submit,0.007445
success,0.011825
supplant,0.018990
suppli,0.029074
support,0.007068
surfac,0.010764
survey,0.102844
surveyor,0.102890
sustain,0.005814
t,0.005171
task,0.005514
teach,0.005822
technic,0.005286
technician,0.009504
techniqu,0.004567
telecommun,0.007748
telford,0.014151
temperatur,0.006009
temporari,0.007010
tend,0.004881
term,0.019661
th,0.010225
theodolit,0.013955
theori,0.006968
therefor,0.004040
thermal,0.007622
thermoset,0.015053
thi,0.017786
thing,0.004729
thoma,0.005317
ti,0.010893
tien,0.014615
time,0.007889
topic,0.009432
topographi,0.009697
tort,0.011928
total,0.004147
tower,0.008693
town,0.006104
tp,0.012549
track,0.006576
tract,0.008475
trade,0.008599
tradit,0.014972
traffic,0.015707
train,0.005132
tramway,0.013391
transact,0.006400
transit,0.005174
transitori,0.011593
transport,0.061148
treatment,0.021871
tunnel,0.008974
type,0.007147
typic,0.003987
uk,0.010896
undergradu,0.007917
underground,0.024716
underpin,0.008667
understand,0.012104
union,0.004417
unit,0.020986
univers,0.009235
unlik,0.009900
urban,0.012469
usag,0.006234
use,0.034003
user,0.006594
util,0.005377
valley,0.006874
vari,0.004381
variabl,0.005433
variat,0.005571
variou,0.003383
vehicl,0.020247
veri,0.006789
verifi,0.015028
vertic,0.007689
vibrant,0.010994
view,0.003809
visit,0.005971
volum,0.010183
w,0.004987
wa,0.036558
wall,0.012587
wast,0.064172
water,0.073362
way,0.003178
weight,0.005991
wheel,0.017905
widerang,0.010379
wind,0.021186
withstand,0.010164
woman,0.007421
woolwich,0.014615
work,0.043710
world,0.006027
y,0.006329
year,0.005999
zealand,0.007067
