abetaccredit,0.027908
abov,0.007492
accept,0.007347
access,0.008097
accord,0.035113
accredit,0.014824
ad,0.007468
adapt,0.009319
add,0.022319
addit,0.011841
adequ,0.012277
advanc,0.014456
agenc,0.009206
aircraft,0.012998
algorithm,0.035198
allow,0.011639
analog,0.020915
analysi,0.014109
analyst,0.013281
appli,0.006256
applic,0.027957
approxim,0.007975
architectur,0.033117
area,0.052314
aspect,0.007691
assur,0.013334
atm,0.019229
attribut,0.009097
autom,0.026192
averag,0.026224
bachelor,0.030482
background,0.010051
becaus,0.010624
befor,0.012053
biolog,0.008369
bl,0.181190
board,0.020361
breadth,0.016762
bug,0.018578
build,0.007467
bureau,0.013347
busi,0.007955
cad,0.019715
camera,0.015276
career,0.034782
case,0.005909
center,0.015076
channel,0.011666
chip,0.015867
choos,0.010167
circuit,0.093339
cluster,0.012968
code,0.054876
come,0.006760
commonli,0.007849
commun,0.043266
compani,0.007464
compar,0.006991
compil,0.024391
complet,0.006528
complex,0.006917
comput,0.556127
concern,0.006636
concurr,0.014575
conduct,0.008101
construct,0.007320
consumpt,0.011025
continu,0.005727
control,0.006280
coordin,0.010020
copyright,0.016707
cornerston,0.033203
cost,0.016622
countri,0.012441
cours,0.008239
cryptographi,0.035170
curriculum,0.029285
cyber,0.020607
cycl,0.009690
decad,0.008593
declar,0.009130
declin,0.008975
degre,0.046449
depend,0.006237
design,0.152754
detect,0.010381
develop,0.085099
devic,0.021130
digit,0.042224
disciplin,0.026132
distribut,0.007799
divid,0.007496
dure,0.005441
ece,0.020722
educ,0.007250
effici,0.017822
electr,0.056463
electron,0.057142
embed,0.079414
employ,0.015098
energi,0.007967
engin,0.533130
enhanc,0.021083
enterpris,0.010712
entrylevel,0.022851
environ,0.037721
eqani,0.029052
equal,0.007750
equip,0.040701
errorcontrol,0.029052
especi,0.013217
establish,0.006073
estim,0.032035
ethernet,0.022537
europ,0.007717
exampl,0.040777
exist,0.011319
facial,0.016911
fast,0.023301
faster,0.011872
faulttoler,0.022639
featur,0.015393
feder,0.009061
field,0.062152
firm,0.020329
firmwar,0.046642
fix,0.009033
fm,0.018396
focu,0.016698
focus,0.023767
foreign,0.007922
form,0.009303
formul,0.009745
fragment,0.011969
freelanc,0.020551
fulltim,0.016207
gather,0.010609
gener,0.013119
gone,0.013505
govern,0.005787
greater,0.007665
grow,0.015607
growth,0.015406
ha,0.008116
hardwar,0.199321
hardwaresoftwar,0.026696
heavili,0.009811
held,0.007195
help,0.006662
high,0.006162
highperform,0.019894
highspe,0.018058
hightech,0.018308
histori,0.005068
hour,0.021388
howev,0.004939
human,0.011726
humancomput,0.038927
humanrobot,0.023721
imag,0.037483
implement,0.008473
import,0.005190
improv,0.029955
includ,0.054920
increas,0.017556
independ,0.006250
indepth,0.017655
india,0.009317
individu,0.031386
industri,0.006946
inform,0.036301
infring,0.018251
instead,0.014256
institut,0.019319
integr,0.044064
interact,0.007593
interfac,0.013248
interfer,0.012422
intranet,0.022962
involv,0.011799
ion,0.013197
job,0.094584
junior,0.016040
knowledg,0.022962
labor,0.009990
laboratori,0.010325
larg,0.005362
larger,0.008031
learn,0.017094
like,0.005434
list,0.005657
maintain,0.007094
major,0.010795
manag,0.014572
mani,0.027590
manipul,0.010893
manufactur,0.009702
master,0.010857
mathemat,0.015995
median,0.015839
medic,0.009368
meet,0.008231
method,0.012601
metropolitan,0.015458
microcontrol,0.046642
microprocessor,0.038847
microsystem,0.021226
mix,0.009785
mobil,0.021612
model,0.006337
modul,0.027474
monitor,0.011002
motor,0.013121
multiantenna,0.029052
multithread,0.024340
music,0.011181
nanomet,0.019803
necessari,0.008107
need,0.012231
network,0.085050
new,0.036354
newer,0.014939
nextgener,0.022537
occup,0.031801
offer,0.007565
ongo,0.011131
onli,0.009366
oper,0.032090
optic,0.012238
outlook,0.043754
outsourc,0.017448
parallel,0.021083
particularli,0.007134
perform,0.021455
person,0.006656
physic,0.006656
pictur,0.011388
plasma,0.014907
possibl,0.005950
postlinktim,0.029052
power,0.005970
primari,0.007700
problem,0.006239
process,0.027574
processor,0.016464
productsappl,0.029052
program,0.066046
programm,0.011213
project,0.028873
protect,0.023325
qualifi,0.012267
qualiti,0.026075
radar,0.016285
radio,0.011943
rang,0.007002
rapid,0.010110
rate,0.014458
recognit,0.020282
reduc,0.007009
refer,0.003699
rel,0.013267
releas,0.009246
reli,0.008915
reliabl,0.033188
repair,0.013171
represent,0.009333
requir,0.040770
rescu,0.014682
research,0.024008
reserv,0.009839
resourc,0.007490
robot,0.027429
router,0.022639
salari,0.013684
save,0.010506
scheme,0.011135
school,0.007527
scienc,0.037335
scientif,0.007445
scope,0.010876
search,0.009469
secur,0.015721
sell,0.010466
semiconductor,0.016145
senior,0.012262
sens,0.015225
sensor,0.046007
servic,0.007208
set,0.005731
sever,0.005367
sharedchannel,0.029052
shuttl,0.018005
signal,0.021291
signific,0.006573
similar,0.018445
skill,0.009919
sloan,0.037475
slower,0.014793
small,0.006300
social,0.006550
softwar,0.261824
solv,0.009476
sometim,0.006703
soon,0.009442
sound,0.010841
space,0.015877
special,0.006439
specialpurpos,0.023197
specialti,0.131611
speech,0.022187
speed,0.021059
state,0.013516
statist,0.008447
storag,0.012253
student,0.017528
studi,0.005441
subcategori,0.017608
suit,0.011969
supercomput,0.018396
suppress,0.011791
synthesi,0.011495
tamper,0.019940
task,0.019104
techniqu,0.015825
technolog,0.022271
telecommun,0.013422
tertiari,0.015572
test,0.033670
themselv,0.007637
theori,0.012071
therefor,0.006998
thi,0.077027
threedimension,0.014142
today,0.007397
tool,0.008244
train,0.008891
transform,0.008428
transmiss,0.025440
transport,0.017654
undergradu,0.013714
unit,0.015580
univers,0.010666
updat,0.012473
usa,0.011495
use,0.012622
usual,0.018589
varieti,0.015462
variou,0.017585
vehicl,0.011691
versatil,0.018425
verylargescal,0.025318
vision,0.033458
visual,0.010863
vlsi,0.113718
wa,0.008443
wafer,0.022639
watermark,0.024175
week,0.010822
western,0.007745
wire,0.014876
wireless,0.100139
word,0.014295
work,0.126197
world,0.005220
write,0.008050
year,0.015589
