abil,0.003320
abl,0.006096
abund,0.004894
academ,0.003614
accept,0.003029
access,0.003339
acclim,0.010037
account,0.002842
acid,0.004862
acidif,0.009252
acronym,0.007310
act,0.033098
action,0.029652
activ,0.012040
actual,0.009265
acut,0.006333
ad,0.003079
adapt,0.019214
add,0.004601
addit,0.004882
address,0.007268
admir,0.005718
adopt,0.006660
advanc,0.002980
advis,0.004878
advoc,0.037283
advocaci,0.013063
aesthet,0.011706
affect,0.006307
afford,0.005182
age,0.003022
aggress,0.005377
agre,0.003638
agreement,0.003683
agricultur,0.017935
aim,0.003446
akeley,0.023016
alaskan,0.009468
albert,0.009809
aldo,0.017994
alexand,0.009247
alfr,0.004945
alga,0.006676
allianc,0.004513
alon,0.004127
alter,0.008657
amalgam,0.007013
america,0.010146
american,0.010937
amphibian,0.049861
anatom,0.006437
ancestor,0.005186
anew,0.008545
ani,0.008507
anim,0.016889
annual,0.011121
anoth,0.004642
anthropocentr,0.009137
anthropolog,0.005471
api,0.007753
appar,0.008239
appear,0.002795
appli,0.015479
approach,0.036106
appropri,0.003868
approxim,0.013155
archi,0.018426
arctic,0.006676
area,0.031159
argu,0.012841
aros,0.004792
art,0.003692
articl,0.005736
asid,0.005504
aspect,0.003171
assess,0.012331
assign,0.004334
assist,0.003598
associ,0.009430
assort,0.007457
atmospher,0.009455
attent,0.015741
attract,0.007766
australia,0.004194
author,0.002717
averag,0.007209
avert,0.007868
away,0.003676
background,0.012434
balanc,0.003819
bank,0.003490
bare,0.005944
base,0.012616
basi,0.003005
battlefield,0.006810
beagl,0.008009
becam,0.007979
becaus,0.017524
becom,0.009317
bed,0.018854
bee,0.027297
beekeep,0.009903
beetl,0.023261
befor,0.009941
began,0.005811
behavior,0.003413
belgium,0.005711
belief,0.007790
believ,0.003009
benefici,0.005340
benefit,0.014125
benirschk,0.011508
best,0.003207
better,0.009844
bia,0.005548
bibl,0.005835
big,0.004406
billfish,0.011321
billion,0.016533
binomi,0.006796
biodivers,0.295476
biogeographi,0.014211
biolog,0.138048
biologist,0.087113
biomass,0.044105
bioregen,0.033025
biospher,0.018200
biotic,0.006958
bird,0.019869
birmingham,0.007457
bleach,0.016603
blue,0.005186
board,0.004198
bodi,0.002920
book,0.002765
border,0.008573
botanist,0.006912
boundari,0.004062
bowen,0.008451
breed,0.005835
bridg,0.004807
britain,0.008198
british,0.016245
broad,0.003908
broader,0.004851
broadest,0.007537
brought,0.003587
bruce,0.005978
buddhist,0.005853
build,0.003079
bulk,0.005158
burgeon,0.007280
busi,0.003280
butterfli,0.021422
california,0.008928
came,0.003186
campaign,0.004374
canada,0.012523
canadian,0.004946
canari,0.007810
capabl,0.003837
capac,0.012119
capit,0.015848
captur,0.016006
carbon,0.023750
carl,0.004865
carr,0.014983
carri,0.006283
case,0.004873
cat,0.006182
catastroph,0.005784
categori,0.003718
caught,0.006002
caus,0.018209
causeandeffect,0.009031
cbi,0.010037
ccd,0.017928
center,0.003108
centr,0.004007
central,0.002732
centuri,0.030031
chain,0.004354
challeng,0.003481
chan,0.007480
chang,0.021972
character,0.003696
charl,0.014930
chemistri,0.008543
chosen,0.004453
christian,0.003777
circumst,0.004477
cite,0.004076
citi,0.003365
citizen,0.003988
civic,0.006348
civil,0.003343
claim,0.002958
clan,0.012779
clarifi,0.005878
classic,0.003220
classifi,0.003942
claus,0.006492
clear,0.003627
climat,0.024969
close,0.005215
cloth,0.005095
club,0.005652
coexist,0.018481
coldspot,0.046033
collabor,0.004477
collaps,0.017174
colleagu,0.005268
collect,0.005686
collector,0.006912
collegi,0.008042
coloni,0.012090
columbia,0.016263
combin,0.002779
command,0.004089
commiss,0.003880
commit,0.004085
common,0.009427
commun,0.033134
comparison,0.004087
compet,0.004018
compil,0.005028
complex,0.011409
compon,0.006713
compris,0.003987
compromis,0.005604
concentr,0.007629
concept,0.024482
concern,0.032839
condit,0.005454
conduct,0.003340
confer,0.011511
confin,0.005233
conflict,0.003630
congo,0.006651
connect,0.003209
consciou,0.005763
consequ,0.003314
conserv,0.553315
conservationist,0.085695
consid,0.013639
consider,0.006551
construct,0.003018
consult,0.004501
consumpt,0.004546
context,0.006858
continu,0.007085
contribut,0.017166
control,0.005179
conven,0.006722
convent,0.003774
convert,0.003973
convinc,0.005189
cook,0.005495
coordin,0.004132
coral,0.045098
core,0.004139
corner,0.006289
correl,0.004543
cost,0.003427
costeffect,0.014938
counter,0.005270
countri,0.007695
coupl,0.004510
cours,0.003397
cover,0.012837
cow,0.020166
crane,0.007838
cre,0.010537
creation,0.003548
creatur,0.023777
crest,0.008094
cretaceouspaleogen,0.008698
crisi,0.020113
crop,0.009638
crow,0.007713
croydon,0.010440
crystal,0.005468
cultiv,0.004978
cultur,0.017585
current,0.019964
cuthbert,0.010537
cycl,0.015984
dalhousi,0.010184
dam,0.006578
damag,0.008413
danger,0.004578
darwin,0.027276
data,0.003110
date,0.003257
day,0.002941
deadlin,0.007945
deal,0.003140
death,0.003414
debat,0.007258
decid,0.003798
decis,0.003286
decisionsupport,0.011156
declin,0.044413
decompos,0.006318
dedic,0.009364
defens,0.004278
defin,0.002675
deforest,0.028670
degrad,0.016776
degre,0.006384
deliv,0.004594
demand,0.006960
demis,0.006889
democrat,0.003819
demograph,0.010467
demonstr,0.007007
dendroctonu,0.011508
denigr,0.009175
depart,0.003417
depress,0.004843
describ,0.007197
descript,0.007126
desicc,0.008671
design,0.005726
despit,0.003305
destroy,0.004076
destruct,0.009227
determin,0.013535
develop,0.023394
devonian,0.008725
diamond,0.005918
dictionari,0.004726
diego,0.006602
diet,0.005763
differ,0.004133
difficult,0.003399
difficulti,0.004210
dilemma,0.006614
dimens,0.004485
dinosaur,0.007686
dioxid,0.005727
direct,0.012942
disappear,0.024780
disciplin,0.017959
disclos,0.006810
discov,0.003432
diseas,0.008166
disord,0.005025
dispers,0.005350
display,0.004430
disrupt,0.005023
dissolv,0.004841
distribut,0.006432
district,0.004715
divers,0.037491
doe,0.002637
dollar,0.013664
domain,0.003807
domest,0.004039
domin,0.009623
downplay,0.007673
drain,0.006722
dramat,0.013207
drastic,0.005835
draw,0.003996
driven,0.009076
dure,0.006731
duti,0.009277
dynam,0.003654
e,0.009476
earli,0.023473
earth,0.055266
easili,0.004020
ecolog,0.070761
econom,0.012841
economi,0.003205
economist,0.004406
ecosystem,0.239540
educ,0.008969
effect,0.022799
effici,0.003674
effort,0.035752
elder,0.005767
emerg,0.006015
emiss,0.005568
emphas,0.008237
emphasi,0.008513
empir,0.003274
employ,0.006225
empti,0.005595
encompass,0.004393
encyclopedia,0.004041
endang,0.058682
endem,0.032687
endors,0.005554
engag,0.007432
engend,0.022021
england,0.004072
enlighten,0.005124
enorm,0.005054
ensu,0.011475
ensur,0.003855
enthusiast,0.006689
environ,0.018665
environment,0.030184
epidem,0.013029
equit,0.013994
equival,0.003780
era,0.011124
erad,0.006824
erasmu,0.015321
erod,0.006755
eros,0.006328
especi,0.002725
essenti,0.006524
establish,0.017532
estim,0.039630
ethic,0.051832
europ,0.003182
european,0.005846
evalu,0.008132
event,0.012216
eventu,0.006671
everi,0.011746
evid,0.003200
evidencecom,0.011508
evolut,0.011431
evolutionari,0.013871
evolv,0.019261
examin,0.003673
exampl,0.029425
exceed,0.019713
excess,0.004535
exist,0.014002
expans,0.003959
expedit,0.010617
explicitli,0.004777
exploit,0.004368
express,0.006081
exsitu,0.021506
extend,0.003095
extens,0.015845
extern,0.001835
extinct,0.218747
eye,0.004691
fact,0.002979
factor,0.002975
fairfield,0.009213
far,0.006364
farn,0.011508
fascin,0.006997
faster,0.009791
fastest,0.006626
favor,0.007752
feather,0.014640
feed,0.010775
feedback,0.005699
fervor,0.009335
field,0.007688
figur,0.003475
financi,0.003350
fish,0.013136
flagship,0.015986
focu,0.006885
focus,0.003266
follow,0.006022
food,0.007223
footprint,0.007573
forc,0.002515
forest,0.082045
forestri,0.006520
form,0.009591
fossil,0.010878
foundat,0.003272
fragment,0.014807
framework,0.003595
franc,0.003592
frankel,0.018426
free,0.002866
function,0.012846
fund,0.010380
fungal,0.007514
fungi,0.012150
fur,0.013869
futur,0.003056
g,0.003394
gain,0.006106
game,0.008612
gap,0.004885
gave,0.003651
gdp,0.004719
gene,0.029216
gener,0.014426
genera,0.007414
genet,0.034100
geograph,0.004081
georgeloui,0.010349
germani,0.003778
giant,0.005487
gibson,0.007753
giga,0.009468
given,0.005033
global,0.089982
goal,0.006903
god,0.004392
gone,0.011137
good,0.005580
gordon,0.005853
gorilla,0.025492
govern,0.007159
governorgener,0.007176
grand,0.004874
grant,0.003847
grassroot,0.007753
graze,0.007046
great,0.014141
greater,0.003160
greatest,0.022081
greatli,0.004109
grebe,0.011156
greek,0.003553
grew,0.004193
group,0.020373
grow,0.003217
guid,0.003548
ha,0.038487
habitat,0.093649
haida,0.010753
halt,0.005718
hand,0.006218
happen,0.003966
harkin,0.009968
harm,0.019352
harmless,0.007929
hasten,0.007610
hawaiian,0.007713
head,0.003239
health,0.010495
healthi,0.010958
heavili,0.008091
held,0.002967
help,0.005494
henri,0.004044
heritag,0.005132
hewitt,0.009031
hi,0.006750
high,0.002541
higher,0.002983
highest,0.003842
highlight,0.015501
highprofil,0.007726
hindu,0.005818
hing,0.007503
hippo,0.007648
histor,0.002819
histori,0.020902
hive,0.008932
hm,0.006664
hold,0.006045
holist,0.012896
holocen,0.015736
honey,0.022721
honeybe,0.009841
hors,0.005421
host,0.009177
hotspot,0.073833
howev,0.024440
hub,0.006514
huge,0.009334
human,0.065280
humboldt,0.007149
hundr,0.011438
hunt,0.005064
hydrodamali,0.010537
idea,0.002816
identifi,0.024269
ideolog,0.004740
ignit,0.007310
iii,0.004799
illadvis,0.010440
immedi,0.003688
immens,0.006030
impact,0.013756
impair,0.006520
impart,0.007079
implement,0.006987
implic,0.004372
import,0.021403
improv,0.009264
imput,0.008385
inbreed,0.008407
includ,0.031357
incom,0.003843
increas,0.007239
incred,0.014353
independ,0.002577
index,0.007973
india,0.011526
indic,0.021610
indispens,0.007005
individu,0.002588
industri,0.005728
inequ,0.010560
inextric,0.008671
infest,0.008429
influenc,0.005528
inform,0.004989
inhabit,0.004362
inher,0.019237
initi,0.005453
inject,0.006196
innov,0.004346
insect,0.045617
insensit,0.008407
insid,0.004208
insitu,0.018426
inspir,0.008304
instead,0.002939
institut,0.005311
institution,0.006632
instrument,0.011592
insuffici,0.005689
integr,0.003028
interact,0.006262
interdisciplinari,0.015475
interfer,0.005122
interlink,0.008112
intern,0.010995
interrelationship,0.007300
intrins,0.010626
introduc,0.005887
invas,0.004576
invertebr,0.013328
invest,0.010719
involv,0.004865
irrepar,0.009468
irreplac,0.010037
islam,0.004177
island,0.011158
issu,0.002692
iucn,0.049336
j,0.003151
jame,0.007078
jare,0.007960
john,0.005708
jolla,0.010184
jr,0.005330
juli,0.003624
kelp,0.053219
keyston,0.043765
kg,0.006537
kill,0.004142
kilogram,0.007088
kingdom,0.003337
kittiwak,0.011321
km,0.004722
knew,0.005910
knowledg,0.006312
known,0.006290
kurt,0.006608
la,0.004188
lack,0.006398
lament,0.007795
land,0.022228
landscap,0.010463
larg,0.013267
largescal,0.014666
largest,0.003465
late,0.011619
later,0.002495
latest,0.005604
law,0.007582
lb,0.007232
lead,0.007509
leader,0.003668
leadership,0.027312
leagu,0.010295
leav,0.007106
leclerc,0.008619
led,0.013539
left,0.013377
legisl,0.011523
lengthi,0.006543
leopold,0.014092
let,0.009401
level,0.027597
lichenform,0.010640
life,0.002696
lifelong,0.007350
lifestyl,0.005975
like,0.004481
limit,0.010248
link,0.009121
linkag,0.006614
list,0.016330
literatur,0.003748
live,0.016276
lobbi,0.012896
local,0.014207
locat,0.003084
logic,0.008121
longest,0.006014
longterm,0.004414
look,0.003464
loop,0.005777
lord,0.009931
lose,0.004412
loss,0.062381
lost,0.007291
lovejoy,0.009423
low,0.003215
lyell,0.008009
m,0.003000
madra,0.008900
mainli,0.003482
mainstream,0.010182
maintain,0.005850
mainten,0.005032
major,0.015580
make,0.010666
mammal,0.021244
manag,0.048073
manchest,0.006584
mandat,0.005227
mani,0.024650
manifesto,0.006614
mankind,0.006054
manner,0.004048
map,0.003837
margul,0.011008
marin,0.009605
market,0.021982
martin,0.004440
mass,0.017202
massiv,0.004464
match,0.004461
matter,0.003155
matur,0.004881
maxim,0.009542
mean,0.006931
meaning,0.005452
measur,0.054955
mechanist,0.013994
medic,0.007726
medicin,0.003999
medicotopograph,0.011508
meet,0.003394
mellifera,0.010875
member,0.002676
mentor,0.006927
method,0.007794
mi,0.005289
michael,0.003860
microb,0.014263
mid,0.004177
midth,0.005175
migrat,0.026895
million,0.006590
mindset,0.008077
miner,0.009289
minimum,0.004576
miss,0.005291
mixtur,0.005245
mobil,0.008912
model,0.002613
modern,0.010065
modifi,0.004093
monarch,0.022161
monboddo,0.010264
monitor,0.040831
month,0.003706
monument,0.006006
moral,0.004196
moreov,0.009625
mose,0.006845
motiv,0.004098
mountain,0.022567
movement,0.020249
muir,0.017739
multicellular,0.006912
multidisciplinari,0.006275
multipl,0.006453
multitud,0.006620
museum,0.010117
mutual,0.004425
mya,0.044349
mycorrhiz,0.009378
mysteri,0.005537
narrow,0.004737
nation,0.032544
natur,0.116460
naturalist,0.034290
necess,0.005256
necessari,0.010029
necessarili,0.008213
need,0.007565
neg,0.007275
net,0.008819
network,0.010521
new,0.014991
newton,0.010593
ngo,0.006897
noninterfer,0.008781
nonprofit,0.006050
north,0.009992
northwest,0.005737
noss,0.010537
notabl,0.012876
note,0.007256
notion,0.003969
notso,0.011508
number,0.012592
numer,0.003107
nurseri,0.008261
nutrient,0.017856
object,0.002867
observ,0.005537
obtain,0.003260
occup,0.004371
occur,0.007996
ocean,0.043170
offic,0.003376
onehalf,0.007898
ongo,0.004590
onli,0.007724
open,0.008615
option,0.004377
ordovician,0.009175
organ,0.027459
organis,0.003971
origin,0.013949
ornithologist,0.009065
osborn,0.008042
otherwis,0.003990
otter,0.042258
otto,0.011821
outbreak,0.011417
outnumb,0.006965
outsid,0.006400
outstand,0.005737
overexploit,0.008725
overharvest,0.010640
overhunt,0.009724
oversea,0.005003
pacif,0.004862
pagan,0.006448
paleontolog,0.006912
panda,0.008964
parallel,0.004346
parasit,0.012419
park,0.029418
parkland,0.010349
particular,0.005251
particularli,0.008826
pass,0.009777
passag,0.009995
past,0.006656
pastur,0.007868
pastureland,0.010037
peopl,0.011564
perceiv,0.008437
percent,0.012639
percentag,0.004674
period,0.009970
perman,0.008130
permiantriass,0.009213
persuad,0.006062
pertain,0.005800
pest,0.022083
pesticid,0.014764
ph,0.006645
phenomena,0.004005
phenomenon,0.004320
philosoph,0.003682
philosophi,0.017858
physic,0.002745
physiolog,0.029648
pine,0.014299
pivot,0.006251
place,0.011862
plan,0.044478
planet,0.047597
planetari,0.018042
plant,0.021853
plato,0.005526
play,0.006057
plumag,0.009565
point,0.007300
polici,0.018626
pollin,0.023220
pollut,0.022572
ponderosa,0.011321
popul,0.062680
popular,0.006002
portfolio,0.005770
pose,0.005109
possibl,0.007360
potenti,0.006228
poverti,0.004948
power,0.004923
practic,0.028311
practition,0.005048
prais,0.005624
predat,0.005340
predict,0.010559
predomin,0.005487
preoccup,0.007898
prepar,0.007802
present,0.007216
presentday,0.005402
preserv,0.032437
preservationist,0.052685
presid,0.003478
pressey,0.011508
prevent,0.010317
prey,0.006554
price,0.003561
primari,0.009526
primarili,0.003288
prime,0.003865
principl,0.014438
prior,0.003633
priorit,0.014701
prioriti,0.040583
problem,0.007718
proceed,0.008804
process,0.015919
profess,0.025134
profession,0.015591
program,0.015130
programm,0.013871
promin,0.007544
promot,0.010294
prompt,0.005266
proport,0.003977
propos,0.011871
prospect,0.005111
protect,0.080154
protest,0.004470
provid,0.012806
proxim,0.005560
public,0.012113
publish,0.008010
purifi,0.006845
purpos,0.003129
pursu,0.004374
puzzl,0.006405
qualifi,0.005058
qualit,0.005577
qualiti,0.003584
question,0.006041
radic,0.004409
rais,0.003548
ranald,0.011508
randomli,0.006503
rang,0.014438
rank,0.004061
rapid,0.025014
rare,0.015835
rate,0.068566
reach,0.006201
react,0.005330
read,0.005299
reason,0.016428
rebuild,0.006421
receiv,0.008744
recent,0.002641
recogn,0.003271
recommend,0.004497
record,0.006431
recreat,0.005892
recycl,0.006492
red,0.016915
reduc,0.002890
reduct,0.008779
reef,0.046872
refer,0.006102
refin,0.004785
reflect,0.003278
refug,0.006508
regard,0.005854
regener,0.006789
region,0.010928
regist,0.018923
regul,0.014447
regularli,0.010387
reign,0.005275
relat,0.006171
relationship,0.008736
releas,0.007625
relev,0.007980
reli,0.007352
religi,0.007794
remain,0.002523
remov,0.003522
renam,0.005296
report,0.023458
reportedli,0.006058
repres,0.002502
reptil,0.006709
republ,0.003580
requir,0.016812
research,0.032175
reserv,0.016230
reset,0.008059
resid,0.004041
resili,0.006997
resourc,0.052507
respect,0.011605
respond,0.008229
respons,0.015877
rest,0.007148
restor,0.012943
restraint,0.006853
restrict,0.003535
result,0.010625
reveal,0.004013
revenu,0.004450
review,0.006836
revisit,0.007054
rich,0.013124
risen,0.012853
risk,0.007507
risley,0.010640
ritual,0.005689
river,0.004171
role,0.010690
roosevelt,0.006817
root,0.003853
royal,0.004025
rspb,0.010037
rule,0.008354
s,0.004327
sahotra,0.010753
sail,0.005770
salmon,0.007713
san,0.004845
sanctuari,0.007660
sara,0.008112
sarkar,0.009616
save,0.012997
saw,0.007467
say,0.006610
scale,0.024171
scenario,0.005526
scienc,0.025659
scientif,0.030700
scientist,0.024420
scope,0.004485
scotland,0.005734
sea,0.050605
seabird,0.008671
season,0.004930
sector,0.007999
secur,0.003241
seek,0.006846
segment,0.005227
select,0.003317
selfish,0.007149
semiperm,0.009781
sensibl,0.006748
sensit,0.004913
sentiment,0.005929
serengeti,0.010264
seri,0.003039
seriou,0.017095
serv,0.009110
servant,0.005881
servic,0.035670
set,0.014180
seventh,0.006156
sever,0.002213
shallow,0.012907
shark,0.007340
shell,0.005135
shelter,0.005948
shift,0.003697
shinto,0.008342
shown,0.003679
sierra,0.007131
signific,0.013552
silvicultur,0.009516
similar,0.002535
simpli,0.006929
simultan,0.004449
sinc,0.008492
singlehabitat,0.011508
singlespeci,0.010875
sink,0.006323
sir,0.009585
site,0.010729
sixth,0.011274
size,0.003306
skeleton,0.006492
skin,0.010770
small,0.002598
social,0.027010
societi,0.050544
sockey,0.011008
soft,0.005421
soil,0.009621
solut,0.007265
solv,0.003907
soon,0.003893
sort,0.004453
sought,0.008272
soul,0.005482
sourc,0.008012
south,0.003325
spasm,0.009516
spatial,0.004963
spearhead,0.007414
speci,0.402216
special,0.002655
specif,0.002540
specimen,0.013168
spread,0.003753
sq,0.006338
st,0.003422
stabil,0.003959
stage,0.003708
stand,0.003990
standard,0.002859
stanford,0.004932
start,0.008063
starvat,0.007005
state,0.016720
station,0.004638
statist,0.003483
statu,0.014184
steer,0.007013
steller,0.030327
stem,0.004772
stepp,0.007371
steven,0.005350
stimul,0.004751
stock,0.024578
store,0.008603
strain,0.005277
strateg,0.009268
strategi,0.007910
stream,0.005089
street,0.004845
stress,0.008708
stressor,0.007976
structur,0.004961
studi,0.008975
subdisciplin,0.011574
subject,0.005402
subsequ,0.003313
success,0.002815
sudden,0.012158
suggest,0.014862
suitabl,0.004713
suppli,0.017307
support,0.020196
suprem,0.004348
surfac,0.015378
surviv,0.018310
sustain,0.053990
sweden,0.005303
symbiont,0.008869
symbiot,0.007361
systemat,0.024339
tackl,0.006537
taiga,0.009565
taken,0.003108
tao,0.007622
target,0.015813
taxa,0.007330
taxonom,0.006889
techniqu,0.003262
technolog,0.003061
temperatur,0.008584
tend,0.003486
term,0.010031
texa,0.005994
th,0.029216
thcenturi,0.009791
themselv,0.003149
theodor,0.005811
theolog,0.005175
theori,0.007466
therefor,0.014429
thi,0.041292
think,0.007364
thinker,0.010265
thoma,0.003798
thought,0.006018
threat,0.053442
threaten,0.053106
thu,0.002482
tie,0.004141
tiger,0.007131
timber,0.006358
time,0.013150
tlingit,0.010753
today,0.006100
togeth,0.005855
tonn,0.007021
tool,0.010199
topic,0.003368
topsoil,0.009516
total,0.002962
trace,0.004071
track,0.004697
trade,0.006143
trader,0.005227
tradit,0.002673
tragedi,0.007140
transact,0.004571
treatment,0.003905
trend,0.024333
triag,0.030554
triassicjurass,0.010875
trillion,0.005918
tropic,0.005418
trust,0.004641
tuna,0.007660
turvey,0.010753
twothird,0.005818
type,0.002552
uk,0.007783
umbrella,0.025295
unchang,0.005661
uncheck,0.008869
uncommon,0.006508
understand,0.011528
undervalu,0.008009
unepwcmc,0.011508
unesco,0.005767
uniformli,0.006919
union,0.006310
uniqu,0.003620
unit,0.019274
univers,0.006597
unlik,0.003535
unpleas,0.007585
unpreced,0.006030
unpredict,0.006683
unquantifi,0.009616
unrestrict,0.007585
unto,0.007648
updat,0.005143
urban,0.017814
urchin,0.041407
use,0.026024
usual,0.002555
util,0.003841
utilitarian,0.006728
valu,0.065313
valuabl,0.004984
vari,0.003130
variabl,0.003881
varieti,0.009564
vascular,0.006997
vast,0.008527
vastli,0.006639
ventur,0.005592
versu,0.004956
vertebr,0.056782
vestigi,0.009137
viabil,0.007241
viabl,0.005842
view,0.005442
virunga,0.022642
volum,0.003637
von,0.004306
vote,0.004026
wa,0.050487
wall,0.004495
warm,0.010852
wast,0.005093
water,0.009825
watersh,0.006824
wax,0.007213
way,0.018162
wealth,0.013117
weigh,0.005982
wellb,0.017040
wetland,0.015029
whale,0.006614
whoop,0.009968
wide,0.005469
widespread,0.004079
wikipedia,0.013648
wilcox,0.009213
wild,0.005447
wilder,0.014408
wildlif,0.042352
work,0.016652
world,0.038748
worst,0.005856
write,0.013279
writer,0.004357
wrought,0.007853
wwf,0.008900
year,0.021428
yearli,0.012588
yellowston,0.020074
york,0.009810
zealand,0.005048
zoo,0.007686
zoolog,0.019232
