abov,0.007080
abruptli,0.008735
academ,0.024852
accept,0.010415
accoridng,0.013727
account,0.016285
action,0.003397
activ,0.008278
addit,0.002797
address,0.004164
administr,0.003866
affect,0.003613
africa,0.013472
african,0.004847
agenc,0.026102
agenda,0.019326
ahistor,0.010850
aid,0.004148
aim,0.007897
al,0.004743
ala,0.009178
alan,0.011725
allegedli,0.007121
allianc,0.010343
alreadi,0.004028
althuss,0.020470
althusserian,0.013187
alway,0.003718
america,0.007751
american,0.018799
amsterdam,0.007034
analys,0.010813
analysi,0.030002
analyst,0.018827
analyt,0.005041
analyz,0.013945
andrew,0.005616
angela,0.019267
anger,0.007218
angl,0.006241
anglospher,0.011963
announc,0.004643
annual,0.008496
anoth,0.002659
anotherand,0.013187
antagon,0.008471
anthropolog,0.012539
anticonsumer,0.011963
antidisciplinari,0.013727
antonio,0.014403
appear,0.006406
appoint,0.004545
approach,0.025460
appropri,0.008865
archaeolog,0.005921
area,0.008239
argu,0.011036
argument,0.004646
art,0.008461
articl,0.013146
articul,0.006678
artifact,0.006552
artist,0.005803
asia,0.014244
aspect,0.007269
aspir,0.013903
assert,0.004750
assess,0.004710
assist,0.004123
associ,0.035118
assumpt,0.004711
attack,0.004458
attempt,0.006308
attent,0.004509
attract,0.008899
attribut,0.004298
august,0.004202
australasia,0.009197
australia,0.024033
australian,0.005751
author,0.003113
avowedli,0.011859
axel,0.009336
b,0.003662
backward,0.013755
bagnal,0.012783
bangalor,0.010746
base,0.024096
basi,0.006889
basic,0.003354
beach,0.007223
bear,0.005175
beatriz,0.012321
becam,0.012191
becaus,0.002510
becom,0.010677
befor,0.002847
began,0.003329
begin,0.009754
begun,0.010603
believ,0.003448
best,0.003675
betray,0.016167
birmingham,0.179463
birth,0.004913
blackwel,0.027883
bloom,0.016531
book,0.006338
booknot,0.011501
boom,0.006326
boston,0.006147
bound,0.014968
bourdieu,0.041395
branch,0.003546
britain,0.014092
british,0.037231
briton,0.009159
broad,0.004478
brought,0.012331
brunsdon,0.025945
brute,0.009159
bryan,0.008808
butler,0.008353
c,0.003191
ca,0.012266
calif,0.009819
came,0.003651
canada,0.014350
canadian,0.011337
canclini,0.013727
capac,0.009258
capit,0.003632
capitalist,0.019791
cari,0.010164
caus,0.002980
ccc,0.008933
centr,0.013776
central,0.009391
centuri,0.002867
certain,0.003056
chair,0.006272
challeng,0.003989
chamber,0.005926
champion,0.006933
chang,0.007553
chapter,0.005205
character,0.004235
characterist,0.007698
charlott,0.017616
chatto,0.011423
chri,0.015035
circul,0.011686
circumst,0.005130
claim,0.003390
clark,0.006466
class,0.051859
classic,0.007379
classversusclass,0.027455
clcweb,0.012972
clerk,0.007695
close,0.002988
colleagu,0.012074
colleg,0.009696
colon,0.005926
combat,0.011725
combin,0.006369
commit,0.004681
common,0.002700
commun,0.020444
communist,0.005508
communitybuild,0.013727
companion,0.019326
compar,0.009910
complex,0.006536
composit,0.004630
compris,0.004569
comput,0.003701
concentr,0.004371
concept,0.034288
conceptu,0.005376
concern,0.009407
condit,0.003125
conduct,0.003828
confer,0.004396
confid,0.005713
conflict,0.004160
confluenc,0.009379
conjunctur,0.011762
connect,0.003677
consent,0.013711
conserv,0.008867
consid,0.002604
conson,0.009684
constantli,0.006226
construct,0.010376
consum,0.017790
consumpt,0.010419
contain,0.003204
contemporari,0.030584
contest,0.011753
context,0.011788
contextu,0.008192
continent,0.011897
conting,0.012974
continu,0.010825
continuum,0.006666
contribut,0.009835
control,0.011870
converg,0.005884
core,0.014230
correct,0.008996
counter,0.006039
countri,0.002939
cours,0.003893
craft,0.006719
crawford,0.009819
creat,0.002732
creation,0.004065
crisi,0.009218
critic,0.055856
criticis,0.006574
criticismact,0.013727
critiqu,0.045399
crosscultur,0.008917
cruz,0.008342
cs,0.013649
cspan,0.010062
css,0.022696
cultur,0.712023
current,0.002859
curriculum,0.006919
david,0.007935
day,0.003370
deal,0.003598
dean,0.007280
decad,0.004060
decis,0.003766
declin,0.008482
decoloni,0.011963
deconstruct,0.024862
decor,0.007252
defin,0.003065
democraci,0.004975
denni,0.007658
depart,0.011749
deploy,0.006045
descript,0.004083
design,0.009842
desir,0.004203
destruct,0.005286
determin,0.003102
detractor,0.009086
develop,0.029041
devis,0.006127
dick,0.008342
did,0.006631
differ,0.011840
differenti,0.009045
difficult,0.003895
dimens,0.005139
direct,0.005932
director,0.005370
directorship,0.021700
disciplin,0.041159
disciplinar,0.039562
disciplinari,0.008255
disciplinesanthropolog,0.013727
discours,0.012232
discret,0.005268
discuss,0.003644
disestablish,0.021394
dismiss,0.005951
disput,0.004493
dissemin,0.006956
distanc,0.004756
distinct,0.010320
distinguish,0.003965
divers,0.004296
diversifi,0.006764
divis,0.003871
doi,0.005913
domin,0.014703
dont,0.006241
dope,0.010062
dorothi,0.008999
draw,0.009158
drawn,0.010543
du,0.006313
dupe,0.011583
dure,0.010285
dworkin,0.011277
dyer,0.020697
dynam,0.004187
eagleton,0.023003
earli,0.005379
econom,0.020601
economi,0.011018
ed,0.022588
edgar,0.015722
edit,0.021045
editor,0.011449
educ,0.006852
effect,0.007837
effort,0.003724
elimin,0.004650
eman,0.007911
emancip,0.007695
embrac,0.006066
emerg,0.013786
emigr,0.006760
emphasi,0.004877
empir,0.003752
employ,0.003567
emul,0.007710
encompass,0.005034
encount,0.005296
end,0.002940
enemi,0.006010
engag,0.034069
engel,0.008298
english,0.007490
englishspeak,0.022110
entiti,0.004562
ep,0.017441
episod,0.006604
epistem,0.008545
era,0.008497
especi,0.003122
essay,0.010422
et,0.004622
ethic,0.004949
ethnic,0.010613
ethnographi,0.009255
europ,0.007293
european,0.003349
evalu,0.004659
everyday,0.034468
everyon,0.006208
everywher,0.006985
evid,0.003667
evolv,0.004414
examin,0.012627
exampl,0.014450
exercis,0.004620
exist,0.002674
expand,0.003804
explain,0.007240
explicitli,0.005474
explor,0.008195
expos,0.005386
express,0.006968
extern,0.002102
face,0.004036
facilit,0.004848
fact,0.003414
faction,0.006351
faculti,0.006211
fade,0.007680
fals,0.005454
falsiti,0.009467
famous,0.006985
fascist,0.007973
fashion,0.011320
fearless,0.010513
feel,0.005027
femin,0.024082
feminist,0.021147
fetish,0.009998
field,0.049925
figur,0.007965
film,0.005454
filmvideo,0.012783
financi,0.003839
firmli,0.007029
fisk,0.021205
fix,0.004268
flagship,0.018318
flavor,0.008213
focu,0.011835
focus,0.003743
follow,0.002300
forc,0.011529
forcemov,0.013727
fore,0.009336
form,0.021980
formal,0.003598
format,0.011766
formid,0.008298
forth,0.005845
forward,0.010209
foundat,0.003749
fragil,0.007710
framework,0.008240
franc,0.004116
franca,0.009560
frankfurt,0.015893
french,0.003870
fund,0.003964
fundament,0.011047
furthermor,0.004927
gadjah,0.013727
garca,0.008917
garden,0.006431
garri,0.010129
gave,0.016737
gay,0.008223
gaynor,0.013187
gender,0.024659
gener,0.012398
geographi,0.010586
german,0.004061
germani,0.008659
gilbert,0.006877
gilroy,0.012614
given,0.008652
global,0.026732
gone,0.006381
good,0.003197
gossip,0.010272
govern,0.005469
gramsci,0.095018
grappl,0.009489
great,0.003241
green,0.004945
griselda,0.024386
grossberg,0.012074
ground,0.004184
group,0.007781
ha,0.057524
hairstyl,0.010746
hall,0.098208
hard,0.004719
harold,0.013801
harper,0.007407
health,0.004008
hebdig,0.025945
hegemoni,0.085493
help,0.003148
henc,0.004486
heritag,0.005881
heurist,0.007358
hi,0.036097
hierarchi,0.005860
high,0.002911
highli,0.003785
highlight,0.005921
himherself,0.011859
histor,0.019381
histori,0.011975
historic,0.009791
historycritic,0.013187
hoax,0.019934
hobson,0.010030
hoggart,0.071781
holdov,0.011963
home,0.008212
homolog,0.007401
honneth,0.013187
howev,0.009335
human,0.011082
humanist,0.006985
iain,0.009584
idea,0.006455
ident,0.024705
identifi,0.006952
ideolog,0.021728
illumin,0.006756
im,0.007600
imag,0.004427
imbu,0.009400
immedi,0.004227
impact,0.007881
import,0.019620
inaugur,0.006643
incis,0.009536
includ,0.027947
incorpor,0.003948
increasingli,0.004239
indepth,0.008342
indic,0.007075
indonesia,0.006811
industri,0.003282
inequ,0.006050
inexperienc,0.009467
influenc,0.025338
influenti,0.009249
initi,0.012498
inni,0.011859
innov,0.004981
inscrib,0.008838
insight,0.005334
insist,0.011734
institut,0.009128
integr,0.003470
intellectu,0.014800
interact,0.007175
interasia,0.013727
intercept,0.008376
interchang,0.006582
interdisciplinar,0.010697
interdisciplinari,0.005911
intermin,0.011583
intern,0.017639
interpret,0.007672
interrog,0.008571
interview,0.011892
introduc,0.006746
investig,0.004029
involv,0.005575
ire,0.011019
isbn,0.027195
issu,0.021600
itali,0.005175
italian,0.010791
jeff,0.017091
jefferson,0.008213
jeremi,0.007586
jo,0.006842
john,0.009812
johnson,0.032854
journal,0.073972
jsu,0.013727
judith,0.017413
just,0.003353
key,0.025614
keyword,0.009400
kind,0.011491
kingdom,0.003824
know,0.004356
knowledg,0.028933
known,0.004805
kulturwissenschaft,0.026374
labor,0.004720
labour,0.004867
lack,0.003665
languag,0.010841
larg,0.002533
larger,0.003794
lash,0.020941
late,0.029957
later,0.005718
latin,0.031631
lawrenc,0.006431
lay,0.005410
lead,0.005737
leader,0.004203
leadership,0.005216
led,0.003102
left,0.019161
leftist,0.007407
leftw,0.007929
leisur,0.007886
level,0.008624
lewi,0.024137
liberalpluralist,0.013187
life,0.012361
like,0.002567
lindlof,0.012783
line,0.006881
lingua,0.009467
link,0.002090
list,0.005346
literaci,0.014108
literari,0.048232
literatur,0.021476
live,0.009325
local,0.003256
locat,0.003534
london,0.036431
long,0.006242
longhurstbrian,0.013727
look,0.007938
loui,0.010849
low,0.003684
loyalti,0.006966
lunat,0.010746
macho,0.012193
mada,0.011963
magazin,0.005565
main,0.003043
maintain,0.006704
major,0.007651
make,0.004889
malden,0.019754
manag,0.003442
manfr,0.009316
mani,0.015209
manifest,0.005530
manufactur,0.004584
margaret,0.021072
mark,0.003859
marshal,0.012743
mart,0.010310
martnbarbero,0.013727
marxism,0.037589
marxist,0.045688
mass,0.007884
mcluhan,0.010199
mcrobbi,0.037384
mean,0.026474
meander,0.011670
meaning,0.006248
media,0.044094
member,0.003067
mention,0.004654
mere,0.004729
method,0.011908
methodolog,0.030530
michael,0.008848
middl,0.003963
middleclass,0.008223
midwest,0.009275
militari,0.003888
miller,0.020133
million,0.003775
minist,0.004337
mlg,0.012783
mobil,0.005106
mode,0.005411
modern,0.005766
modifi,0.004690
moment,0.005469
moral,0.004809
moreov,0.005514
morley,0.019754
motiv,0.004696
movement,0.009944
multipli,0.006197
museum,0.005796
mutat,0.006674
mystif,0.012193
nation,0.005327
natur,0.005132
nd,0.013418
necessari,0.003831
need,0.005779
negoti,0.005031
nelson,0.007263
neoliber,0.008083
neurobiolog,0.008172
new,0.021472
ngel,0.010850
nonsens,0.008287
notabl,0.003688
note,0.013857
notion,0.004548
nstor,0.011501
numer,0.003561
ny,0.006956
oak,0.023222
object,0.013144
obscurant,0.011963
observ,0.003172
occassion,0.013727
ogborn,0.012783
onli,0.013276
open,0.013163
oper,0.003032
oppon,0.005971
oppos,0.004017
opposit,0.007910
ordinari,0.005242
organ,0.002622
orient,0.005008
origin,0.007992
osfgmuedu,0.013727
otherwis,0.004572
outcri,0.009710
outsid,0.003667
outspoken,0.008901
overrid,0.008388
overst,0.019639
oxford,0.009033
paper,0.011899
paradigm,0.005824
parodi,0.008854
parti,0.011144
particip,0.007584
particular,0.006017
particularli,0.020227
passiv,0.013248
past,0.003813
paul,0.033428
paula,0.009737
pearson,0.007572
peasant,0.006702
peer,0.006702
penetr,0.006421
peopl,0.018552
perfectli,0.006678
period,0.005712
person,0.003145
perspect,0.004301
peter,0.004383
phenomena,0.018359
phenomenon,0.004950
philosoph,0.008438
philosophi,0.012278
photograph,0.006616
phrase,0.011584
physicist,0.011379
pierr,0.006188
pioneer,0.005021
place,0.002718
play,0.003470
plural,0.006182
polic,0.010692
polici,0.014229
polit,0.096546
pollock,0.019813
popular,0.017196
portug,0.006421
portugues,0.006119
posit,0.002848
possibl,0.002811
postcoloni,0.016574
postdevelop,0.013727
postgradu,0.008055
posthegemoni,0.013727
postmodern,0.044596
poststructur,0.036562
poststructuralist,0.009467
postwwii,0.010850
potenti,0.010706
power,0.025388
pp,0.004494
practic,0.041289
practition,0.034711
pragmat,0.006719
presenc,0.004168
present,0.005512
press,0.003244
prestigi,0.015672
prevent,0.003940
prime,0.004428
print,0.005176
prior,0.004163
prison,0.005850
privileg,0.006291
probabl,0.003955
process,0.007817
produc,0.008604
product,0.017237
profession,0.004466
professor,0.004926
professorship,0.008901
profound,0.012576
program,0.020805
progress,0.018784
project,0.003410
promin,0.004322
promot,0.007864
prospect,0.005857
provid,0.002445
provok,0.007054
psychoanalysi,0.008388
psycholog,0.009397
pub,0.008244
public,0.008328
publish,0.012238
purdu,0.009235
purport,0.007795
purpos,0.003585
pursu,0.005013
qualit,0.006391
question,0.017308
r,0.003688
race,0.032493
radic,0.025266
rae,0.010513
raft,0.009489
rama,0.009658
rang,0.019853
rapidli,0.004647
rare,0.004536
ration,0.009501
raymond,0.028741
rd,0.004936
read,0.021254
reader,0.005961
realiti,0.009510
realiz,0.004888
realli,0.005624
realm,0.011045
rearticul,0.023927
reason,0.006275
receiv,0.003340
recent,0.009081
recept,0.006919
recogn,0.003748
reconcil,0.006873
refer,0.005244
reflect,0.003756
regard,0.003354
region,0.003130
reject,0.021548
rel,0.006269
relat,0.016500
relationship,0.003337
relativ,0.017169
relev,0.004572
remain,0.008674
renew,0.010224
repetit,0.007131
replac,0.003562
report,0.003360
repres,0.008603
repress,0.006593
requir,0.002752
research,0.019853
resist,0.013590
respect,0.003324
respond,0.004715
restructur,0.006905
result,0.002435
rethink,0.008331
rethought,0.011501
retir,0.005948
reveal,0.004598
review,0.011751
revis,0.005224
revolut,0.004330
rework,0.009400
richard,0.043189
right,0.009411
rise,0.010553
road,0.005078
rojek,0.013727
role,0.003062
roll,0.006523
romantic,0.008411
room,0.005670
routledg,0.031149
row,0.006760
rule,0.003191
run,0.003841
s,0.054548
sage,0.027566
said,0.003592
santa,0.006928
sardar,0.011080
sarlo,0.012783
saw,0.004278
say,0.007575
scene,0.006297
scholar,0.053277
scholarli,0.006188
school,0.060466
scienc,0.014701
scientif,0.010553
scientist,0.003997
scott,0.012939
second,0.005738
sector,0.004583
sedgwick,0.020697
seek,0.003922
seen,0.006860
selfdescrib,0.010030
selfproclaim,0.009848
semiot,0.017357
senior,0.005794
sens,0.007194
septemb,0.004215
set,0.005416
sever,0.005072
sexual,0.005744
shape,0.008333
shift,0.012710
shown,0.004215
shrink,0.007665
sic,0.008678
signific,0.015529
silli,0.010602
similar,0.002905
similarli,0.004609
simon,0.005845
sinc,0.012164
site,0.020491
skill,0.004687
smith,0.020619
smithgreg,0.013727
social,0.064998
societi,0.036580
sociolog,0.080708
sociologist,0.020715
sokal,0.055401
sometim,0.006334
somewhat,0.005157
soni,0.009658
sourc,0.003060
space,0.003751
spain,0.005170
spanish,0.005261
special,0.003042
specif,0.002911
spend,0.005050
sphere,0.010889
spread,0.012902
stabl,0.009576
standpoint,0.007748
state,0.006386
statist,0.003991
stem,0.005469
stencil,0.011963
stori,0.004931
strateg,0.005310
strategi,0.013596
strength,0.004934
structur,0.019899
structuralist,0.018244
struggl,0.010200
stuart,0.080976
student,0.008282
studi,0.442261
studiesand,0.013727
studyanalysi,0.013727
subcultur,0.018673
subfield,0.006263
subject,0.009285
submit,0.006094
subordin,0.026860
subsequ,0.003796
substanc,0.005115
substanti,0.013550
subtl,0.007196
superior,0.005415
superstructur,0.019639
support,0.002892
surround,0.004455
t,0.004233
taiwan,0.006846
taken,0.003562
task,0.004513
taylor,0.006122
technolog,0.003507
televis,0.005484
tempor,0.006411
tenur,0.007376
term,0.009196
terri,0.008223
text,0.079746
textual,0.022930
thatcher,0.035540
thatcherl,0.013727
thenowweari,0.013727
theoret,0.031915
theori,0.057037
theorist,0.011341
theoriz,0.006620
thereaft,0.006361
therefor,0.006614
thi,0.027297
thing,0.003871
think,0.016877
thinker,0.011763
thompson,0.014447
thought,0.003448
thousand,0.012872
threefifth,0.011423
thrive,0.013471
thu,0.017065
time,0.004305
tobi,0.031412
togeth,0.003355
toni,0.007538
took,0.003800
tool,0.003895
topia,0.013187
topic,0.003860
total,0.003394
tourism,0.005660
trace,0.004665
track,0.005383
tradit,0.021446
trait,0.005764
transform,0.003982
translat,0.008377
treason,0.008651
treat,0.008520
treatment,0.004475
treichler,0.013727
tremend,0.007069
triniti,0.008000
truth,0.005176
turn,0.010090
turner,0.007811
uk,0.035677
underlin,0.008533
undermin,0.006449
underpin,0.007094
understand,0.016513
understood,0.013698
undevelop,0.008933
unexpectedli,0.008778
union,0.003615
unit,0.004908
univers,0.045359
unstabl,0.006491
upper,0.004913
urban,0.005103
use,0.013916
variant,0.005893
varieti,0.014612
variou,0.008309
version,0.004256
victori,0.005634
view,0.021828
visual,0.005133
vocabulari,0.007275
voltefac,0.012783
vote,0.004613
wa,0.029924
walkman,0.012193
warfar,0.006170
warm,0.006217
way,0.018210
weak,0.004833
weedon,0.012614
wellb,0.006508
western,0.007319
whi,0.004476
white,0.009238
wholli,0.007079
wide,0.009401
widen,0.007572
wider,0.005540
willi,0.016324
william,0.015594
williamson,0.008901
win,0.005470
windu,0.012074
wit,0.005926
women,0.004630
wont,0.008459
word,0.003377
work,0.078712
world,0.029600
worldwid,0.004936
worthi,0.007672
write,0.011412
writer,0.004993
written,0.003852
wrote,0.004145
yale,0.006651
york,0.011242
youth,0.018408
zealand,0.005785
ziauddin,0.011670
