abov,0.012371
abstract,0.102024
acl,0.036300
act,0.011044
actual,0.012367
addit,0.009775
advantag,0.029999
algebra,0.020751
algorithm,0.038744
amen,0.027213
analysi,0.011648
annot,0.026460
anoth,0.027882
answer,0.017205
approach,0.088968
aspect,0.050800
assert,0.016600
attribut,0.015021
atyp,0.033576
autom,0.108118
automat,0.059180
automata,0.059287
axiomat,0.026608
base,0.008419
becaus,0.017542
behavior,0.013667
bibliographi,0.016945
birdmeerten,0.050835
bit,0.023697
bound,0.017434
bug,0.092026
bugloc,0.050835
c,0.033453
candid,0.017975
case,0.029272
certain,0.021362
check,0.121390
checker,0.032924
china,0.014993
circuit,0.044033
class,0.012943
code,0.075506
collect,0.011384
combin,0.022257
commerci,0.029904
compani,0.012324
compcert,0.046946
compil,0.040272
complementari,0.045538
complex,0.011420
compon,0.026882
comput,0.064664
conform,0.043084
consid,0.009102
consist,0.041786
construct,0.024173
context,0.013730
convey,0.023565
coq,0.039655
correct,0.062871
correctli,0.022427
correctnesspreserv,0.050835
correspond,0.014169
cost,0.013722
cryptograph,0.033932
ctl,0.042607
data,0.012456
decid,0.030422
deduc,0.023310
deduct,0.067750
denot,0.019045
depend,0.020597
deriv,0.011867
describ,0.009607
design,0.022928
desir,0.014690
determinist,0.024919
difficult,0.013613
digit,0.017429
disadvantag,0.046292
discharg,0.026199
disprov,0.026969
doe,0.031683
domainspecif,0.035395
dynam,0.029267
dynamicbehavior,0.050835
easier,0.020120
east,0.014447
effect,0.009129
effici,0.014713
embed,0.021854
employ,0.012464
encompass,0.017592
entir,0.012188
enumer,0.081474
equival,0.015136
error,0.017869
establish,0.010028
evalu,0.016282
evolutionari,0.018514
exampl,0.033664
exercis,0.016145
exhaust,0.021972
exist,0.009344
explicit,0.020519
explor,0.042954
express,0.012175
faultloc,0.050835
featur,0.012708
finit,0.058303
finitest,0.039405
fit,0.017108
fix,0.044745
focu,0.013785
form,0.023042
formal,0.251481
format,0.013705
fulli,0.030299
function,0.061727
gener,0.028882
genet,0.017067
goodenough,0.040781
great,0.011325
greater,0.025312
green,0.017281
group,0.009064
growth,0.012719
guarante,0.036864
ha,0.013400
hardwar,0.117538
help,0.011000
hill,0.019988
hoar,0.034412
hol,0.036588
human,0.009681
hundr,0.015267
hybrid,0.020993
implement,0.041970
impli,0.015622
import,0.017140
includ,0.020926
increas,0.009662
increasingli,0.014813
industri,0.057347
infinit,0.039351
inform,0.009989
inputoutput,0.031272
inspect,0.025107
instanc,0.013608
integ,0.024097
integr,0.012126
intellig,0.015678
intend,0.015555
interact,0.025074
intern,0.008805
interpret,0.026811
intervent,0.018232
introduc,0.011787
involv,0.019482
isabel,0.031688
iso,0.023450
known,0.008395
l,0.014789
lab,0.021951
label,0.018077
languag,0.050510
languish,0.036026
larg,0.008853
lead,0.010023
lightweight,0.032481
like,0.008973
limit,0.030778
linear,0.017874
list,0.009341
logic,0.097552
loop,0.023132
ltl,0.041804
lurch,0.041804
machin,0.016219
major,0.008912
make,0.025626
mathemat,0.079232
mean,0.037004
meet,0.013591
memori,0.017473
method,0.041613
microkernel,0.045331
model,0.125561
modul,0.022681
modulo,0.070096
natur,0.008967
need,0.020196
net,0.017657
nicta,0.050835
normal,0.013389
notabl,0.012889
number,0.008403
object,0.011482
oblig,0.037099
ok,0.037552
onc,0.012551
onli,0.030929
oper,0.052985
oracl,0.029643
order,0.009256
orientai,0.050835
osekvdx,0.050835
otherwis,0.015978
overal,0.015374
owe,0.020443
pair,0.017900
perform,0.011808
perhap,0.015614
petri,0.033241
pikeo,0.045331
point,0.009743
possibl,0.068772
post,0.016302
potenti,0.012470
predefin,0.031626
present,0.009631
primari,0.012714
procedur,0.016774
process,0.027317
produc,0.010022
product,0.060234
program,0.169634
promis,0.018099
proof,0.078558
properti,0.058312
protocol,0.021779
prove,0.089194
prover,0.073176
provid,0.008546
psl,0.040781
purpos,0.012529
pv,0.032005
random,0.018374
realist,0.020993
realtim,0.025606
reduc,0.023145
refer,0.012217
refin,0.019163
rel,0.010953
repair,0.130488
repres,0.010020
requir,0.019233
respect,0.023235
result,0.017018
right,0.010962
run,0.013424
runtim,0.036162
satisfactorili,0.034025
satisfi,0.054365
scale,0.013826
search,0.046908
secur,0.012978
seen,0.011986
sel,0.043544
select,0.013283
semant,0.113223
sequenc,0.016959
seri,0.012169
set,0.018926
sever,0.008863
signific,0.010852
silicon,0.025950
simpl,0.013508
simul,0.036946
singl,0.011377
small,0.020806
smart,0.026709
smt,0.088159
softwar,0.144102
sold,0.017953
solver,0.064409
sound,0.053702
sourc,0.021388
space,0.065539
special,0.010633
specif,0.122065
specifi,0.034571
state,0.066950
static,0.043496
staticstructur,0.050835
step,0.014416
structur,0.009933
subarea,0.034412
subcompon,0.037730
subset,0.021324
subtl,0.025145
support,0.010108
sva,0.050835
symbol,0.046305
symmetri,0.023667
synthesi,0.037962
sysgo,0.046946
systemat,0.016243
systemverilog,0.050835
target,0.015830
techniqu,0.156783
tempor,0.067211
termin,0.039840
test,0.041696
testsuit,0.050835
theorem,0.095292
theori,0.019930
thi,0.044514
thing,0.013528
time,0.015044
tool,0.013613
transit,0.029602
tree,0.017512
tri,0.026764
truth,0.018088
type,0.040886
typebas,0.050835
typecheck,0.050835
typic,0.034218
undecid,0.031103
underli,0.016145
understand,0.011540
univers,0.008805
unsound,0.107684
usag,0.017832
use,0.097256
user,0.037721
usual,0.020462
v,0.030318
valid,0.097411
varieti,0.012765
vector,0.020561
veri,0.009709
verif,0.595337
verifi,0.085967
whi,0.015643
work,0.008334
yield,0.016608
