aaa,0.018972
abl,0.022255
abroad,0.012754
absolut,0.009961
academ,0.052781
academi,0.011314
academia,0.030291
access,0.008126
accord,0.011745
account,0.006917
achiev,0.007388
acknowledg,0.011325
addit,0.005941
administr,0.032847
admit,0.012385
advanc,0.021761
advantag,0.009116
advisori,0.014439
affili,0.013435
africa,0.019075
agenc,0.073914
agensi,0.028007
aggreg,0.024840
agreement,0.008964
aid,0.017621
aim,0.016773
al,0.030222
alloc,0.011720
allow,0.017521
alreadi,0.008556
alter,0.010534
altern,0.007546
america,0.008231
american,0.006654
andrew,0.011927
angel,0.014084
ani,0.010352
antonym,0.023403
appli,0.012557
apprais,0.017624
approv,0.010089
approxim,0.008003
arab,0.010847
arabia,0.028734
area,0.005833
aris,0.009581
art,0.008985
assist,0.026270
associ,0.022949
astronomi,0.013186
audio,0.030828
australia,0.020417
australian,0.024429
author,0.066127
authorindustri,0.028007
avail,0.014358
axa,0.024601
background,0.010086
badli,0.015966
bartl,0.024426
basic,0.035622
becam,0.006473
becaus,0.010661
becom,0.005669
befor,0.006048
behav,0.012596
beneficiari,0.016858
benefit,0.008593
best,0.015610
better,0.007985
beverag,0.016876
bias,0.029350
bibcodenaturm,0.026790
billion,0.040235
biomed,0.046651
biotechnolog,0.015426
blueski,0.023403
bodi,0.035531
brazil,0.012655
breakthrough,0.015112
brian,0.014485
british,0.007907
build,0.007493
bulk,0.012554
busi,0.023949
businessman,0.018176
c,0.006777
came,0.007754
canada,0.010158
canadian,0.036116
cancer,0.013044
capabl,0.009340
capitalist,0.014011
care,0.017820
career,0.011635
carri,0.038230
case,0.005930
cassett,0.044298
catalog,0.016233
categori,0.009050
center,0.015129
centr,0.009752
centuri,0.012181
certain,0.012983
chanc,0.011417
charg,0.009153
charit,0.017443
charl,0.009084
choos,0.010203
cientfico,0.024260
circumv,0.017624
claim,0.021600
classic,0.007836
classifi,0.009594
clinic,0.012370
clinicaltri,0.026169
cochran,0.037740
coi,0.135751
collabor,0.010895
colleg,0.020593
collegi,0.019573
come,0.020352
commerci,0.027263
commercialis,0.020915
committe,0.010177
commonwealth,0.012253
commun,0.018608
compani,0.052432
compar,0.007016
competit,0.027983
competitor,0.029389
compil,0.012238
comprehens,0.010448
compromis,0.013638
concern,0.006659
conclud,0.029106
conclus,0.021139
conduct,0.008130
conflict,0.035341
connot,0.015679
consciou,0.014027
conselho,0.025896
consequ,0.008066
consid,0.005532
consist,0.006349
contain,0.006805
context,0.008345
continu,0.011496
contract,0.019032
contribut,0.020888
control,0.018908
cordi,0.023403
corpor,0.037230
cost,0.008340
council,0.112451
countri,0.031214
cover,0.007810
creat,0.005802
credibl,0.014764
critic,0.027912
cro,0.047331
crowdfund,0.045648
cs,0.014494
cure,0.029100
custom,0.009592
cut,0.010071
dana,0.019373
danish,0.015003
data,0.015142
databas,0.033295
dealt,0.014218
decis,0.007998
declin,0.009007
delic,0.018644
depart,0.008317
deriv,0.007213
desenvolvimento,0.025187
design,0.013935
determin,0.006588
develop,0.061678
devis,0.013014
dialog,0.037414
did,0.007042
differ,0.010058
difficult,0.008274
directori,0.031847
disburs,0.019919
disclos,0.082869
disclosur,0.051205
discov,0.016708
discover,0.017356
discoveri,0.008885
diseas,0.019874
dispos,0.014035
dissemin,0.014774
distinct,0.007306
doe,0.012837
doi,0.012559
doia,0.019873
doinejmsa,0.028007
dollar,0.022169
domest,0.009829
domin,0.015613
dure,0.005460
e,0.007687
ed,0.007995
edg,0.012460
editor,0.012158
editori,0.016280
educ,0.007276
effect,0.005548
efficaci,0.015692
effort,0.007909
eighteenth,0.014597
eisfeldreschk,0.028007
element,0.007263
elsevi,0.016038
endeavor,0.015057
engin,0.008231
england,0.009910
entiti,0.009690
entrepreneur,0.014384
environ,0.007571
equip,0.010211
especi,0.013264
essenti,0.007939
establish,0.006095
et,0.029453
eu,0.012435
europ,0.007744
european,0.021341
evalu,0.009896
eventu,0.008117
evid,0.023365
exampl,0.020460
exchang,0.008073
exert,0.013105
expect,0.031388
expenditur,0.012628
experi,0.007023
experiment,0.009540
explicit,0.012471
extern,0.008932
facil,0.021895
facilit,0.010296
faculti,0.013192
fallen,0.013877
fapr,0.028007
fat,0.015640
favor,0.018866
fc,0.019185
feder,0.054561
fedix,0.028007
fedrip,0.028007
field,0.012474
figur,0.008458
file,0.012748
final,0.007387
financ,0.027150
financi,0.073382
finnish,0.017600
fit,0.010398
flout,0.024601
fluctuat,0.012754
focu,0.008378
focus,0.007950
food,0.026369
foreshadow,0.018316
form,0.004668
formerli,0.011440
foster,0.026112
foundat,0.111496
framework,0.008750
french,0.008219
frequent,0.008585
friesik,0.028007
frontier,0.013462
fund,0.463145
fundament,0.007820
funddistribut,0.028007
fundicacom,0.028007
fusion,0.014235
futur,0.007438
gain,0.022290
gambl,0.016914
gather,0.010647
gdp,0.022972
gener,0.004388
gillett,0.023403
goe,0.010990
goodyear,0.024260
govern,0.092923
governmentfund,0.021234
governmentsponsor,0.041591
grant,0.168527
grante,0.047064
grantgophercom,0.028007
grantor,0.050816
grantscap,0.028007
grantsearch,0.028007
grantselect,0.056014
grantsgov,0.027551
great,0.006883
group,0.011018
guarante,0.011202
ha,0.020361
hard,0.050118
hardmoney,0.026169
health,0.025542
healthcar,0.014384
heavili,0.009846
heidelberg,0.018491
herb,0.035201
high,0.006184
higher,0.007260
histori,0.005086
howev,0.019826
human,0.005884
ibm,0.031411
iceland,0.031411
idea,0.013709
ihe,0.025408
illinoi,0.014949
imit,0.014448
impact,0.008369
impli,0.009494
import,0.005208
includ,0.016958
incomplet,0.013308
increas,0.011745
increasingli,0.009003
inde,0.010384
india,0.009350
individu,0.031497
industri,0.132448
inflow,0.016731
influenc,0.013453
info,0.019041
inform,0.042501
initi,0.006635
innov,0.052893
inovasi,0.028007
inquir,0.017991
inspir,0.020209
instanc,0.016542
institut,0.038775
intellectu,0.031432
interact,0.007620
intern,0.005351
internship,0.019452
interpret,0.008147
interv,0.012867
intervent,0.011081
introduc,0.007164
invent,0.009937
inventor,0.060449
invest,0.008695
investig,0.025673
investor,0.011635
involv,0.005920
iri,0.019614
israel,0.025014
issu,0.019660
job,0.021093
joint,0.010753
journal,0.054986
jrg,0.021234
just,0.007121
karsten,0.024981
key,0.007771
kingdom,0.008123
know,0.009253
knowledg,0.023043
known,0.010205
korea,0.012325
larg,0.005381
launch,0.010283
lengthi,0.015923
level,0.006105
librari,0.009592
like,0.005453
limit,0.006235
link,0.008879
list,0.017032
littl,0.007814
loan,0.011845
long,0.006629
look,0.008430
loreal,0.025896
lorealunesco,0.028007
loss,0.008930
lower,0.007544
m,0.007301
magazin,0.011820
mainstream,0.012390
maint,0.016327
maintain,0.007119
major,0.016249
make,0.010383
malaria,0.018259
malaysia,0.029836
man,0.009033
mani,0.018458
manufactur,0.009736
marin,0.011687
market,0.022927
martinson,0.025643
materi,0.007154
mathemat,0.008026
matter,0.007679
medic,0.028205
medicin,0.009734
meet,0.008260
mello,0.022932
member,0.013028
merg,0.012296
metaanalys,0.129517
metaanalysi,0.019573
method,0.006323
methodolog,0.021613
mexico,0.012737
michel,0.013995
militari,0.008259
million,0.008019
model,0.006359
money,0.072993
monopoli,0.013080
moon,0.013295
music,0.044882
nacion,0.016971
nasa,0.030828
nation,0.073543
natur,0.010900
ncura,0.028007
nearterm,0.021370
need,0.012274
netherland,0.011897
network,0.017070
neutral,0.011174
new,0.013681
nih,0.019964
nineteenth,0.012770
nonacadem,0.021512
noncommerci,0.020154
nonprofit,0.044173
nonrandom,0.020680
nsf,0.022719
nuclear,0.010432
number,0.005107
object,0.020937
observ,0.006738
obtain,0.015870
odlyzko,0.025896
oecd,0.015112
offic,0.016435
offici,0.007750
olestra,0.028007
ondisc,0.056014
onetim,0.019829
onli,0.018798
onlin,0.017871
open,0.020968
opinion,0.021702
opportun,0.028930
organ,0.027843
organis,0.028997
outcom,0.020875
outsid,0.007788
overal,0.009344
overcompetit,0.028007
ownership,0.011989
pace,0.013778
pandisciplinari,0.028007
particl,0.010974
particularli,0.007159
patent,0.027247
pay,0.009531
peer,0.014235
period,0.006066
person,0.006680
pg,0.058121
pharmaceut,0.013908
philanthropi,0.041360
philanthropist,0.040920
physic,0.013361
pivot,0.015213
place,0.005773
platform,0.012502
pmid,0.031464
polici,0.015110
poorli,0.013517
portal,0.044173
portug,0.013638
posit,0.024202
possibl,0.011942
potenti,0.030318
pour,0.015366
pp,0.009544
practic,0.006263
preliminari,0.015614
pressur,0.008812
primarili,0.008002
principl,0.007027
prior,0.008842
privat,0.067155
prize,0.010918
process,0.038741
procter,0.023044
product,0.012203
profession,0.037945
profit,0.010114
program,0.029457
programm,0.033758
progress,0.015958
proindustri,0.028007
project,0.036219
promis,0.011000
promot,0.016702
properti,0.021264
proport,0.019358
propos,0.014446
proprietari,0.017509
proquest,0.049203
provid,0.041554
public,0.053063
publicli,0.012528
publish,0.038987
quest,0.014744
question,0.007351
quickli,0.009529
radic,0.010732
ram,0.017443
random,0.022335
rare,0.009634
raw,0.012111
razor,0.018316
rct,0.151127
rd,0.020966
read,0.012897
reader,0.012660
receiv,0.021280
recent,0.012858
record,0.007826
recoup,0.020855
refer,0.014851
reflect,0.007979
regist,0.011513
regular,0.010171
regularli,0.012639
rel,0.006657
relat,0.005006
relationship,0.028349
remain,0.006140
rentalab,0.028007
replac,0.007566
report,0.028544
requir,0.005844
research,0.505967
researchcrossroad,0.028007
researcherss,0.028007
researchfund,0.028007
researchori,0.022149
resourc,0.015033
respect,0.014121
restrict,0.008605
result,0.046547
retriev,0.033092
return,0.007514
review,0.066554
revolut,0.009197
run,0.008159
s,0.015797
safeti,0.011967
sake,0.015512
sandpit,0.027150
saudi,0.030269
scarc,0.014218
scholarship,0.026552
scienc,0.124892
scientif,0.156900
scientist,0.042451
scival,0.028007
scope,0.010915
search,0.019006
second,0.006093
sector,0.048670
secur,0.015776
seek,0.008331
seldom,0.016858
selfsuffici,0.015601
serv,0.007390
servic,0.021702
serviceservic,0.026790
seventh,0.014981
share,0.014470
signific,0.006596
significantli,0.019058
similarli,0.009789
simpli,0.008431
simul,0.011227
sinc,0.005167
singapor,0.013616
small,0.006323
smaller,0.008786
social,0.013146
societi,0.006474
soft,0.026385
softmoney,0.056014
sometim,0.006726
somewhat,0.010954
sound,0.010879
sourc,0.032498
south,0.024276
special,0.006462
specif,0.006182
spend,0.064355
spent,0.011421
spin,0.014331
sponsor,0.064772
sponsorship,0.037543
springer,0.012507
standard,0.006959
startup,0.017965
state,0.013563
statist,0.008477
steadi,0.013243
store,0.010468
strategi,0.019251
studi,0.070991
substanti,0.009592
substitut,0.011482
success,0.013705
superconduct,0.018017
support,0.024575
survey,0.009932
swiss,0.014744
sword,0.016933
systemat,0.039489
systematis,0.021978
talent,0.015271
target,0.009621
technic,0.018380
techniqu,0.007940
technolog,0.081952
tecnolgico,0.025408
teke,0.025896
temperatur,0.010446
term,0.019530
theoret,0.008472
thi,0.015459
thu,0.006040
tie,0.040316
time,0.009143
total,0.007209
train,0.008922
transpar,0.013224
tri,0.008133
trial,0.058955
turn,0.007143
twenti,0.012709
twentieth,0.012191
typic,0.006932
uganda,0.017814
uk,0.009471
ukbas,0.022719
ulrich,0.039838
unconsci,0.015450
uncst,0.028007
underli,0.019626
understand,0.007014
unfett,0.020855
unintent,0.018231
unionss,0.056014
unit,0.015635
univers,0.032111
usa,0.011536
usbas,0.019532
use,0.038000
usual,0.012436
varieti,0.007758
vastli,0.016157
ventur,0.013609
versu,0.012061
view,0.006622
wa,0.025421
want,0.028620
way,0.005525
websit,0.019542
weight,0.010415
wenzlaff,0.028007
wherea,0.017933
whilst,0.013348
wide,0.006655
widespread,0.009927
wilkinson,0.018612
withhold,0.017742
women,0.009834
work,0.025328
worker,0.009619
world,0.005238
worldwid,0.010483
write,0.016158
year,0.015644
yield,0.010094
young,0.009594
