abbrevi,0.014036
abil,0.007929
abov,0.007378
academ,0.008631
accept,0.007235
access,0.015947
accommod,0.013382
achiev,0.036249
action,0.007081
activ,0.034502
actual,0.007375
actuv,0.030317
ad,0.014709
adher,0.011657
administr,0.016115
advanc,0.007117
aerospac,0.016560
agre,0.008688
agreement,0.017593
aim,0.008229
aircraft,0.025599
allow,0.017192
alter,0.010337
altern,0.007405
american,0.006529
analyst,0.013078
ani,0.005079
anomali,0.015737
anoth,0.011085
appli,0.006160
applic,0.034412
appropri,0.009237
approx,0.018684
approxim,0.007853
architectur,0.032610
area,0.011447
aris,0.009401
assum,0.007983
asw,0.025162
automat,0.011764
autonom,0.011653
avail,0.345187
avoid,0.043039
away,0.008778
backup,0.040811
balanc,0.009120
bank,0.008334
base,0.010043
becaus,0.010461
becom,0.011125
best,0.015317
better,0.007836
billion,0.009870
birman,0.026288
bit,0.014132
blackout,0.020644
boat,0.027705
breach,0.015723
brief,0.011013
brought,0.008565
brownout,0.026288
build,0.007353
busi,0.007833
bypass,0.016115
c,0.019951
calcul,0.035469
capac,0.009647
card,0.013223
care,0.008743
case,0.011638
casual,0.017628
caus,0.012423
ceil,0.017248
center,0.022269
certain,0.012739
cf,0.015694
chang,0.005247
characterist,0.008021
cisco,0.022611
claim,0.014129
class,0.023158
clfloor,0.030317
close,0.012455
collect,0.006789
combat,0.012217
combin,0.013274
common,0.011256
commun,0.024345
compar,0.006884
complex,0.040867
compon,0.088178
comprehens,0.020505
compromis,0.013382
comput,0.061704
concept,0.012991
configur,0.012859
connect,0.015327
consid,0.005428
consist,0.012460
continu,0.039481
control,0.012369
convent,0.009013
correctli,0.013375
correspond,0.008450
cost,0.016368
cpu,0.018861
creat,0.011387
credit,0.018016
criteria,0.011657
critic,0.006847
crossov,0.056157
current,0.005959
cycl,0.009542
daili,0.010887
data,0.059431
databas,0.010890
day,0.014048
declin,0.026514
deem,0.012597
defens,0.010217
definit,0.007360
degre,0.015246
deliv,0.010972
demand,0.008310
dept,0.019329
deriv,0.007077
describ,0.005729
design,0.075209
despit,0.007893
destin,0.013027
destroy,0.009734
detect,0.030667
determin,0.012928
devast,0.013216
differ,0.004934
difficult,0.008118
digit,0.010394
disast,0.012859
discuss,0.022786
disk,0.015990
displaystyl,0.042652
disrupt,0.011995
distinct,0.014338
document,0.008987
doe,0.018895
downtim,0.553571
drive,0.010001
dure,0.016075
earli,0.005605
easier,0.011999
eclips,0.015019
effect,0.005444
effort,0.007761
electr,0.018533
elimin,0.019383
end,0.006127
engin,0.040382
ensur,0.009207
enterpris,0.031646
entir,0.036346
environ,0.007428
environment,0.009009
error,0.021313
estim,0.015772
etr,0.025162
evalu,0.038842
evan,0.015666
event,0.051052
everybodi,0.017679
exampl,0.045172
exce,0.029276
excess,0.010830
exclud,0.010542
exhibit,0.010579
exist,0.005572
experi,0.006891
experienc,0.010061
expert,0.011069
express,0.014522
extern,0.008764
facil,0.010742
factor,0.035529
fail,0.033704
failov,0.029354
failur,0.234024
faith,0.011203
fault,0.060217
faulti,0.018000
faulttoler,0.022292
flight,0.012277
flood,0.013230
floor,0.013632
focu,0.008221
follow,0.019175
formal,0.007498
formul,0.009596
formula,0.020930
forth,0.012182
fulli,0.009034
function,0.030677
game,0.010283
gcv,0.028607
gener,0.017224
given,0.018031
global,0.015916
gone,0.013298
good,0.006662
ground,0.008720
ha,0.019979
hal,0.018935
half,0.008249
handl,0.010897
hard,0.019671
hardwar,0.070097
help,0.006560
high,0.109225
higher,0.014248
highli,0.015778
holist,0.015397
home,0.008557
homepag,0.017730
hospit,0.011817
hour,0.031592
howev,0.004863
human,0.011547
ibm,0.015410
ideal,0.009751
illus,0.014796
impact,0.016425
implement,0.016686
import,0.010222
imposs,0.010132
includ,0.016640
incorpor,0.008229
incorrect,0.014268
increas,0.005762
index,0.009520
indic,0.014744
infinit,0.011734
inform,0.011915
infrastructur,0.010146
inher,0.022968
instal,0.011826
instrument,0.027682
intern,0.010502
internet,0.009830
interpret,0.015989
interrupt,0.029812
intervent,0.010873
introduc,0.007029
involv,0.017428
io,0.018294
item,0.043971
joseph,0.009875
kept,0.010797
kind,0.031929
known,0.005007
lack,0.007639
larg,0.015840
lectur,0.010893
leipzig,0.017730
level,0.029955
lifetim,0.012829
like,0.005351
limit,0.012237
link,0.013069
littl,0.007667
load,0.013748
locat,0.007366
log,0.056146
logic,0.029089
long,0.006504
loss,0.017525
lost,0.017412
lull,0.021330
magnitud,0.012360
mainfram,0.019728
mainten,0.048073
malfunct,0.018616
manag,0.014349
managementiniti,0.030317
mani,0.004528
marcu,0.015839
maritim,0.012895
market,0.007498
massiv,0.010659
match,0.010653
matter,0.007535
mean,0.044137
measur,0.045931
method,0.006204
metric,0.040361
middlewar,0.045450
mission,0.009988
mode,0.011278
model,0.049922
modern,0.006008
monitor,0.032501
monthli,0.027310
mtbf,0.029354
mttr,0.029354
multipl,0.015410
multipurpos,0.021733
n,0.035986
need,0.006022
network,0.075375
new,0.004474
night,0.024575
nonleap,0.057215
normal,0.007985
note,0.011551
number,0.030069
nx,0.021649
object,0.013696
observ,0.006611
obtain,0.007786
occur,0.019094
occurr,0.012957
offic,0.008063
onli,0.018445
onlin,0.017536
open,0.006858
openclovi,0.030317
oper,0.050559
oppos,0.008371
option,0.010453
order,0.022082
organ,0.005464
os,0.018294
outag,0.109103
outcom,0.010241
overal,0.009168
overtemperatur,0.030317
paper,0.008265
paradox,0.012811
partial,0.009215
particular,0.018811
passiv,0.027608
patch,0.065459
peak,0.010992
percentag,0.066980
perform,0.056340
period,0.041666
perspect,0.035857
phenomen,0.017409
physic,0.032775
plan,0.015173
point,0.034866
posit,0.005937
possibl,0.017577
potenti,0.007437
power,0.017636
practic,0.012292
presum,0.012823
previou,0.008662
price,0.008504
primari,0.007582
principl,0.013791
probabl,0.008242
problem,0.006143
process,0.016291
procur,0.015868
product,0.005987
propel,0.032199
provid,0.005096
puriti,0.016263
qualiti,0.008559
question,0.007213
quot,0.012018
ram,0.017116
rank,0.009698
rare,0.009453
rate,0.007118
reason,0.026154
reboot,0.045004
reconfigur,0.042218
record,0.007679
recov,0.011214
recoveri,0.072771
redund,0.273967
refer,0.025502
reflect,0.007829
relat,0.019648
relev,0.009529
reliabl,0.098044
relianc,0.014607
remov,0.008411
repair,0.012970
replac,0.007424
report,0.014004
repres,0.005976
requir,0.068823
resili,0.016709
restor,0.010303
result,0.025374
revenu,0.010628
rout,0.010968
routin,0.013078
rto,0.022502
s,0.010334
safplu,0.030317
satellit,0.012711
schedul,0.108981
scheme,0.010965
scienc,0.006127
secondari,0.010374
secur,0.007740
seen,0.007148
select,0.007922
separ,0.019968
server,0.034451
servic,0.085179
serviceprocess,0.030317
serviceprocessetc,0.030317
sever,0.005285
shutdown,0.021566
signific,0.006472
significantli,0.009350
similar,0.006054
similarli,0.019211
simpl,0.008056
simplest,0.012932
simpli,0.008273
simul,0.033051
simultan,0.010625
sinc,0.005070
singl,0.040713
site,0.008540
sla,0.022395
softwar,0.053712
solut,0.017349
sometim,0.013201
sourc,0.006377
specialist,0.012580
specialti,0.014399
specif,0.006066
specifi,0.010308
stern,0.017316
storag,0.024131
stress,0.041590
subject,0.006450
submit,0.012699
substanc,0.010659
suffer,0.009254
support,0.006028
surg,0.015652
survey,0.009746
switch,0.012449
synonym,0.025308
tabl,0.019516
tbingen,0.022095
technic,0.009017
telecom,0.018549
telephon,0.013860
tend,0.008326
term,0.009582
themselv,0.022562
theoret,0.008313
theori,0.005943
thi,0.049302
time,0.062806
toler,0.025658
tool,0.016237
total,0.014149
tradit,0.006384
trail,0.016634
transact,0.021834
translat,0.008729
transmiss,0.012525
true,0.024628
truli,0.012705
twice,0.012085
type,0.006096
typic,0.013604
unavail,0.298415
undermin,0.013439
univers,0.010502
unless,0.011362
unman,0.038828
unnot,0.019545
unplan,0.021566
unschedul,0.097285
updat,0.012282
upgrad,0.058227
uptim,0.167987
usag,0.010634
use,0.074574
user,0.123730
usual,0.024406
vari,0.007474
variou,0.011544
vehicl,0.023025
vessel,0.024688
view,0.012997
volum,0.008685
vote,0.019230
warn,0.012192
wherea,0.008798
whi,0.009329
white,0.009626
work,0.029824
x,0.035910
xrfloor,0.030317
year,0.020468
zero,0.031989
