ab,0.020273
abel,0.008492
abelian,0.299209
abov,0.003453
abstract,0.009493
abund,0.005470
acolor,0.028380
act,0.003082
actual,0.006904
acycl,0.009421
ad,0.003442
admit,0.005688
advanc,0.003331
afford,0.005792
alain,0.008534
alexand,0.015504
algebra,0.283835
altern,0.003466
alway,0.003627
analysi,0.003251
ani,0.016640
anoth,0.002594
aoverset,0.014190
appear,0.006248
appendix,0.008335
appli,0.002883
applic,0.006442
approach,0.009313
approxim,0.003675
arb,0.022284
arightarrow,0.022598
aris,0.013201
arriv,0.004342
arrow,0.006925
ask,0.004459
aspect,0.003545
associ,0.010540
attempt,0.009230
attent,0.004398
author,0.006074
automat,0.005506
avail,0.003297
axrightarrow,0.013390
b,0.103612
barri,0.007141
basi,0.003359
basic,0.013088
bcolor,0.028380
becam,0.002972
befor,0.002777
began,0.003247
berlin,0.023170
bfa,0.012469
bidegre,0.014190
binari,0.012990
bn,0.008104
bnsubseteq,0.014190
book,0.003091
boundari,0.018162
boverset,0.014190
branch,0.006917
brightarrow,0.011568
buchsbaum,0.013390
c,0.087156
ca,0.011965
calcul,0.016601
calgebra,0.011473
cambridg,0.008628
canon,0.005914
cartan,0.010869
cartaneilenberg,0.028380
case,0.021789
categor,0.005537
categori,0.174573
cbullet,0.099332
ccong,0.014190
cdot,0.030293
celebr,0.011228
central,0.006107
centuri,0.002797
certain,0.011926
cf,0.014692
cg,0.018512
chain,0.111934
chang,0.002455
charl,0.004172
chess,0.007961
chiefli,0.007062
choic,0.008560
choos,0.004686
chosen,0.004977
class,0.003613
classic,0.007198
clearer,0.008862
close,0.005829
cn,0.032910
cna,0.011893
cnk,0.013739
cnstackrel,0.042570
cnx,0.013390
cohomolog,0.082040
coincid,0.011720
coker,0.096150
cokernel,0.048620
collect,0.003177
combin,0.006213
combinatori,0.007675
common,0.010537
commut,0.043425
compat,0.006250
complex,0.117958
composit,0.022583
comput,0.021660
concept,0.006080
concret,0.011937
conn,0.010056
connect,0.017935
consecut,0.014732
consid,0.005081
consider,0.003661
consist,0.005832
construct,0.016869
contain,0.006251
context,0.003832
continu,0.013199
contravari,0.010869
conveni,0.005817
coproduct,0.010434
correctli,0.006260
correspond,0.003955
cours,0.003797
covari,0.008001
coverset,0.014190
cycl,0.004466
cyclic,0.006767
d,0.045853
dalgbr,0.013104
data,0.003477
date,0.003641
david,0.007740
dbullet,0.028380
decreas,0.004290
defin,0.020930
definit,0.013780
delta,0.006240
denot,0.010632
deriv,0.039753
descript,0.007965
desir,0.004100
determin,0.003025
develop,0.002179
diagon,0.008148
diagram,0.011987
differ,0.004619
differenti,0.052940
direct,0.005786
disciplin,0.008029
displaystyl,0.169692
divers,0.004190
dlongrightarrow,0.014190
dn,0.064334
dnc,0.012653
dncirc,0.014190
dnd,0.012863
dnlongrightarrow,0.042570
dnoperatornam,0.014190
doe,0.005896
dot,0.028163
doubli,0.010132
dr,0.021622
draw,0.004466
dualli,0.011669
e,0.007061
edit,0.020527
effect,0.002548
eilenberg,0.011473
element,0.003336
embed,0.006100
emerg,0.003361
encyclopaedia,0.016573
end,0.002868
endomorph,0.010999
endow,0.006644
english,0.003653
enorm,0.005649
entail,0.006121
epimorph,0.060775
equal,0.003572
equat,0.004362
er,0.041433
erpq,0.014190
essenti,0.007292
everi,0.006564
exact,0.170143
exampl,0.025841
excel,0.005674
exclud,0.009869
exist,0.005216
expand,0.003710
explan,0.004617
ext,0.108169
extend,0.003459
extra,0.012015
extract,0.010098
f,0.135236
fa,0.024933
fact,0.003330
factor,0.003325
famili,0.003632
far,0.003556
fb,0.020684
fbxrightarrow,0.014190
fc,0.017622
fcbullet,0.014190
fcdot,0.011218
fgxrightarrow,0.028380
fhookrightarrow,0.014190
field,0.005729
finit,0.005424
fix,0.020817
fk,0.010132
fkmathrm,0.014190
flbullet,0.014190
flongrightarrow,0.014190
fn,0.037025
fncn,0.013390
fngn,0.013390
fnlongrightarrow,0.014190
follow,0.013462
forc,0.002811
form,0.008576
formal,0.007019
foundat,0.003657
fr,0.006925
free,0.003203
functor,0.268895
functori,0.063269
fundament,0.003591
furthermor,0.004806
g,0.064508
gahomrab,0.014190
galoi,0.009212
gcxrightarrow,0.014190
gelfand,0.022946
gener,0.018139
geometr,0.005768
geometri,0.028603
given,0.016879
glongrightarrow,0.014190
gmbullet,0.014190
gn,0.019630
gnlongrightarrow,0.014190
grade,0.006542
gradual,0.004509
graduat,0.005256
graph,0.006240
graylongrightarrow,0.056761
grothendieck,0.042128
group,0.086026
gtwoheadrightarrow,0.014190
gxrightarrow,0.013390
h,0.046757
ha,0.014962
hbullet,0.042570
henri,0.009041
henrik,0.009086
higher,0.003334
hilbert,0.007528
hilton,0.010172
histori,0.004672
hnc,0.023786
hncznbnoperatornam,0.014190
hnd,0.012863
hnf,0.012653
hnflongrightarrow,0.028380
hnglongrightarrow,0.014190
hnlstackrel,0.028380
hnmlongrightarrow,0.014190
hnmstackrel,0.014190
hnnstackrel,0.014190
hom,0.091786
homolog,0.397058
homologiqu,0.013104
homomorph,0.115954
homotop,0.012155
homrab,0.042570
horizont,0.006468
illpos,0.011669
illustr,0.004783
im,0.044482
imag,0.008638
imagin,0.005607
imf,0.006142
impli,0.004360
import,0.004784
includ,0.007788
increas,0.002697
independ,0.008642
index,0.008911
indic,0.003450
induc,0.022217
inevit,0.006179
infinit,0.005492
influenc,0.003089
inform,0.008365
inject,0.020776
instanc,0.003798
integ,0.013453
intertwin,0.007866
intric,0.007803
introduct,0.003718
invari,0.012404
investig,0.007860
involv,0.002719
irightarrow,0.026209
isbn,0.019895
isomorph,0.048759
iv,0.006088
j,0.003522
journal,0.003607
just,0.006541
k,0.021262
ker,0.163370
kernel,0.049024
knight,0.014049
know,0.004249
known,0.002343
ktheori,0.011142
l,0.037154
landmark,0.006602
lane,0.007171
languag,0.003524
larg,0.002471
lattic,0.006992
lbullet,0.028380
ldot,0.019566
led,0.003026
left,0.022428
lemma,0.040687
let,0.021017
level,0.005608
lie,0.004594
like,0.007514
linear,0.019957
list,0.002607
lnstackrel,0.014190
lnt,0.014190
long,0.015223
longrightarrow,0.060775
lot,0.005775
m,0.033536
mac,0.008159
major,0.002487
make,0.009537
mani,0.004238
manifest,0.005394
manifold,0.007346
manin,0.022437
manipul,0.005020
map,0.064344
math,0.014537
mathemat,0.044234
mathrm,0.014954
mayervietori,0.013390
mbullet,0.042570
mean,0.005164
measur,0.003071
method,0.005808
mind,0.004421
mitchel,0.007857
mnstackrel,0.014190
modern,0.005625
modr,0.107121
modul,0.063314
monograph,0.007319
monomorph,0.056918
moreov,0.005379
morphism,0.106942
motiv,0.004580
mr,0.006303
multipl,0.007212
n,0.235811
natur,0.012516
nboundari,0.014190
nbullet,0.042570
nchain,0.014190
ncycl,0.014190
necessari,0.003736
need,0.002818
new,0.002094
nice,0.008506
niel,0.008001
nj,0.006880
nlongrightarrow,0.013390
nnlongrightarrow,0.014190
noncanon,0.010434
noncommut,0.019048
nonneg,0.008761
nonsens,0.008083
normal,0.007474
northwest,0.006413
notat,0.006300
note,0.010813
notion,0.017744
nrablnta,0.014190
nsimplex,0.013390
nsimplic,0.014190
nth,0.028264
number,0.007037
numer,0.003473
o,0.009889
object,0.057696
oclc,0.006753
onli,0.004316
oper,0.002958
operatornam,0.080242
origin,0.015591
p,0.053690
page,0.004596
paper,0.011606
par,0.007195
partial,0.004313
perform,0.003296
peter,0.004275
philosoph,0.004115
phrase,0.005649
physic,0.003068
pick,0.006103
placement,0.007359
play,0.010156
poincar,0.007777
point,0.005439
potim,0.042570
power,0.002751
pp,0.021917
precursor,0.005857
present,0.016130
preserv,0.004531
press,0.006329
prightarrow,0.057841
princeton,0.017808
proceed,0.004920
product,0.002802
project,0.013307
properti,0.022788
prototyp,0.006935
provid,0.004771
pure,0.004251
q,0.030109
quad,0.008970
quasiisomorph,0.014190
quelqu,0.011568
question,0.003376
quit,0.004544
quotient,0.008713
r,0.122331
rairightarrow,0.028380
rang,0.003227
rbrightarrow,0.042570
readili,0.005834
refer,0.001705
reflect,0.003664
regular,0.004671
rel,0.006114
relat,0.009196
remov,0.003937
repres,0.002797
represent,0.004301
reprint,0.019673
resolut,0.026082
respect,0.006485
restrict,0.003952
result,0.004750
rf,0.008970
rfa,0.024037
rfb,0.028380
rfc,0.010255
rif,0.010807
right,0.030600
rightarrow,0.059902
ring,0.034652
rise,0.006862
rmod,0.027479
rmodul,0.049877
rnabrnga,0.014190
rnabrntb,0.014190
rng,0.011568
rnga,0.014190
rnt,0.012018
rntb,0.014190
role,0.008961
row,0.013188
rpbrightarrow,0.028380
run,0.003747
russian,0.009984
s,0.007255
samuel,0.006062
satisfi,0.010117
saunder,0.008286
sci,0.009256
scienc,0.002868
second,0.008396
sens,0.010526
sequenc,0.198829
sergei,0.017904
seri,0.006794
set,0.013207
settl,0.004846
sever,0.012370
sheaf,0.010482
sheav,0.022598
sheet,0.030837
short,0.021815
similar,0.005667
simplici,0.054998
simultan,0.009946
sinc,0.007119
singular,0.018761
situat,0.003653
sledgehamm,0.013390
small,0.002904
snake,0.015071
sometim,0.006178
southeast,0.005809
space,0.062202
span,0.005482
speak,0.004550
spectral,0.058302
sphere,0.005310
springer,0.011488
springerverlag,0.029491
stabil,0.004425
stabl,0.004670
stackrel,0.022767
stammbach,0.014190
standard,0.006392
state,0.006229
strictli,0.005596
structur,0.016636
studi,0.025080
subgroup,0.014939
subject,0.009057
subobject,0.013104
suppos,0.010429
sur,0.007619
surject,0.010342
syzygi,0.011383
t,0.016516
ta,0.008262
tangibl,0.007667
tb,0.009722
teach,0.004649
technic,0.004220
techniqu,0.003647
tensor,0.007612
tent,0.007281
term,0.008970
text,0.004093
th,0.002721
theorem,0.015960
theori,0.041726
therefor,0.003225
thesi,0.005873
thi,0.037277
thoku,0.011568
thu,0.008322
tohoku,0.034704
tool,0.015200
topic,0.003765
topolog,0.117543
tor,0.039133
torsor,0.013390
trace,0.004550
track,0.005250
translat,0.008171
tremend,0.006895
tri,0.003735
triangul,0.009212
tripl,0.013076
trivial,0.007084
turn,0.006561
type,0.002853
typic,0.006367
u,0.005537
ubiquit,0.007484
unifi,0.004967
uniform,0.005502
univers,0.004915
unthink,0.010056
use,0.015513
v,0.004231
valuabl,0.005571
variou,0.002701
vector,0.028697
verdier,0.023786
veri,0.010841
vertic,0.006139
visual,0.005007
wa,0.003891
wasnt,0.007866
way,0.005075
weibel,0.011473
whenev,0.006678
written,0.007514
x,0.084040
xii,0.008562
xrightarrow,0.021167
xvi,0.008386
xx,0.008591
y,0.035377
yield,0.009272
york,0.003655
young,0.004406
yuri,0.016930
z,0.028950
zero,0.039927
zerodimension,0.011383
zigzag,0.010387
zn,0.009662
znsubseteq,0.014190
