abdomin,0.025037
abdominal,0.039217
abstract,0.013901
abund,0.016021
acanthopterygii,0.039217
accord,0.015799
accur,0.013459
actual,0.010111
ad,0.020164
addit,0.023977
advanc,0.029272
advent,0.017277
adventur,0.019819
agassiz,0.060581
age,0.009893
agnatha,0.036521
albert,0.016056
albertu,0.027521
alexandr,0.024306
alter,0.028342
ambigu,0.018563
ambiti,0.020449
america,0.022143
amphibi,0.027045
amsterdam,0.040190
anatom,0.042146
ancient,0.011446
anoth,0.022795
apod,0.039217
apostl,0.024913
appendag,0.053228
approach,0.018184
approxim,0.010766
aristotl,0.032572
arrang,0.012879
artedi,0.259430
articl,0.009389
artist,0.016580
assembl,0.012333
associ,0.007717
assort,0.024414
attempt,0.009011
audubon,0.032420
author,0.017790
avail,0.019314
barbu,0.037674
barton,0.053588
base,0.006883
bc,0.056374
becam,0.008707
behavior,0.011174
belon,0.033881
berlin,0.016965
binomi,0.022248
biolog,0.022595
bloch,0.026113
bond,0.027212
boni,0.026008
book,0.009053
botanist,0.022627
branch,0.010130
branchiostegi,0.039217
brasila,0.039217
brazilian,0.021962
brian,0.019484
british,0.010636
cabinet,0.032054
came,0.010431
canal,0.018923
carl,0.031857
cartilagin,0.029913
catalogu,0.021754
centr,0.013118
centuri,0.032770
cephalu,0.037674
charl,0.024438
chondrichthy,0.035201
chondropterygii,0.039217
cichlid,0.031314
classif,0.042234
close,0.008537
cloth,0.016680
coad,0.037061
coastlin,0.019846
collabor,0.014656
colleagu,0.017246
collect,0.009307
colleg,0.013850
colon,0.016929
commenc,0.019301
comparison,0.013380
compil,0.016462
compos,0.024212
comprehens,0.014055
concept,0.008905
consequ,0.010850
consid,0.007441
consolid,0.016755
constantin,0.023094
consumpt,0.014883
contain,0.036618
contemporari,0.024963
continu,0.007731
contribut,0.018732
cosmopolitan,0.025163
count,0.014553
criteria,0.015980
culmin,0.033816
cultur,0.019189
cuvier,0.082565
cyprinid,0.038381
d,0.010330
darwin,0.017858
date,0.010665
david,0.011335
dawn,0.020195
death,0.022352
degre,0.010450
describ,0.039272
descript,0.023329
desir,0.012009
despit,0.010820
develop,0.025528
devot,0.030167
dictionari,0.015471
differ,0.006764
discov,0.022475
discoveri,0.011951
divers,0.012273
document,0.061600
drown,0.025428
dwell,0.022578
e,0.010340
earli,0.007684
earliest,0.025683
earn,0.014440
edit,0.012024
elder,0.018879
elies,0.037674
emin,0.021857
emphas,0.013483
epoch,0.043882
equip,0.013735
era,0.024277
establish,0.008199
european,0.019138
evolutionari,0.015136
exampl,0.006880
exploit,0.014301
explor,0.023411
express,0.009954
extens,0.010374
extern,0.006007
famili,0.010638
father,0.027014
faunal,0.027817
featur,0.020780
feed,0.017636
fell,0.014838
figur,0.011377
fin,0.048974
fish,0.559026
fishbas,0.076762
follow,0.006571
forbad,0.024995
formal,0.010280
fossil,0.017806
foundat,0.010712
founder,0.014399
franci,0.015732
freshwat,0.021713
froes,0.035600
furthermor,0.042234
galile,0.028301
gather,0.014321
gener,0.005903
genera,0.024270
genu,0.020750
georg,0.023680
gnther,0.031314
great,0.009259
greek,0.023266
ground,0.011954
guid,0.011615
guillaum,0.026614
ha,0.005477
harvard,0.016050
harvest,0.018211
hi,0.088392
high,0.008318
hippolito,0.039217
histoir,0.024676
histori,0.006842
historia,0.047167
howev,0.013334
human,0.007914
hunter,0.020816
ichthyolog,0.480569
ichthyologia,0.078435
ichthyologist,0.233388
identifi,0.019861
ikhthu,0.039217
implement,0.011437
includ,0.022811
incorpor,0.011281
increment,0.020750
indiana,0.020750
indigen,0.032759
indispens,0.022933
individu,0.016947
industri,0.009376
influenti,0.026425
inform,0.032669
insight,0.015238
intellectu,0.014093
interconnect,0.019860
introduc,0.009636
investig,0.011511
invit,0.016929
isbn,0.029134
jame,0.011586
jawless,0.035201
john,0.018688
jordan,0.020701
joseph,0.013537
journal,0.010566
judeochristian,0.026918
jugular,0.065715
julet,0.039217
kashrut,0.032857
ki,0.027311
kinneret,0.039217
knowledg,0.020664
known,0.013727
lack,0.010472
lake,0.032400
larg,0.007238
law,0.008274
lawrenc,0.018374
learn,0.023075
lesueur,0.037674
line,0.009829
link,0.005971
linnaeu,0.096664
linnaeuss,0.031314
list,0.015273
literatur,0.012270
logo,0.021382
loui,0.015497
major,0.014572
make,0.006983
malacopterygii,0.039217
mammal,0.017386
manifest,0.015799
manuscript,0.055907
marcgrav,0.039217
marcu,0.021713
marin,0.015721
marini,0.035600
mark,0.011026
measur,0.008995
mediterranean,0.017964
meet,0.011111
member,0.008762
mention,0.013295
merist,0.039217
mermaid,0.030701
method,0.008505
michael,0.025277
mirogrex,0.039217
ml,0.025250
modern,0.049424
modernli,0.035600
monument,0.019662
mugil,0.039217
mugilida,0.039217
museum,0.033120
natur,0.007331
naturali,0.024270
naturalist,0.018708
naturel,0.028746
navig,0.034297
nelson,0.020750
new,0.018403
newli,0.014448
nineteenth,0.017178
nomenclatur,0.019497
north,0.010904
notabl,0.031613
number,0.006870
obtain,0.021348
octob,0.011875
offici,0.010426
ohiensi,0.039217
old,0.011363
omnia,0.033341
opera,0.023614
order,0.022703
organ,0.014981
origin,0.007610
osteichthy,0.036037
paleoichthyolog,0.039217
paleolith,0.022727
palomar,0.033881
pari,0.015017
pauli,0.024754
peculiar,0.021382
pelvic,0.055635
perceiv,0.013810
permit,0.013987
person,0.017972
peter,0.025045
pharmacist,0.027380
phylogenet,0.021713
pierr,0.017678
piscibu,0.078435
piscium,0.075348
place,0.015533
plagiuri,0.039217
plini,0.045205
poisson,0.049049
popular,0.009825
posthum,0.022434
present,0.007874
presid,0.011388
principl,0.009453
professor,0.028148
promin,0.024697
properti,0.009534
prosper,0.016279
provid,0.013974
provision,0.019955
public,0.007930
publish,0.034963
pupil,0.020542
r,0.010537
rafinesqu,0.074122
ray,0.017059
reason,0.008963
receiv,0.009541
recit,0.022803
recogn,0.010709
refer,0.014982
refin,0.031334
regard,0.009581
region,0.008943
relationship,0.009533
remain,0.008260
remark,0.015318
renaiss,0.066058
repres,0.008192
reput,0.017378
research,0.016204
resourc,0.010111
respect,0.018996
revis,0.014924
revolut,0.012372
river,0.013654
roman,0.026793
rondelet,0.065268
s,0.014166
saint,0.016700
salviani,0.039217
samuel,0.017754
sarotherodon,0.039217
saunder,0.024270
sawfish,0.037674
saxoni,0.026555
scale,0.011304
scholar,0.012683
scienc,0.041999
scientif,0.040200
sea,0.012743
seba,0.078435
seri,0.009949
serv,0.009941
sever,0.007246
shipbuild,0.024524
signifi,0.020152
signific,0.026618
similar,0.008300
sive,0.028386
sixteenth,0.021941
sold,0.014678
speci,0.115051
special,0.008693
specul,0.014461
standard,0.009361
stanford,0.016145
starr,0.030560
state,0.006081
stergiou,0.039217
student,0.011830
studi,0.051419
subject,0.008842
summar,0.017703
switzerland,0.017814
systemat,0.013279
taught,0.015497
taxon,0.027521
taxonom,0.067661
taxonomi,0.059991
teach,0.013616
term,0.013136
testament,0.021774
themselv,0.010310
theologian,0.020558
theophrastu,0.024450
theori,0.008147
therefor,0.009447
thi,0.046790
thorac,0.027973
thoracici,0.039217
thth,0.023204
time,0.006149
titl,0.012476
today,0.009985
tradit,0.008752
travel,0.012273
treatis,0.033537
treatment,0.012786
unfortun,0.020038
unit,0.007010
univers,0.028796
upper,0.014036
uppsala,0.028216
use,0.028397
util,0.012574
variou,0.007912
verifi,0.017570
volum,0.011906
wa,0.045593
web,0.015069
wiley,0.017008
willughbi,0.036521
work,0.020442
world,0.014093
write,0.010867
wrote,0.035527
year,0.007014
zoolog,0.020986
