academi,0.005526
access,0.003969
accord,0.005737
account,0.010136
accumul,0.005503
accuraci,0.006221
achiev,0.007217
acm,0.033786
activ,0.002862
aeronaut,0.009031
aim,0.004096
aimtwx,0.013680
aka,0.007819
al,0.004920
algebra,0.006160
algorithm,0.017253
alleg,0.005931
allen,0.013246
alloc,0.005724
allow,0.005705
alon,0.004905
alpha,0.019921
altern,0.007372
alvin,0.008852
american,0.003250
amherst,0.009774
amsterdam,0.007296
analog,0.005126
analysi,0.024206
analyt,0.005230
ani,0.010113
anomal,0.008725
anoth,0.005518
anselm,0.009482
appear,0.009968
appli,0.006133
applic,0.006852
arbitrari,0.006194
area,0.002849
articl,0.003409
articul,0.020785
ask,0.004742
assess,0.004886
associ,0.005604
assum,0.011922
assumpt,0.009775
athena,0.010438
atlant,0.006079
attach,0.005431
audio,0.007529
author,0.003229
autoencod,0.012525
autom,0.019258
automat,0.017568
avail,0.003506
avep,0.109440
avepq,0.013680
averag,0.064273
award,0.015172
axi,0.006579
b,0.003799
backdrop,0.009318
bagley,0.012106
balanc,0.004540
base,0.014997
basi,0.007146
batchretriev,0.013680
bay,0.006478
bc,0.005117
becam,0.003161
becaus,0.002603
becker,0.018093
becom,0.002769
befor,0.005908
began,0.006908
begin,0.003372
believ,0.003577
belkin,0.013085
benchmark,0.007869
bernersle,0.011255
best,0.007624
beta,0.035375
better,0.003900
binari,0.027631
binorm,0.013261
blair,0.009300
bm,0.010656
book,0.006575
boolean,0.034854
boost,0.006782
bpref,0.013680
branch,0.003678
british,0.007724
brook,0.007614
bttcher,0.013261
bureau,0.006542
bush,0.021404
butterworth,0.010543
c,0.059588
cacm,0.011849
calcul,0.008828
calvin,0.008631
cambridg,0.018353
came,0.003787
captur,0.004756
card,0.019747
cardbas,0.013261
cardin,0.007595
case,0.008690
catalog,0.007929
catalyz,0.008356
categor,0.005889
cdot,0.040271
cell,0.004982
censu,0.006793
center,0.007390
centr,0.004763
cern,0.008946
challeng,0.004138
chalmer,0.009482
chang,0.002611
characterist,0.003993
charl,0.004437
chart,0.006599
chemic,0.004411
chicago,0.005646
choos,0.004983
christoph,0.006071
ciir,0.013680
citat,0.006899
cite,0.009691
clark,0.006707
class,0.007685
classic,0.003827
classif,0.020448
cleverdon,0.027360
close,0.003100
cluster,0.012713
coeffici,0.006686
coin,0.004797
colleagu,0.006262
collect,0.023657
combin,0.006607
comedi,0.008654
commerci,0.004438
common,0.011206
commonli,0.003847
commun,0.006059
compar,0.017135
complement,0.006832
complet,0.003200
compound,0.005221
comput,0.057591
computer,0.008498
concept,0.006467
concern,0.003253
conduct,0.003971
confer,0.031927
confront,0.006401
confus,0.005215
consid,0.008106
consider,0.003894
content,0.004572
contentbas,0.012016
continu,0.002807
control,0.003078
cooccurr,0.012106
cormack,0.012106
corn,0.007246
cornel,0.014656
corpora,0.021087
corpu,0.007841
correct,0.004666
correl,0.010802
correspond,0.004206
cosponsor,0.010472
count,0.005284
cranfield,0.046238
crisi,0.004781
crossqueri,0.013680
crouch,0.011431
cumul,0.014709
curv,0.028504
cutoff,0.038323
cyril,0.018500
d,0.033760
data,0.018490
databas,0.037947
david,0.004116
dc,0.012832
dcg,0.077563
dcgp,0.027360
dcgpidcgp,0.013680
decis,0.007813
defens,0.005085
defin,0.009540
definit,0.003663
degre,0.011384
delta,0.013274
depart,0.004062
depend,0.003057
deriv,0.014092
describ,0.011408
descript,0.004235
design,0.006806
desir,0.004361
desk,0.009217
detect,0.005088
determin,0.006435
develop,0.006952
dialog,0.018274
differ,0.022108
dimens,0.015994
dimension,0.007168
directli,0.007446
director,0.005571
dirichlet,0.010019
disappoint,0.007951
discount,0.013379
discrimin,0.006434
displaystyl,0.281321
distribut,0.007646
divergencefromrandom,0.013680
divers,0.004456
document,0.366837
documentretriev,0.013680
documentscap,0.041040
documentsmboxnonrelev,0.013680
documentsmboxrelev,0.013680
documentsmboxretriev,0.013680
doe,0.003135
don,0.007690
donald,0.006532
doszkoc,0.013680
dr,0.005749
duth,0.013680
e,0.052568
earl,0.008436
earli,0.013951
earliest,0.004662
easier,0.005973
easili,0.004779
ebay,0.010952
edit,0.004366
effect,0.010840
effici,0.004368
effort,0.003863
efrac,0.009820
electromechan,0.010276
element,0.003548
emanuel,0.018706
emphasi,0.015180
empir,0.003892
encourag,0.004585
end,0.003050
endus,0.010186
engin,0.036183
england,0.004840
enhanc,0.005167
enter,0.004078
entiti,0.004733
equal,0.011397
equival,0.004493
et,0.004795
eugen,0.006820
evalu,0.072506
evenli,0.016654
eventu,0.003965
everi,0.010472
examin,0.004366
exampl,0.017489
excel,0.006034
experi,0.003430
experiment,0.009319
explicit,0.006091
extend,0.007359
extern,0.004362
f,0.049311
facil,0.005347
fact,0.003542
fail,0.004194
fallout,0.038829
fbeta,0.038346
featur,0.026409
featurebas,0.012927
feedback,0.006774
fewer,0.005916
ffrac,0.010818
field,0.006093
file,0.006226
film,0.005657
finish,0.006419
finit,0.011539
fmeasur,0.066307
follow,0.002386
form,0.004560
formal,0.003732
formerli,0.005588
formula,0.010418
forum,0.006126
frac,0.046730
fraction,0.017517
framework,0.008547
free,0.003407
fscore,0.026522
fulli,0.004497
fulltext,0.020373
function,0.024433
fund,0.004113
futur,0.007266
fuzzi,0.008677
g,0.032285
gain,0.010887
gap,0.005807
garfield,0.011698
gaussian,0.008271
gave,0.004340
gener,0.006430
geometr,0.006134
gerard,0.035150
german,0.004212
given,0.005983
glasgow,0.008762
gmap,0.012525
goldberg,0.020147
gordon,0.006957
govern,0.002836
grade,0.013915
graph,0.006637
greater,0.003757
ground,0.004340
group,0.016145
grow,0.003825
ha,0.003978
han,0.011923
harmon,0.007251
harvard,0.005828
hay,0.016654
heavi,0.010311
helen,0.008426
herman,0.007967
hi,0.008024
hierarch,0.006843
higher,0.003546
highli,0.015708
hinrich,0.012525
histogram,0.010952
histori,0.002484
hollerith,0.022988
holmstrom,0.012648
howev,0.004842
huge,0.005547
human,0.002874
hypertext,0.010371
hypothesi,0.005196
ibm,0.007671
idcgp,0.027360
idea,0.006696
ideal,0.009707
identifi,0.007212
ieee,0.008129
illpos,0.012410
illustr,0.005087
ilp,0.012410
imag,0.009186
imman,0.009266
impact,0.004088
implement,0.012459
import,0.007632
includ,0.010354
incorpor,0.008192
independ,0.009191
index,0.037911
indic,0.003669
indirectli,0.006428
industri,0.003404
infer,0.011465
influenti,0.004797
inform,0.180907
infrastructur,0.005050
input,0.005404
inspir,0.004935
instanti,0.009797
instead,0.006988
institut,0.003156
int,0.016635
integr,0.007199
intellig,0.004654
interdepend,0.052416
interfac,0.019482
intern,0.007842
interp,0.082080
interpol,0.013940
intersect,0.006722
interv,0.012569
intrex,0.013680
introduc,0.003499
introduct,0.011863
invent,0.014561
investig,0.004180
involv,0.002891
ipfrac,0.013680
ir,0.141730
irrelev,0.007408
irsg,0.013457
item,0.010944
iter,0.007465
j,0.022477
jacquard,0.022862
jardin,0.010656
jasi,0.013457
john,0.006786
join,0.004437
joint,0.005252
jone,0.006623
joseph,0.014747
journal,0.007673
jr,0.006336
juli,0.004308
just,0.006956
k,0.113066
karen,0.008541
kent,0.044732
kept,0.005374
key,0.007591
keypunch,0.013085
kmboxnumb,0.013680
know,0.004519
knowledg,0.003751
known,0.004984
knpkdelta,0.013680
knpktime,0.013680
korfhag,0.026522
kuhn,0.008813
l,0.048295
lancast,0.009774
languag,0.011246
larg,0.007885
largescal,0.005811
lari,0.012525
late,0.010359
latent,0.025069
later,0.002966
ldot,0.010404
lead,0.002975
learn,0.004189
level,0.002982
libdream,0.013680
librari,0.018741
licklid,0.011698
like,0.002663
linguist,0.005862
link,0.002168
list,0.013865
literatur,0.008911
lockhe,0.021724
log,0.006987
logarithm,0.008070
longer,0.004113
look,0.016470
loom,0.009061
lower,0.003685
luhn,0.024033
m,0.007133
machin,0.024075
machineread,0.011559
major,0.002645
man,0.004412
mani,0.011270
manual,0.006299
map,0.018248
margin,0.005465
mari,0.005761
maron,0.026171
mass,0.004089
massachusett,0.006539
master,0.005322
match,0.021213
mathemat,0.019601
mathrm,0.079519
matric,0.008234
matrix,0.006259
matthew,0.007231
max,0.012188
maximum,0.005422
mayb,0.009031
mayo,0.009797
mboxfalloutfrac,0.013680
mboxnonrelev,0.013680
mboxprecisionfrac,0.013680
mboxrecallfrac,0.013680
mboxrelev,0.027360
mboxretriev,0.041040
mboxspecif,0.013680
mcgill,0.010276
mcgrawhil,0.007206
mean,0.027463
meaning,0.006481
measur,0.062059
mechan,0.011047
medic,0.004592
medicin,0.009509
medium,0.005685
medlar,0.025297
medlin,0.025297
meet,0.004034
melvin,0.010307
mention,0.004827
metadata,0.029533
method,0.012353
methodolog,0.005278
metric,0.040182
michael,0.004589
microfilm,0.012302
mid,0.009931
militari,0.004034
mind,0.004702
mit,0.018177
model,0.111826
modern,0.008973
monthli,0.006797
mooer,0.013680
motiv,0.004871
multirefer,0.013261
n,0.049262
nation,0.013816
natur,0.002662
ndcg,0.041040
ndcgp,0.013680
need,0.023982
nelson,0.007534
new,0.002227
nichola,0.013415
nist,0.009892
nonlinear,0.006832
nonneg,0.009318
nonrelev,0.086120
normal,0.003974
normalis,0.010580
note,0.008625
notion,0.004718
number,0.022452
numer,0.003694
o,0.021034
object,0.030680
obtain,0.011628
oddi,0.012525
okapi,0.013085
onli,0.006886
onlin,0.008729
oper,0.009437
operatornam,0.066375
oppos,0.004167
orbit,0.006324
order,0.005496
organ,0.002720
orthogon,0.008446
otherwis,0.004743
outlin,0.004853
output,0.005204
overload,0.010019
overview,0.004996
p,0.114201
page,0.004888
paper,0.012343
parametr,0.008713
particular,0.009364
pascal,0.007757
patent,0.013309
pattern,0.004254
penal,0.008366
perfect,0.011143
perform,0.024539
perhap,0.004635
pertop,0.013680
peter,0.009094
pfrac,0.009797
philip,0.006129
photoelectr,0.009250
phrase,0.006008
pictur,0.011165
piec,0.005506
pk,0.020743
plot,0.012223
pn,0.009200
point,0.002892
poperatornam,0.039257
popular,0.003567
posit,0.026598
pr,0.033868
prabhakar,0.012782
practic,0.006118
prdr,0.012927
precis,0.211965
precisionrecal,0.041040
predict,0.004184
premis,0.006707
present,0.002859
press,0.006731
probabilist,0.052057
probabl,0.012309
problem,0.009174
proceed,0.005233
process,0.018922
produc,0.005950
program,0.003597
project,0.003538
promot,0.004079
properti,0.006924
proport,0.009455
propos,0.017640
prove,0.004413
provid,0.005074
public,0.008639
publish,0.047608
punch,0.027274
purpos,0.003719
q,0.038425
qqoperatornam,0.013680
queri,0.270618
r,0.187499
radc,0.013680
raghavan,0.012106
rank,0.101386
read,0.006299
readabl,0.009266
real,0.003764
recal,0.196368
receiv,0.003464
reciproc,0.006812
recognit,0.004970
red,0.010053
reduc,0.010306
reduct,0.005218
refer,0.003627
refin,0.005689
reflect,0.003897
rel,0.019510
relat,0.002445
relationship,0.006923
relev,0.203966
reli,0.004369
relilog,0.013680
relsum,0.013680
replac,0.003695
report,0.017428
repres,0.017849
represent,0.018300
requir,0.005709
research,0.020594
reserv,0.004823
resourc,0.007342
respect,0.003448
respons,0.006291
result,0.035366
retriev,0.420261
return,0.033032
rgeq,0.013261
right,0.003254
rijsbergen,0.068400
rin,0.011370
rk,0.020373
robert,0.015950
roc,0.009642
roll,0.006766
romant,0.007717
roperatornam,0.012525
rprecis,0.041040
rptild,0.013680
rrr,0.013085
rth,0.012302
rtild,0.013680
s,0.056586
salton,0.094203
sammon,0.025564
sampl,0.005404
scalar,0.008120
scale,0.012314
schtze,0.013261
scienc,0.015250
scientif,0.014597
score,0.046532
sdc,0.013261
search,0.120689
second,0.002976
seek,0.004069
semant,0.020167
sensit,0.005841
sequenc,0.025173
set,0.028093
settheoret,0.020679
sever,0.010524
shade,0.008261
shortcom,0.008456
shown,0.008746
sigir,0.039257
signific,0.003221
similar,0.009041
sinc,0.007571
singl,0.010133
singlevalu,0.012201
size,0.003930
small,0.003088
smart,0.007929
societi,0.009486
solut,0.004318
sophist,0.005807
sort,0.005293
sound,0.005314
sourc,0.003174
space,0.023348
spearman,0.011312
special,0.003156
specialist,0.006262
specif,0.009059
specifi,0.005131
spoerri,0.013680
sponsor,0.006327
sprck,0.013085
sql,0.011148
ss,0.015514
standard,0.010198
state,0.002208
statement,0.004633
statist,0.020704
stefan,0.008642
storag,0.018018
store,0.010226
strategi,0.009403
string,0.006704
strix,0.013680
structur,0.002948
studi,0.008002
submit,0.006321
success,0.003347
suitabl,0.005602
sum,0.035242
summat,0.008701
summationbas,0.013680
suppli,0.004114
support,0.003000
surrog,0.009601
swanson,0.011312
symbol,0.004582
symmetr,0.007187
symposium,0.008078
synonymi,0.012302
systemsnlm,0.013680
tabul,0.018888
tama,0.011312
tech,0.008574
techniqu,0.007757
technolog,0.003639
term,0.031004
terminterdepend,0.013680
termsword,0.013680
test,0.004126
text,0.047893
themselv,0.007487
theodor,0.006907
theorem,0.011315
theori,0.008875
therefor,0.003430
thesi,0.012492
thi,0.028317
think,0.008754
thousand,0.008902
tild,0.011201
tim,0.007951
time,0.002233
timelin,0.005940
tipster,0.012782
titl,0.004530
toni,0.007819
tool,0.012124
topic,0.004004
topicbas,0.013680
topk,0.013680
topmost,0.010862
tradit,0.006356
transact,0.005434
transcend,0.007139
transform,0.004131
treat,0.008839
trec,0.053045
trivial,0.015069
truth,0.005370
tupl,0.010617
turn,0.003489
twice,0.012031
type,0.003034
typic,0.010158
ultim,0.004365
uncertain,0.006672
underli,0.004793
uniqu,0.004303
univac,0.012106
univers,0.018298
usag,0.005293
use,0.035059
user,0.050392
ussr,0.007291
usual,0.012149
v,0.013501
valu,0.032349
van,0.027605
vannevar,0.021015
vari,0.007441
variabl,0.004613
variou,0.002873
vector,0.079353
veri,0.005764
version,0.008830
video,0.005555
view,0.003234
viewpoint,0.006644
virtual,0.004991
visibl,0.005578
vision,0.005466
visual,0.031951
w,0.012704
wa,0.024833
wartim,0.008038
washington,0.011113
way,0.002698
web,0.027360
webscal,0.013680
weight,0.025436
weinberg,0.018671
western,0.003796
wide,0.003250
wiggl,0.012201
wiki,0.008436
wiley,0.006176
wilfrid,0.010276
wish,0.005580
word,0.003503
work,0.009897
world,0.002558
x,0.022344
xcap,0.013680
y,0.016124
year,0.002547
york,0.003887
zero,0.015923
