abil,0.010562
absolut,0.006510
absorpt,0.018686
accept,0.004818
accord,0.019190
account,0.004520
acid,0.077334
acidbas,0.027418
activ,0.007659
additionreduct,0.018006
advent,0.008394
affin,0.018861
agricultur,0.005705
aim,0.005480
air,0.005896
akin,0.010272
al,0.006583
alia,0.013236
alken,0.027337
alkoxid,0.015855
allow,0.015267
alloy,0.010680
altern,0.009864
aluminium,0.032264
ammonia,0.033274
ammonium,0.038621
amorph,0.012586
analysi,0.004626
analyz,0.006451
ani,0.010148
anion,0.049777
anoth,0.007383
anthropogen,0.012026
apparatu,0.009552
applic,0.022919
approach,0.017669
appropri,0.012305
approxim,0.005230
area,0.030497
aris,0.006261
array,0.008375
articl,0.009123
aspect,0.025223
assess,0.013075
associ,0.011248
atom,0.046981
atomtransf,0.018006
atp,0.011458
b,0.010168
backbon,0.010922
background,0.006592
base,0.010033
basi,0.004780
basic,0.004656
batteri,0.010397
bch,0.015855
becaus,0.013935
begin,0.013538
behavior,0.005429
benefit,0.011232
besid,0.007918
bh,0.041006
binari,0.009242
bind,0.007992
biochemistri,0.009199
bioinorgan,0.070781
biolog,0.010978
biomolecul,0.011487
black,0.006246
blur,0.010776
boat,0.009226
bohr,0.011443
bond,0.072714
bornhab,0.017102
bosch,0.014257
bound,0.027700
box,0.008676
bp,0.011595
broad,0.006216
buckminsterfulleren,0.016078
buckytub,0.017743
bulk,0.024613
c,0.013288
cadmium,0.013371
calcium,0.010187
calcul,0.005905
canada,0.006639
cancel,0.008780
capabl,0.006104
carboc,0.016461
carbon,0.052883
carbonyl,0.038538
carboxypeptidas,0.016758
carl,0.007738
catalysi,0.088107
catalyst,0.030365
categori,0.005914
cation,0.059045
cd,0.010670
centr,0.006373
central,0.008690
certain,0.004242
ch,0.019782
challeng,0.005537
chang,0.010484
charact,0.006405
character,0.017637
characterist,0.005342
charg,0.005981
chemic,0.059023
chemistri,0.339694
chfecoch,0.017743
china,0.005955
chip,0.010406
chiral,0.012791
chlorat,0.016198
chlorid,0.044118
chlorin,0.011193
cisplatin,0.029433
cl,0.024130
class,0.041131
classic,0.015364
classif,0.020519
classifi,0.018811
clf,0.017102
close,0.004147
cluster,0.068041
cn,0.011707
coat,0.009183
cobalt,0.011757
coedta,0.017743
collect,0.004522
color,0.007722
common,0.007497
commonli,0.015445
complex,0.077120
compon,0.005339
compound,0.461066
comput,0.005137
concept,0.017305
condens,0.017940
conduct,0.005313
conductor,0.011180
conform,0.017113
conh,0.035487
consid,0.018078
consist,0.020747
construct,0.009601
contain,0.035581
context,0.010907
convers,0.012792
coohconh,0.018006
coordin,0.092010
correspond,0.005628
correspondingli,0.011707
couch,0.013709
count,0.007070
coupl,0.007174
cover,0.010208
cryogen,0.013406
crystal,0.026092
crystallographi,0.033660
cuiioacho,0.018006
cycl,0.006355
cyclic,0.009629
cyclopentadienyliron,0.018006
d,0.005019
data,0.004947
deal,0.004994
deepli,0.008753
definit,0.019608
degener,0.010854
delocalis,0.016605
demonstr,0.016718
denot,0.007565
densiti,0.007481
deriv,0.009428
describ,0.030528
descript,0.028336
detect,0.006808
determin,0.004305
develop,0.009302
diagnosi,0.009406
diamagnet,0.029307
diatom,0.011879
diboran,0.034204
dicarbonyl,0.017743
differ,0.023007
difficult,0.005407
dimer,0.013017
dimetal,0.018006
dioxid,0.009110
directli,0.009963
disagr,0.008816
disciplin,0.005712
discoveri,0.005806
discuss,0.020235
dispar,0.009527
displac,0.007955
display,0.007046
dissoci,0.022886
dissolv,0.007700
distil,0.011103
distinct,0.014325
divers,0.011925
dna,0.024004
donat,0.009286
dorbit,0.016078
doubl,0.013728
drive,0.013322
drug,0.007312
dual,0.008740
earli,0.007466
eas,0.017186
easier,0.007992
easili,0.006394
economi,0.005097
effect,0.003626
electr,0.018515
electrochemistri,0.025323
electrolyt,0.011915
electron,0.143660
electrondefici,0.034592
electronspin,0.017743
electrontransf,0.016758
element,0.061713
elementari,0.008420
elev,0.008327
elimin,0.006455
empir,0.005208
employ,0.014853
enabl,0.011838
enantiom,0.015294
encount,0.014703
endor,0.016326
energi,0.015676
energytransf,0.017508
enrich,0.009770
entireti,0.010670
environ,0.004947
epr,0.014012
especi,0.004334
esr,0.014987
essenti,0.005188
europ,0.005061
evacu,0.010204
evalu,0.006467
everi,0.004670
examin,0.005842
exampl,0.040115
exchang,0.031658
excit,0.018199
exclud,0.007021
expand,0.005280
expans,0.006297
experi,0.004590
explain,0.005024
explan,0.006570
explor,0.005687
extrem,0.010708
f,0.010996
factor,0.004732
far,0.005061
fe,0.011658
featur,0.020191
fech,0.017508
feco,0.015855
feedstock,0.013709
feiiicn,0.018006
feiiiho,0.018006
ferrocen,0.017102
fertil,0.015648
field,0.032609
focus,0.036371
follow,0.003192
form,0.012203
format,0.005443
free,0.009118
fritz,0.010765
fuel,0.007396
fulleren,0.013966
fulli,0.006017
function,0.004086
fundament,0.005111
furnac,0.012205
fuse,0.009826
ga,0.006715
gadolinium,0.015135
gain,0.004855
gase,0.008898
gaseou,0.011220
gener,0.005736
glass,0.008798
glove,0.013834
good,0.004437
greatli,0.013072
ground,0.005807
group,0.115212
gypsum,0.014156
h,0.016633
ha,0.021291
haber,0.026742
halid,0.012791
heavier,0.010081
heaviest,0.012712
hemoglobin,0.024935
heterogen,0.020068
hexacarbonyl,0.016758
hg,0.024621
high,0.008083
highest,0.006112
highli,0.021017
highlight,0.008218
hing,0.011933
hint,0.010865
histor,0.004483
ho,0.051191
homogen,0.017979
hsab,0.017743
humic,0.015466
hydrid,0.012930
hydrocarbon,0.010325
hydrochlor,0.013478
hydrogen,0.057870
hydrolysi,0.012586
hydroxid,0.013078
hyperval,0.017743
identifi,0.004824
illdefin,0.013371
illustr,0.006806
impact,0.005469
import,0.051062
improv,0.004911
includ,0.030477
incorpor,0.010961
increas,0.003838
increasingli,0.011768
india,0.006110
indirectli,0.008601
industri,0.027334
infer,0.007670
influenc,0.004396
inform,0.007936
infrar,0.010307
inher,0.007649
inorgan,0.438592
insight,0.014807
instruct,0.007514
intens,0.006628
inter,0.011220
interact,0.014939
interconnect,0.009648
interfac,0.008689
interferomet,0.013750
intermedi,0.007844
intermetal,0.016326
introduc,0.004682
involv,0.007738
ion,0.034621
ionic,0.033125
ionis,0.014059
ioniz,0.010559
iriii,0.018006
iron,0.028593
isotop,0.009668
japan,0.006600
join,0.005936
k,0.006051
key,0.010157
kind,0.005316
kinet,0.009034
knowledg,0.005019
known,0.003334
la,0.006661
labil,0.015557
laboratori,0.006772
lack,0.005088
languag,0.005015
lanthanid,0.039908
larg,0.010550
lavoisi,0.011563
learn,0.005605
led,0.012920
lewi,0.016751
li,0.010343
ligand,0.213189
light,0.005501
lighter,0.010472
line,0.004775
lipophil,0.016078
liquid,0.007152
lithium,0.011626
littl,0.005106
lone,0.011443
low,0.005113
lower,0.004930
m,0.004772
macromolecul,0.011414
magnesium,0.022828
magnet,0.023498
magnitud,0.008232
main,0.063361
mainli,0.005539
mangan,0.016758
mani,0.036190
manifold,0.010453
manipul,0.014288
mankind,0.009629
manmad,0.010722
manufactur,0.012726
materi,0.023378
mathemat,0.005245
matter,0.005019
mch,0.017296
measur,0.017480
mechan,0.024636
mechanist,0.022258
medic,0.006144
medicin,0.006361
meilt,0.018006
melt,0.019043
metal,0.166669
metalcontain,0.016326
metalmet,0.017296
methan,0.011193
method,0.020661
methodolog,0.014125
methylmercuri,0.033517
mg,0.024410
mgcl,0.017508
mhon,0.052526
miner,0.007387
mineralog,0.011357
minim,0.007042
mirror,0.009009
mix,0.006417
mm,0.009763
mno,0.061865
mocl,0.017508
moco,0.033210
model,0.020780
modern,0.004002
modifi,0.006510
molecul,0.079251
molecular,0.034869
molybdenum,0.012712
mostli,0.005692
mri,0.011563
mssbauer,0.016198
multielectron,0.015963
multitask,0.014012
myriad,0.011428
n,0.011984
na,0.010089
nacl,0.014206
nanosci,0.015557
nanotechnolog,0.010820
nao,0.014363
nation,0.003697
natur,0.014248
necessit,0.010744
net,0.007013
neutral,0.007303
new,0.011921
nh,0.033199
nickel,0.010701
nitrat,0.023158
nitric,0.012846
nitrogen,0.018420
nmr,0.048338
nonessenti,0.013552
normal,0.005318
nuclear,0.006817
nuclei,0.009597
nucleophil,0.012930
nucleu,0.008838
number,0.010013
o,0.028144
observ,0.013210
obtain,0.005186
occur,0.025434
octahedr,0.014363
octet,0.014475
older,0.007001
oneelectron,0.015652
onli,0.006142
open,0.004567
oper,0.004209
orbit,0.025387
order,0.003676
organ,0.047312
organometal,0.161187
otherwis,0.006346
overarch,0.011287
overlap,0.007415
oxid,0.115084
oxygen,0.016247
p,0.005093
pair,0.021330
parallel,0.006913
paramagnet,0.040772
parent,0.007514
particularli,0.004679
partli,0.014348
pathway,0.035842
pdpch,0.018006
pentacarbonyl,0.016924
peptid,0.011167
period,0.011893
permangan,0.015652
peroxid,0.013171
perspect,0.011941
petrochem,0.012246
phase,0.006416
phosphat,0.020633
phosphor,0.014107
phosphoru,0.010993
photoelectron,0.015213
physic,0.008731
pigment,0.011180
pipe,0.011167
place,0.003773
planar,0.012376
plant,0.005792
point,0.015481
polaris,0.012332
polariz,0.015466
pollut,0.008975
polyphosph,0.016461
poor,0.006597
popular,0.009547
posit,0.003954
potenti,0.009906
power,0.011746
practic,0.016374
precis,0.006302
predict,0.033588
prepar,0.018615
preval,0.008424
priestley,0.012636
principl,0.004592
probe,0.019030
process,0.010850
product,0.011962
properti,0.046324
proport,0.006325
protein,0.007772
proton,0.019782
prototyp,0.009869
provid,0.006789
provinc,0.007072
pt,0.022799
public,0.003853
pure,0.012099
pyramid,0.010281
pyrit,0.014206
qualit,0.044355
quantit,0.014216
quantum,0.030867
quit,0.006465
rang,0.013778
rate,0.009482
ratio,0.006900
ration,0.006593
react,0.016955
reactant,0.071821
reaction,0.111996
reactiv,0.054846
reagent,0.012164
reason,0.004354
redox,0.085580
reduc,0.004596
reduct,0.013963
refer,0.004852
refin,0.007611
rel,0.008701
relat,0.006543
relax,0.009275
relev,0.025386
remov,0.005602
requir,0.003819
research,0.003936
resid,0.006428
reson,0.018573
respect,0.004614
respir,0.010957
result,0.013520
rich,0.013916
role,0.004250
room,0.007870
roughli,0.006806
rule,0.004429
s,0.003441
salt,0.041567
sc,0.012246
scale,0.005492
schlenk,0.018006
scienc,0.016324
seal,0.009099
seen,0.004761
selenid,0.015855
selfexchang,0.018006
semiempir,0.014533
semiquantit,0.017102
sens,0.004992
sensit,0.007815
separ,0.004433
set,0.003758
shape,0.005783
signific,0.008621
silic,0.012164
silica,0.012959
silicon,0.020615
similar,0.008065
simpl,0.021463
simplest,0.008613
simplif,0.011103
sinc,0.006753
sio,0.046137
size,0.010517
slowest,0.013834
small,0.004132
sn,0.011371
sncl,0.017743
sodium,0.082251
soil,0.015303
solid,0.087093
solubl,0.043193
solut,0.011555
solvent,0.010876
sometim,0.008792
spawn,0.010765
speci,0.068318
special,0.016894
specif,0.004040
spectra,0.022010
spectroscop,0.011757
spectroscopi,0.070683
spectrum,0.007985
squar,0.007154
state,0.035457
stereochemistri,0.013139
stoichiometr,0.014475
storag,0.008036
strongli,0.013017
structur,0.031565
studi,0.010706
subdisciplin,0.009204
subdivis,0.009920
subfield,0.017386
subject,0.004295
substitut,0.015008
substrat,0.010255
subunit,0.011342
sulfat,0.060422
sulfid,0.011458
sulfur,0.029783
superconductor,0.013236
supramolecular,0.013269
surfac,0.012229
surfact,0.015466
swap,0.010298
symmetri,0.056406
synthes,0.017552
synthesi,0.030157
synthet,0.025126
ta,0.011757
tabl,0.019497
techniqu,0.031137
technolog,0.004868
temperatur,0.013653
tend,0.016636
term,0.003191
tetrachlorid,0.016078
tetrahedr,0.014012
tetrakistriphenylphosphinepalladium,0.018006
tetranitrid,0.017743
tetrasulfur,0.017743
theme,0.014958
theoret,0.027686
theori,0.087083
therapi,0.017202
therefor,0.004590
thermodynam,0.026003
thi,0.027784
thu,0.003947
ticl,0.017508
ticlthf,0.018006
titanium,0.036253
titaniumiii,0.017743
tool,0.021629
topic,0.005358
tradit,0.021262
transactinid,0.016605
transfer,0.005778
transit,0.064671
translanthanid,0.018006
transmetal,0.016758
transport,0.005789
triangular,0.011707
tshape,0.016198
tube,0.018663
twocent,0.017508
twoelectron,0.016461
typic,0.013591
ultravioletvis,0.015855
undergo,0.007829
understand,0.009167
uniqu,0.005758
unpair,0.026884
use,0.030353
usual,0.020319
vacuum,0.008811
valenc,0.023515
valv,0.011548
vanadiumv,0.017102
vari,0.009956
variou,0.003844
veri,0.011569
vibrat,0.039419
volatil,0.017969
voltammetri,0.016198
vsepr,0.016198
wa,0.005537
water,0.026046
way,0.007221
weakli,0.011548
weight,0.006806
weld,0.012586
werner,0.010691
wernertyp,0.018006
wf,0.014716
wherea,0.023440
whi,0.012427
white,0.006411
xray,0.018420
y,0.007191
ybacuo,0.017296
zeolit,0.015751
zn,0.013750
zone,0.006979
