aberystwyth,0.029505
abil,0.004845
abov,0.004508
absolut,0.011947
academ,0.052750
academia,0.009082
accept,0.022107
accord,0.003521
account,0.008295
accumul,0.006756
acknowledg,0.006791
act,0.016100
action,0.021636
activ,0.003514
actor,0.129897
actual,0.004507
ad,0.004494
adam,0.007147
addit,0.007125
address,0.005303
adher,0.007124
adjust,0.006741
advanc,0.004349
advantag,0.005466
advisor,0.009022
advoc,0.018136
affair,0.052410
affect,0.004602
afk,0.016280
africa,0.005719
african,0.006172
agenc,0.011080
aggreg,0.007447
ago,0.006824
agreement,0.010751
aid,0.005283
aim,0.025145
al,0.006040
alexand,0.013495
align,0.015216
allot,0.010697
allow,0.010506
alon,0.006022
alqaeda,0.011944
alter,0.006317
altern,0.004525
america,0.004935
american,0.007980
amnesti,0.010154
analog,0.006293
analys,0.006885
analysi,0.025472
analyz,0.005919
anarch,0.041084
anarchi,0.095494
ancient,0.005102
andor,0.006163
andrew,0.021457
angel,0.016891
ani,0.018623
ann,0.008248
annex,0.008012
anoth,0.013549
anthropolog,0.007984
anticip,0.007832
antithet,0.012815
appli,0.007529
applic,0.008412
approach,0.016212
appropri,0.011290
argu,0.042166
argument,0.005917
armi,0.006057
aros,0.013987
arrang,0.011483
arsen,0.010000
art,0.005387
arthashastra,0.012237
articl,0.012557
asia,0.006047
aspect,0.009257
aspir,0.008853
assess,0.005998
associ,0.017202
assum,0.004878
assumpt,0.018000
attempt,0.016069
attent,0.005742
author,0.019826
autonom,0.014242
awar,0.006372
away,0.005364
bad,0.014449
balanc,0.027870
bandwagon,0.014111
bank,0.005093
bar,0.007961
barcelona,0.011017
barri,0.009324
barrier,0.007165
base,0.024549
basi,0.008773
basic,0.008544
bay,0.007953
bayli,0.014111
bc,0.031414
becam,0.015526
becaus,0.009590
becom,0.003399
began,0.004240
behavior,0.019925
behest,0.012205
belief,0.017053
believ,0.021960
belong,0.006000
beneath,0.009178
benefici,0.007793
benefit,0.010306
best,0.004680
better,0.009577
bibliographi,0.006176
bipolar,0.046286
black,0.005731
bloc,0.051126
block,0.006326
bodi,0.004261
bodin,0.013503
book,0.012108
booth,0.011737
border,0.006255
boundari,0.005928
box,0.007961
britain,0.005982
british,0.004741
broad,0.011407
brought,0.010469
bull,0.029400
bureaucraci,0.009457
bureaucrat,0.018819
burton,0.011161
busi,0.004787
buzan,0.014752
c,0.008128
camp,0.007695
canada,0.006091
candid,0.013102
capabl,0.011201
capit,0.009251
capitalist,0.016803
captiv,0.009109
carlsna,0.016794
carr,0.032798
case,0.010668
caus,0.003796
causal,0.015837
central,0.007973
centuri,0.025565
certain,0.007785
ch,0.009075
chair,0.007988
challeng,0.010161
chanakya,0.012367
chanc,0.006846
chang,0.019239
character,0.010789
characteris,0.017052
charlott,0.011217
chicago,0.006931
china,0.016393
chines,0.006113
choic,0.011177
choos,0.006118
christian,0.005512
cite,0.023795
citizen,0.011641
citizenri,0.024734
cityst,0.009979
civil,0.004878
civilian,0.007394
claim,0.008635
class,0.004717
classifi,0.011506
clausewitz,0.013445
clear,0.005293
coerciv,0.011088
coexist,0.017980
coher,0.007840
cold,0.054241
collaps,0.006265
collect,0.016596
colleg,0.006174
coloni,0.017644
columbia,0.015822
combin,0.004056
come,0.008136
commiss,0.005663
committe,0.006102
common,0.013758
commonli,0.014171
commonwealth,0.007347
commun,0.026036
compar,0.008414
compon,0.004898
comprehend,0.010076
compromis,0.008178
concept,0.067486
concern,0.015974
condit,0.003980
conduct,0.009751
configur,0.015717
conflict,0.026490
conform,0.007851
conglomer,0.010624
conscious,0.007246
consequ,0.004837
consid,0.036493
consider,0.004780
consist,0.007614
constitut,0.035933
constraint,0.007062
construct,0.013215
constructiv,0.081001
constructivist,0.011549
contain,0.004080
contemporari,0.027821
context,0.005004
continu,0.010340
contraind,0.014274
contrari,0.014877
contribut,0.008350
control,0.007559
convent,0.005508
converg,0.007493
cooper,0.092430
copenhagen,0.010109
core,0.012081
coreperipheri,0.014647
corevit,0.016794
corpor,0.022325
correct,0.005728
costbenefit,0.011787
council,0.005187
counter,0.007691
countri,0.014974
cours,0.009916
cover,0.009367
cox,0.010459
creat,0.006959
creation,0.015534
crime,0.007057
criminolog,0.011917
criteria,0.007124
critic,0.025106
critiqu,0.007227
cs,0.008691
cultur,0.017109
culturolog,0.033589
current,0.010925
cut,0.006039
cynthia,0.012900
czechoslovakia,0.022435
date,0.004754
davi,0.008248
david,0.005053
dealt,0.008526
death,0.004982
debat,0.031776
decis,0.019184
decisionmak,0.008199
decolon,0.020893
decoloni,0.015236
deconstruct,0.010554
dedic,0.006833
defend,0.006364
defin,0.031232
definit,0.017992
degre,0.023293
deliber,0.007614
democraci,0.031682
democrat,0.016722
demographi,0.009565
demolish,0.011787
depart,0.009975
depend,0.037535
deris,0.012900
deriv,0.017301
describ,0.021008
despit,0.004823
destruct,0.006732
develop,0.039830
diaspora,0.020614
dictat,0.008135
differ,0.024126
digit,0.006352
diplomaci,0.086168
diplomat,0.027034
disadvantag,0.008435
disciplin,0.031451
discours,0.007789
discret,0.006709
dismiss,0.007579
disput,0.005722
dissolut,0.008572
distanc,0.006057
distinct,0.008762
distinguish,0.010101
divid,0.022554
divorc,0.009557
doctrin,0.013644
doe,0.007698
domest,0.005894
domin,0.018724
donald,0.008020
dramat,0.006424
draw,0.029157
drive,0.006112
dull,0.022836
duncan,0.010582
dure,0.022922
dutch,0.006986
e,0.018439
earli,0.020553
east,0.005265
eastern,0.005684
ecolog,0.006454
econom,0.059969
economi,0.014031
ed,0.014383
edmund,0.008713
effect,0.003327
elabor,0.014253
elev,0.007641
els,0.007052
emancip,0.009800
embodi,0.007918
emerg,0.008778
emphasi,0.006212
empir,0.009557
encompass,0.006411
encourag,0.005629
end,0.007489
endem,0.009540
endow,0.008674
enforc,0.006420
engin,0.004935
english,0.014309
enlarg,0.008747
enlo,0.016280
ensur,0.005626
entir,0.008884
entiti,0.017433
entitl,0.007070
environ,0.004539
envis,0.009355
epistemolog,0.032558
equal,0.009328
equiti,0.007836
especi,0.003976
essenc,0.007736
essenti,0.004760
establish,0.014620
et,0.005887
ethic,0.006303
ethnic,0.027034
ethniclinguist,0.016794
europ,0.018576
european,0.012797
evalu,0.005934
event,0.004457
evid,0.004670
examin,0.026802
exampl,0.033740
exercis,0.011768
exert,0.007858
exist,0.006811
expand,0.004844
expect,0.004705
experienc,0.006148
explain,0.023052
explan,0.012057
explanatori,0.019305
explicit,0.007478
explicitli,0.013944
exploit,0.006375
explor,0.005218
export,0.012565
expos,0.006860
express,0.004437
extent,0.005635
extern,0.002678
externalis,0.015104
facilit,0.006174
fact,0.017394
factor,0.026055
faculti,0.007911
fail,0.005149
failur,0.017877
faith,0.013693
famou,0.005657
far,0.004644
fashion,0.007208
father,0.006021
featur,0.013895
feel,0.006402
femin,0.010223
feminist,0.017954
field,0.033661
final,0.004429
financ,0.005426
financi,0.004889
fit,0.006235
flourish,0.007537
focu,0.030146
focus,0.028604
follow,0.014648
forc,0.036707
foreign,0.019069
form,0.027993
formal,0.009165
formul,0.005864
forth,0.007444
foster,0.023487
foundat,0.014326
francisco,0.007903
frankfurt,0.010120
free,0.008366
french,0.009857
fulfil,0.007406
fulli,0.005521
fullyfledg,0.014863
fundament,0.014069
furthermor,0.006275
futil,0.011161
futur,0.013381
gain,0.026733
gave,0.010658
gender,0.039256
gener,0.002631
generalist,0.023425
geneva,0.009734
geographi,0.006741
georgetown,0.011787
german,0.015516
gilpin,0.030208
given,0.011019
glendon,0.016280
global,0.058362
gone,0.008127
good,0.008143
goodin,0.014191
govern,0.024378
graduat,0.027450
great,0.024765
greater,0.004612
greek,0.005186
grieco,0.016065
grotiu,0.013389
ground,0.005329
group,0.029731
groupthink,0.012989
grow,0.018784
growth,0.004635
guantanamo,0.014274
guid,0.005178
gulag,0.013389
h,0.020349
ha,0.029304
han,0.029275
hand,0.009075
handbook,0.022235
hansdiet,0.014752
happen,0.005788
har,0.010211
hard,0.012021
hardli,0.009790
harri,0.007702
health,0.005105
hedley,0.043643
hegemon,0.024474
hegemoni,0.039592
heinemann,0.012205
henc,0.005714
hi,0.006567
hierarch,0.008401
highli,0.004821
highlight,0.007540
histor,0.004113
histori,0.030503
historian,0.006171
hobb,0.020566
hobbesian,0.014863
hold,0.004411
holi,0.007754
holsti,0.016065
homogen,0.016497
hooper,0.014033
hopf,0.013562
hostil,0.007595
hour,0.006435
howev,0.026750
hsiang,0.016280
httpsglobaloupcomacademicproductonglobalorderccuslangen,0.016794
hugo,0.009324
human,0.056454
humanitarian,0.009214
hurrel,0.015870
hybrid,0.007651
idea,0.032882
ideal,0.029795
idealist,0.010142
ideat,0.013503
ident,0.005243
ideolog,0.041507
ignor,0.012704
igo,0.027502
ii,0.004792
illumin,0.008604
illus,0.009042
immanuel,0.018486
immor,0.010223
immut,0.011256
impact,0.015056
imperfectli,0.012144
impervi,0.013623
impetu,0.009449
implac,0.014361
implement,0.005098
implicit,0.008578
import,0.006247
imposit,0.010526
imposs,0.006192
improv,0.004506
inabl,0.008841
includ,0.017796
incorpor,0.005029
increasingli,0.005398
inde,0.006227
independ,0.007522
indic,0.004505
individu,0.045330
inevit,0.016137
infight,0.012268
influenc,0.020168
inform,0.014563
inher,0.021055
initi,0.007958
innoc,0.009679
insist,0.007472
inspir,0.006059
instanc,0.024799
instead,0.017158
institut,0.065880
institution,0.019359
integr,0.013258
intent,0.006163
interact,0.041124
interdepend,0.064350
interdisciplinari,0.015056
intergovernment,0.042790
intern,0.471760
internation,0.011664
interplay,0.010131
interst,0.021865
intervent,0.013290
intervention,0.013035
introduct,0.004854
involv,0.007100
ir,0.214939
iraq,0.016391
irrespect,0.010639
islam,0.024385
israel,0.007500
issu,0.003929
issuearea,0.016521
j,0.009198
jackson,0.009474
jame,0.005165
japan,0.006056
jean,0.007595
john,0.020827
join,0.005447
joseph,0.018104
judgment,0.015522
just,0.012810
justif,0.008557
justifi,0.007364
kant,0.026578
kchler,0.030472
ken,0.010165
kenneth,0.032870
keohan,0.045312
kept,0.006598
key,0.018640
keyn,0.010131
klingemann,0.015104
known,0.003059
krasner,0.014033
labor,0.006012
lack,0.004668
languag,0.004602
lapid,0.015692
larg,0.006453
largest,0.005057
late,0.004239
later,0.007282
latin,0.005754
law,0.044261
layer,0.007048
lead,0.003653
leader,0.021415
leadership,0.006643
leagu,0.007512
led,0.007903
left,0.004880
legal,0.015157
legitimaci,0.009370
level,0.076886
leverag,0.009449
leviathan,0.011737
liber,0.104884
life,0.007871
like,0.019621
limit,0.011217
line,0.004382
link,0.005324
linklat,0.033043
list,0.003404
littl,0.014057
live,0.003958
llull,0.013623
lobbyist,0.012733
locat,0.004501
loci,0.010983
lock,0.007930
lockean,0.013389
london,0.010310
long,0.003975
longer,0.005049
look,0.015165
lose,0.006439
lse,0.024667
lynn,0.010357
machiavelli,0.022965
main,0.007751
mainstream,0.007429
maint,0.009790
maintain,0.004268
major,0.012992
make,0.028019
man,0.016250
mani,0.024904
manner,0.005908
market,0.009165
markwel,0.014980
martin,0.006480
marx,0.008557
marxian,0.010983
marxism,0.038297
marxist,0.033248
masculin,0.010883
materi,0.017160
materialid,0.016794
matter,0.004605
maxim,0.020888
maynard,0.009969
mean,0.020229
meaning,0.007957
meant,0.006279
mechan,0.009042
mediev,0.006529
meet,0.004953
member,0.003906
men,0.005676
method,0.007583
michael,0.005634
middl,0.005047
milieu,0.011397
militari,0.009905
mind,0.005773
mispercept,0.014111
missionari,0.008669
mnc,0.028549
mobil,0.006503
model,0.022881
modern,0.011016
modernday,0.008713
monarchi,0.007847
monopol,0.010653
monopoli,0.007843
montagu,0.011838
montesquieu,0.012175
moral,0.012249
morgenthau,0.027636
mostli,0.005223
movement,0.008443
mueller,0.013445
multin,0.018545
multipl,0.004708
multipolar,0.013887
munich,0.010624
muslim,0.013693
mutual,0.025831
narr,0.008056
nation,0.054277
nationst,0.061626
nationstatehood,0.016794
natur,0.022878
necess,0.007671
necessari,0.009757
necessarili,0.011985
need,0.014721
negoti,0.019224
neoliber,0.051476
neomarxist,0.028549
neoreal,0.058590
neorealismliber,0.016794
neorealist,0.061508
network,0.005118
new,0.021877
ngo,0.020130
nichola,0.008235
niebuhr,0.014452
nobel,0.007126
nobil,0.009548
noelbak,0.016521
nomenclatur,0.008691
nongovernment,0.039162
nonnorm,0.013335
nonstat,0.062710
nonvit,0.015377
norm,0.106514
norman,0.025877
notabl,0.004697
note,0.010589
nsa,0.013445
nuclear,0.012511
number,0.003062
nye,0.026164
object,0.020925
oblig,0.013521
occup,0.006379
occurr,0.015837
offer,0.022762
oic,0.010819
oldest,0.006622
ole,0.012693
oligarchi,0.011335
onesidedli,0.016280
onli,0.016908
ontolog,0.008387
open,0.004191
oper,0.011586
opinionbetween,0.016794
oppon,0.007605
opportun,0.005782
oppos,0.015348
order,0.023616
organ,0.056768
organis,0.017388
organiz,0.008020
organski,0.016065
outcom,0.006258
outlaw,0.009829
overarch,0.010357
overcom,0.007518
oversimplifi,0.012144
owen,0.010154
oxford,0.028760
pact,0.009192
palestinian,0.010582
parti,0.004731
particular,0.003832
particularli,0.021467
paterson,0.012367
path,0.006207
paul,0.005321
peac,0.053138
peloponnesian,0.027006
peopl,0.006750
perhap,0.011382
period,0.007275
peripher,0.009425
peripheralnonvit,0.016794
peripheri,0.010271
permit,0.006235
persist,0.006941
person,0.016023
perspect,0.021913
phenomena,0.005845
phenomenon,0.006305
philip,0.007524
philosoph,0.010747
philosophi,0.015636
pivot,0.009123
place,0.013849
placement,0.009608
play,0.013260
ploy,0.013445
pluralist,0.020972
point,0.007102
polar,0.037500
pole,0.008480
polici,0.027183
policymak,0.010022
policyrelev,0.016794
polit,0.138325
politi,0.009465
politicspow,0.016794
politicsthat,0.016794
popul,0.004355
popular,0.004379
portugues,0.007793
posit,0.039910
positiv,0.029908
positivist,0.083262
possibl,0.014322
post,0.005941
postmodern,0.018931
postmodernist,0.012028
postpositivist,0.073238
postpositivistreflectivist,0.016521
poststructur,0.011641
poststructuralist,0.048226
postul,0.007553
potenti,0.009090
power,0.143703
powerbas,0.014647
powerseek,0.016280
pp,0.005723
practic,0.015024
preced,0.006651
predict,0.005136
prefer,0.005375
prejudic,0.009743
premodern,0.020893
preponder,0.011972
presenc,0.005308
preserv,0.005917
presid,0.005076
press,0.020658
presum,0.007836
presumpt,0.011070
preval,0.007729
prevent,0.010037
previou,0.005293
primarili,0.004798
princ,0.022727
principl,0.016856
prior,0.026512
prize,0.006547
problemat,0.008460
procedur,0.012227
process,0.009956
produc,0.003652
professor,0.006274
professorship,0.011335
program,0.008832
progress,0.004784
project,0.004343
proletarian,0.012542
prolifer,0.008642
promin,0.033029
promot,0.015023
propaganda,0.009386
propens,0.010916
propon,0.022068
propos,0.004331
prosper,0.007257
prove,0.005417
provid,0.003114
psycholog,0.035903
pub,0.010499
public,0.010606
publicli,0.007512
pursuit,0.015829
question,0.013225
quo,0.048953
r,0.004697
ramon,0.012205
rang,0.008428
rapid,0.006083
rapidli,0.005918
rare,0.005777
raskin,0.014547
ration,0.030250
ravag,0.010916
raw,0.007262
reaction,0.005709
realism,0.078174
realist,0.084164
realistliber,0.016280
realiti,0.006056
reason,0.007991
receiv,0.004253
recent,0.003855
recogn,0.014322
recognis,0.006874
refer,0.006679
reflect,0.009569
refus,0.006497
regard,0.008543
regim,0.064878
region,0.007973
regul,0.010541
reinforc,0.015164
reinhold,0.011664
reject,0.016466
rel,0.007983
relat,0.228147
relationship,0.008499
reli,0.005364
relief,0.007937
religi,0.028436
religion,0.028353
relinquish,0.010223
replic,0.007858
report,0.004279
repres,0.003652
reproduc,0.015106
republ,0.005225
republican,0.007953
requir,0.003504
resort,0.008262
resourc,0.009014
respect,0.012702
respons,0.015446
restrict,0.005160
result,0.012405
retriev,0.006614
retrospect,0.009800
reussmit,0.016794
revisionismstatu,0.016794
revisionist,0.024056
revisionisti,0.016794
revolut,0.011031
richard,0.005500
rienner,0.014547
right,0.051939
rise,0.013440
risk,0.005478
robert,0.039163
rochest,0.011256
role,0.031202
roman,0.005972
root,0.011248
roughli,0.012490
rousseau,0.020815
royal,0.005874
rule,0.016256
s,0.015788
safeguard,0.009548
sage,0.008776
said,0.004574
sanction,0.025076
satisfi,0.006604
saw,0.016345
say,0.009647
sceptic,0.010668
scholar,0.016962
school,0.031708
scienc,0.041190
scientif,0.013440
scope,0.006545
secessionist,0.012028
secondlargest,0.010624
sector,0.005837
secular,0.007705
secur,0.042572
seek,0.024979
seen,0.004368
selfdef,0.013445
selfinterest,0.040260
sens,0.004581
separ,0.008135
sept,0.012056
serv,0.004431
servic,0.004337
set,0.006897
sever,0.006460
shame,0.023143
shape,0.015920
share,0.008677
shorterterm,0.014752
sign,0.005101
signific,0.011866
significantli,0.017142
similar,0.003700
similarli,0.017611
sinc,0.006196
singl,0.004146
sit,0.008191
situat,0.004770
size,0.004825
smith,0.013129
snidal,0.016521
social,0.055185
socialist,0.006931
societi,0.046586
sociolog,0.007341
sociopolit,0.010916
soft,0.023733
sole,0.006289
solidarist,0.031740
someth,0.005957
somewhat,0.013137
sought,0.012072
sourc,0.003897
southsouth,0.014980
sovereign,0.111090
sovereignti,0.112084
soviet,0.026846
speak,0.005941
specif,0.003707
spectrum,0.007327
sphere,0.006934
spread,0.016431
springer,0.007500
st,0.004995
stabil,0.023114
stabl,0.006098
stalin,0.010188
standard,0.008346
start,0.003922
state,0.241298
statecentr,0.030754
statu,0.020700
statusquo,0.016794
step,0.005254
stephen,0.006883
stone,0.006920
strateg,0.033814
strength,0.006284
stress,0.006354
strife,0.010211
structur,0.007240
structureandag,0.016794
student,0.005274
studi,0.075316
subdivid,0.008490
subject,0.003941
substat,0.014361
subunit,0.031223
success,0.004109
sudetenland,0.014980
suggest,0.013013
sumerian,0.010682
sun,0.006874
superior,0.006896
superpow,0.031960
support,0.007368
suppos,0.006808
surviv,0.010688
sustain,0.006060
switzerland,0.007941
sympathet,0.009908
synonym,0.007733
taken,0.004537
taught,0.013817
technolog,0.017870
ted,0.010076
tend,0.015264
term,0.029279
territori,0.027117
terror,0.016497
textbook,0.006984
th,0.017765
themselv,0.013788
thenc,0.012815
theoret,0.020322
theori,0.254240
theorist,0.043331
thesi,0.007668
thi,0.060259
thing,0.004930
think,0.010747
thirti,0.008354
thought,0.021957
thousand,0.005464
thu,0.007244
thucydid,0.035437
tickner,0.016280
tie,0.006044
time,0.002741
titl,0.011123
today,0.008902
tool,0.034731
topic,0.004916
trace,0.011883
trade,0.017929
tradit,0.027313
transact,0.006671
transit,0.010789
transnat,0.032950
treat,0.005425
treati,0.012941
true,0.005017
truman,0.022965
trump,0.011787
trust,0.006773
truth,0.006592
type,0.011176
typic,0.008314
tzu,0.012237
ultim,0.010718
ummah,0.013751
unabl,0.006439
undergradu,0.008253
understand,0.008412
undervalu,0.011688
unesco,0.008416
union,0.018417
unipolar,0.070555
unit,0.028127
unitari,0.009725
unitlevel,0.016794
univers,0.038511
unjust,0.010932
unlik,0.010320
unpredict,0.019506
unproblemat,0.013959
unstabl,0.008266
updat,0.007506
use,0.035446
usual,0.003728
utrecht,0.011688
vagu,0.009164
valu,0.019857
valuabl,0.007274
valuefre,0.013959
variabl,0.011328
varieti,0.009305
variou,0.014109
version,0.010840
versu,0.007232
viennanew,0.016794
view,0.039714
vindic,0.011737
violat,0.006855
visibl,0.006849
vital,0.013840
vitoria,0.014752
voic,0.007385
vs,0.007481
w,0.005199
wa,0.068597
wale,0.008625
walsh,0.012301
walter,0.007391
waltz,0.084203
walzer,0.014647
want,0.005720
war,0.162863
warfar,0.007858
warhead,0.013082
warsaw,0.010772
watch,0.007899
way,0.019878
weak,0.012310
weaker,0.008823
web,0.006717
welfar,0.014273
wellb,0.008289
wendt,0.046586
western,0.009322
westphalia,0.038700
westview,0.011397
wheeler,0.010835
wherea,0.010753
whi,0.005701
wide,0.011972
wider,0.007055
widespread,0.005953
william,0.004965
wilson,0.015480
winner,0.008531
wish,0.006851
wohlforth,0.016280
women,0.005897
woodrow,0.022795
work,0.018226
worker,0.005768
world,0.050263
worldsystem,0.013751
worldview,0.009506
worth,0.007015
year,0.006254
york,0.014317
