abraham,0.016282
addit,0.007014
alahuntsvil,0.031242
algebra,0.029777
allow,0.006894
altern,0.008908
analysi,0.117008
analyz,0.023308
ani,0.006110
anoth,0.006668
answer,0.024689
appli,0.037059
applic,0.024840
approach,0.007979
assess,0.023618
assign,0.012453
assumpt,0.035437
asymptot,0.020315
averag,0.010355
base,0.006041
befor,0.035699
behavior,0.009806
bernoulli,0.061697
best,0.009214
beta,0.017099
binomi,0.078101
binomialtyp,0.064101
borovkov,0.033062
c,0.008000
carri,0.009026
case,0.021002
categor,0.014233
cdiscret,0.033062
certain,0.007663
chang,0.006312
character,0.010619
check,0.014515
chi,0.020057
chisquar,0.051891
chosen,0.012794
clear,0.010421
collect,0.008168
combin,0.007984
combinator,0.021490
common,0.006771
commonli,0.037198
complex,0.008194
comput,0.009279
conceiv,0.014704
concern,0.007862
conclus,0.037433
condit,0.023507
confid,0.014325
conjug,0.019218
consid,0.006530
continu,0.033927
correspond,0.010166
countri,0.007369
cours,0.009760
crc,0.020172
criterion,0.016815
data,0.205562
decis,0.028325
decisiontheoret,0.030892
defin,0.015371
demand,0.009998
densiti,0.013514
depend,0.051724
describ,0.020678
descript,0.030711
design,0.016451
develop,0.005600
die,0.010730
differenti,0.011339
disciplin,0.010319
discret,0.013208
distribut,0.406572
divid,0.008880
draw,0.034440
drawn,0.013216
dure,0.006446
easier,0.014436
economi,0.009207
encod,0.032837
encount,0.026559
equat,0.011213
error,0.012820
especi,0.007829
estim,0.047439
event,0.026322
exampl,0.024153
expect,0.009263
experi,0.074619
expert,0.013317
exponenti,0.016229
extend,0.008893
extens,0.009104
fact,0.008560
failur,0.023462
fair,0.013655
famili,0.009335
familiar,0.014265
fewer,0.028595
finit,0.041832
fix,0.032104
focu,0.019782
follow,0.011534
form,0.005510
forth,0.014656
fulfil,0.014579
function,0.073814
gamma,0.017800
gauss,0.021828
gaussian,0.019989
gener,0.020722
geometr,0.014826
given,0.043386
government,0.015089
greater,0.009080
ha,0.019229
held,0.008524
help,0.007892
hi,0.006464
hypergeometr,0.026699
hypothes,0.028672
hypothesi,0.012558
idea,0.008091
implement,0.010037
import,0.012297
improp,0.021268
improv,0.008871
includ,0.020019
independ,0.059239
induct,0.015965
infer,0.180119
inferenti,0.126979
infinitedimension,0.022916
initi,0.015667
inspir,0.011928
interact,0.008995
interpret,0.009618
interv,0.015189
introduct,0.009557
involv,0.020967
isbn,0.008522
joint,0.012694
justif,0.016845
justifi,0.014498
k,0.010930
kind,0.009603
known,0.012047
laboratori,0.012232
land,0.009122
laplac,0.020696
larger,0.009514
leav,0.010207
level,0.007207
lie,0.011809
like,0.006438
linear,0.025649
locat,0.008862
loss,0.010542
make,0.042902
mani,0.016342
mass,0.009883
mathemat,0.113696
mathematician,0.014752
mean,0.013275
measur,0.023682
measuretheoret,0.027937
method,0.082107
militari,0.009749
misunderstand,0.019793
model,0.045044
movi,0.016483
multivari,0.082366
natur,0.006434
necessari,0.009604
neg,0.010451
new,0.005383
nonnumer,0.027627
nonparametr,0.298945
normal,0.067245
number,0.048234
numer,0.008928
observ,0.039771
obtain,0.009367
occur,0.022971
occurr,0.046766
onlin,0.010548
optim,0.012783
option,0.012575
order,0.006641
ordin,0.017775
ordinari,0.013142
organiz,0.015788
origin,0.006679
outcom,0.049286
overlap,0.013395
paramet,0.055578
parameter,0.023568
parametr,0.084237
particular,0.022631
peirc,0.020832
period,0.014322
plan,0.027381
poisson,0.021522
poissontyp,0.096151
polici,0.008918
popul,0.042874
posit,0.007142
possibl,0.007049
predict,0.010112
prefer,0.010582
press,0.008133
probabl,0.188419
procedur,0.036106
process,0.039200
produc,0.007190
properli,0.014533
properti,0.008367
proposit,0.015884
protocol,0.015626
quantifi,0.015529
quantil,0.028273
quantiti,0.022513
question,0.026036
rais,0.010193
random,0.224119
rang,0.008296
rank,0.023336
ratio,0.012463
read,0.007612
real,0.009097
realiz,0.012255
reason,0.007866
receiv,0.008373
refer,0.008765
regard,0.016818
regress,0.224762
reinvigor,0.024912
relationship,0.016732
reli,0.010561
relianc,0.017573
repres,0.007189
requir,0.006899
research,0.007110
result,0.006105
review,0.009820
robust,0.031752
room,0.014217
root,0.011071
s,0.006216
sampl,0.156739
scale,0.009920
scienc,0.014743
scientif,0.008819
secondari,0.024962
seen,0.008600
select,0.009530
set,0.027158
sever,0.006359
simplic,0.035296
singl,0.024490
situat,0.028175
space,0.028214
special,0.015258
specif,0.007298
specifi,0.037206
squar,0.051695
standard,0.016431
star,0.013527
state,0.005337
statibot,0.033062
statist,0.420320
statistician,0.081457
stochast,0.033857
student,0.020765
studi,0.058018
subject,0.015519
subset,0.015299
substanti,0.011323
success,0.024268
successfailur,0.029994
successor,0.013702
suggest,0.008539
sum,0.012168
summaris,0.021758
suppos,0.013403
survey,0.035175
t,0.010613
target,0.011357
techniqu,0.037496
term,0.011528
test,0.029916
theori,0.035750
theorist,0.014217
thi,0.013687
time,0.026985
tool,0.019535
topic,0.019356
total,0.008511
trial,0.013919
ttest,0.027627
typic,0.024550
uncertainti,0.014195
understand,0.008280
uniform,0.028286
univ,0.020670
univari,0.079077
unknown,0.025258
unlik,0.010158
use,0.109654
util,0.011035
valu,0.046909
vari,0.008992
variabl,0.256470
variablestak,0.032050
varianc,0.054938
variat,0.034303
variou,0.013888
vectora,0.032050
virtual,0.012063
vote,0.011567
wa,0.010003
wald,0.025067
welldefin,0.018182
wherea,0.010585
wide,0.007856
wider,0.013889
wish,0.013487
work,0.005980
ye,0.019466
yesno,0.026147
