absolut,0.037621
account,0.026123
accur,0.037789
advent,0.048506
analys,0.086727
ani,0.019547
appear,0.051381
approxim,0.030226
atom,0.038784
behaviour,0.164937
beiser,0.099949
boseeinstein,0.073613
branch,0.056882
caus,0.023908
centuri,0.046002
classic,0.236764
compar,0.052993
concept,0.050002
condit,0.050134
consid,0.020893
core,0.038045
deal,0.086584
descript,0.130998
develop,0.017917
discoveri,0.033555
distanc,0.190755
distribut,0.088682
earli,0.043147
ed,0.060391
effect,0.125725
einsteinian,0.172391
element,0.054864
encount,0.042482
er,0.136281
everyday,0.046076
exampl,0.019317
exist,0.021448
extrem,0.061880
fail,0.032429
fermidirac,0.083003
field,0.023555
foundat,0.030076
freeman,0.057717
ga,0.077609
gener,0.066293
greatli,0.037770
h,0.032039
hallmark,0.070528
high,0.046709
histori,0.019210
howev,0.056156
impli,0.035857
incorpor,0.063344
influenc,0.025403
instead,0.027015
involv,0.089437
isbn,0.054531
lack,0.029403
larg,0.060966
life,0.024787
light,0.031789
limit,0.047097
liter,0.044340
llewellyn,0.079456
low,0.088652
m,0.027576
make,0.019607
maxwellboltzmann,0.172391
mcgrawhil,0.055719
mean,0.021234
mechan,0.113892
middl,0.031789
modern,0.300650
ms,0.057940
natur,0.020583
near,0.031701
new,0.017222
observ,0.025447
onward,0.048878
overview,0.038633
p,0.029432
paradigm,0.046716
phenomena,0.073626
physic,0.428897
portion,0.038743
possibl,0.022550
postnewtonian,0.095123
qm,0.164780
quantum,0.312149
r,0.029585
read,0.024353
realm,0.044293
refer,0.028043
regard,0.026901
rel,0.075423
relativist,0.173686
requir,0.022073
result,0.019531
retriev,0.041658
room,0.045482
roughli,0.117999
said,0.028810
scale,0.031736
sens,0.086556
shift,0.033981
signific,0.049822
sinc,0.019513
small,0.071637
socal,0.039375
speed,0.079813
temperatur,0.078900
tend,0.064091
term,0.055319
th,0.089505
theori,0.068621
thi,0.029192
tipler,0.083982
topic,0.030962
typic,0.052360
uptod,0.074393
use,0.047836
usual,0.023483
veloc,0.153948
veri,0.044571
w,0.032743
zero,0.041039
