abbrevi,0.008098
abov,0.038310
abstract,0.017552
abstractli,0.011582
achiev,0.004182
actual,0.008510
acycl,0.023226
addit,0.026909
adjoint,0.012982
advanc,0.004106
aleq,0.014982
alexandrov,0.028768
algebra,0.114242
allow,0.009919
alphabet,0.016012
alreadi,0.009687
alway,0.017884
ambigu,0.007812
american,0.003767
analysi,0.008016
ani,0.011721
anim,0.004653
anoth,0.025583
antichain,0.014982
antisymmetr,0.024701
antisymmetri,0.015167
antiton,0.032306
appear,0.003851
appli,0.010663
applic,0.023825
approach,0.003826
appropri,0.010659
area,0.006604
arightarrow,0.013927
aris,0.010848
arithmet,0.008118
articl,0.011854
aspect,0.004369
attach,0.006294
avail,0.004064
axiom,0.008291
b,0.127717
background,0.005710
base,0.005794
basi,0.004141
basic,0.016133
becaus,0.003017
becom,0.003209
befor,0.010272
behav,0.007131
besid,0.013718
bigve,0.015167
bigwedg,0.015167
biject,0.011947
binari,0.040031
bird,0.013687
birkhoff,0.023967
book,0.003810
bool,0.011081
boolean,0.040397
bottomup,0.010721
bound,0.101981
branch,0.004263
build,0.004242
burri,0.014259
c,0.011510
cambridg,0.010635
captur,0.016539
care,0.005044
cartesian,0.009216
case,0.010072
categor,0.027303
categori,0.046111
causal,0.007475
centuri,0.003448
certain,0.014700
certainli,0.007664
chain,0.011997
characterist,0.004628
charl,0.005142
check,0.006961
circl,0.006470
circumst,0.006168
class,0.008907
classic,0.008873
clear,0.004997
clearli,0.006037
close,0.014372
closur,0.052033
coarser,0.012921
coarsest,0.014660
coin,0.005560
colimit,0.014814
collect,0.007834
combin,0.003829
come,0.003840
common,0.006494
compar,0.019860
comparison,0.005631
compat,0.007704
compil,0.006928
complement,0.023755
complet,0.018545
complic,0.006086
comput,0.008900
concept,0.052469
concern,0.007540
condit,0.011273
connect,0.026530
consid,0.031320
consider,0.004513
consist,0.007189
constitut,0.008481
construct,0.029111
contact,0.005635
contain,0.019264
context,0.023621
continu,0.006508
contrast,0.009073
conveni,0.007170
convers,0.027704
cooki,0.013111
correspond,0.009750
counterexampl,0.011644
cours,0.004680
cross,0.005861
cyclic,0.008341
d,0.004347
data,0.004286
davey,0.014660
dcpo,0.015855
dedekind,0.011875
defin,0.051600
definit,0.055205
denot,0.006553
depict,0.006699
deriv,0.004083
descent,0.007704
describ,0.003305
diagram,0.044328
dictionari,0.006511
differ,0.008541
direct,0.042795
discret,0.012668
discuss,0.013146
disjoint,0.022451
display,0.006103
displaystyl,0.030760
distinct,0.016545
distribut,0.017725
divid,0.021293
divis,0.018619
divisor,0.011355
doe,0.010901
dog,0.016079
domain,0.015735
draw,0.011011
drawn,0.006338
driven,0.006252
drop,0.005894
dual,0.037858
dualiti,0.027649
dualli,0.014384
earlier,0.004777
earliest,0.005404
easili,0.011079
ed,0.009053
edg,0.035272
edit,0.005060
elabor,0.006728
element,0.242624
ellips,0.011251
ellipsi,0.014259
embed,0.015039
employ,0.004288
empti,0.015417
encyclopedia,0.005568
ensur,0.005312
equal,0.017613
equip,0.005780
equival,0.041666
ernst,0.007838
especi,0.007509
essenti,0.004494
establish,0.003450
euler,0.009038
everi,0.028322
everywher,0.008398
exampl,0.083978
exchang,0.009141
exercis,0.005555
exist,0.041799
explain,0.004352
explicit,0.007060
extend,0.008529
extens,0.004366
extern,0.002528
f,0.023814
fa,0.030733
fact,0.012316
fail,0.009722
familiar,0.006841
far,0.004384
fb,0.038244
feel,0.006044
felix,0.009451
fewer,0.006856
ffx,0.015855
field,0.010593
filter,0.016118
final,0.008364
finest,0.020459
finit,0.066871
fix,0.005132
flip,0.010353
focus,0.009001
form,0.005285
formal,0.034612
foundat,0.004508
fp,0.011081
frame,0.006607
framework,0.004953
free,0.007898
frequent,0.014581
function,0.099117
functor,0.025496
fundament,0.004427
furthermor,0.017775
fx,0.050019
fy,0.010608
g,0.014032
galoi,0.034066
garrett,0.022502
genealog,0.009325
gener,0.027329
georg,0.004983
gierz,0.016153
given,0.069355
glossari,0.008427
graph,0.030770
great,0.003896
greater,0.013064
greatest,0.048675
group,0.003118
grown,0.006658
guarante,0.012684
gx,0.012442
h,0.014408
ha,0.018443
hand,0.004284
hass,0.053906
henc,0.021578
heyt,0.025387
hi,0.003100
hierarchi,0.007045
histori,0.005759
hofmann,0.012306
howev,0.019642
idea,0.011641
ideal,0.022503
idempot,0.013249
ident,0.029704
identifi,0.004179
iff,0.012693
imag,0.005323
immedi,0.015247
impact,0.004738
impli,0.021501
implic,0.006024
import,0.038335
inaccess,0.009618
inappropri,0.009113
incid,0.013682
inclus,0.007122
incompar,0.024980
inde,0.011757
indic,0.004253
induc,0.027385
inf,0.012748
infima,0.064613
infimum,0.081353
infinit,0.020310
inflationari,0.009912
influenti,0.005560
infxi,0.015167
inherit,0.006411
initi,0.003756
insight,0.012827
instanc,0.004682
instead,0.008099
instruct,0.006509
integ,0.049748
intend,0.005352
interestingli,0.011200
interv,0.014568
introduc,0.012167
introduct,0.009167
intuit,0.044390
invers,0.029203
invert,0.056068
investig,0.004844
involut,0.012220
isafactorof,0.016505
isbn,0.016349
isomorph,0.020034
issu,0.003710
item,0.025369
join,0.005142
just,0.040315
justifi,0.006953
k,0.010483
keimel,0.016153
kind,0.013816
known,0.002888
label,0.012440
larger,0.009125
later,0.003437
lattic,0.094814
law,0.003482
lawson,0.011582
lead,0.020693
lemma,0.010030
lesser,0.007086
lessthan,0.016153
like,0.015437
limit,0.003530
limitpreserv,0.016505
line,0.004137
lineal,0.013476
linear,0.024601
linearli,0.010290
link,0.002513
list,0.003214
local,0.011744
locat,0.004249
logic,0.005594
look,0.004772
lower,0.034168
m,0.033070
mainli,0.009596
major,0.006132
make,0.005878
mani,0.041799
map,0.015862
materi,0.004050
mathemat,0.059068
maxim,0.046013
mean,0.012732
meet,0.004676
mention,0.016787
mere,0.017058
method,0.003579
minim,0.042701
mislov,0.016153
monoton,0.113710
moreov,0.006630
morphism,0.011983
motiv,0.005646
multipl,0.004445
n,0.015571
nagel,0.011675
natur,0.040113
nd,0.005377
necessari,0.004606
necessarili,0.005657
negat,0.009198
net,0.006075
new,0.007745
nm,0.009382
node,0.008712
nonempti,0.048085
nonlinear,0.007918
notat,0.015532
note,0.009997
notic,0.006559
notion,0.038278
number,0.083852
numer,0.025692
object,0.003951
obtain,0.031447
occur,0.011016
onli,0.015963
open,0.019784
oper,0.036462
opposit,0.009511
order,0.538278
orderembed,0.048459
orderisomorph,0.032306
orderpreserv,0.029320
orderreflect,0.033010
orderrevers,0.032306
ordertheoret,0.014982
origin,0.003203
p,0.061769
pair,0.024637
partial,0.127603
particular,0.003617
path,0.011720
pediatrician,0.012861
peirc,0.009990
peopl,0.003186
peritem,0.016505
physician,0.007290
pictori,0.011057
place,0.003268
play,0.020865
poc,0.014517
point,0.003352
pointless,0.011675
pointwis,0.013179
poset,0.378867
posit,0.010276
powerset,0.013322
practic,0.003546
preced,0.012558
precis,0.005459
preorder,0.094912
present,0.003313
preserv,0.016758
press,0.007801
previou,0.004997
price,0.004906
priestley,0.010946
primari,0.004374
princip,0.005177
probabl,0.004755
produc,0.003448
product,0.013817
promin,0.005197
proof,0.006757
properti,0.064205
provenmath,0.016153
provid,0.014703
public,0.003337
q,0.022268
quantal,0.014384
quantiti,0.005398
question,0.004162
quit,0.016803
ration,0.005711
rd,0.005934
readili,0.007192
real,0.026176
reason,0.015089
refer,0.004203
reflex,0.027729
rel,0.007537
relat,0.093525
relationship,0.008024
remaind,0.007800
renam,0.014594
replac,0.004283
repres,0.003448
represent,0.005302
requir,0.009926
research,0.003410
respect,0.035976
restrict,0.004871
result,0.011711
revis,0.006281
richard,0.005192
ring,0.007119
rise,0.012689
role,0.018411
s,0.050680
salli,0.011707
sander,0.009543
sankappanavar,0.015597
satisfi,0.006235
scale,0.004757
school,0.004276
schrder,0.012539
scienc,0.007070
score,0.015409
scott,0.023336
scottcontinu,0.016153
second,0.003449
section,0.005208
seen,0.004124
segment,0.007201
selfmap,0.015167
semiord,0.015370
sens,0.012975
separ,0.003840
sequenc,0.005835
set,0.240951
sever,0.003049
similar,0.003493
simpl,0.013944
sinc,0.017551
singleton,0.011910
situat,0.004504
small,0.003579
smaller,0.014922
smallest,0.015227
socal,0.029513
societi,0.003665
sole,0.005937
space,0.009020
special,0.065855
specialcas,0.016505
specifi,0.011895
spirit,0.006609
springer,0.007080
standard,0.003940
state,0.002559
statement,0.005370
stone,0.006533
straightforward,0.009261
strict,0.013595
strictli,0.006899
structur,0.017089
studi,0.012366
subbas,0.015167
subord,0.013927
subposet,0.016505
subset,0.198105
subsetof,0.016505
successor,0.013142
sup,0.012539
superimpos,0.010760
suppos,0.006428
suprema,0.069143
supremum,0.051216
supxi,0.016153
sure,0.008015
surject,0.012748
switch,0.007182
symbol,0.005310
symmetr,0.008330
t,0.005089
taken,0.004283
talk,0.006294
term,0.019349
th,0.003354
theorem,0.032788
theoret,0.019186
theori,0.099438
thi,0.087522
threshold,0.016297
togeth,0.008067
tom,0.008025
tool,0.009368
topdown,0.010468
topolog,0.193186
total,0.020408
transfer,0.005005
transform,0.004788
transit,0.020371
turn,0.020221
type,0.024619
typic,0.003924
ubiquit,0.009225
underli,0.005555
union,0.013041
uniqu,0.009976
unit,0.002950
univers,0.021208
upper,0.094518
upward,0.008143
usag,0.006135
use,0.019122
usual,0.007040
valid,0.005586
vari,0.004312
variou,0.013321
veri,0.006681
vertic,0.015135
view,0.011248
visual,0.018516
wa,0.002398
way,0.012511
weak,0.005810
wellknown,0.006867
wellord,0.025178
wide,0.003767
word,0.008121
work,0.011471
write,0.013721
x,0.103591
xvee,0.015597
xwedg,0.015370
y,0.112134
yield,0.017144
z,0.021411
zero,0.006152
zorn,0.013558
