abelian,0.007757
abov,0.008863
absenc,0.004242
academ,0.003456
accept,0.002897
accord,0.009231
accuraci,0.005005
ad,0.008835
addit,0.007004
admit,0.004866
advanc,0.002850
aix,0.010076
algebra,0.019824
algebraist,0.009739
alon,0.003946
altern,0.002965
alway,0.003103
american,0.002614
analogu,0.012616
analysi,0.008346
analyst,0.010474
analyt,0.021037
ani,0.012203
appear,0.002673
appli,0.019737
applic,0.008268
appreci,0.005120
approach,0.005312
approxim,0.003145
arbitrari,0.014950
aris,0.007530
artist,0.004843
assign,0.004145
assum,0.003197
astronomi,0.005181
attack,0.003720
attempt,0.002632
attent,0.003763
author,0.002598
automat,0.004711
autonom,0.009333
b,0.015284
background,0.003963
bar,0.010433
base,0.002010
bcklund,0.010283
becaus,0.002094
becom,0.002227
began,0.002778
begin,0.002713
beginarrayrclyyyyvdot,0.012140
begincasesmathbb,0.012140
beginpmatrixfxmathbf,0.012140
beginpmatrixynynvdot,0.012140
bernoulli,0.006845
bertrand,0.006061
bibliographi,0.004047
biolog,0.003300
boca,0.007582
boscain,0.012140
boston,0.005130
boundari,0.011654
bracket,0.006639
bristol,0.007301
c,0.010652
cartesian,0.006397
case,0.004660
casorati,0.012140
cauchi,0.007845
cayley,0.008242
cdot,0.071275
celesti,0.005908
centuri,0.002393
certain,0.002550
certifi,0.006081
chang,0.008405
chapman,0.006714
characterist,0.006424
charli,0.007538
chebfun,0.012140
chemistri,0.004084
chitour,0.012140
choic,0.003662
chosen,0.004258
circa,0.006262
clairaut,0.009598
class,0.003091
classic,0.003079
classif,0.008225
classifi,0.007540
clearli,0.004190
clebsch,0.020351
close,0.009975
closedform,0.008194
coddington,0.011456
coeffici,0.010758
collect,0.002718
collet,0.010826
column,0.005295
combin,0.005315
common,0.002253
commun,0.002437
compactli,0.017621
compar,0.002757
competit,0.003665
complementari,0.010875
complet,0.002574
complex,0.005455
comprehens,0.004105
comput,0.021621
condit,0.023474
consequ,0.003169
constant,0.025941
constrain,0.005420
contact,0.003911
contain,0.008022
context,0.006558
continu,0.011293
continuum,0.005563
contrast,0.006297
contribut,0.002736
contributor,0.005453
copasi,0.012140
correspond,0.010152
coupl,0.008627
crc,0.006714
crcpress,0.010826
crell,0.011005
criterion,0.005597
curv,0.009172
d,0.021124
dae,0.028233
dalembert,0.007938
darboux,0.009897
david,0.003311
dawkin,0.007455
deal,0.003003
defin,0.015349
definit,0.014737
degre,0.003052
denot,0.018194
depend,0.012298
deriv,0.031178
describ,0.004588
descript,0.003407
determin,0.002588
did,0.002767
differ,0.001976
differenti,0.283091
diffi,0.010668
difficulti,0.004026
digit,0.004162
dimens,0.004289
disciplin,0.003434
disconnect,0.007219
diseas,0.003904
displac,0.009566
displaystyl,0.140915
distinct,0.002871
dmoz,0.004937
domain,0.032766
dot,0.006024
dover,0.012459
dresner,0.011456
dummi,0.008148
dydxdydxdnydxn,0.012140
dynam,0.013979
earl,0.006786
easili,0.003844
ecolog,0.004229
econom,0.002456
ed,0.012567
edit,0.007025
edward,0.004082
eigenfunct,0.019479
eigenvalu,0.014910
eighteenthcenturi,0.007675
elabor,0.004670
element,0.002854
elementari,0.005062
emphas,0.003938
encyclopedia,0.003865
endpmatrix,0.010399
engin,0.016171
enter,0.003281
environ,0.002975
equat,0.313543
equilibrium,0.004690
equival,0.003615
eqworld,0.009667
erosnet,0.012140
erwin,0.006778
establish,0.002395
euler,0.006273
evolut,0.003643
exact,0.029970
exactli,0.004396
exampl,0.006029
exist,0.011158
expans,0.003786
explicit,0.019602
explicitli,0.004568
explos,0.004975
extend,0.005920
extens,0.006061
extern,0.001754
f,0.135541
fact,0.002849
famili,0.006215
far,0.003043
fertil,0.004704
field,0.012254
final,0.002902
finit,0.004641
firstord,0.020191
fleftxyycdot,0.024281
fleftxyyi,0.024281
florida,0.005891
fmleftxmathbf,0.012140
fmxmathbf,0.012140
follow,0.005759
forc,0.002405
form,0.023847
forth,0.004878
foundat,0.003129
frac,0.005370
franci,0.004595
free,0.005482
french,0.003229
frobeniu,0.009100
fuch,0.008397
fuchsian,0.011456
fulfil,0.004853
function,0.054055
fundament,0.006146
fx,0.020831
fxt,0.010668
fxuu,0.012140
fy,0.007363
gauss,0.007266
gener,0.022418
genet,0.004076
geometr,0.004935
geometri,0.009789
georg,0.003458
gerald,0.012448
given,0.016848
global,0.012748
gnu,0.016297
gpl,0.009984
gradient,0.005710
graphic,0.005161
greater,0.003022
group,0.008659
h,0.013334
ha,0.006400
hallcrc,0.008482
halliday,0.009299
hand,0.005947
handbook,0.019427
harper,0.006181
hartman,0.009533
hazewinkel,0.007254
henc,0.003744
hessian,0.009055
hi,0.004303
highlevel,0.006337
histor,0.005391
hoc,0.006714
holist,0.006166
homogen,0.016215
hope,0.008172
houtain,0.012140
howev,0.001947
hurewicz,0.011212
hypothes,0.004772
ibragimov,0.011005
idea,0.002693
identifi,0.002901
imathrm,0.031199
implicit,0.028105
import,0.006140
inaixyirx,0.012140
includ,0.009995
independ,0.012324
indic,0.005904
industri,0.002739
infecti,0.006428
infinit,0.009398
infinitesim,0.012697
inform,0.002385
infti,0.021978
inhomogen,0.007998
initi,0.026075
inspir,0.003970
instead,0.002810
institut,0.005078
integr,0.057921
intend,0.007430
interpret,0.003201
interv,0.030336
intric,0.006676
introduc,0.002815
introduct,0.009544
introductori,0.005721
invari,0.005306
involv,0.004652
isbn,0.036880
ixhxhsubset,0.012140
j,0.009041
jacobian,0.035549
jcf,0.011456
jersey,0.005942
jiri,0.010076
john,0.002729
johnson,0.005483
julia,0.007175
just,0.002798
key,0.003053
known,0.004010
kreyszig,0.009984
l,0.003532
laboratori,0.004071
lack,0.003059
lagrang,0.007110
lamar,0.010668
languag,0.009047
laplac,0.006889
lautomatiqu,0.012140
law,0.002417
lawrenc,0.005367
lax,0.007740
lccn,0.007428
lead,0.007181
leader,0.003508
leav,0.003397
lebl,0.010826
lectur,0.008725
leftxmathbf,0.036422
leibniz,0.017961
let,0.004495
levinson,0.008604
licens,0.004777
lie,0.031447
like,0.002143
lim,0.029505
limit,0.002450
limsup,0.021337
line,0.002871
linear,0.051226
link,0.001744
liouvil,0.009011
lipschitz,0.019632
list,0.006692
littleknown,0.008968
local,0.013586
london,0.003378
low,0.003074
m,0.025823
main,0.002539
make,0.004080
mani,0.007253
mapl,0.008267
market,0.003003
mass,0.003290
math,0.006219
mathbb,0.007402
mathbf,0.242583
mathemat,0.044153
mathematica,0.006354
mathematician,0.009821
mathrm,0.006397
matlab,0.015839
matrix,0.025179
max,0.014707
maxim,0.004562
maxima,0.008292
maximum,0.030537
mcgrawhil,0.011595
mean,0.006628
mechan,0.005925
meet,0.003246
memoir,0.006473
mere,0.003946
meteorolog,0.005882
method,0.022361
mfrac,0.008242
michiel,0.007110
michigan,0.005789
mid,0.003994
middl,0.003307
model,0.009995
modul,0.005417
motion,0.008096
moussiaux,0.012140
mr,0.010787
multipl,0.003085
multipli,0.005171
mxi,0.012140
n,0.129700
nail,0.007376
natur,0.002141
nd,0.003732
ndimension,0.007612
necessarili,0.003927
nendpmatrixbeginpmatrixvdot,0.012140
net,0.004217
new,0.017919
newton,0.015195
nfxmathbf,0.012140
nineteenth,0.005018
nmathbf,0.009984
nonhomogen,0.009739
nonlinear,0.032977
nonsigular,0.012140
nonsingular,0.028062
norman,0.005652
notabl,0.003078
notat,0.043125
note,0.018504
novel,0.004440
nright,0.009147
nrightarrow,0.009055
nrightboldsymbol,0.012140
nrightendpmatrix,0.012140
nrightfleftxmathbf,0.012140
nrightvdot,0.012140
nth,0.008060
nthorder,0.011005
ntime,0.009984
number,0.006020
numer,0.014860
nvdot,0.011456
nxi,0.010527
object,0.002742
obtain,0.003118
octav,0.008104
ode,0.168856
older,0.004209
omega,0.013148
onetoon,0.007131
onli,0.001846
onlin,0.003511
open,0.019225
opensourc,0.007402
oper,0.005061
opposit,0.003300
order,0.033161
ordinari,0.100618
orthogon,0.013590
packag,0.020343
pair,0.004275
parallel,0.004156
partial,0.044284
particl,0.008624
particular,0.007533
paul,0.006974
pdf,0.004643
perhap,0.003729
phenomena,0.003830
philadelphia,0.012201
philip,0.004931
physic,0.023625
picardlindelf,0.021054
plane,0.004831
pm,0.006076
polyanin,0.020566
popul,0.005708
posit,0.002377
possibl,0.011731
power,0.002354
precis,0.003789
prenticehal,0.006962
present,0.002300
press,0.005415
presum,0.005135
price,0.003405
primarili,0.006289
primer,0.006653
primit,0.005090
problem,0.017222
product,0.002397
program,0.005787
promin,0.003607
properti,0.011141
propos,0.002838
provid,0.006123
public,0.004633
publish,0.005106
px,0.008292
py,0.008887
python,0.007242
qs,0.009100
quadratur,0.017621
quantiti,0.011241
question,0.002888
qx,0.009354
qy,0.011212
r,0.049254
rare,0.003785
rate,0.008552
ration,0.007929
raton,0.007845
rd,0.016477
reaction,0.003741
real,0.009084
receiv,0.002787
recogn,0.003128
rectangl,0.007757
recurr,0.006268
recurs,0.006360
reduc,0.002763
reduct,0.016791
refer,0.002917
regular,0.003997
relat,0.003934
relationship,0.002784
remain,0.002412
repres,0.007179
requir,0.002296
research,0.002366
resnick,0.008927
respect,0.011098
restrict,0.006762
result,0.006096
rewritten,0.007266
riccati,0.010527
rightboldsymbol,0.011456
robert,0.003207
rx,0.034416
rxaxatim,0.012140
said,0.002997
satisfactori,0.006639
satisfi,0.021639
scheme,0.004391
scienc,0.002453
scientif,0.002935
scientist,0.003336
scilab,0.029952
scipi,0.010283
second,0.004789
secondord,0.007242
separ,0.002665
seri,0.002906
set,0.011300
sever,0.004233
simmon,0.008292
simpl,0.006452
simpli,0.003313
simplifi,0.004728
sinc,0.006091
singular,0.032104
slp,0.027589
smaller,0.003452
smallsetminu,0.012140
social,0.002583
societi,0.005087
softwar,0.021509
solut,0.180645
solv,0.037368
solver,0.007691
son,0.003887
soon,0.003723
sophu,0.009299
sourc,0.015324
south,0.003179
special,0.005078
specif,0.004858
springer,0.004914
squar,0.004301
standard,0.002734
start,0.002570
state,0.003553
statist,0.003331
stem,0.004564
stock,0.003917
structur,0.002372
studi,0.008583
sturm,0.008703
sturmliouvil,0.032005
subject,0.007749
subsequ,0.003168
substitut,0.009023
suffic,0.014159
suffici,0.003753
summari,0.004886
summat,0.007000
surfac,0.003676
symbol,0.003686
symmetri,0.011305
t,0.017664
tabl,0.003907
taken,0.002973
task,0.003766
taxonomi,0.005841
taylor,0.005109
team,0.004240
technic,0.003611
term,0.009593
terminolog,0.004781
teschl,0.018708
textbook,0.004576
tfxt,0.012140
theorem,0.036413
theori,0.045220
thereaft,0.005309
therefor,0.005519
thi,0.022781
thom,0.008848
thu,0.004747
time,0.010779
tipler,0.008738
topic,0.003221
transcend,0.005743
transform,0.026590
treatis,0.004898
trend,0.003878
trivial,0.006061
tutori,0.006730
type,0.002441
u,0.047377
ugo,0.009299
uiuc,0.010527
unchang,0.005414
understand,0.002756
undetermin,0.008171
unifi,0.004250
uniqu,0.034622
univers,0.006309
unknown,0.012611
unless,0.004550
unquad,0.012140
use,0.019909
usual,0.004886
uxvxquad,0.012140
v,0.032584
valu,0.015614
valuabl,0.004766
vari,0.002993
variabl,0.029694
variat,0.007612
variou,0.004623
vector,0.019642
vectorvalu,0.010668
veri,0.002318
version,0.003551
view,0.005204
vol,0.004363
w,0.003406
wa,0.011654
way,0.002171
weather,0.004979
wherea,0.003523
wiley,0.014905
witold,0.010668
wolframalpha,0.011212
work,0.005971
world,0.002058
worth,0.004597
writer,0.004167
written,0.019288
x,0.248066
xaxa,0.012140
xfd,0.012140
xfrac,0.007597
xin,0.023025
xmathbf,0.019632
xpm,0.040703
xt,0.015839
xtmathrm,0.011005
xto,0.028412
xxxpm,0.012140
xy,0.014350
xycdot,0.011755
y,0.674549
yacin,0.012140
ybyb,0.012140
yc,0.019795
ycdot,0.011005
yddot,0.012140
yendcas,0.012140
yfxyquad,0.012140
yield,0.003966
yinfti,0.024281
yiyi,0.011456
ymnendpmatrixbeginpmatrixfleftxmathbf,0.012140
ymx,0.012140
yn,0.017476
ynendarray,0.012140
ynfxycdot,0.012140
ynquad,0.012140
ynright,0.024281
ynrightyn,0.024281
ynsum,0.012140
ynycdot,0.012140
ynynynfxycdot,0.012140
york,0.018763
yoverset,0.012140
yp,0.021653
yx,0.037644
yxfrac,0.011212
yxrightarrow,0.024281
yxxi,0.012140
yy,0.018392
yyx,0.012140
yyxfrac,0.012140
zaitsev,0.019968
zero,0.004270
zwilling,0.011005
