abbrevi,0.011553
abov,0.006072
absolut,0.008045
abstract,0.016693
ac,0.012917
academ,0.021313
academi,0.009137
accomplish,0.009532
achiev,0.023868
activ,0.009465
addit,0.004798
address,0.007142
administr,0.006632
affect,0.012396
agenc,0.007461
alchemi,0.028696
alchemist,0.030589
alchimista,0.048321
allow,0.018867
altern,0.006094
american,0.010748
analys,0.009273
analysi,0.011435
analyt,0.025943
analyz,0.015946
andor,0.041503
ani,0.004180
anoth,0.004562
antoin,0.013012
appli,0.015212
applic,0.016994
area,0.014133
art,0.007256
artifici,0.008009
aspect,0.012468
assess,0.016158
assign,0.008520
assist,0.007072
associ,0.013900
assur,0.010807
astrochemistri,0.016701
atmospher,0.009292
atom,0.016588
avail,0.005798
averag,0.007084
award,0.025086
bachelor,0.061762
basi,0.005908
becam,0.005227
becaus,0.008610
becom,0.013735
begin,0.011153
belong,0.008081
big,0.008660
biochemistri,0.034104
biographi,0.011032
biolog,0.020349
bond,0.008169
branch,0.006082
burn,0.009804
businessorganizationenterpris,0.024160
calculu,0.010690
capabl,0.007543
carbon,0.009336
care,0.014392
career,0.009396
categor,0.009737
central,0.005369
centuri,0.004918
certain,0.005242
chang,0.004318
chemic,0.284464
chemist,0.561445
chemistri,0.612887
chemistryrel,0.184351
chemistryviewsorg,0.024160
chemoinformat,0.017684
chimista,0.024160
chm,0.022251
choic,0.007526
choos,0.008240
chymist,0.019225
classic,0.006329
clinic,0.009990
close,0.010251
closetosam,0.024160
colleg,0.016631
combin,0.010925
commercialscal,0.023043
commonli,0.019086
commonwealth,0.009895
commun,0.005009
comparison,0.016067
compet,0.015797
complet,0.005291
complex,0.011212
complic,0.017364
compon,0.006597
composit,0.031769
compound,0.025898
comput,0.019044
concern,0.005378
condens,0.011085
conserv,0.007605
construct,0.005932
consult,0.008847
control,0.015270
convert,0.007810
cosmochemistri,0.016611
costeffect,0.014680
creat,0.009372
creation,0.006973
credenti,0.014271
credit,0.007414
crossdisciplinari,0.015807
culmin,0.010151
current,0.004904
deal,0.006172
degre,0.100389
demand,0.006840
depart,0.013435
depend,0.010110
depress,0.009519
deriv,0.011650
describ,0.004715
design,0.016882
develop,0.030653
differ,0.020308
difficult,0.006682
disciplin,0.021179
discov,0.013494
discoveri,0.028703
distinct,0.035405
divid,0.006075
dmitri,0.014909
doctor,0.009143
drug,0.018072
duti,0.018234
dynam,0.007183
earlier,0.006816
econom,0.010095
educ,0.058763
electrochemistri,0.031293
element,0.005866
emphas,0.008095
employ,0.024473
end,0.005043
endeavor,0.012160
energet,0.012498
engin,0.026590
english,0.006424
enjoy,0.008781
enterpris,0.043412
entiti,0.007826
entrepreneur,0.011617
environment,0.037078
equat,0.007671
equip,0.008246
especi,0.016068
evalu,0.015984
exact,0.017599
exampl,0.004131
excel,0.009978
exclud,0.008677
exist,0.004586
experi,0.068067
experiment,0.007704
factor,0.029242
field,0.040298
finish,0.010614
firm,0.024714
forc,0.004943
forens,0.026424
formal,0.006172
formul,0.007898
function,0.005049
fund,0.006800
fundament,0.006316
gain,0.006000
gener,0.003544
genet,0.008377
geochemistri,0.015032
given,0.029682
glass,0.010872
goal,0.006784
gold,0.017154
good,0.005483
govern,0.009380
great,0.005559
greek,0.006984
green,0.008482
guid,0.006973
guidanc,0.011121
ha,0.016444
handbook,0.009982
hi,0.004422
higher,0.023455
highest,0.037765
hire,0.032308
histori,0.020541
hold,0.011882
holder,0.022427
honor,0.020406
identif,0.009715
import,0.012620
importantli,0.011302
includ,0.023967
incorpor,0.006773
independ,0.010132
index,0.007835
individu,0.005087
industri,0.028149
influenti,0.007932
inorgan,0.057659
inspect,0.012324
instead,0.005777
institut,0.005219
instrument,0.022784
intens,0.008191
interact,0.006154
intermedi,0.009693
invent,0.008025
involv,0.043034
iron,0.008833
ist,0.017494
job,0.085176
journal,0.006343
kind,0.006569
kinet,0.011164
kingdom,0.006560
know,0.007473
knowledg,0.012406
known,0.004121
labor,0.008097
laboratori,0.025106
larg,0.013037
largescal,0.009608
latin,0.015501
lavoisi,0.014290
law,0.014903
lead,0.004920
leadership,0.008946
leadershipmanag,0.024160
learn,0.006927
led,0.015966
legal,0.006804
level,0.034517
link,0.007171
list,0.032096
literatur,0.007367
live,0.005331
long,0.005353
luminari,0.017684
main,0.005220
major,0.013123
make,0.004193
manag,0.023621
mani,0.026088
mankind,0.011899
manner,0.007957
manufactur,0.007863
manufacturingproduct,0.024160
market,0.006172
mass,0.006762
master,0.026399
materi,0.028890
mathemat,0.012964
matter,0.012404
measur,0.005400
mechan,0.018267
medic,0.007593
medicin,0.031445
mediev,0.008794
member,0.005260
mendeleev,0.016795
metal,0.008581
metallurgist,0.021134
method,0.025533
modern,0.004945
molecul,0.008903
molecular,0.043091
monetari,0.008839
ms,0.024781
mystic,0.012160
nanotechnolog,0.013371
natur,0.004401
necessari,0.006571
need,0.009913
new,0.022098
news,0.008999
nobel,0.019196
nonprofit,0.011891
nonresearch,0.023043
noun,0.012976
nuclear,0.016850
number,0.004124
obtain,0.012817
occup,0.008591
occur,0.005238
oenolog,0.018033
ondemand,0.018433
onli,0.003795
oper,0.010403
organ,0.026984
organometal,0.030644
orient,0.008591
ought,0.011836
outlook,0.011820
overlap,0.036656
overview,0.008261
paper,0.006803
particular,0.025805
partli,0.008865
parttim,0.014509
patent,0.022005
peopl,0.004545
perform,0.017389
period,0.004899
person,0.005395
petrochemistri,0.017959
pharmaceut,0.022465
pharmacist,0.032878
pharmacolog,0.012871
phase,0.007929
phd,0.063928
phenomena,0.007872
phenomenon,0.008491
philosophi,0.014039
photochemistri,0.017095
physic,0.064743
phytochemistri,0.017818
place,0.004663
plan,0.006244
plant,0.014317
polym,0.024781
posit,0.053752
postdoctor,0.016014
preciou,0.012409
prefer,0.021720
primari,0.006241
primarili,0.006462
principl,0.005675
prize,0.017636
problem,0.005056
process,0.022348
product,0.024639
profession,0.022983
professor,0.016900
program,0.011895
proper,0.008482
properti,0.040072
proport,0.007817
protosci,0.016941
provid,0.004194
public,0.009523
pure,0.007476
purpos,0.012300
qualiti,0.035223
quantit,0.008784
quantiti,0.015402
quantum,0.038145
radiolog,0.015032
rare,0.007781
rate,0.005859
raw,0.009781
rd,0.008466
reaction,0.030756
reason,0.005381
receiv,0.005728
recess,0.010732
reduction,0.015134
refer,0.005997
rel,0.010752
relat,0.032344
relationship,0.005723
replac,0.006110
report,0.005763
reproduc,0.010173
request,0.009114
requir,0.028322
research,0.034052
researchori,0.017888
resourc,0.006070
respect,0.005702
respons,0.020803
role,0.021011
rolesposit,0.024160
root,0.007574
routin,0.021528
royal,0.023735
rule,0.005473
russian,0.008778
sale,0.008735
sampl,0.008935
scarc,0.011483
scienc,0.060519
scientif,0.024136
scientist,0.020570
second,0.004921
seek,0.020185
select,0.006520
senior,0.009938
servic,0.017527
sever,0.013051
share,0.005843
similar,0.009966
simpler,0.011127
sinc,0.012519
site,0.007029
size,0.006498
skill,0.008039
smaller,0.007096
societi,0.036600
solv,0.007680
sometim,0.005432
somewhat,0.008847
special,0.026096
specialist,0.010354
specif,0.014979
spectroscopi,0.012478
staff,0.039352
standard,0.011241
start,0.005282
state,0.003651
statist,0.006846
step,0.007076
structur,0.014627
structureact,0.018433
student,0.014206
studi,0.048513
subdisciplin,0.045499
substanc,0.052642
suitabl,0.009264
supervis,0.019957
supervisor,0.014572
supramolecular,0.016397
surfac,0.007556
swedish,0.011381
synthes,0.021690
synthesi,0.009317
systemat,0.007973
tabl,0.008031
task,0.054192
tasksobject,0.024160
team,0.008715
technic,0.014844
technician,0.093411
technologist,0.065108
temporari,0.009842
tend,0.006853
term,0.003943
test,0.006822
th,0.004785
theoret,0.041056
theori,0.004891
therapeut,0.012314
thermochemistri,0.016656
thermodynam,0.010711
thi,0.009364
thu,0.009756
titl,0.022472
today,0.005995
topic,0.006621
trace,0.008002
train,0.021619
transform,0.006831
troubleshoot,0.019005
typic,0.016796
undergradu,0.011115
understand,0.016994
unfamiliar,0.014488
unit,0.008418
univers,0.008644
use,0.027279
usual,0.015066
valid,0.007969
vari,0.018456
varieti,0.006266
veri,0.004765
visibl,0.009224
visit,0.008384
wa,0.017108
war,0.005928
web,0.009047
websit,0.023673
wellround,0.021134
word,0.011585
work,0.032729
worker,0.015537
workersscientist,0.024160
world,0.008461
write,0.006525
year,0.012635
