aberr,0.051210
accord,0.048873
actual,0.020850
adapt,0.025942
adularesc,0.085706
allow,0.016201
alsoedit,0.051292
alway,0.021907
amput,0.061686
ampute,0.069869
ani,0.057432
anoth,0.015669
appear,0.056610
appli,0.034832
apprehend,0.053529
archetyp,0.095475
associ,0.015914
aster,0.066856
atmospher,0.031915
attitud,0.033445
aventuresc,0.085706
baffl,0.063021
basi,0.020292
becaus,0.014787
befor,0.016777
behavior,0.069130
believ,0.020317
came,0.021511
chang,0.029666
chatoy,0.079148
color,0.032777
columbia,0.036595
come,0.018819
common,0.015910
commonli,0.021852
compil,0.033949
concern,0.036948
condit,0.018412
contrast,0.044458
cradl,0.052918
curios,0.047024
data,0.021001
defi,0.099527
definit,0.020807
describ,0.016197
deserv,0.046610
design,0.019328
dictionari,0.063809
directli,0.021144
discours,0.036033
display,0.029907
dissert,0.044818
distinct,0.020267
doubl,0.029135
effect,0.030782
emerg,0.020305
encyclopedia,0.027286
energi,0.022179
engin,0.022832
entiti,0.026881
equilibrium,0.033111
especi,0.055191
essenc,0.035788
event,0.144323
exampl,0.042567
experi,0.058447
experienc,0.056886
explan,0.027888
extern,0.012388
extraordinari,0.082705
fact,0.020115
feel,0.029617
field,0.017301
form,0.012949
galilei,0.046867
galileo,0.041707
gem,0.053017
gemedit,0.085706
gemolog,0.072591
gottfri,0.044694
graviti,0.036935
greek,0.023990
group,0.106972
ha,0.022592
heavili,0.027312
herd,0.045203
hi,0.015190
howev,0.013749
human,0.032643
immanuel,0.085516
implicit,0.039681
import,0.014448
inaugur,0.039137
incid,0.033521
individu,0.052423
infer,0.032557
influenc,0.018659
inform,0.016842
inquiri,0.033791
instrument,0.026086
intellig,0.026433
internet,0.027791
interpret,0.022601
interrel,0.041352
investig,0.047477
iridesc,0.071834
isaac,0.036666
judgment,0.035902
jung,0.052438
kant,0.163931
known,0.014154
labradoresc,0.085706
laden,0.054409
languag,0.021289
larger,0.022356
leibniz,0.042266
limb,0.132987
link,0.012315
linksedit,0.051717
list,0.015748
local,0.019182
logic,0.054823
longer,0.023358
lustr,0.064243
manifest,0.097740
matter,0.021303
mean,0.015596
mechan,0.020914
mechanicaledit,0.085706
medic,0.026080
mental,0.030645
mind,0.026707
modern,0.067948
moon,0.036880
motion,0.057154
natur,0.015119
newton,0.071513
notabl,0.021731
note,0.016328
noumenon,0.284531
object,0.058078
observ,0.130838
occurr,0.146524
onli,0.026072
optic,0.034069
orbit,0.035918
ordinari,0.061764
organ,0.030894
otherwis,0.026938
paranorm,0.056181
particular,0.035453
particularli,0.019860
pauli,0.051047
pendulum,0.107058
peopl,0.031228
person,0.018531
phainein,0.080873
phainmenon,0.079148
phantom,0.056181
phenomena,0.270399
phenomenolog,0.042825
phenomenon,0.466672
phenomenonphenomena,0.085706
philosoph,0.099430
philosophi,0.048222
physic,0.074125
physiolog,0.033357
playofcolor,0.085706
plural,0.036421
popular,0.040522
posit,0.016783
possibl,0.049691
present,0.016237
principl,0.038988
provid,0.014408
psychoid,0.080873
punish,0.035724
quotat,0.043135
realism,0.040180
realiti,0.028015
record,0.021709
refer,0.041196
referencesedit,0.050729
relat,0.027773
report,0.039590
requir,0.016213
restrict,0.023870
scientif,0.041450
scientificedit,0.074316
scientist,0.023551
seen,0.020208
sens,0.021192
sensat,0.125948
sensepercept,0.070480
sensibl,0.045558
sentient,0.049082
serv,0.020501
set,0.015954
shine,0.048633
shun,0.053017
signific,0.018297
social,0.018234
socialedit,0.080873
societi,0.017958
sourc,0.018029
spacetim,0.043751
special,0.017926
state,0.012541
studi,0.015148
subject,0.018234
technic,0.025492
term,0.081266
theori,0.016801
theoriz,0.039001
thi,0.053606
thing,0.045615
thu,0.033511
type,0.017233
typic,0.038459
understand,0.019456
understood,0.026900
untoward,0.073414
unusu,0.104255
usag,0.090194
usageedit,0.161747
use,0.058560
usual,0.017249
variou,0.016317
verb,0.047401
visual,0.030242
wa,0.011752
way,0.015326
wikiquot,0.054295
wiktionari,0.053850
wilhelm,0.036083
world,0.029064
worthi,0.045203
wrote,0.024421
