abil,0.005926
abnorm,0.010720
academ,0.006451
academi,0.008298
accompani,0.008327
accumul,0.008263
achiev,0.010837
acid,0.026036
acquir,0.007016
action,0.005292
ad,0.010994
adam,0.008741
adapt,0.020577
admit,0.009083
advoc,0.007394
ag,0.012994
aid,0.006462
air,0.006617
alfr,0.008826
algal,0.030504
aliv,0.010763
allow,0.008567
alongsid,0.017917
american,0.034163
amsterdam,0.010956
anatom,0.011489
anatomi,0.030348
ancient,0.018723
anderson,0.011226
andrew,0.008748
ani,0.003796
anim,0.078380
antisept,0.016515
ap,0.013012
appareil,0.019912
appear,0.004989
appli,0.009209
applic,0.005144
apport,0.015831
approach,0.004957
argu,0.005730
aristotl,0.017759
arteri,0.012729
aspect,0.011322
associ,0.008415
attempt,0.004913
attribut,0.006696
august,0.006545
autoimmun,0.015005
award,0.015187
axel,0.014543
b,0.011411
bacteri,0.045009
barbara,0.011405
barrsinoussi,0.019649
bartholomew,0.014746
base,0.022520
basi,0.005365
basic,0.005225
bc,0.007684
beaumont,0.017164
becam,0.004747
becom,0.004157
began,0.005186
begin,0.005064
belief,0.006952
benjamin,0.009848
berkeley,0.010144
berlinheidelberg,0.019410
bernard,0.010116
better,0.005857
bh,0.015339
bibliographi,0.007553
bile,0.059271
binet,0.016739
biochem,0.010678
biochemistri,0.020647
biolog,0.024640
biologist,0.009718
biomolecul,0.012892
biophys,0.011518
black,0.021029
blackburn,0.014854
blackwel,0.010858
blood,0.033833
bodi,0.052119
book,0.004936
boston,0.019151
brain,0.008311
brookscol,0.016309
buchanan,0.014237
buck,0.014967
burggren,0.020541
c,0.014912
california,0.015935
cambridg,0.027558
came,0.005687
cannon,0.024163
capillari,0.013965
carl,0.008685
carol,0.012892
carri,0.005607
categor,0.008842
caus,0.013929
cd,0.011974
celebr,0.017931
cell,0.074814
cellular,0.009625
centenari,0.029086
center,0.005548
central,0.004876
centuri,0.013400
champion,0.010799
chemic,0.013247
chemistri,0.007624
choler,0.018992
civil,0.005967
claud,0.011269
claudi,0.020541
claudiu,0.014817
close,0.004654
club,0.010088
coagul,0.016515
cold,0.008292
colleg,0.007551
commun,0.009098
compani,0.005493
compar,0.025729
complex,0.005091
compos,0.006600
composit,0.007212
concept,0.004855
condit,0.004868
connect,0.022913
consist,0.013970
constanc,0.013651
constitut,0.005493
continu,0.004215
control,0.004622
convert,0.007092
coordin,0.007375
cori,0.048929
correspond,0.018948
creat,0.004255
critic,0.005117
cs,0.010630
culli,0.019912
cum,0.028088
curriculum,0.010777
cw,0.016445
cybernet,0.012433
cycl,0.014265
cytoarchitectur,0.018992
d,0.011265
date,0.011630
death,0.006093
decreas,0.006851
defens,0.007636
describ,0.004282
develop,0.003479
development,0.009794
devot,0.008224
dh,0.015778
diagnos,0.011269
did,0.005164
differ,0.003688
differenti,0.007045
dine,0.014543
disciplin,0.012822
discov,0.024509
discoveri,0.032583
diseas,0.021865
disord,0.008969
dissect,0.012858
dissemin,0.010835
distinct,0.005358
divid,0.005517
divis,0.006030
doctor,0.008303
dog,0.010415
dri,0.009113
drug,0.008206
e,0.005638
earth,0.006576
eckert,0.017259
ecolog,0.023681
ecophysiolog,0.034329
ed,0.046913
edit,0.032781
educ,0.010673
egypt,0.008846
elabor,0.008716
elect,0.012356
electr,0.006926
elion,0.019649
elizabeth,0.009965
elsevierap,0.020541
elsharoud,0.020541
emot,0.017210
emphasi,0.007598
employ,0.005556
en,0.010293
endocrin,0.013392
energi,0.005864
enid,0.018321
enquiri,0.012682
entir,0.005433
environ,0.016658
environment,0.006734
enzym,0.010183
ep,0.013583
equal,0.011409
equip,0.007489
essenti,0.011646
eukaryot,0.011538
eventu,0.005953
everi,0.005241
evolutionari,0.016506
exampl,0.003751
exclud,0.007880
exercis,0.007197
exist,0.004165
expand,0.005925
experi,0.005151
experiment,0.013993
extern,0.003275
factori,0.009165
father,0.007364
fb,0.016515
femal,0.016820
ferment,0.012297
fernel,0.019649
field,0.018298
figur,0.006203
filament,0.026095
findesicl,0.019912
fish,0.007815
florenc,0.012057
flow,0.006596
focu,0.012290
form,0.013695
formal,0.005605
foster,0.028727
foundat,0.005841
founder,0.007851
franois,0.016244
freeliv,0.015943
freeman,0.011209
french,0.018084
frequent,0.006296
function,0.077962
fungal,0.026825
fzildi,0.020541
ga,0.007536
gadd,0.020541
galen,0.077053
galenu,0.041082
gender,0.019205
gener,0.003218
genet,0.015216
georg,0.012911
gerti,0.017357
gertrud,0.015623
given,0.004492
global,0.005948
glucos,0.012533
glycogen,0.030770
goal,0.006161
gout,0.017073
greec,0.008466
greek,0.006342
greider,0.018473
griffin,0.014098
growth,0.005669
h,0.006222
ha,0.005973
haeckel,0.014044
haldan,0.013965
harrison,0.012793
heart,0.008221
henri,0.007219
herp,0.016901
hi,0.016065
hill,0.008910
hippocr,0.077969
histori,0.003730
hitch,0.016739
hiv,0.013012
homeostasi,0.041302
homeostat,0.016445
hot,0.009863
hugh,0.010511
human,0.073363
humor,0.024261
humour,0.057184
husband,0.011668
hutner,0.019912
huxley,0.025427
hyde,0.029857
ida,0.011773
idea,0.010054
identif,0.008823
imbal,0.011617
immunodefici,0.031451
implement,0.006236
incessantli,0.017164
includ,0.018656
incorpor,0.006150
india,0.006857
individu,0.004620
industri,0.005112
inflamm,0.013840
influenti,0.007204
inform,0.008906
initi,0.004866
injuri,0.009929
insect,0.010177
inspir,0.007411
instrument,0.006897
integr,0.021621
interact,0.005588
interieur,0.019912
intern,0.007850
intrins,0.009483
introduc,0.010508
involv,0.008684
isbn,0.005295
ivan,0.012045
j,0.005625
jack,0.010590
jame,0.006317
jean,0.009289
join,0.006662
joseph,0.007381
js,0.014967
juli,0.006469
jw,0.015430
k,0.013581
kim,0.012518
knowledg,0.011267
known,0.022454
knut,0.015252
krogh,0.014576
kt,0.015525
l,0.006592
labor,0.014707
lactic,0.046721
larcher,0.019193
larg,0.003946
later,0.017814
laybournparri,0.020541
led,0.004833
leetham,0.020541
leukemia,0.014642
levandowski,0.039825
level,0.013434
life,0.019255
like,0.003999
linda,0.012350
link,0.006512
lister,0.015167
live,0.019367
liver,0.011752
lobban,0.019912
locat,0.005505
logia,0.013102
london,0.006305
luc,0.015831
m,0.026777
ma,0.009458
machin,0.007230
mainten,0.008983
major,0.015890
make,0.007615
malaria,0.013392
man,0.006625
mani,0.006769
marieb,0.020207
mark,0.006012
massachusett,0.009819
matthia,0.013889
max,0.009150
mcclintock,0.032363
mcgrawhil,0.010821
mean,0.008247
meant,0.007680
mechan,0.027648
medic,0.020686
medicin,0.078531
melancholi,0.016515
member,0.004777
membran,0.010603
men,0.006943
metabol,0.029773
metabolom,0.017164
mg,0.013697
michael,0.006891
microbi,0.049845
milieu,0.013940
milneedward,0.039298
moat,0.016901
modif,0.008900
molecular,0.015653
montagni,0.018992
moreov,0.008590
moy,0.018043
mp,0.011043
muscl,0.020769
natur,0.011992
nd,0.006966
nerv,0.011518
nervou,0.010252
neurophysiolog,0.014098
new,0.016723
nobel,0.078448
nonappli,0.019410
nonprofit,0.010799
normal,0.011936
note,0.008634
notion,0.014168
nutrit,0.010756
ny,0.021671
occur,0.014272
odor,0.014125
offici,0.011369
olfactori,0.015430
onli,0.006893
oper,0.004723
organ,0.053095
organism,0.013940
origin,0.004149
outlin,0.007288
overlap,0.008322
oxford,0.007035
p,0.005716
particular,0.004686
patholog,0.010644
pavlov,0.014928
pc,0.012155
pearsonbenjamin,0.020541
perform,0.005263
pergamum,0.017164
phenomena,0.007149
phlegm,0.033325
phlegmat,0.018634
phosphatecontain,0.019193
physi,0.014928
physic,0.014699
physician,0.009445
physiolog,0.881977
physiologist,0.067064
physiologyinfoorg,0.020541
physiom,0.018634
pj,0.014325
plant,0.058508
play,0.010812
plethora,0.014711
pm,0.011341
power,0.004394
practic,0.004593
precis,0.007072
press,0.020214
previou,0.006474
primari,0.005667
princip,0.006707
principl,0.005154
prize,0.072071
probe,0.010678
process,0.008118
produc,0.004467
product,0.008950
promin,0.006733
promot,0.006125
propos,0.005297
protist,0.013674
protistan,0.020541
protozoa,0.028711
provid,0.003809
pub,0.012842
public,0.012972
publish,0.004765
qualiti,0.006397
radic,0.007871
raff,0.017565
randal,0.013392
rank,0.007249
rapid,0.007441
rate,0.010642
rd,0.007688
receiv,0.020810
recent,0.004715
recept,0.010777
receptor,0.011597
recipi,0.010511
refer,0.005446
reflex,0.011974
regard,0.005224
regul,0.019340
relat,0.003671
relationship,0.005197
renam,0.009454
repres,0.004466
research,0.017670
resembl,0.008590
respect,0.005178
respons,0.009446
result,0.007586
reward,0.009420
richard,0.006727
role,0.004770
room,0.008832
ross,0.011141
royal,0.007185
ruth,0.013454
rw,0.016901
s,0.003862
salisburi,0.016181
saliva,0.015573
sanguin,0.016901
sarah,0.013083
saunder,0.013233
saw,0.006663
schleiden,0.016244
schmidtnielsen,0.039825
schult,0.017915
schwann,0.015385
scienc,0.018319
scientif,0.021919
seawe,0.015778
second,0.008938
seek,0.006110
sensat,0.011100
sever,0.003950
sh,0.013940
signal,0.007835
signific,0.004837
sinauer,0.035830
sir,0.008554
site,0.006383
size,0.005901
skelet,0.013272
skelton,0.018634
slide,0.023656
smith,0.008029
societi,0.052231
soon,0.006949
sound,0.007979
sourcebook,0.014416
sowton,0.020541
spawn,0.012081
specif,0.004534
spector,0.017565
sponsor,0.009501
springer,0.009173
springerverlag,0.011773
state,0.009948
steadi,0.009713
stewart,0.012033
stimuli,0.011597
strang,0.011243
structur,0.008855
studi,0.048061
subdisciplin,0.030989
subdiscplin,0.020541
substanc,0.015935
substanti,0.007035
sunderland,0.035131
surgeri,0.010685
surgic,0.011480
swedish,0.010335
syndrom,0.011548
szostak,0.016739
taiz,0.018992
taken,0.005549
tandem,0.013697
taxa,0.013083
team,0.007914
telomer,0.016445
telomeras,0.017793
tempera,0.013583
term,0.003581
terri,0.012809
th,0.034765
theodor,0.010372
theori,0.022211
thereaft,0.009909
thi,0.005669
thing,0.006030
think,0.006572
thought,0.005371
tie,0.014784
time,0.003353
tissu,0.009158
today,0.005444
took,0.005920
tool,0.006068
transmiss,0.009362
transposit,0.015045
treatment,0.006971
tribe,0.009329
twentieth,0.008941
ultim,0.013109
understand,0.010288
unifi,0.007932
unit,0.003822
univers,0.015700
unlik,0.006311
unshar,0.017915
use,0.003096
util,0.013712
vander,0.018807
variat,0.007104
varieti,0.005690
vein,0.011287
verworn,0.020541
viral,0.037299
viru,0.011548
visual,0.007996
vivisect,0.016515
volum,0.006491
w,0.038153
wa,0.034181
walter,0.009040
water,0.005846
way,0.008104
wet,0.011314
wh,0.013815
widmaier,0.020541
wileyliss,0.039298
william,0.006072
winifr,0.016985
wither,0.014237
women,0.057701
won,0.015343
word,0.005260
work,0.014861
worker,0.007054
wound,0.010397
wrote,0.006456
wyse,0.019649
year,0.003824
yellow,0.021288
york,0.029185
zieger,0.020541
