abil,0.002760
abl,0.002534
absenc,0.007376
academ,0.003005
accept,0.002518
access,0.002776
accord,0.008024
account,0.002363
accus,0.004023
achiev,0.005047
acquisit,0.004338
act,0.002293
action,0.002465
activ,0.004003
ad,0.005120
adapt,0.003194
adel,0.007596
administ,0.003933
administr,0.002805
adult,0.003927
advis,0.004055
advisor,0.005140
advoc,0.003444
advocaci,0.005430
ae,0.006852
age,0.002512
agent,0.003420
aggress,0.004470
agre,0.009074
agreement,0.003062
agricultur,0.002982
ahead,0.009367
al,0.003441
albuquerqu,0.029015
algorithm,0.004022
allen,0.037057
allow,0.003990
alongsid,0.004172
altair,0.066301
alter,0.003598
alway,0.010791
amaz,0.006469
america,0.016870
american,0.006819
amyotroph,0.007952
ancestri,0.005509
andrew,0.004074
angel,0.009622
ani,0.001768
ann,0.004699
announc,0.016846
annual,0.003082
anoth,0.001929
anthoni,0.004737
anticompetit,0.007508
antitrust,0.019661
anyth,0.003965
appear,0.013943
appl,0.005224
appli,0.002144
appoint,0.003298
approach,0.002309
approv,0.003446
april,0.006138
aptitud,0.006836
architect,0.016001
archiv,0.007385
area,0.003985
argu,0.002669
arrang,0.003270
arrest,0.004409
arriv,0.003229
ask,0.013266
asr,0.008181
assassin,0.004748
assert,0.003446
assess,0.006834
asset,0.011126
attempt,0.002288
attend,0.003828
attent,0.003271
auction,0.005778
august,0.009146
author,0.006776
autumn,0.005338
averag,0.002996
avid,0.007026
awar,0.010889
award,0.031833
away,0.009168
aztec,0.006296
bad,0.004115
baidu,0.008344
ballmer,0.048735
ban,0.008084
bancsystem,0.010554
bank,0.005802
barack,0.006218
base,0.003496
basi,0.002499
basic,0.019470
bbc,0.004564
beauti,0.004596
becam,0.011056
becaus,0.010926
becom,0.003873
befor,0.008264
began,0.002415
beij,0.005824
belief,0.009715
believ,0.005004
bellevu,0.008287
belong,0.003418
benefactor,0.007165
benefit,0.002935
berat,0.008760
berkshir,0.007231
bestknown,0.005273
better,0.005456
bgc,0.010554
bhushan,0.008404
bibliographi,0.003518
big,0.007326
billion,0.034362
billionair,0.042869
biographi,0.004666
bioterror,0.008846
birthday,0.005936
block,0.007207
bloomberg,0.019514
blue,0.004312
board,0.006980
boi,0.028749
bono,0.007692
bonu,0.006918
book,0.013795
born,0.020504
bostrom,0.007300
bottl,0.005914
bought,0.009245
bower,0.007209
boy,0.004767
break,0.003334
breukelen,0.010554
bridg,0.003996
briefli,0.008974
british,0.005402
broad,0.003249
broaden,0.005158
brought,0.002982
bubbl,0.005071
bucket,0.006645
buffalo,0.006137
buffett,0.013736
bug,0.012737
build,0.007680
burst,0.005449
busi,0.040907
businessweek,0.016575
buy,0.011481
c,0.002315
cambridg,0.003208
came,0.002649
campu,0.005740
cancel,0.004589
card,0.004603
career,0.011924
carlo,0.009221
carnegi,0.005851
cascad,0.011648
case,0.004051
catalog,0.005545
cathol,0.003912
caucasian,0.006579
caught,0.004990
caus,0.004325
ccc,0.025924
ceil,0.006004
center,0.002584
centibillionair,0.010554
centuri,0.002080
ceo,0.034707
chairman,0.022913
challeng,0.008683
chang,0.005480
channel,0.003999
character,0.003073
charg,0.006253
charit,0.035752
chariti,0.021029
chief,0.013496
children,0.006664
china,0.003112
choic,0.003183
chose,0.004557
christian,0.003140
christo,0.007536
chronicl,0.010206
church,0.010982
circu,0.007480
circumcis,0.007165
citat,0.004825
citi,0.011192
civilian,0.004212
claim,0.002459
class,0.013437
climat,0.003459
clip,0.006077
clone,0.005556
club,0.009398
coach,0.006672
coauthor,0.005556
cobol,0.007692
code,0.021947
codex,0.006618
cofound,0.005566
collabor,0.003722
collect,0.007091
colleg,0.007034
colorblind,0.008344
comb,0.006286
combat,0.004253
combin,0.002310
combinator,0.006218
come,0.002317
command,0.003399
comment,0.007762
commerci,0.006209
commit,0.010189
commun,0.002118
compani,0.076763
compet,0.003341
competit,0.012745
competitor,0.005019
complain,0.005261
complet,0.004476
comput,0.077871
concern,0.009100
confer,0.003189
congreg,0.005858
congression,0.005752
consid,0.001889
consider,0.002723
construct,0.007528
contact,0.006801
contain,0.002324
contextu,0.005943
continu,0.007854
control,0.004306
convinc,0.004313
copi,0.007813
copyright,0.005727
corbi,0.027122
corp,0.009561
corpor,0.003179
costar,0.009274
counter,0.004381
counti,0.004822
countri,0.002132
coupl,0.003750
cours,0.011297
court,0.006147
cover,0.005336
cpm,0.016168
cpu,0.006566
craig,0.011492
creat,0.005946
creation,0.002949
creativ,0.004187
creator,0.004857
credit,0.003136
critic,0.011918
csd,0.009040
csl,0.009274
cum,0.006541
current,0.002074
cyber,0.007064
d,0.005247
da,0.004313
danger,0.007613
databas,0.003791
date,0.008125
david,0.008636
dawkin,0.006481
day,0.004891
daytoday,0.016589
deal,0.007832
debut,0.006446
dec,0.006390
decad,0.002945
decemb,0.005947
decid,0.003158
decis,0.008196
declin,0.003076
dedic,0.003892
defeat,0.003834
defend,0.007251
defici,0.005140
definit,0.002562
degre,0.002653
deliv,0.003819
demand,0.002893
demeanor,0.008604
demo,0.006989
demonstr,0.008738
denial,0.005593
denomin,0.004828
depart,0.005682
deposit,0.011510
describ,0.003989
desert,0.009216
design,0.004760
despit,0.008243
deterior,0.004772
develop,0.022690
devis,0.004445
did,0.014433
didnt,0.010650
die,0.003105
differ,0.005154
difficulti,0.003500
digit,0.018094
dine,0.006773
director,0.007793
disadvantag,0.004805
disc,0.005900
disciplin,0.002986
discount,0.009357
discov,0.002853
discuss,0.007932
diseas,0.006789
dislik,0.005784
disproportion,0.005656
distant,0.004504
distinguish,0.002877
distribut,0.008021
divid,0.002569
divis,0.011235
dock,0.005958
doctor,0.003867
documentari,0.004980
doe,0.004385
dollar,0.003786
domin,0.005333
donat,0.053396
dont,0.013585
dotcom,0.006804
doubl,0.003587
drank,0.007761
dri,0.004244
drive,0.003481
driver,0.004967
drop,0.007113
dump,0.006347
dure,0.011192
duti,0.003856
dvd,0.006446
dworkin,0.008181
eagl,0.006172
earli,0.015611
earthshelt,0.010554
economist,0.007326
ed,0.002731
edg,0.004256
edibl,0.006296
educ,0.004971
effort,0.008106
eighth,0.010889
elder,0.004794
electr,0.003226
electron,0.003264
elimin,0.003374
elit,0.008664
elizabeth,0.004641
elon,0.007761
els,0.004017
empir,0.005444
employe,0.004088
emul,0.011187
encourag,0.003206
end,0.004266
endeavor,0.005143
engin,0.005623
english,0.002717
engrav,0.006276
enjoy,0.003714
enrol,0.010730
entiti,0.003310
entomologist,0.007349
entrepreneur,0.004914
era,0.003082
eristali,0.010554
ernest,0.005019
establish,0.002082
estat,0.004153
estim,0.002745
evan,0.005454
evas,0.006306
event,0.002539
eventu,0.002773
everi,0.007324
exactli,0.003822
examin,0.003053
exampl,0.003494
excel,0.004220
exchang,0.005516
exclus,0.006666
excus,0.006469
execut,0.023644
exhaust,0.004562
existenti,0.005286
expect,0.002680
expert,0.003853
explain,0.002626
explan,0.006869
exploit,0.003632
express,0.002527
extens,0.005269
extern,0.003051
facebook,0.018333
fact,0.002477
faith,0.003900
fall,0.002663
fallon,0.009274
fals,0.003957
famili,0.027016
fascin,0.005817
faster,0.004070
fastest,0.005509
father,0.013720
fear,0.003660
featur,0.005277
februari,0.012679
fece,0.007144
fee,0.004566
fellow,0.008822
felt,0.004118
fenc,0.006492
fifth,0.004154
figur,0.002889
film,0.023742
financ,0.003091
financi,0.002785
firsthand,0.006744
fit,0.007104
flew,0.006069
fli,0.004354
flower,0.004737
focu,0.002862
follow,0.003337
foot,0.004533
forb,0.028222
form,0.001594
formal,0.002610
fortran,0.007007
fortun,0.004732
foundat,0.046250
founder,0.007313
fourth,0.007280
frank,0.004085
franklin,0.004772
free,0.004766
freedom,0.003293
french,0.005615
fridson,0.010554
friend,0.004143
ft,0.013679
fulli,0.003145
fulltim,0.011112
fumbl,0.009274
fund,0.008629
futur,0.010164
gain,0.002538
game,0.025061
gari,0.010410
gate,0.848480
gatesbuffet,0.010554
gatesi,0.010554
gatess,0.009747
gatsbi,0.009412
gaug,0.005158
gave,0.003035
ge,0.012533
gehri,0.009412
gener,0.004497
generos,0.006971
genet,0.007087
geniu,0.005679
geograph,0.003393
german,0.002946
girl,0.005151
given,0.006277
global,0.019394
god,0.003651
goe,0.003754
golden,0.004227
golf,0.006579
gone,0.004629
govern,0.001983
grade,0.004865
gradual,0.003353
graduat,0.015637
grandfath,0.005981
great,0.002351
greatest,0.007342
guardian,0.005154
guest,0.005509
guilti,0.005599
gym,0.007994
h,0.008694
ha,0.029214
habit,0.008846
hack,0.006504
hadnt,0.007659
half,0.008615
hall,0.003958
happen,0.003297
hard,0.006848
hardwar,0.009761
harpercollin,0.006566
harri,0.004387
harvard,0.044838
hate,0.005989
hathaway,0.007833
hawaii,0.005550
head,0.005386
headquart,0.004622
health,0.005817
heard,0.004960
heart,0.003829
heavili,0.003363
hed,0.015193
held,0.009866
help,0.002284
henri,0.003362
hero,0.004948
hi,0.130945
highest,0.003194
highestearn,0.009959
highli,0.002746
highqual,0.006256
hill,0.004150
hire,0.009110
histor,0.002343
histori,0.006950
hobbi,0.006541
hobbyist,0.023390
hold,0.007539
hole,0.004748
homag,0.006884
home,0.014895
honeywel,0.008233
honor,0.017263
honorari,0.016136
hope,0.007104
host,0.003815
hotel,0.005023
hous,0.008396
human,0.002010
humanitarian,0.010498
hyphen,0.007300
ibm,0.053651
ice,0.004550
identifi,0.007566
ignor,0.003618
ii,0.005460
iii,0.007979
ill,0.004051
im,0.005514
imag,0.006425
implement,0.002904
implic,0.003635
import,0.001779
impress,0.004258
incent,0.004343
includ,0.008689
incorpor,0.002864
increas,0.004012
independ,0.002142
index,0.003314
india,0.003194
individu,0.002151
industri,0.007144
inequ,0.004389
influenc,0.009191
influenti,0.010066
inform,0.010370
infoworld,0.009747
infrastructur,0.003532
inherit,0.003868
innov,0.003613
insid,0.003499
insignia,0.007374
institut,0.017661
instrument,0.003212
integr,0.002517
intel,0.013458
intellig,0.006510
intend,0.003229
intern,0.001828
internet,0.003422
interpret,0.011133
interrupt,0.005189
interst,0.006228
interview,0.021569
invest,0.026734
investig,0.002923
investor,0.011924
invit,0.004299
involv,0.002022
irish,0.004948
irrever,0.008679
isbn,0.017264
island,0.006184
issu,0.008955
item,0.003827
ive,0.013704
jack,0.004932
jame,0.005884
januari,0.020841
japan,0.003450
jeann,0.007833
jefferson,0.005958
jennif,0.006316
jerri,0.011492
jet,0.005103
jimmi,0.006181
joan,0.005673
job,0.021616
john,0.009492
join,0.006206
journalist,0.009821
judg,0.007705
juli,0.003013
june,0.024316
just,0.007298
jw,0.007187
kapor,0.009747
karolinska,0.009274
katharin,0.007833
kbe,0.009040
kent,0.006256
kept,0.003759
kid,0.006228
kildal,0.009959
kind,0.002778
king,0.003322
kirkland,0.008233
knight,0.005224
know,0.006321
known,0.005229
kristi,0.009959
kristiann,0.010554
laboratori,0.014159
lake,0.004114
lakesid,0.045760
land,0.002639
languag,0.007865
larg,0.003676
largest,0.005761
late,0.004829
later,0.018669
laud,0.006700
laugh,0.013769
launch,0.003512
law,0.002101
lawyer,0.005060
lead,0.002081
leadership,0.003784
leak,0.005851
leav,0.011815
lector,0.008846
lectur,0.003792
led,0.002251
lefev,0.010554
left,0.005560
leicest,0.007124
leonardo,0.005709
lesinski,0.010554
letter,0.006886
level,0.002085
levi,0.004901
lewi,0.004377
li,0.005406
libbi,0.008604
librari,0.009830
licens,0.016613
life,0.008968
like,0.005589
line,0.002496
link,0.001516
linkedin,0.008679
lisp,0.006605
list,0.021334
litig,0.012345
llc,0.013547
lo,0.004783
locat,0.002564
longterm,0.007340
longtim,0.005943
look,0.002879
lose,0.003668
lost,0.003030
lot,0.012887
lucki,0.006820
luxuri,0.005232
m,0.012472
machin,0.026940
macintosh,0.015452
magazin,0.020189
magna,0.006672
magnat,0.007104
maintain,0.002431
major,0.007401
make,0.010641
maker,0.004811
mall,0.013263
man,0.015429
manag,0.017485
mane,0.007761
mani,0.003152
mankind,0.005033
march,0.008676
mari,0.004029
mark,0.005600
market,0.002610
marri,0.004372
martin,0.003691
mass,0.002860
massachusett,0.004573
matern,0.005572
math,0.005406
mathemat,0.002741
matter,0.002623
maximum,0.003792
maxwel,0.015603
mean,0.005762
medal,0.010243
media,0.015995
medina,0.006592
meet,0.011287
meld,0.007452
melinda,0.144698
member,0.002225
mention,0.006753
mere,0.003431
merit,0.004977
met,0.014266
mexico,0.013053
michael,0.003209
micro,0.005709
microcomput,0.008038
microsoft,0.287279
millennium,0.004353
million,0.027394
mind,0.006577
minicomput,0.015989
miniseri,0.007399
minutebyminut,0.009567
mischaracter,0.008760
mit,0.038139
mitch,0.007761
mitss,0.021109
mocumentari,0.010554
model,0.006517
modern,0.002091
modifi,0.010209
mogul,0.008404
moment,0.003967
money,0.009350
monopol,0.006069
month,0.003081
moral,0.006978
morgan,0.004951
mother,0.016077
mount,0.004065
movi,0.004770
mr,0.004688
msdo,0.008846
mugshot,0.009959
multibilliondollar,0.007627
mundi,0.013401
music,0.007666
musk,0.007627
myhrvold,0.009567
mysteri,0.004603
myth,0.004453
nadella,0.021109
nathan,0.006228
nation,0.005797
natur,0.001861
nd,0.003244
near,0.002867
neat,0.014462
need,0.004193
negro,0.006605
nelson,0.005269
nerd,0.017692
net,0.003666
netherland,0.004064
network,0.011662
new,0.018694
newli,0.003669
newslett,0.006247
ngo,0.005733
nick,0.005851
nomin,0.003640
normal,0.002779
note,0.002010
noth,0.007381
notic,0.003958
notori,0.005534
novemb,0.015640
nuclear,0.007127
number,0.012213
numer,0.005167
nyenrod,0.010554
obama,0.005830
observ,0.002301
obtain,0.002710
octob,0.009047
offer,0.005186
offic,0.016843
offici,0.010591
omniprocessor,0.010554
onetim,0.006773
onli,0.003210
open,0.004775
oper,0.022002
opinion,0.003706
opportun,0.003294
option,0.003639
order,0.007687
organ,0.009511
origin,0.005798
os,0.006368
outburst,0.007231
outsid,0.002660
overlook,0.005387
oversaw,0.012041
overwhelmingli,0.005656
owe,0.004244
owner,0.003944
ozzi,0.021109
pa,0.005434
padma,0.008404
page,0.003419
paid,0.007112
pancak,0.008404
pandem,0.006744
papadimitri,0.008533
paper,0.002877
parent,0.007855
particip,0.005502
particularli,0.004891
partli,0.003750
partnership,0.013168
parttim,0.006137
paterson,0.007045
path,0.003536
paul,0.012126
paulson,0.008287
payment,0.003759
payrol,0.006316
pc,0.033970
pdp,0.014851
peac,0.003363
peke,0.007144
penalti,0.010433
penguin,0.005245
peopl,0.024997
perceiv,0.003507
percent,0.010508
perfectli,0.004845
persist,0.003954
person,0.029667
perspect,0.003120
peter,0.003180
pharmaceut,0.004751
philanthrop,0.043123
philanthropi,0.028258
philanthropist,0.013978
phoeb,0.008287
phone,0.009954
picklebal,0.010554
pictur,0.003904
pinker,0.006804
pirat,0.005556
placard,0.008939
place,0.005917
plan,0.007923
platform,0.004270
play,0.007554
player,0.004564
plead,0.006700
pledg,0.009890
plot,0.004274
point,0.002023
polici,0.005161
pollut,0.004691
pool,0.004566
poorli,0.004617
popular,0.004990
portray,0.009079
posit,0.014468
possibl,0.002039
post,0.006769
postmicrosoft,0.010554
pournel,0.009152
poverti,0.004114
power,0.006139
practic,0.004279
prelaunch,0.009040
prelaw,0.010554
premarket,0.008604
preparatori,0.006804
present,0.003999
presid,0.020245
presidenti,0.004089
press,0.007061
previous,0.003048
price,0.002960
primari,0.002639
primarili,0.002733
privat,0.011470
problem,0.006416
proce,0.004868
process,0.001890
processor,0.005644
procrastin,0.008533
produc,0.006242
product,0.012506
profession,0.003240
professor,0.003574
profil,0.004317
profoundli,0.005791
program,0.040251
progress,0.002725
project,0.002474
promin,0.003136
promot,0.002852
pronounc,0.004831
properti,0.004842
propos,0.009869
protest,0.007433
proven,0.004224
provid,0.005323
public,0.006042
publish,0.011098
purpos,0.002601
pursu,0.007274
qdo,0.008939
queen,0.004197
question,0.002511
quickli,0.003255
quot,0.004184
quotat,0.005312
radio,0.012282
rais,0.008849
ran,0.008953
random,0.003815
rang,0.004801
rank,0.010129
ray,0.008664
reach,0.002577
reachabl,0.007536
reactor,0.005778
read,0.006608
reader,0.004325
real,0.002632
realiti,0.003450
realli,0.008161
realm,0.004006
reason,0.002276
recal,0.004904
receiv,0.019385
recent,0.004392
reclaim,0.005921
recognit,0.003476
recommend,0.003738
record,0.005346
reddit,0.008939
reduc,0.002402
refer,0.003805
reflect,0.002725
reform,0.003102
regain,0.004871
regard,0.004866
regist,0.003933
regularli,0.008635
reign,0.008771
reincorpor,0.007508
reinvent,0.012695
relationship,0.002421
releas,0.003169
religi,0.006479
religion,0.006460
remain,0.006293
remark,0.003890
report,0.004875
reportedli,0.005036
repres,0.006241
reput,0.004413
research,0.008230
researchg,0.009040
resid,0.003360
resign,0.004334
resist,0.003286
resort,0.004706
respons,0.013199
restructur,0.005009
result,0.001766
retail,0.004587
retook,0.007452
retriev,0.003768
return,0.007700
reveal,0.003336
review,0.008525
revolut,0.009426
reward,0.004387
rewrot,0.007952
ric,0.007761
rice,0.014350
richard,0.003133
richest,0.038708
right,0.004552
rigor,0.004270
rinearson,0.010554
rise,0.002552
risk,0.003120
rivlin,0.008939
road,0.007368
robert,0.002788
robin,0.005459
rockefel,0.025226
role,0.004443
roll,0.009465
room,0.008228
rori,0.008233
round,0.004017
royal,0.003346
royalti,0.005784
rude,0.007627
rule,0.004630
rummag,0.010554
s,0.003597
said,0.013030
salari,0.004691
sale,0.007389
salesman,0.007064
salwen,0.021109
sam,0.005633
sanit,0.011430
sarcast,0.008084
satya,0.016077
saw,0.009311
say,0.008243
scale,0.002870
schedul,0.008431
scholar,0.006442
scholarship,0.004535
scholast,0.005493
school,0.028385
scienc,0.012799
scientif,0.005104
scientist,0.005800
sclerosi,0.007187
score,0.004649
scotsirish,0.009412
scout,0.006566
scp,0.017208
season,0.004098
seattl,0.024654
second,0.008326
secondmost,0.007872
secretari,0.004143
seen,0.002488
seinfeld,0.049725
selfmad,0.008404
sell,0.007175
senior,0.004203
sens,0.002609
separ,0.002317
seri,0.010107
serv,0.005049
servic,0.007413
sever,0.007360
sewag,0.006658
sharehold,0.005128
sherman,0.006645
ship,0.007197
shoe,0.029290
sign,0.002906
silicon,0.005387
silver,0.004413
similar,0.006323
simpli,0.002880
sinc,0.010590
singer,0.005661
sire,0.016363
sister,0.009743
site,0.002973
size,0.002748
sky,0.005019
slightli,0.003825
slim,0.013769
sludg,0.008287
social,0.013473
societi,0.002211
softwar,0.037399
sold,0.007455
solut,0.012080
solv,0.006497
someth,0.006787
son,0.006759
sort,0.007404
sought,0.006877
sourc,0.002220
spark,0.004671
speak,0.003384
specif,0.004223
speed,0.003609
spent,0.007803
sq,0.015809
sr,0.005929
stake,0.005369
stanford,0.008200
start,0.008937
state,0.020078
statu,0.002948
stay,0.003863
step,0.008979
stephen,0.003921
steve,0.043403
steven,0.008895
stock,0.006811
stockholm,0.011887
stone,0.007884
stood,0.004748
store,0.003576
strang,0.005236
stranger,0.006190
strategi,0.016441
strong,0.002564
struck,0.005019
student,0.030044
studi,0.011192
stupidest,0.010219
style,0.003637
subject,0.002245
subordin,0.004871
subsequ,0.005509
substanti,0.003276
succeed,0.003608
success,0.007022
successor,0.007930
suffix,0.006028
suggest,0.002471
summar,0.004496
summer,0.008167
sunday,0.005858
super,0.011455
superhighway,0.009152
superintellig,0.014462
superman,0.007796
support,0.010493
sure,0.004836
surpass,0.004983
swaziland,0.006789
sweden,0.004409
swim,0.011467
tackl,0.005434
tactic,0.004693
talk,0.011395
target,0.003286
tast,0.004954
tax,0.003317
teach,0.003457
team,0.003686
tear,0.005661
tech,0.011993
technic,0.003139
technolog,0.015270
ted,0.005740
telemetri,0.007952
teletyp,0.019919
televis,0.007957
tenni,0.006457
termin,0.004135
terrapow,0.010554
test,0.002885
testimoni,0.005679
th,0.002024
thatll,0.010219
therefor,0.002399
therel,0.010554
theyv,0.007374
thi,0.011882
thing,0.014043
think,0.006122
thinktank,0.007659
thirdhighest,0.008604
thirti,0.004759
thought,0.002501
threat,0.003702
tictacto,0.009152
tie,0.006886
tim,0.005561
time,0.028112
titan,0.006154
today,0.002535
togeth,0.004868
toilet,0.007300
tokyo,0.005593
told,0.004476
tonight,0.009040
took,0.008272
topic,0.002800
total,0.004925
touchston,0.007007
tr,0.006276
trade,0.002553
traffic,0.009327
trafodata,0.010554
transfer,0.006041
transit,0.006146
travel,0.003116
treatment,0.003247
trey,0.009959
tri,0.008335
triumph,0.005493
trust,0.003858
truste,0.006237
tsinghua,0.008939
twentieth,0.004164
unaid,0.007007
unambigu,0.005966
uncharit,0.008467
understand,0.004792
underwat,0.005691
unit,0.010682
univers,0.010969
universiteit,0.007952
unlik,0.002939
unpopular,0.005610
unsolv,0.005582
upcom,0.006077
upheld,0.006181
upsid,0.007324
use,0.014423
user,0.007831
usual,0.002124
v,0.003147
valley,0.004082
valu,0.009049
vancouv,0.006672
variant,0.004276
variou,0.010047
vendor,0.006044
ventur,0.009298
verbal,0.005078
veri,0.004031
version,0.012351
video,0.007770
view,0.002262
vigor,0.005106
vinci,0.006020
violat,0.007811
virtual,0.003490
visitor,0.004828
vitamin,0.005797
vote,0.006694
vs,0.004262
w,0.002961
wa,0.086840
wait,0.004786
walk,0.009017
wallac,0.005397
want,0.006517
warren,0.010309
waseda,0.009959
washington,0.023318
watch,0.004500
water,0.010891
way,0.007549
wealth,0.029080
wealthiest,0.030908
weather,0.004328
websit,0.003337
week,0.011130
weekend,0.006541
weiland,0.010554
wellcom,0.007692
went,0.009713
weve,0.007480
whatev,0.004345
wherebi,0.003988
wherev,0.005661
whi,0.009743
wide,0.004547
wife,0.031855
wiley,0.004319
willi,0.005921
william,0.014142
win,0.003969
window,0.014882
wire,0.005099
wish,0.003903
won,0.003573
word,0.004900
work,0.029418
world,0.026844
worldcat,0.007566
worsen,0.005269
worth,0.011990
write,0.011039
written,0.005589
wrote,0.015037
ye,0.011266
year,0.026722
york,0.010874
young,0.003277
younger,0.004385
youngest,0.006077
youth,0.004451
zambia,0.006457
zuckerberg,0.017067
