accord,0.005981
account,0.007045
acquisit,0.012934
act,0.006836
activ,0.017906
addit,0.006051
adher,0.012100
administ,0.023453
adopt,0.008255
advantag,0.027856
advis,0.012091
affect,0.023451
age,0.007491
agenc,0.009410
agreement,0.018261
agribusi,0.022471
agricultur,0.008891
aim,0.008542
aircraft,0.026571
airlin,0.015226
align,0.012922
alloc,0.011937
allow,0.005948
alon,0.010229
analyz,0.010055
ani,0.010544
anim,0.008372
anyon,0.013041
appli,0.006394
approach,0.013768
area,0.011882
argu,0.007957
ascrib,0.015800
aspect,0.007862
asset,0.033175
attempt,0.006823
attorney,0.016425
author,0.026941
aviat,0.015737
bank,0.025952
basi,0.007451
basic,0.007256
bc,0.010671
becaus,0.010859
belong,0.010191
benefit,0.026259
board,0.010405
bodi,0.036189
bombay,0.020949
book,0.006855
bound,0.021585
bpm,0.071904
branch,0.007670
brand,0.014579
broadcast,0.027990
broader,0.012026
broadli,0.012074
broker,0.015838
brokerag,0.018684
build,0.007632
busi,0.561047
cabl,0.015724
capabl,0.009513
capit,0.062854
capitalist,0.014270
car,0.025530
card,0.013726
care,0.009075
catalog,0.016534
certain,0.052896
chang,0.005446
charg,0.018645
charter,0.025992
china,0.037126
classif,0.010659
classifi,0.009772
claus,0.016092
client,0.013913
code,0.009348
commerc,0.012039
commerci,0.037025
commiss,0.028856
common,0.011684
commonli,0.008023
compani,0.114437
companytyp,0.029695
compar,0.007146
compens,0.024423
competitor,0.044901
compil,0.012465
complet,0.006673
complex,0.014140
compli,0.031859
complianc,0.015507
compon,0.016641
compound,0.010887
comput,0.008006
concept,0.006742
concern,0.020350
consid,0.005634
construct,0.007482
consum,0.048104
contain,0.006931
continu,0.005854
contract,0.009692
contrast,0.008162
control,0.006419
coop,0.021696
cooper,0.064645
copyright,0.051232
corpor,0.189598
corpu,0.016350
cost,0.016990
countri,0.050869
court,0.009164
creat,0.023640
creation,0.008795
credit,0.018700
crowd,0.015058
csrc,0.027653
custom,0.009770
date,0.008075
deal,0.007783
debentur,0.023837
debt,0.033613
decad,0.008783
decid,0.018833
decisionmak,0.013927
decor,0.015687
deliv,0.011388
democraci,0.010762
depend,0.006375
deriv,0.007346
describ,0.005947
destin,0.013522
determin,0.006710
develop,0.004832
differ,0.051223
difficult,0.008427
digit,0.010789
direct,0.006416
directli,0.007763
director,0.011617
disabl,0.014071
disclos,0.033762
disclosur,0.017384
discrimin,0.013417
disput,0.009719
distinct,0.007441
distribut,0.007972
distributor,0.040764
dividend,0.015530
document,0.018657
doe,0.006537
domest,0.010011
doubl,0.010697
drug,0.011396
econom,0.038197
economi,0.007944
educ,0.007410
effect,0.016954
effici,0.027325
elect,0.008580
electr,0.009618
empir,0.008117
employ,0.023148
employe,0.073135
enabl,0.009225
encompass,0.010890
enforc,0.021811
enterpris,0.087598
entertain,0.014303
entir,0.015090
entiti,0.138184
entrepreneur,0.014651
entri,0.011252
environment,0.009352
equip,0.010400
equiti,0.013310
equival,0.009370
estat,0.037150
everi,0.007279
evolv,0.009548
exampl,0.031259
exceed,0.012216
exchang,0.115125
execut,0.008812
exempt,0.015120
exist,0.005784
exot,0.015495
expenditur,0.012862
export,0.010671
extract,0.011197
factor,0.014751
fail,0.008746
failur,0.010121
feder,0.009262
fee,0.013615
file,0.038954
film,0.011798
financ,0.018435
financi,0.033218
finish,0.013386
firm,0.051948
fish,0.010853
fixtur,0.021627
flexibl,0.025757
focus,0.016195
food,0.008952
forc,0.006234
form,0.052302
formal,0.015567
forprofit,0.081719
franchis,0.083976
function,0.012737
fund,0.042884
fundament,0.007965
futur,0.007576
ga,0.010465
gain,0.007567
gender,0.013335
gener,0.044698
glass,0.013712
gone,0.013803
good,0.055326
govern,0.070983
governmentown,0.038508
group,0.005611
ha,0.016591
hairstylist,0.029695
hammurabi,0.021494
health,0.008671
healthcar,0.014651
hedg,0.015530
held,0.014709
help,0.006810
hierarch,0.014270
hire,0.027163
hold,0.007492
holist,0.015983
home,0.008882
hong,0.029086
hour,0.010930
hous,0.016689
human,0.017979
ideolog,0.011750
implement,0.017321
import,0.005305
impos,0.021395
improv,0.007654
includ,0.043181
incom,0.028583
incorpor,0.008542
increas,0.011963
increasingli,0.009170
incur,0.029834
index,0.009881
india,0.019047
individu,0.032081
industri,0.007100
inform,0.024736
infrastructur,0.010531
initi,0.013517
innov,0.010774
institut,0.006582
insur,0.023984
intang,0.018272
integr,0.007506
intellectu,0.064029
intend,0.009629
interact,0.007761
interior,0.012207
intern,0.010902
internet,0.010204
intrins,0.013170
inventori,0.016176
invest,0.061996
involv,0.006030
ipo,0.040764
ironag,0.025245
japan,0.010286
jointli,0.015007
jointstock,0.021494
judgement,0.015724
jurisdict,0.113624
just,0.014506
kind,0.016571
known,0.020789
kong,0.029339
labor,0.030636
labour,0.010529
land,0.007871
larg,0.010961
larger,0.016417
latin,0.009774
laundromat,0.028526
law,0.181685
layer,0.011971
leav,0.008806
legal,0.120142
liabil,0.146150
liabl,0.018169
licens,0.037150
like,0.005554
limit,0.076212
limitedli,0.025654
liquor,0.021063
list,0.011565
livestock,0.014678
llc,0.040393
loan,0.012065
local,0.014086
locat,0.015292
logo,0.016190
london,0.008756
long,0.006752
lumber,0.019772
ma,0.013134
magazin,0.012039
major,0.022067
make,0.010576
manag,0.156398
manageri,0.016915
mani,0.023500
manufactur,0.039667
mark,0.008349
market,0.054487
mass,0.017055
materi,0.014574
matter,0.015644
maurya,0.020679
maxim,0.011826
mean,0.028634
media,0.047690
medicin,0.009914
member,0.026538
merchant,0.012350
merger,0.015068
middlemen,0.021429
million,0.008167
miner,0.011512
minimum,0.011342
misconduct,0.019394
mobil,0.011045
model,0.012954
monetari,0.011147
money,0.027879
mostli,0.008872
multipl,0.007998
mutual,0.010968
nasdaq,0.020527
nation,0.011524
natur,0.016654
necessari,0.008287
need,0.037506
network,0.008693
new,0.004644
newspap,0.012873
noncompet,0.026956
nonprofit,0.029994
notforprofit,0.019466
object,0.007108
oblig,0.057415
occup,0.010835
offer,0.030929
offic,0.008369
oil,0.010378
ongo,0.022756
onlin,0.009101
open,0.007118
oper,0.065600
optim,0.011029
order,0.005730
ore,0.014897
organ,0.090751
organis,0.009845
organiz,0.013622
orient,0.010835
outlet,0.016613
owner,0.094097
ownership,0.061059
paperwork,0.022471
particular,0.006508
partli,0.044723
partner,0.056838
partnership,0.274848
patent,0.041628
pay,0.019415
pension,0.014447
peopl,0.034398
period,0.006178
person,0.068042
pest,0.018246
petroleum,0.013367
pilot,0.015403
plan,0.007874
plant,0.009027
plu,0.011699
point,0.006031
possess,0.009344
powerhous,0.021429
preserv,0.010050
preval,0.026258
price,0.008827
primari,0.007871
primarili,0.016301
privat,0.076949
procedur,0.020768
process,0.028184
produc,0.018612
product,0.031073
profess,0.024921
profit,0.092720
profitmak,0.026956
prolifer,0.014678
promot,0.008505
properti,0.057757
proprietor,0.077722
proprietorship,0.067157
protect,0.063577
provid,0.015871
provis,0.023228
public,0.090077
publicli,0.025520
publish,0.006618
purchas,0.010141
race,0.011714
radio,0.012207
railway,0.014110
rais,0.035180
rang,0.007157
raw,0.024672
real,0.039245
reason,0.006787
recent,0.006548
refer,0.015126
regist,0.011726
regul,0.107432
regulatori,0.013088
relat,0.015296
relationship,0.014437
relev,0.029673
report,0.007268
repres,0.006203
republ,0.008875
requir,0.077391
residenti,0.016276
resolv,0.010984
resourc,0.053591
restructur,0.014937
result,0.005267
retail,0.054709
return,0.007653
revenu,0.011032
right,0.033930
rise,0.007609
roof,0.018404
rule,0.013806
run,0.016621
russia,0.011114
safeti,0.012189
sale,0.033049
salon,0.021494
scope,0.011117
sec,0.018404
second,0.006206
secret,0.035003
secretari,0.012355
sector,0.039657
secur,0.056241
sell,0.053488
separ,0.034544
serv,0.007527
servic,0.088416
set,0.005858
sever,0.005486
sewag,0.019853
sexual,0.012426
sfc,0.026375
shanghai,0.019053
shape,0.009013
share,0.036845
sharehold,0.091752
shield,0.014829
ship,0.021460
sign,0.008665
signatori,0.018195
similar,0.006284
simplifi,0.024514
singapor,0.041606
singl,0.014086
size,0.008196
slightli,0.011406
small,0.012880
smaller,0.008949
socal,0.010619
social,0.013390
sold,0.011114
sole,0.074782
sometim,0.013702
sourc,0.019860
sovereign,0.012579
span,0.012157
speak,0.010091
special,0.052658
specif,0.018891
specifi,0.010700
sprawl,0.021181
staff,0.012407
stakehold,0.016915
state,0.046050
stateown,0.030991
stay,0.011520
stock,0.121847
store,0.010662
strateg,0.011486
strive,0.015089
strongli,0.010143
structur,0.024596
studi,0.005562
studio,0.018120
subject,0.026781
subset,0.013200
succeed,0.010759
suitabl,0.011683
sum,0.010498
supplier,0.014820
surplu,0.013847
tan,0.018324
tangibl,0.034009
tax,0.098911
taxat,0.012939
team,0.010990
techniqu,0.008088
technolog,0.015176
telecommun,0.013719
televis,0.011863
tend,0.008642
term,0.004973
themselv,0.007806
theori,0.006169
therefor,0.007153
thi,0.023619
thu,0.006152
tighter,0.019394
time,0.004656
togeth,0.007257
tokyo,0.016678
trade,0.045680
trademark,0.073944
trader,0.012956
tradit,0.006627
transact,0.022664
transform,0.008615
transport,0.009022
treat,0.036863
treati,0.021981
treatment,0.029044
trust,0.034515
twelv,0.013883
type,0.025310
typic,0.014121
uk,0.019293
unheard,0.022302
unincorpor,0.020785
union,0.015641
unit,0.037159
unless,0.011794
unlimit,0.031499
usa,0.023500
use,0.004300
usual,0.025334
util,0.019042
valu,0.013491
vari,0.007758
variou,0.005991
vehicl,0.011950
ventur,0.013861
veri,0.018031
wage,0.011564
want,0.009716
wast,0.012624
way,0.011254
wealth,0.010838
wellestablish,0.017677
western,0.007916
wholesal,0.016380
wide,0.006778
wider,0.011983
widespread,0.010111
wikimedia,0.014669
wish,0.011637
wood,0.012144
word,0.014611
work,0.010319
worker,0.029391
york,0.008106
