abil,0.011355
accomplish,0.008293
accord,0.004126
acquisit,0.017845
act,0.009432
activ,0.008235
addit,0.012524
advertis,0.067877
advic,0.008980
advis,0.008341
agenc,0.071409
agent,0.154790
agreedupon,0.014695
agreement,0.037793
alberta,0.013013
allow,0.016414
america,0.011566
ani,0.018184
anoth,0.003969
answer,0.007347
appli,0.004411
appoint,0.006783
appraisalsmost,0.021709
approach,0.004749
arkansa,0.014919
asset,0.007628
assign,0.007412
assist,0.024611
attempt,0.004707
attorney,0.033993
attract,0.006639
avail,0.010088
averag,0.012327
bank,0.005967
base,0.007191
basi,0.010280
becom,0.007966
behalf,0.036711
best,0.005484
biggest,0.018683
blank,0.012287
broker,0.633715
brokerag,0.167562
brokerageag,0.021709
busi,0.392644
businessspecif,0.021709
buy,0.023614
buyer,0.317790
buyerbrokerag,0.021709
california,0.015266
canadian,0.008458
career,0.008175
case,0.008333
certain,0.009122
certifi,0.010873
charg,0.006431
classifi,0.006741
client,0.095978
close,0.031215
colorado,0.011755
combin,0.009505
commenc,0.010082
commiss,0.092896
commissionbas,0.019358
commit,0.006985
common,0.012090
commonli,0.011070
compani,0.021051
compens,0.058969
complet,0.009206
comprehens,0.007341
condit,0.004663
conduct,0.005712
confidenti,0.024864
confidentialitybrok,0.021709
conflict,0.006207
consid,0.003887
consult,0.007696
contact,0.006994
conting,0.009680
contract,0.066863
control,0.004428
convent,0.012908
convers,0.006876
convey,0.020126
coordin,0.007065
cost,0.005860
cover,0.005487
creat,0.004077
creditor,0.011633
custom,0.020219
daili,0.007795
dakota,0.014782
date,0.005570
deal,0.016109
defin,0.009148
depend,0.004398
describ,0.004102
design,0.004895
determin,0.009257
develop,0.003333
differ,0.003533
dilig,0.013354
directli,0.005355
disclos,0.023290
disclosur,0.011992
discuss,0.005438
dmoz,0.008828
document,0.019305
doe,0.013530
doubl,0.007379
dual,0.084576
dure,0.003836
earn,0.015085
earnest,0.012659
effect,0.003898
embrac,0.009052
emot,0.008243
employ,0.005322
end,0.004387
ensur,0.019778
enter,0.005866
enterpris,0.007553
entir,0.005205
escrow,0.034092
especi,0.009319
establish,0.008565
estat,0.034170
estim,0.005647
exchang,0.005672
expect,0.005513
expens,0.014334
exposuremarket,0.021709
extern,0.003137
extrem,0.011512
facil,0.007692
facilit,0.014469
fee,0.075141
fiduciari,0.028055
financ,0.006358
financi,0.011457
firm,0.021501
flat,0.018355
florida,0.010534
focus,0.005586
follow,0.010298
form,0.019680
formula,0.007493
franchis,0.011586
fulfil,0.008677
fullservic,0.017285
gaug,0.010610
gener,0.009250
georgia,0.010256
given,0.004303
goal,0.005902
greatli,0.007027
guid,0.006067
ha,0.005722
handl,0.007802
hard,0.007042
held,0.010147
help,0.018791
highest,0.006571
highli,0.005649
himselfherself,0.020484
hisher,0.024669
hold,0.005168
home,0.006127
hourli,0.042797
howev,0.010447
ibba,0.021709
idaho,0.014827
idea,0.004816
ident,0.006144
illinoi,0.010504
includ,0.008936
incur,0.020581
individu,0.008852
inform,0.004266
initi,0.004662
intermediari,0.021781
interpret,0.005724
interst,0.012810
interview,0.008873
intracompani,0.019358
introduct,0.005688
invest,0.006109
investig,0.006012
involv,0.033279
island,0.006360
issu,0.004604
just,0.005003
kingdom,0.005707
knowledgebrok,0.021709
larger,0.016988
law,0.030253
leas,0.010830
lehman,0.043240
lender,0.023195
level,0.004289
licens,0.111055
license,0.018017
like,0.019159
limit,0.008762
line,0.005134
link,0.003119
list,0.055847
live,0.004638
loan,0.016646
local,0.009717
lower,0.005300
lowerpr,0.018595
ma,0.036244
magazin,0.008305
main,0.004541
maintain,0.005002
major,0.003805
make,0.003647
manag,0.005137
mani,0.003242
market,0.042957
maryland,0.011911
meet,0.005804
memorandum,0.012677
merger,0.020789
method,0.004442
michigan,0.010352
middl,0.011828
middlemen,0.014782
minnesota,0.011562
ml,0.026378
money,0.006410
month,0.012675
mpsp,0.021709
multimilliondollar,0.016828
multipl,0.011034
nation,0.003974
natur,0.003829
nebraska,0.014160
necessari,0.005716
need,0.008624
negoti,0.067576
nevada,0.013811
newspap,0.008880
nonrefund,0.019076
normal,0.017153
north,0.011391
notabl,0.005504
oblig,0.007921
obtain,0.011151
occur,0.013672
offer,0.016002
onc,0.005360
onli,0.009906
order,0.011859
oregon,0.012210
outlin,0.006982
outsid,0.005472
overal,0.006565
overlap,0.007972
owner,0.032456
ownership,0.025272
page,0.007032
paid,0.029256
pamphlet,0.012120
paper,0.005918
parti,0.038804
particip,0.005658
particularli,0.005030
pay,0.006696
payment,0.015463
percentag,0.007993
perform,0.005042
perhap,0.006668
person,0.014081
place,0.004056
posit,0.004251
possibl,0.004195
potenti,0.010651
power,0.004209
practic,0.022004
prepar,0.013342
prescreen,0.018195
price,0.030447
princip,0.070683
privat,0.011796
probabl,0.005902
process,0.015554
progress,0.005606
promot,0.005867
properti,0.009960
prospect,0.034964
protect,0.005482
provid,0.032846
provinc,0.007604
public,0.004142
purchas,0.034980
qualifi,0.017300
question,0.005165
rang,0.004937
real,0.021658
receiv,0.004984
recogn,0.005593
refer,0.002608
registr,0.010158
relat,0.003517
relationship,0.034857
repres,0.021396
represent,0.026325
requir,0.049281
respect,0.004961
retain,0.027441
rhode,0.011951
rule,0.009524
run,0.005732
sacrific,0.010626
sale,0.098796
satisfactori,0.023742
save,0.007408
sba,0.033656
scale,0.005904
schedul,0.008670
screen,0.009633
search,0.006677
secur,0.022170
sell,0.051658
seller,0.312707
seminar,0.011858
seriou,0.007308
serv,0.005192
servic,0.050827
set,0.004041
settlement,0.015226
sever,0.003785
sign,0.023911
similar,0.004335
singl,0.004858
situat,0.011179
skill,0.006994
small,0.004442
smaller,0.012347
sometim,0.004726
south,0.005685
special,0.018163
specif,0.004343
specifi,0.007381
standard,0.009780
start,0.009191
state,0.050828
statut,0.010665
stay,0.007947
street,0.008284
stress,0.007445
structur,0.004242
succeed,0.007422
success,0.019259
techniqu,0.005579
term,0.010292
themselv,0.005385
thi,0.013578
tie,0.007081
time,0.003212
tour,0.010474
tradit,0.004571
train,0.006269
transact,0.148532
transfer,0.024851
transit,0.006320
transmarket,0.021709
tri,0.005714
true,0.005878
trust,0.007936
type,0.017460
typic,0.024354
understand,0.009856
unit,0.003662
unusu,0.008802
upfront,0.015219
use,0.014833
usual,0.008738
utah,0.013144
valu,0.018613
valuat,0.020089
valuemost,0.021709
vari,0.026761
varieti,0.005451
veri,0.004146
way,0.011646
websit,0.006865
wide,0.004676
wisconsin,0.012034
wish,0.016055
work,0.014237
worth,0.016441
written,0.005748
wyom,0.015501
