abil,0.013202
access,0.026554
accord,0.009595
achiev,0.036215
adapt,0.015280
addit,0.009708
adrian,0.030163
advantag,0.014895
aggreg,0.020293
ahead,0.022402
al,0.016459
ani,0.008457
answer,0.017086
appli,0.010258
approach,0.033131
architectur,0.054301
articl,0.011404
assess,0.016345
asset,0.017739
attain,0.019425
attempt,0.010945
author,0.021608
base,0.008361
becaus,0.026130
benefit,0.028082
bonjour,0.042311
build,0.073465
built,0.014424
busi,0.052174
c,0.011073
camera,0.025047
capabl,0.045781
capac,0.016064
caution,0.027278
challeng,0.027686
chang,0.034948
christensen,0.033342
ck,0.034273
cluster,0.021263
collect,0.011305
combin,0.022103
commit,0.016244
compani,0.048953
compet,0.591255
competit,0.060962
competitor,0.048018
concept,0.021632
confus,0.017445
constraint,0.019244
consum,0.015433
continu,0.009391
contribut,0.034129
control,0.010298
core,0.559637
corpor,0.076036
cost,0.013627
costcut,0.039379
creation,0.014108
criteria,0.019410
critic,0.011401
custom,0.031346
cut,0.016455
d,0.012547
danilov,0.047635
dc,0.021463
defin,0.021274
definit,0.012255
deliv,0.018269
demand,0.013838
design,0.011384
despit,0.013143
develop,0.085270
differ,0.008217
difficult,0.067594
dilut,0.027024
discov,0.013649
distinguish,0.013761
domin,0.012755
dunningkrug,0.050482
effect,0.009065
electron,0.015615
embodi,0.021576
emerg,0.011960
enabl,0.029598
end,0.030608
energi,0.013063
enforc,0.017494
enhanc,0.017284
environ,0.012370
et,0.016041
evalu,0.016169
evolv,0.015317
exampl,0.025072
execut,0.042407
exercis,0.016033
expertis,0.022762
exploit,0.034743
far,0.012653
fine,0.019949
firm,0.050000
foresight,0.032398
fulfil,0.020179
furthermor,0.017100
futur,0.072921
g,0.013499
galun,0.050482
gari,0.024895
global,0.013251
goal,0.013725
good,0.011094
grossli,0.032696
ha,0.019961
hamel,0.191192
harmon,0.024255
harvard,0.019496
hein,0.032929
help,0.010924
high,0.010104
identifi,0.036187
illustr,0.017017
imit,0.023606
import,0.017021
improv,0.012279
includ,0.006927
incompet,0.029437
independ,0.010248
industri,0.045558
innov,0.034568
intang,0.029311
integr,0.036125
intellectu,0.017118
introduc,0.023410
journal,0.025668
k,0.015128
key,0.012697
knowledg,0.012549
larg,0.008792
lead,0.019907
leadership,0.018100
learn,0.014014
leisner,0.050482
leonardbarton,0.050482
level,0.009975
like,0.008910
link,0.007253
make,0.016965
manag,0.083629
mani,0.015079
map,0.015260
market,0.062433
marketplac,0.026374
matric,0.027544
mean,0.009186
mechan,0.012318
method,0.020662
micaelli,0.050482
microelectron,0.033606
microsoft,0.052847
migrat,0.017823
multipl,0.012830
nec,0.038894
necessari,0.013293
need,0.010027
new,0.014902
note,0.009617
onli,0.007678
opportun,0.031512
optic,0.020067
order,0.009192
organ,0.018197
organiz,0.021852
origin,0.009244
outcom,0.017053
overestim,0.031169
p,0.025467
paradox,0.021332
particularli,0.011698
peopl,0.009196
perceiv,0.016775
period,0.009911
physic,0.010915
pleas,0.025264
point,0.019352
portfolio,0.114727
potenti,0.024768
pp,0.015594
prahalad,0.233098
precis,0.015756
present,0.009564
price,0.014160
prioriti,0.020171
process,0.027127
product,0.169478
propos,0.011801
provid,0.008486
qualiti,0.014251
question,0.012011
race,0.018792
rang,0.011482
read,0.010536
realiz,0.016962
reason,0.010887
recent,0.021009
recombin,0.025224
refer,0.006066
relat,0.008179
replic,0.021412
repres,0.009951
requir,0.028649
resourc,0.085969
resourcebas,0.041154
respect,0.034610
respons,0.010521
result,0.008450
retain,0.015953
review,0.013592
revit,0.029480
rigid,0.022573
rodan,0.045760
s,0.017207
sbu,0.043773
schumpeterian,0.039379
semiconductor,0.026473
set,0.009397
sever,0.008801
signific,0.010777
similar,0.010081
singl,0.011298
skill,0.048793
slywotzki,0.044360
someth,0.016232
specif,0.020202
spend,0.017524
stakehold,0.027135
steer,0.027888
strateg,0.092133
structur,0.019728
succeed,0.017260
taken,0.012362
tangibl,0.027278
techniqu,0.012974
technolog,0.012172
telecommun,0.022007
tendenc,0.018958
term,0.007977
theori,0.009896
therefor,0.011475
thi,0.006314
think,0.014641
time,0.014940
titl,0.015154
tomorrow,0.030212
unit,0.008515
use,0.041391
user,0.018729
util,0.030547
v,0.015053
valu,0.021642
varieti,0.038030
versa,0.023961
vertic,0.021841
vice,0.019546
view,0.064926
war,0.011993
way,0.009027
wide,0.032621
year,0.008520
