abl,0.025391
abov,0.008578
account,0.023675
accur,0.011416
action,0.016466
actual,0.025727
admiss,0.017873
agil,0.109866
ahiagadagbui,0.070501
air,0.010293
airport,0.014759
alon,0.011458
ambigu,0.015745
andor,0.011726
ani,0.005905
announc,0.011252
anticip,0.014902
approach,0.015423
architect,0.017814
architectur,0.012639
arditi,0.031953
arent,0.021062
argument,0.022515
arriv,0.010786
aspect,0.008806
assur,0.061067
attempt,0.007643
attribut,0.010416
australia,0.011646
author,0.007544
averag,0.020017
avoid,0.020017
award,0.011812
away,0.010207
bad,0.013745
becaus,0.006082
becom,0.006467
behaviour,0.012456
benefit,0.019609
berlin,0.014389
bia,0.030813
billion,0.057381
boe,0.021805
brandenburg,0.024381
bridg,0.026696
british,0.009021
budget,0.151762
bug,0.042541
build,0.025649
built,0.010072
bullet,0.019977
came,0.008847
cancel,0.015328
cardena,0.029256
care,0.010165
case,0.040595
catch,0.016290
caus,0.021667
centuri,0.006948
chao,0.031319
chaotic,0.018538
cheapli,0.022059
chen,0.019777
chosen,0.012365
claim,0.016428
class,0.008975
clearli,0.012167
closer,0.013390
code,0.010471
collect,0.007894
commit,0.034029
committe,0.011611
common,0.013088
commonli,0.008987
compani,0.008545
complet,0.022424
compon,0.009320
conceptu,0.013026
conflat,0.020738
consid,0.012623
constitut,0.008545
construct,0.058668
context,0.009520
contract,0.032571
control,0.007190
convent,0.020960
converg,0.014257
cost,0.409177
costthi,0.035250
cours,0.018866
cover,0.008910
credit,0.020947
creep,0.045555
critic,0.007961
custom,0.010944
cut,0.011490
data,0.008637
decid,0.010547
decis,0.009125
defi,0.020467
defici,0.017166
deliveri,0.031286
den,0.019406
denial,0.018682
depart,0.009489
depend,0.007141
describ,0.039970
develop,0.032477
dewulf,0.033262
did,0.008034
differ,0.017213
difficult,0.009439
digest,0.016536
distinct,0.008335
distinguish,0.009609
doe,0.007323
domin,0.008906
doubt,0.013968
dreamlin,0.035250
duisburg,0.029856
dure,0.018690
econom,0.007131
edinburgh,0.017727
effect,0.018991
elb,0.026559
emerg,0.008351
employ,0.008643
engin,0.009390
entrap,0.025270
eriksson,0.027678
escal,0.067516
essenti,0.009058
estim,0.036678
euro,0.132633
eventu,0.009261
exampl,0.011671
exceed,0.027368
excess,0.012592
exclus,0.011131
exist,0.012959
expans,0.010994
expect,0.017905
expenditur,0.014407
expens,0.046551
explan,0.057352
explor,0.019856
express,0.008442
extens,0.008799
extern,0.005095
fact,0.008273
factor,0.016524
fail,0.009797
fallaci,0.018520
famili,0.009022
faster,0.040781
featur,0.008812
fiasco,0.028068
final,0.042141
financi,0.009302
finland,0.017423
firm,0.011637
fix,0.020684
focus,0.009070
follow,0.011147
forecast,0.046055
form,0.005326
fourteen,0.018948
ga,0.011722
germani,0.010491
good,0.007746
govern,0.039756
grossli,0.022830
ground,0.010139
group,0.006285
grown,0.013419
growth,0.008819
guarante,0.012781
ha,0.023230
hall,0.013220
hamburg,0.020438
henc,0.010871
heurist,0.017828
histor,0.007827
histori,0.005803
hm,0.018503
home,0.019899
hous,0.009347
howev,0.005654
human,0.006713
hypothes,0.013855
identifi,0.008423
imperfect,0.017154
implement,0.029103
import,0.005942
inaccur,0.018889
inadequ,0.016547
includ,0.004836
increas,0.013400
incur,0.033419
inde,0.011847
independ,0.007156
industri,0.007953
inflat,0.026244
infrastructur,0.023594
instrument,0.010729
involv,0.006754
kingdom,0.009268
known,0.005821
landesarchiv,0.035250
larg,0.006139
late,0.016130
later,0.006928
lead,0.006950
li,0.018056
linden,0.027324
link,0.005065
list,0.012954
lockedin,0.028736
major,0.030898
make,0.017770
manag,0.016684
mani,0.015794
manley,0.027497
mayb,0.021096
mean,0.006414
meant,0.011947
measur,0.022887
meet,0.018849
megaproject,0.147724
member,0.007431
mere,0.011458
million,0.073192
mislead,0.017613
misnom,0.023223
misrepresent,0.023593
mitig,0.016742
model,0.007255
money,0.031229
multipl,0.008958
narrow,0.013153
nation,0.006454
natur,0.006218
need,0.014004
newer,0.017104
nice,0.021130
nonlinear,0.015958
nordrheinwestfalen,0.033262
nuclear,0.011901
obtain,0.009053
oil,0.011625
olkiluoto,0.035250
onbudget,0.035250
onli,0.005361
ontim,0.029856
opera,0.020028
optim,0.024709
order,0.006418
organis,0.022055
origin,0.025820
overran,0.023593
overrun,0.710494
paper,0.009610
parliament,0.035242
partial,0.010714
particular,0.007290
peopl,0.006421
percent,0.023396
percentag,0.051919
perfect,0.013013
perform,0.008188
philharmon,0.028068
place,0.006587
plan,0.017642
plane,0.014029
plant,0.010112
point,0.006756
polit,0.007310
politicaleconom,0.054000
popular,0.008333
portfolio,0.016022
portion,0.011704
possibl,0.013625
power,0.006835
predict,0.009772
prevent,0.028646
primordi,0.018775
princ,0.014413
principl,0.008017
privat,0.009577
problem,0.014286
process,0.018942
programm,0.025676
project,0.256203
proper,0.011983
provid,0.005926
psycholog,0.045540
public,0.006726
rang,0.008017
ration,0.011510
realist,0.014557
rebrand,0.023932
recent,0.014670
reclassifi,0.024003
recommend,0.012486
recur,0.018087
reduc,0.016049
reduct,0.012188
refer,0.016943
regard,0.008127
relat,0.005711
relev,0.011079
report,0.008141
repres,0.006948
requir,0.033342
respons,0.007347
result,0.005900
rethink,0.020187
reus,0.019428
reusabl,0.050742
review,0.009491
rise,0.008524
risk,0.010422
scenario,0.030687
scope,0.049813
scottish,0.032522
sector,0.011105
seek,0.009505
seen,0.016623
seriou,0.011866
set,0.013123
shortfal,0.022193
shown,0.010215
silver,0.014739
size,0.027542
smith,0.024980
socal,0.011895
social,0.007499
softwar,0.062452
solut,0.020172
someth,0.011334
specif,0.007053
spent,0.013030
st,0.009503
staatsop,0.035250
standish,0.030565
statement,0.010822
strateg,0.012866
strong,0.008566
studi,0.031151
subject,0.007499
succeed,0.012052
suggest,0.024759
suitabl,0.026174
suppos,0.012954
sydney,0.018468
systemat,0.011263
taken,0.008632
target,0.010976
technic,0.020969
techniqu,0.027179
technolog,0.008499
tendenc,0.013238
term,0.022282
test,0.009637
theori,0.027640
therebi,0.012202
therefor,0.016026
thi,0.035276
throw,0.018103
time,0.020864
total,0.041128
tradit,0.022271
trait,0.013968
tram,0.024462
transport,0.010106
treasuri,0.015668
tri,0.009279
trim,0.023862
truth,0.012543
type,0.007087
uk,0.021611
underestim,0.039362
underr,0.031953
understand,0.008002
undertak,0.032007
unexpect,0.017216
unit,0.011892
univers,0.012211
unnecessari,0.017410
unter,0.028988
unwant,0.019634
usa,0.026323
use,0.048171
user,0.039235
util,0.010665
ventur,0.015527
veri,0.006732
voordijk,0.033262
wa,0.029002
wang,0.019088
wast,0.028283
way,0.006303
westerberg,0.035250
wherea,0.020460
wide,0.015186
work,0.005779
worst,0.016261
worstcas,0.024627
worth,0.013348
year,0.017849
