abil,0.013376
acceler,0.018699
accord,0.038887
achiev,0.012230
activ,0.048506
add,0.018539
advanc,0.012008
advantag,0.015091
alreadi,0.014163
american,0.044062
area,0.009656
arm,0.015502
arrang,0.015850
assembl,0.030355
assum,0.013468
author,0.010946
autom,0.021756
automobil,0.024358
automot,0.027876
band,0.021140
bargain,0.026336
becam,0.010715
behalf,0.021623
benchmark,0.026671
bibliographi,0.017049
busi,0.013215
came,0.012837
canada,0.016816
canadian,0.019929
carri,0.012657
carriag,0.033869
case,0.009817
categori,0.014981
caus,0.020959
certain,0.010746
chang,0.035408
charact,0.016225
chemic,0.014950
china,0.015085
cigarett,0.030273
civil,0.013468
class,0.039069
classif,0.207903
classifi,0.047648
coal,0.022895
combin,0.011197
common,0.018990
commonli,0.013040
compani,0.024799
compet,0.016190
competit,0.030882
complet,0.010845
complex,0.022981
comput,0.013012
concept,0.010958
condit,0.010987
consequ,0.013353
consid,0.018316
construct,0.012160
continu,0.009515
contract,0.015753
cost,0.013806
countri,0.072341
creat,0.009605
crimean,0.032135
criteria,0.019666
cultur,0.023615
customari,0.026176
declin,0.044731
defin,0.021554
definit,0.012417
deindustrialis,0.041695
delin,0.053951
depend,0.010361
deriv,0.011940
describ,0.009665
destruct,0.018586
develop,0.054977
developingsemidevelop,0.048262
dictionari,0.019039
differ,0.008325
difficulti,0.016960
divid,0.012452
divis,0.013610
dure,0.027119
earli,0.009456
easi,0.019201
econom,0.072427
economi,0.051648
ed,0.013235
effect,0.009185
effici,0.014804
electr,0.031266
electron,0.015821
emphasi,0.017149
employ,0.037623
employe,0.019810
end,0.010337
engin,0.013625
entertain,0.023247
entiti,0.016042
european,0.011776
eventu,0.013437
exampl,0.008467
expens,0.016886
extern,0.007392
extract,0.018199
factor,0.011987
factori,0.041374
fashion,0.019899
favour,0.018592
feudal,0.024424
file,0.021103
financ,0.029962
fish,0.017639
follow,0.008087
food,0.014550
fraction,0.019788
function,0.010350
ga,0.017009
gener,0.007264
given,0.010140
global,0.013426
goal,0.013906
gone,0.022435
good,0.011240
govern,0.009614
graham,0.025763
grid,0.025597
group,0.018239
ha,0.047189
harvey,0.025638
high,0.010237
highli,0.013309
histor,0.022713
hospit,0.019936
hour,0.017765
human,0.009740
identifi,0.024442
import,0.017245
includ,0.014036
increas,0.019443
increasingli,0.014904
india,0.015478
indic,0.012437
individu,0.010428
industri,0.738539
inform,0.020102
informationbas,0.038954
input,0.018316
instanc,0.013691
interdepend,0.025377
interlink,0.032680
intern,0.008859
introduc,0.011859
introduct,0.013402
isbn,0.011951
isic,0.289576
j,0.012696
job,0.017458
key,0.025729
kind,0.013466
knowledg,0.012715
krahn,0.042449
labour,0.085563
larg,0.008907
largescal,0.019695
later,0.020104
lead,0.010084
leadership,0.018338
lean,0.027608
led,0.021817
level,0.020214
limit,0.010322
line,0.024193
link,0.007349
list,0.009398
locat,0.012427
look,0.013955
loss,0.014782
low,0.038859
lower,0.024977
machinepow,0.048262
major,0.017933
manag,0.012104
mani,0.038195
manifest,0.019442
manufactur,0.257880
market,0.025302
marketbas,0.031020
mass,0.013860
massproduc,0.064402
measur,0.033209
meatpack,0.040436
mechan,0.012480
media,0.015502
member,0.021566
mercantil,0.026721
migrat,0.018058
militari,0.013672
militaryindustri,0.038741
mobil,0.017952
modern,0.010137
movement,0.011654
multipl,0.012998
nation,0.028094
negoti,0.017689
nelson,0.025536
north,0.040257
number,0.016909
occur,0.010737
offshor,0.024643
onc,0.012628
ont,0.038536
oper,0.010661
organ,0.009218
origin,0.009366
outlin,0.016450
output,0.070559
p,0.012901
paper,0.013944
peopl,0.027953
perform,0.011880
petroleum,0.021725
placement,0.026525
polici,0.012506
pollut,0.022734
popul,0.012024
possibl,0.009884
postindustri,0.071969
potenti,0.012547
poverti,0.019936
power,0.019835
previou,0.014614
primari,0.012792
process,0.054970
produc,0.030250
product,0.131307
prosper,0.020034
qualiti,0.028878
quaternari,0.030609
quinari,0.042868
quotat,0.025742
rank,0.016362
rapid,0.016795
recent,0.010643
refer,0.006146
regul,0.014550
rel,0.011020
relat,0.041435
relev,0.016075
reloc,0.025338
repeat,0.017740
replac,0.025049
republ,0.014425
research,0.019942
resid,0.016283
rev,0.027464
revenu,0.035862
revolut,0.091356
robot,0.022783
rose,0.018651
s,0.008717
scarborough,0.037276
second,0.010087
secondari,0.017502
sector,0.145023
semiconductor,0.026821
servic,0.035925
signific,0.010919
significantli,0.015774
similar,0.010214
skill,0.032957
socal,0.017259
societi,0.096454
softwar,0.018123
sourc,0.021519
specif,0.010234
stabl,0.016834
staff,0.020165
standard,0.046084
statist,0.028067
steampow,0.036665
steel,0.021425
step,0.014504
success,0.022687
suppli,0.013944
systemat,0.016342
tech,0.029060
technolog,0.024666
tertiari,0.025868
theori,0.010026
thi,0.051184
threesector,0.045609
time,0.007568
today,0.012288
togeth,0.011795
total,0.011935
trade,0.012374
tradit,0.010771
transit,0.014892
transport,0.014664
trend,0.016338
turbin,0.031759
typic,0.011475
union,0.038133
unit,0.017255
upgrad,0.024558
upset,0.028911
use,0.027957
varieti,0.012843
variou,0.009737
wa,0.028054
wage,0.018796
war,0.060756
warfar,0.065083
way,0.018292
weapon,0.018995
weaponri,0.029330
web,0.018545
wikimedia,0.023842
wikiquot,0.032401
wiktionari,0.032135
wind,0.020323
work,0.025157
worker,0.047769
world,0.017344
xii,0.030863
