abduct,0.009471
acapulco,0.011928
acced,0.009602
access,0.004247
acquir,0.004999
acquisit,0.006636
ad,0.007834
addict,0.009528
adolphin,0.016148
affect,0.004011
age,0.019220
agre,0.004627
aircraft,0.006817
alan,0.006507
alcohol,0.007046
aliv,0.007669
allen,0.014173
alreadi,0.004471
america,0.004301
american,0.017389
andrew,0.006234
angel,0.022083
anglophil,0.016148
ann,0.007189
antiqu,0.006351
apart,0.005625
appear,0.003555
approxim,0.012549
arab,0.005669
arabia,0.007508
arabian,0.008533
argu,0.004083
arrest,0.006746
arriv,0.014823
art,0.009391
artisan,0.008468
artist,0.006442
ashbi,0.011820
ask,0.005074
associ,0.005997
attend,0.005856
aunt,0.010559
author,0.003456
autobiographi,0.018545
avenu,0.008880
avid,0.010749
barrel,0.008583
barren,0.010208
base,0.002674
basi,0.003823
beach,0.008018
becam,0.010149
becom,0.002962
befor,0.003161
began,0.007391
begin,0.003608
berkeley,0.007228
best,0.004079
bigger,0.008307
billion,0.042057
billionair,0.010931
biographi,0.007139
bit,0.007527
blind,0.015150
book,0.010553
border,0.005452
born,0.015685
brain,0.005922
britain,0.005214
british,0.012397
broaderbas,0.015237
brought,0.004562
buri,0.007318
busi,0.020861
businessmen,0.009005
cafeteria,0.012441
calif,0.010899
california,0.022711
came,0.004052
cape,0.007785
caraca,0.011928
cash,0.006195
cassel,0.011029
castl,0.008405
catherin,0.008830
centr,0.005097
centuri,0.003183
chair,0.006962
charg,0.004783
chat,0.010665
chicago,0.012083
children,0.010196
choic,0.004870
chronicl,0.007807
citi,0.004281
citizen,0.005073
cliff,0.008300
coast,0.005657
cocktail,0.011669
coinbox,0.032296
collect,0.007232
collector,0.017583
come,0.007091
compani,0.035233
complet,0.003424
concess,0.007841
conserv,0.004921
contain,0.003556
contend,0.007146
continu,0.003004
contribut,0.003639
control,0.003294
convict,0.007185
copycat,0.013056
corpor,0.024322
cost,0.004359
counti,0.007378
countri,0.006525
cours,0.004321
cousin,0.008153
crimin,0.006280
crown,0.006421
crucial,0.006035
daili,0.005798
day,0.003741
death,0.017369
decemb,0.004549
deduct,0.007173
defend,0.005547
delay,0.006332
deliveri,0.007166
demand,0.026559
demont,0.016148
depress,0.006160
describ,0.003051
despit,0.004204
destroy,0.005184
develop,0.002479
diallock,0.032296
did,0.003680
didnt,0.008147
die,0.023753
diploma,0.009443
direct,0.003292
discov,0.004366
distress,0.008229
divorc,0.049979
dont,0.006928
drill,0.008215
drug,0.011695
dudley,0.010386
duell,0.013832
dure,0.008562
dutton,0.011206
ear,0.023765
earli,0.002985
earth,0.004686
easili,0.005114
east,0.004589
eastern,0.004954
econom,0.003266
eighteenth,0.007629
enabl,0.004733
engag,0.004727
england,0.010359
englewood,0.009915
enrol,0.008208
entertain,0.007339
envelop,0.008698
establish,0.003185
estat,0.025417
estim,0.004200
ethel,0.011769
eugen,0.007297
europ,0.008095
execut,0.004521
expans,0.005036
explain,0.004018
extract,0.005745
f,0.008793
failur,0.020774
fame,0.007858
famili,0.016533
famous,0.015506
father,0.020992
februari,0.009699
field,0.003259
fifth,0.012713
figur,0.004420
final,0.003860
financi,0.008522
flow,0.004700
form,0.002439
fortun,0.028962
foundat,0.004162
fourteen,0.008680
franklin,0.014603
freeli,0.006942
friend,0.006339
friendli,0.007352
frugal,0.010778
fs,0.010533
funer,0.008735
gambl,0.008840
gastonpublish,0.016148
geneva,0.008484
georg,0.027602
georgia,0.007629
getti,0.921499
gettyphilanthropyroundtableorg,0.016870
girlfriend,0.012231
gladli,0.012857
golden,0.006467
gordon,0.007444
grandchildren,0.010386
grandfath,0.018302
grandson,0.017882
gravesit,0.014912
great,0.007194
greatli,0.005227
greec,0.006033
gross,0.006240
guarante,0.005855
guest,0.008428
guildford,0.029275
guin,0.010229
ha,0.002128
hair,0.007599
hall,0.006056
haskel,0.010721
hate,0.018326
hawthorn,0.010808
heart,0.005858
heir,0.008167
helml,0.016148
help,0.003494
henri,0.005144
hewin,0.014912
hi,0.117341
histor,0.003585
histori,0.005317
hold,0.003844
holt,0.009744
home,0.004557
hostag,0.009471
hotel,0.015370
hous,0.025691
howev,0.005181
human,0.003075
ibn,0.006948
identifi,0.003858
ii,0.004177
iii,0.030521
immedi,0.004692
inandout,0.016148
includ,0.006647
increas,0.006138
industrialist,0.009528
inherit,0.011837
initi,0.003468
inspir,0.005281
instal,0.012598
institut,0.010132
insur,0.006153
interview,0.006600
invest,0.004544
isbn,0.018866
isl,0.008194
italian,0.005989
j,0.080171
jean,0.019859
jeanett,0.013677
john,0.014522
joy,0.008653
jr,0.013559
juli,0.004610
june,0.018601
just,0.007443
kansa,0.009430
kidnap,0.018119
kidnapp,0.053117
knew,0.007518
known,0.002666
kuwait,0.009026
ladispoli,0.016148
land,0.004038
later,0.009521
lauria,0.015237
lawless,0.011206
le,0.006356
learn,0.004482
left,0.008507
lent,0.008820
life,0.013721
limit,0.003258
line,0.003819
list,0.005934
littl,0.004084
live,0.017251
lo,0.021955
lock,0.006911
london,0.017972
longdist,0.009362
louis,0.010317
louisenow,0.016148
lund,0.011169
lynch,0.009679
m,0.003816
macmillan,0.007289
magazin,0.006177
make,0.008140
malibu,0.013677
man,0.004721
manag,0.003821
mansion,0.010533
mariechant,0.016148
marit,0.010533
marqu,0.011769
marri,0.020067
marriag,0.020238
martin,0.005648
matricul,0.012368
maximum,0.005802
mcmeel,0.015237
mcpherson,0.012857
meek,0.012679
memoir,0.008609
merchandis,0.009151
mere,0.010498
merg,0.006426
mexican,0.008500
mexico,0.006657
middl,0.008798
mile,0.006202
miller,0.014898
million,0.046102
millionth,0.011928
miner,0.005907
minneapoli,0.009933
minnehoma,0.032296
minnesota,0.008600
miser,0.010105
miserli,0.014002
mission,0.015960
money,0.019074
monica,0.011063
month,0.009428
mors,0.009727
museum,0.019302
mutil,0.010665
nanci,0.009037
nation,0.002956
near,0.021936
nearbi,0.006566
nearli,0.009294
negoti,0.005585
new,0.011917
newspap,0.006605
nj,0.007830
noncollegi,0.016148
northwest,0.007297
notabl,0.004094
novemb,0.009571
number,0.002669
numer,0.003953
obtain,0.004147
obviou,0.006740
odyssey,0.009402
oil,0.095864
oklahoma,0.029039
onli,0.004912
onward,0.006764
open,0.003652
oper,0.010098
opportun,0.005040
outrag,0.009186
outsid,0.004070
overal,0.004883
oversea,0.006364
owner,0.006035
oxford,0.005013
p,0.004073
pacif,0.018553
paid,0.016321
pain,0.006758
palac,0.007629
palisad,0.012104
paralyz,0.010996
partial,0.004908
pass,0.004145
paul,0.143782
pay,0.019926
payphon,0.015237
paytelephon,0.016148
pearc,0.010963
pearson,0.008405
peopl,0.011767
percentag,0.005945
perhap,0.004960
perman,0.005170
peter,0.004865
petroleum,0.013718
pg,0.010125
philanthropi,0.010808
phone,0.022843
pia,0.011985
pick,0.006945
pierr,0.013737
place,0.030176
plagu,0.007685
playboy,0.027068
ploy,0.011718
point,0.003095
polit,0.003348
possibl,0.003120
postal,0.008215
potenza,0.016148
prenticehal,0.009260
presentday,0.006872
press,0.010803
princess,0.008951
print,0.005745
privat,0.008774
produc,0.003183
product,0.003188
promin,0.004797
provinc,0.005656
public,0.003081
publish,0.006792
purchas,0.005203
quot,0.012802
ralph,0.008229
ranch,0.010251
rank,0.005165
ransom,0.040919
rare,0.005035
read,0.003370
reason,0.013930
rebelli,0.009915
record,0.004090
reduc,0.003676
refer,0.001940
refurbish,0.011243
refus,0.022651
regret,0.010065
regular,0.010632
relationship,0.003704
releas,0.004849
remain,0.003209
remarkth,0.016148
remov,0.004480
render,0.006364
renov,0.009711
report,0.003729
reput,0.006752
research,0.003148
resourc,0.003928
respons,0.003365
rest,0.009092
return,0.007854
revolcadero,0.016148
rich,0.011129
richest,0.050761
right,0.003482
risher,0.016148
risk,0.004774
robina,0.015237
rome,0.013251
ronald,0.006931
room,0.006294
rork,0.014189
rothschild,0.010838
routin,0.006965
ruler,0.006483
run,0.004264
russel,0.006801
s,0.011008
safe,0.006344
said,0.007974
santa,0.007690
sarah,0.009323
saud,0.011622
saudi,0.007910
say,0.004204
scienc,0.003263
scold,0.013534
seaboard,0.011243
seal,0.007277
second,0.006369
senior,0.006431
settl,0.005515
shall,0.007083
sheed,0.014002
shortli,0.006039
shrewdli,0.013402
sister,0.007453
site,0.004549
sixyearold,0.014189
sizabl,0.009093
skelli,0.028379
skyjack,0.016148
slaughter,0.008962
sloan,0.009827
soar,0.008753
somerset,0.011321
son,0.041367
sort,0.005664
southern,0.005012
spartan,0.022563
speak,0.010356
speechless,0.014637
spend,0.005605
spent,0.011938
spread,0.004773
staff,0.006366
station,0.005899
street,0.006162
strike,0.006007
stroke,0.008626
struben,0.016148
student,0.004596
studi,0.002854
submit,0.006764
subsid,0.008012
success,0.014325
suddenli,0.008012
summer,0.006247
surrey,0.034593
suspect,0.007216
sutton,0.084892
taken,0.003954
tax,0.005075
taylor,0.006795
teddi,0.037552
teenag,0.009664
telephon,0.051678
televis,0.006087
terrorbomb,0.016148
terrorist,0.008174
th,0.006193
thank,0.007426
thcenturi,0.012454
thi,0.004040
thought,0.003827
threaten,0.006140
thu,0.003157
tidewat,0.027068
time,0.004778
timmi,0.029275
timothi,0.008626
town,0.005545
tract,0.007700
tradesmen,0.011669
tradit,0.003400
traffic,0.007135
trauma,0.008920
treatment,0.004967
trident,0.012596
trust,0.011807
tudor,0.010585
tulsa,0.014189
tumor,0.008671
twiceremov,0.016148
ultim,0.004671
uncl,0.008635
univers,0.008391
unless,0.006051
unparallel,0.011321
use,0.006620
vane,0.012441
victim,0.007256
villa,0.009402
violenc,0.006431
visit,0.005425
wa,0.050930
want,0.004986
ware,0.009430
wealth,0.022245
wealthiest,0.018915
week,0.005676
western,0.008124
wh,0.009845
whicker,0.014399
whod,0.014637
wide,0.003478
wife,0.013924
wive,0.009572
woman,0.006743
wooster,0.013677
word,0.003748
work,0.007942
workmen,0.011576
world,0.010952
worth,0.012229
x,0.004781
year,0.016353
yearold,0.007869
york,0.020797
