accord,0.010772
account,0.012688
achiev,0.009035
acquir,0.005849
activ,0.003583
acumen,0.013542
ad,0.018331
african,0.006294
age,0.031480
aggreg,0.007594
alejandro,0.012788
algeria,0.010123
aliko,0.036583
aliv,0.035891
alon,0.006141
alway,0.004828
amancio,0.071305
amazon,0.010274
america,0.015098
american,0.012206
ani,0.006329
announc,0.006030
annual,0.038615
answer,0.006394
anyon,0.023487
app,0.011306
appear,0.004159
approxim,0.004893
arcelormitt,0.015400
arnault,0.017446
artwork,0.011000
asia,0.018497
asian,0.006841
asianpacif,0.015400
asiapacif,0.011234
asset,0.046470
averag,0.016091
bare,0.008845
base,0.003129
basi,0.004472
batista,0.014233
becam,0.015831
befor,0.003698
benefit,0.005254
berkshir,0.025886
bernard,0.008433
better,0.004882
bezo,0.017124
biggest,0.008129
billion,0.209114
billionair,0.716155
bjorgolfsson,0.018291
blake,0.012610
bloomberg,0.023285
bubbl,0.018154
buffett,0.086055
burst,0.009753
busi,0.014643
came,0.033191
carlo,0.066020
chang,0.003269
charl,0.005554
china,0.050146
christi,0.039074
claim,0.013207
clear,0.005398
closer,0.007176
cofound,0.019927
coincid,0.007801
colombia,0.009888
combin,0.024814
come,0.008296
commod,0.007039
compani,0.004579
compar,0.004289
compil,0.014966
conduct,0.004971
consecut,0.058839
continu,0.003514
contribut,0.004257
cooper,0.005543
countri,0.026720
creat,0.003547
crisi,0.011971
dangot,0.033692
date,0.004847
david,0.010305
day,0.004377
deal,0.004672
debt,0.013452
debut,0.034614
declar,0.005602
definit,0.004586
dictat,0.016590
die,0.016673
diesel,0.011753
differ,0.006150
disappear,0.007374
disney,0.012124
dispers,0.015921
doe,0.003924
dolan,0.014833
dollar,0.033888
domingo,0.023285
dotcom,0.024358
drop,0.031832
durgi,0.018291
dustin,0.016381
earli,0.003492
eclips,0.009359
econom,0.003821
economi,0.004769
editor,0.014868
edwin,0.009213
eighth,0.009745
eightynin,0.017446
eik,0.018291
ellison,0.040018
employ,0.004632
enter,0.005105
entertain,0.008586
enthusiasm,0.010652
entir,0.004529
entrant,0.011993
equal,0.019023
eras,0.011269
essenti,0.019418
estim,0.049142
estrada,0.014388
europ,0.009470
european,0.004349
evan,0.009762
everi,0.004369
exclud,0.013139
extern,0.002730
facebook,0.032814
facebookrel,0.018291
fail,0.015751
fall,0.014300
famili,0.009671
father,0.006139
featur,0.014168
fell,0.033723
femal,0.021034
fifth,0.014873
fifti,0.017702
figur,0.005171
final,0.009033
financi,0.019941
finland,0.009337
fluctuat,0.007798
follow,0.008961
forb,0.212161
forbess,0.032001
fortun,0.152476
founder,0.065451
fourth,0.045608
franc,0.005345
gain,0.004543
gainer,0.068499
gap,0.014538
gate,0.099437
gener,0.002683
georgia,0.008925
germani,0.016868
global,0.029754
good,0.008303
greatest,0.019714
group,0.003368
grow,0.009576
guardian,0.009226
guatemala,0.011287
ha,0.024900
hail,0.020064
half,0.005140
harder,0.009281
hathaway,0.028043
held,0.004415
hi,0.053571
high,0.003781
highest,0.022873
histori,0.003110
hit,0.007731
hold,0.026987
home,0.005332
hong,0.026191
howev,0.012122
human,0.003597
hundr,0.005673
iceland,0.009602
idea,0.004191
ikea,0.014833
immedi,0.005489
includ,0.020738
increas,0.014363
india,0.028585
individu,0.038517
inflat,0.014065
ingvar,0.015679
inherit,0.048472
interview,0.007721
investor,0.007114
isaac,0.008082
issu,0.008014
jeff,0.011097
join,0.005554
just,0.008708
kamprad,0.018291
kash,0.016000
kerri,0.013339
known,0.003120
koch,0.034801
kong,0.026419
lakshmi,0.014388
land,0.004725
lane,0.009547
larg,0.003290
largest,0.030938
larri,0.020438
leav,0.005286
led,0.004029
legend,0.008795
li,0.009676
link,0.002714
list,0.225640
lithuania,0.010638
live,0.008073
lopez,0.012383
loser,0.048717
loss,0.016380
lost,0.010850
lp,0.012097
macau,0.012477
magazin,0.014455
magnat,0.012715
maintain,0.004352
major,0.003311
make,0.012697
maker,0.008611
man,0.016569
march,0.046590
mario,0.010818
mark,0.030072
market,0.014018
marvel,0.011399
media,0.011451
member,0.003982
messag,0.007757
methodolog,0.006607
mexican,0.019889
michael,0.005744
microsoft,0.039553
million,0.004903
mittal,0.015400
mixtur,0.007805
mogul,0.045127
month,0.005515
morocco,0.009879
moskovitz,0.018291
movil,0.017124
narrow,0.007049
narrowli,0.009702
nd,0.011616
net,0.098430
new,0.008365
newcom,0.156244
newli,0.006567
nigeria,0.009992
nigerian,0.011799
ninth,0.019542
number,0.065580
oldest,0.006752
onc,0.004664
onli,0.005747
oracl,0.011016
oretega,0.018291
ortega,0.055821
outnumb,0.020730
overal,0.039993
oxfam,0.014935
pakistan,0.008532
paper,0.005150
pass,0.004849
past,0.004952
peopl,0.055067
percent,0.081503
percentag,0.006956
perform,0.004388
period,0.003709
perlmutt,0.015833
person,0.020423
peru,0.009851
photo,0.009660
place,0.052954
pliego,0.018291
plummet,0.011380
portion,0.006272
posit,0.036995
preliminari,0.009547
prevail,0.007572
previou,0.016194
price,0.031795
pricetoearn,0.016600
pricetosal,0.018291
privat,0.005132
produc,0.003724
provid,0.003175
public,0.007210
publicli,0.007660
publish,0.007946
qualifi,0.007527
question,0.004495
race,0.007032
randal,0.011164
rank,0.054392
rapidli,0.006034
ratio,0.006455
reach,0.004613
real,0.004711
realtim,0.009515
receiv,0.004337
record,0.052637
recov,0.006988
recoveri,0.007557
reentri,0.013198
refer,0.002270
refus,0.006625
region,0.012195
releas,0.011347
remain,0.011263
renzo,0.015042
report,0.008726
repres,0.029792
respect,0.008634
respons,0.003937
result,0.003162
retain,0.005970
retriev,0.013489
ricardo,0.010319
rich,0.019530
richest,0.059385
rise,0.004568
rockefel,0.011287
roger,0.007612
rose,0.034445
rosso,0.015042
roughli,0.006368
round,0.007191
row,0.017558
royalti,0.020707
russia,0.040032
s,0.022538
said,0.004664
sale,0.006613
salina,0.014309
sam,0.040329
santo,0.020945
sara,0.012070
saw,0.022222
scrutin,0.012097
second,0.055889
seen,0.004454
selfmad,0.075212
sent,0.006292
seven,0.005957
seventh,0.018320
share,0.022119
sharpli,0.008931
sign,0.005202
simon,0.007591
sinc,0.025274
singl,0.004228
situat,0.004864
sixth,0.016776
sixti,0.009611
slim,0.123231
slip,0.031309
snapchat,0.016381
soar,0.010240
social,0.008038
sourc,0.003974
spain,0.006714
spanx,0.018291
specif,0.003780
spiegel,0.013542
spot,0.015820
stake,0.009611
state,0.033173
statist,0.005183
steel,0.007913
steve,0.009710
stock,0.024382
strong,0.004590
stronger,0.007606
subtract,0.009719
suffer,0.005766
surg,0.009753
surpass,0.008919
survey,0.006073
tanzania,0.010612
team,0.006598
technolog,0.004555
telecommun,0.016471
telegraph,0.009779
term,0.002985
th,0.032605
thi,0.021268
thing,0.005027
thirteen,0.009477
thor,0.012903
ticker,0.013388
time,0.053113
titl,0.005671
togeth,0.004356
toprank,0.014388
topten,0.016846
total,0.035267
track,0.013981
trade,0.004570
tri,0.004973
trillion,0.088064
true,0.010231
turkey,0.008239
twelv,0.008334
type,0.003798
uganda,0.010892
unit,0.038241
updat,0.007653
valuabl,0.007416
vari,0.004657
varieti,0.004743
vehicl,0.007173
veri,0.003608
vet,0.012826
wa,0.106213
walmart,0.051304
walton,0.088512
warren,0.064587
wealth,0.097595
wealthiest,0.066387
went,0.005795
woman,0.007888
women,0.042091
work,0.003097
world,0.080080
worldlead,0.016600
worldwid,0.006409
worth,0.085845
year,0.079715
younger,0.007849
youngest,0.054388
zara,0.014470
zuckerberg,0.091646
