abl,0.007853
academ,0.009312
accord,0.018651
accordingli,0.013993
account,0.007322
achiev,0.015643
acquir,0.010127
action,0.015278
activ,0.006203
ad,0.007934
adher,0.012576
administr,0.052159
advantag,0.019301
advers,0.014562
advis,0.025135
agenc,0.019562
altern,0.007989
ambit,0.016216
american,0.007044
andor,0.010880
ani,0.043836
anoth,0.005980
answer,0.011070
anyon,0.013555
appli,0.013293
applic,0.014850
apport,0.022851
appropri,0.029899
aris,0.010143
aspect,0.016343
asset,0.022987
assist,0.009270
associ,0.006073
assum,0.008613
attach,0.011771
attempt,0.007092
attorney,0.017072
austrian,0.014892
author,0.028001
autonom,0.025144
avail,0.030400
avoid,0.009286
bank,0.017982
barbara,0.016462
becaus,0.005643
befor,0.012805
begin,0.007310
borrow,0.024885
brand,0.015153
brazilian,0.017284
britain,0.010561
build,0.007933
bureau,0.014180
busi,0.507075
c,0.007174
capac,0.010408
capit,0.016332
card,0.014266
care,0.009432
carri,0.008094
cash,0.012549
categori,0.009580
center,0.008008
certain,0.006872
certif,0.014593
chang,0.011321
classif,0.022159
classifi,0.010157
commerc,0.012513
commod,0.012188
compani,0.007929
compil,0.012956
complet,0.013871
compli,0.033113
compon,0.008648
comprehens,0.011061
concept,0.014016
conduct,0.008607
consid,0.023427
consider,0.008439
consult,0.023193
content,0.009909
contractor,0.018419
contrast,0.008483
contribut,0.029484
control,0.020017
correct,0.010113
countri,0.019826
craftsman,0.023180
credit,0.077748
criteria,0.012576
critic,0.007387
crucial,0.012225
custom,0.010154
dba,0.024162
debt,0.058228
debttoequ,0.026239
decis,0.025401
decisionmak,0.014476
defin,0.006892
depend,0.006626
design,0.007376
determin,0.027897
develop,0.020090
devot,0.011870
differ,0.010648
differenti,0.010168
direct,0.013337
disadvantag,0.014892
discharg,0.016857
distinct,0.015469
doctor,0.011985
doctrin,0.012043
doe,0.013590
dollar,0.023469
download,0.017730
driver,0.015393
duplic,0.016475
earn,0.011364
easier,0.012946
econom,0.006616
economi,0.008257
element,0.007689
embodi,0.013979
employ,0.008020
employe,0.025338
enabl,0.009588
engag,0.009574
enlist,0.018938
ensur,0.019866
enterpris,0.045523
entiti,0.030776
entitl,0.024964
entrepreneur,0.030456
entrepreneurcom,0.034172
equifax,0.030205
equip,0.010809
equiti,0.027669
especi,0.007020
essenti,0.008405
establish,0.006452
event,0.007868
everi,0.007565
ex,0.016356
exact,0.011534
examin,0.009463
exampl,0.021660
exclus,0.010329
exercis,0.010388
exhaust,0.014137
expect,0.008307
expens,0.021597
experi,0.007435
experian,0.028742
extent,0.009948
extern,0.004727
extrem,0.008673
facil,0.057948
factor,0.007666
favor,0.009986
feder,0.019253
fictiti,0.019450
field,0.006602
financ,0.095807
financi,0.043158
focu,0.008870
form,0.014825
formal,0.032361
foundat,0.016861
freelanc,0.043665
frequent,0.018177
friend,0.012841
fund,0.026743
furnitur,0.019156
furthermor,0.022159
gener,0.027874
german,0.009130
govern,0.024592
grant,0.049557
greater,0.008143
growth,0.008183
guarante,0.011859
guidelin,0.014339
ha,0.008622
hi,0.011594
higher,0.007686
hire,0.014116
histori,0.005385
hm,0.017168
implement,0.009001
improv,0.007956
includ,0.008976
incom,0.059416
increas,0.006217
independ,0.019921
individu,0.013337
industri,0.014759
inform,0.019283
inher,0.012390
initi,0.007024
instanc,0.008756
institut,0.013683
insur,0.012464
interact,0.008066
intern,0.005665
invest,0.036821
investor,0.012317
involv,0.018803
ir,0.018069
k,0.009802
kind,0.008611
kingdom,0.008599
known,0.005401
lasser,0.028017
latin,0.010159
law,0.026046
leas,0.016317
leasehold,0.025053
legal,0.080275
legitim,0.013425
lend,0.013886
let,0.012111
level,0.006463
liabil,0.045571
liabl,0.018885
licens,0.012871
limit,0.006601
line,0.007736
link,0.004699
list,0.012020
littl,0.008272
loan,0.150485
local,0.029282
locat,0.007947
lodg,0.018351
loss,0.047268
main,0.006842
major,0.005734
make,0.010992
mani,0.019540
market,0.008090
master,0.011534
mathemat,0.008496
mean,0.005952
met,0.011052
method,0.006693
microentrepreneur,0.030864
minim,0.011407
mortgag,0.015963
motiv,0.010558
naic,0.027414
nation,0.005988
natur,0.005769
new,0.009655
north,0.008581
obtain,0.050404
offer,0.008036
offic,0.017399
onc,0.008075
oper,0.013636
opportun,0.020417
option,0.022555
order,0.005955
organ,0.017685
origin,0.005989
outstand,0.014781
owner,0.232279
ownership,0.012692
paid,0.022039
particip,0.017052
particular,0.006765
particularli,0.007579
partner,0.035445
partnership,0.027206
past,0.008574
patent,0.014422
pay,0.010090
percentag,0.012043
permit,0.022016
person,0.049505
pertain,0.029890
plan,0.016370
possibl,0.006321
potenti,0.008023
prepar,0.020102
primari,0.016361
privat,0.035546
procedur,0.010793
process,0.029294
product,0.012918
profession,0.020084
profit,0.042831
program,0.007796
project,0.015337
proprietari,0.037072
proprietor,0.383716
proprietorship,0.302474
protect,0.016520
provid,0.010997
provis,0.012071
qualifi,0.039098
ratio,0.011177
receiv,0.022528
recogn,0.008428
recommend,0.011586
refer,0.003930
regard,0.030163
regardless,0.011882
regist,0.024376
registr,0.015305
regul,0.018610
rel,0.007047
relat,0.015898
relev,0.010280
remain,0.006500
renounc,0.017655
renov,0.019671
repaid,0.020899
report,0.022663
request,0.011946
requir,0.018562
resid,0.010413
resourc,0.007957
respondeat,0.032708
respons,0.027269
result,0.005475
retain,0.010336
return,0.023864
revenu,0.034401
review,0.008807
rule,0.007174
run,0.008637
sba,0.101417
sbdc,0.032708
schedul,0.013064
secretari,0.012841
seek,0.026459
select,0.025641
selfassess,0.024775
selfemploy,0.039953
sell,0.011118
separ,0.007180
servic,0.022974
settingup,0.028361
significantli,0.010087
silent,0.016292
simpl,0.017383
simpli,0.008926
singl,0.007320
size,0.008518
small,0.073631
sole,0.477461
sound,0.011517
sourc,0.013761
specif,0.013089
specifi,0.011121
split,0.011242
spous,0.020121
staff,0.012895
standard,0.007367
start,0.020773
state,0.023931
statist,0.008974
statu,0.009136
stimul,0.012241
stipul,0.016543
student,0.009310
subject,0.013917
submit,0.041104
suffer,0.009984
sum,0.010911
superior,0.012175
support,0.006504
tax,0.113086
taxat,0.026898
taxi,0.021234
themselv,0.008114
therefor,0.007435
thi,0.036824
time,0.009679
titl,0.019638
trade,0.007913
trademark,0.057641
trader,0.053866
tradit,0.020665
transfer,0.009360
translat,0.009417
transpos,0.020310
transunion,0.030205
turnov,0.017581
type,0.019730
typic,0.007338
uncompl,0.024911
understood,0.010266
unit,0.011034
unless,0.012258
unlimit,0.032739
unreli,0.017527
unusu,0.013262
uptod,0.020853
use,0.017879
util,0.009896
valu,0.007011
valuabl,0.012841
vari,0.016128
varieti,0.016427
variou,0.024909
wa,0.008970
way,0.005849
weltman,0.030205
wiley,0.013385
work,0.016088
year,0.011041
