adam,0.150852
allen,0.171616
award,0.065521
befor,0.038273
berlin,0.079812
best,0.049392
born,0.063305
break,0.061773
british,0.050037
cambridg,0.297219
columbia,0.166970
delug,0.144432
destruct,0.142100
director,0.072182
doctor,0.071643
econom,0.237318
economi,0.049359
european,0.090033
extern,0.028261
fu,0.127232
german,0.054580
global,0.051324
graduat,0.072420
great,0.043558
hi,0.034652
histori,0.160950
historian,0.065124
incom,0.059195
institut,0.040896
isbn,0.137061
knowledg,0.048606
known,0.032290
lane,0.197616
leverhulm,0.180560
link,0.028094
london,0.108806
lse,0.130158
make,0.065708
modern,0.155009
nazi,0.090084
order,0.035602
philip,0.079410
press,0.043602
previous,0.056476
prize,0.138187
professor,0.132423
public,0.037310
reader,0.080118
refer,0.023495
reich,0.115025
remak,0.130865
state,0.028611
statist,0.053646
studi,0.103671
tooz,0.515429
u,0.076298
univers,0.135468
wa,0.080433
wage,0.143705
war,0.046450
winner,0.090030
wolfson,0.156850
yale,0.089389
