abl,0.003447
abolish,0.011405
abov,0.010481
abstract,0.009604
abus,0.082186
accept,0.006852
access,0.007552
accord,0.008186
accumul,0.005235
achiev,0.010299
acknowledg,0.010524
acquir,0.013335
acquisit,0.035404
act,0.065500
action,0.010059
activ,0.008169
actual,0.006985
ad,0.010448
adam,0.027692
addit,0.002760
adher,0.005520
administr,0.007631
adopt,0.018830
advantag,0.008472
advers,0.012783
advoc,0.009369
affect,0.014264
age,0.003417
aggress,0.006081
agreement,0.116638
ahead,0.006371
aid,0.012282
aim,0.011690
al,0.004681
alan,0.005785
ale,0.010333
ali,0.006765
alleg,0.005643
allein,0.012448
alloc,0.021784
allow,0.018997
altern,0.003506
altogeth,0.006765
alway,0.007339
amerc,0.014356
analysi,0.016448
ani,0.031267
annona,0.011517
announc,0.004582
anoth,0.010499
answer,0.004859
ant,0.007405
anticartel,0.012615
anticompetit,0.071489
antimonopoli,0.010707
antitrust,0.329848
anyon,0.017849
anyth,0.005393
anywher,0.006680
aoltim,0.014356
appeal,0.005082
appear,0.006321
appetit,0.008966
appli,0.014587
applic,0.006518
appreci,0.006055
approach,0.012563
approv,0.004688
area,0.002710
areeda,0.014356
argu,0.021782
aris,0.013356
art,0.004175
articl,0.045408
artific,0.018821
artisan,0.022586
asia,0.004685
asid,0.006224
ask,0.004511
aspect,0.003586
assembl,0.008520
assert,0.004688
assess,0.004648
asset,0.015135
assiz,0.011517
associ,0.002665
assum,0.003780
attempt,0.018677
attitud,0.005602
australia,0.004743
austria,0.006313
austrian,0.006536
austrianamerican,0.013547
author,0.024581
automat,0.005571
avail,0.006671
avoid,0.004076
awar,0.004937
bad,0.005598
balanc,0.004319
ban,0.010996
banish,0.008722
barrier,0.016658
base,0.009511
basi,0.013597
bc,0.004868
becam,0.015039
becaus,0.017339
becom,0.018439
befor,0.014052
began,0.006571
beggari,0.012159
begin,0.003208
behav,0.005853
behavior,0.011580
belgium,0.006459
believ,0.003403
bench,0.008931
benefit,0.007986
bertelsmann,0.012297
best,0.003626
better,0.011132
bilater,0.006258
blow,0.006971
bodi,0.006604
bohemia,0.009255
bond,0.009400
book,0.015637
boom,0.006242
border,0.004847
bork,0.088310
boundari,0.004593
breach,0.022337
bread,0.007701
break,0.004535
broad,0.004419
broadband,0.008606
broken,0.005486
bundl,0.007316
busi,0.059352
businessmen,0.008006
butterworth,0.010030
buy,0.026028
buyer,0.019702
calcul,0.004199
came,0.007206
campbel,0.007379
canada,0.004720
capabl,0.004340
capit,0.007168
capitalist,0.006510
captur,0.004525
card,0.006261
carri,0.007105
cartel,0.071455
case,0.038578
categori,0.016821
cato,0.008537
caus,0.011766
ceas,0.005567
central,0.006178
centuri,0.019810
certain,0.012066
ch,0.007032
challeng,0.007873
chang,0.004969
chapter,0.005136
character,0.004180
characterist,0.003798
chariti,0.007151
charl,0.012663
charter,0.011857
cheap,0.006828
check,0.005713
chicago,0.032228
china,0.008468
choic,0.004330
chose,0.006199
circuit,0.006217
circumst,0.005062
citizen,0.004510
civil,0.003780
claim,0.006691
classic,0.007282
claus,0.007341
clayton,0.019064
clear,0.008204
clearli,0.004955
close,0.008847
coal,0.012853
code,0.008529
codifi,0.007237
coin,0.004564
collabor,0.005062
collaps,0.004855
collect,0.006430
collus,0.039593
combat,0.005785
combin,0.012572
come,0.003152
commerc,0.016477
commerci,0.016891
commiss,0.026329
commod,0.016049
common,0.018656
commun,0.014411
compani,0.066130
compar,0.009780
compens,0.005571
compet,0.036356
competit,0.528786
competitionrel,0.014356
competitor,0.075109
complement,0.006499
complianc,0.007074
compliant,0.009095
conceal,0.007868
concentr,0.038822
concept,0.009228
concern,0.018567
concess,0.006971
conclus,0.009823
condemn,0.006208
condit,0.003084
conduc,0.008312
conduct,0.018890
confederaci,0.008620
confer,0.008678
confessor,0.011273
confisc,0.007741
conflict,0.004105
conglomer,0.016465
congress,0.014816
connect,0.003629
conquest,0.005939
consensu,0.005498
consequ,0.011244
consid,0.020565
consist,0.008850
conspiraci,0.031333
constantli,0.012290
constitut,0.006961
constitution,0.009114
construct,0.003413
consum,0.070227
contain,0.003162
continent,0.005870
continu,0.008012
contract,0.013265
contrast,0.003723
contribut,0.003235
contriv,0.027342
control,0.014643
convers,0.004547
cooper,0.012639
coordin,0.009345
copyright,0.015582
corpor,0.008649
correspond,0.008003
cost,0.019377
council,0.004019
counter,0.005960
counterpart,0.005910
countri,0.034810
court,0.071077
cover,0.010887
covet,0.010030
creat,0.021570
creation,0.004012
creativ,0.017087
credibl,0.006860
crimin,0.005583
critic,0.003242
critiqu,0.005600
crossbord,0.008359
crosslicens,0.014356
crosssubsid,0.013258
cure,0.006761
current,0.008466
custom,0.013371
d,0.003568
damag,0.033299
damien,0.010251
darci,0.029071
date,0.003684
deadweight,0.019733
deal,0.017755
death,0.003860
decad,0.004007
decay,0.006061
decid,0.012887
decis,0.007433
declar,0.012772
decre,0.006330
decreas,0.017363
defeat,0.005215
defend,0.004932
defens,0.004838
deliber,0.005900
deliv,0.010391
demand,0.007871
deni,0.005110
densiti,0.005319
depend,0.008725
deploy,0.005965
depress,0.010953
depriv,0.007080
deregul,0.008146
descript,0.004029
design,0.012950
despit,0.003737
destroy,0.004609
destruct,0.015651
determin,0.009183
deterr,0.008768
detriment,0.007243
develop,0.024250
devic,0.004926
dictionari,0.005344
did,0.013088
dieu,0.011915
differ,0.009347
difficult,0.011534
diffus,0.006022
dimens,0.005071
diocletian,0.009836
direct,0.002927
directli,0.017709
director,0.010600
disadvantag,0.006536
disappear,0.005604
disast,0.006089
discret,0.005199
discrimin,0.024485
discuss,0.003596
dispens,0.007669
dispos,0.006521
distort,0.012448
distribut,0.007274
disturb,0.006190
divers,0.004239
divest,0.009690
divid,0.003495
diw,0.014356
doctrin,0.026431
doe,0.020878
doha,0.009557
domesday,0.010934
domin,0.087058
doubl,0.004880
drive,0.004736
drop,0.009676
drug,0.010398
durat,0.006278
dure,0.010149
dyer,0.030638
dynam,0.016531
e,0.003572
earli,0.007963
earlier,0.003921
earn,0.004988
easier,0.005682
easili,0.004546
east,0.004080
ec,0.032299
ecmr,0.028713
econom,0.060991
economi,0.036244
economist,0.019930
ecsc,0.011199
ed,0.014861
edict,0.008115
edit,0.012461
edward,0.014483
eec,0.019326
effect,0.028360
effectu,0.019672
effici,0.049865
effort,0.003675
einer,0.010333
element,0.003375
elhaug,0.014356
elimin,0.013768
elizabeth,0.012627
ell,0.009583
els,0.005465
elsewher,0.005471
emolu,0.012033
emperor,0.011706
emphas,0.004657
empir,0.011109
enabl,0.004208
enact,0.070596
encount,0.005227
encourag,0.004362
encyclopedia,0.004570
end,0.005803
enemi,0.005931
enforc,0.089558
engag,0.004202
engend,0.008300
england,0.023025
english,0.014784
enhanc,0.004915
enjoy,0.005052
enquiri,0.008035
enshrin,0.008692
ensur,0.008720
enter,0.003879
enterpris,0.009990
entrant,0.009114
entrepreneur,0.006684
entri,0.020533
environ,0.003517
envisag,0.008524
equal,0.007228
equilibrium,0.005546
era,0.004193
erber,0.013900
erod,0.007639
especi,0.003081
essay,0.005142
essenti,0.003689
establish,0.039651
estim,0.003734
et,0.004561
etern,0.006709
eu,0.040448
europ,0.032387
european,0.052888
event,0.003453
eventu,0.007544
everi,0.009962
everyday,0.011338
evid,0.003618
evil,0.012910
evolv,0.008712
ex,0.007179
examin,0.004153
exampl,0.014261
exceed,0.005573
excess,0.015386
exclaim,0.010934
exclud,0.004992
exclus,0.022669
exclusionari,0.010292
execut,0.004020
exempt,0.027592
exercis,0.004559
exist,0.015834
expans,0.008955
expenditur,0.005867
explain,0.003572
explan,0.004671
exploit,0.014821
export,0.004868
extend,0.003500
extent,0.004366
extern,0.002075
extraterritori,0.010996
face,0.007966
facil,0.010174
facilit,0.009569
fact,0.003369
fail,0.007980
failur,0.004617
fair,0.043001
fall,0.007245
famou,0.004384
faull,0.027094
favour,0.010437
feder,0.004225
felt,0.011204
fewer,0.005627
fine,0.017020
firm,0.132717
fix,0.025273
fledg,0.011273
florenc,0.007639
florentin,0.009342
fluctuat,0.005926
focus,0.003694
follow,0.022701
foodstuff,0.016378
forc,0.014222
foreign,0.007388
forerunn,0.007535
forestal,0.018428
foresteel,0.014356
forfeitur,0.011061
form,0.015184
foul,0.009718
franc,0.008125
free,0.048623
freedom,0.004479
freeenterpris,0.012802
freeli,0.006171
french,0.007638
frequent,0.007978
friedman,0.007335
frontier,0.006255
fuel,0.005259
fulli,0.012835
funer,0.015532
furthermor,0.004863
gain,0.006905
galbraith,0.009962
gale,0.017829
game,0.004869
gatt,0.030091
gener,0.012235
georg,0.008180
geradin,0.014356
germani,0.021365
given,0.002846
global,0.018843
good,0.022085
got,0.006402
goug,0.011273
govern,0.032383
gradual,0.004561
grain,0.012331
grant,0.039154
great,0.006396
greater,0.003574
greatest,0.009988
greatli,0.004647
greedi,0.009962
green,0.004880
ground,0.016517
group,0.005119
growth,0.003592
guid,0.004012
guidelin,0.012588
guild,0.023578
h,0.003942
ha,0.034061
half,0.003906
hand,0.003516
handicraft,0.008648
happen,0.004485
hard,0.009315
harm,0.010942
harrington,0.009962
harvard,0.011089
havana,0.009458
health,0.003956
hear,0.005984
heavi,0.004904
held,0.003355
henc,0.013283
henri,0.009148
herfindahlhirschman,0.013547
hi,0.010178
high,0.002873
higher,0.003373
highli,0.003735
highmarketshar,0.013900
hinder,0.007151
histor,0.003187
histori,0.009454
hold,0.006836
holi,0.006008
hong,0.006634
hostil,0.005885
household,0.005645
howev,0.023031
httpwwwantitrustworldwikicom,0.014999
httpwwwglobalcompetitionpolicyorg,0.014356
huge,0.005277
hull,0.007968
hylton,0.013547
icn,0.010655
idea,0.012740
ideal,0.004617
idl,0.008289
ii,0.007428
iii,0.016281
illeg,0.011436
imagin,0.005673
impact,0.003889
impair,0.007373
impeach,0.009276
imped,0.015293
impedi,0.008815
implement,0.003951
import,0.009681
impos,0.014641
imposs,0.004798
impoverish,0.008006
improp,0.008371
improv,0.003492
impuls,0.007273
incap,0.007646
includ,0.035459
incorpor,0.003896
increas,0.019102
increasingli,0.012550
inde,0.009650
independ,0.005829
index,0.004508
india,0.030413
indian,0.004697
indirectli,0.006115
individu,0.017562
indonesia,0.006722
industri,0.022674
industrialis,0.008025
ineffici,0.006571
inflat,0.005344
influenti,0.004564
inform,0.002821
infring,0.008510
ingross,0.014356
initi,0.003083
injur,0.014393
innov,0.049155
inquiri,0.005660
insidi,0.010874
insolv,0.009002
instanc,0.007686
instead,0.009971
institut,0.009008
integr,0.003424
intellectu,0.053553
intent,0.009551
interfer,0.005792
interlock,0.009434
intern,0.027355
internet,0.004655
intertwin,0.007958
intervent,0.015447
interwar,0.008035
introduc,0.006657
involv,0.005502
irish,0.006730
isbn,0.020128
issn,0.007322
issu,0.012180
itali,0.005107
italian,0.005324
j,0.003563
jame,0.004002
japan,0.004692
john,0.009683
joint,0.014990
jonathan,0.006634
joseph,0.014029
judg,0.015721
judgment,0.012028
judici,0.005447
julia,0.008484
june,0.004134
juri,0.007949
jurisdict,0.028798
just,0.006617
justic,0.009591
justifi,0.011414
justinian,0.008966
keith,0.007140
kenneth,0.006367
key,0.003611
kind,0.003780
king,0.040679
kingdom,0.007549
know,0.004299
known,0.021339
kong,0.006692
kooth,0.014356
korea,0.005727
l,0.004176
label,0.005105
labour,0.014410
lack,0.003617
laid,0.010710
laissez,0.010137
laissezfair,0.016335
languag,0.003566
larg,0.025004
largest,0.003918
late,0.013139
later,0.005643
law,0.311541
lawyer,0.006883
lay,0.005339
lccn,0.008784
lead,0.008492
leav,0.012053
led,0.009186
legal,0.031320
legisl,0.052125
legitim,0.005893
length,0.009414
lessen,0.015086
level,0.017022
lex,0.018821
lexi,0.011199
liber,0.004277
liberalis,0.008300
liberti,0.042155
licens,0.011299
life,0.003049
light,0.003911
like,0.005068
limit,0.014487
link,0.002062
lion,0.007386
lisbon,0.008312
list,0.005276
littl,0.003631
livelihood,0.008221
local,0.003213
london,0.003994
long,0.006160
longer,0.007825
longterm,0.004992
loss,0.012448
lost,0.004122
lower,0.003505
luxembourg,0.008064
machinebas,0.012297
main,0.006006
maintain,0.006615
mainten,0.005691
major,0.002516
make,0.019299
manag,0.003397
mani,0.017154
manufactur,0.009048
margin,0.010398
market,0.227272
marketori,0.009234
materi,0.003324
math,0.007354
matter,0.003568
maxim,0.005395
maximis,0.008471
maxwel,0.007074
mean,0.020901
meant,0.004865
measur,0.003107
media,0.004351
medic,0.004368
meet,0.007676
member,0.018161
mention,0.004592
mercatoria,0.011607
merchant,0.016903
merci,0.008210
mere,0.009334
merg,0.017141
merger,0.109991
merriment,0.012033
metallici,0.014356
metamorphos,0.009836
microsoft,0.015029
middl,0.003911
millennium,0.005921
million,0.007452
milton,0.007043
minimis,0.008524
misdemeanour,0.013547
model,0.014775
modern,0.014227
modernis,0.008178
monopol,0.008255
monopoli,0.176267
monopolist,0.017184
month,0.004191
mrtp,0.014356
multilater,0.007528
municip,0.017342
murmur,0.010655
n,0.004260
nation,0.023658
nationst,0.015917
natur,0.010130
nd,0.013241
necessari,0.011342
necessarili,0.004643
need,0.008555
neg,0.004113
negoti,0.009931
neil,0.007535
neoclass,0.014358
netherland,0.011056
network,0.007931
new,0.029666
newli,0.004991
nexi,0.011915
nikpay,0.028713
nonintervent,0.010817
nonprofit,0.006841
norman,0.006684
norway,0.006667
note,0.002735
noth,0.015060
notion,0.004488
number,0.018986
object,0.006485
oblig,0.015716
observ,0.003131
obsolet,0.007399
obstruct,0.008045
occas,0.005900
offer,0.007055
offic,0.007636
offici,0.003601
oil,0.018940
old,0.003925
oligopoli,0.018077
oligopolist,0.010556
ongo,0.005190
onli,0.024021
onlin,0.004152
onward,0.006014
open,0.009743
oper,0.008978
opportun,0.008962
oppressor,0.011128
option,0.004950
ordain,0.008663
ordin,0.006996
ore,0.006796
organ,0.010350
organis,0.004491
origin,0.007887
orthodox,0.006388
otherwis,0.018049
ought,0.006809
outbreak,0.006455
outcom,0.004850
outlaw,0.022849
outlet,0.007579
output,0.019806
outsid,0.010856
outweigh,0.008054
overarch,0.008025
overcharg,0.012159
oversea,0.016974
oversight,0.007514
owner,0.005366
paid,0.009673
palgrav,0.007043
panic,0.007958
paper,0.003914
paradigm,0.005748
paradox,0.024267
pareto,0.016695
parliament,0.004784
parti,0.010998
particular,0.008908
particularli,0.003326
pass,0.022112
past,0.003763
patent,0.031652
pay,0.026573
penal,0.015917
penalti,0.028384
peopl,0.013077
percent,0.004764
perenni,0.008136
perfect,0.010600
perfectli,0.006591
period,0.002818
peritz,0.014356
permiss,0.006594
permit,0.004831
person,0.012416
perspect,0.012735
pertain,0.006559
pertaineth,0.014356
philip,0.005831
pillori,0.011915
plaintiff,0.038988
platform,0.005809
play,0.003425
player,0.006208
plunder,0.008146
plurilater,0.013014
point,0.008255
polici,0.028085
polit,0.005954
pool,0.006211
poor,0.004690
popul,0.003375
port,0.005360
portfolio,0.006525
posit,0.025303
posner,0.019271
possibl,0.005549
post,0.004604
potenti,0.003521
pour,0.007140
power,0.022270
pp,0.008869
practic,0.052389
preced,0.005153
precis,0.008962
preclud,0.007799
predatori,0.026352
predatorili,0.014356
predecessor,0.005931
predict,0.003980
prefer,0.008331
preserv,0.004585
press,0.009605
pressur,0.008189
presumpt,0.017156
prevail,0.005755
prevent,0.027223
preview,0.008578
previou,0.004102
previous,0.004147
price,0.177196
primari,0.007181
princip,0.004249
principl,0.039185
prioriti,0.005736
prison,0.005773
privat,0.031204
privileg,0.012417
prize,0.020293
problem,0.017456
process,0.010286
produc,0.016982
product,0.051033
prof,0.008312
professor,0.009723
profit,0.018800
progress,0.007415
prohibit,0.072158
promis,0.005111
promot,0.027163
properti,0.042818
proportion,0.008015
propos,0.006712
proposit,0.006252
prospect,0.005780
prosser,0.013014
protect,0.021753
prove,0.004198
provid,0.019308
provis,0.042388
proxi,0.007624
public,0.027396
publicli,0.005821
punish,0.005984
punit,0.009153
purchas,0.004626
purpos,0.003538
pursuit,0.006133
qua,0.009276
qualiti,0.012159
quasi,0.010418
queen,0.017127
quest,0.006851
question,0.013664
quicker,0.008784
quickli,0.004427
railroad,0.021005
rais,0.036111
ran,0.006089
rang,0.006530
rare,0.008953
rate,0.010113
ration,0.009376
raw,0.005627
reach,0.007012
reaction,0.004423
read,0.005992
real,0.003580
realloc,0.009962
realm,0.005449
reason,0.021674
rebat,0.009898
rebutt,0.009898
receiv,0.003296
recent,0.005975
recognis,0.005326
recognit,0.004728
record,0.003636
recov,0.005310
redistribut,0.007173
reduc,0.013073
reestablish,0.006571
refer,0.008626
reform,0.004220
refus,0.015104
region,0.015447
regrat,0.013258
regul,0.061265
reign,0.005965
reintroduc,0.007958
reject,0.004253
relat,0.006978
relev,0.013537
remain,0.005706
remedi,0.013647
remov,0.003983
render,0.005658
replac,0.003515
replic,0.006089
report,0.009947
repres,0.002830
repress,0.006506
republ,0.004049
reputedli,0.010065
requir,0.010863
resal,0.010137
rescind,0.009609
research,0.002798
resolut,0.005277
resourc,0.010478
respect,0.006561
respond,0.009306
respons,0.005984
rest,0.008084
restrain,0.016378
restraint,0.085245
restrict,0.051981
result,0.012016
return,0.003491
revenu,0.005033
review,0.003865
reviv,0.005482
revok,0.008324
revolut,0.004273
reward,0.011936
richard,0.021310
rider,0.008848
right,0.040247
rise,0.006943
risk,0.008490
rival,0.011400
robert,0.018967
roman,0.023138
rome,0.011781
room,0.005596
round,0.010930
rubinfeld,0.013258
rudolph,0.009320
rule,0.015746
run,0.007582
russia,0.005070
s,0.004893
sa,0.007601
safe,0.005640
said,0.007089
sale,0.005025
sanction,0.019431
sandi,0.008471
satisfi,0.005117
scale,0.003904
scarc,0.006606
scarciti,0.007208
sceptic,0.008266
scholar,0.004381
school,0.024570
schumpet,0.027342
scienc,0.002901
scientist,0.003945
scope,0.005071
scroll,0.008484
scrutini,0.007842
second,0.014157
secret,0.021292
section,0.008549
sector,0.009046
secur,0.003665
seek,0.003871
seen,0.006770
seldom,0.023500
select,0.003751
sell,0.024402
seller,0.006893
senat,0.005918
seri,0.003436
servic,0.023529
set,0.002672
settl,0.004903
sever,0.007509
shall,0.012595
share,0.047066
sherman,0.054232
shift,0.008362
ship,0.009790
shown,0.008321
signal,0.004964
signific,0.009195
significantli,0.008855
similar,0.008601
similarli,0.013646
simpl,0.003815
simpli,0.003917
sinc,0.009603
size,0.003739
skill,0.004625
smaller,0.004082
smith,0.025435
socal,0.009689
social,0.012217
societi,0.015041
sold,0.010140
sole,0.009747
solid,0.005160
solv,0.004418
solvent,0.015466
someon,0.005608
someth,0.004616
sometim,0.009377
sourc,0.003020
soviet,0.005200
special,0.006005
specif,0.020109
spread,0.008488
ssnip,0.014356
stabil,0.004477
stage,0.004193
stall,0.007987
standard,0.012935
stapl,0.007601
state,0.063026
statut,0.063481
statutori,0.016012
steel,0.012028
stefan,0.008221
stimul,0.005373
stock,0.018529
stop,0.004743
strengthen,0.005430
strong,0.010466
structur,0.002805
structureconductperform,0.012615
stuart,0.013318
studi,0.005074
subject,0.012217
subsequ,0.007493
subsid,0.007123
subsidi,0.006688
substanc,0.005048
substanti,0.008914
success,0.006368
succumb,0.008648
sue,0.008799
suffici,0.004438
sugar,0.005850
suggest,0.006722
suicid,0.006883
sum,0.004789
superior,0.005344
supervis,0.005741
suppli,0.027400
supplysid,0.009747
support,0.002854
suppress,0.005498
suprem,0.014750
sway,0.008035
sweden,0.005997
sweep,0.007354
sweet,0.007479
synthesi,0.005360
taken,0.003515
talk,0.005166
tame,0.008768
tariff,0.026379
technic,0.008540
technolog,0.006923
telecom,0.008784
tend,0.007885
tendenc,0.005391
term,0.004537
territori,0.012608
test,0.003925
th,0.027531
theme,0.005317
themselv,0.007123
theoret,0.007873
theori,0.022515
theorist,0.011192
therefor,0.009790
thi,0.059265
thing,0.003820
threat,0.010072
threaten,0.005459
thu,0.002806
tie,0.014050
time,0.016995
today,0.003449
togeth,0.006621
toni,0.007439
tool,0.003844
town,0.004930
trace,0.009208
trade,0.131988
trademark,0.008433
trader,0.011821
tradesmen,0.010375
tradespeopl,0.011517
transact,0.015509
transeuropean,0.012615
transform,0.003930
transpar,0.006145
treat,0.004204
treati,0.025071
treatis,0.005792
treatment,0.004416
trebl,0.012802
tri,0.007558
tricki,0.010707
trust,0.036742
tuberculosi,0.008537
tumbrel,0.013547
turn,0.006638
type,0.002886
ultim,0.004152
unanim,0.007572
uncompetit,0.010655
unconstitut,0.008864
understock,0.014356
undertak,0.013036
unintend,0.008095
union,0.035679
unit,0.033905
univers,0.002486
unless,0.010761
unlik,0.007997
unnecessari,0.007090
unreason,0.017829
updat,0.005816
uruguay,0.008210
use,0.017657
usual,0.011557
util,0.004343
v,0.021406
valid,0.004585
vari,0.003539
varieti,0.003605
variou,0.008200
vast,0.004821
ventur,0.012647
veri,0.010968
versu,0.005604
vertic,0.012423
victual,0.023407
vietnam,0.006506
view,0.009232
vigor,0.006946
viii,0.007646
vilfredo,0.009690
violat,0.042499
vista,0.009718
void,0.038427
vol,0.005160
vote,0.004553
wa,0.078748
wage,0.010552
want,0.004432
war,0.017054
warner,0.008848
wast,0.005759
way,0.012836
wealth,0.024722
weekli,0.007123
welfar,0.022121
wenceslau,0.012448
went,0.004403
wherea,0.004166
wherebi,0.005425
whish,0.028713
whiskey,0.010817
wilberforc,0.011273
window,0.020244
withstand,0.008210
work,0.004707
workabl,0.009114
workmen,0.010292
world,0.019474
wors,0.006602
write,0.011262
wrote,0.004090
wto,0.030230
year,0.012116
york,0.007396
zeno,0.027460
zoja,0.028713
