achiev,0.035106
advoc,0.047902
affect,0.036466
analysi,0.033639
ani,0.024593
argu,0.037123
arthur,0.056925
associ,0.027260
attribut,0.043380
attwood,0.503002
banker,0.076205
bibliographi,0.048937
birmingham,0.517423
british,0.037570
brother,0.056427
capit,0.036652
colquhoun,0.124340
contain,0.032336
contemporari,0.044089
crank,0.103286
crude,0.070783
currenc,0.049394
demand,0.040242
depress,0.112008
dismiss,0.060054
dure,0.025947
econom,0.089094
economist,0.101898
effect,0.026363
embryon,0.082880
emerg,0.034780
employ,0.035996
end,0.089012
england,0.094180
expansionari,0.096471
fall,0.037042
figur,0.040189
follow,0.023213
formul,0.046470
frederick,0.065465
georg,0.041822
gold,0.050461
hi,0.026018
histori,0.024169
idea,0.032568
includ,0.040288
incomeexpenditur,0.142143
industri,0.033122
inflationist,0.124340
john,0.033006
joseph,0.047818
keynesian,0.079666
lead,0.028946
lent,0.080189
manag,0.034742
manchest,0.076136
matthia,0.089982
mobil,0.051527
model,0.030216
modern,0.029097
monetari,0.104005
multipli,0.062534
muntz,0.133075
napoleon,0.066158
notabl,0.037222
oppos,0.040538
ought,0.069635
patrick,0.070246
peel,0.097992
polici,0.035898
postnapoleon,0.125750
recogn,0.037827
refer,0.017641
s,0.025020
school,0.287138
schumpet,0.093198
sinclair,0.096963
sir,0.055417
spokesman,0.088437
standard,0.033068
start,0.031078
studi,0.025947
support,0.029191
theori,0.057557
thinker,0.059353
thoma,0.087837
thought,0.034796
time,0.021723
underconsumptionist,0.125750
use,0.020061
version,0.042947
wa,0.040262
war,0.104632
write,0.076776
wrote,0.041830
young,0.045588
