abovement,0.018917
accommod,0.013672
accord,0.011775
accordingli,0.013251
acquir,0.009590
activ,0.011750
adam,0.035847
addit,0.011913
advantag,0.018278
africa,0.009561
ag,0.017762
agricultur,0.008751
alleg,0.012174
alloc,0.011749
alon,0.010068
amen,0.016581
analysi,0.014195
ani,0.036323
anim,0.008241
anoth,0.011326
approach,0.006776
appropri,0.009437
archer,0.018786
aris,0.009605
art,0.009007
articl,0.006997
aspect,0.007738
asset,0.021769
associ,0.005751
attain,0.011918
avail,0.021591
averag,0.017588
base,0.015390
basi,0.007333
basic,0.007142
becam,0.006489
becom,0.005683
benefit,0.008615
besid,0.012146
binari,0.014177
board,0.020484
bours,0.021029
brand,0.057398
bulk,0.012585
bung,0.021355
bursa,0.023217
buyer,0.028338
cage,0.018537
calcium,0.015627
came,0.007774
capit,0.015466
capitalist,0.056184
cargil,0.023337
carri,0.015330
cbot,0.024848
centuri,0.006105
certain,0.006507
certif,0.013820
challeng,0.008493
chang,0.005360
characterist,0.016391
chicago,0.023177
chip,0.015963
choic,0.018685
cite,0.009945
citi,0.008211
class,0.015773
classic,0.007856
cme,0.022574
coal,0.013865
coincid,0.012791
collect,0.006936
commod,0.784852
commodi,0.026531
commodif,0.045762
commodit,0.146927
commodita,0.028604
commodityrel,0.028604
commodu,0.025471
common,0.005750
compani,0.037545
complet,0.006568
compos,0.009022
compris,0.009728
conceptu,0.011446
condit,0.006654
consid,0.005546
consider,0.007992
consist,0.006365
consum,0.018939
content,0.018767
contract,0.009540
contrast,0.008033
conveni,0.038093
copper,0.013206
cost,0.008361
council,0.008671
count,0.021692
critiqu,0.012082
currenc,0.010421
current,0.006088
custom,0.028849
dalian,0.025707
daniel,0.011828
data,0.037949
david,0.016896
dce,0.027218
debas,0.020354
debat,0.017707
decis,0.008018
defin,0.013053
degre,0.015576
demand,0.076416
depend,0.006275
deriv,0.036155
descend,0.011511
desir,0.008950
determin,0.006604
develop,0.004756
differ,0.010083
differenti,0.086667
diffus,0.025985
directli,0.007641
distinct,0.014649
diversifi,0.014402
divis,0.008242
dram,0.024162
dreyfu,0.020405
earth,0.008989
econom,0.031330
economi,0.015639
economist,0.064498
effici,0.017930
egg,0.027700
electr,0.047337
element,0.007282
emerg,0.007338
energi,0.024046
english,0.023923
environment,0.009205
equal,0.007797
equilibrium,0.011966
equival,0.036891
especi,0.006648
establish,0.018331
etymolog,0.012188
euronextliff,0.024321
exampl,0.015383
exchang,0.153783
exhaust,0.013388
exposur,0.012725
express,0.007418
extens,0.007731
extern,0.008954
extract,0.011021
facilit,0.010322
factor,0.014519
follow,0.009795
forest,0.011774
formerli,0.022938
fossil,0.013270
franc,0.008765
free,0.006993
french,0.024719
fuel,0.011346
function,0.006268
fund,0.025325
fungibl,0.086560
futur,0.014914
ga,0.010300
gain,0.007448
gbot,0.028604
gener,0.013198
given,0.006140
glencor,0.027218
global,0.016261
goe,0.011018
good,0.102105
group,0.016568
grown,0.011791
gunvor,0.028077
ha,0.016330
hand,0.015172
hard,0.010048
held,0.014477
help,0.013405
henc,0.019106
histor,0.006877
hold,0.007374
howev,0.019875
human,0.017696
husbandri,0.017810
imbal,0.015879
import,0.005221
includ,0.012750
increas,0.011775
index,0.009726
inflationari,0.017553
infrastructur,0.010366
inher,0.011733
instanc,0.008291
instrument,0.028282
intellectu,0.010503
intend,0.018956
interfac,0.013328
intern,0.021460
inventori,0.127371
invest,0.017434
investor,0.011664
iron,0.010965
item,0.044923
jump,0.014136
kansa,0.018088
karl,0.023029
kcbt,0.028077
labor,0.020102
labour,0.134724
labourpow,0.026857
larg,0.010789
larger,0.008079
latin,0.019241
lead,0.006107
let,0.011469
liber,0.009228
life,0.006579
liff,0.025043
limit,0.018753
link,0.004450
list,0.005691
littl,0.007833
lme,0.024162
london,0.008618
longer,0.008441
lose,0.010765
loui,0.011549
low,0.007844
lowest,0.012174
machin,0.009882
main,0.006479
maintain,0.014273
make,0.005204
malaysia,0.014955
man,0.009055
mani,0.023130
march,0.008487
margin,0.022433
market,0.160889
marketplac,0.016182
marx,0.114446
marxist,0.013896
match,0.010884
matif,0.028604
matter,0.007699
mcx,0.027218
mdex,0.028604
mean,0.045093
meant,0.010497
measur,0.006703
mental,0.011075
mercantil,0.048547
mercuria,0.028077
metal,0.010652
method,0.012677
mex,0.028077
mg,0.018722
midland,0.021640
milk,0.030233
mitig,0.014711
model,0.006375
modifi,0.009986
multi,0.019500
multivitamin,0.052468
nanomateri,0.022384
nation,0.011342
natur,0.005464
ncdex,0.026234
ncel,0.028077
nearli,0.008914
necessari,0.048939
need,0.006152
nepal,0.017378
new,0.013715
nobl,0.013309
nonlist,0.026234
nonreproduc,0.027620
note,0.017702
notebook,0.038249
number,0.005120
nymex,0.025250
object,0.041979
occur,0.006502
octob,0.008850
offer,0.007610
oil,0.010215
olam,0.025043
onli,0.009422
opt,0.015921
order,0.005640
ore,0.014663
organ,0.005582
origin,0.011344
owner,0.011577
paid,0.020871
paper,0.016889
partial,0.009415
particip,0.016148
particular,0.012812
particularli,0.007177
passiv,0.014103
pay,0.009555
peasant,0.014271
pension,0.028439
peopl,0.011285
perceiv,0.010292
percentag,0.011405
period,0.006081
person,0.006697
petroleum,0.013156
pharmaceut,0.013942
physic,0.006697
pleasant,0.018195
point,0.011873
polit,0.012847
pool,0.013401
possibl,0.005986
premium,0.045025
price,0.121638
prior,0.017729
problem,0.025107
process,0.005548
produc,0.097705
product,0.085636
profit,0.030420
proper,0.021058
purchas,0.009981
qualit,0.013607
qualiti,0.026233
quandl,0.023864
quantiti,0.028678
quickli,0.009553
raw,0.012142
receiv,0.007111
recycl,0.015838
reflect,0.007999
regard,0.007141
regul,0.008811
reject,0.009175
relationship,0.014209
renew,0.010884
rent,0.028664
reproduc,0.012627
resourc,0.015070
respond,0.010038
retain,0.019576
revert,0.016289
ricardo,0.050757
rice,0.014038
risk,0.027475
rodbertusjagetzow,0.028604
russian,0.010897
salam,0.020061
sale,0.021686
satisfi,0.011041
say,0.008064
season,0.012028
segment,0.012752
sens,0.015317
serf,0.019791
servic,0.065268
simplifi,0.012064
site,0.008725
size,0.008067
skill,0.019958
smith,0.043901
social,0.013179
societi,0.019470
soft,0.013225
solar,0.012356
sold,0.032817
solv,0.009533
soon,0.009499
sourc,0.013032
sovereign,0.012381
specif,0.024791
spectrum,0.012250
spent,0.022900
spot,0.012969
stage,0.009046
standard,0.006977
state,0.004532
statu,0.008651
stereo,0.041695
stewardship,0.019878
stockout,0.028604
store,0.010494
studi,0.005474
subsist,0.014262
substanti,0.009616
sugar,0.012622
suitabl,0.011499
supermarket,0.018851
supplement,0.012825
suppli,0.050669
sustain,0.010132
swf,0.026857
synonym,0.012928
tablet,0.016514
tast,0.014539
tear,0.016615
tell,0.011668
term,0.014684
th,0.005939
theori,0.012143
theoris,0.019307
theorist,0.012073
therefor,0.007040
thi,0.038746
thing,0.008242
thu,0.006055
time,0.041250
trade,0.059949
trafigura,0.028077
treat,0.018141
trend,0.009894
turn,0.007161
type,0.012456
typic,0.006949
underli,0.009837
undifferenti,0.020253
uneconom,0.021221
uniform,0.012010
univers,0.005365
unpaid,0.035669
unskil,0.036780
use,0.055026
user,0.011491
usual,0.006233
valu,0.159346
valuabl,0.012160
valuea,0.027620
vari,0.015273
variou,0.005897
various,0.016020
veri,0.005915
versu,0.036275
vitol,0.028077
volatil,0.013782
wa,0.046721
want,0.019127
wealth,0.010667
wear,0.014038
welfar,0.011931
wellestablish,0.017399
wheat,0.014731
widest,0.019663
wilmar,0.027218
wind,0.012307
word,0.035953
work,0.005078
worker,0.048215
workerunpaid,0.028604
world,0.005251
yield,0.010119
york,0.015956
