abl,0.012382
account,0.023092
activ,0.009781
addit,0.009917
allow,0.019497
angl,0.022127
ani,0.017279
anoth,0.037715
appear,0.011354
approach,0.022564
associ,0.009576
assum,0.013580
b,0.038954
barrier,0.019946
base,0.034167
basic,0.011891
batteri,0.026555
becaus,0.017796
behav,0.021025
believ,0.012225
better,0.013329
beverag,0.028170
blade,0.059471
boot,0.034424
bun,0.077713
buy,0.018699
calcul,0.030168
car,0.020919
card,0.022494
cartridg,0.078127
case,0.029696
caus,0.031700
cheeseburg,0.089436
classic,0.013080
club,0.022960
coffe,0.049422
cola,0.078557
compani,0.012502
complement,0.280162
complementar,0.033024
complementari,0.138594
comput,0.026240
consol,0.062995
constant,0.015742
consum,0.141901
consumpt,0.073873
conting,0.022997
contrast,0.013375
convers,0.016336
correct,0.015945
cost,0.013921
cover,0.026073
cracker,0.119203
creat,0.009685
cross,0.034565
curv,0.136370
d,0.038456
decreas,0.062373
degre,0.012967
demand,0.452385
depend,0.010448
doe,0.032142
dog,0.165931
drink,0.023481
dvd,0.062995
easi,0.019361
eat,0.044494
econom,0.010432
effect,0.009261
elast,0.047754
elucid,0.026532
entri,0.036880
eras,0.215358
error,0.018128
everi,0.011929
exampl,0.068303
exhibit,0.017996
exist,0.009479
exit,0.025006
experi,0.011723
fall,0.013012
fee,0.022313
figur,0.028237
filter,0.023761
financi,0.013609
flashlight,0.043224
food,0.058686
fuel,0.018891
function,0.020874
game,0.087465
given,0.010224
goal,0.014021
golf,0.032147
good,0.385345
grapejelli,0.051572
green,0.017531
ha,0.020392
hardwar,0.023848
high,0.010322
higher,0.048476
hot,0.157138
howev,0.016546
illustr,0.017384
imagin,0.020380
includ,0.007076
increas,0.078422
indiffer,0.028170
initi,0.022152
ink,0.060589
instanc,0.013805
invers,0.021525
jet,0.024935
joint,0.017949
just,0.011886
know,0.015445
lace,0.037426
larg,0.008982
leader,0.014902
left,0.027171
leftward,0.039278
leg,0.025299
leontief,0.038277
link,0.007410
lockin,0.039063
loss,0.014905
low,0.013060
lower,0.025185
make,0.017331
market,0.025512
mean,0.028155
measur,0.011161
membership,0.018770
mess,0.037586
min,0.030073
miss,0.021496
mobil,0.018101
movement,0.023501
mutual,0.035951
natur,0.009097
need,0.020488
neg,0.014777
new,0.022835
notic,0.019341
number,0.025575
order,0.009390
outward,0.052474
p,0.026017
pair,0.018160
pay,0.015909
peanutbutt,0.051572
pencil,0.196859
percept,0.018138
perfect,0.095197
phone,0.024318
pizza,0.037751
plain,0.022269
player,0.022302
posit,0.010099
power,0.010000
prefer,0.014963
prepar,0.015848
price,0.289326
printer,0.060680
process,0.009237
produc,0.010167
properti,0.011831
psycholog,0.016656
purpos,0.012710
q,0.021885
quantiti,0.190999
ratio,0.017623
razor,0.091717
real,0.012863
recent,0.010731
refer,0.006197
rel,0.022223
relat,0.016712
repres,0.030498
requir,0.009756
result,0.025898
right,0.055605
rightward,0.037921
rise,0.024942
s,0.008789
sale,0.018053
sensori,0.024025
serv,0.012336
shift,0.060075
shoe,0.114493
sim,0.032147
sinc,0.008624
softwar,0.018273
sold,0.036427
someon,0.020147
sometim,0.011228
specif,0.010319
statement,0.015834
stimul,0.019301
strategi,0.016066
substitut,0.076663
sugar,0.021016
superaddit,0.051572
suppli,0.028121
suppos,0.018952
switch,0.021178
tast,0.024208
tea,0.027579
thi,0.064512
togeth,0.011893
type,0.010369
use,0.021142
util,0.046811
vendor,0.029534
versa,0.024478
vice,0.019968
video,0.075933
voucher,0.035443
vs,0.041649
way,0.018444
whi,0.015869
willing,0.026348
work,0.016911
world,0.008744
