abad,0.057604
abl,0.017951
accordingli,0.031985
advoc,0.048791
advocaci,0.038464
affect,0.018571
agenc,0.022357
agent,0.024231
aggreg,0.030055
allend,0.053184
alloc,0.056722
allow,0.014133
altern,0.036523
anarch,0.041447
anarchist,0.167380
ani,0.012525
area,0.014115
argu,0.037812
argument,0.023877
assess,0.024207
asset,0.026272
associ,0.013883
attempt,0.016211
author,0.016001
base,0.037150
basi,0.035404
book,0.016286
calcul,0.043735
central,0.080444
charact,0.023717
chilean,0.045826
cnt,0.056943
come,0.016416
commun,0.060038
compon,0.019768
comput,0.057062
computerbas,0.046514
computercontrol,0.055762
computermanag,0.072391
concept,0.016019
consum,0.068572
context,0.020193
contrast,0.038782
control,0.015251
cooper,0.065822
coordin,0.121673
council,0.041863
cox,0.042209
creat,0.014041
cyberfolk,0.074765
cybernet,0.041021
cybersyn,0.059532
decentr,0.225047
decentralis,0.327516
decentralizedeconom,0.074765
decentralizedplan,0.144782
decentrallyplan,0.074765
decis,0.058063
decisionmak,0.066179
democraci,0.102281
democrat,0.089972
develop,0.022961
devin,0.055491
diego,0.038881
direct,0.015243
directli,0.018445
distribut,0.037882
dure,0.013214
econom,0.241997
economi,0.169872
economist,0.077842
effici,0.043280
enterpris,0.026014
equat,0.022986
experiment,0.023085
extens,0.018663
fashion,0.029088
featur,0.018690
firm,0.024683
form,0.045185
formul,0.023666
gener,0.010619
govern,0.014053
gram,0.041302
group,0.013330
guild,0.081859
ha,0.068980
held,0.017473
highlight,0.030429
horizontallyplan,0.074765
implement,0.020575
impli,0.022975
includ,0.010259
india,0.045252
industri,0.033736
influenc,0.016277
inform,0.014692
input,0.053548
institut,0.015638
invest,0.021041
involv,0.014326
jointli,0.035654
kerala,0.096847
kind,0.019684
laid,0.027887
lang,0.040839
larg,0.013021
level,0.044323
libertarian,0.078194
local,0.050201
localis,0.047464
market,0.055479
marxist,0.033542
member,0.015762
mix,0.023762
model,0.030777
monetari,0.026484
multitud,0.038988
nation,0.013689
necessarili,0.024183
need,0.014851
negoti,0.077576
nonmarket,0.050760
notabl,0.037914
note,0.014243
object,0.016888
occasion,0.027869
optim,0.026203
oskar,0.044672
overcom,0.030340
ownership,0.029012
particip,0.019489
participatori,0.311714
particularli,0.017325
pat,0.046881
peopl,0.013620
physic,0.016165
pioneer,0.025807
plan,0.467735
planner,0.039207
polit,0.031010
postcapitalist,0.119956
practic,0.015156
present,0.014165
price,0.041944
principl,0.017005
process,0.013392
produc,0.044219
product,0.059059
project,0.035058
promot,0.040417
propon,0.029685
propos,0.069913
qualiti,0.021107
quantiti,0.046149
rais,0.020895
read,0.015604
recent,0.015557
regard,0.017237
region,0.032177
reject,0.022148
relat,0.012113
reli,0.021649
repres,0.014738
requir,0.014143
resembl,0.028341
resort,0.033340
resourc,0.018188
revolut,0.044514
robin,0.038670
run,0.019744
rural,0.029055
sabha,0.057267
salvador,0.041398
santillan,0.072391
scale,0.020335
scientist,0.020544
seek,0.020160
selfregul,0.044253
shape,0.021414
similar,0.014931
simultan,0.026203
social,0.079532
socialist,0.223783
societi,0.015666
sole,0.025381
solv,0.023012
sometim,0.016277
soviet,0.027083
soviettyp,0.056943
spanish,0.027041
spontan,0.032316
state,0.010940
stock,0.024123
structur,0.029218
subsequ,0.019512
term,0.023630
theori,0.014656
thi,0.028057
turn,0.017286
type,0.015033
ugt,0.064829
union,0.018580
unit,0.025223
use,0.040868
usual,0.015047
variat,0.023438
variou,0.056938
villagebas,0.064042
wa,0.020504
writer,0.025662
