abbrevi,0.010757
abl,0.005578
abstract,0.007771
account,0.005201
accur,0.015048
acknowledg,0.008516
actual,0.005652
adapt,0.007032
adjust,0.042268
adopt,0.006094
advanc,0.016364
advoc,0.007581
affect,0.005771
age,0.011061
agent,0.052710
agentbas,0.015267
aggreg,0.009339
alloc,0.008813
alpo,0.023233
altern,0.011349
altogeth,0.010948
analysi,0.010647
analyz,0.029694
andrea,0.011751
anew,0.015637
ani,0.003892
appli,0.018885
applic,0.005274
approxim,0.006018
areawid,0.023233
argia,0.023233
argu,0.035251
ask,0.014601
assert,0.007586
assum,0.030591
assumpt,0.022573
attempt,0.010075
author,0.004972
awm,0.021456
bank,0.076641
base,0.011544
basi,0.011002
bayesian,0.012277
behav,0.009472
behavior,0.018740
believ,0.005507
ben,0.011389
benchmark,0.012115
benefit,0.006462
bernank,0.016232
better,0.012010
blast,0.013035
blog,0.012093
branch,0.005663
budget,0.025006
build,0.016905
buiter,0.020146
bulk,0.009440
busi,0.036018
c,0.005096
camilo,0.019106
canova,0.020146
cantor,0.014140
capac,0.007393
capit,0.017401
carri,0.005749
caus,0.004760
central,0.039997
cge,0.021060
challeng,0.006371
chang,0.024126
chapter,0.008312
charg,0.006882
chari,0.036999
choic,0.007008
choos,0.007672
claim,0.016242
clarida,0.019678
classic,0.011785
clear,0.006638
coher,0.009831
comment,0.008543
commonli,0.005923
compet,0.007354
competit,0.007014
complet,0.004926
comput,0.011821
conclud,0.007295
congress,0.007992
congression,0.012663
consensu,0.008898
consequ,0.006065
consid,0.008320
consist,0.014323
constrain,0.010372
constraint,0.044285
construct,0.016572
consum,0.007103
consumpt,0.024960
contemporari,0.006977
contrast,0.012051
control,0.004739
controversi,0.007029
cooley,0.017598
correl,0.033260
cost,0.018815
costlessli,0.021923
costli,0.011117
countri,0.004694
crise,0.011006
crisi,0.014723
cristiano,0.017415
criterion,0.010711
critic,0.005247
critiqu,0.009063
critiquethat,0.023233
current,0.013700
cycl,0.043877
d,0.005775
data,0.005693
dave,0.014482
david,0.006336
decad,0.006484
decid,0.006952
decis,0.018043
decisionmak,0.020565
dedic,0.008569
dejong,0.023233
depend,0.009413
deriv,0.010848
describ,0.013172
descript,0.006521
design,0.005239
develop,0.007135
dge,0.020718
differ,0.015127
difficult,0.006221
difficulti,0.007704
directli,0.005731
disturb,0.010017
doe,0.004826
doieconomicsejournalja,0.023233
dotsey,0.023233
doubt,0.009206
dsge,0.795507
dsgenet,0.023233
dynam,0.053505
dynar,0.023233
dynasti,0.009276
earli,0.004295
ecb,0.033444
econom,0.065801
economi,0.052788
economist,0.008063
ed,0.006012
effect,0.020861
effort,0.011895
empir,0.005992
employ,0.022787
engin,0.006189
england,0.014905
equat,0.014286
equilibrium,0.080784
especi,0.004987
estim,0.012087
european,0.016048
eurozon,0.028330
evalu,0.007441
evolutionari,0.008461
evolv,0.014099
exampl,0.011539
excess,0.008299
exogen,0.013359
expect,0.017702
experi,0.005281
experiment,0.007173
explain,0.005781
extern,0.003358
fabio,0.016527
fact,0.010906
factor,0.005445
fail,0.012914
far,0.005823
featur,0.005808
feder,0.013676
fewer,0.009107
financi,0.036787
firm,0.030682
fiscal,0.038948
flexibl,0.009508
fluctuat,0.038362
follow,0.003673
forecast,0.060710
forese,0.013433
form,0.003510
foundat,0.005988
founder,0.008049
fourth,0.008013
framework,0.019739
frequent,0.006456
friction,0.033943
function,0.009403
furthermor,0.007870
gal,0.048696
gdp,0.008637
gecon,0.023233
gener,0.036300
gertler,0.019283
given,0.013818
good,0.005105
govern,0.004367
grant,0.007040
gregori,0.011171
ground,0.006682
grow,0.005889
growth,0.011626
ha,0.015311
hear,0.009684
heterogen,0.011545
highli,0.006045
histor,0.005158
histori,0.003825
host,0.008397
hour,0.016140
household,0.018271
howev,0.011181
httpwwwbankofenglandcoukpublicationsotherbeqmindexhtm,0.023233
hundr,0.006977
idea,0.005154
impact,0.006293
imperfect,0.011306
impli,0.007139
implic,0.008001
impos,0.007898
imposs,0.007765
improv,0.011302
includ,0.012752
incorpor,0.018919
increasingli,0.006770
indic,0.005649
individu,0.014211
inflat,0.008648
influenc,0.005058
influenti,0.007386
inform,0.004565
ingredi,0.012060
input,0.008320
instantan,0.012049
instead,0.010758
institut,0.024298
intend,0.007109
interact,0.011460
intern,0.004024
introduc,0.010774
introduct,0.006088
introductori,0.010948
invalid,0.011527
invest,0.013077
investig,0.006435
iri,0.014749
irwin,0.014240
isbn,0.027145
jordi,0.019106
juli,0.006633
just,0.016064
keynesian,0.063041
kieran,0.020416
kind,0.006117
know,0.006958
kocherlakota,0.040832
krishna,0.014454
kydland,0.018638
labor,0.022618
largescal,0.008946
learn,0.006449
lenledesma,0.023233
like,0.008202
link,0.003338
littl,0.005876
logic,0.007430
london,0.006464
longterm,0.008079
look,0.006339
lost,0.006671
luca,0.036833
macroeconom,0.134836
macroeconometr,0.131542
macroeconomi,0.034830
macroeconomist,0.050799
make,0.023424
maker,0.021182
mani,0.010410
mankiw,0.033866
market,0.034480
maxim,0.017462
mcadam,0.019283
mcgrawhil,0.011094
mean,0.008456
method,0.014264
methodolog,0.008126
michael,0.014130
microeconom,0.035859
microfound,0.017244
miguel,0.013200
mike,0.012747
minneapoli,0.014292
model,0.353883
modern,0.004604
monetari,0.074070
monopolist,0.013904
n,0.013789
narayana,0.033311
natur,0.004098
need,0.004615
neoclass,0.023237
network,0.006418
new,0.037721
newkeynesian,0.019106
noah,0.014372
noahpinion,0.023233
nonetheless,0.009603
nonlinear,0.010517
note,0.004426
obey,0.010955
object,0.010496
observ,0.020267
occasion,0.008660
oil,0.007662
onc,0.005736
onli,0.003533
optim,0.016285
order,0.008461
p,0.005860
paper,0.019003
paramet,0.008850
pareto,0.013509
pass,0.005964
past,0.024361
pdf,0.008885
peopl,0.004232
period,0.004561
person,0.005023
peter,0.007000
phenomena,0.007330
phoni,0.019106
placemicrofound,0.023233
plan,0.005814
point,0.017813
polici,0.124988
policymak,0.012567
polit,0.004818
popular,0.005492
possibl,0.013470
postwar,0.010441
pp,0.007177
practic,0.009420
predict,0.045089
prefer,0.033706
prescott,0.015306
present,0.008803
presid,0.006366
press,0.020725
price,0.071689
princeton,0.038877
principl,0.021138
privat,0.006312
process,0.004161
produc,0.013741
product,0.013764
professor,0.007868
profit,0.007606
program,0.005537
protagonist,0.013305
quantiti,0.007170
quarterli,0.010763
radic,0.008070
random,0.008397
rao,0.016590
rate,0.005455
ration,0.015173
rbc,0.067732
read,0.004849
real,0.017384
reason,0.005010
refer,0.002791
regard,0.005356
region,0.004999
relat,0.003764
reli,0.013455
repli,0.011483
reproduc,0.009472
requir,0.004395
research,0.009058
reserv,0.014850
resourc,0.011304
respect,0.005309
respons,0.004842
return,0.005650
review,0.006255
robert,0.012277
romer,0.017084
rotemberg,0.019678
rule,0.010192
s,0.003959
satisfi,0.008282
say,0.006049
sbordon,0.023233
school,0.017041
sdge,0.023233
sector,0.021959
seen,0.005478
sens,0.005744
separ,0.005100
session,0.010622
set,0.004325
sever,0.012152
shock,0.057270
shortterm,0.010149
similar,0.004639
sinc,0.015542
singl,0.005200
slow,0.008022
sluggish,0.015869
smell,0.025381
smetswout,0.046467
smith,0.008232
snif,0.017796
social,0.009886
societi,0.009736
softwar,0.024697
solow,0.016018
solv,0.014302
sometim,0.005058
sophist,0.008940
specifi,0.047401
spell,0.010724
standpoint,0.012374
start,0.009837
state,0.006799
stateoftheart,0.030384
static,0.009939
statist,0.006374
sticki,0.042347
stochast,0.032350
stock,0.007496
stop,0.007676
strongli,0.014978
structur,0.013619
studi,0.016425
stuff,0.013950
suboptim,0.015229
substitut,0.008634
suggest,0.005439
superior,0.008648
suppos,0.008538
survey,0.014938
synthesi,0.008675
tambalotti,0.023233
technic,0.006910
techniqu,0.005971
technolog,0.028011
test,0.012704
textbook,0.008758
theoret,0.006371
theori,0.027327
therefor,0.010562
thi,0.014531
think,0.013477
thought,0.011013
thousand,0.006852
thu,0.009084
time,0.010313
today,0.011164
tool,0.018665
toolbox,0.015917
tovar,0.023233
trade,0.005620
tradit,0.029358
train,0.006709
true,0.006291
turn,0.005371
type,0.009343
unabl,0.008074
unemploy,0.009100
unexpect,0.011347
unfortun,0.011202
uniformli,0.012663
unit,0.003919
univers,0.016097
unlik,0.006470
use,0.047624
usual,0.004676
util,0.007029
valid,0.007420
variabl,0.049721
variou,0.004423
veri,0.004437
view,0.004980
vulner,0.009882
vv,0.016177
wa,0.003185
wage,0.025614
walrasian,0.017084
walsh,0.015425
want,0.007173
wast,0.009320
way,0.012464
websit,0.007347
welfar,0.026849
whi,0.007149
willem,0.014345
willman,0.021923
woodford,0.094703
word,0.005393
work,0.011427
wors,0.010685
wrong,0.009139
year,0.003921
york,0.011969
