asian,0.371030
aspect,0.051193
assidu,0.167050
capit,0.204639
central,0.044095
certain,0.043054
champion,0.097654
china,0.060436
chines,0.067617
classifi,0.063633
contemporari,0.061541
control,0.041801
creat,0.038483
creation,0.057269
decad,0.057192
depend,0.041513
develop,0.031466
development,0.088570
differ,0.033354
direct,0.041779
dirigism,0.312137
east,0.232952
econom,0.165814
economi,0.206924
educ,0.048256
end,0.041415
enterpris,0.071299
export,0.069487
exportori,0.135693
financ,0.060021
gener,0.029105
govern,0.038517
growth,0.102539
ha,0.027008
high,0.164055
includ,0.028117
industri,0.092465
intervention,0.144169
invest,0.115339
japan,0.066981
key,0.051541
known,0.033842
korea,0.081746
like,0.036169
mainland,0.087962
market,0.050685
mobil,0.071923
model,0.295242
nation,0.037519
need,0.040704
new,0.030244
nordic,0.116885
oper,0.042715
order,0.037313
plan,0.051278
polici,0.050107
privat,0.111345
pursu,0.070613
rate,0.096232
recent,0.042640
refer,0.073871
resourc,0.049851
save,0.139854
sector,0.193674
similar,0.040922
singapor,0.180616
sometim,0.044612
south,0.053667
specif,0.041003
standard,0.046158
state,0.119943
stateown,0.201802
statesponsor,0.138714
stimul,0.076693
strateg,0.074796
support,0.040746
taiwan,0.096438
themselv,0.050834
thi,0.025633
tiger,0.115110
use,0.028002
