abba,0.017295
accord,0.005661
account,0.026674
accumul,0.021724
accur,0.009646
achiev,0.014245
activ,0.016949
actor,0.026104
actual,0.007246
addit,0.005728
adjust,0.010837
advanc,0.006993
advantag,0.017577
advoc,0.019438
affili,0.012952
agenc,0.035629
agent,0.019307
agreement,0.008642
agricultur,0.008415
aid,0.008494
aim,0.008085
alloc,0.124291
alongsid,0.011775
altern,0.007275
amelior,0.018357
american,0.006415
analysi,0.020476
anarch,0.016512
anarchist,0.016671
anarchocapit,0.022562
anarchocommun,0.023388
anarchosoci,0.028840
anarchosynd,0.023089
andor,0.009908
ani,0.004990
anoth,0.010891
answer,0.040326
anthropolog,0.012836
appli,0.006052
approach,0.006516
area,0.011247
arent,0.017797
argu,0.007532
arrang,0.009230
arthashastra,0.019673
articl,0.006729
articul,0.013674
ask,0.009359
aspect,0.014883
assign,0.010170
attempt,0.006458
author,0.006375
balanc,0.008961
barter,0.016493
base,0.054269
basi,0.007052
basic,0.048078
becaus,0.005139
benefit,0.008284
beset,0.020882
bind,0.023579
blend,0.014311
bloc,0.013699
boettk,0.024282
bolshev,0.022686
bonney,0.025228
britannica,0.013885
buddhist,0.013732
build,0.007224
bureaucrat,0.015128
busi,0.023088
calcul,0.017424
cambridg,0.009056
capit,0.156170
capitalist,0.040523
carri,0.022113
cartel,0.018531
categor,0.034871
categori,0.008724
cathol,0.011040
central,0.019229
centrallyplan,0.024965
centuri,0.005871
certain,0.018775
chamber,0.012133
chang,0.015465
character,0.008672
characterist,0.007881
chines,0.009828
choic,0.008984
choudhari,0.028107
circular,0.013326
claim,0.006941
class,0.022753
classif,0.010089
clear,0.008511
code,0.008848
coexist,0.014453
collaps,0.010073
collect,0.006670
coloni,0.009455
combin,0.045646
command,0.028783
commerc,0.011395
common,0.016589
commonli,0.007594
commun,0.029899
communist,0.022558
compar,0.020292
comparison,0.009589
compens,0.011558
complex,0.006692
compon,0.015751
compris,0.009355
concept,0.025528
conform,0.012622
conklin,0.024965
consid,0.010667
consum,0.018212
consumpt,0.021333
context,0.008045
continu,0.005541
contract,0.009174
contradict,0.012216
contribut,0.013425
control,0.006076
cooper,0.034964
coordin,0.067864
corpor,0.026918
corporat,0.040942
correl,0.010660
council,0.016678
count,0.010430
countri,0.006018
cours,0.007970
credit,0.008850
crisi,0.009437
criteria,0.011453
critic,0.006727
critiqu,0.011619
cultur,0.013753
cut,0.009709
cyclic,0.014204
david,0.008124
debat,0.008514
decentr,0.014943
decis,0.053976
decisionmak,0.105464
decolon,0.016795
deemphas,0.019673
definit,0.007231
demand,0.016330
democraci,0.010187
democrat,0.008961
deriv,0.006953
describ,0.011258
desir,0.008607
despot,0.018357
determin,0.044458
develop,0.027443
dichotomi,0.032910
differ,0.038787
digit,0.010212
directli,0.014697
dirigism,0.045372
dissolut,0.013782
distinct,0.007043
distribut,0.083007
divid,0.007252
divis,0.007926
domin,0.045155
dynam,0.008574
eastern,0.009139
econom,0.506162
economi,0.443662
economist,0.020675
effici,0.025864
element,0.007002
elig,0.013774
elsevi,0.015462
embodi,0.012730
emerg,0.007056
emphas,0.019327
emphasi,0.009987
employe,0.011537
encourag,0.018100
encyclopdia,0.014282
end,0.006020
energi,0.007708
engag,0.008719
engin,0.007935
enjoy,0.010482
enter,0.008049
enterpris,0.062185
entireti,0.015740
entiti,0.018684
environ,0.007298
equal,0.022495
establish,0.011752
europ,0.007466
eventu,0.007825
everi,0.013780
evolut,0.008939
evolutionari,0.043393
evolv,0.009038
exampl,0.029587
exchang,0.023350
exclus,0.018812
expand,0.007788
expenditur,0.012174
explicit,0.012022
exploit,0.010249
extent,0.009060
extern,0.008610
factor,0.034907
failur,0.009580
fall,0.007515
fascism,0.018004
fascist,0.016324
favor,0.009094
featur,0.044678
feudal,0.028447
field,0.012026
financ,0.017449
financi,0.023581
firm,0.009834
flow,0.008670
focus,0.007664
follow,0.009419
forag,0.016732
forc,0.005901
form,0.031503
freder,0.034994
free,0.013450
freemarket,0.017344
fundament,0.015079
futur,0.007171
gang,0.016288
gener,0.025384
geograph,0.009575
georg,0.008485
georgism,0.021709
gift,0.013290
given,0.017715
glenn,0.017394
global,0.015638
glossari,0.014351
glossarycultur,0.028840
good,0.065460
gotha,0.023388
govern,0.022395
gradual,0.009464
graem,0.020739
gravit,0.013169
green,0.010125
group,0.021244
growth,0.007452
guid,0.008324
ha,0.007852
hand,0.014590
harold,0.014128
heavili,0.009492
heilbron,0.021804
held,0.006961
hi,0.005279
hierarch,0.040523
hindu,0.013650
histori,0.009808
household,0.011712
human,0.005672
hybrid,0.012301
hydraul,0.016455
hypothet,0.026479
ideal,0.009580
ideolog,0.033365
imbal,0.015271
immedi,0.008654
immun,0.012887
imperi,0.011469
imposs,0.009955
impoverish,0.016610
incent,0.024516
includ,0.053133
inclus,0.012128
incom,0.018036
increas,0.005661
indiabi,0.028840
indic,0.007243
indirect,0.012792
individu,0.012146
induc,0.011658
industri,0.020161
ineffici,0.027268
inferior,0.028663
inflat,0.011088
inform,0.023413
input,0.021333
instanc,0.007973
instead,0.006896
institut,0.031151
interdepend,0.014779
intern,0.015478
internet,0.009658
intervent,0.010683
intervention,0.041913
invest,0.033531
involv,0.028539
islam,0.019602
j,0.007394
jacobu,0.020882
jacqu,0.013658
japanes,0.011220
jointventur,0.024282
joseph,0.009702
journal,0.015145
karl,0.011073
kind,0.007842
knowledg,0.007405
known,0.014758
l,0.025996
label,0.010592
labor,0.019331
labour,0.009966
laissezfair,0.033892
land,0.007450
lang,0.016270
larger,0.007769
later,0.005854
law,0.005929
lawmak,0.017914
lead,0.005873
leadership,0.010679
left,0.007846
legal,0.008122
lerner,0.019430
level,0.011772
levi,0.013833
libertarian,0.062305
liberti,0.012494
like,0.010515
likewis,0.011658
link,0.008560
list,0.005473
literatur,0.008794
long,0.006391
look,0.008127
mainstream,0.011944
make,0.015015
manag,0.021147
mani,0.008897
manner,0.009499
market,0.213662
marketbas,0.036131
marketori,0.019159
marketplac,0.031123
marktwirtschaft,0.026561
marx,0.068786
marxism,0.015392
marxistleninist,0.018192
materi,0.013794
mean,0.070467
meant,0.010095
measur,0.006446
mechan,0.050879
mercantil,0.031123
merg,0.011854
method,0.012191
mi,0.012410
minim,0.020776
mix,0.104138
mode,0.033242
model,0.042916
modern,0.011807
monetari,0.010551
money,0.035184
moral,0.019693
motiv,0.009615
moulton,0.023549
multin,0.014907
multipl,0.007570
mutual,0.031146
nation,0.010907
natur,0.015763
need,0.017750
negoti,0.010302
neoclass,0.014895
neocoloni,0.020670
network,0.008228
new,0.004396
nomenclatur,0.013973
nomin,0.010273
nonmarket,0.020222
nonownership,0.028107
nonproperti,0.028107
nonwork,0.024083
nordic,0.016990
norm,0.011416
notabl,0.015104
notion,0.009312
object,0.013456
obtain,0.007650
occup,0.010255
older,0.010328
oper,0.018627
opportun,0.009296
oppos,0.016450
order,0.010847
organ,0.026843
organiz,0.025788
origin,0.005454
orthodox,0.013254
oskar,0.017797
outcom,0.010062
output,0.041092
overlap,0.010939
overproduct,0.020536
overview,0.009862
owner,0.044532
ownership,0.196498
palac,0.014073
palgravemacmillan,0.024494
parecon,0.026561
parti,0.007606
particip,0.007764
participatori,0.035482
particular,0.012321
pattern,0.008397
peopl,0.010853
perceiv,0.009898
perestroika,0.020105
perform,0.006919
perspect,0.017614
peter,0.008974
plan,0.149077
polak,0.023717
polici,0.014567
polit,0.037064
popul,0.007002
possess,0.008844
possibl,0.005756
postscarc,0.022108
potlatch,0.024965
poverti,0.011610
power,0.011551
pp,0.082812
practic,0.012077
precis,0.009296
premis,0.013239
press,0.006642
prestig,0.014919
price,0.050132
primari,0.007450
primarili,0.007714
privat,0.097112
problem,0.012072
proce,0.027481
procedur,0.019657
process,0.032013
produc,0.052851
product,0.199999
profit,0.029254
program,0.007099
progress,0.023076
promot,0.008051
properti,0.041001
propos,0.006963
propriet,0.027507
prospect,0.011993
proutist,0.028840
pryor,0.052348
public,0.056840
pure,0.008924
pursuit,0.012724
qualit,0.013086
quantifi,0.012682
quantiti,0.018385
question,0.028350
rang,0.013550
read,0.006216
receiv,0.006838
refer,0.021476
refere,0.020471
reform,0.026267
regard,0.020602
regim,0.010430
region,0.006409
regul,0.033895
relat,0.014478
religion,0.009116
renew,0.010467
rent,0.013782
replac,0.029176
repres,0.017615
requir,0.005634
resourc,0.057972
respect,0.006807
respons,0.006208
result,0.004986
reward,0.024765
richard,0.008842
right,0.032116
rise,0.007202
robert,0.007870
role,0.018811
rule,0.013067
run,0.015732
satisfactorili,0.019936
satisfi,0.031854
satish,0.025514
scale,0.008101
scarc,0.013707
scarciti,0.014955
scheme,0.010773
school,0.007282
schumpet,0.018909
second,0.005874
sector,0.028152
seemingli,0.014045
seen,0.007023
segment,0.024527
self,0.012301
selfinterest,0.016181
servic,0.055792
sever,0.005193
shall,0.039197
simpli,0.008128
sinc,0.004981
sizabl,0.016774
small,0.006095
snook,0.022949
social,0.202790
socialist,0.122588
sociallyown,0.024282
societi,0.049931
solut,0.008522
solv,0.009168
soviet,0.043160
sozial,0.025514
special,0.006230
specif,0.011920
spectrum,0.011780
stabil,0.009290
stage,0.026098
standard,0.006709
state,0.065382
strain,0.012382
strong,0.007238
structur,0.034922
struggl,0.010442
studi,0.026323
suasion,0.024965
subcategori,0.034071
subdivid,0.013650
subject,0.019011
subordin,0.013748
subsequ,0.015548
subset,0.012494
substanti,0.009247
substitut,0.011069
superior,0.011088
supersed,0.014392
superstructur,0.020105
supplement,0.012333
surviv,0.008591
sylvest,0.020882
syndic,0.035947
tantamount,0.020471
tax,0.018724
team,0.010403
technic,0.008859
techniqu,0.007655
technolog,0.007182
term,0.028243
th,0.011424
theoret,0.008168
theori,0.029195
therefor,0.006771
thi,0.048439
thinkwel,0.028840
threat,0.010448
thu,0.005823
time,0.004407
today,0.007156
tool,0.007976
topic,0.007903
total,0.006950
trade,0.014412
tradit,0.018819
transit,0.008672
trialanderror,0.022949
tripartit,0.017523
trust,0.010889
type,0.011978
typolog,0.017198
understand,0.006762
union,0.022207
unit,0.010049
univers,0.010319
unlik,0.008296
unsort,0.024965
use,0.032563
usual,0.005994
util,0.027036
v,0.008882
valu,0.012769
valuat,0.013782
variabl,0.009106
variou,0.034026
veri,0.005689
viabl,0.013707
video,0.010964
vietnam,0.013499
view,0.012769
virtual,0.009851
vs,0.012027
vsc,0.028840
w,0.008358
wa,0.016338
way,0.010653
webec,0.028840
welfar,0.022948
western,0.007493
wherebi,0.011255
wide,0.006416
wing,0.027124
work,0.009767
worker,0.037093
world,0.010101
