abov,0.014924
agricultur,0.017327
air,0.017908
annual,0.035816
annum,0.036644
approxim,0.015887
area,0.034735
attract,0.018758
banknot,0.070918
base,0.010157
basi,0.014520
batteri,0.031579
becam,0.025697
better,0.015851
billion,0.019966
bring,0.017475
broaden,0.029975
brought,0.017327
build,0.029750
busi,0.015846
came,0.015392
capac,0.039031
catch,0.028342
close,0.012597
come,0.013466
condit,0.013175
connect,0.031006
consid,0.021963
consist,0.012603
consum,0.056248
consumpt,0.021962
contribut,0.013820
convert,0.019195
countersanct,0.061328
countri,0.037175
coutri,0.061328
currenc,0.020634
danish,0.059560
decreas,0.018543
denmark,0.082867
depend,0.012424
deposit,0.022293
destin,0.026352
diesel,0.038155
distribut,0.015537
dkk,0.446274
dkr,0.122657
domest,0.019510
drop,0.020667
earli,0.011338
econom,0.037219
economi,0.077412
elderli,0.031749
electr,0.093727
energi,0.047612
equal,0.015438
europ,0.030744
european,0.042361
exchang,0.016025
exist,0.011273
export,0.083187
extern,0.008864
extrem,0.016262
factor,0.014374
farm,0.022619
faro,0.487341
faroes,0.337089
finish,0.026087
fish,0.084606
fisheri,0.030816
fishprocess,0.056636
food,0.017447
fossil,0.026275
foster,0.025916
fresh,0.027230
fuel,0.022465
gdp,0.045598
germani,0.036506
goal,0.016674
green,0.041696
gross,0.023702
gwh,0.162447
high,0.024550
histori,0.010097
hold,0.014601
hope,0.061920
hydro,0.074014
hydroelectr,0.070244
hydropow,0.122480
immedi,0.017820
import,0.041356
increas,0.023314
industri,0.013836
inform,0.024103
invest,0.017259
island,0.287482
januari,0.017300
kingdom,0.016124
knowledg,0.015246
known,0.010128
krone,0.046454
kroner,0.054688
kwh,0.037007
lack,0.015454
land,0.015339
larg,0.010681
largest,0.016739
lay,0.022807
leav,0.017163
like,0.010825
link,0.008812
lithiumion,0.049199
lowest,0.048211
m,0.014493
mainli,0.016824
maintain,0.014130
major,0.010751
manag,0.014514
mani,0.009159
market,0.015169
mean,0.011160
mid,0.020180
middleag,0.042559
milk,0.029931
million,0.127339
mw,0.115834
near,0.016662
necessarili,0.019837
new,0.027155
nomin,0.021151
noneuropean,0.039448
norway,0.056964
nuclear,0.020706
oil,0.040453
onc,0.015142
oper,0.038353
peopl,0.011172
petroleum,0.026050
planner,0.032161
plant,0.087969
poor,0.020036
popul,0.014418
posit,0.012010
potato,0.030866
power,0.047567
privat,0.016662
produc,0.012090
product,0.109002
project,0.028757
prosper,0.024023
public,0.011703
pumpedstorag,0.055592
rate,0.043202
read,0.012800
recov,0.022686
refer,0.007369
remain,0.012188
rer,0.050433
rest,0.017266
result,0.010265
russia,0.043319
russian,0.021576
s,0.010452
salmon,0.074520
saw,0.018035
school,0.014994
sea,0.018804
seri,0.014681
sev,0.122657
sever,0.021385
sheep,0.029695
sign,0.016887
sinc,0.020512
skill,0.019759
solut,0.017548
state,0.008974
storag,0.024407
student,0.017457
subsidi,0.028570
surplu,0.026985
sustain,0.020062
technolog,0.014788
th,0.011760
thermal,0.105203
thi,0.023015
thu,0.011989
tidal,0.036945
ton,0.027811
tonn,0.033919
torshavn,0.061328
total,0.014311
trade,0.029674
transport,0.017583
troubl,0.026929
unemploy,0.048046
union,0.060965
unit,0.020690
use,0.025142
vast,0.020596
veget,0.024485
vessel,0.024971
vital,0.022906
vulner,0.026087
wa,0.075688
wind,0.170585
world,0.010398
year,0.020702
young,0.019044
