abrupt,0.014614
absenc,0.008758
absorb,0.009523
access,0.013183
account,0.028054
acr,0.025500
activ,0.014260
add,0.009084
addit,0.009639
adher,0.009636
affect,0.012450
africa,0.007736
agenc,0.014988
agenda,0.011097
agent,0.008122
agreement,0.021815
agricultur,0.056647
aim,0.006802
allevi,0.012718
alumina,0.071311
ambiti,0.012331
america,0.020029
american,0.005397
analysi,0.005742
ani,0.004198
anim,0.013336
ann,0.022315
anoth,0.009164
antonio,0.012406
apparel,0.015978
appleton,0.016048
appli,0.005092
approv,0.008183
approxim,0.006492
april,0.036440
area,0.023657
assembl,0.022311
asset,0.008806
assist,0.007103
attract,0.053658
attribut,0.007405
august,0.014478
auster,0.013513
avail,0.005823
averag,0.014231
away,0.007256
bagass,0.022022
bahl,0.024266
banana,0.077915
bank,0.027557
barbel,0.022717
bauxit,0.135331
bauxitealumina,0.050123
bay,0.021516
beach,0.074668
bean,0.013348
bear,0.008915
becaus,0.008648
becom,0.013795
befor,0.004905
begin,0.005601
berri,0.015683
best,0.012662
biggest,0.010784
billion,0.016318
black,0.007752
blue,0.040956
bog,0.033279
boost,0.011262
bracket,0.013704
budget,0.008991
build,0.006078
built,0.007161
busi,0.012951
butter,0.015778
butterin,0.025061
byproduct,0.012750
canada,0.016480
capit,0.012514
capita,0.010441
caribbean,0.043904
carp,0.018882
carton,0.021467
case,0.004810
catch,0.023164
catherin,0.013704
cattl,0.022537
caus,0.005135
cay,0.035019
cement,0.012686
cent,0.011935
center,0.012272
centr,0.015821
central,0.016179
centuri,0.009880
chain,0.017190
chang,0.004337
chees,0.015122
chemic,0.014651
china,0.007391
chines,0.008269
choic,0.007559
cigar,0.018345
citru,0.015746
clarendon,0.013992
climat,0.016430
clock,0.012041
closur,0.012425
coast,0.035124
cocoa,0.014678
coconut,0.014095
coffe,0.060043
combin,0.010973
commun,0.015094
compani,0.030378
competit,0.015132
complet,0.005314
comprehens,0.008475
condens,0.011133
condit,0.005384
conduc,0.014510
confectioneri,0.019678
confid,0.019686
confront,0.010630
consecut,0.013009
consid,0.004487
construct,0.017876
consumpt,0.017949
contact,0.008074
contamin,0.012276
continu,0.023312
contribut,0.005647
contributor,0.022512
convert,0.007844
cooler,0.014788
copper,0.010685
copra,0.016387
corpor,0.007549
cost,0.020296
countri,0.050639
cours,0.006706
cover,0.006335
creat,0.004706
credit,0.014893
crime,0.009547
crop,0.019027
crude,0.012083
crustacean,0.015279
cu,0.030559
cuba,0.012249
cultur,0.005785
current,0.004926
cut,0.008169
dairi,0.028333
damag,0.008304
data,0.006141
debt,0.026769
debttogdp,0.019427
decad,0.013989
decid,0.007499
decreas,0.015155
defer,0.013295
deficit,0.010680
delay,0.009828
deliveri,0.011121
deposit,0.009110
despit,0.013049
destin,0.021537
devast,0.010925
develop,0.019242
differ,0.008158
digit,0.017185
discoveri,0.007207
distribut,0.006349
dollar,0.017982
domest,0.015946
domin,0.006332
doubl,0.017039
drink,0.011411
drop,0.016891
drug,0.009075
dubai,0.033106
dunn,0.015843
dure,0.004429
dutyfre,0.017224
earn,0.052246
earner,0.015778
eastern,0.007689
eastwest,0.015047
econom,0.045629
economi,0.075923
edibl,0.014950
eff,0.020609
effort,0.006416
electron,0.007752
elev,0.010336
elizabeth,0.011021
embark,0.026042
emerg,0.005937
employ,0.024580
encourag,0.022843
energi,0.012971
engag,0.007336
english,0.006452
enjoy,0.008819
enterpris,0.008720
entri,0.008961
environ,0.006141
erect,0.012562
erod,0.013335
essenti,0.012880
establish,0.009888
estat,0.009862
estim,0.006519
europ,0.006281
everi,0.005797
exampl,0.004149
exchang,0.032744
exist,0.004606
expand,0.006553
expect,0.012730
experienc,0.008317
exploit,0.008624
export,0.127479
extend,0.006110
extern,0.003622
extrem,0.006645
face,0.006953
facil,0.017760
facilit,0.008352
factor,0.011748
factori,0.040547
fall,0.012647
famou,0.015306
far,0.006281
farm,0.009243
favor,0.007651
favour,0.018220
februari,0.007526
feet,0.022626
fell,0.008947
financ,0.014681
financi,0.019841
finanzarchivpubl,0.025061
firm,0.008274
fiscal,0.010503
fish,0.069148
fishermen,0.044298
flavor,0.014148
focu,0.006796
focus,0.006448
follow,0.003962
food,0.035649
forc,0.009930
forecast,0.010914
foreign,0.045142
forest,0.028581
forestri,0.025742
form,0.037866
fourth,0.025930
fouryear,0.012603
free,0.011317
french,0.006666
frequent,0.006964
freshwat,0.013093
fri,0.014834
frozen,0.013142
fruit,0.049084
ft,0.010827
fuel,0.009180
fulltim,0.013192
fund,0.034152
garden,0.011080
garment,0.044996
garner,0.013813
gasolin,0.014333
gateway,0.014239
gdp,0.055901
gener,0.003559
ginger,0.017761
global,0.026315
goat,0.013033
goj,0.025061
good,0.027538
govern,0.061241
green,0.008519
grew,0.008278
gross,0.019371
grotto,0.020800
group,0.004468
grow,0.019057
grown,0.076323
growth,0.037623
guarante,0.009087
gypsum,0.035140
ha,0.079278
half,0.013638
hanov,0.017015
head,0.006395
health,0.006906
heavi,0.008561
hectar,0.029186
height,0.009877
help,0.005423
hemispher,0.011281
high,0.025080
highli,0.006521
hilli,0.017570
histori,0.004126
hog,0.016728
hold,0.005967
holiday,0.011660
home,0.007073
hope,0.008434
hotel,0.023855
howev,0.008040
httpwwwjamaicatradeandinvestorgjamaicahousedoingbusinessinvestinginjamaicaictbpo,0.025061
hub,0.051439
hundr,0.007526
hurrican,0.013230
husbandri,0.014410
ict,0.015843
ictbpo,0.050123
idb,0.015910
ideal,0.008060
ifc,0.013362
imf,0.021697
immens,0.011903
import,0.050701
improv,0.012192
incent,0.010313
includ,0.017194
incom,0.007587
increas,0.033346
independ,0.005088
indic,0.006094
industri,0.067853
inflat,0.018658
inform,0.014775
infrastructur,0.008387
initi,0.010765
inland,0.011887
instal,0.009776
instant,0.012804
institut,0.010484
intens,0.008227
interamerican,0.016428
intern,0.026046
intervent,0.017977
invest,0.042319
investor,0.009437
iron,0.008872
island,0.044054
isnt,0.013443
issu,0.005315
ite,0.021467
j,0.012442
jamaica,0.711065
jamaican,0.304235
januari,0.007069
jlh,0.050123
job,0.025664
join,0.014737
juic,0.015592
jump,0.011437
just,0.005776
kingdom,0.006589
kingston,0.049659
km,0.009323
labor,0.008132
labour,0.008385
land,0.006268
landmark,0.011660
lane,0.012665
lard,0.021005
larg,0.008729
largest,0.006840
late,0.005734
launch,0.008341
laundri,0.017827
lead,0.009883
leader,0.014484
leather,0.014166
level,0.014857
life,0.005323
light,0.006827
limeston,0.014148
limit,0.005057
link,0.003601
liquid,0.008877
live,0.016064
livestock,0.023380
local,0.056092
locat,0.054803
logist,0.083661
long,0.010754
longer,0.006830
low,0.012694
lower,0.006119
m,0.005922
machineri,0.010213
maho,0.023144
mahogani,0.019427
mainli,0.048126
maintain,0.005774
major,0.013180
make,0.016845
manchest,0.012997
manganes,0.014950
mani,0.037431
manufactur,0.063180
marbl,0.014834
march,0.006867
margarin,0.019309
marin,0.009480
mark,0.006649
market,0.024796
marmalad,0.023144
materi,0.023213
meant,0.008494
measur,0.005424
meat,0.011491
meet,0.006700
miga,0.018882
mile,0.019252
milk,0.024462
million,0.104074
miner,0.018337
molass,0.018111
mollusc,0.015148
monetari,0.017755
money,0.007401
montego,0.025061
mop,0.020800
mountain,0.053458
multidecad,0.023648
multilater,0.013142
multin,0.012542
nafta,0.017278
nation,0.027532
natur,0.004421
near,0.006809
nearli,0.014425
need,0.004978
neg,0.007181
negril,0.070946
new,0.007398
night,0.010157
node,0.024967
north,0.013150
northern,0.023225
northsouth,0.015333
novemb,0.007427
number,0.004142
oblig,0.009145
obtain,0.006436
ocho,0.092577
oil,0.033062
onc,0.018563
onefourth,0.017632
onli,0.011436
oper,0.010448
order,0.004563
ore,0.011864
origin,0.009178
outlook,0.011872
output,0.008643
outsourc,0.014203
packag,0.020996
paint,0.010517
parish,0.055508
pariti,0.011919
parti,0.006399
particular,0.005183
particularli,0.005807
partner,0.009053
pastur,0.015532
pedro,0.013282
percent,0.033268
percentag,0.018456
period,0.009841
petroleum,0.021290
pharmaceut,0.011281
phase,0.007963
pick,0.021558
pimento,0.025061
pine,0.014113
place,0.004683
plant,0.007189
plantat,0.011879
plastic,0.011133
point,0.004803
polici,0.012256
popul,0.005892
popular,0.005924
port,0.009357
posit,0.009815
potato,0.012613
poverti,0.009768
powder,0.014113
predominantli,0.010541
preliminari,0.025330
prepar,0.007701
present,0.004748
prevent,0.006788
price,0.007030
primari,0.006268
primarili,0.012982
privat,0.020427
problem,0.005078
process,0.008978
produc,0.034586
product,0.094036
program,0.017920
programm,0.009127
project,0.011751
properti,0.005749
propos,0.005858
protect,0.006329
provid,0.029493
pull,0.010897
push,0.009030
quantiti,0.007734
quarri,0.016231
quarter,0.009877
r,0.006354
rais,0.014008
rang,0.005700
rank,0.008017
rate,0.082388
ratio,0.008564
raw,0.029473
reach,0.012241
read,0.005230
real,0.012501
rear,0.013471
receiv,0.005753
reduc,0.017116
refer,0.003011
refin,0.009447
refinanc,0.017966
refineri,0.013959
reforest,0.018345
reform,0.029467
region,0.010786
relat,0.004060
relationship,0.005748
remain,0.009961
remitt,0.029488
repatri,0.014656
requir,0.018964
research,0.004885
reserv,0.008009
resili,0.013813
resourc,0.006097
respond,0.008122
respons,0.005223
restaur,0.013375
restor,0.008517
restructur,0.035687
result,0.004195
revenu,0.008786
revers,0.008291
reviv,0.009571
rice,0.011358
richer,0.014391
rio,0.055064
ripen,0.017896
rise,0.012120
river,0.024701
roast,0.017827
rotterdam,0.033279
roughli,0.008448
roundwood,0.020105
rum,0.016048
run,0.006618
s,0.017085
saint,0.010070
sale,0.008773
salt,0.010318
save,0.008552
saw,0.007370
sea,0.007684
seafood,0.016469
season,0.019465
second,0.004942
secondari,0.008576
secondlead,0.025061
sector,0.063165
secur,0.006398
seen,0.005909
sell,0.008519
separ,0.005502
seriou,0.016873
serv,0.011990
servic,0.011735
set,0.004665
sever,0.013108
shallow,0.012739
sheep,0.012134
shift,0.007298
ship,0.008545
shrank,0.015047
sign,0.013802
silica,0.016084
sinc,0.016764
singapor,0.022090
singl,0.005609
sisal,0.019678
site,0.028240
skill,0.008074
slip,0.013845
slope,0.012100
slowest,0.017170
small,0.005128
soap,0.014788
social,0.010664
sought,0.008165
sourc,0.005272
south,0.013127
southern,0.007779
sovereign,0.010017
speak,0.008037
special,0.005242
specul,0.008720
st,0.020270
stabil,0.007816
standard,0.005645
start,0.005305
state,0.007334
statist,0.013752
step,0.007107
stimul,0.009379
stop,0.008280
street,0.009564
strict,0.009739
stride,0.015279
strong,0.006090
subsequ,0.006540
substanc,0.008812
substanti,0.007780
success,0.011116
suffer,0.022950
sugar,0.081705
summari,0.010087
suppli,0.027332
support,0.014950
swampi,0.021005
tast,0.011764
tax,0.047263
taxationtax,0.025061
technolog,0.012086
technologybusi,0.025061
territori,0.007336
tertiari,0.012675
textil,0.011332
th,0.004806
thi,0.021945
thirdlead,0.024266
thousand,0.014783
threaten,0.009530
tie,0.008175
timber,0.025105
tip,0.011690
tobacco,0.023620
today,0.012042
togeth,0.005779
ton,0.125016
tonn,0.013861
total,0.029241
tourism,0.078005
tourist,0.067019
town,0.025821
trade,0.024253
trail,0.013750
trajectori,0.012503
trelawni,0.019309
trend,0.008005
tri,0.006597
twice,0.009990
type,0.005039
unemploy,0.039267
unfavor,0.014856
unit,0.012682
upward,0.011668
usa,0.009357
use,0.023973
utilis,0.013781
valu,0.005372
variou,0.004771
vast,0.008416
vendor,0.014352
venezuela,0.012859
villag,0.009577
violenc,0.009982
visit,0.008421
visitor,0.022929
wa,0.044676
walk,0.021412
wallac,0.012815
wallboard,0.025061
water,0.019396
waterfal,0.014148
weak,0.008325
weather,0.010278
wellknown,0.009839
western,0.012609
westmoreland,0.020800
wide,0.005398
wood,0.009671
work,0.004109
world,0.042494
worldwid,0.008503
year,0.054990
yearli,0.037276
youth,0.021141
ys,0.019813
zinc,0.013205
zone,0.025989
