ac,0.031005
access,0.031504
administr,0.015918
advanc,0.014061
agenc,0.017909
agricultur,0.033843
agricultureproduct,0.059891
aidrecipi,0.059891
altern,0.014628
april,0.017416
attract,0.018318
bank,0.049391
base,0.009919
becaus,0.010333
beef,0.033280
better,0.015480
billion,0.019498
birch,0.039357
blackjack,0.051302
bristol,0.036019
british,0.045982
brown,0.023293
bruce,0.028204
budgetrevenu,0.044452
bulk,0.024335
busi,0.015474
cabl,0.029926
cambridg,0.018208
came,0.015032
capabl,0.018105
capit,0.029905
capita,0.024953
captur,0.018877
car,0.024294
castl,0.031174
cater,0.033727
cattl,0.026930
caus,0.024543
cereal,0.033898
chamber,0.024396
children,0.018909
colour,0.026244
commun,0.012023
compani,0.014519
construct,0.014239
consum,0.018310
consumpt,0.021447
contribut,0.040490
corpor,0.036083
cost,0.016167
costa,0.032571
countrysid,0.030143
crown,0.023817
currenc,0.020151
daw,0.041701
death,0.016105
debtextern,0.059891
decemb,0.016875
declin,0.017459
depend,0.012133
develop,0.018393
distribut,0.030346
domest,0.019053
dougla,0.027175
duti,0.065647
econom,0.012115
economi,0.060479
electr,0.036612
electricityconsumpt,0.059891
electricityexport,0.059891
electricityimport,0.059891
electricityproduct,0.113029
employ,0.014685
england,0.019211
enter,0.016185
entertain,0.027222
est,0.153794
europ,0.015012
european,0.013789
exchang,0.015650
expand,0.015661
expenditur,0.024479
export,0.020309
exportscommod,0.059891
exportspartn,0.059891
fertil,0.023206
film,0.112269
filmmak,0.038352
financ,0.017543
financi,0.047415
fiscal,0.025100
fish,0.061968
forc,0.011866
forcebi,0.059891
forestri,0.030758
form,0.009049
free,0.013522
frequent,0.016642
fuel,0.021938
fund,0.048969
fy,0.036324
ga,0.019917
gain,0.014403
gambl,0.065574
game,0.040630
gdp,0.066795
gdpcomposit,0.059891
gdpper,0.056514
gdpreal,0.059891
gear,0.030046
glen,0.039557
good,0.039486
govern,0.045031
great,0.013342
gross,0.023147
grow,0.015180
growth,0.029969
gwh,0.079320
ha,0.055258
harri,0.024897
headquart,0.026230
highincom,0.038524
highpow,0.044893
hightechnolog,0.042934
household,0.023549
hydro,0.036140
hydroelectr,0.034299
import,0.010096
importscommod,0.059891
importspartn,0.059891
incent,0.024647
includ,0.016436
incom,0.036265
index,0.018806
industri,0.067563
inflat,0.022295
inherit,0.021953
institut,0.012527
interconnector,0.051302
ireland,0.024744
irish,0.028078
isl,0.516680
island,0.157920
jack,0.027989
januari,0.033790
jurisdict,0.048054
key,0.015064
kingdom,0.047240
kubrick,0.045615
kv,0.044669
kwh,0.072280
labor,0.019435
labour,0.020038
lamb,0.035671
larg,0.010431
largest,0.016347
libertin,0.047689
light,0.016317
like,0.010571
limit,0.012087
line,0.014165
locat,0.029103
longest,0.028371
lotteri,0.224438
low,0.015167
magic,0.027594
mainstay,0.036201
make,0.030192
man,0.262655
mani,0.008945
manufactur,0.056620
manx,0.244125
march,0.016411
market,0.014814
million,0.015544
millionexpenditur,0.047027
miscellan,0.034391
mostli,0.016885
multiplay,0.043106
mum,0.052628
na,0.299267
nahighest,0.045874
nation,0.032898
natur,0.010565
ned,0.038974
nomin,0.020656
note,0.011410
nuclear,0.020221
occup,0.020621
offer,0.014716
offic,0.015929
offshor,0.028857
oil,0.019752
onc,0.014787
onli,0.027329
onlin,0.051963
open,0.013548
oper,0.012484
opportun,0.018693
outsid,0.015097
p,0.015107
par,0.030367
pariti,0.056969
particip,0.015612
peel,0.039977
penc,0.046425
peopl,0.010911
percentag,0.022053
pig,0.029513
play,0.014288
poker,0.041033
pokerstar,0.059891
polici,0.014645
popul,0.014080
possibl,0.023149
potter,0.036019
poultri,0.035129
pound,0.113787
poverti,0.023345
power,0.058066
pp,0.018501
press,0.013356
price,0.016800
process,0.010728
product,0.059137
profession,0.018388
project,0.014041
promot,0.016188
public,0.022857
purchas,0.038601
radio,0.023232
railroad,0.029208
rank,0.019159
rate,0.084380
receiv,0.041251
recent,0.012462
refer,0.007197
reloc,0.029671
restrict,0.016680
result,0.010025
retail,0.026030
rica,0.036201
rng,0.048825
road,0.020905
robert,0.015824
rural,0.046551
s,0.010207
scene,0.025925
schoolday,0.056514
scientif,0.014482
sea,0.018363
secret,0.022206
sector,0.018868
sectoragricultur,0.044669
seri,0.014337
servic,0.084135
seven,0.018886
sharelowest,0.042934
sheep,0.028999
shellfish,0.040907
shergar,0.059891
sinc,0.030048
site,0.033744
small,0.012256
softwar,0.021221
sold,0.021152
sourcefossil,0.043282
sparkl,0.047349
speed,0.020483
stabil,0.018680
stamp,0.029625
station,0.065647
statist,0.016433
steamship,0.039557
steamvessel,0.059891
stood,0.026945
stormbreak,0.056514
submarin,0.030267
success,0.013283
sulbi,0.059891
tax,0.112947
televis,0.045154
test,0.016374
thoma,0.017917
ticket,0.033685
timber,0.029998
tom,0.027479
tourism,0.116508
tourist,0.026693
tournament,0.037049
trade,0.014489
transport,0.051514
trust,0.021896
tv,0.027695
tweed,0.056514
tynwald,0.050727
uk,0.073438
unemploy,0.023460
union,0.014884
unit,0.030308
univers,0.020748
veget,0.023911
wa,0.008212
wake,0.026722
war,0.014228
wealth,0.020627
wholesal,0.031174
william,0.016050
world,0.020310
year,0.020217
