accommod,0.045645
account,0.023151
addit,0.039771
alloy,0.054698
annual,0.030195
australia,0.136665
australian,0.040881
barthlemi,0.072753
becaus,0.017841
begin,0.023110
billion,0.100996
build,0.025081
caledonia,0.448619
came,0.025954
canada,0.033999
capac,0.032905
capit,0.025817
capita,0.043083
chapel,0.060926
compani,0.025069
concern,0.022289
contain,0.045554
countri,0.062682
coupl,0.036740
crisi,0.032764
cultiv,0.040551
demand,0.028346
depress,0.039448
destin,0.044432
dollar,0.148398
earth,0.030009
ecolog,0.036022
econom,0.020919
economi,0.104422
environment,0.030731
essenti,0.053144
estim,0.026899
european,0.023808
exchang,0.054042
expect,0.026263
export,0.035066
factor,0.024236
ferronickel,0.086670
fifth,0.040707
financi,0.054577
flash,0.053678
food,0.029418
fourthlargest,0.073841
franc,0.175572
french,0.082525
fuel,0.037878
fullscal,0.059541
futuna,0.074426
gdp,0.076885
global,0.081434
goro,0.093736
group,0.018438
guadeloup,0.066819
guiana,0.063044
ha,0.013629
hawaii,0.108764
health,0.028495
heritag,0.041807
high,0.020697
higher,0.024300
histori,0.017024
honeymoon,0.081753
howev,0.016588
import,0.052299
increasingli,0.030133
indonesia,0.048417
intern,0.017911
island,0.030295
japan,0.033801
japanes,0.077909
key,0.026010
known,0.017078
land,0.025864
larg,0.018009
largest,0.056450
le,0.040707
lower,0.025249
major,0.018128
market,0.051155
martin,0.036168
martiniqu,0.066365
mayott,0.071760
meridien,0.103407
metropolitan,0.051918
miner,0.037830
miquelon,0.076388
need,0.041081
neglig,0.050842
new,0.167890
nickel,0.548052
nouma,0.085036
oceania,0.104430
ongo,0.037388
onli,0.015728
oper,0.021556
ore,0.048952
pierr,0.043985
plan,0.025876
plant,0.088996
polynesia,0.061688
popular,0.024445
poverti,0.040307
ppp,0.056298
produc,0.061160
product,0.061263
rate,0.048562
recent,0.021518
recogn,0.026645
refer,0.012426
report,0.023883
resort,0.046113
respond,0.033514
roughli,0.034857
runion,0.069404
russia,0.036520
s,0.017624
saint,0.124656
school,0.025282
singapor,0.045572
sourc,0.021753
state,0.015132
student,0.029435
studi,0.018276
substanti,0.032104
suffer,0.031564
suitabl,0.038391
supplement,0.042816
suppli,0.056387
support,0.020562
taxat,0.042519
thi,0.012935
tonn,0.114383
tourism,0.080464
travel,0.030537
unit,0.017443
wa,0.042540
walli,0.061886
wed,0.175361
world,0.035066
year,0.034907
zealand,0.123366
