abandon,0.012892
abolish,0.014422
abov,0.008836
accept,0.008665
access,0.009549
accus,0.013841
addit,0.006982
advanc,0.008524
age,0.017287
agricultur,0.133364
aid,0.010354
alon,0.011803
america,0.009672
amid,0.018304
anoth,0.013276
appear,0.007994
area,0.020565
artisan,0.019041
attempt,0.007872
autark,0.030432
ban,0.013906
barter,0.040210
base,0.006014
basi,0.025791
becam,0.015214
becaus,0.006264
becom,0.006662
befor,0.014215
began,0.008310
behead,0.023860
believ,0.017215
besid,0.014239
billion,0.011821
boom,0.015789
bought,0.015902
bridg,0.013749
brought,0.010258
bullion,0.047144
came,0.009113
canal,0.033065
capit,0.036261
carri,0.008985
cart,0.021910
case,0.013938
cash,0.041793
caus,0.014879
centuri,0.021472
certainli,0.015910
chang,0.006284
china,0.096381
chines,0.035944
circul,0.029168
citi,0.019252
clan,0.054824
class,0.018490
coin,0.011543
collect,0.008131
columbian,0.025546
come,0.015945
commerc,0.055565
commerci,0.021359
communist,0.013749
compet,0.011493
condemn,0.015702
connect,0.009178
consid,0.006501
constant,0.011083
construct,0.008633
continu,0.013509
contract,0.022366
control,0.007407
corn,0.017434
corv,0.026699
counterfeit,0.023742
countrysid,0.018274
creat,0.006819
crop,0.110266
currenc,0.048867
cut,0.011835
daokui,0.036309
david,0.009903
death,0.009764
decid,0.010864
decreas,0.010978
defect,0.016456
deficit,0.015474
demand,0.009953
describ,0.006861
devast,0.015829
develop,0.011151
devot,0.013177
direct,0.007403
directli,0.008957
dispos,0.016494
dollar,0.013026
domin,0.009174
dramat,0.012590
dure,0.057758
dutch,0.027384
dweller,0.023408
dynasti,0.246444
dynastri,0.036309
earli,0.026853
earlier,0.039672
econom,0.007345
economi,0.082498
els,0.013822
emerg,0.025807
emperor,0.059212
enact,0.014878
encourag,0.011031
encroach,0.020684
end,0.014677
enforc,0.012583
engag,0.021257
english,0.009348
enhanc,0.012432
ensur,0.011027
enterpris,0.012633
entir,0.008706
equival,0.010811
establish,0.007163
estim,0.028335
eunuch,0.026350
europ,0.009101
european,0.008359
exact,0.012804
exchang,0.037952
exempt,0.017446
exist,0.006674
expel,0.016183
expens,0.011987
experienc,0.012050
export,0.012312
extens,0.018127
extern,0.005248
extraordinari,0.017519
extremi,0.031906
face,0.010074
facilit,0.012100
factori,0.014686
fair,0.013594
farmer,0.042620
favor,0.011085
featur,0.009077
firearm,0.020766
firstli,0.019768
flow,0.010569
follow,0.005741
forc,0.007193
forebear,0.026822
foreign,0.046716
form,0.005486
fortun,0.016281
fruit,0.014222
fuse,0.017669
gain,0.008732
galleon,0.026029
gdp,0.013498
gener,0.005157
gentri,0.023251
gigant,0.046400
golden,0.014543
good,0.031918
govern,0.020475
gradual,0.023075
group,0.006474
grown,0.013822
guan,0.027503
guangdong,0.025732
haijin,0.030753
han,0.057374
hanhui,0.036309
help,0.007857
hi,0.025741
high,0.014534
histori,0.005977
hold,0.008645
hongwu,0.186613
howev,0.005824
huai,0.030753
hyperinfl,0.021873
ice,0.015655
imag,0.011051
imperi,0.013981
import,0.018364
impos,0.024686
imposs,0.012135
inabl,0.017327
includ,0.004982
incom,0.010993
increas,0.020705
industri,0.040960
influenc,0.007905
ingot,0.025197
innov,0.012432
introduc,0.008419
invest,0.030656
investor,0.013673
involv,0.006957
iron,0.012854
iv,0.015579
japan,0.023737
japanes,0.013678
jin,0.022677
jingd,0.036309
joseph,0.011827
key,0.009132
king,0.011431
labor,0.058913
laissez,0.025638
land,0.036326
landlord,0.020907
larg,0.050591
largest,0.009910
late,0.024923
later,0.021408
law,0.007228
led,0.007744
legal,0.009901
level,0.007175
li,0.037198
liber,0.010818
light,0.009892
like,0.006409
limit,0.014655
link,0.005217
littl,0.009183
live,0.007758
local,0.008126
longer,0.009896
lose,0.012619
low,0.018391
lower,0.008865
lowest,0.014271
make,0.006101
manag,0.008593
manchu,0.026029
mandatori,0.018441
mani,0.032538
manila,0.022906
manufactur,0.022884
maoist,0.024800
mark,0.009633
market,0.107774
massiv,0.051067
measur,0.015717
merchant,0.142499
merit,0.017121
met,0.012269
metal,0.012487
method,0.007430
middl,0.009892
midth,0.029606
million,0.047119
ming,0.698738
minor,0.011103
mint,0.019641
mismanag,0.021947
modern,0.007196
monetari,0.012861
money,0.010722
mongol,0.056544
monopoli,0.015372
mostli,0.020473
mover,0.024302
nation,0.006648
nearli,0.010450
necessari,0.009561
need,0.007212
needham,0.022954
new,0.021437
note,0.013834
number,0.018006
oblig,0.013249
occur,0.015245
offici,0.009108
old,0.009927
onli,0.027614
oper,0.007569
oppos,0.010026
order,0.013223
origin,0.006649
outflow,0.021626
output,0.025045
paid,0.024466
paint,0.015237
paper,0.019799
particular,0.007509
particularli,0.008414
pattern,0.010236
pauciti,0.026133
payment,0.025863
peasant,0.050188
period,0.042773
person,0.007850
philip,0.014747
plant,0.010416
plantat,0.051635
play,0.008662
plow,0.023572
polici,0.026636
polit,0.007530
pop,0.020577
popul,0.025609
portugues,0.030545
poto,0.027357
potteri,0.018865
pound,0.017246
pour,0.036115
power,0.021121
print,0.012920
privat,0.049324
privatelymad,0.036309
proagricultur,0.036309
problem,0.007358
produc,0.050109
product,0.028682
profession,0.011148
profit,0.023773
promot,0.009814
provid,0.006104
provinc,0.012718
provinci,0.016639
puriti,0.019477
qing,0.064474
qualiti,0.010250
quantiti,0.011206
rais,0.010147
rang,0.008258
rate,0.008526
reap,0.022722
rebel,0.015853
rebellion,0.015579
recov,0.013431
reduc,0.033064
refer,0.004363
regard,0.008371
region,0.015627
regularli,0.014853
relax,0.016679
remain,0.007216
replac,0.017783
report,0.008386
reput,0.015182
requir,0.013737
resid,0.011559
rest,0.010222
restrict,0.030338
resum,0.016689
revenu,0.025459
revers,0.024025
revert,0.019095
rice,0.016456
rise,0.017560
road,0.012674
role,0.007643
rotat,0.014444
rule,0.015929
rural,0.084666
salt,0.074746
saw,0.021355
scale,0.019751
scholar,0.022161
second,0.014322
secondli,0.019187
sent,0.012094
sever,0.018992
shogun,0.025114
silver,0.167008
smuggl,0.019725
sold,0.038471
sometim,0.007905
song,0.080522
sought,0.011830
sourc,0.007638
south,0.009509
spanish,0.026264
special,0.015189
spike,0.021023
spread,0.010733
sprout,0.050394
sprung,0.047602
spur,0.017055
start,0.007686
state,0.053133
stateown,0.017879
successor,0.013640
suffer,0.011083
suitabl,0.013480
suppress,0.013906
surplu,0.031953
syce,0.035156
tael,0.184521
tang,0.019620
tax,0.159774
taxat,0.029859
tea,0.038835
technolog,0.008755
th,0.006963
theori,0.007117
thi,0.036336
thousand,0.010709
thrive,0.033622
time,0.010745
today,0.008723
tokugawa,0.025033
tool,0.009723
trade,0.079060
trader,0.014949
transact,0.013075
treasur,0.018831
treat,0.010633
trend,0.011598
troop,0.013706
type,0.029203
unlik,0.020225
urban,0.012737
urbanrur,0.030135
use,0.039695
valu,0.023349
vari,0.008952
ventur,0.031987
veri,0.006934
violenc,0.014462
wa,0.124477
wage,0.053374
wanli,0.034262
want,0.011211
war,0.017252
waterpow,0.055006
way,0.006492
weaken,0.045630
wealth,0.012505
wealthi,0.015845
weapon,0.013484
weight,0.012239
wide,0.007821
world,0.012313
yangtz,0.025546
year,0.012257
yuan,0.020766
zheng,0.024579
zicheng,0.030432
