abl,0.008552
aborigin,0.040634
academ,0.030423
accomplish,0.013607
accord,0.006770
achiev,0.008517
activ,0.040535
addit,0.013699
administr,0.028400
advanc,0.008362
advic,0.029470
advis,0.013685
affect,0.026542
age,0.016958
ago,0.026239
agrarian,0.018357
agricultur,0.080507
aid,0.020314
akashi,0.030168
allow,0.006733
american,0.007671
amid,0.017955
anp,0.029037
antler,0.025059
archaeolog,0.028993
archipelago,0.017185
area,0.013449
armi,0.023291
arriv,0.010899
asia,0.069751
asian,0.025797
assault,0.017358
attain,0.013705
attempt,0.007723
avail,0.008276
ban,0.013641
banka,0.028798
base,0.017698
basi,0.008433
basic,0.016426
basin,0.016087
becam,0.029849
becaus,0.006145
becom,0.006535
befor,0.006972
began,0.032608
begin,0.007960
believ,0.008443
bid,0.017396
boost,0.016006
bp,0.020453
british,0.018230
bronz,0.016430
build,0.008639
busi,0.009203
ca,0.015016
came,0.008939
camphor,0.028159
capit,0.017785
capitalist,0.016152
carri,0.017628
cash,0.013666
caus,0.021894
central,0.007664
centuri,0.014042
certain,0.007483
challeng,0.009767
chang,0.006164
changpin,0.033610
chen,0.019983
chiang,0.023069
china,0.073536
chines,0.070520
chingkuo,0.030884
citi,0.018886
civil,0.028138
claim,0.008300
close,0.007316
coast,0.012479
colon,0.014509
coloni,0.045228
commerci,0.031429
commit,0.011461
compani,0.043175
compet,0.011274
concept,0.007631
conquest,0.014735
construct,0.016937
contact,0.011475
continu,0.013252
control,0.007266
cornel,0.017295
corpor,0.010729
cost,0.009615
countri,0.007196
crisi,0.022571
crop,0.013520
cultur,0.024668
currenc,0.011984
cusp,0.026436
cut,0.011610
dam,0.036911
deer,0.020770
deerskin,0.030884
defeat,0.012939
demand,0.009763
describ,0.006731
destin,0.015304
destruct,0.012943
develop,0.038286
di,0.017020
did,0.016236
differ,0.005797
diplomat,0.012992
discoveri,0.010242
display,0.012429
distribut,0.018047
dollar,0.025557
domest,0.033994
domin,0.008999
drove,0.017714
dure,0.050363
dutch,0.107453
dynam,0.010253
dynasti,0.028441
earli,0.013170
east,0.060738
econom,0.115288
economi,0.152863
economist,0.012361
educ,0.025164
effici,0.010309
effort,0.009118
elementari,0.014853
empir,0.064311
enabl,0.020883
encourag,0.021643
end,0.007198
engin,0.009488
english,0.009170
enter,0.009625
enterpris,0.012393
entir,0.008540
establish,0.035133
europ,0.008927
european,0.024602
eventu,0.009358
evid,0.017957
exampl,0.005896
exchang,0.018614
execut,0.009973
expand,0.018627
expans,0.011109
export,0.096627
exposit,0.018045
expuls,0.019308
extradit,0.023290
face,0.029647
factori,0.014406
far,0.008927
farm,0.013136
financi,0.009399
fish,0.024568
flight,0.014424
focu,0.009659
focus,0.009165
food,0.010133
forc,0.007056
foreign,0.036661
form,0.005381
formosa,0.026836
foundat,0.009181
french,0.009475
ft,0.015387
fund,0.009707
gain,0.008565
gather,0.012274
gener,0.005059
gentar,0.033610
goal,0.019368
govern,0.040171
governmentown,0.021792
governor,0.025846
governorgener,0.040268
gradual,0.033954
greater,0.008867
grew,0.011765
growth,0.017823
ha,0.009389
han,0.014070
hand,0.008723
harshli,0.022709
heavi,0.024336
heavili,0.022701
help,0.007707
hi,0.018938
histori,0.029320
howev,0.017142
huawai,0.033610
huge,0.013093
human,0.013566
hunt,0.014209
hurt,0.018455
hydraul,0.039353
hyperinfl,0.021457
idea,0.007902
ii,0.018428
immigr,0.014010
implement,0.009802
import,0.030024
improv,0.017327
increas,0.020311
independ,0.014462
india,0.032337
industri,0.104470
inhabit,0.012239
innov,0.012195
intermedi,0.013837
intern,0.006169
introduc,0.008258
invad,0.014081
invest,0.020048
iron,0.012609
irrig,0.017797
island,0.010435
issu,0.007554
jail,0.020108
jakarta,0.022709
japan,0.116428
japanes,0.080507
join,0.020944
keelung,0.031299
kidnap,0.019983
kingdom,0.037459
kmt,0.026190
known,0.017647
kodama,0.032287
korea,0.014209
koxinga,0.062598
kuomintang,0.074152
labor,0.011558
laid,0.013285
lake,0.013883
land,0.044544
landown,0.018643
languag,0.008847
largest,0.009722
late,0.008149
led,0.007596
lessen,0.018714
level,0.014077
levi,0.016541
liber,0.010612
light,0.009704
literaci,0.017271
liu,0.020565
local,0.007972
locat,0.008654
longrun,0.019166
lose,0.012379
low,0.009020
lukang,0.033610
machineri,0.014515
main,0.037256
mainland,0.045869
major,0.024977
mani,0.010639
maritim,0.015150
market,0.008810
mass,0.009652
meat,0.016332
medium,0.013417
member,0.007509
merchant,0.013978
metallurgi,0.019166
middl,0.009704
migrant,0.018373
migrat,0.012575
militari,0.009521
ming,0.040319
modern,0.014119
modernday,0.016752
monopol,0.020481
moon,0.015327
mostli,0.010041
motojiro,0.033610
museum,0.014192
mustse,0.032893
nagasaki,0.046581
nation,0.013043
natur,0.006283
nearli,0.010251
need,0.007075
neolith,0.017538
new,0.015771
northern,0.022005
nuyt,0.065786
obstacl,0.016985
obtain,0.009148
occup,0.012263
offic,0.009473
ogg,0.057597
oil,0.011747
old,0.009738
onli,0.005417
open,0.008057
opium,0.021181
order,0.019457
organ,0.012839
origin,0.006522
outflow,0.021214
paleolith,0.019477
partisan,0.020565
peak,0.012914
period,0.041959
persia,0.017525
pescador,0.029853
pieter,0.022612
place,0.013312
plain,0.015380
plan,0.008913
plant,0.010218
point,0.006827
polici,0.060968
polit,0.014773
popul,0.008373
popular,0.008420
port,0.039898
post,0.045689
power,0.006906
prehistori,0.016951
premier,0.016895
pressur,0.020318
primari,0.035635
privat,0.019354
problem,0.007217
process,0.006380
product,0.014068
profit,0.023321
project,0.033403
promot,0.009627
propaganda,0.018045
protect,0.008994
provid,0.005988
public,0.013593
purpos,0.008778
pursu,0.036822
qing,0.084329
railway,0.015971
rais,0.009954
rank,0.011394
rapid,0.011696
rate,0.008363
rattan,0.029290
reach,0.008698
realiz,0.011968
reason,0.007681
recent,0.007411
recogn,0.009177
recordkeep,0.025636
reduct,0.012315
refer,0.004280
reform,0.041880
regim,0.012472
rel,0.007674
relat,0.005771
reli,0.010313
rent,0.016480
reopen,0.019455
replac,0.017444
repres,0.007021
republ,0.020091
resourc,0.025995
restrict,0.019840
result,0.017886
retreat,0.049595
reviv,0.013602
rice,0.048429
rise,0.017226
roc,0.022758
role,0.014996
rose,0.012988
rule,0.023439
s,0.060706
satisfi,0.012697
satur,0.019413
save,0.012154
scholar,0.010870
school,0.008708
sea,0.010921
second,0.014049
sector,0.022443
serv,0.017040
settlement,0.012490
sever,0.012420
sharehold,0.017308
shihsanhang,0.067220
shochieh,0.031299
showcas,0.022564
shuibian,0.029037
sieg,0.017741
signific,0.007604
sika,0.030510
sinc,0.005956
sinica,0.029562
site,0.010034
slashandburn,0.026565
slow,0.012298
slowli,0.013730
small,0.007289
societi,0.014926
sound,0.012542
southeast,0.029165
southern,0.011055
spanish,0.012882
stabil,0.033328
stabl,0.011723
start,0.015080
state,0.015636
step,0.010101
strateg,0.013001
strengthen,0.013473
substitut,0.013237
success,0.031599
sudden,0.017055
sugar,0.043545
sun,0.013215
suppli,0.009711
support,0.021248
surplu,0.015672
surround,0.010908
swamp,0.021754
switch,0.014626
tachung,0.033610
tainan,0.061020
taipei,0.023178
taiwan,0.771100
taiwanes,0.165979
takau,0.033610
takeoff,0.024254
tamsui,0.032893
tariff,0.016361
tax,0.011195
tayoan,0.067220
tea,0.019048
techniqu,0.018308
technolog,0.008588
telecommun,0.015527
territori,0.010426
th,0.013661
therefor,0.008096
thi,0.035644
thu,0.013927
tiger,0.020008
time,0.021082
today,0.008557
took,0.009305
tourist,0.015874
trade,0.120641
transform,0.009751
treati,0.012440
tribe,0.014664
tsiang,0.028361
tungn,0.096861
turn,0.008235
uncivil,0.026836
unit,0.012016
univers,0.012339
upper,0.024058
use,0.009734
valu,0.007634
vast,0.011961
vest,0.015623
visit,0.011968
wa,0.112338
wage,0.013089
war,0.042310
weaken,0.014920
weav,0.020108
western,0.008960
work,0.005839
world,0.018118
written,0.009431
year,0.012023
zeelandia,0.030510
zhi,0.025059
