abandon,0.006220
abolish,0.006957
abov,0.008525
abroad,0.007230
absenc,0.006121
access,0.013821
accid,0.016055
accommod,0.007732
accord,0.016648
account,0.019609
accur,0.005673
acquisit,0.007199
act,0.003805
activ,0.036548
actual,0.008523
addit,0.016843
address,0.005014
adhoc,0.012196
administr,0.046557
adopt,0.004595
advanc,0.004112
affect,0.017405
africa,0.005407
agenc,0.010476
agent,0.005677
agreement,0.005082
agricultur,0.079188
alexand,0.019139
allow,0.003311
alreadi,0.004851
amalgam,0.009677
amber,0.010500
american,0.003772
analogu,0.009101
andor,0.005827
ani,0.002934
anim,0.004660
anoth,0.003202
apart,0.006102
appli,0.003559
applic,0.003976
approv,0.011440
approxim,0.009075
april,0.035658
architectur,0.006280
area,0.003307
arrear,0.011823
arrest,0.007318
arriv,0.026801
articl,0.015829
assist,0.004964
associ,0.003252
attract,0.010715
attribut,0.005176
aug,0.011217
august,0.015179
author,0.011247
autom,0.014902
automot,0.028642
autonomi,0.006957
avail,0.008140
averag,0.029841
avoid,0.009947
background,0.011437
balanc,0.015810
bank,0.154092
barley,0.010171
base,0.014507
basi,0.008295
basic,0.004039
basin,0.007912
basket,0.010142
bauxit,0.011823
bbld,0.050431
becaus,0.015112
becom,0.006428
beef,0.019467
beet,0.022908
befor,0.006858
began,0.004009
begin,0.003914
belagroprombank,0.017517
belaru,0.575390
belarusbank,0.016529
belarusian,0.252158
belaruslithuania,0.017517
belaruss,0.033059
belaz,0.016529
belbusinessbank,0.017517
belenergo,0.017517
belgospischeprom,0.017517
believ,0.004152
belneftekhim,0.016529
belorusintorg,0.017517
belorusneft,0.035034
belspetsvneshtekhnika,0.017517
beltekhexport,0.017517
beltransgaz,0.052551
belvneshpromservi,0.017517
benefit,0.014616
billion,0.051326
bind,0.006933
black,0.010837
bodi,0.004028
booth,0.011097
border,0.017743
branch,0.004269
breakup,0.019287
breed,0.008051
brest,0.012940
broad,0.005392
buckwheat,0.016529
budget,0.037708
build,0.021243
bulgaria,0.009101
buy,0.006351
buyer,0.008013
byn,0.016529
byr,0.169610
cadillac,0.014405
cancel,0.007617
capac,0.022297
capit,0.004373
carri,0.013004
carrier,0.008075
case,0.003362
cash,0.006721
castl,0.009118
cattl,0.031506
censu,0.007885
central,0.037695
centralplan,0.016177
certain,0.011041
cessat,0.010588
chair,0.007552
chairman,0.007605
chalk,0.011892
championship,0.010898
chang,0.006063
channel,0.006638
character,0.010200
charg,0.005189
charter,0.007234
chemic,0.025602
chernobyl,0.024393
chicken,0.009557
chief,0.011199
child,0.006458
chosen,0.012289
ci,0.018812
cia,0.007989
citi,0.004644
citizen,0.011006
class,0.004460
clay,0.017174
clear,0.005005
climat,0.005742
closur,0.008684
collaps,0.005924
collect,0.011768
commerci,0.020609
committe,0.011539
commod,0.013054
common,0.003252
compani,0.042467
compar,0.003977
comparison,0.084594
compens,0.006797
competit,0.005288
complex,0.003935
compulsori,0.008506
comput,0.004456
concentr,0.005263
concern,0.011327
conclud,0.005500
condit,0.007526
conquer,0.007282
consequ,0.018293
consid,0.015683
consider,0.004519
consist,0.007199
construct,0.016659
consum,0.026777
consumpt,0.043911
contain,0.003858
contamin,0.017161
continu,0.003258
control,0.017867
converg,0.007085
convert,0.005482
cool,0.007534
copper,0.007469
cost,0.018914
council,0.004904
count,0.006134
countri,0.120342
cover,0.026569
creat,0.003289
credit,0.046843
crisi,0.044402
critic,0.011868
crop,0.046547
cross,0.011740
crude,0.008446
cu,0.042719
cultiv,0.013739
cultur,0.004044
cumul,0.008536
currenc,0.111983
current,0.013773
custom,0.005438
czech,0.008619
dairi,0.009902
damag,0.005804
danger,0.006317
databas,0.006292
day,0.008117
deal,0.017331
debt,0.006236
decemb,0.024678
decid,0.005241
decis,0.009069
declin,0.051066
decre,0.030896
decreas,0.021186
deep,0.005987
defens,0.011806
deficit,0.014930
deliv,0.006339
deliveri,0.007773
demand,0.028811
demonstr,0.004834
dens,0.007656
depart,0.004715
department,0.011372
departur,0.016520
depend,0.007097
deposit,0.031838
depress,0.006682
desper,0.009506
destabil,0.010018
destatis,0.017517
destroy,0.005624
deterior,0.007921
determin,0.011205
devalu,0.064122
devast,0.007636
develop,0.016139
diamond,0.008165
didnt,0.008838
difficult,0.004691
digest,0.008217
direct,0.021429
disabl,0.007833
discount,0.015530
dismiss,0.007165
dispatch,0.009212
disput,0.005410
distress,0.008926
distribut,0.017751
divid,0.004265
doe,0.003639
dollar,0.087985
dolomit,0.028105
domain,0.010505
domest,0.039010
domin,0.004425
drop,0.017710
druzhba,0.033922
durban,0.013754
dure,0.009288
dynam,0.010085
earth,0.005083
ecolog,0.006102
econom,0.038980
economi,0.044222
educ,0.004125
effect,0.006291
effort,0.004484
elect,0.009552
electr,0.032125
electron,0.005418
element,0.004118
emiss,0.007683
employ,0.004295
employe,0.006785
end,0.003540
energi,0.058931
enforc,0.006070
enhanc,0.005997
enjoy,0.006164
ensur,0.005319
enterpris,0.103617
entiti,0.010988
environment,0.010411
equal,0.004409
equip,0.040525
escalad,0.017517
especi,0.015040
est,0.125950
establish,0.006911
estim,0.018227
eu,0.021151
euro,0.024716
event,0.004213
everi,0.008104
exceed,0.006800
exchang,0.100703
exclud,0.006091
exempt,0.008416
exhaust,0.015143
exhibit,0.006112
exist,0.003220
expand,0.009161
expans,0.005463
expansionari,0.011511
explicitli,0.006592
exploit,0.006027
explor,0.004933
export,0.083163
extend,0.008542
extern,0.007596
extract,0.006233
extrem,0.004644
face,0.004860
facil,0.024828
fact,0.004111
factbook,0.008115
factor,0.004105
factori,0.007085
fall,0.004420
fallout,0.011267
famili,0.008967
farm,0.019382
fee,0.015158
fell,0.006254
ferrou,0.012461
fertil,0.033937
field,0.007072
figur,0.009591
final,0.004188
financ,0.025655
financi,0.023113
fine,0.013845
firm,0.005783
fiscal,0.007341
fix,0.005139
flax,0.046898
flood,0.007644
flow,0.005099
fluctuat,0.007230
fodder,0.036004
follow,0.005539
food,0.014950
foodstuff,0.029976
forc,0.010411
forecast,0.007628
foreign,0.076628
forest,0.006659
forestri,0.008996
form,0.005293
formerli,0.006486
formul,0.005545
fossil,0.007505
foster,0.007402
fraction,0.006777
free,0.003955
freeload,0.016961
fuel,0.019250
fulfil,0.007002
function,0.003545
fund,0.019096
ga,0.075732
gazprom,0.013341
gdp,0.058609
gener,0.012440
geograph,0.005631
german,0.004890
germani,0.010427
gini,0.011426
given,0.006945
glass,0.007632
glavtransneft,0.017517
gold,0.006021
golden,0.007016
gomel,0.015878
gomeltransneft,0.017517
good,0.015398
govern,0.055976
government,0.021740
governmentcontrol,0.027157
grain,0.007523
grass,0.008725
great,0.003902
greater,0.004361
greatest,0.006093
grew,0.034717
grid,0.008766
grodno,0.015878
gross,0.020310
group,0.003123
grow,0.004440
grown,0.013336
growth,0.035062
guarante,0.006351
ha,0.043868
half,0.009532
happen,0.005472
hard,0.005683
hardli,0.009256
harvest,0.007675
health,0.009654
healthimprov,0.016177
held,0.004093
hemp,0.023385
herald,0.009733
herd,0.009238
heritag,0.014164
hi,0.006209
high,0.010518
higher,0.004116
highest,0.010604
highli,0.013675
hockey,0.013130
home,0.004944
hotel,0.025010
household,0.006887
howev,0.011240
httpswwwciagovlibrarypublicationstheworldfactbookindexhtml,0.010737
httpwwwstategovrpaeibgnindexhtm,0.011319
hydro,0.010570
hydrocarbon,0.008957
ice,0.007552
ilo,0.009134
import,0.050204
impos,0.005954
improv,0.004260
inbound,0.025424
includ,0.012018
incom,0.010607
inconvert,0.015620
incorpor,0.009509
increas,0.029967
indebted,0.011540
independ,0.003556
index,0.011001
indic,0.012778
industri,0.075092
inflat,0.039125
inflict,0.009425
influenc,0.007627
inform,0.003442
inherit,0.006420
initi,0.003762
inog,0.014405
input,0.018819
insignific,0.010018
instanc,0.004689
institut,0.003664
instruct,0.006518
instrument,0.010663
integr,0.004178
intens,0.005750
interbank,0.011858
interenterpris,0.015620
interf,0.009864
intergovern,0.016529
intern,0.015171
interven,0.007440
introduc,0.020308
invest,0.019719
iron,0.006201
irrespect,0.020117
isol,0.005621
issu,0.014862
itc,0.010305
jan,0.007609
januari,0.024707
jobseek,0.014052
joint,0.006096
juli,0.025006
june,0.010089
key,0.013218
kind,0.004612
kingdom,0.004605
km,0.006516
known,0.002893
labour,0.023443
lack,0.004414
land,0.030669
larg,0.012203
latent,0.009699
later,0.006885
launch,0.005830
law,0.034873
lead,0.010361
led,0.003736
left,0.004614
legal,0.004776
level,0.010384
liber,0.010438
licens,0.006893
light,0.004772
like,0.015460
limit,0.007070
link,0.002517
list,0.009656
lithuania,0.009864
littl,0.004430
live,0.003742
livestock,0.024512
loan,0.020148
local,0.015682
locat,0.004256
longterm,0.006091
low,0.004436
lower,0.012831
lowest,0.006885
lowqual,0.013130
lukashenko,0.072026
lumber,0.011006
m,0.016559
machin,0.022356
machineri,0.021415
main,0.018322
mainli,0.019221
maintain,0.004036
mainten,0.006944
major,0.003070
make,0.005887
man,0.005121
manag,0.020728
mandatori,0.017793
mani,0.015697
manufactur,0.016560
map,0.005295
mar,0.007921
march,0.024000
market,0.103989
marshi,0.014163
mass,0.004746
massiv,0.006159
materi,0.028393
maximum,0.006294
maz,0.015005
md,0.034272
mean,0.006375
measur,0.003791
mechan,0.008549
media,0.005309
medic,0.005330
medicin,0.005518
member,0.003693
mercuri,0.008524
metal,0.024098
metalcut,0.016529
metallurgi,0.009425
method,0.007169
mi,0.007298
mid,0.005764
militari,0.023413
milk,0.008549
million,0.004546
miner,0.025633
minist,0.010445
ministeri,0.009643
ministri,0.006223
minsk,0.093392
mir,0.011267
moaz,0.017517
mold,0.009889
monetari,0.043436
monopoli,0.022248
month,0.015342
monthli,0.007889
moreov,0.006640
mostli,0.009877
motor,0.007465
motorcycl,0.012414
movement,0.003991
mover,0.011724
multipl,0.004452
municip,0.007053
mzkt,0.017517
n,0.005198
nation,0.032073
natur,0.027811
nbb,0.107751
nearli,0.005041
need,0.003479
neg,0.005019
neglig,0.008612
neman,0.015620
nesvizh,0.016529
net,0.006084
netherland,0.006745
network,0.004839
new,0.010342
newli,0.006089
nickel,0.009284
nomin,0.006041
nondiscrimin,0.014052
nonferr,0.013664
north,0.009191
note,0.010011
nov,0.010984
novemb,0.025958
novopolotsk,0.017517
nruptn,0.017517
nuclear,0.035487
number,0.020269
numer,0.004288
oat,0.022434
oblast,0.035174
oblig,0.006392
obligatori,0.021713
odu,0.015393
offici,0.039550
oil,0.115547
old,0.004789
onli,0.013322
onlin,0.005066
oper,0.029212
opinion,0.006152
oppos,0.004837
order,0.009569
ore,0.024878
organ,0.009471
organis,0.005480
orient,0.006031
outlin,0.005634
outpac,0.011692
output,0.030207
outstand,0.007916
overal,0.010595
overcom,0.007108
overproduct,0.012077
ownership,0.020392
paper,0.004776
parasit,0.008568
parent,0.006518
parliament,0.011675
partial,0.010649
particip,0.004566
particular,0.007246
partli,0.006223
partner,0.018983
partnership,0.021856
pass,0.008993
past,0.004591
pastureland,0.013849
path,0.005868
pay,0.021615
payment,0.018716
peak,0.006351
peat,0.011757
peg,0.009914
peopl,0.015956
percent,0.209283
percentag,0.019350
perform,0.008138
period,0.010317
perman,0.005609
permiss,0.008046
permit,0.005895
person,0.007575
petroleum,0.007440
phosphorit,0.032354
pig,0.025896
pipelin,0.085190
place,0.006546
plan,0.017534
plant,0.015076
plot,0.014188
plu,0.006512
point,0.006715
poland,0.015815
polici,0.029984
pool,0.007579
popul,0.016473
popular,0.012423
posit,0.003430
possibl,0.003385
potash,0.012281
potassium,0.009203
potato,0.044082
power,0.037363
practic,0.007102
preferenti,0.036884
prepar,0.005383
prepared,0.012116
prescrib,0.008105
presid,0.038400
presidenti,0.020362
prevent,0.009490
price,0.073705
primarili,0.018148
principl,0.011953
priorbank,0.017517
pripyat,0.016529
privat,0.052351
privatis,0.031300
pro,0.009643
procedur,0.005780
process,0.009413
produc,0.020721
product,0.096862
profit,0.011469
profound,0.007571
program,0.004175
programm,0.006379
project,0.004107
promstroibank,0.017517
proper,0.005954
properti,0.004018
prospect,0.014106
provid,0.008834
provis,0.012929
public,0.013370
pulp,0.010500
punish,0.007301
purpos,0.008634
quarter,0.013807
quasifisc,0.016961
queue,0.011028
radioact,0.016290
radioelectron,0.017517
radziwil,0.017517
rais,0.009791
rate,0.139851
ratio,0.005986
raw,0.020600
reach,0.029945
real,0.008738
realiz,0.005885
reason,0.018890
receipt,0.018153
receiv,0.004021
recent,0.003645
reclam,0.011482
recoveri,0.007007
recreat,0.008130
reduc,0.003987
reduct,0.012113
refer,0.002105
refin,0.019810
refinanc,0.025115
refineri,0.009757
reflect,0.004523
refractori,0.012368
regard,0.008077
region,0.026387
regist,0.006527
registr,0.008196
regul,0.044851
rehabilit,0.009076
rel,0.007548
relat,0.005676
releas,0.005260
relev,0.005505
reliabl,0.012588
remain,0.003481
repair,0.007494
repres,0.003453
republ,0.044465
republican,0.007519
requir,0.013255
research,0.003415
reserv,0.039189
resettl,0.010018
resid,0.005576
residenti,0.009060
resolut,0.012879
resort,0.015623
resourc,0.025569
resourceintens,0.014538
rest,0.004931
restor,0.005953
restrict,0.014636
restructur,0.008314
result,0.023457
retain,0.011071
reveal,0.005537
rich,0.006036
right,0.003777
rise,0.004235
risi,0.017517
river,0.005755
rock,0.013184
rose,0.006387
rubl,0.106112
rule,0.003842
rumor,0.010400
run,0.004626
rup,0.015620
rupoblenergo,0.052551
russia,0.068053
russiabelaru,0.016529
russian,0.018488
russianbelarusian,0.017517
rye,0.011399
s,0.002985
safeti,0.006785
salari,0.023358
sale,0.024529
salt,0.014424
sanatorium,0.027698
sand,0.026074
save,0.011955
second,0.013819
sector,0.115895
secur,0.004472
seek,0.009447
select,0.004577
selffinanc,0.014052
selfsuffici,0.008845
sell,0.023819
septemb,0.005076
seri,0.004193
seriou,0.005897
serv,0.008380
servic,0.008202
session,0.048052
set,0.013043
seven,0.005524
sever,0.015270
shale,0.023199
share,0.024612
sharp,0.021344
shift,0.005101
shock,0.007196
shortag,0.015288
shortli,0.006551
sign,0.004823
signific,0.011219
significantli,0.005402
sinc,0.023436
singl,0.003920
situat,0.009021
size,0.009124
skill,0.005643
slim,0.011426
slovakia,0.010086
small,0.014339
smaller,0.004981
smooth,0.007769
socal,0.011822
social,0.007453
societi,0.003670
soil,0.013276
sold,0.006186
sometim,0.003813
sosnov,0.017517
sourc,0.007370
south,0.009175
southern,0.005437
southwest,0.008222
soviet,0.088838
sp,0.008980
special,0.014656
spend,0.006081
spite,0.016880
spread,0.005178
sq,0.008746
stabil,0.005463
stake,0.008911
standard,0.007891
start,0.022250
state,0.048704
stateofn,0.017517
stateown,0.060379
statist,0.014419
steadi,0.007508
stimul,0.019668
stock,0.011304
stop,0.005787
strategi,0.010914
strictli,0.006909
strong,0.004256
strongli,0.011293
structur,0.003422
struggl,0.006141
student,0.004986
subject,0.007453
submit,0.007337
subsid,0.017383
subsidi,0.008160
subsidiari,0.008859
subsidis,0.011372
subsist,0.008066
substanti,0.005438
sugar,0.014277
sugarbeet,0.016177
suit,0.006810
suppli,0.014328
support,0.017416
surrend,0.008071
surviv,0.005052
sustain,0.005730
sweden,0.007318
taken,0.008579
target,0.005454
tariff,0.032187
tax,0.005505
technic,0.005210
technolog,0.004223
temperatezon,0.016529
tendenc,0.006578
tension,0.006654
territori,0.020511
textil,0.015842
themselv,0.004345
therefor,0.007963
thi,0.035060
throughput,0.010984
tighten,0.009768
till,0.008845
time,0.012960
titanium,0.010483
tonn,0.009688
tool,0.009382
topic,0.004648
total,0.008175
tourism,0.054522
tourist,0.031229
tractor,0.046161
trade,0.021190
tradit,0.014756
transact,0.012616
transit,0.005100
transmiss,0.007237
transpar,0.007497
transport,0.030134
travel,0.015519
tri,0.004611
trigger,0.014253
truck,0.028998
trunk,0.010500
turkey,0.007640
twh,0.053074
type,0.003522
ukrain,0.026259
undevelop,0.010756
unemploy,0.068616
unfavor,0.010384
unifi,0.006132
uninhabit,0.009256
union,0.047887
unison,0.012368
unit,0.014774
unitari,0.018389
univers,0.003034
unsold,0.027698
usa,0.013081
use,0.014362
ussr,0.008463
valley,0.006775
valu,0.003754
valuabl,0.006877
valuead,0.010815
vanadium,0.012001
variou,0.003335
veget,0.013987
vehicl,0.013303
veri,0.003345
vertic,0.007579
villag,0.006694
visit,0.005885
visitor,0.024040
vitebsk,0.014836
vneshekonombank,0.017517
volum,0.005018
wa,0.069661
wage,0.032187
wait,0.007943
water,0.004519
way,0.006264
weak,0.011638
weapon,0.013011
weather,0.007184
websit,0.011079
welldevelop,0.009745
west,0.005030
wheat,0.016662
wide,0.003773
widespread,0.005628
wild,0.007515
wood,0.006760
work,0.011488
world,0.059403
worth,0.006633
year,0.017739
yearli,0.008684
zao,0.015878
