abil,0.003806
abnorm,0.006886
aborigin,0.008302
abov,0.003542
abund,0.005611
accept,0.006947
access,0.007656
accommod,0.006425
accord,0.033202
account,0.035847
achiev,0.003480
action,0.003399
activ,0.008282
adjust,0.005296
administr,0.011606
adopt,0.011455
adult,0.005416
advanc,0.003417
advancedworld,0.014093
advers,0.006480
africa,0.004493
age,0.003465
agreedupon,0.009853
agreement,0.118257
agricultur,0.049351
air,0.004250
aircraft,0.006145
alberta,0.061079
alleg,0.005721
allow,0.002751
alltim,0.009300
alreadi,0.004030
aluminium,0.007753
ambassador,0.006789
amen,0.007792
america,0.011633
american,0.028214
amountevid,0.014093
analys,0.005409
andean,0.008970
announc,0.023232
annual,0.017001
anoth,0.007983
appear,0.003204
appli,0.002957
approv,0.004753
approxim,0.011312
april,0.012699
arabia,0.006768
area,0.010992
argu,0.014723
art,0.004233
articl,0.003288
asia,0.009501
aspect,0.003636
assess,0.004712
asset,0.005115
assist,0.004125
associ,0.005405
athabasca,0.012200
atla,0.006487
atlant,0.011726
attempt,0.003156
attract,0.008904
aug,0.018642
august,0.008409
auto,0.008416
automobil,0.020796
automot,0.007933
averag,0.008265
aviat,0.007279
await,0.008259
balanc,0.004379
bank,0.084029
barrick,0.012621
barrier,0.005629
base,0.012054
bay,0.006248
becaus,0.005023
becom,0.002670
befor,0.002849
belowbas,0.014093
best,0.003677
bibliographi,0.004852
big,0.005051
bigbox,0.012980
bilater,0.038074
billion,0.037911
billionth,0.010910
bloc,0.006694
block,0.004970
blue,0.005946
bombardi,0.011866
bond,0.004765
boost,0.006541
border,0.009829
borderst,0.014093
borrow,0.005537
boundari,0.009315
box,0.006254
branch,0.010644
brian,0.006824
bridg,0.005512
british,0.014900
broad,0.004481
budget,0.005222
burden,0.006368
burgeon,0.008347
busi,0.015044
buy,0.005277
c,0.003193
cad,0.009321
came,0.003653
cameco,0.014093
canada,0.674827
canadacentr,0.014093
canadachil,0.013442
canadacolombia,0.014093
canadacosta,0.013442
canadaeuropean,0.013442
canadaisrael,0.013442
canadajordan,0.014093
canadapanama,0.014093
canadaperu,0.014093
canadasouth,0.013194
canadau,0.013442
canadaukrain,0.014093
canadaunit,0.011970
canadian,0.260901
capac,0.004631
capit,0.007268
capita,0.006064
card,0.006348
care,0.016791
caribbean,0.012750
caricom,0.008938
carney,0.011677
casino,0.009091
cdn,0.025243
cent,0.124780
centr,0.009189
central,0.025058
centuri,0.002869
chain,0.004992
chang,0.005038
charg,0.004312
chart,0.006365
cheap,0.006922
cheaper,0.007194
chemic,0.004254
china,0.008586
chines,0.004803
cia,0.026557
citi,0.003859
claim,0.003392
classifi,0.004520
climb,0.007562
clinton,0.007722
close,0.008970
cluster,0.006131
coastlin,0.006950
cod,0.009164
collaps,0.009845
collar,0.008922
colombia,0.022857
columbia,0.024861
combin,0.012746
come,0.003196
commerci,0.004281
commod,0.010848
common,0.005404
commonwealth,0.005772
commun,0.008766
compani,0.028230
compar,0.013221
comparison,0.009372
compendium,0.008392
competit,0.008789
compon,0.011546
comprehens,0.009845
compris,0.004571
concentr,0.013120
concern,0.009412
conclud,0.018283
condit,0.006254
confid,0.005717
confin,0.006000
connect,0.003679
consecut,0.007556
consid,0.002606
consist,0.005982
construct,0.003460
consult,0.005160
consum,0.022250
consumpt,0.010425
content,0.004409
continu,0.013539
contribut,0.029522
controversi,0.004404
converg,0.005887
cooper,0.012814
core,0.004746
cornerston,0.007848
corpor,0.013154
cost,0.011788
counter,0.006043
countri,0.044117
court,0.008478
cpi,0.019650
creat,0.008201
creation,0.004068
credit,0.017300
creditmarket,0.014093
crisi,0.023060
crop,0.005525
cross,0.009755
crow,0.008843
crown,0.011577
crude,0.007018
ctv,0.012790
cultur,0.006720
curb,0.008117
current,0.008583
custom,0.004519
cyclelow,0.014093
data,0.017834
databas,0.005228
day,0.003372
debt,0.191758
debtservic,0.012980
debttoincom,0.025960
decad,0.016250
decemb,0.028709
declin,0.042434
decreasedconsumpt,0.014093
deepli,0.006310
definit,0.003533
demarc,0.007808
democraci,0.004978
depend,0.002948
deplet,0.013949
design,0.003282
despit,0.003789
destin,0.006254
destruct,0.005289
deter,0.008187
develop,0.026822
devot,0.005282
diamond,0.006785
did,0.006635
differ,0.004738
difficult,0.003898
direct,0.011871
directli,0.014364
disast,0.006174
discoveri,0.004185
dispos,0.013224
disput,0.017982
distinct,0.003442
distinguish,0.003967
divis,0.003873
dollar,0.026111
domain,0.004365
domest,0.037046
domin,0.003677
dominican,0.008041
doubledigit,0.010752
drag,0.015475
dramat,0.010094
drive,0.004802
driver,0.006850
drop,0.004905
dure,0.007718
earli,0.008073
eas,0.012389
easi,0.005464
eastern,0.017864
econom,0.067727
economi,0.110242
economist,0.010103
educ,0.010283
effect,0.010456
el,0.006470
electr,0.008898
element,0.003422
embrac,0.006070
employ,0.032122
enabl,0.004267
encana,0.014093
end,0.008825
energi,0.064036
enforc,0.010089
england,0.004669
ensur,0.004420
enter,0.043270
enterpris,0.020259
entertain,0.019848
entiti,0.004565
environment,0.008651
equal,0.003664
equip,0.009621
escal,0.006969
escap,0.005402
especi,0.012498
establish,0.005743
estat,0.022911
estim,0.003786
euroarea,0.012621
european,0.006702
eventu,0.003824
exampl,0.004819
exchang,0.003803
execut,0.004076
exempt,0.006993
exist,0.002675
expans,0.009080
experienc,0.004830
explain,0.007244
exploit,0.010017
explor,0.004099
export,0.123402
extend,0.003549
extens,0.003633
extern,0.002104
extract,0.010359
facil,0.005157
factbook,0.020230
factor,0.010235
factori,0.005887
fail,0.004045
fairli,0.006094
far,0.010945
faster,0.005613
fastestgrow,0.009639
fdi,0.018328
fear,0.005048
februari,0.008743
feder,0.021420
fell,0.010393
fellow,0.006083
fewer,0.011412
field,0.005876
fifthlargest,0.011025
film,0.005457
financ,0.012791
financi,0.049937
firm,0.014417
fiscal,0.006100
fish,0.015060
fisheri,0.029256
flexibl,0.005957
flood,0.012704
flow,0.004237
focu,0.003947
focus,0.003745
follow,0.011508
food,0.012423
forb,0.007784
forc,0.043259
forecast,0.012678
foreign,0.026219
forest,0.005533
forestri,0.022427
form,0.002199
forum,0.005909
foster,0.006151
fragil,0.007714
franc,0.004119
fraser,0.008858
free,0.082163
freedom,0.004542
friendli,0.006627
fta,0.052597
ftaa,0.011429
fuel,0.005332
fund,0.015868
fundament,0.003684
futur,0.003504
g,0.007784
ga,0.024204
gain,0.010501
game,0.004937
gdp,0.119050
gdpoecd,0.014093
gener,0.008270
global,0.022926
globe,0.006552
gold,0.010006
goldcorp,0.013735
good,0.003198
govern,0.049250
governor,0.010562
grain,0.006251
great,0.003242
greater,0.003624
greatli,0.014135
green,0.004948
grid,0.007284
gross,0.050631
group,0.002595
grow,0.018447
growth,0.069197
guatemala,0.008697
gulf,0.006508
ha,0.065231
half,0.007921
hard,0.004722
harper,0.007411
health,0.024067
heart,0.005281
heartland,0.009038
held,0.003401
hemispher,0.006552
high,0.020394
higher,0.003420
highest,0.008812
highli,0.003787
highlight,0.005924
highrisk,0.009495
hire,0.006282
histor,0.006464
histori,0.002396
hit,0.011914
home,0.004108
hous,0.007719
household,0.114471
housingrel,0.014093
howev,0.009340
howlett,0.012621
httpswwwciagovlibrarypublicationstheworldfactbookindexhtml,0.008922
human,0.002772
hunt,0.005806
hurt,0.007542
hydroelectr,0.008336
hydropow,0.009690
iceland,0.007399
ii,0.003765
illeg,0.005797
imf,0.025204
impact,0.007886
implement,0.004005
import,0.053987
improv,0.007081
incid,0.005693
includ,0.013981
incom,0.017628
incorpor,0.003951
increas,0.033202
increasingli,0.008483
index,0.013712
india,0.004405
indic,0.017697
industri,0.121513
inequ,0.006053
inexpens,0.007816
inflat,0.065023
inflationari,0.008249
inflationcontrol,0.014093
inflationreduct,0.014093
inflationtarget,0.077881
influenc,0.009507
inform,0.002860
inher,0.005513
injuri,0.006378
innov,0.024919
instabl,0.006221
instanc,0.003896
instead,0.003370
institut,0.015223
instrument,0.004430
insur,0.016641
integr,0.006944
intermedi,0.005654
intern,0.020170
interplay,0.007959
interpret,0.007677
intervent,0.005220
intragovernment,0.012468
invest,0.036869
investor,0.021926
involv,0.005578
ipso,0.021934
irrit,0.008615
island,0.004264
issu,0.024699
itc,0.008563
jan,0.018969
januari,0.004106
japan,0.009516
japanes,0.005483
job,0.019874
john,0.003272
jul,0.020631
juli,0.024935
june,0.012575
just,0.006709
justic,0.004862
kept,0.015552
key,0.014645
known,0.002403
korea,0.005806
krugman,0.018008
labour,0.019480
labrador,0.019824
lake,0.005673
land,0.003640
larg,0.020281
largest,0.087408
late,0.003330
later,0.002860
latin,0.009042
laura,0.008843
lawrenc,0.006435
lead,0.008610
leader,0.008412
leas,0.007261
led,0.009313
lend,0.006179
level,0.014382
liabil,0.013520
liber,0.004336
liechtenstein,0.009362
like,0.002569
linamar,0.014093
link,0.008366
list,0.018723
littl,0.003681
live,0.006220
load,0.006600
loan,0.011161
local,0.003257
log,0.020218
long,0.003123
longer,0.003967
longstand,0.006950
longterm,0.010123
loss,0.004207
lost,0.008360
low,0.025805
lower,0.010662
lowest,0.005721
lumber,0.009145
machineri,0.011863
magazin,0.005568
magna,0.009202
mail,0.007535
main,0.006090
mainli,0.015972
major,0.022966
make,0.014675
maker,0.006635
mall,0.009145
manag,0.006889
mandat,0.005993
mani,0.021740
manitoba,0.020556
manufactur,0.096326
map,0.004400
march,0.023932
mark,0.003861
market,0.061207
marketori,0.009362
massiv,0.005118
materi,0.003370
mean,0.005297
meaning,0.006251
measur,0.037804
media,0.004411
median,0.007488
member,0.009206
mexico,0.006000
mfp,0.098630
michael,0.004426
michigan,0.013883
mid,0.004789
midjanuari,0.011429
midpoint,0.010068
migrat,0.005139
million,0.011333
minist,0.013019
model,0.002996
modern,0.005770
monetari,0.030937
money,0.021492
montreal,0.008629
moreov,0.005517
morocco,0.007611
mortgag,0.028416
mulroney,0.011769
multifacet,0.009341
multifactor,0.042621
nafta,0.050178
narrow,0.005431
nation,0.047973
nativ,0.004971
natur,0.025677
nd,0.004475
nearbi,0.005919
nearli,0.008378
need,0.002891
neg,0.004170
negoti,0.020138
neighbour,0.017626
net,0.045504
netherland,0.005605
new,0.004296
newfoundland,0.008954
news,0.005249
newsprint,0.011429
nicaragua,0.008629
nickel,0.015429
nomin,0.005020
nonfinanci,0.010205
nonmortgag,0.013442
north,0.015276
northern,0.013489
norway,0.006760
notabl,0.003690
note,0.002773
nov,0.018254
novemb,0.004314
nuclear,0.004914
number,0.009624
occasion,0.005425
ocean,0.004949
oct,0.017844
octob,0.008318
oecd,0.092556
offic,0.003871
offset,0.006993
oil,0.086413
onequart,0.009109
ongo,0.021052
onli,0.006642
onlin,0.004209
ontario,0.063261
oper,0.006068
oppos,0.004019
order,0.002650
organ,0.007870
organis,0.013661
ourselv,0.007768
outlook,0.020686
output,0.010040
outstand,0.006578
overal,0.004402
overh,0.010205
overnight,0.008381
oversea,0.011473
overutil,0.012790
overview,0.009638
overwhelm,0.006449
owe,0.017561
pace,0.019473
pacif,0.016724
paid,0.004904
pain,0.006092
panick,0.010752
paper,0.007937
paramount,0.008069
parliamentari,0.005508
particularli,0.010119
partner,0.010516
partnership,0.012107
patent,0.006418
path,0.004876
pattern,0.012311
paul,0.004180
pay,0.004490
peak,0.010555
peopl,0.002651
percent,0.053137
percentag,0.026799
perform,0.006762
period,0.005715
person,0.006294
peru,0.007590
petroleum,0.030914
phenomenon,0.004953
philip,0.005912
plan,0.003642
plant,0.012527
play,0.003472
plu,0.005411
plummet,0.008768
point,0.002790
polici,0.028475
polit,0.009056
poll,0.006694
poor,0.004755
popul,0.013688
popular,0.003441
port,0.005435
portion,0.009666
posit,0.005701
possibl,0.002813
potenti,0.003570
power,0.008467
ppp,0.007924
predict,0.004035
present,0.008273
pressur,0.004151
price,0.044914
primari,0.018203
primarili,0.003770
prime,0.008862
prior,0.008331
privat,0.011864
problem,0.005899
procur,0.007619
produc,0.014348
product,0.083363
profession,0.004469
profit,0.004765
project,0.003412
promin,0.004325
promis,0.005182
properti,0.003339
proport,0.009120
protect,0.003675
prove,0.004256
provid,0.017129
provinc,0.005098
provinci,0.006670
public,0.024999
publicli,0.005902
publish,0.006122
pulp,0.017451
quandl,0.011215
quantit,0.005124
quantiti,0.004492
quarri,0.009427
quarter,0.063105
quarterli,0.006743
quebec,0.032392
question,0.006927
quicken,0.009853
quickli,0.008978
rais,0.024408
ramesh,0.011970
rang,0.003310
rank,0.009313
rapid,0.004779
rapidli,0.004649
rate,0.047851
ratif,0.017258
ratio,0.019896
rbc,0.021217
rbcthe,0.014093
rd,0.004938
reach,0.021329
read,0.003038
real,0.029044
rebound,0.008281
receiv,0.003341
recent,0.021202
recess,0.006260
record,0.011061
recoveri,0.005823
recreat,0.006755
redress,0.009518
reduc,0.013255
refer,0.001749
referr,0.009183
reflect,0.003759
regim,0.005097
region,0.018794
reid,0.008656
rel,0.021954
relat,0.002358
relationship,0.006677
releas,0.008743
reliabl,0.005230
relianc,0.007013
relief,0.006236
remain,0.002892
remaind,0.006491
remedi,0.006918
renew,0.005115
rental,0.008669
report,0.033619
reportin,0.013735
republ,0.008210
requir,0.002753
research,0.005675
resembl,0.005517
reserv,0.009304
residu,0.006751
resolut,0.005351
resolv,0.015242
resourc,0.042494
resourceproduc,0.014093
respons,0.006067
result,0.007309
retail,0.025305
return,0.003540
rica,0.008798
rich,0.005016
right,0.003138
rise,0.007039
risk,0.012911
role,0.006128
rose,0.021232
royal,0.004615
rule,0.009579
s,0.009923
sale,0.010191
salmon,0.026530
salvador,0.008060
sand,0.007222
saskatchewan,0.051579
saudi,0.007130
scientif,0.003519
sea,0.004463
seafood,0.009565
seaway,0.011866
second,0.011483
secondari,0.004981
secondlargest,0.008347
section,0.004334
sector,0.059616
sell,0.004948
serv,0.003481
servic,0.068161
set,0.005419
settl,0.004971
seven,0.004590
sever,0.015227
share,0.010225
shift,0.004239
ship,0.004963
shock,0.005980
shop,0.006526
shown,0.004218
sign,0.036073
signific,0.009322
similar,0.005813
similarli,0.004612
sinc,0.019474
singapor,0.006415
situat,0.003748
sixth,0.006463
sizabl,0.008197
slightli,0.005276
slowdown,0.008754
small,0.002978
smaller,0.004139
smelt,0.009038
smoothli,0.008906
social,0.015484
societi,0.003050
softwar,0.005157
softwood,0.012790
sold,0.005140
sourc,0.012248
southeast,0.005959
southern,0.004518
specif,0.002912
spend,0.005053
spent,0.005380
st,0.003924
stabl,0.009581
stagger,0.009260
standard,0.013115
state,0.068162
statement,0.004469
statist,0.023963
stephen,0.005407
stimul,0.005447
stock,0.018786
stood,0.006548
store,0.009864
strength,0.004937
strong,0.007074
structur,0.002844
studi,0.002572
submit,0.006097
subnat,0.009472
subpar,0.012468
subsid,0.007222
subsidi,0.020343
suburb,0.008451
suffer,0.008886
summari,0.005858
supersed,0.014066
superstor,0.013442
supplier,0.020564
support,0.014472
survey,0.009358
sustain,0.019046
switzerland,0.006239
tabl,0.004685
target,0.031729
tariff,0.013373
tax,0.004575
taxat,0.005985
tech,0.008270
technic,0.012988
technolog,0.003509
televis,0.005487
territori,0.012783
tfp,0.011590
th,0.016748
thenbank,0.014093
thenfin,0.014093
thi,0.032775
thlargest,0.010803
threemonth,0.010354
thu,0.002845
tighter,0.008970
timber,0.007290
time,0.008615
today,0.006994
togeth,0.003356
toronto,0.007562
total,0.037363
tourism,0.022653
town,0.004999
trade,0.186645
traffic,0.006432
transit,0.008476
transpacif,0.021127
transport,0.012520
treati,0.005083
trend,0.009299
tri,0.003831
trillion,0.033927
turn,0.003365
twice,0.005802
twothird,0.006670
twoway,0.009164
typic,0.003265
uk,0.004462
unconvent,0.009004
underli,0.009246
undevelop,0.008938
unemploy,0.022807
unexpectedli,0.008783
unfairli,0.010101
union,0.003617
uniqu,0.004150
unit,0.071207
unsustain,0.008060
unusu,0.005902
updat,0.005897
uranium,0.007604
urban,0.005106
uscanada,0.050486
use,0.011935
usg,0.009495
usual,0.002929
util,0.004404
valu,0.015600
vancouv,0.009202
vari,0.007177
vast,0.024442
vehicl,0.005527
venezuela,0.007469
visit,0.004891
visitor,0.006658
visual,0.005136
voisey,0.014093
volatil,0.006477
volum,0.012510
vulner,0.006191
wa,0.055889
wage,0.005349
walmart,0.009882
war,0.006916
wareh,0.010476
wast,0.005839
way,0.002602
weak,0.004835
weaken,0.006097
wealth,0.005013
wealthi,0.006352
wealthiest,0.008525
websit,0.004603
week,0.005116
weekli,0.007222
weight,0.004906
welfar,0.005607
went,0.008930
western,0.021971
wheat,0.006922
wholesal,0.015153
wilson,0.006081
woe,0.010315
worker,0.004531
world,0.061702
worldwid,0.004938
worth,0.016536
wto,0.015324
year,0.024568
yearoveryear,0.012200
yield,0.004755
