abattoir,0.035726
abil,0.003716
accept,0.006781
accommod,0.025087
account,0.003181
accredit,0.013682
achiev,0.003397
act,0.006173
activ,0.010780
addit,0.005464
affect,0.003529
african,0.004733
afrino,0.014208
agreement,0.016490
agricultur,0.020072
aim,0.003856
air,0.008298
aircraft,0.005998
airlin,0.006874
allow,0.008057
alter,0.004844
american,0.003060
analysi,0.003255
ani,0.011901
anim,0.003780
anniversari,0.007162
announc,0.009071
annual,0.008298
annum,0.016979
anoth,0.007793
antarct,0.040850
antarctica,0.008052
apart,0.009899
appear,0.003128
applic,0.003225
apprais,0.024314
approv,0.004639
approxim,0.007361
area,0.024142
argentin,0.067595
argentina,0.067000
argentinu,0.014208
arm,0.004306
arrang,0.008806
arriv,0.004347
assent,0.008503
associ,0.005276
atlant,0.034340
attent,0.004404
attract,0.008691
attribut,0.004198
august,0.004104
austral,0.010650
australian,0.005617
author,0.003041
authoris,0.008011
autumn,0.007186
averag,0.008068
b,0.003577
ban,0.016325
bank,0.042964
banknot,0.016430
barrel,0.022658
base,0.007060
basi,0.003364
basin,0.051341
batteri,0.007316
battlefield,0.015243
bay,0.012198
bbc,0.006144
becam,0.005953
becom,0.010428
bed,0.014067
befor,0.002781
began,0.009755
begin,0.003175
begun,0.005178
behalf,0.030035
better,0.003672
bhp,0.011792
billion,0.009251
billiton,0.012320
biomass,0.016453
blue,0.005804
board,0.004698
boat,0.012984
boom,0.006178
border,0.004797
borehol,0.010311
born,0.004600
boundari,0.004546
boxan,0.013121
branch,0.003463
brazil,0.005819
breed,0.019592
brent,0.009563
britain,0.004587
british,0.036362
bueno,0.008647
built,0.008119
burdwood,0.053630
bureau,0.012319
burwood,0.013121
busi,0.011013
came,0.007132
capabl,0.004295
cape,0.006850
capita,0.011839
carcass,0.009675
carnarvon,0.012670
carri,0.003516
case,0.005454
catch,0.032832
categoris,0.008238
cattl,0.012777
ccamlr,0.023817
cemeteri,0.008001
center,0.003478
centimetr,0.018582
centr,0.004484
central,0.006115
centuri,0.008402
certain,0.008956
channel,0.005384
characterist,0.007519
charg,0.012627
charter,0.011735
chile,0.014110
claim,0.003311
class,0.018089
climat,0.004657
close,0.002918
closur,0.007044
cluster,0.017954
coarser,0.010496
coat,0.006461
cod,0.026836
coelorhynchu,0.014208
coin,0.036136
cold,0.010399
collaps,0.004805
collector,0.030942
coloni,0.004510
column,0.006197
combin,0.003110
come,0.003119
command,0.004576
commemor,0.029214
commenc,0.013197
commerci,0.020896
commiss,0.008685
commit,0.004572
commun,0.005704
compani,0.031001
compar,0.003226
concentr,0.012807
concern,0.003062
condit,0.006104
confid,0.005580
confin,0.005857
conflict,0.004063
confluenc,0.009160
conjunct,0.006096
conserv,0.021652
consortium,0.007637
constitut,0.006889
construct,0.003378
consumpt,0.010176
contain,0.003129
contigu,0.008181
continent,0.023239
continu,0.007930
contribut,0.009606
contributor,0.006381
convent,0.012673
cooper,0.008339
coordin,0.009249
corpor,0.017121
correspond,0.003960
corriedal,0.013407
cost,0.007671
cottag,0.009734
countri,0.005741
cousin,0.007174
cover,0.007183
cow,0.015046
cross,0.009523
crude,0.006850
cruis,0.054091
curl,0.009291
currenc,0.009561
current,0.013964
d,0.007063
darwin,0.012210
date,0.003646
day,0.009876
debt,0.005058
decad,0.003965
decemb,0.004003
declar,0.021068
declin,0.008284
decreas,0.004296
deep,0.024283
del,0.006586
deliv,0.005142
depart,0.007650
depend,0.005757
deposit,0.005164
depot,0.008891
depth,0.011456
descend,0.005280
desir,0.008211
develop,0.013091
dictat,0.006239
did,0.006476
difficult,0.003805
diplomat,0.005183
director,0.005245
disappoint,0.007486
discov,0.007683
discoveri,0.008172
disput,0.008776
disrupt,0.005621
dive,0.007904
diversif,0.007247
diversifi,0.006606
doe,0.002951
dohn,0.014208
doubl,0.009660
doubt,0.005630
downhol,0.012879
drift,0.013452
drill,0.057828
drop,0.009576
dure,0.020090
duti,0.005191
earl,0.007942
earli,0.002627
east,0.040382
eastern,0.004359
eastwest,0.008531
econom,0.020120
economi,0.025109
ecosystem,0.011914
educ,0.003346
eez,0.021194
effect,0.007654
effort,0.003637
eiriksson,0.014208
electr,0.013028
elsewher,0.005414
employ,0.003483
enabl,0.004165
encourag,0.004317
end,0.005743
energi,0.022061
enter,0.003839
entri,0.005080
environ,0.003481
envisag,0.008436
escarp,0.033042
est,0.021891
establish,0.011212
estim,0.014784
eu,0.005718
evalu,0.004551
exchang,0.014851
exclus,0.004487
expans,0.004431
expect,0.025261
expedit,0.005941
expenditur,0.005807
experi,0.003229
exploit,0.029336
explor,0.032015
exploratori,0.023945
export,0.009636
extend,0.006928
extern,0.002053
face,0.007884
facil,0.010069
factori,0.005746
falkland,0.763512
falklandsinfo,0.012879
far,0.007122
fare,0.008104
farm,0.036682
farmer,0.005559
farmland,0.008397
featur,0.003552
februari,0.008534
februarymay,0.013407
fee,0.006147
feed,0.018088
fell,0.005072
ferri,0.008001
fic,0.013121
ficz,0.113669
field,0.005736
fifd,0.014208
fig,0.017205
figur,0.011669
fin,0.025114
financ,0.004161
financi,0.003749
fine,0.005615
finfish,0.022976
finship,0.014208
fish,0.166615
fisheri,0.071396
fiveyear,0.006396
fleet,0.018946
fli,0.005862
flight,0.011508
float,0.006219
flock,0.017355
flourish,0.005780
flow,0.020681
focz,0.056834
foinaven,0.013121
follow,0.004493
forc,0.002815
forecast,0.006187
foreign,0.007312
form,0.015027
format,0.003830
forum,0.005768
fossil,0.006087
fourth,0.004900
fpso,0.039364
french,0.003779
ft,0.030692
fuego,0.010311
fuel,0.005204
fulli,0.004234
fund,0.003872
ga,0.018901
gahi,0.014208
gave,0.004086
gdp,0.026411
gener,0.006054
georgia,0.013426
given,0.002816
golf,0.008856
good,0.003122
govern,0.050745
governor,0.005155
gram,0.015698
grave,0.006846
great,0.003165
grenadi,0.011792
ground,0.024521
grow,0.003601
grown,0.005408
guardian,0.013879
ha,0.031837
half,0.003866
hamper,0.007444
hand,0.003480
handl,0.005107
harvest,0.043582
haven,0.007111
head,0.007251
health,0.003915
heavili,0.009055
hi,0.002518
hide,0.006648
high,0.005687
higher,0.003338
highest,0.004300
highli,0.003697
hire,0.006132
histor,0.003154
hoki,0.014208
hold,0.003382
holiday,0.006611
hope,0.004781
horn,0.007122
hors,0.006067
hospit,0.011076
hous,0.003767
howard,0.006515
howev,0.004558
hydrocarbon,0.007265
identifi,0.006790
illex,0.085252
immigr,0.005589
imped,0.007567
impetu,0.014494
import,0.002395
improv,0.010368
includ,0.019496
incom,0.008603
increas,0.021606
indic,0.010365
indigen,0.005599
industri,0.028851
inform,0.005584
initi,0.006103
inject,0.013869
inner,0.005645
insignific,0.008126
instal,0.016627
intern,0.002461
introduc,0.009883
invest,0.007997
investig,0.007871
involv,0.005445
island,0.349672
isobel,0.011908
issu,0.027124
japan,0.004644
japanes,0.010705
join,0.008355
joint,0.009890
june,0.004091
kilometr,0.006511
kin,0.008436
kingdom,0.018678
km,0.037000
known,0.002346
korea,0.011336
kw,0.009860
kwh,0.017147
la,0.009374
lamb,0.025388
lan,0.009618
land,0.010661
landbas,0.009360
larg,0.007423
larger,0.007412
largest,0.007756
late,0.006502
later,0.005585
latin,0.004413
law,0.002828
lay,0.005283
led,0.003030
leiv,0.014208
length,0.009317
level,0.008423
liber,0.004233
licenc,0.112588
licens,0.016773
lie,0.027602
life,0.003018
lift,0.006268
limit,0.002867
liner,0.009704
link,0.002041
lion,0.021930
littl,0.003593
live,0.003035
lllex,0.014208
local,0.009540
locat,0.017261
lodg,0.007971
loligo,0.026243
loloigo,0.014208
london,0.003953
longlin,0.011684
longterm,0.009882
lord,0.005557
low,0.003598
lower,0.003469
lowest,0.011169
luckiest,0.013407
m,0.010073
macrouru,0.014208
main,0.002972
mainten,0.005632
major,0.002490
make,0.002387
malvina,0.011488
manag,0.006725
mani,0.004244
mantl,0.015885
manufactur,0.004477
march,0.003893
marin,0.021499
market,0.003514
md,0.006949
mean,0.002585
meat,0.026061
meet,0.003798
member,0.002995
merino,0.023585
method,0.002907
methodolog,0.004969
metr,0.040070
mi,0.011839
mid,0.009350
middl,0.003871
migrat,0.005016
migratori,0.018536
militari,0.007596
million,0.051628
miner,0.005198
mini,0.009510
minist,0.008472
mint,0.007685
miss,0.005922
mix,0.004515
monday,0.008662
money,0.004195
monitor,0.005077
month,0.004148
moribund,0.012034
mouth,0.013314
mwh,0.012485
nation,0.005203
nauticalmil,0.047170
near,0.003860
nearextinct,0.024341
need,0.005644
net,0.004935
new,0.002097
normal,0.003742
north,0.018639
number,0.018790
numismat,0.010185
obtain,0.003649
occas,0.011679
occup,0.004892
ocean,0.014494
octob,0.004059
offer,0.003491
offic,0.007558
offload,0.010268
offset,0.006827
offshoot,0.008346
offshor,0.027384
oil,0.107782
oilfield,0.009926
onboard,0.009860
onc,0.003508
ongo,0.005137
onli,0.006483
onshor,0.009765
open,0.006428
oper,0.005923
opportun,0.004434
opposit,0.003863
outer,0.005998
outlet,0.007501
outsid,0.003581
oversea,0.011199
overview,0.004704
oz,0.017965
pacif,0.005441
packag,0.005952
parallel,0.004864
parti,0.003628
particular,0.005877
particularli,0.003292
passeng,0.013971
patagonian,0.085644
pattern,0.004005
pay,0.004383
payabl,0.008397
peak,0.005151
pebbl,0.009313
penguin,0.007060
peopl,0.005177
perimet,0.009268
period,0.011158
permiss,0.006526
permit,0.019127
personnel,0.005802
petroleum,0.018105
philat,0.012485
philatel,0.011156
philatelyrel,0.014208
pig,0.007001
pilgrim,0.008359
place,0.005310
plan,0.007111
plata,0.019592
plateau,0.022889
plu,0.005282
point,0.002723
pole,0.006503
polici,0.003474
polish,0.006343
polwarth,0.014208
popul,0.006680
port,0.026526
possibl,0.002746
post,0.004556
postal,0.014457
potenti,0.006971
pound,0.020246
power,0.002755
premier,0.006739
premium,0.006884
presenc,0.008142
prevent,0.003848
price,0.015942
prime,0.004325
princip,0.016822
process,0.005090
produc,0.008403
product,0.028059
profil,0.005812
programm,0.005174
progress,0.003669
propos,0.003321
protest,0.010006
provid,0.007166
provis,0.010487
publicli,0.005761
publish,0.002988
push,0.005119
qualiti,0.004011
quantiti,0.004385
quarri,0.009202
queen,0.005650
quot,0.005632
quota,0.007368
radiu,0.007122
rate,0.006672
reach,0.006939
rear,0.007637
receiv,0.003262
recommend,0.010066
recov,0.005255
redeem,0.008031
reduc,0.003234
reduct,0.004912
refer,0.001707
reflect,0.003669
refus,0.004982
regard,0.006551
region,0.003057
regist,0.005294
regular,0.004677
rel,0.003061
relat,0.004604
releas,0.004267
remain,0.002823
remot,0.005780
renam,0.005927
renew,0.009986
replic,0.006026
report,0.026253
repres,0.002800
requir,0.010751
resent,0.007362
reserv,0.009082
reservoir,0.007685
resid,0.004523
resolv,0.004959
resourc,0.010370
respect,0.003247
respons,0.005923
restrict,0.011872
result,0.016648
retail,0.012350
return,0.003455
revenu,0.039850
rich,0.004896
ridg,0.007479
rig,0.007971
right,0.003064
rise,0.003435
ro,0.016084
rock,0.021388
rockcod,0.014208
rockhopp,0.071453
rose,0.005181
roughli,0.004789
round,0.005408
rout,0.005140
routin,0.006129
row,0.006602
royalti,0.007787
run,0.003752
s,0.012108
safc,0.053630
sale,0.009948
saltier,0.012170
sand,0.007050
sandwich,0.008503
save,0.004848
sceneri,0.009893
scientif,0.003435
sea,0.034852
seabird,0.009704
seal,0.019209
sealion,0.012670
season,0.060695
second,0.008407
secondlargest,0.008148
secretari,0.011156
sector,0.013429
sedimentari,0.008503
seek,0.003831
select,0.007425
selfcat,0.011792
selfsuffici,0.014349
selfsupport,0.011014
sell,0.004830
semisubmers,0.013407
send,0.010679
sent,0.004732
separ,0.006238
septemb,0.012352
seri,0.003401
serv,0.006797
servic,0.026613
set,0.021159
settler,0.006425
setup,0.007991
seven,0.004480
sever,0.002477
shackleton,0.020802
shag,0.011792
shallow,0.007222
share,0.003327
sheep,0.055038
shelf,0.050005
shetland,0.010597
shill,0.009458
ship,0.033913
shown,0.004117
shuttl,0.008309
sign,0.019562
signific,0.009100
sinc,0.016633
singl,0.006360
site,0.008005
situat,0.003658
size,0.007401
slaughter,0.007886
slightli,0.005150
slump,0.008503
small,0.002907
smaller,0.004040
sold,0.005018
soldier,0.005407
sound,0.010006
sourc,0.011956
south,0.070705
southeast,0.011634
southern,0.017641
southward,0.007952
southwest,0.006669
sovereignti,0.005730
space,0.003663
spain,0.010099
spanish,0.005138
spark,0.006288
spawn,0.030302
speci,0.030592
special,0.005943
spectacular,0.008273
spend,0.004932
spp,0.019126
spread,0.004200
spring,0.005359
spur,0.020022
squar,0.005034
squid,0.079405
ssb,0.024640
stamp,0.021085
standard,0.003200
stanley,0.043810
state,0.006237
station,0.005191
statist,0.007797
step,0.004029
sterl,0.015790
stern,0.008115
stock,0.022922
stop,0.004694
storag,0.011309
store,0.004814
strong,0.003452
struck,0.027030
subdivis,0.006980
substanti,0.008822
success,0.003151
suffer,0.004337
summari,0.005718
suppli,0.015495
surplu,0.006252
surround,0.008703
suspend,0.005906
sustain,0.004648
tabl,0.009146
tac,0.011398
tackl,0.007316
tae,0.011792
taiwan,0.013374
taken,0.010438
tanker,0.009246
task,0.004408
tax,0.008931
taxat,0.005842
technolog,0.003426
temperatur,0.009607
term,0.004490
territori,0.004159
test,0.015539
th,0.010899
thereaft,0.006213
therebi,0.004918
thi,0.024883
thought,0.006735
threshold,0.006619
tierra,0.009860
time,0.002102
togeth,0.003276
told,0.006026
tonn,0.047150
toothfish,0.011488
total,0.009946
tour,0.006855
tourism,0.060809
tourist,0.050661
trade,0.010312
transfer,0.004066
transport,0.008147
travel,0.004195
trawl,0.010496
treati,0.019850
trip,0.006566
trough,0.037734
turbin,0.035291
twentyfirst,0.008073
type,0.005714
typic,0.006376
undersea,0.018448
unilater,0.007451
union,0.007062
unit,0.011984
univers,0.002461
unlik,0.007914
unlimit,0.014222
unrestrict,0.016979
updat,0.005756
use,0.017475
usual,0.005719
util,0.004299
valid,0.004537
valley,0.005495
valu,0.009137
variou,0.002705
vehicl,0.005395
vessel,0.028927
veteran,0.007234
viabil,0.008104
viabl,0.006538
vicin,0.015339
victoria,0.006985
view,0.003045
visit,0.033419
visitor,0.012999
volum,0.004070
wa,0.058452
wake,0.006339
war,0.013502
warm,0.006072
warn,0.005714
water,0.065980
way,0.002540
weather,0.005827
weekli,0.007050
weight,0.014368
welcom,0.006558
west,0.024481
westward,0.008159
whale,0.014805
whit,0.012879
wholesal,0.007395
wild,0.006096
wildlif,0.006771
wind,0.028229
windpow,0.013757
withdrew,0.013356
wool,0.046670
work,0.004659
workload,0.009536
world,0.002409
wreck,0.008489
x,0.004207
y,0.005060
year,0.023982
zone,0.039292
