abroad,0.012438
accept,0.007191
account,0.006746
acquir,0.009329
action,0.007038
activ,0.005715
activist,0.013664
actual,0.007330
adjust,0.010964
administr,0.008008
adopt,0.007904
advantag,0.008891
advers,0.013415
afobaka,0.030133
agre,0.008636
agreement,0.017486
agricultur,0.008513
aid,0.077337
aim,0.008179
alcoa,0.148680
allow,0.011392
alluvi,0.020339
alreadi,0.008344
altogeth,0.014199
alumina,0.085742
aluminium,0.064199
aluminum,0.018004
amazon,0.016387
america,0.008027
american,0.006489
analys,0.011198
andor,0.010023
ani,0.005048
anoth,0.005509
anymor,0.019339
apoera,0.030133
appli,0.012246
approach,0.006592
approv,0.009839
apr,0.019382
april,0.035051
area,0.022756
artifici,0.009672
assay,0.017919
assist,0.008540
associ,0.005595
attempt,0.006533
author,0.006449
avail,0.014003
award,0.010098
backbon,0.016300
bakhui,0.028434
ban,0.023081
banana,0.078068
bananen,0.030133
band,0.012455
bank,0.041417
bar,0.012947
barrel,0.048053
base,0.004991
basi,0.007134
basic,0.006948
bauxit,0.162716
becaus,0.015597
becom,0.005528
beef,0.016744
befor,0.005898
begin,0.013469
behoud,0.030133
belt,0.045171
benefit,0.008381
better,0.007788
bhp,0.025009
big,0.020915
billion,0.019620
billiton,0.052257
blackmarket,0.025811
borrow,0.011462
bouters,0.027315
broaden,0.014728
brokopondo,0.026479
build,0.007308
built,0.008610
bullion,0.019562
busi,0.007785
ca,0.025408
cambio,0.023660
came,0.007563
capac,0.009588
caricom,0.018503
caught,0.014246
caus,0.006174
cbv,0.050512
ceas,0.023369
cent,0.071753
central,0.025937
certif,0.026889
chemic,0.017616
chicken,0.016441
china,0.017774
civil,0.007935
clean,0.013541
close,0.012379
closer,0.011446
coconut,0.016948
coin,0.009579
collector,0.016405
commiss,0.018420
commun,0.006049
compani,0.058442
complet,0.006389
comprehens,0.010190
concern,0.012990
concess,0.014632
concessionair,0.026128
consequ,0.007867
consist,0.006192
construct,0.021493
consumpt,0.010791
contact,0.009708
contain,0.013274
continu,0.016817
control,0.012294
corantijn,0.030133
corpor,0.009077
cost,0.008134
costeffect,0.017727
costli,0.014418
count,0.010551
countri,0.036531
creat,0.005659
credit,0.053720
crisi,0.019095
cumul,0.014685
currenc,0.030416
current,0.005923
dam,0.031227
damag,0.009984
data,0.007383
date,0.007732
day,0.020945
dealt,0.013867
decis,0.007800
deficit,0.025684
democrat,0.009065
depend,0.006104
deplet,0.014438
deposit,0.010953
depreci,0.016533
destin,0.012947
deterior,0.013625
devalu,0.031515
develop,0.037017
did,0.006868
differ,0.004904
disburs,0.019426
distanc,0.009852
distinct,0.007125
district,0.011191
doesnt,0.013833
dollar,0.054054
door,0.014468
dsi,0.025522
dure,0.005325
dutch,0.124996
duti,0.011009
earn,0.010469
east,0.008564
econom,0.048767
economi,0.030429
effici,0.008721
effort,0.023143
elect,0.024647
electr,0.036841
element,0.007084
elig,0.013934
elimin,0.019265
elsewher,0.011483
end,0.024361
energi,0.007797
energyintens,0.023506
entrepreneur,0.028058
entrepreneuri,0.017327
environment,0.026865
environmentalist,0.018675
equal,0.007585
especi,0.006468
est,0.015475
establish,0.017833
estim,0.023515
euromoney,0.024173
exchang,0.094489
execut,0.008437
exist,0.005539
expand,0.007879
expect,0.007653
expenditur,0.012316
expens,0.019897
exploit,0.010369
export,0.071529
extend,0.007347
extens,0.007522
extent,0.009165
extern,0.004355
extrem,0.007990
face,0.008360
facil,0.010677
factor,0.007062
fall,0.007603
faut,0.028434
favor,0.009200
februari,0.009049
fieldwork,0.018820
financ,0.035305
financi,0.023856
fine,0.011908
fiscal,0.050514
fix,0.008841
float,0.013190
focu,0.008171
food,0.008572
forc,0.005970
foreign,0.023261
forest,0.022909
form,0.004552
formal,0.014906
free,0.006803
french,0.008016
fruit,0.011803
fulli,0.008980
fund,0.041063
gasolin,0.017233
gdp,0.011202
given,0.011948
gmt,0.023216
gold,0.207153
goldfield,0.024363
goudsector,0.120533
govern,0.135940
greenston,0.070518
grow,0.007637
growth,0.015078
guilder,0.065330
gulden,0.029176
guyana,0.035952
ha,0.031773
handson,0.020398
hardwood,0.043035
high,0.006031
higher,0.007081
hous,0.031961
howev,0.038672
human,0.005738
hydroelectr,0.017256
hypothes,0.011844
iamgold,0.030133
identifi,0.007200
illeg,0.024004
immedi,0.008755
impact,0.008162
implement,0.016585
import,0.045720
inabl,0.014379
incent,0.012401
incom,0.018246
increas,0.022911
independencesever,0.030133
indic,0.007327
indigen,0.011876
individu,0.006143
industri,0.006798
inexpens,0.016180
inflat,0.044869
inform,0.005921
inhabit,0.010354
initi,0.012943
insist,0.012153
institut,0.018908
instrument,0.009171
intent,0.010023
interior,0.011688
intern,0.015658
invest,0.033922
iso,0.041701
issu,0.012783
item,0.010926
januari,0.025501
joint,0.020975
judg,0.010999
juli,0.008603
june,0.008677
jungl,0.033938
kabalebo,0.030133
kaloti,0.150667
kernel,0.017350
key,0.007579
kilometr,0.013809
km,0.022419
kwh,0.072732
laid,0.011239
lake,0.023491
land,0.007536
larg,0.020992
largest,0.008224
law,0.017997
lead,0.005941
led,0.012853
left,0.015876
lelydorp,0.030133
letter,0.009830
licens,0.047431
link,0.004329
list,0.005537
local,0.020233
long,0.006465
look,0.016443
loos,0.024759
low,0.015262
lower,0.007357
lui,0.015502
m,0.021364
machin,0.009614
major,0.005282
make,0.005063
manag,0.007131
mani,0.004500
manipul,0.010661
manufactur,0.009495
map,0.009109
march,0.033028
market,0.044720
maroon,0.021355
marowijn,0.026128
matur,0.011586
mean,0.005483
measur,0.006521
medic,0.009169
medium,0.011351
meet,0.016112
melt,0.014209
member,0.006353
mercuri,0.146639
merian,0.052958
method,0.012333
mi,0.012554
migrant,0.015544
million,0.023462
minamata,0.053741
miner,0.077167
ministri,0.010706
mint,0.065200
moengo,0.060266
moment,0.011328
monday,0.018371
monetari,0.021348
month,0.017594
moreov,0.022845
morrisonknudsen,0.030133
mountain,0.010712
movement,0.006866
multin,0.015080
multipli,0.012836
nation,0.016552
nearli,0.008672
new,0.035581
newmont,0.027315
nineti,0.018063
north,0.007905
note,0.017222
novemb,0.008930
number,0.004981
octob,0.025830
offic,0.008014
offici,0.052915
og,0.060506
oil,0.029814
onli,0.018333
onverdacht,0.030133
oper,0.012563
oppos,0.016642
orden,0.103246
order,0.010974
overgrown,0.023358
overhang,0.021961
owner,0.011262
oxid,0.013211
packag,0.012622
paddi,0.021776
palm,0.015516
parallel,0.061903
paranam,0.030133
parastat,0.021435
parti,0.007694
partnership,0.012532
patent,0.013287
payment,0.010732
payrol,0.018034
peanut,0.019253
pend,0.016804
peopl,0.016469
piec,0.010995
place,0.005631
plan,0.030162
plant,0.008644
plantain,0.021776
plung,0.017033
pm,0.015080
polici,0.029473
polit,0.024997
porknokk,0.030133
portion,0.010005
possess,0.008947
power,0.005843
practic,0.006108
preemin,0.016551
premium,0.014600
prepar,0.009260
presenc,0.017268
present,0.022836
presid,0.008257
price,0.016905
prioriti,0.012040
privat,0.008186
problem,0.006106
process,0.010795
produc,0.041585
product,0.059508
profit,0.019729
program,0.007182
project,0.028259
promis,0.010728
promot,0.008144
propos,0.007044
prospect,0.012133
proven,0.012059
provid,0.005065
publish,0.012674
purchas,0.009710
puriti,0.016164
quarter,0.011876
railway,0.040534
rais,0.025265
rank,0.019279
rate,0.134438
ration,0.009839
reach,0.007359
real,0.007515
reason,0.006498
reduc,0.006859
refer,0.003621
refin,0.011359
refineri,0.016784
reform,0.017715
regim,0.010551
region,0.006484
regist,0.011228
regul,0.008572
rel,0.006492
relationship,0.013824
remodel,0.020059
renegoti,0.020168
replac,0.007379
research,0.005874
reserv,0.019261
reservoir,0.016300
respit,0.022704
respons,0.006280
result,0.005044
resum,0.013850
return,0.007328
revis,0.010820
rice,0.027314
richest,0.015787
right,0.006498
risk,0.017819
river,0.039600
romero,0.022058
rosebel,0.030133
row,0.014003
royal,0.009554
rumour,0.020059
run,0.007957
rush,0.015817
s,0.005135
safest,0.020581
say,0.007845
sbb,0.051623
scale,0.032783
school,0.014734
second,0.011886
sector,0.066454
sell,0.010243
servant,0.013960
set,0.005609
sf,0.093917
share,0.007056
shellown,0.030133
short,0.007720
shrimp,0.037494
shut,0.015129
sign,0.008297
signal,0.010419
signific,0.019299
silver,0.012600
simon,0.012108
sinc,0.010078
singl,0.006744
site,0.008488
situat,0.007759
small,0.030833
smallscal,0.140145
smelter,0.022950
smuggl,0.016370
soar,0.032669
sold,0.010642
sourc,0.012678
south,0.015784
specif,0.006029
spent,0.011139
splinter,0.018371
srd,0.188096
srg,0.142171
staatsoli,0.060266
stabil,0.009398
stabl,0.009917
standard,0.006787
start,0.019137
stateown,0.029675
statist,0.008267
sticht,0.023993
stone,0.011255
stop,0.009956
stringent,0.016990
strong,0.007322
structur,0.005888
subsector,0.022259
subsequ,0.007864
subsidi,0.014038
subsidiari,0.015240
suffici,0.009316
suralco,0.030133
surfac,0.009125
surinam,0.593028
surinames,0.176792
surland,0.090400
surviv,0.008691
sustain,0.019714
taken,0.007379
tariff,0.013842
teacher,0.046196
th,0.005778
therefor,0.006849
thi,0.052772
thu,0.005891
timber,0.015092
time,0.017835
titl,0.009046
took,0.015745
topographi,0.016441
tout,0.019339
town,0.020697
track,0.011150
trade,0.014580
tradit,0.006346
train,0.043512
transact,0.010851
transform,0.008249
transport,0.008639
treati,0.021048
tropic,0.012860
turn,0.006967
unabl,0.010472
unclear,0.013238
undertak,0.013680
undevelop,0.018503
unemploy,0.011803
unit,0.010166
unstabl,0.013444
upscal,0.023823
usd,0.045315
use,0.020589
user,0.011179
usmillion,0.025009
ussurinam,0.030133
valu,0.032295
veget,0.012030
ventur,0.026546
verifi,0.012739
viabl,0.013867
view,0.006459
wa,0.070246
wage,0.022147
wanica,0.026479
want,0.009304
water,0.007773
way,0.016165
weaken,0.012622
web,0.010926
werent,0.020458
west,0.034613
wijdenbosch,0.056868
work,0.009881
world,0.020437
year,0.005086
york,0.007761
zone,0.010416
