abov,0.008871
absenc,0.025479
access,0.038352
accord,0.006929
account,0.008161
activ,0.006914
actual,0.008868
addit,0.014021
advantag,0.010756
age,0.008678
agreement,0.063464
agricultur,0.010299
agriculturalcent,0.036455
aid,0.010395
albania,0.062548
albanian,0.023344
allow,0.006891
alway,0.009318
annual,0.010645
apparel,0.023242
approach,0.007975
approv,0.023808
approx,0.044934
april,0.021202
area,0.006882
assist,0.030996
associ,0.013538
assum,0.009599
attract,0.022300
august,0.010530
austria,0.016032
author,0.007802
avail,0.008470
averag,0.020701
balanc,0.010967
bank,0.090191
base,0.018114
basi,0.008631
basic,0.008406
bb,0.021817
becam,0.022912
began,0.025030
begin,0.008147
belaru,0.021382
belgium,0.016400
belgrad,0.024333
best,0.009209
biggest,0.015687
bilater,0.031784
billion,0.071210
bitola,0.032034
board,0.012054
boost,0.016382
borrow,0.027735
bosnia,0.042454
breakup,0.020069
brought,0.010299
budget,0.039237
bulgaria,0.037881
busi,0.009419
came,0.018299
candid,0.012890
capit,0.018203
captur,0.011490
case,0.006997
caus,0.007469
cefta,0.027613
center,0.017851
central,0.047068
centuri,0.007186
chang,0.006309
china,0.010751
citi,0.009664
collaps,0.024657
comfort,0.035557
commit,0.046923
common,0.006767
commun,0.007318
compani,0.008837
compar,0.016556
competit,0.011005
complet,0.007730
concentr,0.010953
conclud,0.011447
conserv,0.022220
constitut,0.008837
construct,0.008667
consult,0.012925
continu,0.027127
contract,0.011228
control,0.007436
cooper,0.010698
countri,0.088391
cover,0.018430
cp,0.042765
creat,0.006846
credit,0.075821
crisi,0.046202
croatia,0.040139
crop,0.013838
curb,0.020329
currenc,0.024531
current,0.014331
czech,0.017937
damag,0.012079
data,0.008932
debt,0.051918
debttogdp,0.028258
decemb,0.020543
decreas,0.033067
deficit,0.108753
demonstr,0.010060
depend,0.014770
depriv,0.017977
despit,0.028473
develop,0.016793
direct,0.029730
director,0.026917
disloc,0.022467
disput,0.011258
district,0.013538
domest,0.023195
downsiz,0.025054
downturn,0.019171
downward,0.017964
drawn,0.013209
driven,0.013031
drop,0.049141
dure,0.025772
dutyfre,0.025054
econom,0.103246
economi,0.147250
eftaswitzerland,0.036455
egypt,0.014231
electr,0.011142
elig,0.016857
elimin,0.011653
embargo,0.080932
emerg,0.008636
empir,0.018806
employ,0.035754
end,0.051575
endjuli,0.036455
endyear,0.068798
energi,0.018867
entir,0.008740
equip,0.012048
estim,0.009482
ethnic,0.013298
eu,0.088035
euro,0.068582
europ,0.027413
european,0.041967
exchang,0.009526
exist,0.006701
expand,0.009532
expect,0.009258
experi,0.016573
experienc,0.048392
expert,0.013310
export,0.037086
extens,0.027300
extern,0.021077
facilit,0.012149
facto,0.016337
fall,0.018397
far,0.009137
farm,0.013445
fdi,0.022951
februari,0.010948
feder,0.053647
financ,0.032034
financi,0.009620
finland,0.018018
fiscal,0.045833
flag,0.016091
follow,0.005764
food,0.020742
forc,0.007222
foreign,0.075044
form,0.005508
forward,0.012791
foundat,0.009396
fourth,0.012572
franc,0.010316
free,0.041154
freedom,0.022751
fuel,0.013353
fulltim,0.019190
fund,0.009935
ga,0.012123
gap,0.014027
gdp,0.162629
gener,0.005177
germani,0.021700
global,0.019139
good,0.040057
govern,0.041114
gradual,0.011583
gray,0.035955
greec,0.013620
greek,0.030612
grew,0.012041
grow,0.009240
growth,0.100331
gruevski,0.031610
guarante,0.026436
ha,0.072074
half,0.019838
heart,0.013226
held,0.008519
heritag,0.014738
herzegovina,0.044770
high,0.014593
higher,0.025700
highest,0.011034
hinder,0.036317
histori,0.006001
howev,0.023392
hungari,0.017844
iceland,0.018530
ii,0.009430
imf,0.063122
impact,0.009875
import,0.030729
improv,0.035469
includ,0.005002
inclus,0.014843
increas,0.062364
independ,0.007401
index,0.011447
india,0.011032
indic,0.008864
industri,0.057574
industrycent,0.036455
inflat,0.054282
inflow,0.019740
infrastructur,0.024400
insurg,0.018657
integr,0.017391
intend,0.011155
intern,0.018943
introduc,0.008452
invest,0.061558
iran,0.016346
iron,0.012905
itali,0.025935
januari,0.020567
job,0.024887
journal,0.009268
jump,0.016637
kept,0.025967
key,0.009169
kingdom,0.009584
korea,0.014543
kosovo,0.040610
kumanovo,0.032508
labor,0.011829
lag,0.018755
larg,0.031745
largest,0.009950
late,0.008341
later,0.007164
latest,0.016091
leadership,0.013070
level,0.028815
liechtenstein,0.023448
like,0.006434
line,0.043110
link,0.005238
liquid,0.025826
littl,0.009220
local,0.016318
lost,0.020937
low,0.046162
lower,0.026704
luxembourg,0.020478
macedonia,0.671701
macedonian,0.089703
machineri,0.029712
macroeconom,0.065097
main,0.007626
mainli,0.020001
maintain,0.025199
major,0.006390
make,0.012251
malaysia,0.017601
mani,0.016334
manufactur,0.011487
march,0.009989
market,0.072136
meat,0.016716
meet,0.009746
member,0.015371
membership,0.039805
mere,0.011850
million,0.132463
ministri,0.012952
modern,0.007225
modest,0.017589
moldova,0.023293
monetari,0.025826
montenegro,0.045102
month,0.053214
mostli,0.020555
nation,0.020024
nato,0.018215
natur,0.006430
need,0.014482
netherland,0.014037
new,0.010761
nikola,0.023448
norway,0.016930
novemb,0.010804
number,0.006026
obtain,0.009362
octob,0.020832
offic,0.009695
offici,0.027435
oil,0.024046
onli,0.022179
opium,0.021678
order,0.006638
organ,0.006570
ottoman,0.034073
outdat,0.021382
output,0.062864
outsid,0.009189
overal,0.033075
overst,0.024606
particularli,0.016895
partner,0.026337
partnership,0.015161
parttim,0.021197
past,0.009556
pastur,0.022593
pay,0.011245
payment,0.025967
pcl,0.061109
peg,0.020633
peopl,0.013282
percent,0.012098
percentag,0.013423
period,0.028629
persist,0.013657
plan,0.009122
plu,0.013552
poland,0.032912
polici,0.026742
policybas,0.067331
polit,0.007560
poor,0.011910
poorest,0.020353
poppi,0.025740
popul,0.008570
posit,0.007139
poultri,0.021382
poverti,0.028419
precautionari,0.051670
previou,0.010416
previous,0.010530
price,0.020451
primarili,0.009442
princip,0.010790
privat,0.019808
problem,0.007387
process,0.006530
produc,0.014374
program,0.008689
progress,0.009414
project,0.025641
promot,0.009853
protect,0.027618
provid,0.006128
provinc,0.012769
prudent,0.022859
public,0.013913
pursu,0.012562
q,0.030940
qualifi,0.014525
quarri,0.023611
quarter,0.014367
rate,0.051360
ratio,0.012457
reach,0.026708
real,0.009092
reason,0.007862
recent,0.007585
record,0.009234
recov,0.013485
recoveri,0.043751
redevelop,0.026031
refer,0.008761
reform,0.021431
region,0.054913
relax,0.016746
releas,0.010948
remain,0.050716
remitt,0.021446
rep,0.026345
replac,0.008927
repres,0.007186
republ,0.123380
requir,0.006896
reserv,0.046603
respons,0.007598
rest,0.010263
result,0.024409
retail,0.015844
revis,0.013091
revit,0.042577
rise,0.017630
risen,0.018453
robust,0.015868
role,0.007674
romania,0.036755
rule,0.007996
rulership,0.030256
russia,0.025750
s,0.006213
salonika,0.033665
sanction,0.032894
say,0.009491
sector,0.034455
septemb,0.021129
serbia,0.076614
servic,0.034141
sever,0.025423
sharpli,0.017235
shift,0.010616
shock,0.029953
shortterm,0.015924
sign,0.010038
signific,0.007782
significantli,0.011243
sinc,0.018289
skopj,0.060512
slightli,0.026428
slovenia,0.020905
slow,0.012587
social,0.007755
socialist,0.040918
soften,0.023666
sound,0.012836
sourc,0.007668
spain,0.012956
stabil,0.034111
stagnat,0.018259
start,0.023152
state,0.016003
statist,0.020004
statu,0.010182
steadi,0.015626
steadili,0.016083
steel,0.015270
step,0.010338
stip,0.034399
strategi,0.011357
street,0.013912
strengthen,0.013790
stringent,0.020555
strong,0.008858
struggl,0.012780
subsequ,0.009514
subsidi,0.033966
success,0.008085
summer,0.014104
support,0.014498
sustain,0.011925
sweden,0.015229
switzerland,0.015626
tank,0.016888
target,0.022703
techniqu,0.009369
technolog,0.008790
textil,0.016484
th,0.006990
thi,0.027361
think,0.010573
threequart,0.021644
tie,0.011892
time,0.005394
tobacco,0.017178
today,0.008758
total,0.051040
trade,0.185212
transfer,0.031299
transport,0.010451
trend,0.034936
turkey,0.031801
turkeyalgeria,0.036455
ukrain,0.036431
unemploy,0.099958
union,0.018119
unit,0.018448
upward,0.016972
use,0.004981
vele,0.034399
veri,0.006962
vineyard,0.026805
volatil,0.016221
vulner,0.015506
wa,0.099980
wage,0.013397
wake,0.016265
wall,0.012909
war,0.017321
way,0.006518
western,0.009171
wholesal,0.018975
widen,0.018975
withdraw,0.014654
work,0.011954
worker,0.011349
world,0.037087
worth,0.013804
wto,0.019190
year,0.055377
yearli,0.018074
yugoslav,0.023611
yugoslavia,0.144249
yugoslavian,0.030256
zone,0.012601
