absenc,0.011810
accept,0.008065
access,0.008888
accord,0.012848
account,0.015133
accumul,0.012324
acquisit,0.013890
activ,0.019231
ad,0.008198
addit,0.006499
advantag,0.009972
advisor,0.016458
aggreg,0.013586
agreement,0.009806
agricultur,0.019097
air,0.009868
airlin,0.016352
airport,0.127359
airway,0.020828
alli,0.011865
allow,0.012777
alway,0.008639
american,0.021836
analys,0.012560
analysi,0.007744
ang,0.096912
ani,0.005661
annual,0.029606
antil,0.019943
antillean,0.050413
apart,0.011773
appli,0.006867
arriv,0.020683
asid,0.014651
associ,0.006275
attract,0.031011
author,0.007233
autonom,0.012990
balanc,0.020335
bank,0.018581
barthlemi,0.023778
base,0.022391
bay,0.029015
bbo,0.093633
beach,0.067128
becam,0.028322
becaus,0.017493
bedrijfsomzetten,0.032723
begin,0.007553
behalf,0.014288
belast,0.032723
benefici,0.014215
beneficiari,0.018440
benefit,0.009400
best,0.008537
better,0.008735
blockad,0.017740
bond,0.022128
boom,0.014696
border,0.011411
brea,0.028326
budget,0.012125
busi,0.052394
caledonia,0.020946
came,0.008482
capit,0.016875
capita,0.014081
caribbean,0.162819
carryforward,0.029305
case,0.006486
casino,0.042216
center,0.016549
central,0.014545
centuri,0.019986
chang,0.005849
charg,0.020024
cigarett,0.040008
classifi,0.010495
climat,0.011078
cloth,0.013564
collect,0.007568
collectivit,0.074553
colon,0.013767
come,0.007420
commerci,0.019881
commod,0.012593
compani,0.049160
comparison,0.010880
compris,0.010615
concept,0.007241
concess,0.016411
concordia,0.024966
condo,0.028326
conduct,0.008893
consid,0.006051
consist,0.006945
contribut,0.022848
contributor,0.015179
control,0.006894
convert,0.010578
copyright,0.018340
corpor,0.040724
cotton,0.015864
countri,0.034144
crew,0.032636
crucial,0.012632
cruis,0.330844
cruiserel,0.032723
cultiv,0.013253
cultur,0.007802
curaao,0.044760
currenc,0.045485
cycl,0.010637
d,0.008400
debt,0.048132
decad,0.009432
decemb,0.009522
decis,0.008749
declin,0.009852
definit,0.008205
deliveri,0.014998
depart,0.009098
depend,0.013693
destin,0.058088
develop,0.005189
die,0.009942
differ,0.005501
direct,0.027562
dividend,0.050038
dividendbelast,0.032723
dollar,0.024250
dollarth,0.031211
drink,0.015388
dure,0.017920
dutch,0.127448
dutchsouth,0.130894
duti,0.024696
dutyfre,0.046454
east,0.009605
econom,0.075207
economi,0.051192
employ,0.033147
energi,0.008746
engag,0.009893
enjoy,0.011893
ensu,0.015273
entir,0.016206
entrepreneur,0.015735
environ,0.016563
equival,0.010063
estat,0.066496
estim,0.026374
euro,0.015895
excis,0.019912
exempt,0.081193
exot,0.016641
expenditur,0.055254
exploit,0.011629
export,0.011460
expos,0.012514
extens,0.008436
fabric,0.015628
facil,0.011975
fall,0.008527
fcca,0.032723
fee,0.029245
fifteenyear,0.030635
financ,0.009899
fish,0.011656
fix,0.009915
floridacaribbean,0.032723
fluctuat,0.013951
food,0.028844
foodstuff,0.019278
forc,0.013391
form,0.005106
formerli,0.012514
fourfifth,0.025206
franc,0.057382
french,0.098896
frenchnorth,0.098171
furthermor,0.011448
futuna,0.024325
futureexist,0.032723
gain,0.016255
gasolin,0.019329
gateway,0.038405
gdp,0.062821
gener,0.024002
geographi,0.012297
good,0.029709
govern,0.019058
grand,0.012976
grondbelast,0.032723
group,0.006026
grown,0.012865
growth,0.016912
guadeloup,0.021838
guarante,0.012254
guest,0.035281
guesthous,0.028050
guiana,0.020605
guilder,0.097698
ha,0.049000
handl,0.012147
harbor,0.016717
hard,0.010964
headquart,0.014801
high,0.006764
highest,0.010230
highli,0.008794
hinder,0.016834
histori,0.011128
holiday,0.015725
hotel,0.032169
ident,0.009565
impact,0.027465
implement,0.009301
import,0.034186
improv,0.008220
includ,0.009275
incom,0.061394
indi,0.016955
india,0.010227
indirect,0.029029
individu,0.013781
industri,0.007625
inexpens,0.018148
inherit,0.024776
inkomstenbelast,0.032723
intensifi,0.016376
intern,0.011708
introduct,0.008856
invest,0.019023
island,0.277244
isol,0.010846
jewelri,0.020946
job,0.011536
juliana,0.049932
jurisprud,0.018735
just,0.007789
justic,0.011289
kind,0.008898
kingdom,0.008885
known,0.016744
labor,0.010967
lagoon,0.042300
land,0.016906
larg,0.011772
larger,0.017632
largest,0.018449
late,0.007732
latin,0.020995
law,0.013456
leeward,0.040323
left,0.008903
level,0.006678
levi,0.078479
like,0.005965
limit,0.020462
line,0.007993
list,0.012420
littl,0.008547
live,0.007221
local,0.037821
locat,0.016423
logeergastenbelast,0.032723
long,0.007251
loonbelast,0.032723
loss,0.009768
low,0.008559
maarten,0.278924
main,0.035350
mainli,0.009271
mainten,0.013397
major,0.017774
make,0.022716
mani,0.005047
manufactur,0.010650
marigot,0.028326
market,0.008359
martin,0.047283
martiniqu,0.021690
mayott,0.023453
mean,0.006150
merchandis,0.019153
migrat,0.011932
million,0.078945
minist,0.010076
miquelon,0.024966
monetari,0.011971
money,0.009980
naf,0.079091
narrow,0.012610
natur,0.005961
ne,0.018869
nearli,0.029180
neighbor,0.012597
net,0.011739
netherland,0.052056
new,0.009976
nightlif,0.028050
nomin,0.011656
nonresid,0.065515
north,0.044335
novemb,0.010016
numer,0.008273
object,0.007634
obtain,0.008680
offer,0.008304
offici,0.025435
officiel,0.029305
oil,0.011146
onli,0.005140
op,0.022154
oper,0.007045
option,0.011652
orient,0.011636
outsid,0.008519
overdrachtsbelast,0.032723
owner,0.012632
particip,0.017619
passeng,0.066467
patent,0.014902
pay,0.041703
payment,0.012036
paymentsnet,0.032723
payrol,0.020226
peac,0.010770
peg,0.019128
peopl,0.006157
period,0.013271
person,0.014615
petrol,0.021993
philipsburg,0.030635
pierr,0.014376
point,0.006477
polici,0.008264
polynesia,0.020161
poorer,0.018243
popul,0.023837
port,0.025238
portion,0.011221
posit,0.006618
possibl,0.006531
postpanamax,0.031891
potenti,0.008290
poverti,0.013173
ppp,0.018400
premis,0.015022
prescrib,0.015638
presenc,0.009684
price,0.009480
princess,0.037471
print,0.012025
prioriti,0.013504
prise,0.031211
product,0.026697
profit,0.033192
properti,0.046521
prosper,0.013238
provid,0.017045
proxim,0.014801
purpos,0.016659
quarter,0.013319
rate,0.039679
reach,0.008253
real,0.033718
recipi,0.015676
reduc,0.007693
reestablish,0.015469
refer,0.004061
regard,0.007791
region,0.007272
regular,0.011126
render,0.026639
rental,0.020129
repatri,0.019765
replac,0.008276
report,0.007805
research,0.006588
resid,0.043039
resourc,0.008222
respons,0.007044
rest,0.009515
restaur,0.036074
restrict,0.018825
result,0.011314
retroact,0.021067
return,0.008219
revenu,0.047394
right,0.014576
room,0.013173
roughli,0.011392
royalti,0.018522
rule,0.022240
runion,0.022683
s,0.017280
saint,0.081483
saintmartin,0.054651
sale,0.011831
salt,0.069573
scheme,0.012223
scope,0.011939
season,0.013124
second,0.006665
sector,0.021295
secur,0.008628
segment,0.013914
serv,0.008084
servic,0.015825
set,0.006291
sever,0.005892
share,0.007914
sharehold,0.016423
shift,0.009842
ship,0.080665
shop,0.030308
short,0.008659
similar,0.006749
similarli,0.010708
simpson,0.037877
sinc,0.028260
sint,0.110229
situat,0.008702
slightli,0.012250
slump,0.020226
sole,0.011473
south,0.035406
spanish,0.024447
specif,0.006762
spend,0.023465
spent,0.024987
st,0.072893
start,0.007154
statement,0.010376
statist,0.009273
stmaarten,0.294513
stmartin,0.031211
stop,0.011166
strong,0.008212
structur,0.006604
subject,0.007190
substanti,0.010492
successiebelast,0.032723
sugar,0.041318
sunbath,0.032723
support,0.006720
sxm,0.062422
tax,0.424906
taxabl,0.020226
taxat,0.027793
taxfre,0.023301
technolog,0.008149
term,0.005341
territori,0.029680
tgca,0.032723
th,0.012962
thi,0.021138
time,0.005001
timeshar,0.026198
tobacco,0.015926
took,0.017659
topless,0.032723
total,0.055205
tourism,0.131491
tourist,0.045189
trade,0.016353
trademark,0.019853
trader,0.013914
transact,0.012170
transfer,0.038689
turn,0.007814
turnov,0.036333
type,0.006795
unimprov,0.026719
union,0.008399
unlimit,0.016914
usa,0.025238
usd,0.050824
use,0.009237
user,0.012539
vacat,0.019407
valu,0.014488
vat,0.020292
veri,0.006455
villa,0.019679
visit,0.034068
visitor,0.030921
vote,0.010718
vulner,0.014376
wa,0.027806
wage,0.024840
walli,0.020226
want,0.010435
war,0.024088
warrant,0.017433
way,0.018130
weather,0.013860
week,0.011879
went,0.010367
west,0.009705
wide,0.007279
winair,0.029698
windward,0.021192
winstbelast,0.032723
withhold,0.019407
work,0.016623
world,0.005730
yacht,0.064643
year,0.022817
yti,0.031211
yy,0.025599
