account,0.073687
activ,0.012485
addit,0.012658
adopt,0.017267
agricultur,0.111591
aid,0.037543
asian,0.023838
australia,0.021749
balanc,0.019804
ban,0.025211
bank,0.090477
barak,0.048627
becam,0.013791
becom,0.012078
beef,0.146313
billion,0.021430
bislama,0.060790
budgetrevenu,0.048858
busi,0.017008
calendar,0.030940
canning,0.048627
capit,0.049304
capita,0.027426
cash,0.075769
center,0.016117
centim,0.055172
china,0.019414
citi,0.034903
claim,0.015339
cocoa,0.154217
coconut,0.111072
coffe,0.063083
commit,0.021182
commod,0.073587
compani,0.015958
compar,0.014948
composit,0.020952
comprehens,0.022261
compris,0.020675
consolid,0.026537
consum,0.020124
consumpt,0.070720
copra,0.172176
countri,0.026601
crop,0.049976
currenc,0.022148
current,0.012939
customari,0.033690
deal,0.016282
debt,0.023437
decemb,0.037095
declar,0.019521
declin,0.019190
decreas,0.019903
derail,0.048858
develop,0.010108
discourag,0.030514
dollar,0.047233
domest,0.020942
downsiz,0.045240
downturn,0.034618
dure,0.011634
eas,0.028013
econom,0.053266
economi,0.049854
edward,0.022136
ekonomi,0.055172
electr,0.100602
encourag,0.020000
end,0.013304
engag,0.019269
enter,0.017789
equip,0.021755
est,0.270457
establish,0.012986
estim,0.017123
euromoney,0.052808
exceed,0.025553
exchang,0.017201
exclus,0.020787
expect,0.016718
expenditur,0.026905
experi,0.014963
export,0.245547
extend,0.016050
extern,0.009514
extract,0.023423
fairli,0.027562
far,0.016500
farm,0.048556
fastestgrow,0.043590
fiji,0.038554
financi,0.034743
fiscal,0.027587
fish,0.090812
fleet,0.029259
fob,0.091668
follow,0.010408
food,0.018727
foodstuff,0.037548
forc,0.026084
foreign,0.016938
freez,0.033719
fruit,0.025785
fuel,0.048226
fund,0.017940
gdp,0.195774
govern,0.061867
governmentown,0.040275
grow,0.016685
growth,0.032940
gwh,0.087181
ha,0.026029
haven,0.032944
high,0.013175
higher,0.015468
household,0.025883
hub,0.033777
hydro,0.039721
import,0.088781
includ,0.009032
incom,0.039859
increas,0.012512
index,0.020670
industri,0.074259
inflat,0.024504
initi,0.014137
institut,0.013768
insur,0.025085
intern,0.034206
invest,0.018526
involv,0.012614
island,0.019285
japan,0.043034
june,0.018956
justic,0.021989
kastom,0.062115
kava,0.218536
kept,0.023444
kilometr,0.030166
kwh,0.079443
labor,0.042722
largest,0.017967
leav,0.018422
legal,0.017950
line,0.015569
link,0.009458
list,0.012095
lower,0.016073
luganvil,0.121581
machineri,0.026825
maintain,0.030334
major,0.011540
make,0.011061
margin,0.023838
marin,0.024901
market,0.016282
meat,0.030184
mi,0.027426
million,0.085425
millionexpenditur,0.051688
minist,0.039251
mostli,0.018558
na,0.065785
nahighest,0.050421
natapei,0.059670
nation,0.012052
nauru,0.040797
near,0.017884
nearli,0.018945
network,0.018184
new,0.019431
nivanuatu,0.054132
nuclear,0.022225
occup,0.022664
offer,0.016174
offset,0.031628
offshor,0.031716
opposit,0.017897
pacif,0.025211
palau,0.044181
pariti,0.062615
partner,0.047557
percentag,0.024238
pig,0.032438
place,0.024602
popul,0.030952
port,0.024578
portion,0.021857
possess,0.019546
poverti,0.025659
power,0.025528
preindepend,0.046651
price,0.018465
primarili,0.017049
prime,0.040080
process,0.011791
produc,0.012977
product,0.051999
program,0.062760
public,0.012561
purchas,0.042427
rang,0.029945
rank,0.042117
rate,0.077285
ratio,0.022494
real,0.016418
receiv,0.015113
recipi,0.030533
refer,0.007910
reform,0.058049
regist,0.049058
reintroduc,0.036492
resourc,0.016014
risk,0.038927
root,0.019982
score,0.115982
sea,0.020183
second,0.012982
secreci,0.077569
sector,0.041477
sectoragricultur,0.049096
servic,0.077061
share,0.015414
sharelowest,0.047189
shell,0.026625
ship,0.022445
singapor,0.029010
smallhold,0.047005
sope,0.065827
sourcefossil,0.047572
sq,0.032866
squar,0.023324
start,0.013935
statist,0.018061
statu,0.018386
subsist,0.030311
tangbunia,0.065827
taro,0.044059
tax,0.062070
th,0.012623
thailand,0.033266
thi,0.016469
timber,0.065942
total,0.015360
tourism,0.076833
trade,0.015925
tradit,0.013863
transact,0.023704
transfer,0.018839
translat,0.018953
trend,0.021028
trust,0.024066
tusk,0.046826
unemploy,0.025785
unit,0.011104
valu,0.014110
valuead,0.040644
vanuatu,0.516530
vatu,0.121581
veget,0.026281
versu,0.025697
vila,0.046651
vt,0.087879
wa,0.045133
wealth,0.022671
weight,0.022189
wherea,0.019103
wide,0.014179
wood,0.025403
worldwid,0.022334
yam,0.042247
year,0.066663
york,0.016956
zealand,0.026177
zone,0.022754
