account,0.048394
activ,0.082000
affect,0.026847
agricultur,0.061073
aid,0.030821
airport,0.045254
announc,0.034500
anoth,0.019760
associ,0.020069
audit,0.111308
bank,0.059421
base,0.017901
bay,0.046395
began,0.049473
brade,0.089703
brambl,0.083780
capita,0.045030
catastroph,0.049240
caus,0.022145
centr,0.034115
close,0.022201
cloth,0.043377
coast,0.037869
collaps,0.036551
compani,0.131011
complet,0.045837
concert,0.055952
construct,0.051394
continu,0.020107
contract,0.033288
contrast,0.028032
corpor,0.032558
countri,0.021838
crop,0.041028
cultur,0.024951
date,0.027735
davi,0.048118
decad,0.030165
declin,0.157540
depart,0.029096
depend,0.021896
destroy,0.034702
destruct,0.039275
develop,0.082983
disloc,0.066610
disrupt,0.042761
dissolut,0.050010
domest,0.034384
ec,0.182369
econom,0.065593
economi,0.109141
electron,0.033432
entiti,0.033899
erupt,0.049888
establish,0.021322
estim,0.028115
expect,0.027450
export,0.036651
farm,0.039862
financ,0.031658
financi,0.028522
fled,0.048355
focu,0.029310
foster,0.045672
fund,0.058913
gdp,0.200900
georg,0.030790
getaway,0.093717
govern,0.081263
gross,0.041771
growth,0.027041
h,0.029677
ha,0.014245
half,0.029407
help,0.070166
hill,0.084996
hous,0.085977
howev,0.052015
hugo,0.054397
hurrican,0.057059
import,0.018221
independ,0.021942
inhabit,0.037140
insur,0.041187
intern,0.056164
invest,0.030417
island,0.126659
juli,0.030857
june,0.031125
lack,0.054470
land,0.027033
larg,0.037647
launch,0.035971
led,0.023052
limit,0.021812
littl,0.027335
london,0.030073
main,0.022610
major,0.018947
mandat,0.044498
markedli,0.061095
martin,0.075606
mayb,0.064683
million,0.112206
montserrat,0.606186
music,0.039250
nation,0.019789
new,0.063810
northwest,0.048845
number,0.017866
offshor,0.104151
onli,0.016439
open,0.024449
past,0.028331
peak,0.039189
percent,0.215211
plan,0.027046
plant,0.031006
plymouth,0.073379
posit,0.021165
primari,0.027033
prior,0.030931
privat,0.058728
produc,0.021308
product,0.021344
program,0.025761
project,0.025340
prospect,0.043518
prudent,0.067772
public,0.041249
rais,0.030206
rate,0.101515
real,0.026957
recent,0.022490
reconstruct,0.040701
record,0.082130
reduct,0.037371
reestablish,0.049471
refer,0.012987
reflect,0.027911
relat,0.017511
remain,0.042961
reput,0.045193
return,0.026285
reveal,0.034163
revers,0.035756
revert,0.056840
seaport,0.065551
seat,0.038435
sector,0.170254
seen,0.025484
septemb,0.031321
servic,0.025305
sever,0.018844
sinc,0.018075
slate,0.062666
slow,0.037318
small,0.044237
social,0.022994
soufrir,0.089703
studio,0.124465
subsequ,0.028208
suitabl,0.040126
thi,0.013520
threeyear,0.059300
today,0.025967
togeth,0.049851
tourism,0.042050
tourist,0.048170
town,0.111357
trade,0.026148
trend,0.034525
twothird,0.049530
uk,0.033131
unemploy,0.042336
uninhabit,0.057114
usd,0.054178
veri,0.020642
volcan,0.051859
volcano,0.053462
w,0.030329
wa,0.133388
year,0.036484
