abbrevi,0.006143
abc,0.003616
abdul,0.007760
abil,0.005205
abl,0.003186
abov,0.003229
abroad,0.013693
absolut,0.002139
abund,0.010230
academ,0.003777
acceler,0.004851
accept,0.001583
access,0.015704
accomplish,0.002534
accord,0.030266
account,0.037134
accumul,0.004838
acftu,0.013269
achiev,0.003173
acid,0.002541
acquir,0.049300
acquiror,0.005916
acquisit,0.016361
act,0.001441
activ,0.005033
ad,0.001609
addit,0.008931
address,0.001899
adequ,0.007937
adjust,0.002414
administ,0.002472
administr,0.014106
admiss,0.003364
adopt,0.001740
adrift,0.010817
advanc,0.006230
advantag,0.003915
advertis,0.002963
affair,0.002085
affect,0.004944
afloat,0.004835
africa,0.002048
african,0.002210
age,0.007897
agenc,0.005952
aggress,0.005620
agreement,0.007700
agricultur,0.031867
ahead,0.008832
aig,0.004835
aim,0.005402
air,0.001937
aircraft,0.002801
airlin,0.003210
airport,0.002777
algeria,0.003555
allchina,0.006634
allevi,0.003366
alloc,0.005033
allow,0.012541
alon,0.004313
alongsid,0.002622
alreadi,0.001837
aluminium,0.003533
alway,0.005087
ambit,0.003289
ambiti,0.006529
amc,0.005619
american,0.005715
amid,0.003344
analysi,0.004560
analyst,0.011448
analyz,0.002119
anhui,0.005364
ani,0.006668
anim,0.005295
anniversari,0.006689
announc,0.010589
annual,0.025185
annum,0.003964
anoth,0.002426
anshan,0.006127
anthracit,0.005081
anticip,0.002804
antidump,0.011013
antimoni,0.008906
anyth,0.002492
apart,0.002311
apec,0.013112
appar,0.002152
apparel,0.012690
appli,0.001348
applic,0.001506
appreci,0.002798
approach,0.001451
appropri,0.002021
approv,0.012999
approxim,0.001718
april,0.001929
aquacultur,0.004370
arabl,0.007715
arajo,0.006634
archiv,0.004642
area,0.027557
argentina,0.003128
argu,0.003355
armament,0.003915
arrang,0.002056
arriv,0.002030
articl,0.008993
artifici,0.006389
asbesto,0.004604
asean,0.004127
asia,0.015158
asian,0.009610
asiapacif,0.007890
aspect,0.001657
assembl,0.001968
assess,0.002148
asset,0.009325
assist,0.001880
associ,0.007392
assur,0.002873
attempt,0.004315
attent,0.006169
attract,0.006087
attribut,0.001960
audit,0.003416
august,0.007665
australia,0.004384
author,0.018459
auto,0.026852
automak,0.005053
automobil,0.022117
automot,0.021696
avail,0.007708
averag,0.015070
aviat,0.003317
avoid,0.003767
awar,0.002281
away,0.001921
b,0.003340
background,0.004331
badli,0.003428
bail,0.004416
bailout,0.004194
balanc,0.001996
ban,0.002541
bank,0.083896
bankruptci,0.006583
banquet,0.004651
bar,0.002850
barcelona,0.003945
barit,0.005506
barley,0.007704
barrel,0.003526
barrier,0.005132
base,0.005494
basi,0.007854
basic,0.006119
basin,0.011986
basket,0.007682
bauxit,0.008956
bayan,0.005322
bbc,0.002869
beach,0.003294
becam,0.015290
becaus,0.005723
becom,0.020694
beet,0.004338
befor,0.009091
began,0.012147
begin,0.011862
beij,0.007321
beijingtianjin,0.006634
believ,0.003145
belt,0.006630
ben,0.003252
benefit,0.001845
bernank,0.009270
best,0.001676
bet,0.003846
better,0.003429
bigger,0.003413
biggest,0.002855
bilater,0.002892
billion,0.125280
billionair,0.013473
birth,0.008962
biswa,0.005408
bitumin,0.005282
black,0.002052
blackwellpublishingcom,0.006634
blog,0.003453
bluechip,0.005916
bluestar,0.006634
bn,0.003789
board,0.002193
boc,0.005560
bodi,0.003051
bohai,0.011660
book,0.002890
boom,0.005770
boost,0.002981
border,0.004480
borrow,0.005047
boss,0.004317
bottl,0.003717
bottleneck,0.004160
bowl,0.007726
branch,0.006468
brand,0.018442
brazil,0.002717
break,0.002096
bring,0.003780
british,0.001697
bro,0.004737
broad,0.002042
broaden,0.003242
broke,0.002607
bubbl,0.006375
budget,0.002380
budgetari,0.004010
build,0.009655
buildingth,0.006634
built,0.007583
builtbi,0.006634
bulk,0.002695
burden,0.002902
bureau,0.011505
burgeon,0.003804
burma,0.003779
burn,0.002606
buse,0.004135
busi,0.034285
busiest,0.004684
businesstravel,0.013269
bust,0.004088
buy,0.007216
buyer,0.003035
cadr,0.004127
california,0.002332
came,0.004995
campaign,0.002286
cap,0.003102
capabl,0.002005
capac,0.014778
capit,0.031472
capita,0.016585
capitalis,0.004168
car,0.021530
carbon,0.012411
carden,0.006634
care,0.005740
carri,0.004925
case,0.006367
catalogu,0.003472
catalys,0.004382
categori,0.003886
cattl,0.005966
caus,0.008156
caution,0.003585
cc,0.003713
ccb,0.006014
cdb,0.004465
cea,0.004924
ceaukorguk,0.006634
ceinet,0.013269
cement,0.013433
censu,0.002986
center,0.017868
central,0.034265
centrallyimpos,0.006634
centuri,0.003923
ceo,0.007272
certain,0.004182
ceylon,0.004307
cf,0.006869
chain,0.002275
chair,0.005721
chairman,0.002880
challeng,0.005458
chamber,0.002702
champagn,0.004998
chanc,0.002451
chandon,0.006634
chang,0.008037
channel,0.002514
character,0.001931
chart,0.005802
chase,0.003463
cheap,0.006310
cheat,0.004066
chemic,0.007757
chen,0.003722
cheng,0.004428
chengdu,0.005081
cheri,0.005455
chi,0.003648
chicagobas,0.005752
chicken,0.003620
chief,0.004241
chiefli,0.003302
child,0.004892
china,0.743587
chinabl,0.013269
chines,0.192659
chocol,0.004185
choic,0.002001
choke,0.004856
chong,0.004835
choos,0.002191
christin,0.003977
chromium,0.004160
cia,0.003026
cinema,0.006838
circul,0.005329
circumst,0.002339
citat,0.003033
cite,0.002130
citi,0.007035
citizen,0.006253
claim,0.003092
class,0.003378
clean,0.002981
cleaner,0.004338
climat,0.010873
close,0.005451
closer,0.002520
cloth,0.007988
club,0.002953
cni,0.023320
cnyusd,0.006634
coal,0.092070
coalbear,0.006634
coalfir,0.005209
coast,0.004649
coastal,0.013883
coauthor,0.003492
cobalt,0.003863
cognac,0.005830
collaps,0.002243
colleagu,0.005506
collect,0.002971
collectiv,0.003977
collis,0.003128
colo,0.005619
coloni,0.004212
combat,0.002673
combin,0.002904
come,0.014568
comment,0.002439
commerc,0.007614
commerci,0.019514
commiss,0.002027
commit,0.004269
committe,0.002185
commod,0.014833
common,0.001231
commonli,0.001691
commun,0.003995
communist,0.007537
compani,0.053078
compar,0.006026
comparison,0.002136
compens,0.002574
competit,0.006009
complet,0.005627
complex,0.001490
compon,0.014034
comprehens,0.002243
compris,0.004167
comput,0.005063
concentr,0.005980
concern,0.008580
conclud,0.006250
condit,0.002850
conduct,0.003491
conduit,0.004119
confectioneri,0.005209
confer,0.002005
confin,0.002735
confirm,0.004392
conflict,0.003794
congo,0.003476
congress,0.006847
connect,0.001677
conquista,0.005364
consecut,0.006888
consequ,0.003464
conserv,0.004044
consid,0.004752
consider,0.018831
consist,0.005453
constantli,0.002839
constitut,0.004825
construct,0.014197
consult,0.002352
consum,0.034482
consumerori,0.005752
consumpt,0.030887
contain,0.002922
contemporari,0.001992
content,0.002010
conting,0.002958
continu,0.025920
contracept,0.004370
contract,0.002043
contractu,0.003620
contribut,0.011961
control,0.025715
convent,0.001972
convert,0.002076
cooper,0.007788
copper,0.002828
corn,0.009556
corpor,0.003997
correctli,0.002927
correspond,0.001849
corrupt,0.010004
cost,0.016119
cotton,0.006228
council,0.018574
countri,0.068369
countrysid,0.003339
cours,0.001775
cover,0.003354
coverag,0.003064
crash,0.006059
creat,0.007476
creation,0.001854
creativ,0.013160
credit,0.009856
crime,0.007582
crisi,0.006306
critic,0.002996
crop,0.020148
cropland,0.004856
crossbord,0.003863
crtica,0.005830
crucial,0.002479
crude,0.012795
csi,0.005282
cu,0.004044
cubic,0.003516
cultiv,0.007805
cultur,0.004595
currenc,0.029019
current,0.010433
curv,0.002506
custom,0.006179
cut,0.002162
cutback,0.004719
cyber,0.008881
cybercrim,0.005683
cycl,0.006264
cyclic,0.003163
daili,0.004765
dam,0.006875
damag,0.008793
daqe,0.005752
data,0.011380
databas,0.002383
date,0.003405
day,0.003074
dc,0.002820
deal,0.013128
dean,0.003320
death,0.005352
debt,0.018897
debttogdp,0.005142
decad,0.011110
decadeold,0.006423
decemb,0.011216
decentr,0.006656
decid,0.003970
decis,0.001717
declin,0.009670
decreas,0.006018
deem,0.002756
defens,0.002235
deficit,0.002827
degre,0.003336
deleverag,0.005619
delta,0.002917
demand,0.018187
demanddriven,0.006014
democrat,0.001996
demograph,0.005470
demonstr,0.001831
deng,0.004465
denomin,0.003035
densiti,0.002458
depend,0.002688
deposit,0.026529
depress,0.005062
deregul,0.003764
deriv,0.004646
describ,0.002507
design,0.007481
despit,0.005182
destin,0.017104
destruct,0.002410
determin,0.002829
devalu,0.010408
develop,0.067240
devot,0.004815
did,0.001512
didnt,0.010042
diesel,0.004127
differ,0.005399
difficulti,0.002200
digit,0.002274
dilig,0.008162
ding,0.004667
dioxid,0.005986
direct,0.009469
directli,0.004910
director,0.002449
disambigu,0.003970
disburs,0.004277
discount,0.002941
discoveri,0.001907
discuss,0.001662
dislik,0.003636
dismantl,0.003570
dismiss,0.002714
dispar,0.003130
disput,0.002049
disrupt,0.005249
distinct,0.001568
distribut,0.010085
divers,0.001959
diversifi,0.009255
divid,0.001615
divis,0.008827
dlp,0.005364
doe,0.002756
doesnt,0.003045
dollar,0.019042
domest,0.033771
domin,0.005029
dongsheng,0.006634
dont,0.005693
doubl,0.006766
dow,0.003964
downgrad,0.004287
downturn,0.006978
dr,0.002527
dramat,0.006901
drastic,0.003049
draw,0.002088
dream,0.002941
drive,0.004377
driven,0.002371
drop,0.011179
drought,0.003325
dure,0.018762
earli,0.018400
earlier,0.001812
earn,0.002305
earth,0.001925
eas,0.002823
easi,0.004981
easier,0.002626
east,0.009428
eastern,0.008142
econom,0.092610
economi,0.118920
economist,0.006907
economistcom,0.005916
edg,0.002675
edibl,0.003957
editor,0.002610
educ,0.003124
effect,0.007148
effici,0.005761
effort,0.015286
egg,0.002966
egypt,0.002590
eighth,0.003422
elderli,0.003434
electr,0.008111
electrif,0.004545
electron,0.010261
element,0.001559
elimin,0.006362
elkem,0.006634
emerald,0.004465
emeraldinsightcom,0.006634
emerg,0.006287
emigr,0.003083
emiss,0.011641
emitt,0.004453
emphas,0.002152
emphasi,0.013347
empir,0.003422
employ,0.011387
employe,0.005139
enabl,0.001944
encourag,0.008063
end,0.013409
endow,0.003106
energet,0.006646
energi,0.054941
enforc,0.004598
enfu,0.006634
engag,0.007768
englewood,0.004073
english,0.001708
ensur,0.004029
enter,0.003585
enterpris,0.050787
entir,0.001590
entiti,0.004161
entrant,0.004211
entrepreneur,0.006177
entri,0.002372
environ,0.006503
environment,0.015773
epidem,0.003404
equal,0.003340
equip,0.008770
equiti,0.002806
era,0.003875
erebu,0.006260
eros,0.003307
escal,0.003176
especi,0.009969
essenti,0.001704
establish,0.011779
estat,0.002610
estim,0.013806
estuari,0.004135
ethanol,0.003970
eu,0.005340
euro,0.003120
europ,0.008315
european,0.001527
evalu,0.004250
evapor,0.003434
evenli,0.003660
event,0.001596
eventu,0.001743
everi,0.004604
everyth,0.002442
evid,0.003344
evinc,0.005081
examin,0.001919
exampl,0.005492
exceed,0.010302
excess,0.002370
exchang,0.029472
exchanger,0.005111
exclud,0.002307
exert,0.002814
exist,0.003658
exit,0.003217
expand,0.022553
expans,0.010346
expect,0.015165
expenditur,0.002711
expens,0.006571
experienc,0.002201
expert,0.002422
expertis,0.002991
explicit,0.002678
explicitli,0.002496
exploit,0.002283
explor,0.003737
export,0.087744
exportori,0.004393
exportsimport,0.006127
express,0.003178
extend,0.001617
extens,0.004968
extent,0.012108
extern,0.001918
extract,0.002360
face,0.009204
facil,0.002350
fact,0.003114
factbook,0.003073
factor,0.006220
factori,0.008050
fail,0.007375
failur,0.006401
fair,0.002484
fairli,0.016667
fake,0.003970
fall,0.010044
fallen,0.002979
famili,0.006792
famin,0.006568
far,0.009978
farm,0.024469
farmer,0.002595
fashion,0.002581
fast,0.007531
fastest,0.010389
fastestgrow,0.008786
favorit,0.003616
fdi,0.050125
fear,0.004602
featur,0.001658
februari,0.007970
fed,0.006563
feder,0.005858
feed,0.005630
feel,0.002292
feet,0.008985
fell,0.007106
fen,0.005282
fengbo,0.012254
fergu,0.005683
feridun,0.023011
ferroalloy,0.005916
fertil,0.010283
fiber,0.006371
field,0.009375
fifth,0.005223
figur,0.001816
fin,0.003909
final,0.001586
financ,0.017490
financi,0.035017
firm,0.030666
fiscal,0.005561
fish,0.009152
fisheri,0.003333
fisker,0.006127
fiveyear,0.017919
fiveyearplan,0.006634
fix,0.001946
fixedlin,0.005830
float,0.008712
flood,0.011581
floricultur,0.005683
flow,0.001931
fluctuat,0.005477
fluorit,0.005455
fluorspar,0.011505
focu,0.003598
focus,0.003414
follow,0.007343
food,0.015099
footprint,0.003957
footwear,0.013285
forb,0.007096
forc,0.009201
forecast,0.011557
foreign,0.092190
foreigninvest,0.024508
foreignown,0.009550
forese,0.003836
forest,0.012610
forestal,0.004258
forestri,0.003407
form,0.005012
format,0.001788
forti,0.003274
forum,0.002693
forward,0.004656
fossil,0.005685
foster,0.008410
foundat,0.003420
fourth,0.002288
franc,0.005632
franci,0.005023
free,0.007490
freedom,0.002070
freeenterpris,0.005916
freight,0.003880
french,0.005294
frequent,0.001843
freshwat,0.003466
frontier,0.005781
fruit,0.002598
fuel,0.021872
fulfil,0.005304
fulli,0.007908
function,0.002685
fund,0.021698
fundament,0.001679
furnish,0.003731
fushun,0.006634
futur,0.006389
fux,0.012521
fx,0.003794
g,0.001774
ga,0.035302
gabon,0.004194
gallon,0.004504
gansu,0.009802
gap,0.005105
gase,0.002923
gasolin,0.003794
gather,0.002286
gave,0.003816
gdp,0.073994
geeli,0.013269
gener,0.016020
geograph,0.002132
germani,0.003949
ghana,0.003704
gift,0.002960
gigawatt,0.005455
given,0.005261
global,0.038315
goal,0.012627
goe,0.002360
gold,0.006841
goldman,0.003874
good,0.030619
googl,0.003153
gorg,0.009063
got,0.002958
govern,0.049884
gradual,0.004216
grain,0.005698
grant,0.008041
grantham,0.005209
great,0.005912
greater,0.006607
greatest,0.002307
greatli,0.002147
green,0.002255
greenhous,0.003644
greenlight,0.006014
greenwich,0.017269
grew,0.010957
grid,0.006640
gross,0.015385
ground,0.001908
group,0.003548
grow,0.023543
grown,0.020205
growth,0.066400
guangdong,0.018807
guangxi,0.004924
guangzhou,0.014158
guid,0.003708
guidanc,0.002957
guidelin,0.005817
guilti,0.003519
guizhou,0.015735
gulf,0.005933
gypsum,0.009302
ha,0.088322
haih,0.006634
hainan,0.015628
half,0.018052
hallmark,0.004010
halt,0.005976
hand,0.003249
happen,0.002072
harbin,0.005916
hard,0.002152
harmoni,0.006117
harvest,0.002907
haulag,0.006634
hdi,0.004574
head,0.001693
health,0.007313
heavi,0.009066
heavili,0.002114
hebei,0.021457
heel,0.004370
heilongjiang,0.016226
held,0.004651
help,0.005742
henan,0.014845
hennessi,0.005175
herd,0.003499
heriberto,0.006634
hi,0.003527
high,0.019919
higher,0.001559
highest,0.014057
highgrowth,0.005506
highincom,0.008535
highlevel,0.003463
highli,0.005179
highqual,0.003933
highspe,0.003891
hightech,0.011836
hightechnolog,0.009512
highway,0.003309
hilli,0.004651
hindranc,0.004393
hinterland,0.004135
histor,0.002946
histori,0.002184
hit,0.002715
hoard,0.004203
hold,0.001579
holder,0.002981
hollywood,0.004220
home,0.001872
honda,0.009148
hong,0.027595
hope,0.002232
host,0.002398
hotel,0.009472
hour,0.004609
hous,0.003518
household,0.002608
howev,0.018093
httphdlhandlenet,0.005830
httpopenknowledgeworldbankorghandl,0.006634
huaih,0.006634
hub,0.003404
hubei,0.005619
huge,0.012195
human,0.003790
humid,0.003492
hunan,0.005142
hurun,0.005916
husbandri,0.003815
hydroelectr,0.026597
hydropow,0.004416
hygien,0.003836
ibm,0.006745
icbc,0.005830
ih,0.015245
illicit,0.003957
imbal,0.003401
imf,0.028720
immedi,0.003855
immens,0.006302
impact,0.003594
impend,0.004104
implement,0.014607
import,0.050333
improv,0.011296
inaccess,0.003648
inadequ,0.006228
inbound,0.004814
incent,0.010921
inclin,0.003245
includ,0.020028
inclus,0.002701
incom,0.014061
inconsist,0.003047
incorpor,0.001800
increas,0.061794
increasingli,0.009666
inde,0.002229
index,0.012500
india,0.002007
indic,0.004839
indigen,0.005229
individu,0.006763
indonesia,0.003106
industri,0.113765
ineffect,0.003317
ineffici,0.006073
inequ,0.008277
inevit,0.002889
inflat,0.034577
inflow,0.007185
influenc,0.001444
inform,0.014341
infrastructur,0.019983
infrastructureha,0.006634
initi,0.007124
inland,0.003147
inner,0.007908
innov,0.009086
input,0.002375
insid,0.004399
insight,0.004865
insist,0.002675
instabl,0.002835
instal,0.002588
instanc,0.001776
instead,0.001536
institut,0.008326
instrument,0.002019
insur,0.005056
integr,0.004747
intellectu,0.002249
intend,0.002030
intens,0.002178
interact,0.001636
interfer,0.002676
interior,0.002573
intern,0.026432
internation,0.012531
internet,0.010756
interven,0.002818
interview,0.002711
introduc,0.004615
invari,0.002899
invest,0.108299
investmentpromot,0.006634
investor,0.022486
involv,0.006356
iron,0.028185
irrat,0.003378
irrig,0.006630
island,0.005831
iso,0.003060
issn,0.020303
issu,0.019701
itc,0.003903
iv,0.002846
jalil,0.010565
januari,0.016844
januaryseptemb,0.005916
japan,0.021687
japanand,0.006634
japanes,0.002499
jceb,0.006634
jeopardi,0.004604
jiangsu,0.010817
jiangxi,0.005560
jiao,0.005408
jilin,0.017049
jingsun,0.006634
jinp,0.005245
job,0.011323
jobsecur,0.013269
join,0.001950
joint,0.013855
jointventur,0.010817
jone,0.002911
journal,0.025301
journalscambridgeorg,0.006634
juan,0.003228
juli,0.013259
jump,0.009083
june,0.007642
jurisdict,0.005323
just,0.003058
kaoliang,0.006634
kazakhstani,0.006127
kept,0.007088
key,0.008344
kin,0.003939
kind,0.001746
known,0.003287
kong,0.027835
korea,0.005293
korean,0.003044
krogh,0.004267
kuznet,0.004701
la,0.002188
labor,0.030141
lack,0.005015
lagard,0.005560
laid,0.002474
laidoff,0.006260
land,0.009956
languag,0.001648
larg,0.025421
larger,0.001730
largescal,0.007664
largest,0.067004
late,0.012144
later,0.003911
latest,0.005857
lau,0.004878
launch,0.011040
lavish,0.004359
law,0.009245
layoff,0.004531
lcd,0.004948
lcweblocgov,0.006127
lead,0.010465
leader,0.003834
leadership,0.002378
leap,0.006978
leas,0.003309
leav,0.005570
led,0.005660
legal,0.003618
legisl,0.002007
lend,0.011267
lenovo,0.016226
lesser,0.005375
lessestablish,0.006634
let,0.002456
level,0.009177
levono,0.006634
li,0.003398
liabil,0.003081
liaon,0.039335
liber,0.009883
liberalis,0.003836
librari,0.002059
licens,0.005221
lifelong,0.003841
light,0.005422
lighter,0.003440
lignit,0.005142
like,0.004684
likewis,0.002596
limit,0.005355
line,0.001569
link,0.003813
liquid,0.002350
list,0.013410
littl,0.010068
live,0.007088
livestock,0.006189
loan,0.020349
local,0.025244
localgovern,0.013269
locat,0.012896
locomot,0.003727
logist,0.006327
long,0.007117
longest,0.003142
longterm,0.004614
look,0.001810
looser,0.004775
lose,0.002305
loss,0.007670
lost,0.001905
lot,0.005400
loui,0.004947
low,0.016802
lower,0.003240
lowest,0.002607
lowinterest,0.004998
lowpay,0.011013
lowqual,0.004973
lowwag,0.004878
lucr,0.003616
luxuri,0.026315
lvmh,0.012521
m,0.009407
ma,0.022153
macau,0.026292
machinebuild,0.005752
machineri,0.013518
macroeconom,0.014809
magazin,0.002538
magnesit,0.005506
magnitud,0.002704
main,0.002775
mainland,0.002848
mainli,0.012740
maintain,0.001528
maiz,0.007216
major,0.038383
make,0.012263
mall,0.004168
manag,0.004710
manchuria,0.004405
mandat,0.005463
manganes,0.007915
manhattanplaza,0.006634
mani,0.021800
manifest,0.002522
manufactur,0.060631
mao,0.004010
map,0.002005
march,0.005454
margin,0.009610
mark,0.010561
market,0.078771
marketbas,0.004023
markman,0.005683
marriag,0.005543
mass,0.001797
massiv,0.006998
materi,0.006145
matter,0.003298
mayb,0.003970
mcdonald,0.004211
meagr,0.004794
meaning,0.002849
meant,0.002248
meanwhil,0.005302
measur,0.015795
meat,0.009126
medclmpa,0.006634
media,0.002010
medic,0.002018
mediocr,0.004478
mediterranean,0.002867
meet,0.008869
member,0.005595
membership,0.004829
merg,0.002640
merger,0.006353
mesharpecom,0.006634
messag,0.005449
metal,0.006845
metallurg,0.004277
mete,0.019604
meter,0.002950
mid,0.013098
middl,0.007230
migrant,0.006844
mii,0.006634
militari,0.003547
millet,0.008441
million,0.094709
miner,0.021844
minimum,0.002391
ministri,0.009429
minivan,0.006260
miracl,0.003422
mitig,0.003151
mix,0.002108
mlong,0.005683
mobil,0.004657
mode,0.002468
model,0.005462
moder,0.005023
modern,0.006575
molybdenum,0.004177
monday,0.004044
monetari,0.014101
money,0.005877
mongolia,0.007609
moni,0.004651
monitor,0.004741
monogram,0.011366
monopol,0.003815
monopoli,0.002808
month,0.007747
monthli,0.011953
moreov,0.005030
moreuniform,0.006634
mortal,0.002930
mostli,0.007482
mot,0.005455
motiv,0.002141
motorola,0.004901
mount,0.002555
mountain,0.009434
movement,0.001511
movi,0.002998
mp,0.003233
multilater,0.006958
multiti,0.005175
municip,0.002671
nation,0.037658
nationmast,0.006423
nationwid,0.003331
natur,0.015215
nd,0.002039
near,0.009012
nearli,0.019094
need,0.009225
neg,0.005703
neglig,0.003262
negoti,0.009178
neighbor,0.004946
nest,0.003395
net,0.013827
netizen,0.006260
network,0.010996
new,0.019585
newfound,0.004248
newli,0.002306
news,0.007178
newspap,0.002714
nh,0.003636
nichola,0.002949
nickel,0.007032
ningxia,0.011366
nitrogen,0.003026
nomin,0.006864
non,0.003159
nonfinanci,0.009302
nonfood,0.004756
nonmechan,0.005830
nonmet,0.004370
nonmetal,0.004393
nonperform,0.009512
normal,0.001747
north,0.010444
northeast,0.031224
northern,0.008198
northwest,0.002998
norway,0.003081
notabl,0.001682
note,0.001263
notic,0.002488
novemb,0.015730
novic,0.004267
npl,0.005245
nuclear,0.008960
number,0.017547
numberon,0.005619
numer,0.003248
nyseih,0.006634
obi,0.006260
object,0.001498
oblig,0.002420
observ,0.002893
obstacl,0.003163
obtain,0.001704
occup,0.002284
occur,0.002785
ocean,0.006768
octob,0.007583
offer,0.003260
offic,0.003529
offici,0.014979
offset,0.003187
offshor,0.003196
oil,0.054704
oilfield,0.004635
oilse,0.015526
old,0.001813
oligopoli,0.004177
onc,0.004914
onechild,0.010728
onefourth,0.004667
oneparti,0.007693
onli,0.017155
onlin,0.003837
onset,0.003372
onshor,0.004559
opaqu,0.003990
open,0.010506
oper,0.005532
opportun,0.002070
optim,0.002325
order,0.009664
ordinari,0.002390
ore,0.040831
oreprocess,0.006634
organ,0.013153
organis,0.002075
outbound,0.005081
outdat,0.003891
outlet,0.003502
outpac,0.008857
output,0.041188
outsid,0.011707
outstand,0.002998
outstrip,0.008337
outward,0.010126
overal,0.022071
overfish,0.004589
overinvest,0.005322
overli,0.003509
overproduct,0.009148
oversea,0.015688
oversight,0.003472
overstaf,0.005619
oversuppli,0.010285
overtak,0.008354
overtook,0.004382
overvalu,0.004160
ownership,0.002574
p,0.001673
pablo,0.004127
pace,0.011834
pacif,0.002541
packag,0.002779
paddi,0.004794
pakistan,0.005993
panel,0.006461
paradis,0.003927
pariti,0.006310
park,0.002562
parti,0.006776
partial,0.006050
particip,0.008647
particular,0.002744
particularli,0.007687
partner,0.011983
partnership,0.005518
parttim,0.007715
pass,0.001703
passeng,0.009786
past,0.003478
patent,0.002925
path,0.004445
pave,0.003100
pay,0.002046
payment,0.002362
pbc,0.023011
pc,0.010677
peak,0.004811
peanut,0.004239
pearl,0.006767
peasant,0.006113
peg,0.003755
pejor,0.003825
penalti,0.003279
penetr,0.002928
penni,0.003983
pension,0.006091
peopl,0.021756
perceiv,0.002204
percent,0.035229
percentag,0.004885
percept,0.002333
perform,0.004623
period,0.003907
permit,0.006698
person,0.005738
pervers,0.004194
peter,0.001999
petroleum,0.005636
pharmaceut,0.002986
phase,0.006324
phd,0.002832
phenomen,0.003809
phone,0.006257
phosphat,0.003389
piec,0.002420
pig,0.003269
pile,0.003868
pingan,0.006634
pipelin,0.003585
pirat,0.003492
pit,0.003472
place,0.017357
plan,0.033205
plant,0.017130
plastic,0.002947
plateau,0.003562
platform,0.002684
play,0.004748
player,0.002869
plenti,0.006894
plu,0.002466
point,0.002543
polici,0.030824
polit,0.008255
pollut,0.011796
pond,0.003874
poor,0.010838
poorer,0.007162
popul,0.026516
popular,0.003136
pork,0.024533
port,0.002477
portion,0.006608
portugues,0.002790
pose,0.008011
posit,0.002598
possess,0.001970
possibl,0.002564
potato,0.006678
potenti,0.013020
pound,0.003151
power,0.024443
powerhous,0.004517
ppp,0.007224
practic,0.004035
prawn,0.005506
prc,0.008133
pre,0.003652
predict,0.001839
predomin,0.002867
prefectur,0.004010
prefer,0.005775
preferenti,0.003492
premium,0.003214
prepar,0.002038
prepubl,0.010565
presenc,0.001901
present,0.003771
presid,0.003636
press,0.001479
pressur,0.001892
prestig,0.003323
prevent,0.003594
previou,0.001895
previous,0.005749
price,0.048387
priceswith,0.006634
primari,0.001659
primarili,0.006873
princip,0.005891
principl,0.001509
prior,0.001898
prioriti,0.010604
privat,0.016223
privatest,0.006634
probabl,0.001803
problem,0.010755
problemat,0.003029
process,0.005942
produc,0.039240
product,0.061580
productsservic,0.005142
profession,0.004074
profil,0.002714
profit,0.013032
program,0.015813
progress,0.001713
prohibit,0.002565
project,0.027999
promin,0.001971
promis,0.004724
promot,0.008966
properti,0.003044
proport,0.012471
prosper,0.002598
protect,0.001675
protection,0.004017
protest,0.002336
protocol,0.002842
prove,0.001940
proven,0.002655
provid,0.018961
provinc,0.039507
prowess,0.004258
public,0.010128
publish,0.009767
punish,0.002765
purchas,0.023519
purpos,0.003270
pursu,0.009145
push,0.002390
putzmeist,0.006634
pyrit,0.004667
qaidam,0.019904
qiantu,0.006634
qin,0.004003
qinghai,0.016682
qinl,0.006634
qualif,0.003194
qualiti,0.005619
quantiti,0.006142
quarter,0.007844
quarterli,0.006147
quickli,0.002046
quota,0.003440
radio,0.002573
rail,0.018983
railway,0.014874
raincaus,0.006634
rainfal,0.003459
rais,0.007417
rajiv,0.005209
ran,0.002814
rang,0.004527
rank,0.012734
rapid,0.026144
rapidli,0.023313
rare,0.004137
rate,0.049853
ratio,0.006801
ration,0.004333
raw,0.007802
rca,0.004775
rd,0.002251
reach,0.021063
read,0.001384
real,0.004964
realign,0.004211
realiz,0.002229
reason,0.001430
rebal,0.005282
rebound,0.003774
recapit,0.005081
receipt,0.010313
receiv,0.016755
recent,0.006903
recipi,0.009232
reclaim,0.003722
record,0.005041
recours,0.003951
recoveri,0.002654
recruit,0.002939
redress,0.004338
reduc,0.019635
reduct,0.006882
refer,0.001594
refineri,0.003695
reflect,0.001713
reforest,0.004856
reform,0.040955
regard,0.003059
regardless,0.002410
region,0.034265
regul,0.015099
regulatori,0.011037
reject,0.001965
rejuven,0.004370
rel,0.008577
relat,0.004299
relationship,0.003043
relax,0.003047
releas,0.009962
reli,0.001921
relianc,0.009590
reliev,0.003336
reloc,0.003286
reluct,0.003249
remain,0.018460
remaind,0.005917
remark,0.002445
remit,0.008497
remitt,0.007806
remot,0.005398
remov,0.001840
renew,0.013988
renminbi,0.041404
reorgan,0.003333
repaid,0.004239
repair,0.002838
replac,0.008123
report,0.015323
repres,0.002615
republ,0.011227
requir,0.015061
research,0.012934
reserv,0.038167
resist,0.002066
resolv,0.002315
resourc,0.027439
respect,0.006064
respond,0.004300
respons,0.006914
rest,0.003735
restaur,0.003540
restrict,0.012935
restructur,0.006298
result,0.015548
resum,0.003049
resumpt,0.004119
retail,0.020185
retriev,0.014212
return,0.001613
revalu,0.004545
reveal,0.002097
revenu,0.011630
review,0.014291
revis,0.002382
revit,0.003874
revolut,0.001975
revolution,0.003347
reward,0.002758
rice,0.015034
rich,0.016004
right,0.005722
rink,0.006634
rise,0.028878
risen,0.013433
risk,0.009808
river,0.019618
rmb,0.037257
road,0.009263
rock,0.002496
role,0.005586
room,0.002586
rose,0.009677
roughli,0.004473
rout,0.002400
rule,0.001455
rulesbas,0.005322
run,0.007008
rural,0.020627
russia,0.030461
russian,0.002334
s,0.038446
sach,0.003957
safeti,0.007709
said,0.008190
salari,0.002949
sale,0.025548
salt,0.008194
sani,0.005245
sanit,0.003592
satur,0.003616
save,0.002264
saw,0.001951
scale,0.003609
scatter,0.005888
scenario,0.002887
schedul,0.005299
school,0.006488
scienc,0.004022
scope,0.002343
scott,0.002950
screen,0.002944
sdr,0.010223
sea,0.010171
search,0.002040
season,0.002576
second,0.015702
secondlargest,0.007609
sector,0.060617
secur,0.020326
seek,0.001789
segment,0.002731
select,0.003467
sell,0.004510
sent,0.002209
separ,0.001456
septemb,0.007690
seri,0.001588
seriou,0.004466
serv,0.001587
servic,0.017087
set,0.006175
seventh,0.003217
sever,0.011567
sex,0.005521
shadow,0.006212
shale,0.004393
shandong,0.019793
shanghai,0.060256
shanxi,0.014845
share,0.013982
shark,0.003836
sharp,0.002694
sharpli,0.012546
sheep,0.003212
shellfish,0.004531
shenzhen,0.021634
shift,0.011593
ship,0.009048
shock,0.002725
shop,0.011899
short,0.001699
shortag,0.011581
shortfal,0.004177
shrank,0.003983
shuanghui,0.006634
siberian,0.004239
siberiapacif,0.006634
sic,0.011873
sichuan,0.027811
sichuanyunnan,0.006634
signific,0.011331
significantli,0.006138
silenciosa,0.006634
silver,0.002774
simpl,0.003526
sinc,0.025519
singl,0.001484
sit,0.002933
site,0.001869
situat,0.011958
sizabl,0.003736
size,0.008639
sizeabl,0.004151
skate,0.004856
skill,0.004275
skyrocket,0.004338
slide,0.003463
slightli,0.012024
slow,0.016035
slowdown,0.003990
small,0.008146
smaller,0.001886
smallscal,0.003428
smithfield,0.006260
sna,0.009848
soar,0.014386
social,0.007057
socialist,0.012411
societ,0.003120
societi,0.004170
socioeconom,0.006411
soe,0.004998
solar,0.010587
sold,0.007029
sole,0.006756
sometim,0.001444
soon,0.004069
sophist,0.005105
sorghum,0.008786
sought,0.004323
sourc,0.018144
south,0.012163
southeast,0.008149
southern,0.006178
southnorth,0.005683
southtonorth,0.006634
southwest,0.012457
southwestern,0.003463
soviet,0.002403
soybean,0.008337
spanish,0.002399
speak,0.002127
special,0.006938
specifi,0.002256
specul,0.002308
speed,0.002269
spend,0.011516
sphere,0.002483
spokesman,0.003996
sport,0.002635
spot,0.002777
spratli,0.005282
spur,0.003116
ssangyong,0.026538
st,0.003577
stabil,0.008277
stabl,0.002183
staff,0.002615
stage,0.001937
stagnant,0.003903
stake,0.003375
stand,0.002085
standard,0.007472
stapl,0.003512
start,0.009831
stat,0.004701
state,0.048544
statedirect,0.005322
statement,0.006111
stateoper,0.005619
stateown,0.029402
statesector,0.005683
station,0.007272
statist,0.029126
statu,0.001853
steel,0.058364
steep,0.003555
step,0.003763
stern,0.003789
stock,0.049237
stocknewsdesk,0.006634
stori,0.002249
storm,0.006216
strain,0.002758
strateg,0.009687
strategi,0.008267
strength,0.002250
strengthen,0.002509
stress,0.002275
strict,0.002578
strictur,0.004948
strife,0.003656
strike,0.002468
stringent,0.003740
strong,0.009673
strongli,0.002138
struck,0.003155
structur,0.006482
struggl,0.006978
student,0.003777
studi,0.010553
subdivid,0.003040
subject,0.002823
subscriberonli,0.006634
subsid,0.006583
subsidi,0.009272
subsist,0.006110
substanti,0.006179
success,0.004414
suffer,0.004050
sugar,0.002703
suggest,0.001553
suitabl,0.002463
sulfur,0.003262
summari,0.005340
summer,0.007700
sun,0.002461
superior,0.002469
supermarket,0.004037
supervis,0.002653
supplement,0.002747
suppli,0.021706
support,0.005277
surg,0.003425
surpass,0.015663
surplu,0.008758
survey,0.004265
surviv,0.001913
suspend,0.002758
sustain,0.008681
suv,0.005175
swallow,0.003779
swiftli,0.004104
switzerland,0.002843
synthet,0.005503
systemcombin,0.006634
tabl,0.004270
taiwan,0.006244
taken,0.001624
talc,0.005455
talent,0.006558
tandfcouk,0.013269
tanzania,0.003727
tap,0.007559
target,0.006198
tariff,0.009143
tarim,0.005175
tax,0.020853
taylor,0.005583
tcl,0.016093
tclthomson,0.006634
tea,0.007096
teach,0.002173
technic,0.001973
techniqu,0.001705
technolog,0.019197
telecom,0.004059
telecommun,0.005784
telegraph,0.003434
telephon,0.003033
televis,0.002501
tell,0.002499
tend,0.005466
tenur,0.003364
tenyear,0.004327
term,0.004193
terrain,0.003307
territori,0.001942
test,0.003627
text,0.003828
textil,0.015000
th,0.015267
theater,0.007170
thedebt,0.006634
theft,0.003704
themselv,0.001645
theoret,0.001819
theori,0.002601
therebi,0.002296
therefor,0.001508
thermal,0.002845
thi,0.029878
thing,0.003531
thinkpad,0.011660
thirteen,0.003328
thirteenth,0.003740
thomson,0.024130
thorough,0.003328
thought,0.006290
thousand,0.005870
threat,0.002327
threaten,0.005045
thrust,0.003903
thu,0.002594
tibet,0.003957
tie,0.002164
tiejun,0.006634
tight,0.003386
tighten,0.003699
timber,0.003323
time,0.018653
timet,0.004317
tin,0.006926
tobacco,0.006253
today,0.004782
togeth,0.001530
ton,0.048139
tong,0.004684
tonkin,0.005142
took,0.001733
topograph,0.003799
total,0.049542
tourism,0.033557
tourist,0.008871
toy,0.010896
trade,0.083467
traderel,0.004998
tradit,0.001397
traffic,0.002931
train,0.001916
trajectori,0.006619
transact,0.004778
transfer,0.005696
transform,0.003632
transmiss,0.005482
transpar,0.002839
transport,0.039946
travel,0.007837
treasuri,0.002949
treati,0.002317
treatment,0.002041
trend,0.014835
trillion,0.058763
troubl,0.002913
trough,0.004405
truck,0.003660
tsui,0.005282
tte,0.019904
tungsten,0.008193
turst,0.006634
tv,0.012272
twelvefold,0.005408
twenti,0.002729
twice,0.002644
twochild,0.005752
type,0.001334
typic,0.004465
uc,0.003951
ue,0.005209
uk,0.002033
uncertainti,0.002582
unclear,0.002914
underdevelop,0.003708
underemploy,0.004531
underestim,0.007408
undergo,0.002572
undergon,0.006926
understand,0.001506
undertook,0.003459
undervalu,0.004185
unemploy,0.012994
unequ,0.003447
unfair,0.003691
union,0.011541
unirrig,0.006634
unit,0.027979
univers,0.008044
unknown,0.002297
unless,0.002486
unlik,0.001847
unnam,0.004127
unport,0.005408
unproduct,0.004017
unrefin,0.005245
unregul,0.003921
unsophist,0.004814
uptod,0.004230
upward,0.003088
urban,0.020946
uri,0.004491
usc,0.004230
uschinainstitut,0.006634
usd,0.003325
use,0.015413
user,0.014769
ustrillion,0.006634
util,0.002007
valley,0.002566
valu,0.017065
valuabl,0.005209
valuat,0.003069
valuead,0.004096
van,0.002427
vanadium,0.004545
variat,0.004159
varieti,0.004998
variou,0.008842
vast,0.004456
veget,0.002648
vehicl,0.022674
vendur,0.006634
ventur,0.017534
veri,0.003801
version,0.003881
vice,0.002568
vie,0.004066
view,0.002844
vigor,0.003210
villag,0.007606
virtual,0.004388
volatil,0.002952
volum,0.009503
volvo,0.005683
vs,0.002679
vuitton,0.005916
wa,0.060956
wage,0.031696
wanda,0.005683
wangxiang,0.006634
want,0.014340
wanxiang,0.006634
warm,0.005671
warn,0.002668
warner,0.004088
washington,0.002442
water,0.015404
waterpark,0.006634
waterway,0.003809
way,0.005932
weak,0.002204
weaken,0.005558
wealth,0.002285
wealthier,0.004194
wealthiest,0.003885
websit,0.004196
wednesday,0.004327
week,0.004664
welcom,0.006124
welfar,0.002555
welloff,0.005081
wen,0.004491
went,0.006105
west,0.001905
western,0.011683
westtoeast,0.011121
wheat,0.009466
wholesal,0.006906
wholli,0.009685
wide,0.011432
widen,0.003453
widespread,0.002131
wikichina,0.006634
willing,0.003389
win,0.002495
wind,0.002636
wine,0.003122
winter,0.010998
wit,0.002702
withdrew,0.003118
wong,0.004491
woo,0.005142
work,0.011965
worker,0.018589
workforc,0.006240
world,0.082121
worldbank,0.005619
worldwid,0.011255
worldwideaft,0.006634
worri,0.006538
wors,0.006102
worsen,0.006625
worth,0.005024
wrong,0.002609
wto,0.020955
wuhan,0.010285
x,0.001964
xi,0.003419
xiaop,0.004794
xiaoqin,0.006634
xinhua,0.005683
xinjiang,0.018807
xuesong,0.006634
yangtz,0.028007
yard,0.003977
year,0.040313
yellow,0.006232
yield,0.008670
york,0.001708
youtub,0.003506
yoy,0.006127
yuan,0.053123
yunnan,0.009713
zealand,0.002638
zedong,0.004194
zhang,0.007529
zhejiang,0.009946
zinc,0.006991
zone,0.006880
