access,0.014933
accord,0.021584
african,0.018917
agricultur,0.048125
airport,0.023773
alway,0.014513
american,0.012228
ang,0.040703
ani,0.009511
antil,0.067008
aquat,0.029083
arriv,0.034748
attract,0.017366
avail,0.013193
bay,0.024373
beach,0.028193
becam,0.035686
becaus,0.029389
becom,0.010417
began,0.025989
built,0.016223
bureau,0.098460
busi,0.073352
cane,0.031701
censu,0.102234
central,0.012218
centuri,0.033577
certain,0.011929
climb,0.029500
coast,0.019893
coastlin,0.027113
colonist,0.029803
come,0.024934
commun,0.011398
complet,0.012039
conserv,0.017304
construct,0.026999
consum,0.017358
continu,0.010562
contribut,0.038385
cotton,0.026652
count,0.019882
criteria,0.021831
cruis,0.030878
csb,0.049893
cultur,0.013108
current,0.033481
damag,0.018813
decad,0.031694
defin,0.011964
depart,0.015285
design,0.012804
destin,0.024396
develop,0.017437
directli,0.014007
dive,0.031587
diver,0.036774
dock,0.032054
doe,0.011795
domest,0.018063
dormant,0.033157
driver,0.026721
dure,0.010035
dutch,0.042822
econom,0.011486
economi,0.057335
ecosystem,0.023806
ecotourist,0.053576
educ,0.013371
electr,0.017354
enabl,0.016644
englishmen,0.044012
enslav,0.030033
especi,0.012187
estim,0.014769
european,0.013072
eustatiu,0.040389
exclud,0.019744
expand,0.014847
export,0.019253
extend,0.013844
farmer,0.022215
ferri,0.031974
financi,0.014983
fish,0.019582
fishermen,0.033453
fort,0.027670
foundat,0.014635
ga,0.018882
gdp,0.021107
gone,0.024905
govern,0.021345
grew,0.018755
gross,0.021943
group,0.020247
grown,0.021614
ha,0.052385
haven,0.028416
health,0.015646
healthi,0.024505
help,0.012286
hike,0.036278
histori,0.009347
hotel,0.027022
howev,0.018217
illicit,0.033871
import,0.028716
includ,0.015581
increas,0.010792
increasingli,0.016545
independ,0.023054
indigo,0.036045
indirectli,0.024186
industri,0.038430
inform,0.011157
infrastructur,0.019002
intern,0.009834
island,0.116441
job,0.019381
juancho,0.050631
known,0.009377
lace,0.164818
land,0.014201
largest,0.015497
late,0.012991
life,0.012061
likewis,0.022223
limit,0.011458
livestock,0.026484
low,0.014379
mail,0.058787
make,0.019081
mani,0.016960
manufactur,0.017892
marin,0.042956
market,0.014044
martin,0.019859
mass,0.015386
medicin,0.017888
men,0.017397
mile,0.021808
million,0.014736
mln,0.044012
nation,0.010396
nearbi,0.023089
necessari,0.014951
netherland,0.065591
number,0.018771
offici,0.028487
onli,0.008636
opportun,0.017721
order,0.010338
park,0.043855
peopl,0.010343
period,0.011147
pier,0.034928
place,0.010610
popul,0.013348
possibl,0.010973
potato,0.028576
primarili,0.014705
product,0.022425
progress,0.014662
quarter,0.022377
reach,0.013866
recent,0.011815
reef,0.089838
refer,0.006822
region,0.012218
regul,0.016152
remain,0.022568
restaur,0.030302
rock,0.021366
rocki,0.032603
s,0.009677
saba,0.860333
saint,0.022815
sale,0.019876
school,0.013881
scuba,0.074254
sea,0.017409
section,0.016906
sector,0.035776
sell,0.019301
servic,0.079762
settl,0.019391
settler,0.025674
ship,0.019359
shipwreck,0.034436
shop,0.025459
shore,0.025943
sinc,0.009495
slow,0.019604
small,0.046478
smallest,0.024714
social,0.012079
sold,0.020052
spare,0.029554
squar,0.020118
st,0.015307
state,0.008308
statist,0.062315
steadili,0.025049
subsequ,0.014818
subsid,0.028172
suffer,0.017331
sugar,0.046276
support,0.011290
surround,0.017389
taxi,0.036860
th,0.021776
thi,0.028410
thrive,0.026287
tobacco,0.026756
togeth,0.013094
took,0.014834
total,0.026498
tourism,0.088361
tourist,0.126528
trade,0.027473
transport,0.016278
travel,0.033534
unit,0.009577
univers,0.009834
unknown,0.019660
veget,0.022668
vendor,0.032516
veri,0.010844
volcano,0.028085
wa,0.015571
water,0.029295
websit,0.017955
women,0.036144
work,0.009309
world,0.009627
year,0.019166
yearli,0.028150
yrausquin,0.051468
