abandon,0.004829
abbrevi,0.006297
abe,0.028708
abenom,0.011650
aberr,0.008127
abl,0.006531
abroad,0.005614
abrupt,0.007931
absenc,0.004753
abund,0.005243
accept,0.003245
access,0.003577
accord,0.002585
account,0.030451
achiev,0.003252
acquir,0.004211
acquisit,0.005590
acr,0.006919
act,0.008864
activ,0.010319
ad,0.006599
addit,0.005231
adopt,0.003567
adulthood,0.008088
advanc,0.006386
advantag,0.008026
adventur,0.006486
advoc,0.004438
affair,0.004275
affect,0.003378
age,0.016189
ago,0.005009
agre,0.003898
agricultur,0.049957
aid,0.003878
aim,0.007383
airlin,0.006581
airport,0.039865
alessandro,0.007897
alli,0.009550
allianc,0.014506
alloc,0.005159
allow,0.010284
alreadi,0.007533
alumina,0.009675
amakudari,0.027202
amaz,0.008336
amberjack,0.013601
america,0.007246
analysi,0.003116
ani,0.015950
anim,0.010856
announc,0.004341
annual,0.019858
anoth,0.012433
appear,0.002994
appl,0.013466
appli,0.005527
appoint,0.004250
approxim,0.003523
april,0.007910
aquacultur,0.017921
arabia,0.006324
arabl,0.007908
archiv,0.004758
area,0.023111
argu,0.003439
arm,0.004122
armi,0.004447
arriv,0.004162
art,0.003955
articl,0.003072
asakusa,0.013601
asia,0.017757
asian,0.014776
aspect,0.010194
assembl,0.004036
asset,0.014338
associ,0.007577
astronomi,0.005804
atla,0.006062
atmospher,0.005064
attack,0.004168
attempt,0.005898
attract,0.004160
author,0.002911
automobil,0.032387
averag,0.023170
away,0.003938
b,0.003424
bad,0.010607
bail,0.009054
bailout,0.008598
bakufu,0.011952
ban,0.005209
bank,0.082257
banker,0.007060
bankruptci,0.006748
barbarian,0.008114
barrel,0.021690
barrier,0.005260
base,0.015769
bastion,0.008851
bautista,0.010479
bauxit,0.009180
bbl,0.010753
bbld,0.019579
becam,0.014248
becaus,0.007040
becom,0.007486
beet,0.008893
befor,0.013312
began,0.018677
begin,0.006079
begun,0.009913
belt,0.013592
besid,0.005333
best,0.006872
big,0.004720
biggest,0.017558
billion,0.017712
biochemistri,0.006196
birth,0.004593
birthrat,0.020836
blackmail,0.019826
blinder,0.010302
blue,0.005556
blur,0.007259
boat,0.012429
bond,0.004452
book,0.005925
boom,0.005914
borrow,0.005174
bouncer,0.013601
bream,0.011793
breed,0.006251
breton,0.009234
bring,0.007751
bubbl,0.026140
budget,0.004879
build,0.006597
built,0.019432
bureaucrat,0.013816
busi,0.056229
busiest,0.009603
businessman,0.008001
buy,0.004931
cabinet,0.005245
cafe,0.009913
calcul,0.003978
came,0.003413
capit,0.006791
capita,0.022667
captur,0.004287
car,0.027586
career,0.015366
cargo,0.006967
carri,0.006731
cash,0.005218
castl,0.014159
catch,0.012571
catfish,0.009870
caught,0.012860
caus,0.011147
center,0.026641
centrair,0.013601
central,0.014634
centuri,0.010724
ceo,0.007454
cereal,0.007698
certain,0.005715
certif,0.006068
challeng,0.011189
chang,0.009416
characterist,0.003598
chart,0.011895
chbu,0.013601
chemic,0.007951
chief,0.004348
children,0.004294
china,0.020057
chines,0.013464
chip,0.007009
chkytkai,0.013601
christian,0.004046
chub,0.012329
circul,0.005463
citi,0.014423
citizen,0.004273
claim,0.006339
clam,0.009347
cleric,0.007557
clockwatch,0.012560
close,0.005587
cluster,0.005729
coal,0.018266
coast,0.004765
coastal,0.005692
coinag,0.007405
coincid,0.005617
collaps,0.004599
collar,0.008336
collect,0.003046
combin,0.005955
commerc,0.015610
commerci,0.004000
commiss,0.004157
commod,0.015204
common,0.002525
commonli,0.003467
commun,0.005461
compani,0.079138
compania,0.012128
compar,0.003088
comparison,0.013136
compet,0.004305
competit,0.016425
complexli,0.012329
composit,0.004329
comprehens,0.004599
concentr,0.004086
concern,0.008795
concert,0.007041
condit,0.002922
conduct,0.007158
confeder,0.018699
conglomer,0.007799
connect,0.010314
consensu,0.005209
consent,0.006409
consequ,0.003551
conservat,0.007886
consid,0.014612
consider,0.010528
consist,0.005590
construct,0.003233
consum,0.008316
consumpt,0.034095
contact,0.008764
contain,0.002995
continu,0.015182
contract,0.012567
contribut,0.003065
control,0.005549
controversi,0.004115
conveni,0.005575
converg,0.005501
convert,0.008514
cool,0.005850
cope,0.006702
copi,0.005034
copper,0.011598
corpor,0.065557
corrupt,0.005127
council,0.003807
count,0.009525
countermeasur,0.009502
counterpart,0.005599
countri,0.063210
cours,0.003639
cover,0.006876
cpibas,0.013601
crab,0.016414
cracker,0.010479
craftsmanship,0.009470
crash,0.006211
crayfish,0.010911
creat,0.002554
creation,0.003801
creditor,0.007288
crop,0.015489
crowd,0.006508
crude,0.013116
crustacean,0.008292
cultiv,0.016001
cultur,0.015700
cup,0.007009
currenc,0.004576
current,0.018714
custom,0.004222
cut,0.004433
daiichi,0.022799
daimyo,0.022577
dairi,0.007688
data,0.003332
databas,0.004885
date,0.003490
day,0.012605
dean,0.006807
death,0.014630
debt,0.029056
decad,0.022777
decemb,0.007664
decid,0.012209
decis,0.003521
declin,0.015860
deduct,0.006042
deepmin,0.012560
deepsea,0.009234
defeat,0.004941
defens,0.004583
deficit,0.005796
deflat,0.030676
dejima,0.011288
del,0.006305
delay,0.005333
deliveri,0.006035
demand,0.007456
dens,0.005944
depart,0.036616
depend,0.011022
deplet,0.006517
deposit,0.019776
depto,0.013601
deriv,0.003175
descent,0.005991
describ,0.002570
desir,0.003930
desper,0.007381
despit,0.010623
destin,0.005844
develop,0.037594
developmentl,0.012834
did,0.003100
differ,0.002213
difficult,0.018212
diffus,0.005705
digit,0.004663
directli,0.003355
director,0.010042
disadvantag,0.006193
disast,0.005769
dismantl,0.014637
dispers,0.005731
display,0.004746
diversifi,0.012649
divid,0.003311
documentari,0.006417
doe,0.005651
doijtbx,0.009078
dollar,0.014639
domest,0.030289
domin,0.006873
doubl,0.004623
dozen,0.005841
dramat,0.004716
drive,0.004487
dual,0.005887
dualism,0.007266
dure,0.026443
dutch,0.010258
earli,0.007544
earlier,0.003715
earn,0.004725
earnest,0.007931
earth,0.003947
earthquak,0.006368
eas,0.023153
easier,0.005383
easili,0.004307
east,0.003865
echigoya,0.013601
econom,0.110061
economi,0.092710
economist,0.014161
edo,0.074548
educ,0.003203
eel,0.009154
effect,0.014655
effort,0.003482
egg,0.006082
electr,0.037416
electron,0.008414
element,0.003197
elimin,0.013044
embassi,0.006225
emerg,0.009667
emperor,0.005545
employ,0.010005
employe,0.015804
en,0.006178
enabl,0.003987
enact,0.005573
encourag,0.016530
end,0.013744
energi,0.024638
energyeffici,0.011088
engineeringori,0.012834
englishspeak,0.006890
enjoy,0.014360
ensur,0.004130
enter,0.003675
enterpris,0.028395
entir,0.003261
entiti,0.017064
entrepreneur,0.006332
entri,0.004863
environ,0.003332
equal,0.003424
equip,0.013485
equiti,0.011506
era,0.003972
erad,0.007311
eru,0.012834
especi,0.005839
essenti,0.006990
est,0.034926
establish,0.008049
estat,0.032113
estim,0.014152
eu,0.005474
europ,0.017046
european,0.018789
event,0.003271
eventu,0.003573
everi,0.003146
exampl,0.004503
exceed,0.005280
excel,0.005439
excess,0.004858
exchang,0.071083
exclud,0.004729
exclus,0.004295
execut,0.007617
exemplifi,0.006405
exist,0.002500
expand,0.007113
expans,0.008484
expect,0.020726
experi,0.006183
experienc,0.004513
explain,0.003384
exploit,0.004680
explor,0.003830
export,0.036898
express,0.003257
extend,0.003316
extens,0.006790
extern,0.003932
extort,0.008634
extract,0.004839
extrem,0.003606
face,0.018868
facil,0.004819
facsimil,0.008960
fact,0.006384
factor,0.006375
factori,0.005501
fail,0.003780
fall,0.003432
fallen,0.006108
famili,0.003481
familycontrol,0.012834
far,0.003409
farm,0.015049
farmer,0.005321
farther,0.007022
favor,0.008305
fee,0.005884
feedback,0.006105
femal,0.005048
ferment,0.007381
feudal,0.006495
fewer,0.010663
fiber,0.006530
field,0.002745
fierc,0.006913
fifth,0.010708
figur,0.003723
file,0.005612
final,0.003252
financ,0.007968
financi,0.007178
firm,0.017962
fiscal,0.011400
fish,0.084438
fisheri,0.034172
fix,0.003990
fleet,0.012091
fli,0.005612
flood,0.005935
flourish,0.005533
fluctuat,0.011229
focus,0.006999
fodder,0.009318
follow,0.008602
food,0.011608
foodstuff,0.007758
forb,0.007273
forc,0.013473
forecast,0.005923
foreign,0.024499
foreignexchang,0.010248
forest,0.015511
forestri,0.006985
form,0.010275
formal,0.006728
forth,0.005465
fortun,0.006098
forward,0.009545
fossil,0.005827
foundat,0.007011
fourth,0.014073
fourthlargest,0.009712
fraction,0.005262
free,0.006141
freelanc,0.009078
freeter,0.027202
frequent,0.007559
freshwat,0.021318
fruit,0.005327
fudasashi,0.012560
fuel,0.019929
fukuoka,0.033555
fukushima,0.010095
fulltim,0.014319
function,0.002752
fund,0.007414
furt,0.013601
futur,0.003274
fuyo,0.013601
g,0.003637
ga,0.018093
gaikokujin,0.012560
gain,0.003270
galleontyp,0.012560
gateway,0.015456
gather,0.004687
gave,0.003912
gdp,0.065733
gener,0.013523
genki,0.013601
geographi,0.004948
gift,0.006068
gild,0.009129
ginza,0.023904
given,0.008089
global,0.014281
goal,0.003698
gobi,0.010195
gold,0.009350
gone,0.005966
good,0.020923
gourmet,0.010359
govern,0.056246
grade,0.006270
gradual,0.012965
grain,0.005841
great,0.003030
greater,0.003386
greatest,0.004731
grew,0.008985
grime,0.010248
gross,0.010513
group,0.009700
grow,0.013790
grown,0.010355
growth,0.078271
guarante,0.004931
guid,0.007602
guidanc,0.006062
ha,0.071709
half,0.018504
han,0.005373
handicraft,0.024581
hankyu,0.013601
hankyutoho,0.013601
hanshin,0.013601
hard,0.004412
harvest,0.011920
hasekura,0.012128
hatcheri,0.011952
head,0.003470
heart,0.004934
heat,0.004740
heater,0.009712
heaven,0.006438
heavi,0.004646
held,0.003178
help,0.005886
hi,0.007231
hierarchi,0.005478
high,0.013611
higher,0.012784
highest,0.020585
highli,0.007078
highprofil,0.008277
highspe,0.007977
hightech,0.008088
highwag,0.011185
himeji,0.012834
hire,0.005870
histor,0.006040
histori,0.011196
historia,0.007718
hit,0.005566
hokkaido,0.011793
home,0.011517
homemak,0.010679
honda,0.009377
honsh,0.011952
hope,0.009155
horizont,0.018600
hors,0.005807
hostil,0.005575
hot,0.005920
hotel,0.006473
hour,0.009448
hous,0.003606
household,0.005348
howev,0.017455
httpdatabankworldbankorgdataviewsreportsreportwidgetcustomaspxreportnametablecsddsiddafad,0.013601
huge,0.005000
human,0.002590
humili,0.008292
hybrid,0.016851
hydro,0.008207
hydroelectr,0.007789
hz,0.018468
ict,0.008598
ignor,0.004663
ii,0.017592
illeg,0.005417
illustr,0.004584
imf,0.011775
immedi,0.003952
immigr,0.010700
implement,0.003743
import,0.052739
improv,0.023159
inadequ,0.006384
inaugur,0.012422
includ,0.024262
incom,0.028825
increas,0.015512
increasingli,0.007927
independ,0.008284
index,0.008542
india,0.004116
indic,0.016536
indoor,0.008249
induc,0.005323
industri,0.107406
inexpens,0.007303
inflat,0.030379
inflationari,0.007708
influenc,0.005922
inform,0.005345
infrastructur,0.009104
inhabit,0.004673
initi,0.011684
inland,0.012903
innov,0.009313
inspir,0.004448
instanc,0.007282
instead,0.006298
institutionalis,0.009261
instrument,0.004139
insur,0.010366
integr,0.009733
intend,0.004162
intens,0.004465
intensifi,0.006590
interact,0.003354
interlock,0.008938
intermediari,0.006823
intern,0.028271
intraasian,0.012560
introduct,0.003564
invest,0.019139
iron,0.014445
island,0.007969
isol,0.004365
itc,0.008001
januari,0.011510
japan,0.658010
japanes,0.338171
jesu,0.006585
job,0.018571
joretsu,0.013601
jr,0.011421
juan,0.006618
juli,0.003883
june,0.007833
junichir,0.012834
kaizen,0.054985
kan,0.009502
kangyo,0.013601
kansai,0.035856
kant,0.013007
karshi,0.051338
kddi,0.013601
keihin,0.013601
keio,0.011288
keiretsu,0.188499
kerosen,0.009347
key,0.003421
kilolit,0.013601
kilomet,0.006796
kimono,0.037682
kind,0.003581
kintetsu,0.013601
kitakysh,0.013601
km,0.005059
knowhow,0.009103
known,0.004492
kobe,0.033264
koizumi,0.023904
korea,0.010852
koy,0.012834
krogh,0.008748
krueger,0.010359
krugman,0.033655
kwh,0.032829
kyoto,0.033169
kysh,0.011399
la,0.008974
labor,0.035309
labour,0.004550
lack,0.010282
ladi,0.014319
land,0.013607
languag,0.006757
larg,0.018951
larger,0.007095
largescal,0.010475
largest,0.103950
late,0.018672
later,0.002673
law,0.016246
lay,0.005058
lead,0.010727
leader,0.003930
lean,0.007341
leav,0.003806
led,0.014504
lefthand,0.008671
lent,0.007429
level,0.010751
levi,0.006316
liabil,0.006316
life,0.008668
lifestyl,0.006401
lifetim,0.005755
like,0.002400
limit,0.002745
limitedaccess,0.013601
line,0.009650
link,0.003908
liquefi,0.018468
list,0.002499
lit,0.007488
liter,0.010337
litig,0.007954
littl,0.006880
live,0.005812
loan,0.020859
local,0.015221
long,0.008755
longer,0.007414
longterm,0.014189
look,0.003711
loosen,0.008445
lose,0.004727
lost,0.011717
low,0.031001
lowest,0.010692
luxuri,0.013486
m,0.003214
machin,0.008679
machineri,0.011085
mackerel,0.010359
macroeconom,0.006072
magnesium,0.007688
main,0.008536
mainli,0.003731
maintain,0.006267
major,0.042920
make,0.015998
maker,0.018600
male,0.005041
man,0.003976
manag,0.019313
mandarin,0.009347
manga,0.036218
mani,0.032503
manufactur,0.042861
map,0.008223
march,0.003727
marco,0.007799
marin,0.005145
markedli,0.007688
market,0.084107
marri,0.005634
massiv,0.014347
massproduc,0.008563
materi,0.009448
mathemat,0.003533
matsuzakaya,0.027202
mazda,0.009712
md,0.033263
mean,0.004950
measur,0.005887
meat,0.006236
mechan,0.003319
media,0.004122
medic,0.004138
medicin,0.004285
mediums,0.008367
meet,0.007273
meetingmen,0.013601
meiji,0.044255
member,0.005735
membership,0.004950
merchant,0.005337
merg,0.016239
metal,0.004677
metalbear,0.012834
metalsmith,0.012560
method,0.005567
metric,0.006035
metropolitan,0.006829
mid,0.013426
middl,0.003705
middleclass,0.007688
mideighteenth,0.010479
midth,0.005545
mild,0.006937
million,0.045892
miner,0.019903
minim,0.009487
minist,0.012165
ministri,0.009665
miracl,0.021048
mitsubishi,0.030433
mitsui,0.047808
mitsukoshi,0.013601
mizuho,0.012560
model,0.008398
modern,0.010783
monetari,0.014454
money,0.032133
moneylend,0.010144
monitor,0.004860
monopoli,0.005758
monthli,0.012252
motor,0.005796
mountain,0.004835
music,0.004939
nagamasa,0.012560
nagoya,0.053765
nanban,0.023587
naoto,0.012560
narita,0.012834
narrow,0.005075
nation,0.039846
nationwid,0.013658
nativ,0.004645
natur,0.016795
nd,0.012545
near,0.007390
nearli,0.007829
necessit,0.007237
need,0.005403
nemawashi,0.025669
nenko,0.027202
net,0.023622
network,0.003757
new,0.012045
newli,0.004728
newspap,0.011127
nikkei,0.040992
nissan,0.010679
nomin,0.009382
nomura,0.011088
nonetheless,0.005621
noneuropean,0.008748
norm,0.005212
normal,0.003582
north,0.007137
northern,0.008403
northward,0.007640
note,0.002591
notion,0.004252
noun,0.007073
novemb,0.004031
ntt,0.010997
nuclear,0.032146
number,0.006745
numer,0.003329
observ,0.002966
occas,0.005590
occup,0.004683
oceango,0.010359
octob,0.007772
oecd,0.013305
offer,0.003342
offic,0.014470
offici,0.006824
offshor,0.013106
oi,0.010302
oil,0.022429
ol,0.020836
old,0.003718
older,0.004716
olymp,0.006785
onc,0.003358
onli,0.010344
onlin,0.003933
onward,0.005697
open,0.003076
oper,0.005670
opportun,0.008490
oppos,0.003755
optic,0.016220
option,0.004689
optoelectron,0.010359
orang,0.006717
order,0.004953
ore,0.019316
organ,0.004902
orient,0.004683
oriental,0.009913
origin,0.002490
osaka,0.057623
osakakobekyoto,0.013601
ostens,0.007281
outlook,0.006443
outpac,0.009078
outperform,0.007831
output,0.009382
outsid,0.003428
outstand,0.006146
overal,0.012340
oversaw,0.007758
overview,0.009006
overwork,0.010095
owe,0.005469
ownership,0.005278
oyatoi,0.012560
pacif,0.010418
paid,0.004582
painstak,0.010248
palac,0.006426
paper,0.007416
parasit,0.006652
parent,0.010123
pariti,0.012937
particular,0.002813
particularli,0.003151
pass,0.003491
passeng,0.020062
patent,0.005997
paul,0.007813
pave,0.006356
peak,0.004931
peasant,0.006266
peopl,0.022301
perceiv,0.004519
percent,0.013541
percentag,0.010016
perform,0.003159
period,0.056079
perman,0.004355
person,0.005881
pertain,0.006214
peter,0.004098
petroleum,0.023109
phase,0.004321
phenomena,0.004291
philosophi,0.003826
physic,0.005881
pink,0.008140
pirat,0.007159
place,0.005083
plan,0.006807
plane,0.005413
plant,0.003901
plu,0.005056
point,0.005214
polici,0.029933
polit,0.005641
politician,0.005391
pollock,0.009261
polo,0.008563
popul,0.022383
popular,0.012861
porcelain,0.008983
pork,0.008382
port,0.025392
portabl,0.007496
portfolio,0.006182
portugues,0.011442
pose,0.005474
posit,0.013317
possess,0.004038
possibl,0.005257
post,0.004361
postal,0.006919
postwar,0.024449
poultri,0.007977
power,0.029011
ppp,0.014810
practic,0.008272
preciou,0.006764
precis,0.004245
predict,0.007541
predominantli,0.005721
prefectur,0.041106
preindustri,0.008478
prepar,0.004179
presenc,0.007794
present,0.007730
pressur,0.003879
prestig,0.006812
prestigi,0.007326
preval,0.005674
prevent,0.003684
previou,0.003886
prewar,0.015436
price,0.030522
primari,0.003401
primarili,0.003522
prime,0.012422
princeton,0.005689
principo,0.012560
print,0.004839
privat,0.033258
proactiv,0.008511
probusi,0.011185
process,0.017054
produc,0.008044
product,0.069837
profess,0.005385
professor,0.004606
profound,0.005879
program,0.009725
progress,0.007025
progresso,0.011520
prohibit,0.005258
project,0.012755
promin,0.004041
promis,0.004842
promot,0.033087
prompt,0.005641
propos,0.003179
protect,0.006869
prototyp,0.006647
prove,0.003977
provid,0.009146
proxim,0.005956
public,0.018168
publicli,0.011030
punctual,0.011520
punish,0.005669
purchas,0.017532
purpos,0.003352
push,0.004900
qa,0.009154
quadrillion,0.009829
qualif,0.006548
qualiti,0.003839
quantit,0.014364
quantiti,0.004197
quarter,0.010721
quarterli,0.006301
quasicommerci,0.013601
quietli,0.008292
quit,0.004355
race,0.005063
racecours,0.011793
racket,0.009502
raid,0.006136
rail,0.006486
railroad,0.006633
railway,0.030494
rais,0.015205
ran,0.005769
rang,0.003093
rangaku,0.011088
rank,0.021756
rapid,0.004466
rapidli,0.008689
rare,0.008482
rate,0.076651
ratesjapanes,0.013601
ratio,0.004647
raw,0.015995
rd,0.004614
real,0.020354
rebound,0.007738
receiv,0.006245
recent,0.005660
recess,0.011700
record,0.003445
recoveri,0.021765
red,0.004530
reduc,0.009289
refer,0.004903
reform,0.023988
region,0.035123
regul,0.003869
reintegr,0.008653
reinterlink,0.013601
rel,0.002930
relat,0.006611
relationship,0.012479
reli,0.003938
religi,0.004175
reluct,0.006662
remov,0.003773
renaiss,0.005404
renew,0.004779
rengo,0.012834
renown,0.006973
repeat,0.004717
report,0.006282
repres,0.002681
republ,0.007672
requir,0.007719
research,0.005303
reserv,0.017388
resort,0.006065
resourc,0.023162
respond,0.004408
rest,0.003829
restor,0.009244
restrict,0.003788
result,0.002276
retail,0.005911
retir,0.016684
review,0.003662
reviv,0.005194
rice,0.055480
rich,0.014061
richest,0.007126
right,0.005866
rise,0.023023
rival,0.005400
river,0.008937
road,0.018990
robot,0.006058
robust,0.005920
role,0.002863
root,0.008257
rose,0.004959
run,0.007183
rural,0.010571
s,0.048681
said,0.003358
sakoku,0.011399
salari,0.024182
salaryman,0.051338
sale,0.004761
salmon,0.016527
san,0.005190
sanwa,0.027202
sapporo,0.022176
sarakin,0.040804
sararman,0.012834
sardin,0.011288
saudi,0.006662
sauri,0.013601
save,0.009283
scenario,0.005920
school,0.003325
scienc,0.013744
sea,0.008340
seafood,0.008938
seal,0.006129
second,0.034873
secondlargest,0.007799
secretari,0.005340
sector,0.038566
secur,0.006945
seibu,0.027202
selfsuffici,0.013736
sell,0.004623
semiconductor,0.014265
sendai,0.011288
senior,0.005417
senioritybas,0.013601
sent,0.004530
sentiment,0.006352
septemb,0.003941
seri,0.006512
serv,0.003253
servic,0.015922
set,0.007595
seto,0.012560
setouchi,0.013601
seven,0.008578
sever,0.011857
share,0.006370
sharehold,0.026437
shark,0.007864
shibuya,0.012834
shikoku,0.012329
shinjuku,0.012834
shinkansen,0.013601
shinz,0.024658
shinzo,0.011088
ship,0.027826
shipyard,0.009535
shizuoka,0.012834
shock,0.005587
shoe,0.007549
shop,0.006098
short,0.003485
shrimp,0.008462
shrink,0.014333
shshin,0.013601
shunt,0.010610
sign,0.003745
signific,0.005807
silk,0.006790
silver,0.011374
similar,0.002716
sinc,0.013647
singl,0.009132
situat,0.003502
skai,0.012834
skaiya,0.027202
ski,0.009470
skill,0.008764
skipjack,0.010997
slaveri,0.005994
slow,0.004696
slower,0.006535
sluggish,0.009290
small,0.008350
smallers,0.012128
smallest,0.005920
smallscal,0.007028
social,0.002893
societi,0.005700
softbank,0.012834
sohyo,0.013601
solar,0.005426
sold,0.014411
someon,0.005313
someth,0.004373
sometim,0.002961
somewhat,0.004822
soni,0.009030
sophist,0.010467
sourc,0.022890
south,0.007124
southern,0.004221
southward,0.007612
southwest,0.006384
southwestern,0.007099
soybean,0.008545
spark,0.006019
speci,0.008367
special,0.005689
specif,0.002721
spectacular,0.007920
specul,0.004732
speed,0.004651
spell,0.006278
spend,0.018887
spread,0.012062
squid,0.008445
st,0.007333
stabil,0.004242
stabl,0.008953
staff,0.005362
stagnat,0.006812
standard,0.006127
start,0.017276
state,0.013932
station,0.009939
statist,0.007463
steadyst,0.008616
stem,0.005113
step,0.007714
stimul,0.010181
stimulu,0.006662
stock,0.074606
stop,0.004494
store,0.069128
strategi,0.012712
street,0.005190
stress,0.004664
stroke,0.007266
strong,0.019831
structur,0.005315
student,0.007743
studi,0.012019
su,0.006991
subject,0.002893
subsid,0.006748
subway,0.009535
succeed,0.004650
success,0.009049
successor,0.005109
sudden,0.006512
sugar,0.005542
suggest,0.006369
suitabl,0.005049
sumitomo,0.047808
summari,0.005474
summer,0.005262
supermarket,0.008277
suppli,0.025958
support,0.008113
suppos,0.004998
surfac,0.004118
surpass,0.025688
surplu,0.011969
surrend,0.006266
surround,0.012497
survey,0.013117
sustain,0.008898
suzuki,0.009030
tabl,0.004377
tacit,0.008207
tackl,0.007003
taiheiy,0.013601
taken,0.003330
takeov,0.007041
tale,0.006539
talent,0.006722
talk,0.004894
tankan,0.013601
target,0.008470
tariff,0.018744
task,0.004219
tax,0.047025
taxi,0.008830
tea,0.007273
teach,0.004456
techniqu,0.013982
technolog,0.013118
telecommun,0.005929
templ,0.006013
tepco,0.013601
term,0.012896
termini,0.011088
terrac,0.008809
textil,0.006150
th,0.015650
theodor,0.006225
therefor,0.009275
thi,0.022118
thirdlargest,0.008938
thousand,0.008023
threaten,0.005172
threemast,0.012560
threequart,0.008075
thu,0.005318
ticket,0.007650
tie,0.004437
tier,0.008140
timber,0.006812
time,0.014088
tkai,0.011650
today,0.003267
togeth,0.003136
toil,0.009407
tokugawa,0.009377
tokyo,0.100921
tokyomitsubishi,0.011952
toll,0.007251
tollcollect,0.012834
ton,0.049344
tonn,0.007522
tonnag,0.009207
took,0.003553
topix,0.011952
topthre,0.013169
total,0.038086
tourism,0.010583
tourist,0.006062
town,0.009342
toyota,0.027622
trade,0.062521
trader,0.005599
traffic,0.006010
train,0.011784
transfer,0.003892
translat,0.007832
transport,0.027297
trap,0.005960
travel,0.008033
treati,0.004750
trend,0.013034
trillion,0.025361
trout,0.010047
tsukiji,0.013601
tsunenaga,0.012128
tuna,0.024622
turn,0.003144
turnov,0.007311
type,0.008204
typic,0.003051
uae,0.008709
ufj,0.023040
underemploy,0.009290
undertook,0.007092
unemploy,0.015983
unfortun,0.006558
union,0.027042
uniqu,0.003878
unit,0.013766
univers,0.002355
unlik,0.003788
unmarri,0.009006
unpopular,0.007230
unsteadi,0.010753
urban,0.019084
urgent,0.007738
usa,0.005078
usd,0.006818
use,0.020445
usual,0.021899
util,0.004115
valignano,0.011793
valu,0.011662
valuead,0.008398
vanish,0.006672
vari,0.003353
varieti,0.006831
veget,0.005430
vehicl,0.020659
veri,0.007793
vertic,0.023539
vessel,0.005538
video,0.005006
view,0.005831
visa,0.007397
visit,0.009140
visitor,0.031110
volatil,0.006052
volcan,0.013052
volt,0.016956
volum,0.007793
w,0.003816
wa,0.074605
wadokei,0.012560
wage,0.029990
wak,0.011288
war,0.016156
warship,0.007446
wast,0.005456
way,0.004864
weaker,0.006477
welfar,0.005239
west,0.003905
western,0.013686
westernbas,0.011650
westernstyl,0.017497
whale,0.014172
wheat,0.012937
whi,0.004185
whitecollar,0.010418
wholesal,0.014159
wide,0.005859
william,0.003645
winter,0.005636
withstand,0.007778
womenand,0.013601
womenom,0.013601
word,0.006315
work,0.020070
worker,0.025406
workplac,0.007139
world,0.087636
worldwid,0.004614
worn,0.007886
woven,0.008351
wring,0.012128
y,0.004844
yakuza,0.012834
yamada,0.010195
year,0.018365
yen,0.060572
yield,0.008887
yokohama,0.024257
young,0.004223
zaibatsu,0.033866
zero,0.004783
zeror,0.011185
