access,0.009635
advantag,0.010810
advertis,0.032728
affect,0.018201
analog,0.024888
analysi,0.033580
ani,0.006137
anoth,0.020094
answer,0.012400
applic,0.016634
arc,0.037436
away,0.010608
basic,0.008447
becaus,0.012642
befor,0.007171
behavior,0.009850
bond,0.011993
bring,0.020878
burden,0.016028
buy,0.026568
calculu,0.015696
captur,0.011547
case,0.014064
caus,0.015013
causal,0.015658
ceteri,0.025685
chang,0.145837
choic,0.011050
coeffici,0.016232
collect,0.008204
common,0.006801
complement,0.016585
concept,0.023549
condit,0.007870
constant,0.022366
consum,0.044802
consumpt,0.026239
contrast,0.009502
crosspric,0.070946
crucial,0.013693
curv,0.027679
d,0.009106
data,0.008977
decis,0.009484
decreas,0.011077
definit,0.017789
demand,0.190815
demonstr,0.010111
depend,0.007422
determin,0.007811
differ,0.023853
differenti,0.011390
discret,0.013267
discuss,0.009178
distribut,0.018563
divid,0.008920
durat,0.016020
econom,0.037057
effect,0.019737
elast,0.831160
empir,0.009449
empiricist,0.021855
equal,0.018445
equat,0.011263
estim,0.009530
exampl,0.006065
exhibit,0.025569
extent,0.022287
extern,0.005295
extraordinarili,0.022927
factor,0.008586
februari,0.011003
fiona,0.028964
firm,0.048382
fix,0.010749
footnot,0.018053
frequent,0.010180
function,0.014828
fundament,0.009273
futur,0.008820
given,0.007263
goe,0.013032
good,0.104668
govern,0.013773
greater,0.027364
guid,0.010239
ha,0.014486
health,0.010095
hendrik,0.021997
high,0.007332
higher,0.008609
hold,0.008722
horizont,0.016700
houthakk,0.034570
hypothesi,0.012614
import,0.012352
incid,0.042987
includ,0.010054
incom,0.055460
increas,0.013927
independ,0.022314
indic,0.008908
indirect,0.015734
induc,0.014340
industri,0.008265
inelast,0.068646
influenc,0.007976
initi,0.015737
input,0.052479
instead,0.016964
intern,0.006346
intertempor,0.025509
invest,0.010310
investopediacom,0.031767
lessthanproportion,0.036636
lester,0.022749
linear,0.025763
link,0.005264
log,0.016962
low,0.018556
lower,0.008945
maclachlan,0.032193
major,0.006422
manner,0.011683
margin,0.013267
market,0.027186
markup,0.023840
marshalllern,0.034570
measur,0.047575
modifi,0.011812
morethanproportion,0.036636
movement,0.016695
natur,0.006462
neg,0.010497
neoclass,0.018321
noninfinitesim,0.034570
output,0.063178
paribu,0.025509
particular,0.022732
pattern,0.010328
percent,0.024316
percentag,0.161881
perman,0.011731
point,0.007022
polici,0.008958
popular,0.008661
posit,0.007174
precis,0.022869
price,0.236367
process,0.006562
produc,0.014445
product,0.050645
project,0.008589
proport,0.022955
quantifi,0.015598
quantiti,0.079149
question,0.008717
rais,0.010239
rang,0.008333
ratio,0.037558
regress,0.017366
rel,0.007893
relat,0.011872
respond,0.011873
respons,0.061089
result,0.012265
return,0.026730
revenu,0.038532
rise,0.035437
rule,0.008036
s,0.006244
said,0.009045
sale,0.012825
save,0.012502
scale,0.049823
sell,0.012454
semielast,0.034570
servic,0.008577
simplifi,0.014269
singerprebisch,0.032670
specif,0.007330
start,0.007755
studi,0.006475
substitut,0.054461
suppli,0.159820
supplier,0.017253
surplu,0.048362
tax,0.023030
taxat,0.015064
taylor,0.015417
term,0.011579
theori,0.021545
thesi,0.015163
thi,0.009165
thu,0.007162
tool,0.019622
total,0.017098
trade,0.026590
type,0.014733
understand,0.024951
undertaken,0.015788
unit,0.012360
unitless,0.032670
usag,0.012851
use,0.030039
valu,0.023559
vari,0.009032
variabl,0.145608
variant,0.014842
vertic,0.015851
wa,0.005023
wealth,0.012617
welfar,0.014112
wide,0.007891
wish,0.013547
wolfram,0.022455
work,0.006006
yield,0.011969
zero,0.012885
