accordingli,0.026899
ad,0.015252
address,0.017998
affair,0.019762
aid,0.017930
alreadi,0.017411
altern,0.015357
america,0.016750
annual,0.018360
anthem,0.104204
argument,0.020080
articl,0.014204
attend,0.022805
automot,0.034269
balanc,0.018916
becam,0.026346
becom,0.011536
belgrad,0.041969
bergamo,0.058065
best,0.015883
biographi,0.027798
ble,0.052184
blir,0.062875
book,0.041090
born,0.040715
cambridg,0.019116
canon,0.104833
capit,0.015697
carlota,0.050065
center,0.015394
centr,0.019846
chairman,0.027299
challeng,0.017242
cheltenham,0.043928
chines,0.020747
cigoja,0.125751
circl,0.023258
classic,0.047843
coedit,0.047626
coloni,0.019960
common,0.011672
commun,0.012622
compani,0.015243
confer,0.019002
constabl,0.040443
consult,0.022292
contribut,0.014169
controversi,0.038047
cornel,0.030531
corpor,0.018940
countri,0.063522
crise,0.029784
critic,0.014200
daili,0.022578
debat,0.017973
decemb,0.017716
delhi,0.033323
depart,0.016926
desa,0.116130
destruct,0.022848
develop,0.164135
director,0.023212
discuss,0.015752
discussionrais,0.062875
dismiss,0.025720
download,0.068168
dure,0.011112
dynam,0.036199
econom,0.279831
economi,0.031746
economia,0.052698
economist,0.065463
ed,0.016271
edward,0.021143
effect,0.011291
elgar,0.037752
emphasi,0.021081
englishlanguag,0.038200
environ,0.015407
erik,0.034938
essay,0.022523
establish,0.012404
estonia,0.034856
estonian,0.041215
europ,0.031520
european,0.014476
evolutionari,0.045798
execut,0.017606
extern,0.009088
fattig,0.062875
fattiger,0.062875
februari,0.018883
financ,0.018417
financi,0.049778
finland,0.031077
firm,0.020758
focu,0.017051
foundat,0.048620
framework,0.017806
french,0.016726
gallen,0.053858
gener,0.008930
georg,0.017912
global,0.049515
goal,0.017095
got,0.084115
govern,0.035456
group,0.011211
gunnar,0.041969
ha,0.024861
harvard,0.024282
held,0.014694
heterodox,0.036456
heterodoxa,0.062875
hi,0.044574
histori,0.031055
honour,0.029310
hvordan,0.062875
hvorfor,0.062875
idea,0.013949
import,0.010600
includ,0.008627
inclus,0.025601
industri,0.056743
inequ,0.026149
innov,0.021527
institut,0.026303
integr,0.014998
intern,0.010891
investorforum,0.062875
invit,0.025612
itali,0.022366
jan,0.027313
jomo,0.049047
kattel,0.125751
kind,0.016554
konomi,0.055251
korean,0.028848
kregel,0.052698
ks,0.041636
languag,0.015618
larg,0.010950
largest,0.017161
later,0.037072
latin,0.019529
latinamerican,0.051257
lectur,0.022592
libertarian,0.032879
like,0.011098
link,0.009034
london,0.087475
magazin,0.024054
manag,0.014880
mani,0.009390
march,0.017229
martin,0.021991
marxist,0.028208
matherson,0.062875
mathersonselig,0.062875
mba,0.044559
moment,0.023637
monograph,0.032433
myrdal,0.049047
nation,0.034537
neoclass,0.031442
neoliber,0.034938
network,0.017369
new,0.027841
norsk,0.049709
norway,0.087602
norwegian,0.129165
note,0.011978
nurks,0.177991
og,0.042084
oiko,0.046026
onli,0.009563
open,0.014223
oppos,0.017362
origin,0.034541
oslo,0.161774
paint,0.026386
paper,0.102856
paradigm,0.025173
parttim,0.036559
perez,0.043489
perman,0.020134
persist,0.023556
perspect,0.018591
peruvian,0.038750
phd,0.026847
plant,0.018037
plea,0.038679
polici,0.046124
polit,0.013039
poor,0.102711
poorer,0.033939
portugues,0.052894
posit,0.024626
poverti,0.024508
pp,0.038845
praxi,0.042563
precondit,0.037045
press,0.014021
pressur,0.017933
prevent,0.017032
privat,0.017082
prize,0.022219
product,0.024833
professor,0.021292
profil,0.025720
project,0.014741
prospect,0.025316
public,0.035994
publish,0.013223
qualit,0.027623
ragnar,0.133189
rainer,0.089453
receiv,0.014435
recent,0.026167
refer,0.007555
reinert,0.552510
relat,0.010187
relev,0.039524
repres,0.012394
research,0.049030
review,0.033859
revista,0.046894
rich,0.130001
rike,0.125751
russian,0.022120
rwer,0.062875
s,0.010716
sampl,0.022516
school,0.015372
select,0.016430
serbia,0.033035
serbian,0.037814
serbocroatian,0.053858
set,0.011704
shift,0.018310
shorten,0.031934
similarli,0.019922
simplif,0.034576
sinc,0.021030
small,0.025734
social,0.026754
sold,0.022206
soro,0.047888
spacolor,0.062875
spanish,0.022740
spark,0.027827
spartacu,0.052184
specialti,0.029864
spent,0.023243
st,0.016951
stampa,0.059330
stay,0.046034
steenfeldt,0.062875
step,0.017831
strategi,0.019588
studi,0.022225
sum,0.020976
switzerland,0.026951
tallinn,0.183300
tank,0.029128
technoeconom,0.055251
technolog,0.090967
terribl,0.036354
theori,0.024651
theoriz,0.028611
think,0.036472
thought,0.029806
time,0.018607
today,0.015106
trade,0.015211
trail,0.034498
translat,0.054309
tulika,0.062875
uneven,0.035408
unit,0.021212
univers,0.076237
view,0.013477
wa,0.017244
wage,0.023106
websit,0.039768
welfar,0.024220
whi,0.058044
wide,0.013543
wolf,0.032207
work,0.082470
zed,0.046894
