academ,0.005175
academi,0.006656
acadmi,0.012269
access,0.004780
accord,0.003455
action,0.008491
activ,0.006895
actor,0.015930
adam,0.007012
adher,0.006989
admir,0.016374
advic,0.007519
affect,0.004515
age,0.025963
agrarian,0.018736
agrg,0.016477
aid,0.005183
algeria,0.009740
algier,0.012166
alway,0.004646
america,0.004842
american,0.003914
amsterdam,0.008788
ancient,0.005006
ani,0.003045
ann,0.008092
annal,0.166880
annalist,0.014090
anni,0.011640
anthropologist,0.008864
antwerp,0.011886
appear,0.008004
approach,0.011929
archiv,0.012719
argu,0.032175
aristocraci,0.009740
arnold,0.008782
array,0.007539
art,0.005286
articul,0.016689
assert,0.005935
assum,0.004786
attitud,0.007093
attribut,0.005371
aug,0.011640
august,0.005250
aurel,0.016477
autobiograph,0.011828
award,0.006091
bailey,0.011467
base,0.003010
basi,0.004303
becam,0.007616
befor,0.007116
began,0.004160
begin,0.004062
behaviour,0.006423
berger,0.011772
binghamton,0.014818
bio,0.011005
biographi,0.016072
blaqswansorg,0.018990
board,0.006010
bodl,0.016477
book,0.031677
born,0.005885
boundari,0.005816
bourg,0.016477
braduel,0.018177
braudel,0.805691
braudelian,0.016786
braudellien,0.018177
braudelmediterranean,0.018177
brazil,0.029781
brazilian,0.009605
broad,0.005596
broadscal,0.014473
build,0.004408
burk,0.010480
camp,0.022649
capit,0.022691
capitalism,0.047918
capitalist,0.041215
carrard,0.035200
carrol,0.010569
catholic,0.009351
center,0.017802
central,0.003911
centuri,0.032248
chang,0.009437
charl,0.005344
chartier,0.015761
chengchung,0.036354
citi,0.004819
cityst,0.009791
civil,0.023933
civilis,0.019046
class,0.004628
claud,0.009040
climat,0.005958
cliometr,0.013768
cofound,0.019174
cole,0.009710
collectif,0.016209
collg,0.013082
coloni,0.005770
color,0.006951
come,0.003991
commerc,0.006954
commun,0.003649
compass,0.008991
competit,0.010975
complet,0.003854
complex,0.008167
compris,0.005709
concept,0.011684
concern,0.003918
condorcet,0.013030
conduct,0.004783
conomi,0.028741
conomiqu,0.013247
consciou,0.008252
conscious,0.007109
consid,0.006509
constrain,0.008114
contemporari,0.010918
context,0.004909
continu,0.003381
contribut,0.008192
convent,0.005404
countri,0.011018
cours,0.009728
court,0.010587
creat,0.010241
cultur,0.029375
cun,0.012453
custom,0.005643
cycl,0.017164
daili,0.006527
daix,0.018177
david,0.014873
deal,0.004496
death,0.009776
decad,0.005073
decemb,0.005121
decept,0.009811
deep,0.006213
deepest,0.010569
demand,0.004982
demonstr,0.005016
denot,0.006810
densembl,0.017152
depend,0.003682
depict,0.006961
descript,0.005101
desert,0.015872
despit,0.004732
destin,0.007810
determin,0.003875
develop,0.002791
diacrit,0.013923
did,0.012429
direct,0.003706
discontinu,0.016946
discours,0.007642
discuss,0.009107
dissemin,0.008691
diverg,0.007543
divers,0.010735
doctor,0.006660
document,0.005388
doi,0.014777
domin,0.004592
doss,0.018177
downplay,0.010987
dpartement,0.012200
dr,0.006924
draft,0.007203
dramat,0.006303
drown,0.011121
du,0.031553
durat,0.023846
dure,0.025701
dynamiqu,0.014370
earli,0.003360
ecol,0.012882
econom,0.025740
economi,0.013766
economia,0.030470
ecrit,0.051456
ed,0.004703
edit,0.010518
editori,0.019155
educ,0.008561
effect,0.006528
elect,0.009911
emphas,0.011794
empir,0.004688
employ,0.004457
endur,0.008200
engin,0.004842
england,0.005830
english,0.014039
enorm,0.007237
enter,0.004912
entitl,0.006936
entrepreneur,0.008462
environ,0.013362
environment,0.005402
ephemer,0.012200
equal,0.004575
especi,0.003901
establish,0.010757
et,0.040431
etud,0.013844
europ,0.013668
european,0.004185
europeanbas,0.015570
event,0.026236
eventbas,0.015972
everyday,0.014355
excerpt,0.037148
exert,0.007710
exist,0.006682
expans,0.005669
explan,0.005914
explor,0.005119
exterior,0.009928
extern,0.002627
facet,0.009973
factor,0.008520
fall,0.009173
falsifi,0.009811
famili,0.004652
famou,0.005551
fascin,0.010018
fashion,0.007072
father,0.011814
featur,0.004544
febvr,0.056019
fell,0.006489
fernand,0.210933
fight,0.006304
figur,0.004976
file,0.007500
filho,0.015086
fine,0.007183
firmli,0.008782
fish,0.006269
flammarion,0.014696
fmsh,0.036354
focu,0.004929
focus,0.023386
follow,0.005748
foment,0.012532
fondat,0.014947
food,0.005171
ford,0.009514
foreign,0.004677
form,0.002746
format,0.004900
foster,0.007681
foundat,0.014056
franais,0.011718
franc,0.108019
francoi,0.012532
francophil,0.017152
free,0.004104
french,0.048354
fulltext,0.024538
fund,0.009908
gaston,0.011800
gave,0.005228
gemelli,0.018177
gener,0.002581
genoa,0.011141
genr,0.008484
geograph,0.011686
geographi,0.006613
geohistor,0.016477
german,0.010148
germani,0.005410
giuliana,0.018177
given,0.003603
gondrecourtlechteau,0.018177
good,0.003994
govern,0.003416
grant,0.005508
grave,0.008758
great,0.004049
greatest,0.012645
greek,0.005088
group,0.003241
guarantor,0.012532
h,0.004991
ha,0.007187
harri,0.007556
hauser,0.013625
haut,0.026165
held,0.004248
help,0.003933
henri,0.005791
henriiv,0.017600
hexter,0.017152
hi,0.083762
high,0.003638
histoir,0.021584
histor,0.040361
histori,0.089780
historian,0.036327
historiograph,0.011202
historiographi,0.027357
homm,0.015395
horror,0.010275
hous,0.004819
howev,0.002916
hufton,0.015972
human,0.006923
hunt,0.007251
idea,0.008065
ident,0.015434
ii,0.037618
illustr,0.006127
immanuel,0.009068
impact,0.009848
impercept,0.026855
import,0.018386
independ,0.011071
individu,0.003706
industri,0.004101
inertia,0.010136
influenc,0.015829
influenti,0.011557
infrastructur,0.012166
insight,0.006664
instead,0.008416
institut,0.003802
instituto,0.025145
instructor,0.010792
intact,0.009208
integr,0.004335
intern,0.003148
interpret,0.004793
intrus,0.010368
invit,0.007404
involv,0.003483
irresist,0.013247
isbn,0.059464
islam,0.005981
island,0.005325
issn,0.055626
issu,0.003855
itali,0.006466
j,0.009024
jacob,0.008101
jaum,0.014582
jeux,0.014582
journal,0.036970
jstor,0.063280
julio,0.011857
jun,0.011614
just,0.004189
kaplan,0.011515
king,0.011445
kinser,0.018177
kriegel,0.017152
la,0.095945
lack,0.004580
lai,0.025959
lament,0.011161
larger,0.009483
largescal,0.006999
later,0.014290
latin,0.005646
launch,0.006049
laurenc,0.011005
lbeck,0.027391
lchang,0.016786
le,0.071556
leader,0.015758
lectur,0.006531
legaci,0.007553
lepoqu,0.018177
level,0.014368
lhistoir,0.039743
lhomm,0.027846
liber,0.005415
librari,0.005643
lidentit,0.085761
lie,0.005885
life,0.034752
like,0.009625
link,0.002611
liter,0.006907
littl,0.009194
live,0.007767
local,0.004068
london,0.005057
long,0.003900
longrun,0.009781
longstand,0.008680
longterm,0.025284
longu,0.057894
look,0.004959
love,0.014262
lpoqu,0.034304
lucien,0.024073
lumvilleenornoi,0.018177
lvistrauss,0.012415
lyce,0.028180
lynn,0.010161
m,0.004295
magazin,0.006954
magnum,0.011397
main,0.003802
mainz,0.012930
maison,0.028180
major,0.006373
make,0.006108
mani,0.005429
margin,0.006582
market,0.008992
marxian,0.010775
marxist,0.024465
maryland,0.009973
massiv,0.006391
master,0.006410
masthead,0.016786
materi,0.016836
mathematician,0.007352
matriel,0.030470
mditerran,0.115340
mditerranen,0.054531
mediterranean,0.149279
memori,0.012496
men,0.005569
mental,0.006499
mentalit,0.015086
merg,0.007234
mesquita,0.016477
met,0.006142
method,0.003719
methodolog,0.006357
meus,0.015086
middl,0.009904
milieu,0.011182
militari,0.004859
millennia,0.008752
ministri,0.006458
minut,0.007169
mix,0.005777
mmoir,0.025399
modern,0.028822
mond,0.060184
monograph,0.009376
monopolist,0.021757
moon,0.023465
moraz,0.018177
mountain,0.019386
mouvement,0.011857
movement,0.004141
multipl,0.004619
mundial,0.031945
muse,0.011101
narr,0.007904
nationst,0.010076
natur,0.003206
nd,0.005588
near,0.004938
network,0.005021
new,0.016097
noblemen,0.012882
nomad,0.009279
north,0.004769
nostalgia,0.014090
note,0.013851
notion,0.005682
novemb,0.005387
number,0.003004
obtain,0.004668
odil,0.016786
olivia,0.014090
olwen,0.016477
onlin,0.010513
oper,0.007578
opu,0.010861
order,0.006619
organ,0.006552
origin,0.006657
oswald,0.011330
oup,0.012699
outbreak,0.008173
panoram,0.013923
paper,0.004955
paradigm,0.021832
pari,0.032840
particular,0.007519
partli,0.006458
passag,0.007155
past,0.009529
pasteur,0.010409
patoi,0.015086
pattern,0.005124
paulo,0.034843
pdf,0.027806
peasant,0.016750
peopl,0.016557
period,0.003568
persist,0.006810
person,0.007860
perspect,0.010749
peter,0.005476
phd,0.007761
philip,0.029530
philipp,0.048028
physic,0.003930
pick,0.007818
pictur,0.006723
pierr,0.007731
place,0.003396
plain,0.023547
poetic,0.009662
polici,0.004444
polit,0.011309
politiqu,0.011589
poll,0.008359
poor,0.005938
poorer,0.009811
pophistori,0.018177
popul,0.004273
portray,0.007818
pow,0.024985
power,0.007049
pp,0.016845
pratiqu,0.028359
precursor,0.007503
prefer,0.005274
preindustri,0.011330
presenc,0.005208
present,0.010331
presentday,0.007735
press,0.004053
previou,0.005193
prison,0.014620
prodigi,0.012304
product,0.007179
professor,0.006155
profil,0.007435
profond,0.017152
profound,0.007856
project,0.008523
proper,0.006179
propon,0.007217
protector,0.008521
provid,0.003055
publish,0.003822
quigley,0.014582
quotidien,0.016786
radic,0.006313
rais,0.005080
rapid,0.005968
rare,0.005668
reach,0.004439
read,0.007587
realiti,0.005941
reason,0.003920
recognit,0.005987
reconsid,0.021168
refer,0.002184
reflect,0.009388
refut,0.008627
region,0.003911
reject,0.021539
reli,0.005263
religi,0.005579
remain,0.003612
remark,0.006699
repetit,0.008910
replic,0.007710
reput,0.007600
reread,0.013491
research,0.007087
respect,0.004154
respons,0.003788
rest,0.010235
result,0.003042
retir,0.014865
return,0.008841
rev,0.009760
review,0.004894
revis,0.006527
revolut,0.016233
revolutionari,0.006951
revu,0.012166
reynold,0.041639
right,0.003919
rigid,0.008128
rise,0.013186
rockefel,0.010861
role,0.003826
romant,0.009294
ruptur,0.010968
s,0.006196
said,0.004488
samuel,0.007765
santamaria,0.017152
saw,0.010690
scale,0.004944
scholar,0.005547
scholarship,0.007810
school,0.062217
scienc,0.014695
sea,0.022293
search,0.022363
seasinde,0.018177
season,0.007058
second,0.007170
secondari,0.006220
secret,0.006739
section,0.005412
sedentari,0.010968
sequenti,0.009461
serf,0.011614
seri,0.004351
serv,0.004348
servic,0.004255
sever,0.006338
ship,0.006197
short,0.004657
sian,0.015972
sicl,0.012788
signific,0.003880
sin,0.025935
singl,0.004068
situat,0.004680
sixim,0.018177
slave,0.007183
slow,0.018828
smith,0.006440
social,0.042540
societi,0.007617
socioeconom,0.008782
solidifi,0.010007
sombart,0.013768
sorbonn,0.013136
sourc,0.007647
south,0.004760
space,0.004686
spain,0.006460
span,0.007022
spanish,0.006574
special,0.011406
specif,0.003637
spengler,0.013365
spot,0.007610
start,0.003848
state,0.007979
stay,0.006654
stem,0.006833
steven,0.007659
stoianovich,0.017152
stress,0.018702
strongli,0.005859
structur,0.046174
student,0.005174
studi,0.009638
studiesannal,0.018177
subjug,0.010354
subsequ,0.004744
success,0.008062
suffer,0.005548
superstructur,0.024538
suppressedprob,0.018177
sur,0.029282
surfac,0.005504
surviv,0.010486
sweep,0.009311
taken,0.004451
taught,0.006777
teach,0.005955
technolog,0.004383
temp,0.012656
testimoni,0.009781
text,0.026220
th,0.031372
themselv,0.004509
theori,0.010689
thesi,0.015046
thi,0.013643
threevolum,0.012743
thth,0.010148
thu,0.003553
time,0.037656
today,0.004367
tool,0.004867
total,0.004241
toynbe,0.012979
trace,0.005829
tradit,0.007656
traian,0.015235
transfer,0.005202
transhum,0.015235
transl,0.013136
translat,0.020934
travel,0.005367
treat,0.005323
tri,0.004785
triumph,0.009461
trope,0.012572
tude,0.013247
turmoil,0.009479
turn,0.004202
twenti,0.007477
typic,0.004078
uk,0.005572
ulyss,0.012572
uncomfort,0.011375
understand,0.004126
understood,0.005705
undertaken,0.007833
unexclud,0.018177
unfinish,0.022049
univers,0.015742
unlik,0.010125
upheav,0.019814
urban,0.006376
usa,0.006787
use,0.014904
usual,0.007316
util,0.005499
varieti,0.004564
variou,0.010382
vast,0.012208
venic,0.009962
veri,0.003471
versa,0.008627
version,0.010635
vice,0.007038
view,0.011689
vnement,0.016477
vnementiel,0.035200
vol,0.124137
voltair,0.010843
volum,0.010414
wa,0.072285
wallerstein,0.013427
war,0.021592
way,0.006500
wealth,0.006260
wealthi,0.007932
wealthier,0.011491
werner,0.009624
west,0.005219
western,0.004572
wheel,0.009156
wide,0.003915
widerang,0.010615
woman,0.007590
word,0.008439
work,0.032782
workshop,0.008998
world,0.033902
worldsystem,0.026982
worldwid,0.006167
write,0.019012
wrote,0.015538
xvexviii,0.036354
year,0.009204
york,0.009364
