abandon,0.003593
abat,0.026408
abil,0.005294
abl,0.026731
abov,0.009852
abroad,0.020889
absenc,0.003536
absent,0.004688
absolut,0.003263
absorb,0.007692
abstract,0.006770
abus,0.008277
accept,0.031400
access,0.005323
accompani,0.003719
accomplish,0.003866
accord,0.003847
account,0.009063
accumul,0.011072
accur,0.003277
acquir,0.006267
act,0.004397
activ,0.009598
actual,0.002462
actuari,0.005945
ad,0.009820
adapt,0.003063
addit,0.005839
adequ,0.004036
admiralti,0.006439
admit,0.012171
admittedli,0.007314
adolphu,0.008119
advanc,0.002376
advantag,0.008959
adventur,0.004826
advers,0.004506
afterward,0.008475
age,0.016865
agent,0.003280
agio,0.027076
agre,0.005801
agricultur,0.011438
ahead,0.004491
al,0.003300
ala,0.012770
alba,0.006684
alik,0.005184
alley,0.007376
alli,0.007106
allow,0.011479
alon,0.006580
alreadi,0.019619
altern,0.012360
alva,0.007797
alway,0.005174
amass,0.006076
amaz,0.006203
american,0.006539
amort,0.006452
amsterdam,0.215323
amsterdamsch,0.008572
analysi,0.002319
anglodutch,0.020379
ani,0.003391
annex,0.013130
annual,0.014777
annuiti,0.026220
anoth,0.011102
anticip,0.004278
anticipatori,0.015691
antwerp,0.052945
antwerps,0.009550
apart,0.007051
appar,0.016421
appear,0.002228
appetit,0.006321
appli,0.006170
appreci,0.029882
approv,0.003305
archiv,0.003541
area,0.003821
aristocrat,0.005307
arm,0.015338
armi,0.006618
arrang,0.003136
arrear,0.013663
arriv,0.006194
articl,0.006859
assess,0.009831
asset,0.003556
assign,0.003455
assum,0.007995
assur,0.004383
assuradeuren,0.010121
assuranti,0.020242
attempt,0.013167
attend,0.011012
attract,0.009286
auction,0.005540
august,0.002923
auster,0.016372
austrian,0.013825
author,0.017329
autocrat,0.006333
avail,0.016462
avarij,0.010121
averag,0.008620
avoid,0.002873
awash,0.008183
ax,0.006719
backward,0.004785
bad,0.007893
badli,0.005230
balanc,0.003044
balanceoftrad,0.010121
baltic,0.005440
banco,0.012718
bank,0.100160
banker,0.042030
bankgeld,0.010121
barbari,0.006774
bargain,0.005211
barrier,0.003914
base,0.008381
basi,0.014378
basic,0.002333
batavian,0.024358
bear,0.007200
bearer,0.012521
becam,0.014843
becaus,0.036672
becom,0.003714
beden,0.009550
beer,0.016108
befor,0.015850
began,0.002316
begin,0.009047
behalf,0.008557
beleen,0.010121
benign,0.006249
besid,0.019845
best,0.007670
better,0.002616
big,0.003512
billion,0.003295
biweekli,0.008400
bodi,0.002327
bond,0.129222
bondhold,0.057382
book,0.002204
boom,0.008802
bore,0.005207
borrow,0.061602
bottomup,0.006203
bought,0.013298
branch,0.004933
breach,0.005249
break,0.006395
brief,0.003676
briefli,0.004303
bring,0.011535
britain,0.013072
british,0.044033
britisheastindiacompani,0.010121
broad,0.006231
broker,0.020375
brought,0.025736
bruge,0.007344
bubbl,0.058356
budget,0.021786
build,0.004909
built,0.005783
bulk,0.004112
bull,0.005353
bullion,0.019711
burden,0.079706
burial,0.005273
burst,0.015676
busi,0.057532
businessmen,0.005644
buy,0.007339
buyer,0.013889
byword,0.008183
cambridg,0.003077
came,0.020322
capac,0.006441
capit,0.070752
capita,0.008433
capitalist,0.004589
captur,0.006380
cargo,0.010368
case,0.003885
cash,0.007766
cashier,0.007845
categori,0.002964
cathol,0.003751
caus,0.026958
center,0.004956
central,0.023957
centuri,0.091775
certain,0.010632
certainli,0.004434
certif,0.004515
chain,0.006942
chamber,0.004122
chang,0.005255
channel,0.007670
charact,0.016053
charg,0.011993
charit,0.011427
charl,0.002975
charter,0.012539
choic,0.009158
church,0.007021
churchmen,0.007442
circl,0.003743
circul,0.024391
circumst,0.017846
citi,0.034882
citizen,0.009538
claim,0.002358
class,0.005154
clear,0.002891
client,0.008949
close,0.010395
closer,0.003844
cloth,0.004062
coffe,0.009699
coin,0.035393
coincid,0.008359
coincident,0.006425
collaps,0.010268
colleagu,0.008399
collect,0.013599
come,0.006667
commensur,0.019358
comment,0.003721
commerc,0.023232
commerci,0.023815
commiss,0.012374
commissionair,0.010121
commod,0.052800
common,0.013152
commonli,0.002580
commun,0.004063
compani,0.076063
compar,0.013789
comparison,0.003258
compet,0.006407
competit,0.006111
competitor,0.004813
complet,0.002146
compon,0.002676
compuls,0.006425
concentr,0.015204
concern,0.002181
concess,0.004914
conclud,0.003178
conclus,0.003462
concomitt,0.010121
concret,0.004257
condit,0.006523
conduct,0.002663
confeder,0.009276
confid,0.015900
confin,0.004172
confiscatori,0.009174
conflict,0.002894
confus,0.003497
confusion,0.009550
conjunctur,0.008183
connect,0.007675
consequ,0.013212
conserv,0.012338
consid,0.001812
consider,0.002611
consist,0.004159
consolid,0.004080
consortium,0.005440
conspiraci,0.011044
constant,0.006178
constitut,0.012268
consum,0.003094
consumpt,0.003624
contemporari,0.006079
content,0.003066
context,0.002733
continent,0.004138
continu,0.011297
contraband,0.007255
contract,0.006234
contractu,0.005522
contrari,0.008127
contrast,0.002625
contribut,0.015965
contributor,0.004545
control,0.006193
conven,0.005358
conveni,0.024894
convent,0.003009
convers,0.006412
convooien,0.010121
copper,0.004315
corner,0.005014
cost,0.008196
costuymen,0.010121
council,0.005667
countri,0.038855
countrysid,0.005093
coupon,0.005990
courant,0.007408
courantgeld,0.020242
cours,0.040626
craftsmen,0.006067
cramp,0.007548
crash,0.004621
creat,0.005702
crediet,0.010121
credit,0.063151
creditor,0.005423
creditworthi,0.013825
credul,0.007752
crew,0.009773
crise,0.028766
crisi,0.028861
critic,0.002285
crunch,0.013049
cure,0.004766
curiou,0.012214
currenc,0.030648
cushion,0.007000
custom,0.003142
daili,0.003634
damag,0.010060
data,0.002480
date,0.002597
day,0.014070
dealt,0.009315
death,0.002721
debas,0.013302
debt,0.201800
debthold,0.008893
debtor,0.011908
decad,0.011299
deceas,0.005516
decentr,0.005077
decentralis,0.006333
decid,0.003028
decis,0.005240
declar,0.003001
declin,0.017703
decreas,0.003060
dedic,0.003732
deem,0.008411
default,0.052161
defeat,0.003676
defens,0.006821
deficit,0.004313
deindustri,0.007376
delft,0.014511
della,0.006076
demand,0.013872
demis,0.010984
democraci,0.003461
demonstr,0.002793
denmark,0.004558
denomin,0.004629
depend,0.006151
depict,0.003876
deposit,0.022074
depositor,0.006510
depress,0.011583
der,0.016267
deriv,0.007088
describ,0.007650
despit,0.005270
destin,0.013046
destruct,0.003677
determin,0.006474
detriment,0.010212
devast,0.008824
develop,0.018650
di,0.004836
did,0.053057
differ,0.011532
difficult,0.005420
difficulti,0.003356
dilemma,0.005273
dilig,0.006226
dillen,0.010121
dire,0.006333
direct,0.022699
directli,0.012484
director,0.003736
disadvantag,0.004608
disallow,0.006555
disappear,0.003951
disastr,0.005434
disburs,0.006524
discomfort,0.006321
discont,0.010676
discount,0.008973
discretionari,0.006333
discrimin,0.004315
discuss,0.002535
disgruntl,0.007172
disinvest,0.017339
dismal,0.006812
dismantl,0.005446
dispens,0.005407
disrupt,0.004004
dissolv,0.003859
distanc,0.003309
distinct,0.002393
distinguish,0.011035
distribut,0.005128
disturb,0.004363
diverg,0.004199
divid,0.002464
dividend,0.009990
divorc,0.010441
document,0.003000
dodgi,0.008572
doe,0.002102
domest,0.028979
domin,0.005114
doubl,0.017202
doubt,0.004010
downfal,0.006057
draft,0.004010
drafttreati,0.010121
drag,0.005380
drawback,0.006047
drenth,0.009550
drew,0.004282
drive,0.003338
driven,0.003617
drop,0.003410
drove,0.005033
duke,0.004900
dunkirk,0.007845
dure,0.028621
dutch,0.450367
dutchmen,0.008119
dwaasheid,0.020242
earli,0.016841
earlier,0.008293
earlymodern,0.008482
earn,0.010549
eas,0.004307
easili,0.006410
east,0.025888
eastern,0.003105
eastindia,0.017787
ecclesiast,0.005572
econom,0.036854
economi,0.076653
effect,0.025445
effort,0.002591
els,0.003852
emerg,0.016784
emmissiebedrijf,0.010121
emperor,0.004126
emphasi,0.003393
empir,0.005221
emporium,0.007947
empti,0.004460
en,0.018390
enabl,0.017802
end,0.020455
endors,0.013284
endsors,0.010121
enforc,0.007015
engag,0.005925
engend,0.011703
engin,0.002696
england,0.038958
english,0.026056
enhanc,0.013861
enjoy,0.007123
enlarg,0.004778
enorm,0.008059
ensur,0.003073
enter,0.005470
entic,0.006618
entiti,0.003174
entrepreneur,0.004712
entrept,0.040596
entri,0.007237
entrust,0.005972
enviabl,0.008400
episod,0.004595
epoch,0.005343
equal,0.020383
equivalencetheorem,0.010121
era,0.014780
erect,0.005073
erupt,0.004671
especi,0.030415
essenti,0.002600
establish,0.013976
estat,0.007965
estim,0.010531
et,0.003216
europ,0.010147
european,0.009321
evalu,0.003241
evapor,0.015718
event,0.002434
evolv,0.003071
exact,0.007138
exactli,0.003665
exampl,0.010053
exceed,0.015715
exchang,0.108434
exchanger,0.007797
excis,0.041742
excori,0.009346
exempt,0.014589
exil,0.008545
exist,0.011162
expand,0.005293
expans,0.012627
expect,0.005141
expenditur,0.016547
expens,0.003341
experi,0.006902
experienc,0.003358
explain,0.025186
explod,0.005504
exploit,0.006965
explos,0.004147
export,0.013728
expos,0.003747
expropri,0.006249
extend,0.007403
extens,0.002526
extern,0.002925
extinguish,0.006237
extra,0.004284
extraordinari,0.014650
extrapol,0.005374
extrem,0.008051
eye,0.003740
face,0.008424
facilit,0.003372
fact,0.021379
factor,0.004744
fail,0.002812
failur,0.003255
fall,0.005107
falloff,0.008482
famili,0.002590
far,0.015221
farm,0.007465
farmer,0.015840
fashion,0.003937
father,0.003289
fear,0.003510
feasibl,0.013637
featur,0.002530
feckless,0.009799
feder,0.002978
federalist,0.006346
fee,0.013137
fell,0.014453
fernando,0.005811
fiat,0.012319
fiduciari,0.013079
field,0.002043
fifti,0.004741
figur,0.008312
final,0.026619
financ,0.091902
financi,0.080127
financialmarket,0.010121
firm,0.013365
fiscal,0.042416
fisheri,0.005085
fix,0.014847
fled,0.004528
fleet,0.004498
flesh,0.005578
flight,0.004098
float,0.013291
fluctuat,0.004177
fluyt,0.009174
folli,0.013868
follow,0.016003
fond,0.006398
foot,0.008693
forc,0.034089
foreign,0.093756
foreignincom,0.010121
forev,0.005332
form,0.018350
formal,0.010013
format,0.005457
forward,0.007102
foundat,0.005217
fourth,0.010472
fraction,0.003915
fractionalreserv,0.007284
franc,0.022912
francodutch,0.007666
free,0.004570
freedom,0.003158
french,0.056540
frenchinspir,0.010121
frequent,0.005624
friesland,0.008572
frown,0.006793
fulfil,0.004045
fulli,0.003016
function,0.026627
fund,0.030342
furi,0.007071
furthermor,0.003428
futur,0.014620
gamut,0.007586
gave,0.017466
gear,0.005077
geer,0.008669
gelderland,0.009550
gemen,0.010121
gener,0.031626
gimmick,0.008323
giro,0.016501
given,0.002006
global,0.002656
gloriou,0.018291
gnp,0.012277
golden,0.016215
good,0.008897
got,0.018053
govern,0.068488
graduat,0.003748
grain,0.017387
grand,0.007772
grass,0.005041
great,0.020293
greatli,0.006552
greed,0.006192
grew,0.006686
grind,0.006067
groningen,0.007314
groot,0.022226
group,0.003609
grow,0.007696
grown,0.003852
growth,0.025323
guarante,0.022018
guilder,0.146287
guilderdenomin,0.010121
gun,0.004697
gustavu,0.007408
ha,0.014674
habsburg,0.061924
half,0.016523
hall,0.003795
hand,0.019831
hang,0.005358
happen,0.006323
hard,0.003283
hardli,0.010696
harwich,0.009346
haven,0.005065
heavi,0.003457
hefti,0.008058
held,0.002365
hellevoetslui,0.010121
help,0.026282
henc,0.009364
henceforth,0.012823
het,0.016003
hi,0.016144
high,0.014180
higher,0.009513
higherincom,0.009174
highest,0.003063
highli,0.005267
highqual,0.005999
hinder,0.005041
hindsight,0.027326
histori,0.023328
historian,0.006742
historiographi,0.005077
hoard,0.012823
hoc,0.011195
hold,0.007229
holder,0.009096
holland,0.182407
honor,0.004138
honour,0.004718
hope,0.006812
hous,0.029521
household,0.003979
howev,0.042214
hull,0.005617
humblest,0.009025
hundredth,0.007095
hypothesi,0.003484
iberian,0.005624
iconoclast,0.007708
idl,0.005843
ifa,0.007752
ii,0.005236
ill,0.003884
illustr,0.013647
imit,0.004732
immedi,0.002940
impact,0.002741
implement,0.005570
import,0.040950
impos,0.013762
impractic,0.007548
improv,0.002461
includ,0.001388
incom,0.055156
inconveni,0.006439
incorpor,0.002747
increas,0.030781
inde,0.003401
indefinit,0.004700
indemn,0.006737
independ,0.006164
indi,0.005077
india,0.021440
indic,0.004922
indirectli,0.004311
individu,0.002063
industri,0.025118
industrialist,0.005972
inevit,0.004407
inferior,0.004869
inflat,0.003767
influenc,0.004407
influx,0.005162
inform,0.011933
infrastructur,0.010161
infrequ,0.006037
inherit,0.007419
initi,0.004347
innov,0.034653
innovatori,0.009346
instanc,0.008128
instead,0.009373
institut,0.021169
institution,0.005287
instrument,0.015402
insuffici,0.004535
insur,0.073282
integr,0.002414
intellect,0.005364
intend,0.003097
interconnect,0.004836
interestbear,0.007255
interestonli,0.008400
intermedi,0.003931
intermediari,0.005077
intern,0.022790
interpret,0.002669
interrel,0.004883
intric,0.005565
intrins,0.012707
introduc,0.007040
introduct,0.002652
invari,0.004423
inventori,0.015607
invest,0.076907
investor,0.064793
involv,0.009697
iron,0.010749
isaac,0.008659
isbn,0.002364
issu,0.015027
issuanc,0.005650
italian,0.003753
j,0.002512
jacob,0.004510
jewish,0.004147
jg,0.006831
johan,0.011639
john,0.004551
joint,0.003522
jointli,0.004826
jointstock,0.027651
joseph,0.003296
just,0.020994
justif,0.004674
kamer,0.009550
kassier,0.020242
kept,0.007209
keyn,0.005534
keynesian,0.005492
kill,0.003302
kind,0.015988
king,0.006372
kingdom,0.002661
known,0.013372
kohier,0.010121
kohn,0.006977
la,0.003338
lack,0.005100
lag,0.010414
land,0.012657
landlord,0.005827
larg,0.022915
larger,0.005280
largest,0.005525
larri,0.005474
late,0.002315
later,0.033816
law,0.004029
lay,0.007527
lazybon,0.010121
le,0.011952
lead,0.003991
leav,0.002832
led,0.004317
ledger,0.006955
left,0.002666
legal,0.002759
legitimaci,0.010238
lend,0.030079
lender,0.027035
lent,0.005528
let,0.007495
levant,0.005637
level,0.022000
levellingoff,0.009799
levi,0.061105
liabil,0.004700
liber,0.003015
librari,0.003142
licens,0.003982
licenten,0.010121
life,0.015050
lifeinsur,0.009799
lift,0.004465
lightli,0.006495
lijfrenten,0.060726
like,0.051808
limit,0.014298
link,0.004362
linkag,0.005273
liquid,0.039437
list,0.001859
liter,0.003846
littl,0.007679
loan,0.085369
local,0.009061
locat,0.002459
lodewijk,0.008323
london,0.016897
long,0.008686
longer,0.002758
longterm,0.007039
loophol,0.006570
loos,0.004158
losrenten,0.020242
loss,0.011701
lost,0.011625
lot,0.004119
lotteri,0.006321
loui,0.003773
low,0.007689
lower,0.012356
lowerthanfacevalu,0.010121
lowest,0.003978
lowstatu,0.008669
luxuri,0.005017
lvarez,0.007548
maatschappij,0.010121
main,0.004234
maintain,0.002332
mainten,0.004012
maintien,0.010121
mair,0.023125
major,0.003548
make,0.015306
man,0.005918
manag,0.014371
mani,0.021163
mania,0.013548
manipul,0.003580
margin,0.003665
marin,0.019143
maritim,0.004305
market,0.115158
mass,0.002742
materi,0.002343
matter,0.002515
matur,0.011675
mayb,0.006057
maynard,0.005446
mean,0.009209
meanwhil,0.004044
measli,0.010121
measur,0.006571
mediat,0.012291
mediterranean,0.004374
meet,0.005411
meir,0.007376
melt,0.004772
mention,0.009713
mercantil,0.005287
mercenari,0.011442
merchant,0.087386
merchantmen,0.008119
metal,0.013923
middelburg,0.017552
middelen,0.010121
middl,0.011029
midth,0.008252
milit,0.005225
militari,0.016233
militarili,0.005743
million,0.036776
minim,0.003529
mint,0.016424
mirror,0.004515
mislead,0.005057
misunderstand,0.005492
mitig,0.004807
mobil,0.003552
mode,0.003765
model,0.006249
modern,0.028084
monarch,0.008833
monarchi,0.012860
monetari,0.003585
money,0.053799
monopoli,0.004284
mortgageloan,0.010121
mostli,0.002853
motiv,0.003267
muddl,0.007476
municip,0.020376
mutual,0.003527
napoleon,0.009122
nation,0.012972
natur,0.003570
neal,0.006226
neardemis,0.010121
necess,0.004190
necessari,0.013326
necessit,0.010770
need,0.028146
neg,0.005800
negoti,0.007001
negotiepenningen,0.010121
neighbor,0.011318
net,0.003515
netherland,0.093536
neutral,0.010981
new,0.035852
newli,0.003518
nomin,0.006981
nomine,0.025235
norm,0.003879
normal,0.010662
northern,0.006253
notari,0.014884
note,0.007712
noth,0.003538
notori,0.005307
nowaday,0.010122
nuanc,0.005936
number,0.021750
numer,0.002477
object,0.002286
oblig,0.003693
obligatin,0.010121
observ,0.004414
obviat,0.014399
obviou,0.004224
occas,0.008319
occur,0.006374
offer,0.037303
offic,0.010767
offici,0.005078
old,0.011068
omiss,0.006452
onc,0.004997
onefifth,0.006524
onetenth,0.006977
onethird,0.010163
onli,0.027710
onslaught,0.007314
oorlog,0.010121
open,0.002289
oper,0.008439
opportun,0.009476
oppos,0.002794
opt,0.005202
option,0.010469
orang,0.004998
ordinari,0.003646
organ,0.007296
origin,0.007413
orphan,0.006272
otherwis,0.019086
outcom,0.003419
outlay,0.006524
outlet,0.005343
outsid,0.007653
outstand,0.004574
overcom,0.004107
overextend,0.007255
overijssel,0.009550
overreli,0.007408
overtook,0.006684
owner,0.007565
ownership,0.003927
pachtersopro,0.010121
packetboat,0.010121
paid,0.030689
paidin,0.017339
palmstruch,0.009346
paneuropean,0.006934
paper,0.005518
papermak,0.007344
papiermakerscontract,0.010121
parliament,0.003372
partenrederij,0.010121
partenrederijen,0.020242
parti,0.010337
partial,0.003076
particip,0.002638
participanten,0.010121
particular,0.002093
particularli,0.002345
partit,0.004632
partli,0.014383
partner,0.014624
partnership,0.012627
pass,0.005196
pastim,0.007120
patriot,0.009759
pauper,0.007376
pay,0.037466
payer,0.020159
payment,0.025232
peac,0.009675
peat,0.006793
peculiar,0.020828
pen,0.005358
penni,0.036461
pension,0.004646
pensionari,0.018693
penso,0.009174
peopl,0.022126
percapita,0.051735
perceiv,0.003363
percent,0.060459
perform,0.009404
period,0.009935
periwig,0.009346
periwigera,0.010121
perman,0.003240
persever,0.007023
person,0.010941
personeel,0.010121
personel,0.010121
perspect,0.002992
pessim,0.006737
petit,0.004946
phenomenon,0.003444
philip,0.008221
physic,0.013130
piassa,0.010121
pictur,0.007487
pillar,0.005069
pioneer,0.003493
piraci,0.005927
pirat,0.005327
place,0.013239
placement,0.005249
planter,0.006170
plung,0.005721
point,0.003879
poland,0.004568
polici,0.007424
polish,0.004518
polit,0.023088
politicomilitari,0.008250
pool,0.013137
popul,0.009517
popular,0.011963
port,0.003779
portfolio,0.004600
pose,0.004073
posit,0.011892
possess,0.006010
possibl,0.007824
postpon,0.005446
potenti,0.002482
power,0.013737
practic,0.028725
preced,0.003633
preclud,0.005498
precursor,0.008355
predecessor,0.008363
predilect,0.007895
preindustri,0.006308
premodern,0.005706
prepar,0.003110
preponder,0.006539
prerevolt,0.009346
present,0.009587
presid,0.002773
press,0.004514
pressur,0.002886
presum,0.008561
pretext,0.006398
prevail,0.004057
previou,0.005783
previous,0.005847
price,0.042585
prijscour,0.010121
princ,0.004138
princip,0.008987
principl,0.002302
privat,0.035747
privileg,0.008753
probabl,0.022014
probat,0.006851
probiti,0.008250
problem,0.012305
proce,0.004668
process,0.001812
product,0.005996
profession,0.003107
profit,0.016566
progress,0.005227
prohibit,0.015652
project,0.002372
prolong,0.004876
promissori,0.013825
prompt,0.004198
propag,0.004272
propens,0.011926
proper,0.003440
properti,0.023219
propiti,0.008119
proport,0.009512
propos,0.007098
prospect,0.008150
protect,0.007667
protection,0.012256
protectionist,0.006117
prove,0.026637
provid,0.011910
provinc,0.085084
provinci,0.027829
provis,0.014941
prussian,0.005804
public,0.084980
publicdebt,0.010121
publicli,0.008207
publicoff,0.010121
publiek,0.009346
publish,0.004257
purchas,0.003261
purpos,0.002494
pursuit,0.012971
push,0.003646
qualiti,0.005714
quarter,0.007977
quickli,0.003121
quintil,0.008572
quit,0.012963
quot,0.008024
quota,0.015747
quotat,0.020375
quotisati,0.010121
quotum,0.010121
raad,0.008482
rais,0.002828
rang,0.006906
ransom,0.006411
rapid,0.016617
rapidli,0.003233
rate,0.047531
ration,0.003305
rd,0.003434
reach,0.004943
readili,0.008323
reagricultur,0.010121
real,0.040390
realiti,0.009925
realiz,0.006801
realli,0.003913
realwag,0.017552
reason,0.019645
rebelli,0.006214
receipt,0.005244
receiv,0.004647
rechannel,0.010121
recogn,0.007823
recoin,0.009174
redeem,0.011442
redempt,0.023375
rederij,0.010121
redirect,0.011981
redistribut,0.010114
reduct,0.003499
refer,0.001216
refinanc,0.007255
reflect,0.010455
reform,0.047601
regent,0.005843
regenten,0.009550
regim,0.010632
regist,0.033942
registrar,0.007199
regress,0.009595
regul,0.002879
regular,0.009996
regularli,0.016561
reichstal,0.010121
reign,0.004205
reinforc,0.012426
reintroduc,0.005610
reinvest,0.029861
reinvigor,0.006912
reject,0.005996
rel,0.015265
relat,0.006559
relev,0.003181
reli,0.005861
relief,0.004336
remain,0.018103
remark,0.018652
remedi,0.004810
remint,0.009174
renew,0.003556
rent,0.014049
rental,0.012056
rentier,0.023257
repart,0.010121
repartiti,0.020242
repartitiesystem,0.010121
repeat,0.003510
replac,0.002478
repres,0.003990
republ,0.111327
repudi,0.017971
reput,0.004232
requir,0.017231
resembl,0.003836
reservoir,0.005474
reshuffl,0.006719
resid,0.006444
resist,0.012606
resort,0.027080
respect,0.011564
respons,0.002109
restor,0.006879
result,0.018636
resurg,0.005202
retain,0.012793
retir,0.004138
retract,0.006226
return,0.004922
revenu,0.060320
revers,0.003348
revert,0.005322
revis,0.007269
revolt,0.044281
revolut,0.039169
revolutionari,0.007741
reweigh,0.009799
rialto,0.009799
ricardian,0.007120
rich,0.006975
right,0.006547
riksbanken,0.010121
rise,0.017132
risen,0.005123
risk,0.032918
riski,0.025789
rival,0.004018
role,0.002130
rollingov,0.010121
roman,0.003262
rose,0.011072
rotterdam,0.020159
round,0.003852
royalist,0.006057
rudimentari,0.005735
rule,0.002220
ruler,0.012190
run,0.005345
russia,0.007149
s,0.006899
safe,0.011929
sail,0.004600
salt,0.008334
satir,0.005650
save,0.024176
saver,0.014399
scale,0.011011
scarciti,0.005081
schoor,0.010121
scienc,0.002045
scope,0.003575
scrutini,0.005528
se,0.005057
sea,0.003103
second,0.011976
secondari,0.006926
sector,0.063773
secular,0.004209
secur,0.002584
seen,0.028637
seigneuri,0.007947
seldom,0.005522
selfamort,0.010121
selfinsur,0.015595
sell,0.013762
seller,0.009719
sens,0.007507
sent,0.003371
sentiment,0.004726
separ,0.002222
serendipit,0.007442
seriou,0.006814
serv,0.007263
servant,0.004688
servic,0.026066
set,0.005652
settlement,0.003549
seven,0.003191
sever,0.005293
share,0.047400
sharehold,0.014754
sharp,0.004110
sharpli,0.014355
sheer,0.011753
shift,0.014737
ship,0.027607
shipwreck,0.006138
shock,0.004158
short,0.012966
shortli,0.003785
shortliv,0.004778
shortterm,0.022106
shown,0.002933
shrank,0.006076
shun,0.006260
sign,0.002786
signal,0.003499
signifi,0.004907
silent,0.005041
similar,0.004042
similarli,0.003206
simon,0.004066
simpli,0.005524
simultan,0.003547
sinc,0.003385
size,0.015815
sketch,0.005429
slave,0.011999
slavenkassen,0.010121
slide,0.005282
slight,0.010106
slingelandt,0.030363
small,0.008285
smaller,0.002878
snuf,0.009025
socal,0.003415
social,0.002153
solac,0.019100
sold,0.003574
solid,0.003637
solut,0.002896
sometim,0.004407
somewhat,0.007176
soon,0.018623
sourc,0.014904
south,0.002650
southern,0.003141
sovereign,0.028319
space,0.002609
spain,0.010791
spanish,0.010981
spare,0.005268
spark,0.008958
speci,0.006226
special,0.002116
specialist,0.004199
specif,0.002025
specifi,0.003441
specul,0.042259
spend,0.007027
spike,0.029300
spot,0.004237
spread,0.008976
staat,0.008400
stabil,0.003156
stad,0.018050
stadthold,0.008183
stagnat,0.010138
stamp,0.010012
standard,0.002279
standpenningen,0.010121
start,0.021426
state,0.032583
statesgener,0.026328
statist,0.002777
steepli,0.007071
steer,0.005591
stock,0.111032
stockholm,0.005699
stockindex,0.010121
stocktrad,0.010121
stop,0.003344
strategi,0.003153
stream,0.012171
street,0.003862
strengthen,0.003828
stroke,0.005407
strongli,0.003262
structur,0.013843
stubbornli,0.024358
subordin,0.009343
subscript,0.005498
subservi,0.006284
subsid,0.005021
subsidi,0.014145
success,0.013468
suddenli,0.005021
suffici,0.003129
sum,0.003376
suppli,0.008278
supplier,0.009532
support,0.008050
suppos,0.003719
suppress,0.003876
suprem,0.003466
surinam,0.006425
surmount,0.007314
surplu,0.004453
surprisingli,0.005650
survey,0.003253
surviv,0.002919
suspend,0.008414
sustain,0.003310
sweden,0.008456
swedish,0.009232
switch,0.008312
swoop,0.007586
tafereel,0.020242
tailor,0.011195
tandem,0.006117
tariff,0.009298
tax,0.232224
taxat,0.049939
technic,0.003010
techniqu,0.002601
technolog,0.004881
telecommun,0.004412
temporari,0.003991
temporarili,0.004666
tend,0.002779
tendenc,0.003800
tenfold,0.006684
tenth,0.005188
th,0.081518
thank,0.013964
thcenturi,0.011709
themselv,0.010043
theoret,0.008326
therebi,0.021021
therefor,0.034510
therefrom,0.007408
thi,0.196241
thing,0.008080
thoroughgo,0.007845
thousandth,0.007512
threefold,0.006149
threw,0.006203
thrifti,0.008669
tie,0.009905
tierc,0.010121
tighten,0.005644
till,0.030663
time,0.049422
tith,0.007047
togeth,0.011670
toil,0.007000
toledo,0.006586
tontin,0.009550
took,0.015865
tot,0.007442
total,0.018894
tract,0.004826
trade,0.119982
trader,0.008334
transact,0.010933
transfer,0.011586
transit,0.008840
translat,0.005828
transport,0.005803
treasuri,0.004498
treati,0.007069
trekschuiten,0.009346
tremend,0.009836
trend,0.009699
tri,0.010657
troubl,0.008888
truce,0.017783
true,0.008222
truli,0.004241
trust,0.003700
tulip,0.014628
turn,0.002340
twelfth,0.005919
twelv,0.004465
twice,0.008068
twothird,0.009276
type,0.024421
ultim,0.005855
unabl,0.007035
unaccept,0.005516
unanim,0.005338
unattract,0.007227
unawar,0.005504
unchang,0.004513
undeni,0.006871
underli,0.003214
undermin,0.008973
underpin,0.009872
understand,0.002297
underwrit,0.006272
undiminish,0.008400
undu,0.006755
unenvi,0.009025
unfold,0.005565
unfortun,0.029279
unifi,0.003543
unintend,0.005706
unionofutrecht,0.010121
unit,0.003414
univers,0.001753
unlik,0.005637
unlimit,0.005065
unprofit,0.006539
unrel,0.004839
unsophist,0.007344
unsupport,0.006955
unwittingli,0.007284
updat,0.004100
upgrad,0.004859
upward,0.004712
urban,0.003550
use,0.013830
usual,0.026480
utrecht,0.012770
v,0.006036
valorem,0.008058
valu,0.030372
van,0.040729
vega,0.005597
veloc,0.004451
vener,0.005604
venetian,0.006067
ventur,0.031207
vergad,0.010121
veri,0.017397
verpond,0.040484
verzekeringen,0.010121
vessel,0.008242
vest,0.004439
viabl,0.004657
viciou,0.005936
view,0.013016
violat,0.003745
vividli,0.007512
voc,0.086727
voluntari,0.018732
voluntarili,0.005486
voter,0.004540
vri,0.006510
vulner,0.004305
wa,0.188752
wage,0.007438
wait,0.009179
wallow,0.008893
war,0.050495
way,0.007239
weak,0.003362
wealth,0.034857
wealthi,0.004416
web,0.003669
wed,0.005721
week,0.003557
wellmanag,0.008001
went,0.018628
west,0.002906
western,0.002546
westindi,0.009550
wherea,0.008811
wherewith,0.009025
whi,0.003114
wholesal,0.005268
wide,0.002180
wider,0.003854
widow,0.005706
wield,0.006057
william,0.002712
win,0.003806
windfal,0.006755
windmil,0.027736
wine,0.009526
wish,0.003742
wissel,0.010121
wisselbank,0.043347
wisselbanken,0.020242
wisselbrief,0.010121
wit,0.008245
withdraw,0.008137
withdrew,0.004757
withheld,0.006634
withhold,0.005811
withstand,0.005788
witt,0.006871
women,0.003221
woollen,0.007586
word,0.002349
work,0.004978
world,0.005148
worthi,0.005338
woud,0.009346
wouldb,0.006831
year,0.056373
yield,0.003306
zeeland,0.008001
zero,0.003559
zierikze,0.010121
