abov,0.016646
academ,0.009737
accordingli,0.014631
account,0.045942
actual,0.008320
adopt,0.008971
affect,0.016991
agm,0.053359
alloc,0.012973
altern,0.008353
analys,0.012710
analyz,0.010928
anarch,0.018960
anarchist,0.019142
ani,0.034378
annual,0.019973
anoth,0.006253
appli,0.006950
approach,0.007482
area,0.006457
asset,0.060093
assign,0.011677
assist,0.009693
associ,0.006350
assum,0.009006
author,0.007319
avail,0.007947
bank,0.075214
base,0.022659
bearer,0.021157
befor,0.006695
bet,0.019830
boldizzoni,0.028385
bond,0.044786
bondissu,0.032273
bonu,0.022419
book,0.014900
borrow,0.052042
bought,0.014979
boycott,0.019308
brand,0.031689
bring,0.009745
broaden,0.016716
busi,0.123718
buy,0.037203
capabl,0.010338
capac,0.010883
capit,0.631881
capitalequ,0.032273
capitalist,0.031019
case,0.006564
central,0.022079
chapter,0.012236
character,0.009958
charg,0.010132
citizen,0.010744
civic,0.017103
class,0.008708
close,0.007025
collect,0.007659
combin,0.007487
come,0.007509
commerci,0.010059
commod,0.050978
common,0.006349
compani,0.008291
complex,0.007683
compris,0.010742
comput,0.008701
concept,0.036640
conduct,0.009000
constant,0.031319
consum,0.020912
consumpt,0.012247
contract,0.010534
contrast,0.008870
contribut,0.015414
control,0.013953
convent,0.010168
corpor,0.020605
creat,0.006423
credit,0.060972
creditor,0.018327
critic,0.007724
crop,0.012983
cumul,0.016667
currenc,0.023014
cycl,0.021530
day,0.007924
deal,0.008459
debentur,0.259064
debenturehold,0.129092
debt,0.036531
debtor,0.020120
defer,0.072577
degre,0.008599
depend,0.006928
deposit,0.012432
depositor,0.021999
deriv,0.007984
descript,0.009599
determin,0.029170
develop,0.010503
differ,0.027835
direct,0.013946
directli,0.008437
director,0.025253
dissolut,0.015825
dividend,0.033758
divis,0.009101
doe,0.007105
drastic,0.015720
earn,0.011883
econom,0.041513
economi,0.017268
effect,0.012283
effici,0.009899
elect,0.018649
embargo,0.018982
end,0.006912
enterpris,0.011900
entiti,0.042908
entitl,0.013052
entrepreneur,0.031846
equip,0.011303
equiti,0.072331
especi,0.014682
etcetera,0.030053
euro,0.016085
exampl,0.022648
exchang,0.026811
expans,0.010667
expect,0.008686
expens,0.022583
f,0.009312
factor,0.040081
factori,0.013833
feudal,0.016332
feudalist,0.026351
fiat,0.041630
financ,0.070126
financi,0.342974
firm,0.033874
fix,0.050173
fixedincom,0.026855
food,0.009729
form,0.036172
founder,0.011849
framework,0.009685
freeli,0.014703
fulfil,0.013671
function,0.020764
fund,0.037285
furthermor,0.011585
futur,0.008234
gener,0.024289
good,0.030065
goodsservic,0.028385
govern,0.006428
grant,0.020727
gravedigg,0.030498
green,0.011626
growth,0.008557
ha,0.013523
held,0.023979
help,0.007401
high,0.006845
higher,0.016074
hire,0.014761
holder,0.015369
howev,0.010973
human,0.006513
idea,0.007587
ifr,0.050530
immedi,0.009937
impact,0.009264
import,0.011531
includ,0.004693
increas,0.013002
index,0.010739
indigen,0.013479
indirectli,0.014568
individu,0.006973
industri,0.007716
inflat,0.063658
influenc,0.014892
infrastructur,0.011446
inherit,0.012536
instanc,0.009155
institut,0.028615
instruct,0.012727
instrument,0.145737
insur,0.013033
intern,0.023696
invest,0.038501
investor,0.012879
irredeem,0.027652
issu,0.029017
item,0.024802
just,0.015765
key,0.008602
known,0.005648
labor,0.022197
leader,0.009883
leas,0.017062
lend,0.014520
lender,0.036543
level,0.006758
leverag,0.034888
life,0.007265
like,0.012073
limit,0.006902
liquid,0.012115
list,0.006284
loan,0.078677
locat,0.008309
long,0.007338
longterm,0.023787
machin,0.010912
machineri,0.013937
macmillan,0.015439
maintain,0.007880
mainten,0.081349
make,0.011494
mani,0.005108
manipul,0.012100
manufactur,0.010777
markedli,0.019333
market,0.101516
marktofutur,0.032273
marktomarket,0.025769
marxist,0.030688
mean,0.024896
meanwhil,0.013665
measur,0.022206
mechan,0.008345
medium,0.051536
meet,0.018288
militari,0.009142
modern,0.006778
monetari,0.024230
money,0.202000
mortgag,0.050076
nation,0.006262
natur,0.018100
necessari,0.009006
need,0.006793
net,0.011879
new,0.015144
nomin,0.023591
normal,0.009008
notion,0.010692
obtain,0.026352
onli,0.005202
open,0.007736
oper,0.021388
optim,0.011986
option,0.011792
ordinari,0.036971
organiz,0.014805
otherwis,0.010749
outcom,0.011553
output,0.011795
overdraft,0.051273
owner,0.051133
paid,0.057614
palgrav,0.016778
paper,0.009324
particip,0.008915
particularli,0.007925
partner,0.012354
pay,0.010550
payment,0.060904
pension,0.015701
peopl,0.006230
perceiv,0.011365
percentag,0.012593
percept,0.012029
perman,0.010952
person,0.007395
perspect,0.010112
physic,0.022185
player,0.014790
polici,0.025089
polit,0.021278
power,0.033159
prefer,0.059541
prepar,0.021020
present,0.006479
price,0.019187
prime,0.010412
probabl,0.009299
produc,0.013485
product,0.060787
profit,0.100770
project,0.008018
propos,0.007995
provid,0.028748
purchas,0.110218
pure,0.020494
question,0.008138
rate,0.064247
ratio,0.035062
read,0.007138
real,0.025591
receiv,0.023556
reconcil,0.016159
redeem,0.019333
reduc,0.015572
refer,0.012329
reflect,0.026497
regard,0.023655
regardless,0.024849
regul,0.019459
regulatori,0.014224
reinsur,0.023894
relationship,0.015690
reliabl,0.024578
remain,0.006797
report,0.015798
repres,0.013483
represent,0.010368
requir,0.032350
reserv,0.021861
resourc,0.016641
respect,0.007816
respons,0.007128
restrict,0.009525
retail,0.014864
retain,0.021616
return,0.008317
reveal,0.010810
risk,0.020225
role,0.021599
rule,0.015004
run,0.009032
save,0.035013
savedup,0.032273
schedul,0.013660
season,0.026563
sector,0.010775
secur,0.017464
sell,0.023252
sens,0.008456
serv,0.008181
servic,0.024023
set,0.006366
sew,0.023432
share,0.088098
sharehold,0.182816
shareshybrid,0.032273
shell,0.013833
short,0.017526
shortterm,0.044821
shovel,0.025265
signal,0.023651
size,0.017815
social,0.043659
socialist,0.012796
societi,0.021499
sold,0.012079
solvenc,0.025148
sourc,0.014389
specif,0.006843
stabl,0.011256
stage,0.029967
standard,0.030816
start,0.007240
state,0.005004
statement,0.010500
stick,0.017199
stock,0.044141
storag,0.027223
store,0.034765
stream,0.013709
strength,0.011601
style,0.023571
subcategor,0.026679
suppli,0.037299
surplu,0.015049
symbol,0.010384
synonym,0.014275
tailor,0.018915
talli,0.022364
term,0.037834
themselv,0.008484
theori,0.013409
thi,0.021391
thu,0.006686
time,0.015182
tool,0.009159
topic,0.009075
track,0.012655
trade,0.082744
trader,0.014081
trust,0.025008
turnov,0.018384
type,0.013754
typic,0.023021
underli,0.021725
uniform,0.013262
unit,0.046154
use,0.032716
usual,0.041300
valu,0.095305
valuat,0.031650
vari,0.016864
variabler,0.031584
variou,0.019535
ventur,0.015065
veri,0.006532
view,0.007331
vote,0.021693
wampum,0.028967
wealth,0.023558
weather,0.014026
wellb,0.030603
west,0.009821
wherea,0.009925
wholli,0.016643
work,0.016822
year,0.017318
york,0.008809
