abov,0.006762
absenc,0.019420
access,0.007308
accomplish,0.021230
accord,0.026408
achiev,0.019933
action,0.019469
activ,0.005270
adam,0.032157
addit,0.016030
address,0.007953
adjust,0.010110
administr,0.007385
advantag,0.008198
advoc,0.036266
affect,0.006902
agenc,0.008309
agenda,0.012304
agent,0.009005
albu,0.022466
alloc,0.031621
allow,0.021009
alway,0.007102
american,0.017953
analys,0.010326
anarchist,0.015551
ani,0.032584
annerobertjacqu,0.022849
anoth,0.010160
antitrust,0.034507
anyon,0.023030
anyth,0.020877
appeal,0.019673
appli,0.005646
approxim,0.014396
area,0.005245
argu,0.063237
argument,0.008874
arithmet,0.012896
aros,0.010489
artifici,0.008919
aspect,0.006941
asset,0.009764
assign,0.009487
associ,0.005159
assumpt,0.017997
asymmetr,0.014450
asymmetri,0.031453
attempt,0.018074
author,0.023787
avail,0.006456
award,0.009311
baker,0.028590
balanc,0.008359
bank,0.007638
bargain,0.028615
baron,0.014053
barrier,0.021493
base,0.023011
bastiat,0.021817
becaus,0.019176
becom,0.005098
behavior,0.014941
belief,0.008525
believ,0.026348
benefit,0.015457
benevol,0.015828
benjamin,0.012076
bernard,0.012404
better,0.007181
black,0.025785
block,0.009487
boettk,0.022651
book,0.006052
brewer,0.018597
bring,0.007917
brotherlov,0.026219
burden,0.012156
busi,0.035897
butcher,0.035508
buy,0.050374
buyer,0.038133
buyout,0.019480
cambridg,0.008447
canadian,0.010826
cantillon,0.020526
capit,0.048560
capitalist,0.037801
case,0.010666
ceil,0.015808
central,0.011958
centuri,0.005477
certain,0.017514
challeng,0.007619
chapter,0.009941
character,0.008090
chicago,0.020792
china,0.008195
choic,0.008381
choos,0.009176
churchil,0.015828
circumst,0.009798
civic,0.013895
claim,0.012950
class,0.014150
classic,0.021143
coerciv,0.049887
collaps,0.009396
collect,0.006222
collectivist,0.018448
common,0.015475
commonli,0.014169
commun,0.005578
communist,0.010521
compani,0.026945
competit,0.117441
competitor,0.013215
complet,0.011784
complex,0.018727
conceiv,0.011201
concept,0.005953
concern,0.005989
condit,0.035816
conflict,0.007945
confus,0.009602
connect,0.007024
consent,0.013093
consid,0.009950
constant,0.008481
constitut,0.006736
consum,0.050969
contain,0.006120
contemporari,0.008344
contend,0.036893
content,0.008418
continent,0.011361
continu,0.005169
contract,0.008558
contractu,0.015160
contrast,0.007206
control,0.022673
cooper,0.048925
cooperwolfl,0.024777
coordin,0.018087
cornel,0.013492
corpor,0.041851
correct,0.008591
cost,0.045004
countri,0.016843
cox,0.015687
creat,0.026092
creation,0.007765
critic,0.043928
critiqu,0.010839
crop,0.021095
cultur,0.006414
curv,0.041985
cycl,0.008745
david,0.007578
deadweight,0.019096
deal,0.006872
debat,0.015885
decentr,0.013939
decis,0.007193
decreas,0.016803
defend,0.009545
deferenti,0.023061
defin,0.023419
definit,0.006745
degre,0.034933
demand,0.099018
demonstr,0.007668
depress,0.010600
deregul,0.031534
deris,0.019346
deriv,0.006486
describ,0.005251
design,0.012532
desir,0.008029
determin,0.011849
develop,0.008533
differ,0.013568
difficult,0.007441
dinner,0.034001
direct,0.011330
discriminatori,0.017793
disord,0.010997
dispar,0.013110
disput,0.008581
disrupt,0.010993
distort,0.012046
distribut,0.028157
diverg,0.011530
divid,0.006765
doctrin,0.010231
doe,0.028863
dogmat,0.015977
dollar,0.009968
domest,0.008839
domin,0.007020
dure,0.004911
earli,0.005137
econom,0.179874
economi,0.112235
economist,0.077146
educ,0.006543
effect,0.004989
effectu,0.019036
effici,0.032170
elabor,0.010688
elect,0.007575
elimin,0.026647
emerg,0.006582
emphas,0.009014
empir,0.007167
employ,0.006813
employeeown,0.023534
enabl,0.008145
end,0.011231
endless,0.015726
enforc,0.009629
ensur,0.008438
entail,0.011986
enter,0.015018
enterpris,0.067677
entir,0.006662
entrant,0.017639
entrepreneur,0.012936
entrepreneurship,0.015532
entri,0.019870
environ,0.006808
envis,0.014030
equal,0.034974
equilibr,0.018921
equilibrium,0.139553
erect,0.013928
essenti,0.007140
everyon,0.011858
everyth,0.010227
exampl,0.009200
excess,0.009926
exchang,0.021782
exercis,0.008825
exist,0.030646
exit,0.013473
expect,0.007057
explain,0.013829
exploit,0.009561
explor,0.007826
express,0.006655
extern,0.004016
factor,0.013025
fail,0.007722
failur,0.062558
famou,0.008485
farmer,0.032615
farrar,0.018755
favor,0.008483
favour,0.010100
feasibl,0.012479
featur,0.013892
feder,0.008178
fertil,0.010766
fewer,0.010892
fifti,0.013018
filip,0.019282
financ,0.016277
financi,0.007332
firm,0.009173
fiscal,0.034934
fix,0.016304
floor,0.012493
flourish,0.011304
flow,0.008088
fluctuat,0.011469
follow,0.008787
forc,0.016515
foreign,0.014299
form,0.037784
format,0.014982
formul,0.008795
foundat,0.007162
founder,0.009626
framework,0.007869
frdric,0.018448
fred,0.014245
free,0.294864
freedom,0.034682
freeli,0.011945
freemarket,0.064718
freest,0.020623
french,0.007391
frequent,0.007721
friedman,0.028392
friedrich,0.033702
fulli,0.008280
function,0.005623
fundament,0.014067
furthermor,0.009412
gain,0.006682
gener,0.023680
genuin,0.025482
geoist,0.046123
geolibertarian,0.021283
georg,0.007915
georgist,0.020723
giant,0.012010
giroux,0.019096
global,0.007293
goal,0.022664
god,0.009613
golden,0.011129
good,0.097702
govern,0.130574
governmentgr,0.021967
governmentrun,0.019998
great,0.006190
greatest,0.009665
group,0.009908
grow,0.007042
growth,0.020856
guarante,0.010074
ha,0.040285
hamper,0.014557
hand,0.020416
happen,0.008680
harcourt,0.016766
harvard,0.032192
harvey,0.013928
hayek,0.051002
healthi,0.023984
help,0.012025
henc,0.008569
henri,0.008852
heritag,0.011234
hi,0.034472
high,0.011122
higher,0.006529
highest,0.008410
highli,0.007230
histor,0.006169
historian,0.018510
honesti,0.016738
honestli,0.019549
hope,0.009351
howev,0.008915
human,0.010583
humor,0.014874
hundredth,0.019480
idea,0.024657
ideal,0.008936
ident,0.007864
identifi,0.006639
ief,0.024777
illus,0.013561
illustr,0.018733
implement,0.007646
impli,0.017077
import,0.004684
impos,0.009445
imposs,0.009286
improv,0.013517
incent,0.022870
incentiv,0.021047
includ,0.022876
incom,0.033650
increas,0.015844
index,0.008725
indic,0.006756
individu,0.067982
industri,0.025076
inelast,0.034708
inequ,0.034668
influenc,0.012098
inform,0.032762
inher,0.010525
initi,0.005967
instabl,0.023751
instanc,0.007438
instead,0.006433
institut,0.005811
intend,0.025507
intent,0.009243
interact,0.006852
interchang,0.012571
interfer,0.011210
interven,0.047210
intervent,0.089692
intrins,0.011629
introduc,0.006442
invest,0.007820
invis,0.026813
involv,0.005324
isbn,0.038956
issu,0.005893
item,0.010074
j,0.020692
jame,0.007746
jaroslav,0.020431
jeanbaptist,0.014889
john,0.006247
joseph,0.009050
just,0.019212
justic,0.018564
justif,0.012833
karl,0.030989
kelso,0.022290
key,0.006989
keynesian,0.030157
klein,0.029087
known,0.013766
labor,0.054100
lack,0.021005
laissezfair,0.063232
land,0.041699
lang,0.015177
larg,0.004839
laun,0.022466
law,0.027658
lawrenc,0.012284
lead,0.016436
leav,0.007776
led,0.011852
left,0.007319
legal,0.007577
legisl,0.008407
lesserknown,0.020827
level,0.010981
liberti,0.023311
life,0.011805
like,0.004904
limit,0.016823
link,0.003992
liquid,0.009842
liter,0.010558
lon,0.016446
look,0.007581
loss,0.008031
loui,0.010360
low,0.014074
lower,0.013569
lowest,0.032764
maintain,0.019206
major,0.004871
make,0.014007
malthu,0.016940
mani,0.008300
manner,0.008861
margaret,0.013416
margin,0.020124
market,0.591068
marketbas,0.033704
marxist,0.012466
massachusett,0.012040
mathemat,0.007217
maxim,0.031326
maximum,0.009984
mean,0.010113
measur,0.018041
mechan,0.006780
meet,0.007428
mental,0.009935
merg,0.011058
met,0.009389
method,0.011372
methodolog,0.009718
michael,0.016899
milton,0.027262
minimum,0.020030
mit,0.011156
model,0.017157
modern,0.016521
monetari,0.009842
money,0.008205
moneydriven,0.025660
monopoli,0.129401
monopolis,0.020723
moral,0.009185
mother,0.010581
motiv,0.017939
mutualist,0.018125
myth,0.011725
naomi,0.019036
nation,0.010175
natur,0.019606
nearest,0.014799
necess,0.011505
necessari,0.021951
necessarili,0.017975
need,0.027597
neg,0.007961
neoclass,0.013895
network,0.015351
new,0.012303
newcom,0.017677
nobel,0.010688
nonlaissezfair,0.026219
nonmarket,0.018864
norm,0.010649
notabl,0.007045
note,0.010587
number,0.004593
numer,0.006802
o,0.009682
oblig,0.010139
occur,0.005833
offer,0.027309
offici,0.006970
oligopoli,0.017493
ongo,0.010046
onli,0.025358
onlin,0.008035
open,0.012571
oper,0.011584
oppon,0.011405
opposit,0.015109
optimum,0.015245
order,0.060715
ostens,0.014874
ourselv,0.014829
outcom,0.018773
overal,0.016806
owner,0.010385
ownership,0.043130
paid,0.009361
palda,0.023288
pareto,0.032313
particip,0.007243
particular,0.005747
particularli,0.006438
paul,0.007980
pay,0.025715
peac,0.008854
peopl,0.015186
perceiv,0.009233
perfect,0.030774
perform,0.006454
peter,0.008372
philosoph,0.032235
pierrejoseph,0.019549
place,0.005192
plan,0.027813
point,0.026629
polanyi,0.056594
polic,0.020422
polici,0.054356
polit,0.034575
pollobsess,0.026219
popular,0.013137
possibl,0.021480
power,0.059266
pp,0.008583
predomin,0.012010
prefer,0.024186
presenc,0.007961
preserv,0.008874
press,0.030982
pressur,0.023775
prevent,0.015053
price,0.226032
priceset,0.021675
primarili,0.007196
principl,0.018960
privat,0.045295
privileg,0.012016
prize,0.009819
produc,0.032868
product,0.049385
profit,0.081868
promin,0.008255
promot,0.030041
properli,0.011071
properti,0.025498
propon,0.033097
propos,0.019487
protect,0.007017
proudhon,0.038314
proven,0.011120
provid,0.004671
public,0.015906
publicli,0.011266
publish,0.005843
punish,0.023164
purchas,0.044772
pure,0.016650
purest,0.018497
pursu,0.019150
quantiti,0.025726
question,0.013223
r,0.007045
ralston,0.042816
rampant,0.016683
rang,0.012640
rate,0.006524
reach,0.013571
read,0.005799
real,0.013860
realiz,0.009336
realli,0.010742
reason,0.017978
receiv,0.038276
recess,0.011951
rediscov,0.014543
redistribut,0.013884
reduc,0.012651
reed,0.015870
refer,0.006678
regard,0.012812
regul,0.063239
regular,0.009147
reinvent,0.016711
reject,0.008231
rel,0.011973
relationship,0.012747
releas,0.008344
rent,0.038570
replac,0.006804
republ,0.007836
requir,0.042051
resid,0.008846
resourc,0.060838
respect,0.006350
restrict,0.007738
result,0.046511
return,0.013515
revers,0.009192
review,0.007481
revolut,0.008271
reward,0.011551
ricardian,0.019549
ricardo,0.015177
richard,0.008248
right,0.053927
rightw,0.015403
rigor,0.011243
robert,0.007341
role,0.011698
roughli,0.009366
round,0.010577
rule,0.006095
run,0.014675
s,0.004735
salari,0.012350
sale,0.009727
sandel,0.042325
saul,0.016110
say,0.021702
scarciti,0.013950
scholar,0.008479
scholast,0.014463
scienc,0.011231
scribe,0.017253
sector,0.017508
secur,0.014188
seek,0.007492
selfinterest,0.030190
selflov,0.022849
selfmanag,0.035745
sell,0.018891
seller,0.026683
servic,0.058551
set,0.005172
sever,0.009689
shape,0.007958
share,0.019519
shift,0.024276
shock,0.011415
short,0.007119
signific,0.011864
significantli,0.008569
similar,0.016647
sinc,0.004646
situat,0.007154
skew,0.015955
smith,0.049228
social,0.070939
socialist,0.083168
societ,0.013068
societi,0.040755
somer,0.020827
soviet,0.010065
spanish,0.010049
speak,0.008910
specif,0.011120
specul,0.019336
spell,0.012825
spend,0.009646
spontan,0.072060
stand,0.008733
state,0.032528
statement,0.008531
stateown,0.027364
stiglitz,0.017529
stimulu,0.013610
stock,0.008965
strau,0.018649
stronger,0.022376
struggl,0.009741
studi,0.014733
subject,0.005911
suboptim,0.018214
subsid,0.013786
subsidi,0.012944
subsidiar,0.022651
substanc,0.009769
success,0.006162
suggest,0.026022
superior,0.010343
supplement,0.011505
suppli,0.106061
supplier,0.026170
support,0.027626
surplu,0.024452
suscept,0.013397
sustain,0.009089
talk,0.009999
tank,0.012872
tariff,0.025527
tax,0.043667
taxat,0.011425
taxpay,0.015513
term,0.013173
th,0.005328
theori,0.032682
therefor,0.012632
thesi,0.011500
thi,0.066041
think,0.008058
thinker,0.022468
thoma,0.008312
threat,0.009747
thu,0.010864
time,0.020558
trade,0.026889
tradit,0.005851
transact,0.030017
transform,0.007606
trap,0.012175
treat,0.008137
tri,0.036572
trivial,0.013873
true,0.015048
tucker,0.017156
turgot,0.019765
type,0.005587
typic,0.012468
unaccept,0.015144
underconsumpt,0.021675
undermin,0.012317
understood,0.017442
union,0.013810
uniqu,0.007923
unit,0.014061
univers,0.019252
unregul,0.065685
usag,0.009747
use,0.011391
util,0.025221
valu,0.035736
vanek,0.064616
vari,0.006850
variabl,0.016989
variou,0.042322
verhaegh,0.026219
veri,0.005307
view,0.047648
vii,0.014136
vol,0.009987
voluntari,0.025713
wa,0.015241
wage,0.071479
walra,0.018597
want,0.008579
way,0.009937
wealth,0.019139
welfar,0.010703
went,0.008523
west,0.015958
wholli,0.013521
winston,0.015667
wish,0.010275
work,0.009111
worker,0.025951
world,0.014134
wors,0.012779
wrong,0.010929
wrote,0.007917
year,0.004689
