abil,0.005685
abl,0.005219
abov,0.010581
abstract,0.003635
abund,0.004190
accept,0.005188
access,0.008576
accomplish,0.008305
accord,0.016529
achiev,0.002599
acid,0.008326
act,0.004723
action,0.005077
activ,0.004123
actor,0.004763
ad,0.002636
add,0.007880
addit,0.002090
adopt,0.002851
adult,0.004044
advanc,0.007655
advantag,0.006414
advoc,0.003546
affirm,0.004987
africa,0.003355
age,0.005175
agonist,0.007401
agre,0.003115
agreement,0.003153
agricultur,0.003071
aibas,0.009110
aid,0.015498
aim,0.002950
air,0.003174
albert,0.004199
alien,0.029051
alik,0.005567
aliv,0.015488
allow,0.010273
alm,0.036898
almsgiv,0.009206
alon,0.003533
alpha,0.004782
alter,0.003706
altern,0.015929
altruism,0.006293
altruist,0.019710
alway,0.002778
amd,0.008233
america,0.002895
american,0.002341
analog,0.003692
analysi,0.004981
analyz,0.003473
anarchist,0.018250
anarchocommunist,0.025124
anarchoprimitivist,0.010256
anguish,0.008479
ani,0.014567
anim,0.002892
annett,0.016295
annual,0.006348
anoth,0.007949
answer,0.003679
anthropolog,0.023421
anthropologist,0.079516
anyon,0.004504
appadurai,0.010524
appear,0.004786
appli,0.004417
approach,0.002377
appropri,0.003312
approv,0.003549
archetyp,0.006054
architectur,0.003897
area,0.004104
argu,0.035733
argument,0.006942
aris,0.006741
aristocrat,0.005700
arjun,0.010038
armband,0.009425
art,0.006321
articl,0.004911
artist,0.004336
artwork,0.006329
ask,0.013662
aspect,0.008146
asset,0.003819
associ,0.002018
attempt,0.002356
attend,0.003942
attent,0.010107
attract,0.003324
author,0.009305
avail,0.002525
awar,0.007476
away,0.031474
axial,0.006526
bad,0.008477
balanc,0.009810
bank,0.005976
baptism,0.006775
bar,0.004670
barter,0.018056
base,0.007201
basi,0.002573
basic,0.002506
batail,0.017877
bce,0.004572
becam,0.006831
becaus,0.009377
becom,0.007977
began,0.004975
beggar,0.023566
believ,0.007730
belli,0.006736
benefit,0.015116
best,0.002745
bestow,0.006453
better,0.008428
big,0.037723
billion,0.007077
birddavid,0.009853
birthday,0.012227
bit,0.005067
black,0.003362
bloch,0.013659
blood,0.024343
blur,0.005801
bodi,0.010000
bodyenhanc,0.010869
bohannan,0.010256
book,0.021310
bought,0.009521
bound,0.003727
boundari,0.003478
bowi,0.017577
brahmin,0.007358
brazil,0.004452
break,0.003434
bred,0.006638
bring,0.003097
broke,0.004272
bronisaw,0.008278
bronislaw,0.008425
brother,0.004178
browni,0.009692
bruce,0.005118
buddhism,0.010146
buddhist,0.005011
build,0.002636
built,0.009317
bundl,0.011078
burial,0.005663
burn,0.021354
c,0.002384
calcul,0.003179
came,0.002728
canada,0.003573
cannabi,0.013473
capac,0.003458
capit,0.008141
capitalist,0.004929
care,0.003134
career,0.004093
carol,0.006184
carri,0.002689
carv,0.005529
case,0.012518
catpaw,0.010869
cattl,0.014662
ceas,0.004214
cement,0.005502
centauri,0.008278
center,0.002661
centr,0.003430
central,0.002339
centuri,0.002142
ceremoni,0.009212
certain,0.004567
certainli,0.004763
challeng,0.002980
chang,0.003762
changer,0.008719
charact,0.010344
character,0.015824
characterist,0.002876
charit,0.006136
chariti,0.075800
chicago,0.004066
child,0.004007
children,0.006863
chri,0.016851
christian,0.003233
circl,0.004020
circumst,0.003833
citizen,0.003414
civil,0.002862
claim,0.007599
class,0.005535
classic,0.008270
claud,0.005405
cleans,0.006548
clear,0.012423
clearli,0.007504
client,0.004805
cliff,0.005587
close,0.004465
coast,0.007617
coat,0.004943
code,0.006457
coffe,0.005208
coinag,0.011835
collabor,0.015332
collect,0.004868
colon,0.004427
coloni,0.003450
colonist,0.005705
columbia,0.009282
come,0.004773
command,0.003501
commerc,0.004158
commerci,0.012788
commod,0.068857
commodif,0.016059
commodifi,0.028654
common,0.042376
commonli,0.005542
commun,0.039279
compet,0.010322
competit,0.013126
complet,0.002304
complex,0.004884
complic,0.003782
comput,0.002765
concept,0.016303
concert,0.005627
condit,0.002335
conduct,0.002860
confer,0.003285
confirm,0.003597
confucian,0.006068
confus,0.011268
consequ,0.002837
consid,0.007785
consist,0.002233
constant,0.006635
constitut,0.007905
construct,0.005168
consum,0.019938
consumpt,0.003892
contact,0.003502
contain,0.002394
contend,0.004810
content,0.039517
context,0.005871
continent,0.004444
contrast,0.016915
contribut,0.014697
contributor,0.004882
control,0.006652
convert,0.003402
cooper,0.009569
copi,0.004023
copyleft,0.018850
copyright,0.058987
cori,0.007823
corpor,0.019646
cost,0.011737
countercultur,0.007216
countergift,0.010524
countri,0.002196
countrysid,0.005470
cradl,0.006711
creat,0.030621
creation,0.003037
creativ,0.012937
creator,0.010004
credit,0.006459
criteria,0.004179
critic,0.002454
critiqu,0.004240
cromnibu,0.010869
cross,0.003642
crosscultur,0.006662
crown,0.008645
cultur,0.037641
currenc,0.003657
currencyless,0.010524
current,0.002136
custom,0.016873
cycl,0.003421
dana,0.013631
danger,0.003920
daniel,0.004151
darr,0.010256
data,0.002663
david,0.005929
dawn,0.005281
day,0.002518
deal,0.002688
death,0.002923
debat,0.021749
debian,0.009310
debt,0.050311
debtor,0.006394
decisionmak,0.004810
declar,0.003223
decommodifi,0.021739
deed,0.005789
default,0.005092
definit,0.005277
degrad,0.004787
demand,0.002979
democraci,0.003717
demonstr,0.008999
depend,0.008808
deriv,0.002537
descend,0.008079
describ,0.028759
descript,0.003050
desert,0.009491
design,0.002451
desir,0.006282
destroy,0.003490
detriment,0.005484
develop,0.021698
dian,0.007125
die,0.003197
differ,0.017692
differenti,0.013517
digest,0.005099
digger,0.025605
dipol,0.006749
direct,0.006648
directli,0.002681
discuss,0.005446
dismiss,0.004446
display,0.003793
disposit,0.011368
dispossess,0.007379
distanc,0.003553
distant,0.004639
distinct,0.010281
distinguish,0.020741
distribut,0.022030
distributor,0.007040
district,0.016147
divis,0.008677
dna,0.012921
doctorow,0.009110
doctrin,0.008004
document,0.003222
documentari,0.005128
doe,0.002258
dollar,0.003899
domain,0.013038
don,0.005539
donat,0.029994
donor,0.010467
download,0.011784
draw,0.006842
dri,0.004371
drug,0.007872
duan,0.007922
dure,0.003842
duti,0.003971
dyadic,0.008233
earli,0.002009
earn,0.003776
earth,0.006309
eas,0.004625
eaten,0.006061
econom,0.026387
economi,0.137205
editor,0.004277
effect,0.007808
effort,0.002782
egalitarian,0.006175
egoboo,0.010869
eighteenth,0.005135
elabor,0.004181
element,0.002555
elit,0.004461
els,0.004137
embed,0.009345
emblemat,0.008425
embodi,0.018583
embrac,0.009065
embryo,0.005567
emerg,0.005150
emphas,0.010579
emphasi,0.014578
employ,0.002665
employe,0.004210
enclosur,0.006736
encompass,0.003761
encor,0.009310
encount,0.003957
encourag,0.009907
encyclopedia,0.003460
end,0.010984
endang,0.005582
endebted,0.010869
endow,0.005089
enemi,0.004490
energi,0.002812
engin,0.002895
english,0.011193
enigma,0.007295
enigmat,0.008107
enjoin,0.007543
enjoy,0.003825
entangl,0.006184
enter,0.005874
entitl,0.004148
environ,0.002663
environmentalist,0.006736
ep,0.006515
equal,0.010945
equit,0.005991
eric,0.009545
especi,0.002333
essai,0.007336
essay,0.003893
essenti,0.005586
establish,0.023588
estat,0.008554
ethnic,0.003965
ethnocentr,0.007823
ethnographi,0.006915
event,0.015689
everett,0.007336
everyon,0.004639
everyth,0.012003
evil,0.009775
exact,0.007666
examin,0.006289
exampl,0.030592
exchang,0.201666
exclus,0.003432
exil,0.004589
exist,0.005994
expect,0.024846
expens,0.003588
experi,0.002470
expert,0.003968
expir,0.005431
explain,0.005409
explicit,0.008774
explicitli,0.008181
exploit,0.003740
explos,0.004454
express,0.002603
extend,0.002650
extern,0.003142
extra,0.004601
extrem,0.002882
fact,0.005102
failur,0.006992
fair,0.008139
famili,0.013911
famin,0.005380
farmer,0.017011
feast,0.006320
featur,0.010869
feder,0.003199
fedora,0.010256
fee,0.009405
feel,0.007512
festiv,0.004990
feudal,0.005190
fiction,0.012856
field,0.004388
fieldsit,0.010869
file,0.017939
fileshar,0.026816
film,0.004075
financi,0.002868
firm,0.007177
fit,0.003658
flat,0.004595
flow,0.006328
focus,0.002797
folk,0.005194
follow,0.001718
food,0.012369
forbid,0.005778
forc,0.004307
forget,0.005997
form,0.027919
format,0.002930
forth,0.004367
forward,0.011442
foster,0.009186
foundat,0.002801
founder,0.003765
framework,0.003078
frank,0.004207
free,0.083443
freedom,0.006783
freegan,0.009692
freeli,0.004672
freeshop,0.010524
french,0.011566
frequent,0.009061
friend,0.004267
fulfil,0.004344
fulli,0.006478
function,0.004399
fund,0.005924
funer,0.041158
furnitur,0.006366
futur,0.013084
gain,0.010456
game,0.003687
gandhian,0.009110
garment,0.006505
gave,0.006252
gender,0.004606
gener,0.009263
geneviev,0.009310
georg,0.003096
gerrard,0.008593
gestur,0.005943
giesler,0.010869
gift,0.790528
giftcommod,0.010869
giftgiv,0.076815
giftlik,0.010869
giftprest,0.010869
giveaway,0.008593
given,0.047409
giver,0.046753
global,0.014266
gnu,0.007295
gnulinux,0.009853
godeli,0.018412
good,0.052553
gossip,0.007675
govern,0.008172
graeber,0.016749
grant,0.006587
gratitud,0.006886
great,0.009686
greater,0.005412
greed,0.013301
gregori,0.031358
group,0.031010
grow,0.002755
growth,0.002719
guarante,0.003941
guid,0.003037
guin,0.006886
guinea,0.020293
ha,0.035817
habit,0.004555
hagen,0.007470
hann,0.015776
hard,0.007052
healthi,0.004691
hegelian,0.006788
heirloom,0.018043
held,0.015241
help,0.002352
henc,0.006704
henri,0.003463
hi,0.013485
hierarchi,0.004378
higher,0.002554
highest,0.003290
highli,0.011314
highlight,0.008848
hindu,0.004981
hinduism,0.005166
histor,0.004827
histori,0.003579
historian,0.003620
hoard,0.006886
hogan,0.015241
hold,0.010352
holder,0.004884
holiday,0.005057
homeless,0.006592
homeplanet,0.010869
homestead,0.007470
honor,0.004444
horn,0.005448
hous,0.008646
household,0.004274
howev,0.022668
human,0.010350
hundr,0.003264
hunt,0.004336
hunter,0.005444
huntergather,0.011995
hybrid,0.004488
hyde,0.007161
ibm,0.005525
ice,0.004686
idc,0.010256
idea,0.007234
ideal,0.006992
ident,0.006153
identifi,0.007791
ideolog,0.020293
ignor,0.007453
illeg,0.004329
immedi,0.006316
immov,0.007494
imper,0.005812
implic,0.003743
implicit,0.005032
import,0.007330
imprecis,0.006662
improv,0.002643
impur,0.006250
inalien,0.037841
includ,0.013423
inclus,0.008851
incom,0.003290
increas,0.002066
incred,0.006144
increment,0.010854
indebted,0.007161
independ,0.002206
india,0.009868
indigen,0.012851
individu,0.011081
indonesia,0.010178
industri,0.002452
influenc,0.002366
infonom,0.010869
inform,0.008544
infring,0.006443
infus,0.006168
inhabit,0.003735
inherit,0.015937
initi,0.002334
insid,0.003603
inspir,0.003554
instat,0.008107
instead,0.002516
institut,0.009094
institution,0.005678
insur,0.012426
integr,0.002592
intellectu,0.014744
intellig,0.003352
intend,0.006652
intent,0.003615
interact,0.002680
intern,0.001882
internet,0.003524
interpret,0.002866
intersect,0.004841
intrigu,0.006121
introduc,0.002520
invent,0.003496
invest,0.009177
invit,0.004427
involv,0.002082
iron,0.003848
irrelev,0.005336
irreplac,0.008593
irresist,0.007922
islam,0.003576
island,0.012738
itch,0.008278
item,0.007882
itemsonli,0.010869
jail,0.006136
jame,0.012121
jenkin,0.006930
jewel,0.013010
join,0.003195
jointli,0.005183
jonathan,0.020093
journey,0.004993
joy,0.005824
judaism,0.005138
just,0.005010
justic,0.003631
k,0.003257
kept,0.003871
kernel,0.012517
key,0.002734
kim,0.006004
kin,0.038722
kind,0.025757
king,0.003422
kingdom,0.002857
kinship,0.012695
knit,0.007447
knowledg,0.005404
known,0.001795
kropotkin,0.007494
kula,0.081993
la,0.003585
labor,0.007054
labour,0.010910
lag,0.005592
land,0.021749
larg,0.011358
larger,0.005670
largest,0.005933
late,0.002487
later,0.002136
laugh,0.007090
law,0.004327
lawrenc,0.004805
le,0.008558
lead,0.002143
leadership,0.003897
learn,0.009052
leav,0.006083
led,0.002318
legal,0.020749
lessig,0.009021
lewi,0.004508
licenc,0.006152
licens,0.012832
life,0.011545
like,0.019186
limit,0.008774
line,0.007712
lineag,0.010633
linguist,0.004222
link,0.003123
linux,0.021948
loan,0.012502
long,0.002332
longer,0.002962
longterm,0.007559
look,0.002965
loyalti,0.015614
lvistrauss,0.007424
maastricht,0.007090
magic,0.005008
main,0.002273
mainli,0.002981
maintain,0.005009
make,0.018265
male,0.004028
malinowski,0.080677
man,0.041313
manekineko,0.010869
mani,0.014611
mar,0.004915
marcel,0.025354
margin,0.003936
marilyn,0.007161
market,0.069904
marketbas,0.006592
marku,0.007216
marriag,0.009081
marshal,0.009521
massconsumpt,0.010524
massgift,0.043479
massiv,0.003821
master,0.007666
materi,0.015101
matrilin,0.007855
matter,0.002701
maudit,0.010256
mauric,0.016069
mauss,0.097284
mausss,0.010869
mean,0.003956
meant,0.007368
meat,0.009968
media,0.003294
medic,0.006615
meet,0.005812
member,0.018333
memberl,0.010869
memberorgan,0.010869
membership,0.007912
men,0.016652
mental,0.003886
mention,0.010432
merit,0.025627
microcredit,0.008788
migrat,0.003837
militari,0.005811
militarycoinag,0.010869
million,0.002821
minimum,0.003917
minisocieti,0.010524
mode,0.004043
model,0.004474
modern,0.004308
moka,0.094252
monetari,0.003850
money,0.035309
moneybas,0.009310
monk,0.026563
monopolist,0.006505
moral,0.025153
morri,0.005705
mostli,0.003064
motiv,0.017544
mount,0.004187
mountain,0.003864
moveabl,0.007518
movement,0.004953
movi,0.004912
multimilliondollar,0.008425
music,0.011842
mutual,0.022732
mutualaid,0.010256
mystifi,0.009206
napster,0.009310
narr,0.004726
narrowli,0.005582
nation,0.001990
natur,0.019174
necessarili,0.003515
necklac,0.007956
need,0.012955
neg,0.009343
neighborhood,0.005440
netherland,0.004185
network,0.012010
nevada,0.006915
new,0.017647
news,0.003920
nexu,0.006711
nichola,0.004831
nigeria,0.005749
nobl,0.014011
nonaltruist,0.009692
nonbureaucrat,0.009853
noncapitalist,0.008233
noncommodifi,0.032609
noneconom,0.007823
nonetheless,0.004492
nonfre,0.008593
nonhierarch,0.008655
nonmarket,0.059038
nonprofit,0.005180
nonriv,0.009206
noospher,0.008719
norm,0.008331
north,0.008555
northeast,0.005115
northern,0.003357
northwest,0.004912
note,0.006212
noth,0.003800
notion,0.003398
novel,0.007950
novemb,0.003221
nowher,0.006184
number,0.008984
numer,0.005321
object,0.044195
oblig,0.019831
obsolet,0.005602
occur,0.004563
offer,0.002670
onc,0.002683
onein,0.010038
oneofakind,0.010038
oneouttyp,0.010524
onli,0.013226
onlin,0.009430
ontario,0.005905
open,0.022130
opensourc,0.026508
oper,0.011329
opportun,0.003392
opposit,0.014776
order,0.007917
ordin,0.005297
organ,0.031346
origin,0.003980
ornat,0.007888
outsid,0.008219
owner,0.024376
ownership,0.004218
p,0.005483
pacif,0.004163
pacifist,0.007216
packag,0.004553
paid,0.003662
pair,0.003827
panhistor,0.009853
papua,0.025139
paradigm,0.008703
paradox,0.004593
parri,0.052978
parti,0.005551
particip,0.014167
participatori,0.006474
particular,0.011240
particularli,0.007556
partner,0.011779
pass,0.005580
patron,0.005497
paul,0.003122
pay,0.016766
payment,0.003871
peac,0.010391
peaceabl,0.008719
peakedroof,0.010869
pearl,0.005544
peasant,0.015024
penetr,0.004798
peopl,0.025743
perceiv,0.007224
perfect,0.004012
perform,0.002524
period,0.004268
perish,0.006121
permiss,0.004993
perplex,0.007401
persist,0.008144
person,0.009400
perspect,0.003214
persuad,0.005190
peter,0.003275
phenomena,0.003429
phrase,0.004327
piec,0.003966
pig,0.010712
place,0.022343
plagu,0.005173
plan,0.002720
planet,0.004075
play,0.002593
point,0.008333
poison,0.025101
polar,0.008800
pole,0.004975
polici,0.002657
polit,0.029305
poor,0.024859
poorer,0.017602
popular,0.002569
posit,0.002128
possess,0.016138
possibl,0.004201
postscarc,0.016135
potent,0.006463
potenti,0.005333
potlatch,0.027331
poverti,0.008473
power,0.004215
practic,0.011017
prefer,0.003153
present,0.002059
preserv,0.020828
pressur,0.003100
prestat,0.133722
prestig,0.027221
presum,0.004597
presupposit,0.006815
prevent,0.002944
price,0.012196
priest,0.019506
primarili,0.008445
princ,0.008889
principl,0.007417
privat,0.020672
procedur,0.003586
process,0.007788
produc,0.004285
product,0.004293
profession,0.003337
profit,0.003558
program,0.005181
programm,0.007917
prohibit,0.004202
project,0.012742
prolifer,0.005070
promin,0.003229
promis,0.003870
promot,0.002938
properti,0.052368
proscript,0.008189
prosper,0.004257
prototyp,0.005312
provid,0.012791
provinc,0.011422
public,0.008296
punish,0.004530
purchas,0.017514
pure,0.026054
purpos,0.002679
push,0.007833
quaker,0.007007
qualit,0.004775
quantit,0.003826
question,0.002586
quickli,0.003352
quit,0.003480
radic,0.007551
radio,0.004216
rais,0.006075
rang,0.004944
rank,0.013909
rapid,0.003569
rare,0.003389
raymond,0.005368
reaction,0.003349
read,0.002268
realm,0.004126
reason,0.004688
rebel,0.004745
receiv,0.027451
recipi,0.040335
reciproc,0.103043
recogn,0.002800
recreat,0.005045
recruit,0.004815
redirect,0.006433
reduc,0.002474
refashion,0.009310
refer,0.007837
referenc,0.005612
refocuss,0.010869
refus,0.003811
regardless,0.003948
regim,0.011418
region,0.002339
regul,0.006184
reject,0.003220
rejuven,0.007161
relat,0.007044
relationship,0.072306
reli,0.003147
relief,0.004656
religi,0.026692
religion,0.003326
remain,0.004320
remark,0.004006
rememb,0.004795
renew,0.003819
renown,0.005572
rent,0.015088
repay,0.027603
repli,0.005372
report,0.007531
repositori,0.006152
reprehens,0.008938
repres,0.004285
reproduct,0.013311
reput,0.018180
reputationbas,0.010038
requir,0.002056
research,0.006357
reserv,0.003473
resist,0.003384
resourc,0.018510
respect,0.004968
restrict,0.006054
result,0.009097
retail,0.004724
retain,0.006870
return,0.047584
reus,0.011982
revers,0.003596
revisit,0.006040
reward,0.009037
rice,0.009852
rich,0.007491
richer,0.006241
rife,0.007647
right,0.039847
ring,0.022120
riot,0.010438
rite,0.011602
ritual,0.024356
rival,0.004315
robinson,0.005356
rock,0.004090
rocki,0.006241
role,0.011441
root,0.003299
rubbish,0.016466
russel,0.004578
s,0.009262
sacral,0.008067
sacrific,0.005320
sacrifici,0.007761
saddl,0.006311
sahlin,0.043942
said,0.010735
sale,0.011415
salt,0.004475
sampl,0.003892
sanction,0.004904
satellit,0.004557
saturn,0.013031
saw,0.003196
scale,0.002956
scarc,0.010004
scheme,0.003931
scholar,0.003317
school,0.002657
schoolboy,0.008278
schrauwer,0.010869
scienc,0.004393
scientist,0.002986
scope,0.003840
scott,0.004834
scratch,0.006375
se,0.005431
sea,0.003332
second,0.002143
secondhand,0.007543
secondli,0.005744
secret,0.004030
sect,0.005470
sector,0.010273
seemingli,0.005125
seen,0.002562
selfexpress,0.008233
selfish,0.006121
selfless,0.008067
selfreli,0.006736
sell,0.003695
semen,0.037715
sens,0.013438
separ,0.007159
sequel,0.006414
seri,0.005204
serv,0.013000
servic,0.030539
set,0.002023
setup,0.006113
sever,0.003790
share,0.022908
sharon,0.007236
sharp,0.004414
shell,0.004396
shelter,0.005092
shift,0.003165
ship,0.003706
shoe,0.006032
shop,0.024369
shortterm,0.004748
sick,0.005128
sign,0.005986
signific,0.006961
similar,0.008683
similarli,0.003444
simpl,0.005776
simpli,0.005932
simultan,0.003809
sin,0.015509
sinc,0.005453
singular,0.028742
sister,0.015051
site,0.006124
situat,0.002798
size,0.002830
slave,0.004295
slaveri,0.004790
small,0.006673
smart,0.005711
soap,0.006414
socal,0.003668
social,0.043939
societ,0.005112
societi,0.068328
societybas,0.010869
softwar,0.042367
sold,0.019194
solidar,0.005592
someon,0.016986
someth,0.003495
soon,0.003333
sought,0.007082
sourc,0.011433
south,0.014234
spanish,0.003931
speak,0.006971
special,0.004547
specif,0.013050
specifi,0.003696
speech,0.003916
spend,0.003773
sperm,0.005997
sphere,0.061023
spirit,0.012322
sponsor,0.004557
spread,0.003213
stabl,0.003577
stack,0.005668
stake,0.005529
stanley,0.004787
state,0.012724
statement,0.003337
statu,0.036433
steep,0.005824
sterl,0.006040
stigmat,0.007295
stock,0.003507
stone,0.004059
store,0.036830
storehous,0.008107
stori,0.007370
strangelov,0.008425
strategi,0.003386
strathern,0.009692
strict,0.008448
strong,0.005282
structur,0.004247
studi,0.013448
su,0.005587
subclan,0.009425
subject,0.006937
subsist,0.015015
success,0.004821
suffer,0.003317
suggest,0.002544
suit,0.004225
sulawesi,0.016135
sum,0.007252
summat,0.006267
support,0.008645
suppos,0.003994
sur,0.005836
surplus,0.006443
survey,0.006988
surviv,0.003135
swap,0.011088
symbol,0.003300
symmetr,0.005176
taken,0.002661
tale,0.005226
tangibl,0.005873
technic,0.003233
techniqu,0.005587
technolog,0.005242
tell,0.004094
templ,0.033639
tend,0.002985
term,0.008588
texa,0.005132
thai,0.006515
thailand,0.010986
themselv,0.005393
theori,0.002130
theravada,0.006886
therebi,0.003762
therefor,0.004941
thi,0.031273
thing,0.020248
thoma,0.003251
thompson,0.010794
thu,0.025500
ticket,0.006113
tie,0.003545
time,0.019301
tiv,0.010038
today,0.007834
togeth,0.002506
tongkonan,0.108697
took,0.005679
toraja,0.057309
torajan,0.010869
torrent,0.008374
total,0.010145
trace,0.003485
track,0.004022
trade,0.018408
tradit,0.011445
traffic,0.004803
transact,0.007828
transactor,0.009206
transfer,0.009332
transform,0.017854
transgress,0.007216
translat,0.003129
transmit,0.008908
transplant,0.018206
transport,0.003116
travel,0.006419
tri,0.005722
trial,0.004148
tribe,0.013425
trilog,0.006375
trobriand,0.069240
true,0.008830
truli,0.004555
turn,0.005026
twofold,0.006711
type,0.006556
typic,0.004877
uduk,0.010869
ultim,0.003144
unabl,0.003777
unborn,0.007470
uncommon,0.005572
underscor,0.006724
unequ,0.005647
union,0.008104
uniqu,0.003099
unit,0.005500
univers,0.013179
unlik,0.006054
unsettl,0.007295
uphold,0.005977
ursula,0.007494
usd,0.010897
use,0.037135
user,0.004032
usual,0.006562
util,0.003288
utopian,0.012640
utopianlik,0.010869
valid,0.006942
valu,0.023299
valuabl,0.012802
vari,0.002679
variabl,0.003323
variat,0.003407
varieti,0.008188
variou,0.002069
vaughan,0.007594
veri,0.006228
video,0.004001
vietnam,0.004926
view,0.009319
villag,0.012462
violenc,0.004329
virtual,0.003595
vision,0.003937
visit,0.007304
voluntari,0.010059
voter,0.004876
voyag,0.004972
vs,0.008778
wa,0.028320
want,0.003356
war,0.005164
water,0.002804
way,0.001943
wealthi,0.004743
wed,0.006144
week,0.003820
weeklong,0.008325
weiner,0.047532
wendi,0.007179
western,0.002734
whatev,0.004475
wherea,0.006309
whi,0.010034
whuffi,0.010869
wide,0.002341
widespread,0.006985
wikipedia,0.005842
william,0.002912
win,0.004087
winner,0.010010
winstanley,0.009551
withdrawn,0.005632
wizard,0.014673
women,0.006919
work,0.028514
worker,0.006768
world,0.011058
worth,0.004116
worthi,0.005732
write,0.011369
writer,0.003731
written,0.002878
wrote,0.006194
year,0.003669
yearround,0.007236
yesteryear,0.008719
young,0.003375
zero,0.003823
