abil,0.064096
abl,0.007845
abov,0.003976
abridg,0.010581
absenc,0.034257
abund,0.006298
academ,0.009303
acceler,0.005973
accept,0.007798
accomplish,0.006241
accord,0.006211
accordingli,0.013979
account,0.014631
accumul,0.005958
acknowledg,0.005988
acquir,0.025293
acquisit,0.006715
act,0.010648
action,0.003816
activ,0.046484
actual,0.003974
ad,0.003963
adam,0.006302
addit,0.012567
address,0.004676
adher,0.006282
adopt,0.004285
adult,0.006080
advanc,0.023015
affect,0.004058
afford,0.006669
african,0.005443
afterlif,0.009500
aggreg,0.019703
al,0.005327
alloc,0.006197
allow,0.003088
alreadi,0.004524
altern,0.015962
alway,0.008352
america,0.004352
american,0.003518
analys,0.012143
analysi,0.022463
andor,0.005434
ani,0.005474
ankerl,0.012664
annual,0.004770
annum,0.009762
anoth,0.002987
anticip,0.006907
appear,0.007194
appli,0.009960
applic,0.007418
apprenticeship,0.010286
approach,0.003574
area,0.006169
argu,0.008263
argument,0.005217
ari,0.010204
arriv,0.009999
arthur,0.012670
articl,0.014764
artist,0.006517
ashfield,0.016338
aspect,0.012245
assess,0.015870
asset,0.040189
assum,0.008604
assumedinterchang,0.016338
assumpt,0.010582
athlet,0.008974
attain,0.012573
attempt,0.010627
attent,0.005064
attribut,0.004827
author,0.006993
avail,0.003796
averag,0.004638
backbon,0.017675
background,0.005333
balanc,0.014746
ballot,0.008693
base,0.005412
becam,0.010269
becaus,0.011276
becker,0.068557
becom,0.011991
befor,0.003198
began,0.003739
begun,0.011908
behaviour,0.005773
belong,0.005291
benefit,0.022722
bestknown,0.008163
bil,0.013210
biolog,0.004441
birth,0.005517
bloc,0.007514
blog,0.008504
blur,0.008719
bodi,0.007515
bond,0.005348
book,0.003559
boost,0.007342
boundari,0.005228
bourdieu,0.011622
bowl,0.019027
box,0.007020
brain,0.005992
brand,0.007569
break,0.005162
brian,0.007659
britain,0.005275
broader,0.012488
broken,0.006244
build,0.003962
busi,0.012664
came,0.004100
canada,0.010744
capabl,0.009878
capac,0.051991
capit,0.652661
capita,0.020421
capitalrich,0.015417
captur,0.005149
care,0.014135
categori,0.009571
caus,0.003347
cecil,0.009793
celebr,0.012928
central,0.003515
centuri,0.019324
ceridian,0.015417
certain,0.006865
challeng,0.004480
chang,0.008483
channel,0.006191
charact,0.005182
character,0.009514
characterist,0.008646
check,0.013004
chicago,0.024451
chicagoschool,0.013838
children,0.005158
choic,0.004928
circul,0.006562
cite,0.005245
citi,0.004331
civic,0.008170
civil,0.004302
claim,0.003807
classifi,0.005073
claudia,0.011092
climat,0.005355
closur,0.008100
cognit,0.005946
cohes,0.016276
collabor,0.023047
collect,0.014635
colon,0.013310
comb,0.019462
combin,0.007153
come,0.003587
comfort,0.007968
commonli,0.008331
commun,0.003280
compani,0.019804
compar,0.014840
compet,0.041374
competit,0.004932
compil,0.006471
complex,0.007341
compliant,0.010350
compon,0.017280
comprehens,0.005525
compris,0.005131
concept,0.024505
conceptu,0.006037
concern,0.014087
concis,0.007640
condit,0.003510
conflat,0.009611
confus,0.005646
connect,0.012390
consequ,0.004265
consid,0.011702
consider,0.008431
consist,0.006715
consum,0.004995
consumpt,0.023403
contemporari,0.004906
context,0.017651
continu,0.009118
contract,0.005032
contribut,0.003681
control,0.003332
convent,0.004857
cooper,0.004794
corpor,0.019687
correl,0.011694
cost,0.017642
countri,0.079230
creat,0.012273
creation,0.004566
creativ,0.019445
credenti,0.009344
criteria,0.006282
critic,0.011070
critiqu,0.019120
crook,0.029936
cultiv,0.006407
cultur,0.015087
cumul,0.031849
current,0.016057
curtain,0.010847
cycl,0.005142
d,0.008122
daili,0.005867
dan,0.008125
data,0.008007
databas,0.005868
date,0.004192
david,0.004456
debat,0.014010
decad,0.009120
deceler,0.010328
declin,0.004763
defin,0.010328
degrad,0.007196
degre,0.004108
demand,0.004478
democrat,0.004915
denot,0.006121
depart,0.004398
depend,0.009930
deploy,0.006789
depress,0.006232
descend,0.006071
descr,0.015819
describ,0.003087
despit,0.008507
determin,0.003483
develop,0.090319
dexter,0.022457
di,0.007807
dictionari,0.006082
differ,0.021275
differenti,0.005079
direct,0.006662
directli,0.008061
disagre,0.007211
discont,0.017234
discrimin,0.013932
discuss,0.004093
distanc,0.005342
distinct,0.007727
distinctli,0.009166
distinguish,0.008907
distribut,0.004139
district,0.006067
diverg,0.013560
divis,0.013043
doctor,0.005986
doe,0.027154
domainspecif,0.011376
drain,0.008650
draw,0.015427
driver,0.007689
ds,0.009762
dure,0.017326
earli,0.012083
earn,0.011353
easili,0.010348
econom,0.118987
economi,0.037122
economiqu,0.013319
economist,0.028351
ed,0.012684
edit,0.004727
educ,0.157753
effect,0.020538
effici,0.004729
effort,0.004182
elast,0.007564
elit,0.006706
elsewher,0.012452
email,0.008828
emancip,0.008642
embodi,0.006983
embrac,0.006813
emigr,0.007592
emot,0.018612
empir,0.004214
employ,0.028042
employe,0.044299
encompass,0.005654
encourag,0.009928
encyclopedia,0.005201
end,0.006604
endow,0.022949
enrol,0.016610
enter,0.004415
entir,0.003917
entitl,0.006235
environ,0.004003
equal,0.020565
equat,0.005023
equip,0.005399
equiti,0.020731
error,0.005743
errorsrework,0.016338
escal,0.007823
especi,0.007014
establish,0.003223
estim,0.004250
et,0.005191
etymolog,0.006429
evalu,0.010466
everi,0.003779
evid,0.012355
examin,0.004727
exampl,0.010819
excel,0.006533
exert,0.006930
exist,0.003003
expand,0.004272
expect,0.016598
expenditur,0.020033
expens,0.016182
experi,0.011141
expertis,0.007367
explain,0.012197
explanatori,0.008512
explicit,0.013189
explicitli,0.006148
explor,0.004601
export,0.005540
extern,0.002361
extraordinari,0.007883
facilit,0.005444
fact,0.003834
facto,0.007321
factor,0.019147
factori,0.006608
faculti,0.006976
fail,0.004540
failur,0.010509
fame,0.007950
famili,0.004182
far,0.004095
favor,0.004988
feelthinkbeliev,0.016338
femal,0.006063
field,0.009894
financ,0.009571
financi,0.017246
findingretriev,0.016338
firm,0.048547
firmspecif,0.013838
fiscal,0.006847
fix,0.014381
flight,0.013233
focus,0.008408
focuss,0.010557
follow,0.005166
forgiv,0.009875
form,0.007405
formal,0.008082
format,0.052858
fortun,0.007326
foundat,0.008422
fourthli,0.012916
framework,0.004627
franc,0.004623
fratern,0.009909
free,0.007377
freedom,0.005098
frequent,0.004540
frustrat,0.008284
fund,0.008905
fungibl,0.022829
futur,0.019667
g,0.004369
gain,0.019645
gari,0.032229
gdp,0.006073
gender,0.020770
gener,0.060337
geograph,0.005252
german,0.009121
ginti,0.012829
given,0.003239
goal,0.008884
golden,0.006544
goldin,0.012185
good,0.014362
goodwil,0.030208
govern,0.009213
graduat,0.006051
grassroot,0.009978
greater,0.004067
greatest,0.005683
greatli,0.005288
grievanc,0.009858
group,0.005826
grow,0.008282
growth,0.057230
gza,0.013210
ha,0.025841
habit,0.013694
hand,0.008003
handcuff,0.014357
happen,0.005104
hcm,0.015417
hdi,0.078851
health,0.063032
help,0.003535
henderson,0.009057
herbert,0.006993
hi,0.026061
high,0.019620
higher,0.030715
highli,0.004251
histor,0.007255
holder,0.007342
holiday,0.007602
home,0.004611
homogen,0.014547
host,0.017716
hour,0.022700
howev,0.005242
hr,0.009978
human,0.491615
humankapit,0.016338
idea,0.014498
identifi,0.007808
illiquid,0.011376
immaterialintang,0.016338
immigr,0.019280
impact,0.022129
imperfect,0.007950
implicitli,0.008559
import,0.024789
impos,0.005554
improv,0.031793
inappropri,0.008512
incap,0.008702
incent,0.006723
includ,0.017935
incom,0.064306
increas,0.043478
increasingli,0.009522
independ,0.006634
index,0.051304
india,0.039555
indian,0.005346
indianapoli,0.009382
indic,0.015891
individu,0.049967
industri,0.011058
industrialist,0.009641
inevit,0.007115
infinit,0.006323
influenc,0.003557
influx,0.008333
inform,0.006421
inhabit,0.011228
inher,0.012378
inhuman,0.010509
innat,0.007945
innov,0.016782
input,0.035105
insid,0.005416
insight,0.017972
instinct,0.017087
institut,0.006834
instruct,0.030400
instructor,0.009700
instrument,0.019891
intang,0.056919
intellectu,0.022161
intellig,0.010078
interact,0.004029
interchang,0.014784
intern,0.008490
introduct,0.004281
invest,0.064374
invis,0.007883
invok,0.015510
involv,0.009392
iron,0.005784
isbn,0.015271
issn,0.016666
issu,0.006931
itzkoff,0.016338
j,0.012167
jacob,0.014563
jamil,0.013107
januari,0.004608
job,0.011154
jobspecif,0.014357
joseph,0.005321
journal,0.008307
judgement,0.008163
judgment,0.006844
jump,0.007456
juri,0.009046
jurisdict,0.006554
jurnal,0.029620
just,0.003765
justif,0.007546
justifi,0.006494
karl,0.006073
keeley,0.014357
kemanusiaan,0.032676
ketchen,0.030834
key,0.008219
knowhow,0.010935
knowledg,0.085297
la,0.010779
labor,0.127245
labormarket,0.029139
labour,0.043732
laboursurplu,0.016338
lack,0.008234
laid,0.006094
land,0.020432
late,0.003738
lead,0.019329
leader,0.004721
leadership,0.005858
leav,0.032006
led,0.010454
legal,0.004455
level,0.009685
lewi,0.006777
lhomm,0.012514
liabil,0.022763
liberti,0.006853
librari,0.005072
life,0.010412
light,0.004451
like,0.014419
likelihood,0.007487
likewis,0.006395
linear,0.005744
linguist,0.006347
link,0.004695
linkag,0.008512
liquid,0.005787
literaci,0.015844
literatur,0.014471
live,0.010473
livelihood,0.009356
loan,0.006264
locat,0.003969
long,0.017528
longterm,0.011363
loss,0.014166
lower,0.015957
lpanouiss,0.016338
luxuri,0.008100
ma,0.006819
machin,0.015638
machineri,0.006658
macroeconom,0.007293
macrolevel,0.012664
mahroum,0.032676
maintain,0.003764
mainten,0.006476
make,0.005490
manag,0.027066
mani,0.007320
manpow,0.009486
manual,0.006819
market,0.024247
marx,0.037730
marxian,0.009685
marxist,0.007330
mass,0.017710
master,0.005761
materi,0.007566
matter,0.008122
mean,0.014866
measur,0.003536
mechan,0.003986
mechanist,0.009005
medic,0.004971
meet,0.008736
member,0.006889
mere,0.005311
messag,0.006709
metaanalysi,0.010350
metropolitan,0.008203
michael,0.009936
migrant,0.008428
migrat,0.011537
mincer,0.051667
mind,0.005091
minor,0.009992
mismatch,0.009762
mobil,0.022938
model,0.010088
modern,0.009714
monetari,0.023150
money,0.009649
moral,0.005401
motor,0.006963
movement,0.014891
narrow,0.006096
nation,0.074788
nativ,0.005580
natur,0.008646
nd,0.005023
necessari,0.008604
need,0.016227
neg,0.009363
neglect,0.007062
neoclass,0.008170
neomarxist,0.012588
neutral,0.005909
new,0.019292
newfound,0.010462
newslett,0.009670
newyork,0.012829
nic,0.024493
noncompet,0.013995
nonhuman,0.008284
norm,0.012523
note,0.003112
nuanc,0.009583
numer,0.003999
object,0.003690
obtain,0.004196
occup,0.005625
occur,0.006860
oclc,0.007775
oecd,0.023974
offer,0.008029
offic,0.004345
offset,0.007850
old,0.004467
onli,0.007455
open,0.007391
oper,0.010217
opportun,0.015298
order,0.005950
organ,0.029447
organiz,0.028290
origin,0.005983
outperform,0.009407
output,0.011269
owner,0.006106
ownership,0.006340
p,0.004121
paid,0.011009
paideia,0.013210
palgrav,0.008015
paper,0.013363
particular,0.003379
particularli,0.003786
partli,0.005804
pass,0.004194
past,0.004282
path,0.005473
pave,0.007635
payment,0.005818
pdf,0.006248
penalti,0.008075
pension,0.007500
peopl,0.026788
perceiv,0.010858
percent,0.005422
percept,0.005746
perform,0.007590
period,0.022454
permit,0.005498
person,0.031793
perspect,0.014492
persuas,0.008504
phenomena,0.005154
phone,0.007704
physic,0.014130
pierr,0.006949
pigou,0.012013
place,0.003053
plu,0.012147
pm,0.008176
point,0.009394
polici,0.015980
polit,0.013553
politiqu,0.010416
poor,0.005337
poorer,0.008819
popul,0.023047
popular,0.003862
portabl,0.009005
portion,0.005425
posit,0.012798
possess,0.009702
possessor,0.011856
possibl,0.009472
postelementari,0.015819
postpon,0.008791
power,0.025344
pp,0.010094
practic,0.003312
preced,0.005865
press,0.003643
prestig,0.008183
prevent,0.004425
price,0.004583
primari,0.012259
primer,0.008954
privat,0.004438
problem,0.016554
process,0.026339
procur,0.008551
produc,0.032211
product,0.051624
profit,0.016046
progress,0.004219
project,0.003830
promot,0.013248
prospect,0.006578
prosper,0.025599
prove,0.004777
provid,0.002746
psycholog,0.010553
public,0.006235
publicli,0.006624
publish,0.006872
qualit,0.028711
qualiti,0.009225
quantit,0.011503
quantiti,0.005042
question,0.007775
r,0.008285
rais,0.004566
rapid,0.005365
rate,0.049874
ratio,0.005583
raw,0.006404
rd,0.011086
readili,0.006718
real,0.004075
realiz,0.005489
reason,0.003523
receiv,0.011253
recent,0.010199
recess,0.007027
recogn,0.012629
recognis,0.006061
recognit,0.005381
reduc,0.011158
refer,0.015706
reflect,0.012658
regard,0.007533
regardless,0.005935
region,0.010547
reifi,0.013107
rel,0.007040
relat,0.018530
relationship,0.018738
relev,0.010270
reliabl,0.005870
rememb,0.007208
remit,0.010462
repay,0.008298
repec,0.013838
replac,0.004000
report,0.003773
repres,0.003220
reput,0.006831
requir,0.009272
research,0.015925
resembl,0.006193
resili,0.009005
resolv,0.005703
resourc,0.047697
respect,0.007467
respons,0.010216
restrict,0.004550
result,0.008204
retir,0.020042
retriev,0.005833
return,0.007947
reveal,0.020657
revenu,0.011455
rever,0.008764
review,0.004399
revolut,0.004863
rework,0.010557
rich,0.011260
right,0.010569
rise,0.011852
risk,0.033816
riski,0.008326
role,0.010318
rosen,0.010204
rossilah,0.016338
s,0.011138
said,0.004034
salari,0.021786
sami,0.011338
samuel,0.006979
scale,0.004443
scarciti,0.016406
scarcityvalu,0.016338
scholar,0.009972
school,0.031956
schultz,0.011028
scienc,0.006604
second,0.003222
secondari,0.022363
sector,0.036031
secular,0.006795
seek,0.004405
segment,0.020180
selfgener,0.024027
sell,0.016662
sens,0.004039
servic,0.026777
set,0.003041
sever,0.002848
seymour,0.010125
share,0.015303
shareabl,0.014810
sherwin,0.012916
shock,0.006712
short,0.004186
sick,0.015418
signal,0.022597
signific,0.010464
significantli,0.005039
silo,0.012514
similar,0.006525
similarli,0.005176
simpl,0.004341
simpli,0.008917
sinc,0.002732
singl,0.007313
sirey,0.016338
skill,0.078959
slave,0.012913
slaveri,0.007200
small,0.003343
smith,0.017367
social,0.038236
societi,0.010270
socioeconom,0.007894
softscap,0.016338
softwar,0.005789
sold,0.011540
solv,0.005028
soon,0.005010
soviet,0.005918
special,0.003417
specif,0.022885
spenc,0.022251
st,0.004404
stand,0.005135
standard,0.025762
start,0.003458
state,0.007172
statist,0.004482
statu,0.009127
statutori,0.009111
steril,0.009283
stiglitz,0.010307
stock,0.015815
strategi,0.005090
stress,0.005603
strong,0.007940
strongli,0.005266
structur,0.006385
studi,0.014438
subject,0.003476
subsequ,0.004264
subsidi,0.007611
substitut,0.006071
succeed,0.005586
success,0.010870
suffici,0.005051
suggest,0.019126
sum,0.005450
superior,0.024328
suppli,0.004454
surplu,0.014378
surplusvalu,0.013107
surround,0.005003
symbol,0.004960
synonym,0.006819
t,0.004754
talent,0.088832
tangibl,0.052971
task,0.005069
taught,0.006092
teachabl,0.013838
team,0.011412
technic,0.004859
techniqu,0.004199
technolog,0.015758
term,0.028401
tertiari,0.016527
th,0.015666
theodor,0.007478
theoret,0.008960
theori,0.048042
therefor,0.022283
thereof,0.008398
thi,0.051095
thing,0.004347
think,0.004738
thought,0.003872
thu,0.006388
time,0.029011
today,0.003925
todd,0.019082
total,0.007625
tourism,0.006356
trade,0.007905
train,0.033029
trait,0.006474
transact,0.005883
transcend,0.007729
transfer,0.028055
transform,0.013418
transit,0.004757
transport,0.004684
travel,0.004824
treatment,0.005026
trend,0.010438
tri,0.004300
tribun,0.008488
twentyfirstcenturi,0.013838
type,0.006570
typic,0.003665
ucp,0.013995
uk,0.005008
ultim,0.004726
unavoid,0.009826
undertaken,0.007041
underton,0.012375
unduli,0.011228
unemploy,0.006399
uniformli,0.008904
uniqu,0.013977
unit,0.008268
univers,0.008490
unlik,0.004550
unlimit,0.008176
unmeasur,0.012375
unnecessari,0.008069
unresolv,0.009283
unwilling,0.010791
unword,0.016338
upheav,0.008904
use,0.031258
usual,0.003288
util,0.004943
v,0.004872
valu,0.042026
valuabl,0.012829
variabl,0.009990
veri,0.003120
versu,0.006378
view,0.021013
violent,0.006747
vital,0.006102
viz,0.010125
vocabulari,0.008170
voluntarili,0.008856
w,0.004584
wa,0.029125
wage,0.078055
want,0.005044
way,0.014608
wealth,0.022508
welfar,0.012587
wellb,0.007309
wherea,0.004741
white,0.005187
whitepap,0.014167
widen,0.008504
wider,0.006221
widescal,0.011907
wisdom,0.007234
woehr,0.032676
word,0.007585
work,0.026787
worker,0.045778
workforc,0.023053
workman,0.012829
world,0.008310
write,0.004272
wrote,0.009310
y,0.005818
year,0.008272
yield,0.005337
youth,0.006891
