ab,0.005761
abl,0.002904
abov,0.011775
absim,0.011415
absolut,0.007800
actual,0.005886
addit,0.002326
agent,0.003920
aggreg,0.004863
ain,0.008142
alpha,0.058553
altern,0.008864
alway,0.012369
analysi,0.002772
anatomi,0.010801
ani,0.012159
anim,0.006437
anoth,0.011058
appl,0.029942
applic,0.002746
argument,0.003863
asim,0.010630
assert,0.003950
associ,0.006739
assum,0.009557
assumpt,0.050931
assur,0.010478
asucc,0.011713
asucceq,0.034245
author,0.002589
avail,0.008432
axiom,0.005734
b,0.173614
bad,0.009434
banana,0.025073
base,0.002003
beatti,0.008742
beattielafr,0.012097
becaus,0.008349
behavior,0.006505
beta,0.005671
better,0.006253
binari,0.005537
biolog,0.006577
bliss,0.007647
book,0.005270
bruce,0.005697
bsucceq,0.011415
budget,0.039061
bulg,0.007712
bundl,0.141792
buy,0.004386
c,0.037151
ca,0.005100
cabin,0.008262
care,0.003488
carrot,0.017146
case,0.009287
ce,0.020353
chang,0.018843
choic,0.007297
choos,0.003994
climb,0.006285
close,0.002484
cobbdougla,0.039448
collect,0.002709
combin,0.026483
come,0.002656
commod,0.036062
common,0.002245
commonli,0.003084
commun,0.002428
compar,0.005494
comparison,0.003894
complement,0.010953
complet,0.010260
composit,0.003850
concav,0.007799
conceiv,0.004876
connect,0.006116
consid,0.002166
consist,0.002485
constant,0.018463
constrain,0.005400
constraint,0.027670
consum,0.136842
consumpt,0.021660
contain,0.002664
content,0.003665
continu,0.009002
contour,0.007299
convex,0.032754
corner,0.005993
correspond,0.003371
critic,0.002732
cross,0.008108
curv,0.315317
d,0.069159
decid,0.007239
decreas,0.007315
deduc,0.005547
defin,0.005098
deliv,0.004378
demand,0.036477
denot,0.004532
depend,0.002450
deriv,0.014121
describ,0.013717
desir,0.003495
determin,0.002579
develop,0.001857
devic,0.004151
differ,0.019691
dimens,0.004273
diminish,0.010057
direct,0.002466
diseas,0.003890
displaystyl,0.408463
distinct,0.005721
distribut,0.003064
divis,0.006438
doe,0.007539
doijx,0.007872
dose,0.006770
draw,0.007615
drawn,0.004383
duleftxyrightdx,0.012097
duleftxyrightdxleftrightarrow,0.012097
duleftxyrightdxuxyuxyfrac,0.012097
duleftxyrightuleftxyrightdxuleftxyrightdi,0.012097
dx,0.007853
dxdyfrac,0.034245
dy,0.008237
dydx,0.020492
dydxfrac,0.012097
econ,0.009114
econom,0.002447
economist,0.004198
edgeworth,0.007799
effect,0.013034
elast,0.005600
element,0.011376
elev,0.004989
end,0.007334
endow,0.005664
eq,0.018045
equal,0.021317
equilibrium,0.009347
equival,0.003602
essenti,0.003108
evalu,0.003874
everi,0.005596
exampl,0.024033
exchang,0.003161
exclud,0.008413
exclus,0.003820
exhibit,0.008442
expans,0.003773
expens,0.003993
explain,0.003010
extern,0.001748
fact,0.002839
fig,0.021973
figur,0.003311
fix,0.007098
follow,0.003825
food,0.006883
form,0.007311
formal,0.017953
frac,0.037458
franci,0.004579
frontier,0.005271
function,0.041619
fundament,0.003062
fx,0.006918
gener,0.010309
given,0.004796
good,0.095708
gradient,0.005689
graph,0.010640
graphic,0.005143
greater,0.003011
ha,0.011161
hesh,0.007455
hi,0.004288
higher,0.011371
histori,0.001991
household,0.023783
howev,0.001940
ident,0.003423
ignor,0.004147
illustr,0.008155
impli,0.018587
import,0.002039
includ,0.003319
incom,0.010987
incorpor,0.003283
increas,0.011497
indiffer,0.449339
individu,0.009865
infinit,0.023411
intens,0.003971
intersect,0.005388
intransit,0.009704
involv,0.002318
irreflex,0.011171
jeffrey,0.006212
jevon,0.007781
just,0.002788
kept,0.004308
kind,0.003185
known,0.001997
lafranc,0.012097
languag,0.003004
larger,0.003155
later,0.002377
law,0.002408
lead,0.002385
leav,0.003385
left,0.009560
leftalpha,0.021575
leftfrac,0.013115
leftxyright,0.133070
leftxyrightalpha,0.024194
leftxyrightto,0.012097
leontief,0.008978
leq,0.023450
let,0.013438
level,0.021515
lie,0.007833
like,0.008541
likewis,0.009470
line,0.025750
linear,0.004253
link,0.003476
local,0.002707
locu,0.006496
loss,0.003496
lower,0.005907
lshape,0.010246
main,0.002530
make,0.008131
mani,0.007227
map,0.025598
margin,0.087616
market,0.011969
mathcal,0.014750
mathemat,0.003142
maximum,0.013040
mean,0.011007
measur,0.005236
microeconom,0.006223
min,0.007054
model,0.004979
money,0.003572
monoton,0.028597
mound,0.007469
mutual,0.004216
need,0.002403
neg,0.038129
new,0.001785
nonneg,0.007469
nonsati,0.041958
northeast,0.005693
note,0.002304
number,0.011998
observ,0.005276
obtain,0.003107
offset,0.005812
old,0.003307
onli,0.011040
opposit,0.003289
optim,0.004239
order,0.004405
ordin,0.005895
origin,0.011076
otherwis,0.003802
p,0.033566
pair,0.008519
pareto,0.007034
partial,0.003677
particular,0.005004
pass,0.003105
path,0.004052
pattern,0.003410
perfect,0.017864
perform,0.002810
person,0.002615
perspect,0.003576
point,0.051011
pol,0.008367
pollut,0.005377
posit,0.011845
possibl,0.007013
potenti,0.002967
precis,0.003775
preclud,0.006571
predict,0.003353
prefer,0.164972
price,0.023753
pricebudgetlin,0.012097
process,0.004333
properti,0.002775
provid,0.004067
quadrant,0.007949
quantiti,0.059737
r,0.003067
rang,0.002751
rank,0.030960
rate,0.031246
ratio,0.012401
ration,0.003950
reach,0.002954
read,0.002524
real,0.006034
recogn,0.003117
reduc,0.002753
refer,0.004361
reflect,0.003124
reflex,0.006392
reinforc,0.004950
rel,0.005213
relat,0.023521
remain,0.002404
render,0.004767
repres,0.019077
represent,0.007334
requir,0.006865
respect,0.011058
respons,0.002521
result,0.002024
rho,0.013800
right,0.010434
rightleftrho,0.024194
rightrho,0.012097
rightxrho,0.012097
rightyrho,0.012097
rise,0.002925
risk,0.007153
rose,0.004411
rotat,0.004812
sacrific,0.005921
satiat,0.010040
satisfact,0.036126
satisfi,0.004312
say,0.003149
scriptstyl,0.024291
second,0.002385
seek,0.003262
select,0.003161
sell,0.004112
sens,0.002991
set,0.015763
sever,0.004218
shape,0.006929
shoe,0.046999
shown,0.003505
simpl,0.003214
sinc,0.006069
singl,0.002707
situat,0.003115
slope,0.075932
smooth,0.005365
smoothli,0.007401
solv,0.003723
someth,0.003889
special,0.002530
stage,0.003533
stanley,0.005328
state,0.001770
statement,0.011142
straight,0.022445
strictli,0.019085
strong,0.002939
subassumpt,0.012097
substitut,0.080924
succeq,0.023426
success,0.005366
suffici,0.003740
switch,0.004967
symbol,0.003673
t,0.003520
tangenc,0.019562
tangent,0.007024
techniqu,0.003109
tell,0.004557
term,0.001911
theori,0.028457
therefor,0.010999
thi,0.027239
thing,0.003219
thu,0.004730
topograph,0.006927
total,0.005645
trade,0.005853
tradeoff,0.006523
transit,0.021133
travel,0.003572
type,0.007297
typic,0.002714
u,0.165226
uleftxyright,0.072584
uleftxyrightalpha,0.060486
uleftxyrightbeta,0.012097
uleftxyrightminalpha,0.012097
uleftxyrightuleftxyright,0.012097
uleftxyrightxalpha,0.024194
unambigu,0.006838
unchang,0.005394
uniqu,0.003449
unit,0.006121
unwant,0.006738
upward,0.005632
use,0.011572
util,0.157387
utilityposs,0.012097
uxi,0.010965
uxyalpha,0.024194
uxygeq,0.012097
uxyleftalpha,0.012097
uxyuxi,0.012097
valu,0.018151
variabl,0.003698
variou,0.004606
version,0.003539
versu,0.004722
vilfredo,0.008165
violat,0.004476
wa,0.003317
weakli,0.034593
whenev,0.005693
william,0.003241
willing,0.012361
word,0.002808
written,0.009609
x,0.318820
xaxi,0.016021
xbeta,0.028897
xrho,0.029844
xyright,0.010965
xyrightrho,0.012097
y,0.374839
yalpha,0.022830
yaxi,0.016962
yield,0.007904
yrho,0.036292
ysidro,0.009266
z,0.014808
zero,0.008509
