ani,0.025861
antiglob,0.112508
asset,0.054246
attract,0.047216
avail,0.071740
becom,0.028324
boss,0.100455
busi,0.039886
canada,0.050756
capit,0.077082
central,0.033219
common,0.028658
compet,0.048865
countri,0.031191
creat,0.028991
crime,0.058807
critic,0.069729
currenc,0.051939
decis,0.039962
defin,0.032528
desir,0.089217
direct,0.031474
discourag,0.143120
driver,0.072651
economi,0.077942
encourag,0.140707
exchang,0.080677
explan,0.050232
fantasi,0.080801
favor,0.047131
fiction,0.060863
flight,0.125031
forc,0.061169
foreign,0.119168
framework,0.043718
free,0.069709
frequent,0.042896
global,0.162091
govern,0.029017
guarante,0.055973
haven,0.077258
heat,0.053806
home,0.043572
human,0.029398
idea,0.034247
immigr,0.182169
immigrationinvest,0.154371
incent,0.063529
integr,0.036823
invest,0.477898
investor,0.290665
job,0.052693
joint,0.053728
law,0.030732
limit,0.031154
local,0.207305
mani,0.046112
moneylaund,0.120420
movement,0.035174
nation,0.084795
need,0.030664
neighbor,0.057542
new,0.022784
offer,0.037930
organ,0.027823
pact,0.229785
passport,0.084045
place,0.028847
polici,0.339733
prevent,0.041817
provid,0.025952
rapidli,0.049312
real,0.077006
refer,0.018550
reflect,0.039866
regim,0.054056
regul,0.043916
rise,0.037329
rule,0.067724
safe,0.121306
separ,0.033891
small,0.031591
state,0.022589
strong,0.037513
substanti,0.047927
sustain,0.050498
tariff,0.141824
tax,0.097040
tie,0.050358
trade,0.224084
typic,0.069272
