academi,0.005468
allow,0.002822
american,0.045028
andrew,0.005765
annual,0.017442
approach,0.003267
approxim,0.003868
april,0.004342
archiv,0.005224
arithmet,0.006931
arrow,0.021865
articl,0.003373
asmarschak,0.014933
asset,0.010495
associ,0.024957
august,0.004313
becam,0.003128
becaus,0.002576
becom,0.008220
befor,0.002923
behavior,0.008030
berkeley,0.013370
berlin,0.006096
binarychoic,0.028919
biograph,0.007773
biographi,0.013204
block,0.010197
book,0.013012
born,0.004835
branch,0.003640
bulletin,0.007696
busi,0.003858
businessmen,0.008327
california,0.026254
caucu,0.010837
chapter,0.005343
chicago,0.022349
churchman,0.010544
class,0.007604
cofound,0.007876
colloquium,0.010398
commiss,0.013693
commun,0.005996
complet,0.003166
confer,0.004513
constraint,0.011386
contribut,0.006730
cost,0.008062
cowl,0.020526
criteria,0.005742
crosssect,0.008540
cycl,0.004700
d,0.003711
da,0.006103
david,0.004073
davidson,0.008966
dc,0.006349
decid,0.008937
decis,0.100514
definit,0.003625
demand,0.004093
democrat,0.004492
der,0.030004
die,0.008786
discuss,0.011224
distinguish,0.004070
doi,0.091056
doimnsc,0.012949
dozen,0.006413
dure,0.002639
econom,0.154074
econometr,0.048729
econometrica,0.039156
economi,0.007540
economica,0.011726
economist,0.010365
effici,0.017289
eightieth,0.012949
elastizitt,0.014933
element,0.007021
elsevi,0.015504
emeritu,0.009088
emigr,0.020819
emil,0.023298
england,0.004790
equat,0.004591
essay,0.016048
exampl,0.002472
expect,0.003792
experiment,0.004611
extern,0.002158
father,0.004853
fellow,0.012483
firm,0.009860
firstnam,0.038847
fluent,0.010169
follow,0.002361
form,0.004512
foundat,0.003849
fr,0.014576
frontier,0.006507
fund,0.004070
gemeinwirtschaft,0.014459
germani,0.004444
grundriss,0.011649
h,0.008201
harri,0.006208
hd,0.018546
heidelberg,0.008937
held,0.003490
het,0.011806
hi,0.005293
honorari,0.007610
honour,0.006961
ident,0.004226
ii,0.007726
iii,0.011290
illus,0.007288
incomplet,0.006432
indic,0.007262
infer,0.005672
inform,0.079236
inquir,0.017391
institut,0.006247
interdisciplinari,0.012135
intern,0.005173
intrilig,0.013537
introductori,0.007037
inventori,0.007676
isbn,0.069791
isha,0.024788
iv,0.012814
j,0.011121
jacob,0.439288
jakob,0.008852
januari,0.004212
jewel,0.008937
jewish,0.006119
join,0.008781
journal,0.011390
journalist,0.006948
jstor,0.178248
juli,0.012791
june,0.008601
karlin,0.024788
kaufkraftargu,0.014933
kendrick,0.011891
kenneth,0.019870
kiel,0.011138
kiev,0.009941
known,0.002466
labor,0.004846
languag,0.007419
lastnam,0.038847
lectur,0.005366
led,0.003185
leder,0.036523
life,0.003172
link,0.002145
liquid,0.005289
lohndiskuss,0.014933
lohnpolitik,0.014933
magazin,0.005713
major,0.002618
make,0.002509
makow,0.014933
manag,0.007068
marschak,0.810529
mathemat,0.031034
maxim,0.005612
mcdowel,0.022388
measur,0.006464
meet,0.011978
member,0.003148
memoir,0.007962
menshevik,0.022063
method,0.003056
michael,0.004541
middl,0.008137
minist,0.004452
mit,0.005995
mittelstand,0.013791
model,0.006147
monetari,0.005289
money,0.013230
moral,0.004936
morgenstern,0.010200
nachfrag,0.014933
nation,0.005468
nationalkonomik,0.014933
neue,0.011084
neumann,0.007773
new,0.015429
nonexperiment,0.011980
note,0.005690
novemb,0.004425
observ,0.003256
oclc,0.021321
octob,0.012801
optim,0.010468
order,0.002719
organ,0.005383
organiz,0.012929
origin,0.002734
oxford,0.009272
paper,0.012214
parti,0.003813
patrick,0.014291
pdf,0.005711
person,0.003228
plan,0.003737
polici,0.003651
polit,0.006194
pp,0.073811
predict,0.070384
presid,0.008184
press,0.023312
price,0.004189
probabl,0.012181
problem,0.003026
proceed,0.036248
process,0.005350
product,0.002949
professor,0.005057
propos,0.003491
prospect,0.006013
public,0.002849
quantit,0.005257
radner,0.037183
random,0.021591
ration,0.004876
rational,0.007986
ratoosh,0.014933
recur,0.007662
remark,0.011008
republ,0.004211
research,0.008734
respons,0.003112
review,0.020105
robert,0.007891
rockefel,0.008923
role,0.003143
roy,0.022077
royal,0.004735
samuel,0.012759
school,0.003651
scienc,0.024146
scientif,0.003611
second,0.002945
select,0.011707
septemb,0.004327
seventysecond,0.014091
sever,0.002603
severalperson,0.014933
shortli,0.005585
simultan,0.005234
sinc,0.002497
sixtyfirst,0.014933
social,0.022240
societi,0.021904
son,0.004782
soviet,0.005409
sozialwissenschaft,0.013791
spend,0.005184
sponsor,0.006261
springer,0.018135
stanford,0.046412
state,0.002185
static,0.006388
statist,0.032780
statistician,0.008337
stochast,0.013862
stroke,0.007978
studi,0.010557
supp,0.023452
survey,0.004800
symposium,0.023983
teach,0.009785
team,0.020863
terek,0.012949
test,0.004083
theodor,0.006835
theori,0.040985
think,0.004331
thrall,0.024148
tne,0.012648
translat,0.004299
ucla,0.018373
ukrainianamerican,0.014091
uncertain,0.006602
und,0.007347
unit,0.002519
univers,0.025867
util,0.013555
version,0.004368
viabl,0.013744
volum,0.012834
wa,0.014334
washington,0.005498
weltwirtschaft,0.014459
went,0.009161
whi,0.004595
wiley,0.018334
william,0.004002
wirtschaft,0.013122
wirtschaftsrechnung,0.014933
wpa,0.011726
yale,0.013655
york,0.007693
