abil,0.029517
abov,0.009155
absolut,0.018194
abstract,0.006291
abus,0.007691
academia,0.009220
accord,0.017877
achiev,0.008996
acocellagiovanni,0.017050
acquir,0.005823
act,0.008173
action,0.004393
activ,0.014271
actual,0.004576
adapt,0.005693
addit,0.021703
adjac,0.008183
adjust,0.006844
admir,0.008472
adult,0.013999
advanc,0.004416
advantag,0.005550
advers,0.016748
ae,0.024422
affect,0.023361
age,0.022389
aggreg,0.060491
agre,0.005390
aid,0.005363
ali,0.008863
alloc,0.042811
allow,0.003555
american,0.008102
amsterdam,0.009094
analys,0.013980
analysi,0.017240
anarchosyndicalist,0.014029
andor,0.006257
ani,0.006302
anindya,0.016112
anoth,0.010317
anthropologist,0.009173
appear,0.004141
applic,0.004270
approach,0.004114
approxim,0.004872
aquad,0.015468
area,0.007102
argu,0.009513
arrang,0.005829
ashenfelt,0.049586
aspect,0.004699
assar,0.015611
associ,0.006985
assum,0.019813
assumpt,0.012183
asymmetri,0.010646
attack,0.005764
attain,0.007237
attempt,0.004078
attent,0.005830
attract,0.011506
attribut,0.005558
avail,0.026224
averag,0.005340
away,0.016339
b,0.023679
baggag,0.013233
bakri,0.014977
bargain,0.009685
barrier,0.007275
bartolomeo,0.013650
base,0.003115
basic,0.004337
becaus,0.025963
becom,0.017256
befor,0.003682
begin,0.004203
behaviour,0.013294
benefit,0.010463
bettereduc,0.017050
big,0.006528
bloc,0.008650
blundel,0.015765
book,0.004097
brazil,0.007704
budget,0.006748
busi,0.004860
c,0.028882
cain,0.012555
calcul,0.005501
cambridg,0.011437
capit,0.061050
capitalist,0.008529
card,0.016408
care,0.005424
case,0.025272
cast,0.007334
caus,0.007708
challeng,0.005158
chanc,0.006951
chang,0.019532
chapter,0.006729
chattel,0.013831
child,0.013870
children,0.005938
choic,0.005673
chomski,0.010540
choos,0.012423
chosen,0.013196
cicero,0.010757
circumst,0.006633
civilian,0.007506
claim,0.004383
classic,0.009541
cleaner,0.061498
coalesc,0.010592
collaps,0.006361
collect,0.004212
columbia,0.016063
combin,0.004117
come,0.004130
commod,0.014018
common,0.003491
compens,0.021897
compet,0.005954
competit,0.034072
complet,0.003988
complex,0.004225
concept,0.012090
concern,0.008109
conclud,0.011813
condit,0.008081
confirm,0.006226
consider,0.004853
constrain,0.016794
constraint,0.035853
consumpt,0.033680
continu,0.003499
contract,0.023173
contrast,0.019514
contribut,0.016955
control,0.007674
convent,0.005592
correspond,0.005242
cost,0.045699
costli,0.009000
count,0.013173
countri,0.015202
crisi,0.005959
critic,0.008496
criticis,0.008500
current,0.007394
curv,0.078160
cyclic,0.017940
d,0.009350
david,0.015391
decad,0.005249
decid,0.005628
decis,0.029216
declin,0.010967
decompos,0.009362
decreas,0.005687
defici,0.018320
defin,0.019817
degre,0.004729
demand,0.103124
democraci,0.006433
denni,0.009901
denot,0.035235
depart,0.005063
depend,0.019053
deriv,0.004391
descript,0.005279
design,0.004242
desir,0.005435
despis,0.012126
determin,0.016043
detriment,0.009490
develop,0.008665
dewey,0.010715
di,0.008988
diagram,0.055614
dictionari,0.014004
differ,0.015308
differenti,0.005847
difficult,0.005037
digit,0.006449
digniti,0.010320
dimens,0.006645
diminish,0.007819
direct,0.003835
directli,0.004640
discret,0.006811
discuss,0.004712
displaystyl,0.013231
divid,0.018318
dl,0.013096
doctor,0.048247
doe,0.031262
domest,0.005984
domin,0.004752
doug,0.012423
dougla,0.008534
dramat,0.006522
draw,0.005920
drive,0.006205
durat,0.008225
dure,0.006649
dynam,0.010829
e,0.009360
earliest,0.005811
earn,0.026142
econom,0.110350
economi,0.018994
economist,0.032640
ed,0.024338
edit,0.005442
educ,0.022148
effect,0.074314
effici,0.005444
effort,0.004815
elast,0.034835
elect,0.005128
elicit,0.010379
els,0.007160
elsevi,0.009764
emot,0.007142
empir,0.004851
employ,0.166037
employe,0.036428
encourag,0.005714
end,0.007603
energi,0.004867
engin,0.005010
enlighten,0.007592
enter,0.005083
entrant,0.011941
environ,0.004609
equal,0.014205
equilibrium,0.029067
equival,0.005600
era,0.005493
especi,0.004037
establish,0.003710
estim,0.009786
euosha,0.015208
everi,0.004351
exact,0.006633
exampl,0.018684
excel,0.007521
excess,0.006719
exclud,0.006541
execut,0.005267
exist,0.003457
expect,0.004777
expenditur,0.015376
expens,0.006210
experi,0.021379
explain,0.004680
export,0.006378
express,0.004505
extern,0.010875
f,0.005121
face,0.005218
fact,0.008829
factor,0.017634
factori,0.007608
fair,0.007042
fall,0.004746
famili,0.004814
far,0.009429
fashion,0.007318
februari,0.005649
ferguson,0.011331
fertil,0.007288
feudal,0.008982
field,0.003797
financi,0.019855
firm,0.124202
fix,0.005518
flesh,0.010367
flexibl,0.015395
flow,0.021902
fluidli,0.015765
focu,0.005101
forc,0.037267
foreign,0.004840
foreshadow,0.011150
formal,0.004652
framework,0.005327
free,0.004246
freeman,0.009304
friction,0.036640
fulltim,0.009901
fullypartli,0.017050
function,0.015226
fundament,0.004761
futur,0.004528
g,0.020119
gain,0.004523
gateway,0.010687
gener,0.005343
given,0.011187
glen,0.012423
global,0.004937
goal,0.005114
goe,0.006691
good,0.028936
govern,0.003535
graeber,0.028984
grant,0.005699
graph,0.008272
greater,0.042147
greatli,0.006088
gross,0.007269
growth,0.004706
guidanc,0.008383
ha,0.019833
handbook,0.007524
hard,0.012204
hardwork,0.014172
harvard,0.007264
head,0.004799
henc,0.005801
hesh,0.011592
heterodox,0.010906
hf,0.012182
hg,0.011467
hi,0.023336
hibb,0.014326
hick,0.011388
high,0.007529
highabl,0.032620
higher,0.022100
highest,0.005693
hire,0.024354
hisher,0.010687
home,0.010618
hour,0.078403
hourli,0.012360
household,0.014792
howev,0.018105
human,0.021493
humboldt,0.010592
ic,0.035384
identifi,0.008989
illustr,0.012681
ilo,0.009808
immigr,0.007399
impact,0.005095
imperfect,0.018307
implement,0.005176
impli,0.005780
implic,0.006478
import,0.012684
incent,0.038704
includ,0.018067
incom,0.119592
incomegener,0.015611
incorpor,0.005105
increas,0.078658
independ,0.003818
indic,0.013721
indiffer,0.030823
individu,0.049856
industri,0.021219
inelast,0.011748
inevit,0.008191
infer,0.007145
infinitesim,0.009836
inflat,0.007002
inflow,0.010185
influenc,0.004095
inform,0.014785
input,0.013472
insideroutsid,0.016310
instead,0.004354
institut,0.007868
institution,0.009827
institutionalis,0.025617
instruct,0.006999
instrument,0.005725
insuffici,0.008429
interact,0.009278
intern,0.003258
internet,0.012198
internship,0.011842
interrel,0.009075
intuit,0.007956
invest,0.010587
investor,0.007083
isbn,0.004395
j,0.004669
jacob,0.008383
jame,0.005243
japan,0.006148
job,0.051365
john,0.008458
joint,0.006546
jointli,0.008970
journal,0.009564
just,0.008670
k,0.016910
key,0.004731
keyn,0.010285
keynesian,0.010207
khan,0.009677
killingsworth,0.016528
kilm,0.017050
know,0.011266
knowledg,0.004676
known,0.006213
l,0.043778
label,0.006689
labor,0.018311
labour,0.629346
labourascommod,0.015931
labourfair,0.017050
labourthat,0.016773
laleq,0.017050
land,0.004704
larg,0.003276
law,0.011234
layard,0.014492
lead,0.007417
left,0.004955
leisur,0.183539
let,0.006964
level,0.044604
liber,0.005604
like,0.006640
likewis,0.007362
limit,0.003796
lindbeck,0.015334
line,0.008897
linear,0.006613
link,0.008108
literatur,0.016660
littl,0.004757
live,0.004019
load,0.008529
locat,0.004570
london,0.005233
longrun,0.010121
look,0.051322
lose,0.013074
loss,0.010873
lot,0.007655
lower,0.013778
lowest,0.007393
m,0.008890
machineri,0.015330
macmillan,0.008491
macro,0.021661
macroeconom,0.033588
macroeconomi,0.014099
macurdi,0.016528
magnitud,0.007668
mainstream,0.015086
maintain,0.008668
major,0.003297
make,0.003160
man,0.005499
manag,0.004451
mani,0.014046
margin,0.122610
mark,0.004990
market,0.209367
marx,0.008687
marxist,0.008438
match,0.006609
maxim,0.014137
maximis,0.011099
mc,0.010921
mcgaughey,0.015765
mean,0.003423
meant,0.006375
measur,0.016284
mechan,0.009180
medic,0.005723
mention,0.006017
mere,0.006114
mfcl,0.034101
michael,0.005720
micro,0.020349
microeconom,0.067740
milgram,0.013431
militari,0.005028
miller,0.008677
mincer,0.014870
minu,0.018373
mismatch,0.011239
miss,0.015680
mix,0.005978
mobil,0.006602
model,0.050331
monetari,0.006663
money,0.011109
monopsoni,0.013233
monopsonist,0.015765
morendi,0.017050
movement,0.004285
mppl,0.017050
mrp,0.132057
mrpmc,0.017050
mul,0.030936
multipli,0.008012
muy,0.016112
muydi,0.017050
nation,0.003444
natur,0.023227
nd,0.011565
necess,0.007788
necessarili,0.018252
need,0.003736
neg,0.005389
neoclass,0.094063
net,0.019600
network,0.005196
new,0.030539
nh,0.020617
nicola,0.009311
noam,0.010592
nonacceler,0.014326
nonclear,0.016528
nonemploy,0.016112
noninstitut,0.014870
nonlabour,0.032620
normal,0.004954
northholland,0.011702
note,0.003583
number,0.018656
numer,0.004604
observ,0.004102
obtain,0.014493
occas,0.007730
octora,0.017050
onc,0.004644
onepag,0.016528
onli,0.011444
opportun,0.005870
optimis,0.011467
optimum,0.020640
option,0.006485
organis,0.017653
orley,0.049586
orthodox,0.008369
outflow,0.011203
output,0.025949
overal,0.017065
overcom,0.007633
overestim,0.011614
overinfl,0.015611
owner,0.007030
oxford,0.005839
packag,0.007879
palgrav,0.018455
paper,0.005128
parallel,0.012880
parti,0.004803
partial,0.005717
particip,0.009806
particular,0.007780
particularli,0.008717
past,0.004930
pattern,0.005303
pay,0.023210
pejor,0.010845
peopl,0.041121
perfect,0.020832
perfectli,0.017270
perform,0.004369
period,0.007386
persist,0.014094
personnel,0.030726
perspect,0.011123
persuas,0.009790
phenomenon,0.012802
philosoph,0.010910
physic,0.024402
pictur,0.006958
pioneer,0.006492
pivot,0.009262
plantat,0.008916
play,0.004487
point,0.072106
polici,0.004599
polit,0.007801
popul,0.022111
port,0.035116
posit,0.011050
possess,0.005585
postul,0.007668
power,0.003647
pp,0.017431
practic,0.003813
prefer,0.005457
press,0.008389
preview,0.011239
previou,0.010749
price,0.010552
prison,0.007564
privat,0.005110
probabl,0.005114
problem,0.003811
process,0.010108
produc,0.003708
product,0.066863
profess,0.014895
profit,0.012315
program,0.004483
programm,0.006850
project,0.004410
provid,0.012648
provis,0.006941
psychiatr,0.010090
psycholog,0.018225
purchas,0.018185
pure,0.011271
quantiti,0.023221
quickli,0.005801
quit,0.006023
r,0.014307
rais,0.015770
rang,0.008556
rapid,0.006176
rate,0.114837
ratio,0.006427
ration,0.006142
rb,0.011941
read,0.003925
readili,0.007734
reallif,0.011488
receiv,0.004318
recent,0.007828
recess,0.016180
reduc,0.021410
refer,0.006781
reflect,0.014572
regard,0.004336
regardless,0.006833
regim,0.006586
rel,0.008105
relat,0.012190
relationship,0.004314
relev,0.005912
reli,0.005446
rental,0.011203
replac,0.004606
repres,0.003707
requir,0.017791
research,0.022002
resourc,0.013728
respect,0.004298
respons,0.007841
result,0.012594
retail,0.008175
retir,0.007691
return,0.004574
reveal,0.005945
revenu,0.026377
review,0.005064
revolut,0.005599
richard,0.011168
right,0.012168
rise,0.009097
riskincent,0.017050
role,0.007919
run,0.004967
ruthless,0.011866
sake,0.009444
satisfi,0.006705
school,0.013796
search,0.017356
seek,0.015216
seen,0.004435
segment,0.007744
select,0.009830
selfemploy,0.011488
separ,0.004129
sept,0.012240
serv,0.008998
servic,0.026424
set,0.007003
settl,0.006424
sever,0.006559
shadow,0.008807
share,0.008809
shift,0.010955
shirk,0.027790
short,0.004819
shown,0.032706
sight,0.008388
signal,0.032519
signific,0.004015
significantli,0.005801
similar,0.011269
simon,0.007558
sinc,0.018874
singapor,0.008289
singl,0.004209
site,0.005298
situat,0.004843
size,0.004898
skill,0.012120
sl,0.011941
slave,0.029733
slaveri,0.041448
slope,0.054492
snower,0.015765
social,0.008003
socialist,0.014075
societi,0.007882
sociologist,0.008928
softwar,0.006665
solut,0.016146
sometim,0.004095
somewhat,0.006669
sought,0.006128
sourc,0.003957
specif,0.007527
spenc,0.025617
spend,0.026119
spent,0.013906
spous,0.011571
spring,0.007095
ssrn,0.025179
stabl,0.006190
stanford,0.007307
start,0.007964
state,0.008257
statist,0.005161
stayat,0.017050
stigmatis,0.015611
stock,0.012138
stockopt,0.016528
stop,0.006214
structur,0.018377
studi,0.013298
subdisciplin,0.008574
subject,0.012005
substitut,0.083884
succeed,0.006431
success,0.004171
suggest,0.004404
sum,0.012550
summat,0.010845
suppli,0.097440
supplier,0.026574
survey,0.012093
suspect,0.008406
sustain,0.006153
tangent,0.010921
task,0.005835
taxat,0.007734
technic,0.005594
techniqu,0.019337
technolog,0.004535
temporari,0.007419
tend,0.005165
term,0.008917
textmaximizequad,0.017050
textsubject,0.016112
theori,0.040560
therefor,0.004275
thi,0.068236
thinker,0.007604
thoma,0.011254
thu,0.011032
time,0.055667
today,0.004519
toquad,0.017050
total,0.013167
trade,0.009101
tradeoff,0.030428
train,0.021728
transact,0.006773
treat,0.005508
tri,0.004951
true,0.010187
truli,0.007883
type,0.007564
typic,0.004220
u,0.029360
uk,0.005766
uncertainti,0.007321
undemocrat,0.013141
undercompens,0.017050
understand,0.012810
undertaken,0.008106
underutilis,0.016773
unemploy,0.154728
unfil,0.014407
unit,0.012691
univers,0.009774
unpaid,0.032492
unrealist,0.010297
unsur,0.012589
upjohn,0.016528
upward,0.026272
use,0.020563
usual,0.011357
util,0.045529
utilis,0.010343
uwlpi,0.017050
v,0.022436
vacanc,0.011771
valu,0.016127
vari,0.004637
variabl,0.034503
varieti,0.004723
variou,0.007162
veri,0.003592
view,0.004031
volum,0.005388
von,0.006380
w,0.015835
wa,0.002579
wage,0.262677
wagebas,0.015468
wageslaveri,0.015931
ward,0.009626
way,0.010090
welfar,0.014491
whatev,0.007744
widespread,0.006043
wilhelm,0.007919
word,0.004366
work,0.083267
worker,0.199103
worklif,0.013593
workplac,0.009873
world,0.003189
xa,0.014029
xc,0.013961
xm,0.029741
xy,0.022232
y,0.020097
ya,0.012770
yc,0.015334
year,0.003174
york,0.009690
