account,0.029502
affect,0.032733
agricol,0.099288
alv,0.105715
andor,0.043835
ani,0.022076
anthoni,0.059154
anyth,0.049505
artifici,0.042300
asset,0.138922
atmospher,0.049071
book,0.028706
c,0.028906
capit,0.197402
caus,0.054001
civil,0.034701
classic,0.066848
combin,0.028849
come,0.028935
common,0.024463
communitari,0.124347
compris,0.041389
condit,0.028310
conflict,0.075367
confus,0.045538
consid,0.023596
contribut,0.029696
control,0.026882
controversi,0.039870
cost,0.035573
coulomb,0.079652
cour,0.084956
curv,0.049779
deconomi,0.124347
decreas,0.039844
defin,0.027767
deposit,0.143706
deriv,0.030764
design,0.029718
dictionari,0.049055
disput,0.040698
econom,0.133291
effect,0.023664
elast,0.122024
electromagnet,0.054611
elimin,0.042126
elment,0.115797
eloqu,0.085959
engref,0.131778
evid,0.033217
exampl,0.021816
factor,0.030886
fish,0.045448
fisher,0.064267
fix,0.115990
forest,0.050093
franc,0.037290
fundament,0.033356
galhano,0.131778
geograph,0.127088
geopolit,0.071282
georgist,0.098284
geostationari,0.104928
global,0.034592
good,0.086880
ha,0.017368
histor,0.029260
hold,0.031375
howev,0.021140
impart,0.073487
impli,0.040496
improv,0.032053
includ,0.018082
incom,0.039897
indestruct,0.085959
inelast,0.082304
inher,0.049918
inraesr,0.131778
instead,0.030509
inventori,0.067737
invers,0.055002
joo,0.081827
la,0.043472
labor,0.042762
laboratoir,0.106546
land,0.494401
locat,0.096054
ltat,0.112878
macroanalysi,0.131778
mani,0.019681
market,0.065190
merg,0.052445
microeconom,0.067796
miner,0.144627
mistak,0.059931
montpelli,0.099817
natur,0.092985
neg,0.037759
neoclass,0.065898
new,0.038900
occur,0.027665
onli,0.020044
opportun,0.041130
orbit,0.055226
origin,0.024131
ownership,0.051136
palgrav,0.064646
particular,0.027255
particularli,0.030537
pedro,0.069841
perfectli,0.060497
pierr,0.056053
politiqu,0.084017
portion,0.043755
possess,0.039129
pour,0.065537
power,0.025552
pp,0.122122
present,0.024966
price,0.036964
produc,0.025980
product,0.052047
program,0.031409
public,0.025146
purpos,0.032478
qualiti,0.037202
recov,0.048746
redistribut,0.065846
refer,0.031670
reform,0.038736
relationship,0.030227
rent,0.182924
repres,0.025976
resourc,0.128236
simplifi,0.051327
simulacrum,0.112878
soil,0.049935
sometim,0.086070
spectrum,0.052117
stock,0.042519
suggest,0.030853
suppli,0.071857
support,0.026203
tangibl,0.071207
tax,0.041419
terr,0.097345
thi,0.032968
transit,0.038368
usa,0.049203
use,0.054024
v,0.039296
valu,0.112988
view,0.028247
wa,0.018070
war,0.031307
world,0.022343
york,0.033943
zero,0.046348
