aaker,0.029955
aalst,0.031700
abegglen,0.031700
abel,0.020929
academ,0.009956
account,0.078293
ackoff,0.027845
adair,0.026082
adam,0.013490
adamiecki,0.030730
adjunct,0.021884
adler,0.020422
administr,0.018589
adrian,0.020895
advertis,0.015620
agner,0.029619
akao,0.031700
akdemir,0.031700
alasdair,0.023471
albert,0.013510
albion,0.025714
aldrich,0.024432
alexand,0.025472
alexandra,0.024268
alford,0.029310
alfr,0.013621
ali,0.016479
allianc,0.012432
alphabet,0.016007
alvin,0.020512
ambler,0.029024
american,0.097913
analysi,0.008013
andr,0.017351
andrew,0.027001
andriu,0.029024
angloamerican,0.020452
anita,0.024783
anna,0.018977
annot,0.018203
ansoff,0.030323
anson,0.026786
antoaneta,0.030730
antonio,0.017311
arbnor,0.030730
architect,0.017672
argyri,0.029024
armand,0.023885
arn,0.023280
arnold,0.016897
ashkanasi,0.031700
asset,0.012288
australian,0.013825
author,0.022454
avinash,0.025955
b,0.044025
balanc,0.010520
barbara,0.017600
barley,0.020305
barnard,0.023604
baron,0.035375
base,0.005792
becker,0.020963
bedaux,0.031700
behavior,0.009402
behaviour,0.024716
benni,0.026348
berg,0.020542
berlin,0.014275
bertrand,0.017460
bhag,0.030323
bijapurkar,0.031700
bjerk,0.031700
bjrn,0.026348
blackett,0.054559
blanchard,0.023280
bodo,0.030323
born,0.362332
bosanquet,0.026943
boulton,0.025487
bower,0.023885
boyatzi,0.030730
brand,0.032402
bray,0.026082
brian,0.016395
brigg,0.023097
brown,0.040802
brunsson,0.031700
bunker,0.025487
burleigh,0.029310
burn,0.013740
busi,0.108429
c,0.061369
candac,0.028054
capit,0.008731
capon,0.029024
care,0.010085
cari,0.024432
carpent,0.020997
centuri,0.020680
cerdin,0.031700
champi,0.030730
chandler,0.021841
chang,0.018157
charl,0.082254
chart,0.015292
charter,0.014441
chester,0.044124
chri,0.018071
christensen,0.023097
christian,0.010404
church,0.012129
churchman,0.024692
circl,0.025872
clayton,0.023218
clegg,0.027647
click,0.020828
clinton,0.018552
coas,0.046686
collin,0.018957
compet,0.022139
comput,0.017793
computerintegr,0.030323
constanc,0.021067
constraint,0.013331
consult,0.049595
continu,0.006505
contribut,0.007880
control,0.035669
cook,0.015138
cooper,0.020525
core,0.011402
cost,0.066082
covey,0.030730
crenshaw,0.026786
crosbi,0.024110
cs,0.016405
csar,0.025069
cultur,0.008073
cycl,0.011007
cyert,0.030730
czarniawska,0.031700
d,0.026077
dagoult,0.030323
dahlstrom,0.030730
dale,0.020573
daniel,0.026710
danish,0.016981
danni,0.024268
dave,0.043598
davenport,0.024692
davi,0.015569
david,0.047691
day,0.008102
degraff,0.029310
degroot,0.030730
delano,0.024268
deme,0.024876
denison,0.027845
dent,0.024692
der,0.014052
dexter,0.024034
diagram,0.014771
die,0.010288
diemer,0.031700
dietz,0.025272
divis,0.009306
dixon,0.022757
dominiqu,0.023343
don,0.017821
donald,0.015138
dongen,0.029310
douma,0.029310
draijer,0.031700
drucker,0.024432
duboi,0.025069
dunn,0.022108
dutch,0.039562
e,0.043504
economist,0.012136
edgar,0.018896
edward,0.035280
effect,0.006280
ehrenberg,0.026348
eisner,0.027108
eli,0.020542
eliyahu,0.025378
elton,0.022597
emot,0.013279
emyth,0.031184
engin,0.009316
enrich,0.016920
enterpris,0.012168
erem,0.031700
eric,0.015355
erich,0.020081
ericson,0.027845
eriksson,0.027459
erlang,0.024517
especi,0.007506
etemad,0.031700
f,0.019044
facilit,0.011654
factor,0.008196
factori,0.028289
fayol,0.028509
feigenbaum,0.023471
ferriss,0.030323
finney,0.027845
finnish,0.039843
firm,0.034637
fisher,0.017055
follett,0.027845
foss,0.026786
founder,0.012115
frank,0.040606
fred,0.017928
frederick,0.046784
freeman,0.017298
fri,0.020699
fritz,0.018645
furnham,0.030323
g,0.028054
galbraith,0.024268
gantt,0.054559
gardner,0.020604
gari,0.034491
geert,0.027459
genichi,0.029619
georg,0.019925
gerber,0.027647
gharajedaghi,0.031700
ghoshal,0.031184
gigch,0.031700
gilbreth,0.056550
global,0.009179
godin,0.027845
goldratt,0.027279
goldsmith,0.021032
goleman,0.028509
graiciuna,0.031700
gratton,0.030730
grayson,0.027647
greefhorst,0.031700
green,0.011888
griffith,0.020604
gruber,0.025272
gutenberg,0.018516
h,0.057614
haeckel,0.021673
hain,0.025833
hal,0.021841
hall,0.013115
halligan,0.030730
hamel,0.026489
hamid,0.023813
hamilton,0.017155
hammer,0.020191
hand,0.008565
handi,0.023959
hanserik,0.031700
harmon,0.016802
harri,0.029075
harrison,0.019743
haugland,0.030730
hawk,0.018356
hawryszkiewycz,0.030730
health,0.009636
heller,0.024517
henk,0.047209
henri,0.044566
henrik,0.022394
herzberg,0.027279
hildebrandt,0.027459
hine,0.026786
hofsted,0.030323
hopper,0.025069
horac,0.020699
howard,0.016035
huang,0.021673
hugo,0.017600
humancomput,0.022108
humphrey,0.022545
hunt,0.013951
hunzik,0.031700
hyperlink,0.024692
hypocrisi,0.024349
igor,0.043265
imai,0.027459
import,0.005895
improv,0.008506
industri,0.039450
ingeman,0.031700
institution,0.018270
intellig,0.010785
interact,0.008624
interchang,0.015822
intern,0.006057
ishikawa,0.054559
j,0.026043
jack,0.016343
jackson,0.035765
jacqu,0.016035
jaeger,0.026943
jame,0.058495
jamshid,0.028509
jan,0.030382
jantsch,0.030730
japan,0.011431
jay,0.018516
jeanbaptist,0.018740
jeanclaud,0.025487
jeanluc,0.023885
jeanmari,0.025378
jeff,0.020542
jeffrey,0.017960
jenk,0.029024
jennif,0.020929
jeremi,0.018236
job,0.011937
john,0.102212
jose,0.020452
joseph,0.034172
josiah,0.020334
jr,0.014682
juan,0.017018
jun,0.022344
juran,0.028275
just,0.008060
k,0.020960
kaizen,0.028275
kanter,0.030730
kaoru,0.028758
kaplan,0.022154
karl,0.013000
karol,0.025272
kaushik,0.028758
keezer,0.031700
keller,0.023097
ken,0.019187
kenagi,0.031700
kenichi,0.027647
kenneth,0.031021
kester,0.031700
kevin,0.018136
khanna,0.027845
kickert,0.031700
kindt,0.031700
kjell,0.026786
knoeppel,0.031700
koch,0.021473
kolind,0.031700
kostera,0.031700
kotler,0.027108
kotter,0.031184
krarup,0.029024
kyoung,0.031700
l,0.040695
labor,0.011348
labour,0.011700
lane,0.017672
langli,0.031700
lar,0.044308
larrch,0.031700
lawrenc,0.030922
lawton,0.027845
leadership,0.025077
lean,0.018876
learn,0.019416
lee,0.015715
leffingwel,0.031700
leland,0.024188
leon,0.017194
leonardi,0.030730
letter,0.011408
levinson,0.024783
levitt,0.025599
lewi,0.014505
lindgren,0.026082
lintner,0.028275
list,0.019278
llanidan,0.031700
llewellyn,0.023813
london,0.009730
lorsch,0.030323
lounsburi,0.031700
lpez,0.021552
lucian,0.024268
lunnan,0.031700
luostarinen,0.031700
lynda,0.027845
lyndal,0.029310
lyon,0.019743
m,0.033058
manag,0.231734
manageri,0.018798
manfr,0.022394
manufactur,0.022040
mari,0.013350
mark,0.018556
market,0.069200
marshal,0.015316
marvin,0.020542
masaaki,0.030323
matthew,0.016756
matthieu,0.028509
max,0.014121
method,0.007156
michael,0.053172
mike,0.057562
miriam,0.025272
model,0.014396
modern,0.006931
monika,0.027459
morri,0.036712
moss,0.020604
motion,0.023321
motiv,0.022578
multitask,0.024268
n,0.020755
naud,0.029024
navi,0.013830
navig,0.014429
neal,0.021512
negropont,0.027845
network,0.009660
new,0.005161
nichola,0.015544
nicla,0.030730
nicolai,0.025714
nil,0.022344
nobel,0.013451
noel,0.043945
nordstrm,0.026943
norwegian,0.053880
nygaard,0.028275
o,0.012185
offic,0.009301
ogilvi,0.026348
ohma,0.031700
ohno,0.029024
oliv,0.016384
olof,0.025378
onli,0.005319
oper,0.021869
order,0.006367
organ,0.018909
organis,0.032821
organiz,0.333041
ouchi,0.031700
owen,0.019166
p,0.026463
patrick,0.033467
paul,0.020089
peopl,0.006371
peter,0.052685
phil,0.021102
philip,0.028407
pieter,0.022201
pioneer,0.012071
plan,0.017502
prez,0.023218
price,0.009809
prize,0.024716
procedur,0.011539
process,0.018792
product,0.013812
professor,0.047371
protect,0.008831
public,0.013346
pulitz,0.023038
qualiti,0.059236
quick,0.016374
r,0.053202
raadt,0.031700
radjou,0.031700
rama,0.023218
randi,0.023537
ravichandaran,0.031700
rayport,0.031184
read,0.007298
red,0.011648
reengin,0.049753
refer,0.004202
reg,0.027647
reich,0.020573
reichheld,0.031184
reijo,0.031700
research,0.020452
revan,0.031700
revisit,0.019432
revolut,0.020821
rex,0.022394
richard,0.041527
rifkin,0.029310
robert,0.046200
roethlisberg,0.031184
romm,0.028509
ronald,0.030023
rosabeth,0.031700
rother,0.028509
roy,0.017232
russel,0.014730
s,0.351656
sc,0.021210
scholar,0.021344
school,0.008550
scientif,0.033826
scientist,0.028829
scorecard,0.025714
scott,0.015552
seeli,0.028275
seth,0.023038
shelbi,0.026348
social,0.007440
sociolog,0.013857
sociologist,0.016599
sr,0.019644
sridhar,0.029619
ss,0.071903
standard,0.015754
state,0.005117
statement,0.010737
statist,0.019190
steen,0.025170
stephan,0.023537
stephen,0.038976
stewart,0.018570
strateg,0.076589
strategi,0.010894
studi,0.030904
sumantra,0.031700
sven,0.025272
swedish,0.111655
swot,0.027108
syts,0.029310
t,0.010175
taguchi,0.057516
taiichi,0.031184
tapscott,0.030730
tariff,0.016064
tarun,0.031184
taylor,0.014716
tayur,0.031700
technolog,0.008432
ted,0.019018
teec,0.030730
terpstra,0.031700
th,0.020119
theodor,0.016007
theorem,0.013110
theori,0.054843
theorist,0.272628
thi,0.004374
think,0.010142
thoma,0.031386
thomassen,0.030323
thompson,0.017365
thorburn,0.029955
tim,0.036853
time,0.020699
toffler,0.028509
toulous,0.024692
town,0.024020
toyota,0.023673
transact,0.025186
tregon,0.031700
trout,0.025833
tschohl,0.031700
tucker,0.021592
tun,0.026489
turpin,0.029310
u,0.027293
udo,0.028509
ueno,0.030323
ulrich,0.022545
urwick,0.029955
v,0.020856
vaill,0.031700
valuesbas,0.029310
van,0.051174
vanthienen,0.031184
varian,0.027108
vassileva,0.028275
ven,0.026082
vern,0.024876
victor,0.015742
virkkunen,0.031700
visibl,0.012927
vision,0.012668
volberda,0.031700
vroom,0.030323
vytauta,0.029310
w,0.039253
waal,0.020699
waldner,0.031700
walter,0.027902
waluszewski,0.031700
warren,0.034160
watt,0.018682
weber,0.017882
webner,0.031700
weick,0.029955
welch,0.023537
werner,0.018516
west,0.010042
wharton,0.050545
white,0.011104
whitmor,0.029619
whitney,0.021756
wieb,0.027108
wil,0.025955
wilbi,0.031700
wilfr,0.023471
willi,0.019620
william,0.037487
williamson,0.021396
winsemiu,0.031700
winslow,0.025170
wood,0.013495
work,0.011467
writer,0.012003
y,0.012455
yano,0.029955
yasheng,0.031184
yoichi,0.029619
yoji,0.029955
z,0.028538
zander,0.031700
