abil,0.005136
abl,0.004715
accept,0.004686
accord,0.003733
account,0.004396
accumul,0.007161
accur,0.006360
achiev,0.009393
acquir,0.006080
action,0.004587
activ,0.003725
actual,0.004777
ad,0.023821
ada,0.036585
adapt,0.005944
add,0.014237
addisonwesley,0.010601
addit,0.011330
adjust,0.014291
adopt,0.005151
advanc,0.013832
advantag,0.005794
advoc,0.006408
agent,0.019095
aggreg,0.094739
allow,0.014850
alway,0.005020
ani,0.006580
anim,0.005225
anoth,0.003590
ap,0.011277
appropri,0.005984
area,0.007415
argu,0.024831
aros,0.007413
asad,0.029752
asset,0.020704
assist,0.005566
assum,0.025859
attempt,0.012775
augment,0.009613
austrian,0.017884
automat,0.038106
avail,0.004563
averag,0.005576
avoid,0.005576
axel,0.012604
b,0.004944
balanc,0.005908
bank,0.080982
banker,0.020389
base,0.013011
basic,0.004528
bear,0.006986
becam,0.004114
becaus,0.020331
becom,0.018017
befor,0.003844
began,0.004494
begin,0.004389
behavior,0.010560
believ,0.004655
ben,0.009627
benefit,0.005462
better,0.010152
blanchard,0.039222
blaug,0.030447
blume,0.032021
boettk,0.016010
bond,0.051436
book,0.004278
boost,0.035303
borrow,0.007471
boston,0.008299
bouman,0.018532
branch,0.009574
brian,0.064451
bridg,0.022311
brighton,0.014958
broad,0.006046
broader,0.007505
broke,0.007719
broken,0.007505
busi,0.040596
buy,0.028484
c,0.004308
calcul,0.005744
came,0.004929
capit,0.053936
capita,0.008182
carri,0.004860
case,0.007539
cash,0.007535
caus,0.032192
cengag,0.013867
central,0.076073
centuri,0.007742
challeng,0.016157
chang,0.050986
chicago,0.007348
circul,0.007888
class,0.005000
classic,0.069739
clear,0.011223
clearli,0.013558
cliff,0.010095
close,0.008068
coin,0.006243
columbia,0.008385
combin,0.017198
common,0.003646
commonli,0.005007
compar,0.004459
comparison,0.006322
competit,0.005929
complex,0.004412
comprehens,0.006641
concept,0.012624
concern,0.004233
condit,0.008438
connect,0.009929
consensu,0.007521
consequ,0.015382
consid,0.003516
consist,0.016143
constant,0.011989
consum,0.030021
consumpt,0.035165
contemporari,0.005898
contentspreview,0.019639
continu,0.003653
contract,0.006049
contractionari,0.015223
contrast,0.005093
contribut,0.004425
control,0.008012
convent,0.023356
coordin,0.006392
core,0.012807
corpor,0.005916
correspond,0.005474
cost,0.005301
costpush,0.017513
countri,0.007936
cover,0.009929
creat,0.033195
credit,0.011670
crisi,0.006222
critic,0.004435
critiqu,0.022983
crowd,0.037590
curiou,0.011851
current,0.011581
curv,0.081608
cycl,0.037089
cyclic,0.009365
d,0.004881
data,0.004812
david,0.010713
deal,0.009715
debt,0.006992
decis,0.015252
decisionmak,0.008692
declin,0.028627
decreas,0.035629
defend,0.006746
deflat,0.055369
delhi,0.010408
demand,0.096906
demandaggreg,0.018137
demandpul,0.017513
demonstr,0.010840
depend,0.003978
depreci,0.021551
depress,0.029969
der,0.007891
descend,0.007298
describ,0.003711
descript,0.005512
despit,0.005113
determin,0.012563
develop,0.027142
diagram,0.016590
dictionari,0.014621
differ,0.009590
difficult,0.005259
difficulti,0.006512
dimand,0.019639
direct,0.004004
directli,0.009690
disciplin,0.005556
discourag,0.009104
discretionari,0.024580
displaystyl,0.006907
divid,0.004781
dn,0.012720
doe,0.012240
doi,0.015966
domest,0.012496
donald,0.008501
doubt,0.007782
downturn,0.010328
downward,0.029033
drop,0.013237
dsge,0.016010
dub,0.009700
durlauf,0.048900
dwivedi,0.017802
dynam,0.011307
e,0.014659
earli,0.010893
eas,0.016715
econom,0.131110
economi,0.163616
economist,0.102239
ed,0.020329
edmund,0.009236
educ,0.013875
edward,0.046230
effect,0.052903
element,0.004617
elgar,0.070753
emblemat,0.015223
empir,0.015197
employ,0.028893
encompass,0.006796
encyclopedia,0.037515
endogen,0.032976
englewood,0.012059
enhanc,0.006724
ensur,0.005964
entir,0.014127
environ,0.004812
equal,0.009888
equat,0.006038
equilibrium,0.045525
equival,0.005847
essay,0.014070
evalu,0.006290
eventu,0.005159
everyth,0.014458
evolv,0.005959
exampl,0.013005
exce,0.009482
exclud,0.013659
exist,0.003610
exogen,0.011293
expand,0.005135
expans,0.018376
expect,0.039904
expenditur,0.016054
expens,0.006484
explain,0.058647
explan,0.006390
export,0.013319
face,0.005449
factor,0.027619
fall,0.014866
faster,0.007573
favor,0.017988
featur,0.009819
feder,0.011560
fell,0.007011
field,0.011893
final,0.004695
financ,0.005752
financi,0.005182
finetun,0.013145
finn,0.012842
firm,0.012968
fiscal,0.123461
fischer,0.010952
fisher,0.009578
fix,0.005762
flat,0.008303
flesh,0.010824
fluctuat,0.040535
focu,0.005326
focus,0.010107
follow,0.009316
forc,0.007782
forecast,0.025659
foreign,0.005053
form,0.008902
formal,0.009715
foundat,0.010124
framework,0.005561
franco,0.011087
freder,0.011536
frederick,0.008758
free,0.004434
frequent,0.010914
friction,0.019128
friedman,0.070239
frisch,0.013294
fulli,0.005852
function,0.007949
fundament,0.009942
fusion,0.009048
futur,0.004728
gap,0.022671
gdp,0.021903
gener,0.041843
given,0.015574
global,0.005155
goal,0.005339
good,0.051793
gottfri,0.010241
govern,0.047991
great,0.013126
greek,0.005497
greg,0.011734
gregori,0.009443
gross,0.007590
group,0.007003
grow,0.004978
growth,0.088449
grtner,0.017802
ha,0.012942
haberl,0.016300
hall,0.014731
healey,0.015638
heijdra,0.019016
help,0.008500
hester,0.016634
hi,0.003480
high,0.015723
higher,0.036921
hire,0.008476
histori,0.003233
hold,0.009352
horizont,0.008952
howard,0.063039
howev,0.012602
human,0.003740
idea,0.004357
idl,0.022679
ii,0.005080
immun,0.008497
impact,0.015960
imperfect,0.019114
implaus,0.012690
implement,0.037834
import,0.006621
improv,0.004777
includ,0.021559
incom,0.059461
increas,0.089594
independ,0.007974
index,0.006167
indic,0.009551
individu,0.008008
industri,0.004431
ineffect,0.009821
inelast,0.012266
inflat,0.138908
inflationari,0.011130
inflex,0.012842
influenc,0.008551
influenti,0.024974
inform,0.003859
input,0.007033
insid,0.006510
instanc,0.005257
instead,0.045470
institut,0.004107
instrument,0.005977
interact,0.004843
interchang,0.008885
intern,0.006803
interrel,0.009476
intervent,0.007043
introduc,0.009107
invers,0.008197
invest,0.049745
investig,0.005439
irv,0.010460
isbn,0.068837
islm,0.099353
issu,0.004165
j,0.004875
jacob,0.008753
jame,0.005475
jersey,0.009613
job,0.046927
john,0.013246
julio,0.012811
june,0.005655
just,0.004526
justifi,0.007807
key,0.009879
keyn,0.075177
keynesian,0.159867
knowledg,0.004882
known,0.003243
kydland,0.015755
labor,0.038239
lack,0.004949
lag,0.030312
larg,0.010261
larger,0.005123
late,0.004493
later,0.003859
law,0.007819
lawrenc,0.017365
lead,0.050342
leagu,0.007963
learn,0.005452
learningbydo,0.019639
led,0.008377
left,0.010347
leijonhufvud,0.016634
length,0.006439
let,0.007272
level,0.062096
levi,0.009121
like,0.010399
limit,0.027745
link,0.002822
liquid,0.020870
lm,0.013181
lock,0.008406
london,0.005464
longer,0.010705
longrun,0.052839
longterm,0.020489
look,0.021434
loos,0.008068
loosen,0.012195
low,0.014921
lower,0.043159
luca,0.041513
lucass,0.015879
ludwig,0.017822
m,0.013924
machineri,0.008003
macmillan,0.017731
macroeconom,0.394541
macroeconomi,0.044164
macroeconomist,0.028627
magnifi,0.012016
maintain,0.004525
major,0.003443
make,0.019801
makro,0.016822
manag,0.009295
manfr,0.012576
mani,0.005866
mankiw,0.028627
margin,0.007112
mark,0.010421
market,0.063151
maryland,0.010775
massachusett,0.034040
match,0.013802
mauric,0.019355
mayer,0.012172
maynard,0.010567
mcdot,0.016634
mcgrawhil,0.009378
mean,0.017870
measur,0.021253
mechan,0.009584
methodolog,0.013738
michael,0.005972
microeconom,0.060624
microfound,0.014576
milton,0.019269
mise,0.011571
misess,0.016010
mishkin,0.016150
mismatch,0.011734
model,0.177867
modern,0.019463
modigliani,0.013970
monetar,0.052021
monetari,0.173923
monetarist,0.025440
money,0.191392
motiv,0.006340
multipli,0.016731
myriad,0.011115
n,0.023312
narrowlydefin,0.019639
nation,0.035959
nd,0.006038
near,0.010671
necessari,0.005171
need,0.007802
neg,0.016882
neoclass,0.068749
net,0.006821
new,0.060874
nigel,0.012290
nomin,0.006773
nonpric,0.016634
northampton,0.058307
norton,0.010113
note,0.007483
novemb,0.005820
occur,0.045354
offer,0.004825
oil,0.012954
okun,0.029916
olivi,0.036447
onc,0.004849
onli,0.023898
open,0.004442
oper,0.004094
order,0.007152
orient,0.006762
origin,0.014385
output,0.257393
outsid,0.009901
overh,0.013768
oxford,0.006097
p,0.014861
pair,0.006915
palgrav,0.038538
particularli,0.009102
partli,0.006977
pass,0.005041
past,0.010296
paul,0.005641
pay,0.012117
pearson,0.010222
pedagog,0.012126
peopl,0.007155
percentag,0.007231
perfectli,0.009016
perform,0.004562
period,0.007711
peston,0.018137
peter,0.005917
phelp,0.026667
phenomena,0.012392
phenomenon,0.006683
phillip,0.020085
pigou,0.014441
play,0.009371
plenti,0.010204
ploeg,0.018137
point,0.007528
polici,0.211308
polit,0.016292
popul,0.004617
posit,0.007692
possibl,0.011386
potenti,0.014453
pp,0.012133
predict,0.005444
prefer,0.011396
prefix,0.010000
prentic,0.020120
prescott,0.012938
press,0.013139
prevail,0.007872
prevent,0.005320
previou,0.005611
price,0.165271
principl,0.017868
prior,0.011241
privat,0.010671
problem,0.003979
process,0.003517
produc,0.038719
product,0.031027
profit,0.006429
progress,0.005071
project,0.009209
promin,0.005835
propos,0.004591
prospect,0.007907
prosper,0.007693
protect,0.004959
provid,0.003301
public,0.003747
publish,0.028913
pursu,0.006767
q,0.025002
quantit,0.013827
quantiti,0.048490
question,0.004673
quickli,0.012114
r,0.019918
ragnar,0.013867
rais,0.010977
rate,0.129126
ration,0.038479
rbc,0.085882
reach,0.004796
real,0.029391
recent,0.016347
recess,0.050682
recommend,0.006956
reduc,0.013413
reed,0.011217
refer,0.002360
reflect,0.005071
regardless,0.007134
region,0.004226
regress,0.009309
relat,0.012728
relationship,0.036040
remain,0.003903
replac,0.009618
repres,0.015485
requir,0.003715
research,0.007657
reserv,0.012553
resourc,0.014333
respond,0.006365
respons,0.008186
result,0.019725
retir,0.008030
retriev,0.007011
return,0.004776
revenu,0.006885
review,0.005288
rigid,0.008782
rise,0.014247
robert,0.025946
role,0.020671
romer,0.014441
rotemberg,0.016634
rough,0.009359
routledg,0.008410
s,0.023431
samuelson,0.011851
save,0.053616
scale,0.005341
school,0.028810
scientif,0.004749
scroll,0.011606
search,0.012081
second,0.003873
sector,0.018562
secur,0.005014
seek,0.005295
seen,0.004630
sell,0.013352
servic,0.013794
set,0.007311
sever,0.010272
shift,0.022878
shock,0.032274
short,0.005032
shorter,0.008402
shortrun,0.027635
shortterm,0.017158
similar,0.007844
similarli,0.006222
simpli,0.010719
sinc,0.003284
situat,0.005057
skill,0.025310
slip,0.010849
slope,0.037930
slow,0.006781
small,0.004019
snowdon,0.124619
social,0.004178
sold,0.013872
sole,0.006667
solow,0.081243
soon,0.006023
sophist,0.007557
sourc,0.004131
spend,0.047725
spirit,0.007421
spur,0.009225
stabil,0.036753
stabl,0.006464
stagnat,0.009836
standard,0.004423
stanley,0.008650
state,0.017243
steadi,0.008418
steven,0.024828
sticki,0.011932
stimulu,0.009620
stochast,0.018230
stock,0.012673
strive,0.009416
struck,0.009340
structur,0.023025
studi,0.013884
suffer,0.011989
suffici,0.006072
suggest,0.018393
sum,0.006552
suppli,0.096383
synthesi,0.021999
target,0.024462
tata,0.013721
tax,0.018518
taylor,0.008264
technolog,0.033150
temporari,0.007746
tend,0.005393
term,0.015518
text,0.005666
textbook,0.022210
th,0.007532
theme,0.007274
theori,0.119350
therefor,0.004464
thi,0.017197
thoma,0.005875
thought,0.013965
time,0.014530
timesa,0.019639
tobin,0.013768
took,0.005131
tool,0.015778
topic,0.015634
total,0.018331
tough,0.010939
trade,0.004751
tradeoff,0.010590
transit,0.011436
trap,0.008605
tri,0.015510
twentieth,0.007749
twist,0.010775
type,0.007898
typic,0.008813
ucla,0.012081
unabl,0.006825
uncertainti,0.015287
unconvent,0.024298
underli,0.006237
understand,0.013375
unemploy,0.261563
unit,0.003312
univers,0.010205
unpopular,0.010439
unsold,0.015526
updat,0.015913
upward,0.027431
usa,0.007333
use,0.048309
usual,0.023715
util,0.005942
v,0.011713
vacanc,0.024580
valu,0.012629
van,0.007184
vane,0.105921
variabl,0.006004
variat,0.006157
varieti,0.014795
variou,0.003739
veloc,0.008637
veri,0.003751
version,0.017236
view,0.012629
vindic,0.012441
von,0.013323
vpcdot,0.019016
w,0.005511
wa,0.021545
wage,0.050522
war,0.004665
warsh,0.017513
wealth,0.013527
wheatsheaf,0.015320
whi,0.006043
wicksel,0.014376
wide,0.004230
woodford,0.016010
work,0.016100
worker,0.067257
world,0.006660
x,0.011631
yale,0.008979
year,0.003314
yield,0.006416
zero,0.006907
