abl,0.022077
absenc,0.032132
abstract,0.030756
actual,0.044738
adopt,0.024119
align,0.037758
ani,0.015403
anoth,0.016810
appli,0.018684
approach,0.020115
asymmetri,0.052042
attempt,0.019936
b,0.023150
barrier,0.035562
basic,0.021201
becaus,0.015864
brand,0.042597
buyer,0.210311
c,0.020169
case,0.017648
caus,0.037679
characterist,0.024329
charg,0.027239
combin,0.020129
commit,0.029587
competit,0.360868
competitor,0.043730
concern,0.039639
concret,0.038675
condit,0.059260
consum,0.056221
continu,0.017105
control,0.037513
correct,0.028429
cost,0.074463
cover,0.023243
criteria,0.035355
curv,0.034733
custom,0.057093
deal,0.022743
degre,0.023119
demand,0.075615
determin,0.019605
differ,0.029933
differenti,0.114344
distinguish,0.025064
distribut,0.023294
domin,0.023231
duopoli,0.062612
duopolist,0.078761
econom,0.037201
economi,0.023212
effici,0.026613
elast,0.042571
element,0.043234
elmer,0.059414
entir,0.022046
entri,0.065754
exist,0.033803
extent,0.027967
extern,0.013290
featur,0.022986
financi,0.024264
firm,0.212496
flow,0.026766
freeli,0.039528
g,0.024587
gather,0.031685
given,0.018229
good,0.020206
govern,0.017283
henc,0.028358
herfindahl,0.080797
hi,0.016296
ident,0.052048
ignor,0.031525
impact,0.024907
imperfect,0.089490
imperfectli,0.060272
incent,0.037840
includ,0.012616
increas,0.017477
index,0.028873
induc,0.035989
industri,0.020745
inform,0.072276
interact,0.022676
level,0.036339
link,0.013212
low,0.023286
lower,0.022451
macroeconom,0.041047
main,0.019235
major,0.016119
mani,0.027465
market,0.432120
meet,0.049166
microeconom,0.094610
model,0.018925
monopoli,0.194638
monopolist,0.275142
monopsoni,0.064690
multipl,0.023368
natur,0.032440
need,0.018264
number,0.060798
object,0.020769
oligopoli,0.289445
oligopolist,0.067610
oligopsoni,0.069647
onli,0.041957
onlin,0.026591
oper,0.076668
organ,0.016572
organis,0.028765
paradigm,0.036813
perfect,0.135781
perfectli,0.042212
power,0.017829
present,0.017420
pressur,0.026225
price,0.103168
privat,0.024981
problem,0.018632
produc,0.054382
product,0.054474
provid,0.030915
pure,0.027549
qualiti,0.051916
quit,0.029443
realist,0.037971
refer,0.011049
regul,0.026158
relat,0.014897
respect,0.021013
reveal,0.058128
rival,0.036507
run,0.024281
scale,0.025008
sell,0.031256
seller,0.309041
sequenc,0.030674
serv,0.021994
servic,0.086112
share,0.021531
singl,0.020579
size,0.071842
small,0.018817
smaller,0.026147
somewhat,0.032599
special,0.038464
specif,0.018398
structur,0.143735
structureconductperform,0.080797
subject,0.039124
substitut,0.034171
tend,0.025252
theoret,0.025214
thi,0.011502
togeth,0.021205
trade,0.044490
true,0.024898
type,0.055465
typic,0.020630
unlimit,0.046017
use,0.012565
want,0.028390
wien,0.056878
word,0.021345
