abandon,0.030485
account,0.038442
achiev,0.061592
aggreg,0.034513
alloc,0.097704
alreadi,0.023775
avail,0.039899
away,0.024860
balanc,0.516591
base,0.028440
basi,0.040655
becam,0.017987
begin,0.019188
calcul,0.050223
collectivis,0.063723
committe,0.028279
communist,0.032511
complet,0.018205
computer,0.048349
consid,0.015373
consum,0.026248
contrast,0.022267
correct,0.026545
cruditi,0.075443
cybernet,0.047106
decad,0.023962
decentr,0.043071
deficit,0.036589
demand,0.047069
determin,0.018306
develop,0.052734
distribut,0.021750
drawn,0.031110
drive,0.028323
dure,0.015174
earli,0.031747
econom,0.104209
economi,0.238418
effici,0.024850
emerg,0.020340
employ,0.021051
encompass,0.029711
endem,0.044209
establish,0.016937
exampl,0.014213
extra,0.036348
favor,0.026212
financi,0.022656
form,0.025943
formul,0.054354
function,0.034750
gear,0.043071
given,0.017021
good,0.018867
gosplan,0.285026
growth,0.021481
haphazard,0.063130
highli,0.044682
idea,0.019047
imbal,0.044016
import,0.014474
imprecis,0.052623
industri,0.077482
inform,0.016871
innov,0.029395
input,0.122982
inputoutput,0.105630
interlink,0.054857
invest,0.024162
involv,0.016451
item,0.031130
iter,0.169874
joseph,0.027965
kind,0.022604
labor,0.027860
leadership,0.061566
left,0.022616
leontief,0.063723
logic,0.027459
major,0.045154
manner,0.027379
market,0.021236
materi,0.278327
mechan,0.020950
method,0.052710
ministri,0.030503
model,0.017671
monetari,0.030412
nation,0.031440
natur,0.015145
need,0.017054
nonlabor,0.072717
oppos,0.023708
optim,0.030090
output,0.088832
parti,0.021923
plan,0.322269
preced,0.030821
previou,0.024531
princip,0.025412
principl,0.019527
priorit,0.049709
problem,0.017398
process,0.015378
procur,0.044938
product,0.033909
progress,0.022171
quo,0.045369
rapid,0.056385
raw,0.033655
recipi,0.039823
refer,0.010317
replac,0.021024
repres,0.016924
resourc,0.041773
respons,0.017894
role,0.036147
rough,0.040915
s,0.029265
seen,0.040487
sheet,0.074629
signal,0.029686
socialist,0.064244
sourc,0.018061
soviet,0.248806
soviettyp,0.196170
specifi,0.029193
stalin,0.047212
state,0.012563
statu,0.023980
stem,0.032275
success,0.038083
suffer,0.026207
suppli,0.187264
supplier,0.040432
supplysid,0.058289
survey,0.027600
tabl,0.027634
target,0.053470
techniqu,0.022065
thi,0.042959
thu,0.016785
tool,0.022991
transcend,0.040617
union,0.085347
unit,0.014482
use,0.046930
variou,0.016346
wa,0.094185
wassili,0.064355
work,0.014076
