abroad,0.005478
absolut,0.008558
abund,0.005116
academ,0.007557
accomplish,0.005070
account,0.008913
accumul,0.009679
accur,0.008596
accuraci,0.005471
accus,0.005059
acknowledg,0.004864
acquir,0.008218
act,0.011533
activ,0.012586
ad,0.003219
adam,0.066558
addit,0.002552
adequ,0.005292
adopt,0.010444
advanc,0.003115
advantag,0.019579
advent,0.005517
adversari,0.007483
aegi,0.008743
africa,0.004096
age,0.006318
aggress,0.005621
agre,0.003803
agricultur,0.011249
aid,0.003784
aim,0.010807
align,0.005450
allen,0.005824
allow,0.005017
altern,0.003241
alway,0.003392
ame,0.008425
america,0.010606
american,0.011433
amsterdam,0.006417
analyt,0.004599
ancin,0.013271
anglodutch,0.008907
ani,0.006670
anoth,0.009705
antimercantilist,0.026543
antoin,0.006920
antonio,0.006569
apparatu,0.006278
appear,0.011688
appli,0.002696
applic,0.003012
approach,0.002903
archetyp,0.007392
area,0.002505
argu,0.020136
arguabl,0.006148
argument,0.016954
armi,0.004339
aros,0.005009
array,0.005504
articul,0.012185
artifici,0.008520
artisan,0.006959
asia,0.008663
asian,0.004806
associ,0.002464
attack,0.008134
attempt,0.002877
austria,0.005836
austrian,0.012085
autarki,0.009337
author,0.014202
averag,0.003768
b,0.016707
balanc,0.039927
baltimor,0.007427
ban,0.020331
baptist,0.007365
barrier,0.015399
base,0.004396
basic,0.003060
bay,0.005697
becam,0.016683
becaus,0.013739
becom,0.007305
befor,0.010391
began,0.018225
begun,0.004836
belief,0.004072
believ,0.009438
benefici,0.005582
benefit,0.029531
best,0.020116
better,0.006860
biddl,0.010108
bigger,0.006827
birth,0.004482
bit,0.006186
black,0.004105
blackwel,0.006359
blake,0.008858
bloc,0.006103
bodin,0.009672
book,0.008673
bookkeep,0.008338
border,0.004481
boston,0.011216
botero,0.011014
bounti,0.008721
braudel,0.009337
brezi,0.011662
britain,0.068566
britannica,0.012373
british,0.050947
brought,0.003749
build,0.009656
bulk,0.005392
bullion,0.103391
busi,0.010287
buy,0.004812
c,0.002911
ca,0.005595
cambridg,0.008069
came,0.006662
camer,0.009758
canada,0.008727
canal,0.006042
canton,0.008179
capabl,0.004011
capit,0.003313
capitalist,0.006018
captiv,0.006525
captur,0.004183
cargo,0.006798
carri,0.003284
cato,0.007892
caus,0.008157
ceil,0.007550
cement,0.006718
centassoci,0.012256
centr,0.016756
central,0.011423
centuri,0.070636
certain,0.011154
challeng,0.003639
chang,0.006890
charl,0.007804
charter,0.005480
cheltenham,0.009272
child,0.009786
china,0.011742
christian,0.007896
christina,0.008743
christoph,0.005339
circul,0.005330
circumv,0.007570
citi,0.007037
cityst,0.007148
civil,0.006989
class,0.006758
classic,0.016831
clear,0.003792
clearli,0.004581
cliff,0.006821
close,0.008178
cloth,0.015979
codifi,0.006690
coher,0.022464
coland,0.010730
colbert,0.091797
collaps,0.004488
colleg,0.004422
coloni,0.063196
columnist,0.008883
come,0.002914
commerc,0.010154
commerci,0.003903
commod,0.009890
common,0.012319
commonli,0.003383
commonsens,0.008179
commonwealth,0.005263
communaut,0.010287
compagni,0.026576
compani,0.009652
companion,0.005876
compar,0.009041
compat,0.005845
competit,0.016026
complet,0.008442
comprehens,0.004488
concern,0.005721
concert,0.006870
concis,0.012412
condit,0.002851
confin,0.005471
confus,0.004586
conquer,0.005517
consid,0.004752
consider,0.006848
conspiraci,0.007241
constant,0.004051
constantli,0.005680
constitu,0.004771
consum,0.008114
consumpt,0.019010
contin,0.010501
continent,0.005426
continu,0.004938
contribut,0.005981
control,0.029780
controversi,0.004015
convers,0.008408
copenhagen,0.007241
copi,0.004912
core,0.008654
corn,0.006372
corpor,0.007995
corrupt,0.005003
cost,0.003582
costeffect,0.007807
countri,0.032179
courland,0.010730
cours,0.007103
court,0.003865
craftsmen,0.007955
creat,0.009969
creator,0.006107
critic,0.026976
critiqu,0.015531
cromwel,0.009064
currencystarv,0.013271
cutthroat,0.011240
d,0.006597
damag,0.004397
damsgaard,0.013271
dark,0.005269
date,0.003405
daven,0.010730
davi,0.005908
david,0.025338
debat,0.003793
debunk,0.009209
decentr,0.006658
decis,0.003435
declin,0.003868
decre,0.005852
decreas,0.004012
deem,0.005514
deemphas,0.008765
deepli,0.005753
defens,0.004472
defin,0.005593
definit,0.003222
degre,0.010011
demand,0.003638
denmark,0.005977
depend,0.005377
deriv,0.003098
describ,0.005016
destin,0.005702
determin,0.002829
develop,0.024455
diamond,0.006186
did,0.018149
differ,0.006480
difficult,0.007108
diplomat,0.004841
direct,0.005411
directli,0.003274
disagre,0.005858
discount,0.005883
discourag,0.018456
discours,0.005579
discoveri,0.003816
disjoint,0.008517
dispar,0.006262
divers,0.003919
divid,0.006462
doctrin,0.014660
doijtbx,0.008858
doin,0.009092
domest,0.063333
domin,0.023472
donald,0.005745
doubleentri,0.009898
downward,0.006539
drain,0.007026
dtat,0.006539
dudley,0.008536
duke,0.006426
dure,0.018765
dutch,0.010009
duti,0.004849
e,0.016510
earli,0.029445
earlier,0.003625
earliest,0.004100
east,0.003771
econom,0.158404
economi,0.053607
economist,0.018423
ed,0.020606
editor,0.005222
educ,0.003125
edward,0.004462
effect,0.002383
effici,0.011524
effort,0.013590
eighteenth,0.012540
ekelund,0.059173
element,0.003120
elgar,0.007968
eli,0.007796
elis,0.009948
elizabeth,0.011673
elizabethan,0.017669
els,0.005052
elsewher,0.005057
embodi,0.005672
embrac,0.038741
embryon,0.007492
emerg,0.003144
emperor,0.005410
empir,0.030809
empiric,0.006642
employ,0.009762
empow,0.006908
enact,0.021753
encourag,0.028226
encyclopedia,0.021126
end,0.008047
enemi,0.010966
enforc,0.009198
engag,0.003885
england,0.059599
englewood,0.008149
english,0.027334
englishspeak,0.006723
enorm,0.005283
enrich,0.032107
ensur,0.008061
equival,0.003951
era,0.027133
error,0.004665
especi,0.019941
essay,0.004754
essenti,0.003410
establish,0.010472
estat,0.005222
europ,0.053225
european,0.027501
event,0.003192
eventu,0.006973
everi,0.003069
everyon,0.011328
evid,0.006690
exagger,0.006840
exampl,0.010985
exchang,0.006936
exclus,0.008382
exemplifi,0.006250
exist,0.002439
exot,0.006535
expand,0.006940
expans,0.012418
expel,0.005915
expend,0.007855
expenditur,0.005424
expens,0.008763
explan,0.017274
explor,0.003738
export,0.072008
extend,0.003235
extens,0.006625
extent,0.008073
extern,0.001918
extra,0.005618
extrem,0.003519
f,0.010841
fact,0.003114
facto,0.011895
fade,0.014013
fail,0.003688
fallaci,0.013945
fals,0.004975
famili,0.003397
famous,0.006372
far,0.009979
farmer,0.005192
father,0.004313
favor,0.016208
favorit,0.007233
favour,0.004824
featur,0.006635
feel,0.009172
fen,0.010567
fernand,0.008105
feudal,0.006337
fiat,0.008077
field,0.002679
fifteenth,0.007652
fight,0.004603
final,0.003173
financ,0.007774
financi,0.007004
finish,0.028226
fit,0.004466
fix,0.007787
flander,0.008225
flaw,0.006254
fleet,0.011798
flesh,0.007314
flow,0.003863
focu,0.014396
focus,0.010245
folli,0.009092
follow,0.008394
forbid,0.021164
forc,0.005258
foreign,0.040980
foremost,0.006852
form,0.010026
format,0.003578
forraign,0.036768
foundat,0.003420
fourth,0.004577
fragment,0.005159
framework,0.003758
franc,0.067600
francodutch,0.010052
frederick,0.005918
free,0.011986
freer,0.009304
freetrad,0.008958
french,0.042366
friction,0.006463
frontier,0.005782
fuel,0.009723
fulli,0.011865
fund,0.003617
fundament,0.003359
futur,0.003195
g,0.007097
gain,0.015958
galbraith,0.009209
game,0.018006
gener,0.016965
genoa,0.008134
geograph,0.004266
georg,0.007561
gerard,0.007727
german,0.007409
germani,0.003950
gianni,0.010052
giovanni,0.007126
given,0.005262
glenn,0.007750
global,0.010451
globe,0.005974
goal,0.032475
godfath,0.009803
gold,0.045618
good,0.040832
goodsth,0.013271
govern,0.039914
governmentcontrol,0.010287
governmentguarante,0.013271
governmentimpos,0.010913
grant,0.008043
great,0.017740
greatli,0.012888
grew,0.004383
groenewegen,0.012523
group,0.009465
grove,0.007610
growth,0.016602
guidanc,0.005915
guild,0.007265
guyanes,0.010819
h,0.007288
ha,0.008746
habit,0.005562
habsburg,0.008120
hamowi,0.009092
hand,0.006501
hansen,0.008179
harki,0.011507
harm,0.015172
harri,0.011034
hbert,0.022247
heart,0.004815
heckscher,0.010819
heed,0.009037
hegemon,0.008765
height,0.010461
held,0.003101
help,0.005743
henri,0.004228
hermann,0.006412
hi,0.009408
high,0.013281
higher,0.006237
highpric,0.011240
hill,0.005218
histor,0.011787
histori,0.021850
historian,0.008841
hobb,0.007365
hold,0.006319
holi,0.005554
holm,0.007455
home,0.011238
homeland,0.006786
hopkin,0.006463
hornick,0.023324
houghton,0.015963
hous,0.003519
howev,0.010645
hudson,0.007502
human,0.005054
hume,0.020483
hypothesi,0.004569
idea,0.035332
ideal,0.008537
identifi,0.006342
ideolog,0.024777
ignor,0.004550
ii,0.003433
illinoi,0.006421
imagin,0.005244
impact,0.014380
imperi,0.035773
imperialismboth,0.013271
imperialist,0.015990
implement,0.007304
import,0.062648
impos,0.031581
imposs,0.008871
impoverish,0.007401
improv,0.003228
incess,0.009552
includ,0.009105
inconceiv,0.009150
increas,0.037840
inde,0.008921
indi,0.006658
india,0.004016
indispens,0.007323
individu,0.005411
industri,0.038926
ineffici,0.006074
inevit,0.017339
infant,0.006303
infinit,0.005136
inflat,0.004940
inflow,0.007186
influenc,0.005778
inhabit,0.004560
initi,0.002850
instanc,0.010658
instead,0.003072
institut,0.002775
integr,0.009497
intern,0.016092
intervent,0.004760
intraeuropean,0.011662
introduc,0.006154
introduct,0.003477
invest,0.007470
investig,0.003675
investmentdomest,0.013271
involv,0.002543
irrit,0.007855
isbn,0.062023
isol,0.004259
issu,0.005630
itali,0.009442
italian,0.004922
iv,0.011388
j,0.013178
jacob,0.017745
jame,0.003699
japan,0.004338
jean,0.010881
jeanbaptist,0.021335
jeff,0.007796
john,0.023870
johnson,0.005994
jon,0.007323
josiah,0.015433
jr,0.005572
jrg,0.009121
jstor,0.006600
just,0.006117
justic,0.004433
justifi,0.005275
kegan,0.008699
kellenbenz,0.011834
kenneth,0.005886
kept,0.009453
kettler,0.011834
keyn,0.065316
keynesian,0.014404
king,0.012534
known,0.002191
la,0.008756
label,0.004719
labor,0.012920
labour,0.004440
lack,0.010032
lahay,0.012030
laissezfair,0.007550
land,0.013277
landreth,0.013271
lar,0.008407
larg,0.006934
larger,0.003461
largescal,0.010221
late,0.006073
later,0.010433
laura,0.008063
law,0.007926
lawyer,0.006363
lazi,0.008615
lccn,0.008120
lead,0.005233
led,0.016983
legaci,0.005514
legisl,0.004015
lesson,0.006156
letter,0.004329
letwin,0.013271
level,0.002622
liberalis,0.007673
libertarian,0.006940
liberti,0.011134
librari,0.004120
lie,0.004297
life,0.002819
light,0.003615
like,0.004685
limit,0.008035
link,0.005721
liquid,0.004701
list,0.002438
literatur,0.007836
littl,0.013426
live,0.002835
local,0.002970
lock,0.022722
logic,0.004244
london,0.022156
long,0.017085
longer,0.003617
look,0.003621
loss,0.007671
lost,0.003811
loui,0.009897
low,0.006722
lower,0.006481
lowpric,0.010646
ma,0.005539
maastricht,0.008657
machiavellian,0.010225
macmillan,0.011982
magnusson,0.010567
mainli,0.007281
maintain,0.003057
mainten,0.005261
major,0.016286
make,0.008920
malden,0.009010
malyn,0.011368
manchest,0.006883
mani,0.017839
manifesto,0.006914
mankind,0.006329
manufactur,0.041822
march,0.003636
marchand,0.010646
margin,0.004806
mark,0.003521
market,0.032827
markwel,0.010730
materi,0.027658
matter,0.003298
maxim,0.024937
maximum,0.009537
maynard,0.028565
mcgrawhil,0.006337
md,0.006491
mean,0.002415
meant,0.008996
measur,0.005744
mediev,0.009355
mediterranean,0.011472
meier,0.009209
mercant,0.013271
mercantil,0.658705
mercantilist,0.431821
merchant,0.093753
merchantsand,0.011507
metal,0.004564
method,0.008148
mexico,0.005471
microeconom,0.006827
midth,0.010821
mifflin,0.016182
militari,0.010643
minim,0.004628
minimum,0.004783
minist,0.003956
mirabeau,0.022247
misselden,0.035504
mistak,0.012071
misunderstood,0.008372
modern,0.021043
monarch,0.005791
monarchi,0.005621
monetar,0.017576
money,0.047030
monopol,0.015262
monopoli,0.044950
monopolist,0.007942
montchrestien,0.013271
montmor,0.011662
mother,0.005053
motiv,0.008568
movement,0.006048
mun,0.074699
murray,0.012683
n,0.003938
napoleon,0.011961
nation,0.058320
nationst,0.007357
natur,0.007023
naval,0.016595
navi,0.015746
navig,0.027380
nd,0.008160
necess,0.005495
necessari,0.010484
need,0.002636
neoclass,0.006636
neomercantil,0.035504
neomercantilist,0.024512
neoreal,0.010492
nester,0.011662
net,0.004609
netherland,0.015331
network,0.003666
new,0.037218
newsweek,0.018742
niehan,0.012256
ninepoint,0.012030
nj,0.006435
nonmercantilist,0.013271
nontariff,0.010165
north,0.010446
northern,0.004099
notabl,0.010095
note,0.022755
noth,0.004640
notion,0.012447
number,0.008775
numer,0.003248
oak,0.007061
observ,0.002894
obtain,0.003408
occas,0.005454
occur,0.005572
oclc,0.012632
offer,0.003260
offic,0.003529
offici,0.006658
oliv,0.006218
omrund,0.013271
onc,0.003276
onli,0.018168
onward,0.005559
opaqu,0.007981
oper,0.008299
opportun,0.004142
opposit,0.003608
oppress,0.006467
opul,0.010492
order,0.007249
ordin,0.006467
organ,0.004784
origin,0.009721
ourselv,0.007083
outflow,0.007904
outgrow,0.010420
outlin,0.008537
output,0.009154
outthrough,0.013271
overal,0.004013
overarch,0.007418
oversea,0.005230
oxford,0.020602
palgrav,0.013021
paper,0.007236
paradigm,0.005313
paramount,0.014714
parliament,0.022114
parti,0.003388
particular,0.002744
particularli,0.003075
partner,0.009588
past,0.003478
patent,0.005852
path,0.004446
paul,0.011435
pave,0.006202
pay,0.004094
payment,0.014180
peac,0.004229
peak,0.009624
pearl,0.006769
peel,0.008858
pejor,0.007652
peopl,0.002417
perhap,0.012229
period,0.023451
person,0.002869
perspect,0.007848
peter,0.011996
philip,0.005390
philipp,0.007013
philosoph,0.003849
philosophi,0.003733
physiocraci,0.010567
physiocrat,0.008907
pieti,0.008105
pilgrim,0.007807
pimlico,0.011123
pioneer,0.004581
pisa,0.008556
place,0.007440
play,0.003166
point,0.007631
polic,0.004877
polici,0.120076
polit,0.013761
poor,0.004336
popul,0.009360
popular,0.006274
port,0.004955
portion,0.004406
portray,0.011416
portug,0.017574
portugues,0.005582
posit,0.010395
possibl,0.020519
posthum,0.007163
postworld,0.007570
pour,0.006600
poverti,0.010346
power,0.041175
pp,0.004099
practic,0.008071
praeger,0.008883
prais,0.005880
preciou,0.006600
predict,0.003679
prenticehal,0.007610
present,0.007543
presentday,0.005647
press,0.026637
pressur,0.003785
previous,0.003833
price,0.018613
primaci,0.007511
primarili,0.003437
prime,0.004040
principl,0.003018
prior,0.003798
priorit,0.007684
privat,0.007211
privileg,0.005739
problem,0.005378
process,0.002377
procur,0.006946
produc,0.018315
product,0.031451
professionalis,0.009999
program,0.003163
prohibit,0.010262
project,0.003111
prometheu,0.008209
promin,0.007886
promot,0.017936
propel,0.007047
propon,0.010538
proport,0.004157
prospect,0.005343
protect,0.020109
protection,0.008035
protectionist,0.024065
prussia,0.007446
public,0.010130
publish,0.016747
puritan,0.008209
purpos,0.003271
pursu,0.013720
quantifi,0.005650
quantiti,0.008192
queen,0.010555
quest,0.006333
quickli,0.004093
quintessenti,0.009803
quit,0.004249
quota,0.013766
r,0.006730
raison,0.009514
rang,0.003018
rapid,0.008716
rate,0.003116
ration,0.004333
raw,0.036418
rd,0.004502
reach,0.006482
read,0.002769
real,0.003310
realiz,0.008918
realm,0.015113
realpolitik,0.010165
reason,0.005724
rebut,0.009803
recent,0.002761
reciproc,0.005991
reduc,0.006042
refer,0.003189
regard,0.003059
regardless,0.004821
regim,0.004647
region,0.002855
regul,0.022653
regulatori,0.005519
reinforc,0.005431
reject,0.015726
rel,0.002859
relat,0.008601
remain,0.013188
remaind,0.005918
remov,0.003682
renaiss,0.010547
rent,0.018422
rentseek,0.028322
repeal,0.007217
replac,0.019499
repres,0.007848
requir,0.005021
research,0.002587
reserv,0.004241
resourc,0.012914
respect,0.003032
rest,0.007473
restrict,0.014785
result,0.011107
retain,0.004194
retriev,0.004738
retrospect,0.007020
revenu,0.004652
revers,0.004390
review,0.003573
revolut,0.015803
revolutionari,0.005075
ricardo,0.014498
richer,0.007620
rigidli,0.008636
rise,0.009627
road,0.004632
robert,0.049093
rodney,0.008021
role,0.002793
roman,0.004278
ronald,0.005697
rose,0.004839
rothbard,0.017486
routledg,0.011366
royal,0.012624
rule,0.005822
run,0.003504
russia,0.009374
ruthless,0.008372
s,0.020357
sage,0.006286
said,0.003276
samuel,0.005669
samuelson,0.032033
saw,0.019514
say,0.003455
scandinavia,0.007401
scheme,0.004800
scholar,0.036452
scholast,0.006908
school,0.032447
scientif,0.003209
scrutini,0.007249
second,0.005235
seek,0.014314
seen,0.006258
seiz,0.005483
selfconsci,0.007981
sell,0.009023
seri,0.003177
serra,0.010108
serv,0.003174
seventeenth,0.006927
sever,0.004627
seymour,0.008225
share,0.003107
shift,0.003865
ship,0.013575
shortterm,0.005797
signific,0.008500
silver,0.044395
similar,0.002650
simpli,0.014487
simplifi,0.005169
sinc,0.008877
singl,0.002970
slowli,0.005116
smith,0.098754
smuggl,0.014419
societi,0.008342
soil,0.005029
sole,0.004505
sometim,0.014447
somewhat,0.004705
soon,0.008140
sought,0.017296
sourc,0.002791
spain,0.009433
spanish,0.019200
special,0.008327
specif,0.002655
spent,0.009812
spice,0.007156
spiegel,0.009514
spread,0.003923
spring,0.005006
st,0.003578
stamp,0.006564
standard,0.002989
stapl,0.007026
state,0.048552
statement,0.004074
station,0.004849
statism,0.009850
statist,0.003641
steadili,0.023420
steuart,0.011123
stop,0.004385
straightforward,0.007026
stranger,0.007784
stranglehold,0.011507
strengthen,0.005020
stretch,0.005595
strict,0.005157
strident,0.009850
structur,0.005186
struggl,0.004652
stuart,0.006156
suboptim,0.008699
subsidi,0.030914
subsist,0.006111
substitut,0.004932
success,0.011773
successor,0.004985
suffici,0.008206
sugar,0.005408
suit,0.005159
suitabl,0.009854
sum,0.008855
superb,0.009477
superior,0.004940
superpow,0.007631
suppli,0.025329
supplier,0.006250
support,0.010556
supran,0.008811
suprem,0.004545
surplu,0.005839
surplus,0.007867
sustain,0.004341
sweden,0.005544
symbolis,0.009010
systemat,0.004240
tackl,0.006833
target,0.004132
tariff,0.042675
taught,0.004948
tax,0.016685
taxat,0.005457
technif,0.012256
techniqu,0.003410
technolog,0.009600
tend,0.007289
tenet,0.006535
term,0.010486
texa,0.006266
th,0.066172
thcenturi,0.010235
theme,0.009831
themselv,0.006584
theoret,0.003639
theori,0.049431
theorist,0.005173
thi,0.044825
thing,0.003531
thinker,0.005365
thirti,0.005984
thoma,0.019852
thought,0.031457
thousand,0.007828
threaten,0.010093
thth,0.007409
thu,0.025946
time,0.009819
today,0.006377
tollison,0.023669
took,0.006934
tool,0.007108
trade,0.176596
trader,0.010928
traffic,0.005864
transit,0.003864
treasur,0.027532
treatis,0.005354
treatment,0.004083
tri,0.003493
tudor,0.008699
turn,0.027616
tx,0.008765
unbound,0.007761
underconsumpt,0.010352
undermin,0.011766
understand,0.006025
understood,0.004165
unit,0.002238
uniti,0.004878
univers,0.018390
unveil,0.007570
unwin,0.008209
upward,0.006178
urban,0.004655
use,0.025390
usuri,0.008536
util,0.004015
utmost,0.008407
v,0.003957
vaggi,0.013271
valid,0.004238
valu,0.011379
vari,0.006544
varieti,0.003332
variou,0.005053
vast,0.004457
venetian,0.015911
venic,0.043641
veri,0.002534
version,0.007765
vice,0.005138
view,0.014224
viewpoint,0.005842
viner,0.021461
vogu,0.009092
volum,0.011406
von,0.009003
voyag,0.006071
wa,0.136493
walpol,0.010287
walter,0.010589
war,0.047295
ware,0.007750
warfar,0.022517
warren,0.006481
wast,0.005324
waveland,0.009999
way,0.014239
weaken,0.005559
weal,0.011240
wealth,0.041137
wealthi,0.005791
west,0.003811
western,0.006677
wheel,0.006685
wherea,0.003851
whi,0.008167
wide,0.008576
wider,0.005053
wilhelm,0.005587
william,0.010670
wilson,0.005544
wine,0.012492
woolen,0.010225
word,0.006162
work,0.017407
worker,0.004131
world,0.018002
worlduntil,0.013271
worldview,0.006810
worldwid,0.004502
write,0.006940
writer,0.036443
written,0.003514
wrong,0.005220
wrote,0.018908
x,0.003929
xiii,0.008194
xiv,0.007492
xlibri,0.012030
year,0.008960
york,0.017092
zerosum,0.036718
