abil,0.004635
abnorm,0.008384
abov,0.012939
abstract,0.011856
absurd,0.009681
academ,0.005046
accept,0.004229
accord,0.020213
account,0.019840
accur,0.005739
accuraci,0.007306
accus,0.013513
action,0.008279
activ,0.010085
activist,0.008037
actual,0.021559
actuari,0.010411
ada,0.011005
adam,0.006837
addit,0.010225
address,0.010146
adopt,0.004649
advic,0.007332
advoc,0.005783
affair,0.005570
affect,0.004402
aftermath,0.008395
agent,0.017232
agentbas,0.011646
aggreg,0.056998
agreement,0.010285
airplan,0.009883
alan,0.007142
algebra,0.007234
alleg,0.020899
allegedli,0.017350
alloc,0.006723
allow,0.003350
almarin,0.017723
almqvist,0.016066
alreadi,0.004908
altern,0.008658
alvin,0.010395
alway,0.013591
ambit,0.008787
america,0.004721
american,0.007634
analog,0.006020
analys,0.013173
analysi,0.044673
analyt,0.006142
analyz,0.011326
andor,0.011791
ani,0.032661
anomal,0.010247
anoth,0.006480
answer,0.005998
apollo,0.021079
appar,0.011502
appeal,0.006274
appear,0.003902
appli,0.018008
applic,0.004023
apprais,0.010109
approach,0.015509
approxim,0.013773
ar,0.009691
arbitragefre,0.012607
arch,0.010305
area,0.003346
argu,0.008963
arguabl,0.008210
argument,0.022641
aris,0.010992
arithmet,0.008226
arrow,0.017300
arrowdebreu,0.014012
art,0.005154
ask,0.011138
aspect,0.017711
assert,0.005787
assum,0.018669
assumpt,0.137759
assumptionswith,0.017723
asymmetri,0.030094
atmospher,0.006599
attach,0.006378
attack,0.005431
attempt,0.015371
attractor,0.012469
attribut,0.015711
austrian,0.008069
author,0.007586
automat,0.006877
autoregress,0.039277
avail,0.016473
averag,0.005032
avoid,0.005032
axiom,0.008401
b,0.004462
balanc,0.010664
banker,0.018400
bargain,0.009126
base,0.035227
basi,0.016785
baumol,0.042036
bear,0.006304
becam,0.003713
becaus,0.030580
becom,0.016259
befor,0.003469
began,0.004056
begin,0.003961
behav,0.014451
behavior,0.019061
belief,0.010875
believ,0.004201
benefici,0.007455
beneficialif,0.017723
benefit,0.004929
bernoulli,0.019986
bia,0.007746
bias,0.008418
big,0.006151
blackschol,0.010786
blaug,0.013738
blinder,0.026850
bodi,0.004076
bond,0.005802
book,0.011582
borrow,0.013484
bound,0.006078
brace,0.010863
bring,0.005050
brook,0.008942
brookfield,0.014112
bruce,0.008346
bubbl,0.008515
build,0.008597
buildup,0.010006
built,0.005064
burden,0.007754
busi,0.009158
butterfli,0.019937
c,0.019439
calcul,0.005183
calculu,0.007593
caldwel,0.012756
calibr,0.009779
cambridg,0.010777
came,0.008896
canada,0.005827
canadian,0.006905
canterburi,0.010943
capit,0.008849
captur,0.011172
car,0.007189
care,0.010222
carlo,0.007742
case,0.013607
cash,0.006800
caus,0.003631
central,0.015255
centuri,0.017468
certain,0.007447
certainli,0.007766
cge,0.160660
challeng,0.009720
chanc,0.013099
chang,0.033742
chao,0.070863
chaotic,0.027962
chapter,0.006341
characterist,0.004689
check,0.014107
choic,0.016038
circular,0.015859
claim,0.004130
class,0.009025
classic,0.008990
classifi,0.027519
clear,0.020257
clearli,0.006117
climat,0.005809
close,0.003640
cobbdougla,0.014448
code,0.005265
coeffici,0.007852
cognit,0.006450
coincid,0.007319
collid,0.009217
collin,0.009607
command,0.005708
comment,0.013035
common,0.003290
commun,0.007116
compani,0.004296
compar,0.020123
comparison,0.011412
compil,0.007020
complex,0.023891
comput,0.049599
computerassist,0.012033
concept,0.003797
concern,0.007640
conclud,0.027827
conclus,0.030316
condit,0.026653
conduct,0.004663
confid,0.020883
confirm,0.005866
confus,0.006124
conjectandi,0.015368
connect,0.004480
conomiqu,0.025834
consensu,0.020363
consequ,0.009254
conserv,0.005401
consider,0.004573
consist,0.014568
constrain,0.007912
constraint,0.006756
construct,0.029497
consum,0.005418
consumpt,0.006347
contenti,0.009670
continu,0.003297
contrast,0.004596
contribut,0.003994
control,0.003615
convent,0.015808
convinc,0.007244
cooper,0.005201
coordin,0.005768
core,0.005778
correctli,0.015638
cost,0.014353
creat,0.006657
credibl,0.008469
credit,0.005266
crise,0.008395
crisi,0.005615
critic,0.016011
critiqu,0.013827
crucial,0.006624
crusad,0.009233
current,0.020903
cx,0.012917
cy,0.013154
cycl,0.005578
d,0.004405
danger,0.025569
daniel,0.006768
data,0.021714
date,0.004548
david,0.014502
deal,0.008767
debat,0.010132
debit,0.011324
debunk,0.012299
decad,0.004946
decept,0.009566
decis,0.022940
decreas,0.010717
deduct,0.007873
deeper,0.008131
defici,0.017262
defin,0.011203
delic,0.010694
deliv,0.006414
demand,0.009716
depend,0.007181
deriv,0.012413
describ,0.010048
design,0.011991
despit,0.018457
destruct,0.006440
detect,0.005976
determin,0.011337
determinist,0.026064
develop,0.013607
diagnos,0.008814
diagnosi,0.008256
diagnost,0.017428
dictionari,0.006597
did,0.004039
differ,0.011539
differenti,0.011020
difficulti,0.011754
dimens,0.006261
diplomat,0.006465
direct,0.007227
discount,0.007856
discredit,0.009468
discret,0.006418
discuss,0.022201
dishonesti,0.013032
displaystyl,0.056103
disregard,0.009393
disson,0.011798
distort,0.007683
disturb,0.007641
divers,0.005233
doctrin,0.006526
doi,0.014409
doubl,0.006024
dramat,0.006145
drastic,0.008146
draw,0.005578
drawn,0.006422
drive,0.005846
dynam,0.005101
earli,0.009830
earlier,0.014523
earliest,0.005476
easi,0.006653
econom,0.351373
econometr,0.067472
econometrica,0.023235
economi,0.071590
economist,0.061510
ed,0.013759
edg,0.014296
edit,0.005127
edward,0.005960
effect,0.028645
effici,0.005129
effort,0.004537
eighteenth,0.008373
element,0.012500
elgar,0.010641
elmer,0.011452
embed,0.022858
emerg,0.004199
emphas,0.005749
empir,0.027429
employ,0.008691
encyclopedia,0.005642
energi,0.009173
enlarg,0.008368
enorm,0.014113
entir,0.012748
entri,0.006337
environment,0.010534
environmentalist,0.010984
equal,0.004461
equat,0.016347
equilibrium,0.047931
erron,0.009384
error,0.031150
essay,0.012697
essenti,0.009108
establish,0.006992
estim,0.013831
ethic,0.006029
event,0.004263
everi,0.004099
everyth,0.013047
evid,0.022338
evolv,0.005377
exact,0.006250
exactli,0.006418
examin,0.015383
exampl,0.046947
exclud,0.006163
exogen,0.010191
expect,0.004501
expens,0.005851
experi,0.008057
experiment,0.005472
explain,0.017641
explanatori,0.009233
explicitli,0.006669
express,0.004244
extent,0.010781
extern,0.007685
extran,0.024211
extrapol,0.009411
fact,0.024959
factor,0.012462
fail,0.014777
failur,0.017101
fals,0.013289
falsifi,0.019133
fast,0.006706
faulti,0.021046
feedback,0.007956
field,0.003577
financ,0.010382
financi,0.018708
finetun,0.011862
firm,0.040960
fit,0.011929
fix,0.010400
flaw,0.008352
flow,0.005159
fluctuat,0.007316
focu,0.009612
follow,0.002802
food,0.005042
footnot,0.008733
forc,0.007022
forecast,0.023156
form,0.013389
formul,0.011220
foundat,0.013705
frac,0.015680
framework,0.015058
frameworkscollect,0.017723
franoi,0.008662
fraud,0.008069
free,0.020008
french,0.004714
frequent,0.009849
friedman,0.009055
friedrich,0.007165
frigg,0.015804
function,0.028694
fundament,0.017945
futur,0.017067
g,0.004739
gain,0.004262
gambl,0.019405
game,0.006011
garbag,0.022456
garch,0.014012
gaspow,0.016367
gave,0.010195
gdp,0.006588
gener,0.032726
geneva,0.009312
geograph,0.005697
giant,0.007660
gigo,0.035447
given,0.010541
global,0.013957
good,0.015580
gordonloeb,0.016066
graph,0.007794
great,0.007897
greenwood,0.009813
group,0.003160
growth,0.013303
guid,0.004953
h,0.014599
ha,0.032704
hand,0.004340
hang,0.009384
hansen,0.010923
harcourt,0.010694
hard,0.011499
harder,0.026122
harper,0.009024
hartmann,0.011767
harvard,0.006844
hayek,0.010844
health,0.004884
heart,0.012860
heckscherohlin,0.013738
help,0.003835
henc,0.010932
herd,0.009347
heteroskedast,0.029419
hi,0.028271
hide,0.008293
highexposur,0.017723
highli,0.023060
histor,0.003935
histori,0.005835
holcomb,0.014448
hold,0.016879
home,0.005002
honest,0.010320
honor,0.007247
hope,0.005964
household,0.013938
howev,0.014216
hubri,0.013825
human,0.010125
humbl,0.011158
hyperbol,0.009449
hypothes,0.013932
hypothesi,0.012204
idea,0.003932
ident,0.005016
identifi,0.016940
ignor,0.012153
ii,0.004584
illustr,0.017923
imbal,0.009086
imit,0.008288
immedi,0.005149
immobil,0.011300
impact,0.009602
implic,0.006104
implicit,0.008205
implicitli,0.009285
import,0.017927
imposs,0.005923
improperli,0.011862
improv,0.004311
inaccur,0.009497
inappropri,0.009233
includ,0.026751
incom,0.021464
incomplet,0.007634
incorpor,0.009621
increas,0.006737
increasingli,0.010329
inde,0.005956
independ,0.007196
indic,0.004309
indict,0.011228
individu,0.010840
infeas,0.011929
inflat,0.019793
inflow,0.009597
influenc,0.007717
inform,0.027863
ingredi,0.009200
inher,0.013427
inherit,0.006496
initialcondit,0.017723
inject,0.008650
input,0.012694
inputoutput,0.010902
insight,0.012997
instanc,0.018978
instead,0.004103
institut,0.007414
insur,0.013508
intellectu,0.006010
intellig,0.005466
intend,0.005423
interact,0.004371
intern,0.003070
interpret,0.014021
intoler,0.010205
introduc,0.008219
invalid,0.008794
invest,0.014964
investig,0.004909
invis,0.008551
involv,0.010188
isbn,0.033131
island,0.005192
isol,0.005687
issu,0.015037
item,0.019279
iter,0.017534
itpersist,0.017723
jame,0.009882
jan,0.007699
joseph,0.017319
journal,0.009011
jovanovich,0.014330
jr,0.007441
jstor,0.017629
jureen,0.017723
justifi,0.007045
key,0.017832
keynesian,0.028854
kind,0.004666
known,0.002927
l,0.005156
labor,0.017254
lack,0.017864
lag,0.018236
lang,0.009681
laplac,0.010057
larg,0.012347
late,0.004055
later,0.006966
law,0.003528
lead,0.013978
leagu,0.007186
leav,0.004960
lectur,0.019105
left,0.004668
legal,0.004833
leontief,0.026309
leontiev,0.015368
level,0.021014
liber,0.010561
life,0.003765
light,0.004828
like,0.006256
limit,0.035769
link,0.002546
list,0.003256
literatur,0.005232
lloyd,0.009032
local,0.003966
logarithm,0.009478
logic,0.028342
logist,0.008452
long,0.015211
longer,0.004830
longterm,0.012326
look,0.014507
loosen,0.011005
lot,0.007213
luca,0.028097
lump,0.010380
m,0.004188
macroeconom,0.071210
macroeconomi,0.013285
main,0.003707
mainstream,0.007107
maintain,0.004083
major,0.006214
make,0.011912
maker,0.032317
manag,0.012583
mani,0.026471
manner,0.005652
map,0.005357
marchi,0.015574
mark,0.004702
market,0.070142
master,0.006250
math,0.009078
mathemat,0.046040
mathematician,0.007168
maxim,0.039963
maximum,0.006368
mean,0.006450
meaning,0.015223
measur,0.007671
mechan,0.004324
meltdown,0.012259
mensura,0.015181
mere,0.005761
met,0.005989
meteorolog,0.017175
method,0.010881
methodolog,0.049592
metzler,0.014330
mexico,0.014613
michio,0.013575
microeconom,0.009118
milton,0.008694
mirowski,0.014012
mirror,0.007907
misalloc,0.013738
mislead,0.026568
miss,0.014775
misus,0.009659
mit,0.007116
model,0.678540
modern,0.031615
modifi,0.011428
moivr,0.013285
monetari,0.012556
money,0.015701
mont,0.008780
moral,0.005859
moreov,0.006718
morishima,0.015804
mostli,0.009993
movement,0.004038
multilater,0.009294
mutual,0.012355
myth,0.007479
n,0.005259
nafta,0.024439
nation,0.019471
natur,0.018759
nd,0.005449
need,0.010561
neg,0.005078
neoclass,0.079768
new,0.023543
nicola,0.008773
nobel,0.020452
nois,0.008352
nonequilibrium,0.011997
nonetheless,0.007325
nonmicrofound,0.017723
nonnumer,0.013425
nonstochast,0.032132
nontest,0.016724
normal,0.009336
north,0.004650
norton,0.009126
note,0.010129
notion,0.005540
object,0.004003
observ,0.007730
obtain,0.009104
occasion,0.006606
offer,0.004354
omit,0.036602
onc,0.008752
onli,0.021566
onlin,0.010251
oper,0.003694
oppos,0.004894
optim,0.012423
option,0.006110
order,0.009682
orrel,0.032132
oskar,0.010590
otherwis,0.005570
outcom,0.017962
outlin,0.005700
output,0.061127
overal,0.005360
oversimplifi,0.011617
overview,0.005868
p,0.035765
palgrav,0.008694
paper,0.014496
paradigm,0.056768
paradigmand,0.017723
paradox,0.007489
paramet,0.047262
partial,0.026936
particular,0.010997
particularli,0.012321
partli,0.018891
passeng,0.008714
past,0.004645
paul,0.015272
pay,0.005467
peopl,0.003228
perfect,0.019629
persist,0.019920
pervas,0.009208
petersburg,0.010539
phenomena,0.005591
phenomenon,0.006031
philip,0.007198
phillip,0.018126
philosophi,0.004986
physiocrat,0.011895
pi,0.025254
pitfal,0.022699
plan,0.026611
plausibl,0.026261
play,0.012685
point,0.003397
polici,0.065009
polit,0.007351
pollut,0.007877
popular,0.008379
posit,0.006941
positiv,0.019073
possibl,0.023977
postul,0.007225
potenti,0.004347
power,0.017183
pp,0.005475
practic,0.014372
precis,0.016595
predict,0.088447
prefer,0.020570
premis,0.007877
prescript,0.008849
present,0.010073
preserv,0.005660
press,0.019762
pretend,0.010395
pretens,0.011400
prevail,0.007104
previous,0.005119
price,0.044744
principl,0.024187
prior,0.010144
priori,0.009001
prize,0.018789
probabilist,0.008733
probabl,0.024094
problem,0.032324
proceed,0.006145
process,0.038097
produc,0.010482
product,0.021000
profess,0.035088
profession,0.005441
profit,0.034813
profitmaxim,0.012607
profre,0.016367
profus,0.012068
program,0.012673
project,0.004155
promin,0.010532
pronafta,0.017723
properli,0.021186
properti,0.004066
propos,0.004143
prosper,0.006942
provabl,0.011349
prove,0.005182
proven,0.007093
provid,0.017877
public,0.020292
publish,0.003727
pure,0.010620
purport,0.009497
purposefunct,0.017723
px,0.012105
qualit,0.062292
quantit,0.068631
quantiti,0.016410
quarterli,0.008210
quesnay,0.012974
question,0.016869
quickli,0.005466
r,0.013481
random,0.006406
rare,0.005526
rate,0.024970
ration,0.034725
rd,0.006013
reaction,0.010922
readabl,0.010883
real,0.035364
realism,0.008309
realiti,0.028967
realworld,0.008849
reason,0.015290
receiv,0.004069
recent,0.011064
recess,0.007623
recommend,0.006278
reconcil,0.008373
reduc,0.004034
refer,0.004259
refin,0.006681
reflect,0.004577
regard,0.004086
relat,0.017230
relationship,0.056917
releas,0.005322
relev,0.016712
reli,0.015396
reliabl,0.006368
remark,0.006532
remov,0.009834
reorient,0.011135
repair,0.007582
repres,0.006987
represent,0.010746
requir,0.013411
research,0.013820
resembl,0.006718
resourc,0.004311
respecif,0.017723
respect,0.004050
respond,0.005744
respons,0.007388
rest,0.004989
restrict,0.009872
result,0.011867
return,0.008620
revenu,0.006213
review,0.014316
revis,0.006364
revolut,0.005276
ricardo,0.009681
risk,0.020962
robert,0.004683
robust,0.015429
role,0.007462
root,0.005380
rough,0.008446
routledg,0.007589
rule,0.003887
run,0.004680
s,0.021145
said,0.004376
saint,0.007121
samuelson,0.042779
satisfactori,0.009691
satisfi,0.012636
save,0.006048
say,0.009228
scale,0.004820
scenario,0.015429
schizophrenia,0.010624
school,0.012999
scienc,0.017910
scientif,0.017143
scientist,0.004870
scope,0.006261
scrutin,0.011349
second,0.006991
secretari,0.006958
secur,0.004525
select,0.009262
selfdecept,0.013092
sell,0.006024
semin,0.008146
sens,0.013147
sensit,0.013719
separ,0.003891
seri,0.008485
serv,0.004239
servic,0.016598
set,0.009897
sever,0.012360
shape,0.005076
share,0.004150
shed,0.009078
shock,0.014562
sign,0.004880
signific,0.007567
significantli,0.010932
similar,0.010618
similarli,0.011231
simpl,0.023548
simplif,0.038985
simplifi,0.020710
simul,0.051525
sinc,0.005928
singl,0.007933
sink,0.008828
situat,0.004563
slight,0.008849
slightli,0.006424
small,0.007254
smaller,0.005040
smith,0.006280
snapshot,0.011506
social,0.007541
societi,0.003713
solar,0.014141
sold,0.006259
solowswan,0.014574
solut,0.005071
someth,0.005699
sometim,0.007717
sooner,0.010607
sorti,0.013218
sound,0.012482
sourc,0.003728
sp,0.009086
spare,0.009225
specialist,0.007354
specif,0.017732
specifi,0.006026
specul,0.006166
spite,0.008539
spread,0.005239
stabl,0.005833
standard,0.019961
stanford,0.027541
start,0.007504
state,0.005187
static,0.015164
station,0.006475
stationari,0.008594
statist,0.014588
statu,0.004950
steer,0.009791
step,0.010052
stiglitz,0.078269
stochast,0.041130
stockholm,0.009980
stockton,0.014218
stoical,0.015574
straightforward,0.009384
strand,0.008452
strategi,0.011043
structur,0.017316
studi,0.037590
subject,0.003770
submodel,0.016066
succeed,0.006059
suffer,0.016230
suggest,0.004149
sum,0.005912
summar,0.007549
suppli,0.009664
support,0.007048
suppos,0.006513
sure,0.008122
survey,0.005697
surviv,0.005112
suscept,0.008545
symbol,0.005381
systemicel,0.017723
t,0.046415
tabl,0.011409
tableau,0.012862
tableaux,0.013825
tangibl,0.009577
tax,0.011141
taxat,0.029150
taxonomi,0.008527
techniqu,0.009110
technolog,0.008547
tend,0.004867
term,0.008402
terminolog,0.006979
test,0.043611
textbook,0.006681
th,0.006797
thata,0.016066
themselv,0.004396
theorem,0.013289
theoret,0.034021
theori,0.104232
theoris,0.011047
theoriz,0.008065
therefor,0.012086
thi,0.070947
thing,0.004716
think,0.005140
thorough,0.008891
thought,0.004200
thu,0.010395
thwart,0.010506
time,0.020981
tinbergen,0.023235
today,0.008516
togeth,0.004087
tool,0.014238
topdown,0.010607
toronto,0.009208
total,0.004135
trace,0.005683
trade,0.047167
transcend,0.008384
tree,0.006105
tri,0.004665
true,0.014398
tune,0.009628
turn,0.004097
twentieth,0.006993
twodimension,0.009546
type,0.010691
ultim,0.005126
unawar,0.009638
underestim,0.019791
underli,0.022516
underplan,0.017723
underpr,0.013825
understand,0.028164
understood,0.005562
undertak,0.008046
unemploy,0.006942
uneth,0.010923
unexpect,0.008656
unfold,0.009746
unintend,0.009993
unit,0.005979
univers,0.009210
unpreced,0.008418
unpredict,0.009329
unpunish,0.016066
unrealist,0.077621
use,0.067816
usual,0.007134
util,0.016087
valid,0.050943
valu,0.011397
vari,0.008739
variabl,0.124626
varian,0.013738
varieti,0.004450
variou,0.020246
vector,0.021506
veri,0.010155
verifi,0.007493
view,0.011397
vigor,0.008575
vivian,0.013285
vs,0.007156
vt,0.011830
w,0.009947
wa,0.014582
walrass,0.014330
walsh,0.011767
want,0.005472
way,0.015846
weak,0.005888
wealth,0.006104
weather,0.007268
weeklong,0.013575
welfar,0.006827
wellestablish,0.009956
whi,0.005453
whichthemselveswer,0.017723
wicksel,0.012974
wide,0.003817
wien,0.010963
wiley,0.007253
william,0.009499
wold,0.042990
work,0.008717
workshop,0.008773
world,0.012020
worldwid,0.006013
write,0.004634
wrote,0.010100
x,0.162697
xfrac,0.011091
xpartial,0.014012
xpx,0.016367
xpxcxpartial,0.035447
xt,0.023122
xtpartial,0.016724
xtxpxcxtxquad,0.017723
year,0.002991
york,0.031957
