abil,0.016147
abl,0.014824
abort,0.016393
absolut,0.009953
abstin,0.064928
accord,0.005867
acknowledg,0.011315
acquaint,0.017174
act,0.020120
action,0.007210
advanc,0.014495
advantag,0.009108
advoc,0.060438
afford,0.012601
africa,0.009529
agricultur,0.026166
al,0.030196
alarm,0.016345
allow,0.011671
alway,0.007890
amend,0.012374
america,0.008223
american,0.006648
ani,0.010343
anoth,0.005644
appear,0.006796
appli,0.006273
architect,0.015600
argu,0.007806
argument,0.019718
arithmet,0.014328
armi,0.010093
arson,0.022044
artifici,0.019818
asia,0.010075
associ,0.005732
attack,0.009461
attempt,0.006693
attract,0.009442
author,0.006607
avoid,0.008765
balanc,0.009287
bankruptci,0.015317
bartlett,0.040884
basi,0.014618
basic,0.014236
becam,0.012935
becaus,0.005326
becom,0.005664
began,0.007065
belief,0.009471
believ,0.080500
birth,0.062555
blame,0.014055
bolshevik,0.018566
bomb,0.013396
book,0.020174
bourgeoisi,0.019435
britain,0.009968
brother,0.011865
brought,0.017444
capac,0.009823
capit,0.015414
capitalist,0.027998
carri,0.015279
cartel,0.019205
catastroph,0.070320
caus,0.006325
center,0.007558
central,0.006643
centuri,0.036512
charact,0.009792
characterist,0.008168
charg,0.009145
chariti,0.030753
charl,0.009076
check,0.061429
christian,0.009184
circl,0.011419
cite,0.009911
civil,0.008129
claim,0.007193
class,0.007860
classs,0.025873
cliodynam,0.026767
club,0.013743
coarser,0.022804
collaps,0.010440
come,0.013556
commensur,0.019682
common,0.011461
communist,0.011689
complex,0.013871
conceiv,0.012445
concept,0.019843
concern,0.039925
condit,0.006631
condorcet,0.022130
connect,0.007803
connot,0.015665
consequ,0.008059
conserv,0.009408
conservationist,0.020837
constant,0.009423
construct,0.007339
consumpt,0.011055
continu,0.011486
contracept,0.020337
contrari,0.012394
control,0.050379
cornucopian,0.028508
correctli,0.013619
correspond,0.008604
council,0.008642
countri,0.006237
crisi,0.029343
critic,0.055777
curb,0.017215
current,0.006068
curv,0.011661
dali,0.019639
dan,0.015352
danger,0.011133
darwin,0.053058
david,0.008419
death,0.008301
debat,0.017648
decis,0.007991
defect,0.013991
degrad,0.027195
degre,0.015524
delay,0.012106
demographi,0.015938
demographicstructur,0.029890
depend,0.012508
deplet,0.044375
deriv,0.007206
describ,0.029170
deserv,0.016788
design,0.006961
despit,0.008037
desroch,0.026146
develop,0.004740
devout,0.019724
did,0.007036
differ,0.015074
discredit,0.016492
discuss,0.007734
diseas,0.009928
dismal,0.020777
divers,0.009116
doom,0.019243
doomer,0.029890
dr,0.011760
dramat,0.010704
drawn,0.011186
dread,0.020389
dure,0.005456
dynam,0.035545
earliest,0.009538
earth,0.044794
ecolog,0.032261
econom,0.018735
economi,0.023380
economist,0.010713
ed,0.007988
edit,0.017863
educ,0.007269
effect,0.005543
effort,0.007903
ehrlich,0.040675
elimin,0.009868
emigr,0.014345
encourag,0.009379
end,0.006239
energi,0.023966
engel,0.017608
ensur,0.009375
enthusiasm,0.017406
enthusiast,0.016266
entitl,0.011780
environ,0.007564
environment,0.027523
equal,0.007771
escap,0.011457
essay,0.055292
essenti,0.007932
et,0.019618
eugen,0.027902
europ,0.007737
eventu,0.032442
everi,0.007140
evolut,0.018530
excess,0.011028
exemplifi,0.029075
exert,0.013094
expect,0.007840
exploit,0.021245
exponenti,0.054945
express,0.007393
extent,0.009389
factor,0.007235
fair,0.011557
fairfield,0.044806
famin,0.030563
famou,0.009427
father,0.010032
favour,0.011221
fear,0.010707
feminist,0.014958
fertil,0.023923
field,0.006231
financ,0.009042
finit,0.011801
foe,0.019812
food,0.070258
footnot,0.015212
forc,0.006116
format,0.008322
franc,0.008735
franklin,0.013959
free,0.006970
french,0.008212
function,0.006247
fundament,0.015628
futil,0.018596
futur,0.014864
garrett,0.019856
gener,0.035078
geometr,0.012548
given,0.006120
global,0.016207
godwin,0.022130
great,0.006877
greater,0.023057
greatest,0.010738
green,0.010494
grow,0.007824
growth,0.092686
ha,0.036619
half,0.008399
hardin,0.022309
harriet,0.019947
hazard,0.013935
heavili,0.009837
henc,0.009521
henri,0.009835
herman,0.016297
hi,0.065655
high,0.006178
histor,0.013709
histori,0.015247
hoffbauer,0.029890
hold,0.007350
human,0.064669
hundr,0.009271
idea,0.054789
identifi,0.007376
ill,0.011848
immedi,0.017939
impress,0.012455
inabl,0.014731
incept,0.015882
includ,0.012707
increas,0.070414
indefinit,0.014336
indic,0.007506
indiscrimin,0.019768
influenc,0.026883
influenti,0.009814
ingenu,0.019639
inhuman,0.039713
initi,0.006630
inspir,0.010096
instabl,0.013194
intellectu,0.020936
intern,0.010694
introduct,0.008089
isbn,0.014427
issu,0.006547
ityet,0.029890
jame,0.008606
john,0.006940
jr,0.012961
julian,0.015731
justifi,0.012271
karl,0.011476
kept,0.010994
keyn,0.016881
komkniga,0.059780
korotayev,0.044088
label,0.010978
labour,0.010328
lackey,0.026146
laid,0.011514
later,0.012134
law,0.018437
lead,0.042608
leader,0.008920
leagu,0.012517
lectur,0.011092
led,0.006584
lengthi,0.015910
lenin,0.017924
level,0.012200
libertarian,0.016143
like,0.010898
limit,0.006230
limitless,0.021216
link,0.004435
list,0.005672
live,0.006596
longterm,0.010735
lower,0.015075
macrodynam,0.024580
main,0.006457
mainli,0.008468
maintain,0.007112
major,0.005411
make,0.005187
malthu,0.357598
malthusian,0.633716
malthusienn,0.029890
malthuss,0.087839
man,0.009025
mani,0.023053
mankind,0.014721
market,0.007635
marqui,0.019515
marriag,0.025793
martineau,0.022804
marx,0.042773
marxist,0.013849
maryland,0.016937
mathemat,0.016038
maynard,0.016611
mean,0.011235
misanthropi,0.024959
misrepres,0.018921
misunderstood,0.019475
model,0.012708
modern,0.036711
moral,0.010205
morph,0.019902
moscow,0.029228
mostli,0.008703
movement,0.021102
nation,0.011304
natur,0.010891
necess,0.012782
neomalthusian,0.342103
new,0.009112
note,0.005881
noth,0.010794
notion,0.009650
novelist,0.017585
nssm,0.029890
number,0.005103
oil,0.010181
ongo,0.011161
onli,0.014086
open,0.013966
oper,0.006435
oppon,0.012671
optimist,0.017194
order,0.011242
organ,0.022256
organis,0.009657
origin,0.022612
osborn,0.058669
outlin,0.009928
outstrip,0.058188
overpopul,0.056169
overst,0.020837
p,0.015573
pace,0.013766
paddock,0.027528
parti,0.007882
particularli,0.007153
pass,0.007924
past,0.008092
patern,0.018272
pattern,0.008703
paul,0.017733
peac,0.009837
peak,0.011193
pejor,0.017799
peopl,0.005624
perceiv,0.030774
perfect,0.022793
person,0.013349
pessim,0.041101
plagiari,0.029890
planet,0.023147
play,0.007364
plunder,0.017517
polem,0.019475
polit,0.038413
politicaleconom,0.023645
politiqu,0.019682
poor,0.070600
popul,0.246761
portray,0.013277
posit,0.012090
possibl,0.011932
potenti,0.022719
poverti,0.060165
power,0.023943
predict,0.008558
prefer,0.008957
preindustri,0.019243
prematur,0.033292
present,0.005848
pressur,0.017610
prevent,0.016724
price,0.008659
principl,0.035107
probabl,0.008393
problem,0.012511
produc,0.012172
product,0.024385
program,0.007358
proletariat,0.019435
promin,0.027517
propon,0.061284
prospect,0.012429
protect,0.007795
protection,0.018691
public,0.029454
publish,0.006492
purs,0.021877
quantiti,0.009527
r,0.007827
race,0.022983
rang,0.007021
rapid,0.010137
rapidli,0.019722
rate,0.007248
ratio,0.010549
rebutt,0.021283
recognis,0.011453
reconsider,0.021959
recurr,0.015938
reduc,0.014055
reduct,0.021348
refer,0.025967
regard,0.021351
reiter,0.017924
rel,0.006651
rent,0.014284
report,0.007130
reproduc,0.025171
reproduct,0.012601
reput,0.012908
resourc,0.045061
respond,0.010005
restraint,0.016663
restrict,0.025793
result,0.015502
return,0.015015
reverend,0.019768
revis,0.022171
reviv,0.047157
revolut,0.009190
ricardo,0.033724
right,0.006657
riot,0.014822
risk,0.009127
ritschel,0.028508
road,0.010775
robert,0.008156
rome,0.012666
rose,0.011257
s,0.015784
say,0.008037
scale,0.008396
scarciti,0.015499
scholarli,0.013131
school,0.022642
schoolboyish,0.029890
scienc,0.012478
secur,0.023644
segment,0.012709
select,0.016133
selfcontrol,0.019682
sens,0.007633
seriou,0.010392
shortcom,0.017298
signific,0.013181
simon,0.024809
sinc,0.015487
sir,0.011653
social,0.032839
socialist,0.023100
societi,0.012937
sociodemograph,0.024765
solut,0.008833
soon,0.009467
sort,0.010829
sound,0.010870
sourc,0.006494
soviet,0.011182
speci,0.009495
specif,0.018531
starvat,0.017034
state,0.004517
steadyst,0.019556
steuart,0.025873
strategi,0.009617
strong,0.007501
struggl,0.010822
studi,0.005456
subsist,0.042644
substanti,0.009584
suffer,0.009423
superfici,0.016281
superior,0.011491
suppli,0.033666
support,0.006138
suppress,0.011823
surviv,0.044522
sustain,0.030295
techniqu,0.007934
technolog,0.007443
tendenc,0.011593
term,0.024392
territori,0.009036
th,0.023680
theme,0.011434
theori,0.090774
theoris,0.019243
thi,0.015446
thinker,0.012481
thoma,0.009235
thought,0.014634
thu,0.006035
time,0.004568
toler,0.013063
tone,0.015665
took,0.008065
tori,0.020662
townsend,0.020958
trade,0.007468
tradit,0.006501
tragedi,0.017362
trap,0.040581
turchin,0.049530
turn,0.007137
twentieth,0.012180
twentyf,0.018820
type,0.006207
typifi,0.018887
ultim,0.008929
uncheck,0.021567
understand,0.007008
unfit,0.019994
union,0.007671
unit,0.005207
univers,0.005347
unlik,0.008597
unlimit,0.030899
unstabl,0.013773
use,0.012655
valid,0.009859
varieti,0.007751
variou,0.005877
venu,0.015626
vladimir,0.014691
vogt,0.044437
wa,0.076197
wage,0.034034
wallac,0.015785
war,0.007334
warfar,0.013094
warn,0.012414
way,0.005520
west,0.008865
whig,0.019556
wide,0.013299
widespread,0.009919
william,0.016545
work,0.010122
workhous,0.022309
world,0.020937
write,0.024217
writer,0.010596
written,0.016348
wrote,0.008796
year,0.015631
