abrahamfroi,0.140373
alessandro,0.081505
bertram,0.098412
bharadwaj,0.129633
book,0.030578
businesspeopl,0.104695
cambridg,0.042677
came,0.035232
capit,0.070092
ciccon,0.140373
close,0.028835
commod,0.104614
controversi,0.084942
coupl,0.049873
cours,0.037564
critiqu,0.054757
david,0.038286
debat,0.040125
deriv,0.032771
develop,0.021555
disput,0.043352
distribut,0.035562
dobb,0.108152
duo,0.095303
eatwel,0.111772
econom,0.113588
epp,0.110221
extern,0.020290
fabio,0.199710
fernando,0.080606
franklin,0.063475
friend,0.055111
garegnani,0.118893
gilbert,0.066365
gilibert,0.132458
giorgio,0.092245
gracyn,0.140373
heinz,0.086511
held,0.032805
hi,0.024878
histori,0.023110
husband,0.072282
ian,0.068509
idea,0.031142
includ,0.019261
incom,0.042499
interpret,0.037017
joan,0.075455
joel,0.081049
john,0.031559
krishna,0.087331
kurz,0.121718
link,0.020170
luigi,0.082706
massimo,0.097412
mauric,0.069172
mean,0.025545
milgat,0.106327
murray,0.067077
neoclass,0.140394
neomarxian,0.117652
neoricardian,0.343306
neoricardiansarch,0.140373
neri,0.111772
new,0.020718
okishio,0.121718
overlap,0.051553
parrinello,0.140373
partial,0.042668
particularli,0.032529
pasinetti,0.120241
petri,0.091789
pierangelo,0.120241
piero,0.183133
pivetti,0.135915
postkeynesian,0.096473
present,0.026595
product,0.027721
promin,0.041708
ravagnani,0.140373
read,0.058595
ricardo,0.076676
roberto,0.085432
robinson,0.069172
roncaglia,0.132458
said,0.069318
salvadori,0.127244
schefold,0.135915
school,0.137279
sergio,0.093199
serrano,0.112610
smith,0.049739
sraffa,0.303097
steedman,0.114435
theorem,0.052626
theori,0.027517
think,0.040712
thought,0.033272
univers,0.024314
usual,0.028251
vianello,0.114435
wa,0.038498
websit,0.044392
wife,0.060524
