abil,0.027376
abl,0.040213
abov,0.005094
academia,0.010262
acceler,0.007653
access,0.011012
accord,0.007958
account,0.009374
achiev,0.015018
actual,0.005093
ad,0.015235
adapt,0.006336
add,0.007588
addit,0.028181
adjust,0.007617
adopt,0.016475
adsens,0.055189
advanc,0.004915
advantag,0.018531
advertis,0.037404
affect,0.020801
ago,0.007711
aim,0.005682
alexa,0.047834
algebra,0.008545
allow,0.015829
alreadi,0.005797
alreadytrain,0.019333
alway,0.005351
amaz,0.012831
america,0.005577
analog,0.007110
analyz,0.006689
ani,0.014028
annual,0.006113
antnio,0.013757
app,0.025058
appar,0.006793
appear,0.009218
appl,0.010363
appli,0.004254
applic,0.004752
argu,0.005293
argument,0.006686
aris,0.006492
articl,0.009459
artist,0.008351
arun,0.016330
attempt,0.009078
attract,0.051225
auction,0.022921
away,0.012123
baken,0.019754
bandwagon,0.015944
bandwidth,0.013153
barrier,0.016193
base,0.024272
basi,0.004956
bass,0.013936
becam,0.004386
becaus,0.025285
beckstrom,0.019333
becom,0.038412
befor,0.004098
belief,0.012846
believ,0.009925
bell,0.027871
benefit,0.133928
bid,0.010224
bidask,0.016926
big,0.007265
bigger,0.010770
blackhat,0.020270
blog,0.054485
board,0.006922
bond,0.006853
bought,0.009168
bouwman,0.020270
braess,0.019333
brand,0.009698
bring,0.017895
broadli,0.008032
browser,0.012855
build,0.005077
busi,0.048683
buyer,0.019153
capac,0.006661
card,0.027393
care,0.006037
carl,0.008023
case,0.012054
caus,0.008579
ceas,0.008117
central,0.004505
certain,0.017594
challeng,0.028704
chanc,0.007736
chang,0.003623
character,0.006095
charg,0.006201
chicago,0.015665
childdriven,0.020270
children,0.006609
choic,0.006314
choos,0.020740
claim,0.004878
clarifi,0.009692
classic,0.010619
client,0.018511
close,0.008600
cofound,0.011041
coinventor,0.015944
collabor,0.007382
com,0.013435
come,0.004596
comment,0.007698
commodit,0.016551
common,0.023319
commonli,0.016013
commonpool,0.090764
commun,0.012608
compani,0.040602
compar,0.004754
compet,0.026507
competit,0.050562
competitor,0.009956
complementari,0.018753
comput,0.026630
concept,0.008971
concern,0.009025
confer,0.006327
congest,0.144113
connect,0.021168
consider,0.005401
constantli,0.008960
consum,0.019201
contact,0.006744
contain,0.004611
content,0.006342
continu,0.003894
contract,0.006448
contrast,0.005429
control,0.004270
convers,0.006631
cooper,0.012287
coordin,0.006814
corpor,0.006306
correl,0.007492
cost,0.028256
counterintuit,0.013075
countri,0.008460
creat,0.058976
creation,0.017552
creator,0.009634
critic,0.033097
crosssid,0.020270
cultur,0.024165
custom,0.025998
decay,0.008838
decid,0.006264
decis,0.005419
declin,0.006103
decreas,0.025320
defcon,0.018152
defi,0.012155
defin,0.004411
definit,0.005082
demand,0.011477
demandsid,0.016926
den,0.011525
depend,0.008482
deriv,0.014662
describ,0.011869
descript,0.005875
design,0.004721
despit,0.010901
deter,0.011774
determin,0.022319
develop,0.009644
dial,0.014213
differ,0.013630
difficulti,0.006942
diffus,0.008781
direct,0.017073
directli,0.005164
disk,0.011041
dislodg,0.014782
display,0.014610
disrupt,0.008282
distinct,0.009901
distribut,0.005303
document,0.006205
doe,0.013048
doijinfoecopol,0.020935
domin,0.031737
dotcom,0.013496
drive,0.020719
duplic,0.010545
dvd,0.025572
dynam,0.012052
e,0.010417
earli,0.003870
earn,0.007273
ebay,0.091157
econom,0.033881
economi,0.026425
economid,0.019333
edg,0.008443
educ,0.019720
effect,0.225574
effici,0.006059
email,0.011312
embrac,0.008730
empir,0.005399
employ,0.015399
employe,0.008108
enabl,0.018411
enforc,0.007255
enlarg,0.009884
entir,0.005019
entri,0.014971
environ,0.005129
equal,0.010540
equilibrium,0.016176
era,0.006114
essay,0.007499
essenti,0.005379
ethernet,0.030649
ethnic,0.007636
eurex,0.016228
eurobond,0.016551
euronextliff,0.016438
eventu,0.011000
everi,0.009685
evolv,0.006352
exampl,0.051988
exce,0.010108
exceed,0.008126
exchang,0.065646
exclus,0.006611
exist,0.015393
expens,0.006911
experi,0.004758
experienc,0.006947
exponenti,0.018630
express,0.010028
extend,0.005104
extern,0.045391
extinguish,0.012902
extra,0.008863
extrins,0.013127
face,0.005808
facebook,0.048485
fall,0.005282
farrel,0.030515
fax,0.014892
featur,0.010467
fee,0.009057
feedback,0.037590
figur,0.005731
financi,0.016574
firm,0.027647
follow,0.006620
forc,0.012443
form,0.022141
forum,0.042496
foster,0.008846
frank,0.008102
free,0.009453
freeli,0.017999
freemium,0.018396
freeway,0.016551
friend,0.008219
furthermor,0.007091
futur,0.025200
gain,0.010069
game,0.007101
gamer,0.032661
garth,0.016228
gaug,0.061394
gener,0.011894
global,0.005495
good,0.050608
googl,0.069651
gratif,0.029056
greater,0.015636
greatest,0.007282
greatli,0.006776
group,0.003732
grow,0.042451
growth,0.010476
ha,0.027593
happen,0.006540
harri,0.008702
hartog,0.016669
heavili,0.013342
held,0.004892
help,0.004530
hi,0.011131
high,0.004190
hold,0.004984
holder,0.009408
hot,0.009112
hour,0.007271
howev,0.010075
human,0.003986
icq,0.019754
ident,0.005925
im,0.021875
implement,0.005761
impli,0.012866
imposs,0.020991
improv,0.005092
inabl,0.009990
incent,0.008615
includ,0.008617
incom,0.006338
increas,0.071628
incumb,0.044382
incur,0.009923
inde,0.007036
indefinit,0.019445
indirect,0.017982
individu,0.004268
industrywid,0.032071
infin,0.010818
inform,0.020570
inher,0.007930
initi,0.004496
inner,0.008318
innov,0.007167
instal,0.008166
instant,0.021392
instead,0.004846
integr,0.004993
intellectu,0.085191
intend,0.006406
interfac,0.018017
internet,0.027154
interoper,0.123204
invers,0.008738
invest,0.005891
involv,0.004011
iphon,0.032071
isol,0.006718
isra,0.010937
item,0.007590
j,0.005196
join,0.018465
joseph,0.020457
just,0.014475
justif,0.009669
katz,0.012570
key,0.005265
keyboard,0.013623
kind,0.005512
klemper,0.017215
know,0.012539
knowledg,0.005204
l,0.006090
larg,0.029169
larger,0.021844
late,0.004790
latenc,0.014012
law,0.012503
layer,0.007963
lead,0.008255
learn,0.029059
led,0.008930
left,0.005514
liebowitz,0.018977
lifecycl,0.012334
like,0.022171
limit,0.016900
line,0.004951
link,0.003008
linux,0.014090
liquid,0.014831
listen,0.009771
littl,0.005294
load,0.018987
local,0.004685
lockin,0.111003
loop,0.028579
lose,0.007276
lot,0.008520
machin,0.006679
madureira,0.019754
maintain,0.009647
major,0.003670
make,0.031660
mani,0.021887
manufactur,0.013194
margoli,0.016330
market,0.098387
marketplac,0.010937
mass,0.034039
match,0.007356
mathemat,0.010876
mean,0.007619
media,0.006345
mercantil,0.010937
merg,0.008331
messag,0.017194
metcalf,0.107274
method,0.008568
michael,0.006366
microsoft,0.032873
mirabili,0.032259
mistaken,0.022845
mistook,0.015944
mitig,0.019887
mitra,0.032456
model,0.034472
modern,0.004149
monopoli,0.035452
mostcit,0.017375
motiv,0.006758
mouth,0.009808
multipl,0.010641
music,0.022808
mutual,0.014593
n,0.012424
natur,0.007386
need,0.012475
neg,0.041990
network,0.659288
new,0.021629
news,0.007550
nichola,0.009305
nico,0.015393
normal,0.005513
notori,0.010978
number,0.048449
observ,0.004565
obtain,0.016130
occur,0.021975
offic,0.033408
offtheshelf,0.015465
onc,0.005169
onli,0.009553
onlin,0.018163
open,0.018943
openli,0.010477
oper,0.017456
opposit,0.005692
option,0.007218
origin,0.007667
overload,0.013899
overus,0.013290
overview,0.006931
overwhelm,0.009275
owner,0.007824
paid,0.014106
paradox,0.008846
parti,0.005345
particip,0.021828
particularli,0.004851
patent,0.046156
pattern,0.011804
paul,0.006013
payment,0.007456
peertop,0.043730
peopl,0.072465
perceiv,0.006956
percentag,0.007708
person,0.004526
phenomena,0.006604
phenomenon,0.014249
physic,0.004526
pioneer,0.007226
place,0.015648
platformmedi,0.020270
player,0.009053
point,0.036114
polici,0.005119
pool,0.009057
poor,0.006839
popular,0.009898
porter,0.011674
posit,0.077895
possess,0.006216
possibl,0.004045
post,0.006713
potenti,0.020542
power,0.004059
pp,0.129341
practic,0.004244
premium,0.010144
present,0.023798
presid,0.005736
prevent,0.022684
price,0.058724
primari,0.005236
primarili,0.010844
prime,0.006373
printer,0.012316
prior,0.005991
privat,0.005687
prize,0.007398
product,0.057880
profession,0.006427
profit,0.020560
promot,0.005658
properti,0.067240
proport,0.019675
protect,0.005286
protocol,0.008969
prove,0.006122
provid,0.010558
provideth,0.020270
public,0.023969
pull,0.009103
purchas,0.040479
push,0.007543
qualiti,0.011820
quickli,0.012913
qwerti,0.019754
rail,0.059901
ran,0.008879
rate,0.004915
rational,0.011195
reach,0.020450
reap,0.013101
reason,0.004515
reduc,0.019063
refer,0.007547
region,0.004505
regist,0.007801
registr,0.009796
reinforc,0.008567
relat,0.016960
relationship,0.009604
releas,0.012574
relev,0.019740
reli,0.018185
remix,0.017375
remov,0.005808
report,0.004835
request,0.007646
research,0.004081
resourc,0.030558
respect,0.004784
respons,0.004363
result,0.014017
retain,0.006615
revenu,0.007339
reward,0.052217
right,0.054174
robert,0.005531
rod,0.010877
roll,0.028161
rout,0.007574
s,0.007136
sale,0.021986
salon,0.014299
samesid,0.020270
satur,0.022820
scalabl,0.013899
scale,0.028470
scholarli,0.008905
scope,0.007395
search,0.019317
secondarili,0.014090
secondli,0.011063
secur,0.010690
seeker,0.013153
seen,0.004936
selfish,0.011789
sell,0.021350
seller,0.030156
send,0.007867
sens,0.005176
serv,0.005007
servic,0.049016
set,0.003897
sever,0.003650
shapiro,0.012831
share,0.107851
sign,0.005764
signal,0.007238
signific,0.004469
significantli,0.006456
similar,0.004180
similarli,0.019899
sinc,0.003501
site,0.070771
size,0.010904
skype,0.015538
small,0.012853
social,0.040086
societi,0.026320
softwar,0.059344
solarg,0.020270
sold,0.007393
someth,0.006731
sourc,0.008808
space,0.005398
spawn,0.011161
speak,0.006713
spread,0.012377
squar,0.007418
stabil,0.013059
stake,0.010650
standard,0.066020
start,0.004431
startup,0.036518
state,0.009190
stephen,0.007777
stiglitz,0.013207
stock,0.027019
stop,0.006917
store,0.007093
strategi,0.006522
strong,0.020349
subscrib,0.032843
subscript,0.011373
sugata,0.035865
suggest,0.004901
suit,0.048834
sundararajan,0.018396
superior,0.007793
suppli,0.017123
support,0.004162
surf,0.013406
surprisingli,0.011688
switch,0.008597
talk,0.022602
teach,0.006858
technic,0.006226
technolog,0.045433
ted,0.045541
tedcom,0.038666
telephon,0.095713
telephoni,0.013936
temporarili,0.009651
tension,0.007952
term,0.003308
theme,0.007754
themselv,0.005193
theodor,0.009582
theoret,0.005740
theori,0.004103
therebi,0.007246
therefor,0.004758
thi,0.073327
thing,0.005571
thought,0.009924
thu,0.016371
time,0.009293
tip,0.009765
togeth,0.004828
tone,0.010623
topic,0.005555
total,0.004885
town,0.014379
track,0.015493
trade,0.020259
traffic,0.027752
transact,0.015077
transfer,0.005991
treasuri,0.009305
troubl,0.009192
true,0.017007
turn,0.004840
twitter,0.026932
twosid,0.015192
type,0.008419
typic,0.004697
ultim,0.006055
uncertainti,0.008148
underdevelop,0.011702
unlimit,0.010477
uptak,0.012831
usag,0.022031
use,0.071522
user,0.279622
userbas,0.018396
usual,0.008426
vail,0.016035
valid,0.006686
valu,0.125650
valuabl,0.041096
vault,0.025394
vendor,0.023978
veri,0.011995
version,0.006124
versu,0.016345
vs,0.008453
vulner,0.008905
wa,0.028707
waiver,0.015538
want,0.019392
way,0.026205
web,0.022772
websit,0.019861
whi,0.006442
whilst,0.009044
wholeth,0.019333
wide,0.009018
wider,0.007972
win,0.007872
window,0.009839
word,0.004860
work,0.010297
world,0.028397
worthwhil,0.012719
yahoo,0.027378
year,0.003533
