abandon,0.014347
abl,0.009701
abolish,0.016048
accord,0.007680
account,0.009045
acquir,0.012509
act,0.008778
action,0.018874
actual,0.009829
administ,0.015056
adopt,0.010598
advic,0.016715
advis,0.015524
advisor,0.019676
affair,0.012699
afternoon,0.025760
agre,0.023159
agreement,0.011723
allow,0.030551
america,0.010763
american,0.052212
announc,0.012897
appear,0.008896
applaud,0.028852
appreci,0.034085
arthur,0.015667
asset,0.014198
asymmetr,0.021012
attempt,0.008760
august,0.093369
background,0.013190
bag,0.023842
balanc,0.012155
bank,0.044428
barri,0.040671
base,0.006692
becam,0.016930
becaus,0.013942
becom,0.007413
befor,0.015819
began,0.018495
biggest,0.017387
billion,0.078926
bold,0.022753
bordo,0.031726
break,0.012765
bretton,0.430710
bring,0.011513
bureau,0.035033
burn,0.015875
buy,0.014650
came,0.010141
camp,0.016781
cancel,0.017569
caus,0.008278
cent,0.019242
central,0.034779
certain,0.008489
chairman,0.035086
charg,0.011969
charl,0.011879
chicago,0.030234
citizen,0.012693
close,0.008299
combat,0.032564
commit,0.013001
committe,0.013308
competit,0.012198
compon,0.010683
comprehens,0.013664
confer,0.012211
congress,0.013900
connal,0.121215
consid,0.007234
consult,0.014325
control,0.008242
convert,0.063231
cost,0.021814
council,0.022624
counter,0.016774
countri,0.032656
cover,0.020428
crisi,0.025604
currenc,0.108757
d,0.010043
daili,0.014509
david,0.011020
day,0.074894
debat,0.023099
debt,0.014386
decemb,0.011384
decid,0.012090
decreas,0.012216
demand,0.011075
depreci,0.044338
deutsch,0.041948
devalu,0.063387
develop,0.012408
did,0.009209
dilemma,0.021050
direct,0.024714
disadvantag,0.018397
dollar,0.347907
domest,0.012854
dougla,0.036667
dow,0.024142
drop,0.054466
dure,0.007141
econom,0.098086
economi,0.030601
economist,0.042068
ed,0.010456
editori,0.021289
effect,0.021768
effort,0.010343
eichengreen,0.063037
emerg,0.019145
enact,0.016556
end,0.016332
engrav,0.024027
enorm,0.016086
ensur,0.024541
era,0.011800
establish,0.007971
europ,0.010127
european,0.018605
event,0.009719
everi,0.009346
exchang,0.147815
execut,0.011314
exist,0.007427
exorbit,0.029989
expect,0.010262
express,0.009677
extern,0.005840
facto,0.018107
februari,0.012134
fed,0.019986
feder,0.023783
felt,0.015767
fiat,0.049181
financi,0.031988
fix,0.035564
float,0.070747
fluctuat,0.016678
follow,0.025555
forc,0.008005
foreign,0.051985
foreigncaus,0.040405
formal,0.019988
forti,0.019940
franc,0.057168
freeli,0.017370
freez,0.082787
friday,0.023108
fulli,0.012041
furthermor,0.013686
futur,0.009727
g,0.010804
gain,0.009716
gaull,0.026897
gener,0.005739
german,0.011279
germani,0.024051
gold,0.194437
good,0.008879
goodscar,0.040405
gouger,0.040405
govern,0.037974
gowan,0.038126
great,0.018003
group,0.007204
grow,0.010241
growth,0.010109
ha,0.015976
half,0.010993
hampshir,0.024590
heavili,0.012876
held,0.009442
hi,0.014322
highrank,0.024947
histori,0.006652
hold,0.019240
hope,0.013598
hous,0.010714
howev,0.006481
ii,0.020905
iith,0.037313
impact,0.010945
implement,0.011119
import,0.027247
impos,0.027470
incom,0.012233
increas,0.023040
increasingli,0.011774
incur,0.019152
inflat,0.075205
inflationari,0.022898
inop,0.032172
instabl,0.017269
intensifi,0.019578
intent,0.026881
intern,0.041992
interven,0.017162
intervent,0.014491
interview,0.016514
irwin,0.024765
isbn,0.009441
issu,0.008570
japan,0.079245
john,0.009084
joint,0.014062
juli,0.011535
key,0.010163
known,0.006673
krugman,0.024994
largescal,0.015558
later,0.023823
lead,0.007966
leav,0.011307
left,0.021287
lesson,0.018741
light,0.011008
link,0.005805
live,0.025899
longer,0.022024
machineri,0.016465
make,0.006789
manag,0.009562
march,0.011071
mark,0.032159
market,0.019988
marshal,0.017695
mean,0.007352
measur,0.008744
member,0.008518
memori,0.013888
met,0.027306
michael,0.012287
mid,0.013295
million,0.031460
mix,0.012842
monetari,0.085876
money,0.023863
month,0.023592
multin,0.020221
nation,0.022194
neg,0.011577
new,0.029818
newli,0.014046
nixon,0.427869
nobel,0.015541
nobodi,0.023361
nonu,0.055194
note,0.007697
obtain,0.010377
oct,0.024765
offic,0.021493
offici,0.040544
old,0.011047
onli,0.018437
open,0.009140
oper,0.008422
order,0.029429
ounc,0.054238
output,0.013935
outsid,0.010185
oversea,0.015924
overvalu,0.025335
page,0.013088
paul,0.034816
payment,0.014390
peg,0.022869
percent,0.026818
persist,0.015137
peter,0.012174
petrodollar,0.032413
place,0.007550
plan,0.010111
plung,0.022840
point,0.015489
polici,0.029640
polit,0.033518
politician,0.016017
poni,0.029448
postnixon,0.040405
potenti,0.009912
prepared,0.055894
present,0.015310
presid,0.055358
press,0.009010
pressur,0.011524
prevent,0.043781
price,0.045335
pricegoug,0.040405
princip,0.011959
print,0.014377
privileg,0.017473
prize,0.014278
problem,0.008187
produc,0.007965
product,0.007979
promot,0.010921
protect,0.010203
prove,0.011815
public,0.015420
publicli,0.016383
pursuant,0.025335
ramif,0.024220
rapidli,0.012907
rate,0.113851
read,0.008433
rebuild,0.020436
recommend,0.014312
recov,0.014946
redeem,0.045680
redempt,0.023329
refer,0.004855
reform,0.035631
regim,0.014148
regret,0.025186
releas,0.012134
reli,0.011699
remain,0.008030
render,0.015924
replac,0.009894
report,0.027996
repres,0.007964
rescu,0.019268
research,0.007877
reserv,0.103307
rest,0.011375
result,0.006763
resum,0.018571
retrospect,0.021372
revalu,0.083046
review,0.010879
revisit,0.022451
richard,0.011995
rose,0.014734
run,0.010670
s,0.020659
said,0.019952
scienc,0.008166
secretari,0.031726
secretli,0.023394
secur,0.010315
selfconfid,0.028965
sens,0.009990
seri,0.009672
set,0.007521
settl,0.013799
sever,0.007044
share,0.009461
shock,0.116196
signific,0.008626
significantli,0.037385
simultan,0.014161
sinc,0.013514
smithsonian,0.023108
speak,0.012957
spectrum,0.015979
specul,0.014058
spend,0.014026
stabil,0.037807
stagflat,0.026970
standard,0.009101
state,0.041388
steel,0.016925
stem,0.015189
strengthen,0.015284
subsid,0.020047
success,0.017922
summar,0.034422
sunday,0.022425
suppli,0.011016
support,0.016068
surcharg,0.116800
suspend,0.033593
suspens,0.020993
switzerland,0.034638
televis,0.015231
testimoni,0.021741
themselv,0.010023
thereaft,0.017668
thi,0.020217
thu,0.007899
time,0.017936
trade,0.009775
treasuri,0.053878
tri,0.010636
triffin,0.035035
troubl,0.017741
twelv,0.017825
ultim,0.011687
uncertainti,0.015726
undersecretari,0.029989
undertaken,0.034825
unemploy,0.031654
unhesitatingli,0.040405
unilater,0.021188
unit,0.040894
univers,0.006998
unleash,0.025335
unsuccess,0.017378
unwil,0.023493
valu,0.017321
vietnam,0.018312
volcker,0.087243
wa,0.099731
wage,0.044546
wagepric,0.036626
want,0.012475
war,0.047996
week,0.028405
west,0.011603
white,0.012829
wide,0.008703
window,0.018991
wood,0.265079
work,0.006624
world,0.041105
year,0.013639
yen,0.102822
york,0.010407
