action,0.019026
affect,0.020235
america,0.043403
american,0.052634
amsterdam,0.039388
analysi,0.037333
apart,0.028377
appli,0.016554
area,0.015379
att,0.054524
autonom,0.031312
award,0.027299
bank,0.067180
befor,0.015946
begin,0.018206
bell,0.072301
best,0.020579
blackwel,0.039033
book,0.017745
born,0.026376
brezi,0.071584
brother,0.031312
build,0.019758
busi,0.063145
cambridg,0.123835
cameron,0.048443
caus,0.033382
causal,0.069634
central,0.017530
centuri,0.096350
charl,0.047902
chicago,0.121914
church,0.028255
cite,0.026156
colleg,0.027148
composit,0.025928
conclus,0.139343
continu,0.015155
current,0.016012
cycl,0.025640
daniel,0.031110
david,0.066656
decemb,0.022953
demand,0.022330
depart,0.021930
depress,0.155385
destruct,0.029602
develop,0.025018
did,0.037134
discoveri,0.023426
downturn,0.042841
drawn,0.029518
drop,0.027453
drug,0.059000
e,0.020268
earli,0.015061
earn,0.028304
econom,0.280155
economi,0.185089
economist,0.028271
ed,0.147567
effect,0.014629
elis,0.061062
elit,0.033438
elsevi,0.042286
emeritu,0.049578
empir,0.042024
engin,0.043403
england,0.052261
enterpris,0.085034
entitl,0.031088
entrepreneuri,0.046841
equilibrium,0.031472
europea,0.069779
european,0.018756
examin,0.023569
expand,0.021301
factor,0.038187
fall,0.041110
far,0.020419
feder,0.023976
feinstein,0.127930
fell,0.029083
financi,0.042995
finkelstein,0.061705
firm,0.026894
fix,0.023901
forc,0.032279
foreshadow,0.048292
friedman,0.041620
ft,0.035193
g,0.021783
gavin,0.053268
gener,0.011570
geneticist,0.049156
gianni,0.123410
goldsmith,0.048993
graduat,0.030173
gray,0.040173
great,0.090742
growth,0.061146
guerr,0.057948
gutman,0.069779
ha,0.010737
hansjoachim,0.067611
harvard,0.062921
head,0.020787
herbert,0.034867
hi,0.158817
histor,0.018088
histori,0.053647
historian,0.027134
howard,0.037354
hypothes,0.032019
includ,0.022356
industri,0.073518
influenti,0.025897
inform,0.016008
inquiri,0.032118
insid,0.027006
instead,0.018860
intens,0.026743
iron,0.057678
italian,0.030213
jacksonian,0.127930
join,0.023951
keyn,0.089093
known,0.013453
labor,0.026435
lamoreaux,0.067611
late,0.018638
later,0.048031
laterza,0.071584
le,0.032068
leaderless,0.063546
learn,0.022615
leconomia,0.081462
lesson,0.075572
london,0.022666
lower,0.019891
m,0.019252
macmillan,0.036773
market,0.040299
medicin,0.051329
method,0.016671
minor,0.024910
mit,0.163538
model,0.016767
modern,0.016146
monetari,0.057713
money,0.024056
naomi,0.055811
nation,0.014915
new,0.084166
nineteenth,0.101013
nobel,0.031334
north,0.021372
norton,0.083895
oxford,0.177040
paper,0.066631
paul,0.023398
penguin,0.040482
period,0.015994
perspect,0.024087
peter,0.024545
phd,0.034783
physiolog,0.031706
polit,0.016894
press,0.272502
price,0.045701
primarili,0.021099
princeton,0.068156
prize,0.028787
probabl,0.022148
product,0.016087
professor,0.027587
program,0.019416
prometheu,0.050392
public,0.015545
publish,0.034265
r,0.041310
raff,0.063147
reach,0.019894
real,0.020318
reason,0.017569
recess,0.035037
reckon,0.096886
refer,0.009789
reflect,0.021037
regul,0.023175
relationship,0.018686
reserv,0.026035
respons,0.016979
revers,0.026950
revisit,0.045266
revolut,0.048502
richard,0.024184
role,0.017148
romabari,0.081462
roman,0.026258
rondo,0.063546
rx,0.057732
s,0.055536
scarciti,0.040900
select,0.021286
sever,0.014203
shackl,0.059118
slave,0.032192
slaveri,0.071803
slump,0.048753
social,0.017331
specul,0.028344
stan,0.053399
start,0.017245
state,0.011920
steel,0.068249
studi,0.071990
survey,0.026188
sutch,0.071584
swarthmor,0.070636
temin,0.298161
th,0.046866
thesi,0.033715
thi,0.030571
toniolo,0.136554
tra,0.063147
transcriptas,0.062397
translat,0.023454
troubl,0.035770
turn,0.018835
unit,0.013741
univers,0.155216
usa,0.030416
use,0.022264
view,0.017461
vine,0.100975
vol,0.029280
voth,0.076869
wa,0.044683
war,0.038707
way,0.014567
welfar,0.031380
whi,0.025067
wildcat,0.061378
work,0.053425
world,0.055250
wright,0.040419
wrigley,0.068277
ww,0.097506
york,0.083934
