abil,0.011810
abl,0.010842
abov,0.005494
abstract,0.007552
academ,0.006428
accept,0.016164
access,0.011876
account,0.065712
accru,0.012531
accrual,0.032371
accumul,0.008233
achiev,0.005399
acquir,0.006990
activ,0.034259
actual,0.005492
ad,0.005477
addit,0.004341
address,0.006462
adjust,0.016430
administr,0.042005
advanc,0.005300
advantag,0.006661
affect,0.005608
agenc,0.020254
aid,0.006438
aim,0.006128
akin,0.011486
al,0.007361
alan,0.018196
alaska,0.012982
alloc,0.042823
allow,0.008535
altogeth,0.010639
american,0.009725
analysi,0.015520
analyz,0.014428
andor,0.007510
ani,0.015129
anthoni,0.010135
apart,0.007865
approach,0.009878
appropri,0.006879
approv,0.007372
architectur,0.008095
aris,0.014003
aspect,0.005640
aspir,0.010788
assess,0.014620
asset,0.047604
associ,0.008385
assumpt,0.007312
atkinson,0.014623
attain,0.008687
australia,0.007459
author,0.024161
avoid,0.006410
away,0.006537
b,0.011369
balanc,0.033962
bank,0.031032
base,0.007479
basi,0.010691
basic,0.005206
becaus,0.003895
belong,0.007312
benefit,0.031399
blinder,0.017102
blueprint,0.013363
board,0.007465
bodi,0.005192
bond,0.044348
book,0.004918
borrow,0.051533
branch,0.005503
brazil,0.009247
broad,0.013901
broadli,0.017325
brook,0.011391
buchanan,0.028371
budget,0.032401
budgetari,0.013647
build,0.005476
bulletin,0.011636
burden,0.049390
bureaucrat,0.011467
busi,0.017501
calcul,0.006603
campaign,0.007780
capabl,0.006825
capac,0.007184
care,0.013022
carri,0.005587
case,0.004333
cash,0.025988
categor,0.008810
categori,0.006613
caus,0.013878
central,0.043727
certain,0.023719
chang,0.003907
charg,0.006688
children,0.007128
choic,0.027241
choos,0.007456
circul,0.009068
circumst,0.007962
citizen,0.014186
citizenri,0.015070
civil,0.005945
class,0.011497
classic,0.005726
classif,0.030592
classifi,0.007011
close,0.009275
cofog,0.021304
coin,0.007177
collect,0.025281
commerci,0.006640
commun,0.004532
compani,0.010947
compat,0.009945
compens,0.008761
compil,0.035773
complet,0.004787
complex,0.010144
complic,0.007856
compon,0.005969
composit,0.007186
compris,0.007091
compulsori,0.021927
concept,0.004837
concern,0.004866
condit,0.004850
connect,0.005707
consid,0.012128
consist,0.023198
constitut,0.016420
construct,0.005368
consum,0.006902
consumpt,0.040427
contain,0.014919
content,0.013680
contract,0.006954
contrast,0.005855
contribut,0.030528
control,0.004605
convent,0.006712
cooper,0.006625
corpor,0.074816
corv,0.016601
cost,0.036569
costbenefit,0.014364
countri,0.018248
cours,0.006041
cover,0.017122
creat,0.012720
creation,0.006310
credit,0.006708
creditworthi,0.015421
criteria,0.008681
critic,0.005099
cs,0.010591
currenc,0.007596
current,0.004438
custom,0.014019
data,0.033195
day,0.005231
deal,0.005584
debt,0.176853
decis,0.011689
default,0.010578
defenc,0.008438
defens,0.007608
deficit,0.038488
defin,0.033302
demand,0.006189
democrat,0.006792
depart,0.006078
deriv,0.005270
descript,0.019010
design,0.015275
desir,0.006524
determin,0.004814
develop,0.003467
diamondmirle,0.021304
dibidami,0.021304
dictionari,0.008404
differ,0.018375
differenti,0.007019
direct,0.009206
directli,0.005570
disaggreg,0.032770
disast,0.009576
dissemin,0.010796
distort,0.009788
distribut,0.062919
divid,0.010994
dividend,0.033428
document,0.006692
doe,0.004690
domest,0.007182
donat,0.010383
draw,0.007106
duti,0.032996
e,0.022470
econom,0.068512
economi,0.056998
economist,0.007835
ed,0.011685
edit,0.006532
educ,0.010634
edwin,0.011011
effect,0.040546
effici,0.098025
efficiencybas,0.021304
element,0.005308
elimin,0.007217
emphasi,0.007570
employ,0.011072
employe,0.026235
endeavor,0.011003
enforc,0.023473
engag,0.013218
enjoy,0.007945
enterpris,0.039280
entiti,0.042489
environment,0.006709
equiti,0.009549
equival,0.013445
especi,0.009692
essenti,0.011603
estim,0.011746
et,0.007174
european,0.020793
eurostat,0.015616
eventu,0.005932
evergrow,0.016385
exact,0.015924
examin,0.006532
exampl,0.041116
excis,0.039908
exclud,0.007851
exercis,0.014341
exist,0.004150
expect,0.005734
expenditur,0.175335
expens,0.029816
explain,0.005618
extern,0.016317
face,0.006264
fact,0.005299
failur,0.029047
famili,0.017337
far,0.005659
feder,0.013290
fee,0.019537
ferguson,0.013601
fewest,0.016385
figur,0.012362
final,0.005398
financ,0.304215
financi,0.089373
fiscal,0.085159
flow,0.019717
focu,0.006122
follow,0.010710
foreign,0.005809
form,0.010234
framework,0.006394
free,0.005097
fulfil,0.018050
function,0.041123
fund,0.073842
fundament,0.005715
futur,0.010871
gabel,0.019577
gather,0.007780
gener,0.054517
georg,0.006432
gf,0.083393
gfsm,0.255659
gift,0.010073
goe,0.008031
good,0.089313
govern,0.445618
government,0.018680
governmentown,0.013814
graviti,0.009730
green,0.007675
group,0.020128
growth,0.005649
ha,0.011903
hackensack,0.017612
handbook,0.009032
harri,0.009385
head,0.005761
health,0.018665
healthcar,0.010511
heavili,0.007195
help,0.009771
henri,0.007193
high,0.004519
highincom,0.014522
hindu,0.010346
histori,0.003717
hold,0.005375
household,0.035511
howev,0.007244
imf,0.009773
impact,0.006116
implement,0.006213
import,0.022838
impos,0.023025
impost,0.017196
improv,0.005491
incid,0.017661
includ,0.034078
incom,0.150386
incorpor,0.006128
increas,0.004291
increasingli,0.006579
increment,0.011272
independ,0.004583
india,0.006832
indic,0.010980
indirect,0.029090
individu,0.032223
industri,0.005094
ineffici,0.020669
inequ,0.018780
inflat,0.008404
inform,0.022184
infrastructur,0.007556
input,0.008085
instead,0.005227
institut,0.056670
instrument,0.006872
insur,0.008604
intend,0.020726
intern,0.027376
invest,0.019062
investor,0.017004
involv,0.004326
isbn,0.005275
issu,0.028733
item,0.008186
j,0.005604
jame,0.012588
jersey,0.011051
jm,0.013940
joint,0.007858
joseph,0.014708
joshua,0.012560
just,0.010407
justic,0.007542
key,0.005679
known,0.003728
labor,0.007326
laid,0.008421
larg,0.003932
law,0.008989
lectur,0.008112
legal,0.012313
legisl,0.013662
legitimis,0.015616
lender,0.024124
level,0.044616
levi,0.062914
liabil,0.041942
licens,0.008884
like,0.007970
likewis,0.008837
line,0.010680
link,0.006488
liquid,0.007997
littl,0.011420
loan,0.008656
local,0.045480
loss,0.013051
low,0.005718
lowincom,0.013426
m,0.010671
macmillan,0.010192
macroeconom,0.020158
main,0.023616
mainli,0.012387
make,0.011381
maker,0.020584
manag,0.069463
mani,0.006744
manner,0.007200
manual,0.018847
manufactur,0.007114
market,0.083769
marketori,0.014522
match,0.007934
matter,0.005612
matur,0.008681
maxim,0.008484
mcgrawhil,0.032344
mean,0.012326
measur,0.014659
meet,0.018109
member,0.009520
memorandum,0.013185
mere,0.007339
method,0.004620
methodolog,0.055279
minu,0.011027
mit,0.009065
mix,0.007176
mobil,0.015849
modern,0.008950
monetari,0.015995
money,0.046672
movement,0.020578
municip,0.009090
musgrav,0.074955
narrow,0.008424
nation,0.033072
natur,0.015931
nd,0.006941
necessari,0.017836
need,0.026909
net,0.007842
network,0.006237
new,0.006664
non,0.010752
nonexclud,0.019339
nonfinanci,0.015828
nonmarket,0.030657
nonpriv,0.019339
nonriv,0.038246
nontax,0.017395
norton,0.011626
note,0.008602
object,0.010200
oblig,0.016477
occur,0.009479
offer,0.005547
oil,0.007446
old,0.006172
onli,0.006868
oper,0.056478
option,0.007784
order,0.004111
organ,0.012208
organis,0.014126
otherwis,0.014192
outcom,0.007627
outlay,0.014555
output,0.007786
overview,0.007475
owe,0.036319
owner,0.008438
p,0.005695
paid,0.045640
palgrav,0.022152
pay,0.020895
payment,0.072371
peacock,0.014589
pecuniari,0.016601
peggi,0.017849
pension,0.031095
peopl,0.024679
percentag,0.008313
perkin,0.013647
perman,0.007229
person,0.009763
perspect,0.006675
petroleum,0.009590
pfm,0.019339
place,0.004219
plan,0.005649
plu,0.008393
point,0.004327
polici,0.027604
politician,0.008950
popul,0.005308
possibl,0.004363
potenti,0.005538
power,0.008755
pp,0.006974
practic,0.013731
premia,0.018923
present,0.021388
press,0.015105
preview,0.013490
price,0.006333
primarili,0.011695
princip,0.006682
prior,0.006461
priorit,0.013072
privat,0.042939
problem,0.004575
process,0.012132
produc,0.026707
product,0.013376
profit,0.029565
program,0.016144
programm,0.008222
proper,0.007675
properti,0.005179
proport,0.014146
propos,0.005278
protect,0.011403
provid,0.034161
provis,0.024997
psdva,0.021304
public,0.271432
publish,0.004748
purchas,0.029104
purpos,0.011129
purs,0.016000
pursuant,0.014157
purview,0.014522
rais,0.018930
ratio,0.007715
rational,0.012074
rd,0.007660
realloc,0.015668
recent,0.004698
recogn,0.017453
recommend,0.023993
record,0.011437
redirect,0.013363
redistribut,0.056408
reduc,0.010279
refer,0.005426
regco,0.021304
region,0.009717
registr,0.010564
regul,0.006423
relat,0.003658
relev,0.007096
reli,0.006537
religi,0.006930
repay,0.022934
replac,0.005528
repres,0.013352
requir,0.004271
research,0.013204
resid,0.007188
resourc,0.071406
respons,0.014117
result,0.003779
retail,0.009812
retir,0.009232
revenu,0.197886
review,0.006079
revolutionari,0.017269
richard,0.020108
rise,0.010919
risk,0.026703
road,0.031523
robert,0.005965
role,0.014258
royalti,0.012374
rule,0.004952
run,0.005962
s,0.003848
safeti,0.008745
sale,0.071135
satisfi,0.008048
scale,0.006140
scheme,0.008165
school,0.011040
scientif,0.005459
scope,0.015952
scrollabl,0.019840
secessionist,0.029315
sector,0.113811
secur,0.046115
seek,0.006088
seen,0.005323
seigniorag,0.067031
selfinterest,0.012265
sens,0.005582
separ,0.014870
seri,0.005405
servic,0.105725
set,0.004202
sever,0.003936
sheet,0.049064
shoup,0.020133
signific,0.004820
similar,0.009017
similarli,0.007153
singapor,0.009950
size,0.005880
small,0.004620
smooth,0.010014
sna,0.033515
social,0.081660
socialist,0.008447
societi,0.004730
solow,0.015566
sometim,0.009831
sophist,0.008687
sourc,0.014249
sovereign,0.045125
soviet,0.016357
specif,0.009035
spend,0.023514
stabil,0.007042
stamp,0.011168
standard,0.015257
start,0.004779
state,0.052863
statement,0.062388
stateown,0.022235
staterun,0.042472
statist,0.043364
stiglitz,0.028487
stock,0.021855
stpage,0.020850
strong,0.005486
structur,0.004411
studi,0.011971
subaccount,0.020133
subdivis,0.011092
subject,0.009607
subnat,0.014692
subscrib,0.011806
subsector,0.033357
subsidi,0.010518
substanti,0.014019
successor,0.008482
suffer,0.006891
suffici,0.006980
supervisori,0.014129
suppli,0.012311
support,0.013468
t,0.006569
tabl,0.014534
taken,0.005528
tallag,0.019123
tast,0.010598
tax,0.283859
taxat,0.102120
taxpay,0.012606
temasek,0.018738
term,0.003568
territori,0.013218
text,0.006513
theorem,0.008464
theori,0.017704
therebi,0.007815
therefor,0.010264
thi,0.016946
threefold,0.013717
thu,0.008828
time,0.016704
toll,0.012037
tool,0.006046
topic,0.005991
total,0.005268
transact,0.008130
transfer,0.058154
treat,0.006612
tribe,0.018591
tribut,0.011263
turnov,0.012136
type,0.031778
typic,0.005065
uk,0.006921
unc,0.032633
undesir,0.011806
unemploy,0.008844
unincorpor,0.014912
union,0.016833
unit,0.034277
updat,0.009147
usa,0.008430
use,0.021597
user,0.016753
usual,0.009088
util,0.013662
valu,0.024198
variou,0.025792
vat,0.013556
vehicl,0.017147
venezuela,0.011585
veri,0.004312
view,0.004839
violat,0.008354
vision,0.008178
vital,0.008433
volatil,0.010046
voluntari,0.020894
voter,0.010129
war,0.005364
warrant,0.011646
wast,0.009057
way,0.008074
wealth,0.101087
welfar,0.008697
wellarticul,0.019339
world,0.011484
yearbook,0.015153
young,0.007011
