abil,0.006449
abov,0.012001
abras,0.016947
abund,0.047529
academ,0.014041
accommod,0.010884
achiev,0.005896
acquisit,0.010134
act,0.005357
activ,0.004677
ad,0.011963
adapt,0.007464
address,0.007058
adequ,0.009833
advanc,0.011578
advent,0.010250
agricultur,0.013934
aim,0.006693
air,0.007200
alli,0.008657
alloc,0.009354
allow,0.004661
alloy,0.130435
alreadi,0.013657
alumina,0.035082
aluminum,0.103137
alunit,0.023875
america,0.019707
amorph,0.030742
andor,0.016405
angloamerican,0.014421
anhydrit,0.022772
annual,0.007200
anorthosit,0.068316
anoth,0.018033
anthracit,0.169989
anymoremak,0.023875
anywher,0.011473
appear,0.005429
appli,0.010021
area,0.023277
arrowhead,0.017349
arrowheadgrad,0.047751
asept,0.019634
aspect,0.012321
associ,0.004578
astm,0.019781
atom,0.024588
atrophi,0.017001
augment,0.012070
author,0.005277
automobil,0.023487
avail,0.074487
averag,0.035006
away,0.014280
background,0.008050
balanc,0.007418
base,0.012252
bauxit,0.049933
becam,0.010332
becaus,0.017018
becom,0.040720
befor,0.009654
begun,0.008986
behavior,0.006629
belgian,0.013160
belt,0.012321
best,0.006229
better,0.012747
bibliographi,0.008220
big,0.008557
billion,0.032112
biogeophys,0.020885
bismuth,0.082524
black,0.015255
blackboard,0.017895
blast,0.013835
bloc,0.022681
brazil,0.010100
breakdown,0.011635
briefli,0.010484
bring,0.007026
broad,0.007591
broadli,0.009461
brown,0.009590
busi,0.006371
byproduct,0.037635
cabl,0.012321
came,0.006189
capit,0.006156
carbon,0.036903
cargo,0.012631
case,0.018932
cash,0.009461
caus,0.010105
certain,0.005181
chang,0.034142
chao,0.010954
cheaper,0.012188
chemic,0.021623
choic,0.007438
classic,0.006254
clay,0.048351
cleaner,0.016124
cleanerlik,0.023875
clearli,0.008511
climat,0.016165
close,0.020261
closest,0.011459
coal,0.055192
cobalt,0.143586
cobaltproduc,0.023875
coke,0.032170
cold,0.009024
combin,0.005398
come,0.010829
cominco,0.022772
commerci,0.029012
commod,0.009188
common,0.009155
compani,0.005978
compar,0.011199
compellingli,0.021989
complet,0.010457
complex,0.016620
compon,0.006520
comprehens,0.008339
computerssatellit,0.023875
concept,0.010567
condit,0.005297
conduct,0.006489
conductor,0.013654
conflict,0.007051
congo,0.012919
connect,0.018700
consid,0.008830
constraint,0.009400
consum,0.015077
consumpt,0.008830
content,0.007470
contigu,0.014198
continu,0.004587
contribut,0.011114
control,0.005030
convert,0.023153
conveyor,0.017677
copper,0.094626
coproduct,0.018132
cost,0.066566
countri,0.004982
cover,0.043634
creat,0.004631
crisi,0.007813
criteria,0.009481
critic,0.033415
crust,0.025218
crustal,0.017169
crystal,0.010621
crystallin,0.014047
curat,0.015431
current,0.029082
curriculum,0.011727
custom,0.022967
cut,0.008038
cycl,0.015522
danger,0.008893
data,0.006042
deal,0.006099
dealer,0.055970
decemb,0.006947
declin,0.014377
defin,0.010391
definit,0.005986
degre,0.012400
demand,0.033797
depend,0.014987
deplet,0.023631
deposit,0.053782
depth,0.009941
design,0.005561
desir,0.007125
destroy,0.015834
determin,0.005257
develop,0.022719
devic,0.008461
diamond,0.034484
differ,0.024082
difficult,0.006603
dig,0.014121
dioxid,0.011125
disappear,0.009626
discharg,0.012708
disciplin,0.006976
discov,0.006667
discuss,0.006177
disloc,0.045591
dispos,0.011201
disrupt,0.019512
dissip,0.026938
distort,0.010690
divers,0.014564
doe,0.005122
doesnt,0.022641
domest,0.007844
drill,0.012545
drop,0.033240
dump,0.014830
durabl,0.038262
earth,0.035781
eas,0.010494
easili,0.015618
ecolog,0.017179
econom,0.104757
economi,0.049801
economist,0.008557
ecosystem,0.020678
effici,0.042824
electr,0.022611
electrod,0.027704
electropl,0.018302
elimin,0.015765
elsewher,0.009397
emphas,0.007999
enabl,0.007228
encompass,0.008533
end,0.004983
endus,0.049933
energi,0.038287
ensur,0.007488
enter,0.006663
environ,0.006042
environment,0.043970
equal,0.006207
estim,0.006414
europ,0.006180
evid,0.006215
exampl,0.036741
exhaust,0.053292
exist,0.013598
exot,0.012142
exploit,0.016970
explor,0.013890
explos,0.010104
extend,0.006012
extens,0.006155
extent,0.015000
extern,0.003564
extract,0.078969
fabric,0.022805
facil,0.008737
factor,0.017338
failur,0.007931
far,0.024723
feasibl,0.011075
featur,0.006164
feder,0.007257
fewer,0.009666
fiber,0.035519
field,0.004977
fifti,0.011553
final,0.023583
firm,0.040705
fish,0.008504
fisheri,0.012390
flake,0.016372
flint,0.044201
flow,0.007178
focu,0.006687
focus,0.006345
foil,0.044944
follow,0.015596
forc,0.004885
forestri,0.012664
form,0.011177
format,0.013296
formerli,0.009130
furthermor,0.008352
futur,0.005936
gener,0.007004
geochem,0.014710
geolog,0.009315
given,0.014666
global,0.012946
goal,0.006704
goe,0.008771
gold,0.008475
good,0.010838
govern,0.023175
grade,0.068210
graphit,0.196842
grayhotel,0.023875
greatli,0.007982
green,0.008382
growth,0.006169
guidanc,0.010990
guideupd,0.023875
gypsum,0.017287
ha,0.045502
hand,0.012079
hard,0.007999
harold,0.011696
harrison,0.013921
hartwick,0.023268
hasti,0.017608
havent,0.017169
heat,0.008594
high,0.009871
highalumin,0.023875
higher,0.005794
highli,0.006416
hopelessli,0.018302
hot,0.021467
hotel,0.035207
howev,0.003955
huge,0.009065
human,0.032872
idea,0.005470
ideasrepec,0.019114
ident,0.006979
identifi,0.011784
iffi,0.023875
igneou,0.016046
immedi,0.007165
impact,0.013359
impli,0.007577
import,0.020785
imposs,0.008241
includ,0.016918
increas,0.009374
increasingli,0.007185
independ,0.005006
industri,0.022254
inexhaust,0.017971
infinit,0.019088
influenc,0.005368
inform,0.004845
inher,0.009340
inorgan,0.011395
input,0.017661
insight,0.009041
insurg,0.012620
intens,0.008095
interact,0.012163
interdepend,0.012235
intern,0.017085
introduc,0.005717
introduct,0.006461
invas,0.008888
invest,0.006939
iron,0.052378
ironbear,0.022772
irregularli,0.016286
ise,0.016504
issu,0.005230
japan,0.008060
journal,0.006269
just,0.005683
katanga,0.019781
katangan,0.022772
kg,0.038092
kilomet,0.012321
kind,0.032462
kish,0.056034
known,0.012217
korean,0.011313
lack,0.006213
land,0.012335
landloc,0.021668
larg,0.004294
later,0.004846
lead,0.038897
led,0.005259
lessen,0.012955
lesser,0.029970
level,0.009745
life,0.010476
like,0.004352
limit,0.004976
line,0.011664
link,0.007086
liquidmet,0.071627
list,0.004531
littl,0.012473
load,0.011182
local,0.005519
locat,0.011982
long,0.005290
longer,0.020161
longerlast,0.019235
longest,0.011681
longev,0.014595
lower,0.018063
lowgrad,0.036604
lump,0.014442
machin,0.007867
magnesia,0.017971
magnesium,0.055756
main,0.005158
major,0.004322
make,0.020718
manag,0.023343
manganes,0.088262
mani,0.011048
manufactur,0.007770
margin,0.053578
massiv,0.008670
materi,0.251238
mckelvey,0.056343
mean,0.004487
medic,0.007503
medicin,0.007768
mention,0.015777
mere,0.008015
metal,0.110249
method,0.005046
methodolog,0.008624
militari,0.006591
million,0.051200
miner,0.090211
minim,0.017199
mitig,0.011712
model,0.035528
molten,0.015114
molybdenum,0.031049
mud,0.014237
mutual,0.008594
nation,0.009030
natur,0.069599
nautilu,0.034823
nearbi,0.010027
necessari,0.006493
need,0.029389
net,0.008565
network,0.006811
new,0.040035
nickel,0.065345
nodul,0.104853
nonaugment,0.047751
noncokeus,0.023875
noncorrod,0.023875
noneconom,0.017748
nonmarket,0.033483
nonrenew,0.065488
normal,0.006494
north,0.019408
notabl,0.006252
note,0.009395
number,0.008152
object,0.016710
obsolesc,0.049379
obtain,0.044333
occur,0.015530
ocean,0.016769
oceanbottom,0.021989
offset,0.011848
onli,0.011252
oper,0.030842
optim,0.008642
option,0.008502
order,0.004490
ore,0.081714
origin,0.004515
otherwis,0.007750
ought,0.011696
outsid,0.012431
overal,0.007457
overcom,0.010006
oversea,0.009718
packag,0.010329
paleoresourc,0.167131
particularli,0.011428
partner,0.008907
pellet,0.016947
pennsylvania,0.012206
perform,0.028640
perpetu,0.198694
person,0.010663
petroleum,0.010474
phosphat,0.012598
phosphoria,0.023875
physic,0.010663
piec,0.008998
pig,0.012151
place,0.004608
plan,0.018512
plant,0.007074
plastic,0.021909
play,0.005883
plu,0.018334
point,0.004726
polici,0.018089
policymak,0.013338
pollut,0.021921
polym,0.012244
polymetal,0.067058
poor,0.008056
popul,0.005797
popular,0.005829
possess,0.007322
possibl,0.014296
potenti,0.018147
powder,0.013886
power,0.004781
ppm,0.016124
practic,0.004999
precursor,0.010178
present,0.009343
press,0.005499
previous,0.014245
price,0.034585
probabl,0.006704
problem,0.004997
proceed,0.008550
process,0.035336
produc,0.009723
product,0.073045
properti,0.022628
proport,0.007725
proven,0.009868
provid,0.004145
provinc,0.017274
prudent,0.015462
public,0.004705
purchas,0.007946
pyrit,0.017349
qualiti,0.006961
quantiti,0.045662
quicker,0.015087
quit,0.007896
radiat,0.028072
radic,0.008565
radioisotop,0.015755
radium,0.032328
railroad,0.012026
random,0.008913
rang,0.005608
rate,0.017370
raw,0.019332
readi,0.010890
realiz,0.008285
reason,0.005318
rebel,0.010766
recent,0.020525
reclam,0.016164
reconcil,0.011650
recov,0.082094
recover,0.034575
recoveri,0.029594
recreat,0.011445
recycl,0.126094
reduc,0.005613
refer,0.002963
reflect,0.006368
refractori,0.017411
reinforc,0.010091
relat,0.003995
relationship,0.022625
remov,0.013683
renew,0.008665
rent,0.011409
replac,0.036231
research,0.009614
reserv,0.078809
reserveabund,0.023875
resist,0.007678
resourc,0.503920
resourcerel,0.023875
result,0.008255
retain,0.015585
reveal,0.007794
revenu,0.008644
rig,0.013835
rio,0.013544
rise,0.005962
robot,0.010984
rock,0.055678
role,0.005191
rose,0.008992
rubber,0.012859
rule,0.021636
sale,0.017264
salt,0.010152
saltston,0.023875
satellit,0.010339
satisfactori,0.026968
scarciti,0.037142
scatter,0.010942
schoolhous,0.021122
scienc,0.009967
scrap,0.028358
search,0.007584
seawat,0.028717
seced,0.015087
section,0.007342
separ,0.005413
servic,0.011546
set,0.004590
sever,0.012897
shape,0.021188
sharpen,0.016085
shift,0.007181
shortag,0.010760
shortli,0.009222
shot,0.011523
shown,0.007146
sic,0.014710
signific,0.005264
silver,0.010310
similar,0.004924
simon,0.009908
simpler,0.010996
simpli,0.006729
sinc,0.020619
situat,0.031747
slag,0.019781
slate,0.014297
small,0.005046
smoker,0.016329
social,0.010492
societi,0.005166
solar,0.009837
solidifi,0.027151
somewhat,0.008742
sought,0.008034
sourc,0.010374
soviet,0.026797
space,0.006358
spearhead,0.014400
special,0.010315
specif,0.009868
stabl,0.008116
stage,0.036010
standard,0.011109
start,0.010440
state,0.014433
statist,0.006765
statu,0.006887
steel,0.051648
steelmak,0.019937
stock,0.007956
stockpil,0.016550
stomach,0.013818
stone,0.009210
strateg,0.045004
strategi,0.007682
strengthen,0.009327
stronger,0.009928
structur,0.014455
studi,0.008716
subsequ,0.006435
substanti,0.007655
substitut,0.128297
suddenli,0.012235
suggest,0.005773
suitabl,0.009154
sulfid,0.041977
sulfur,0.012124
summar,0.010504
superior,0.009179
supplant,0.013173
suppli,0.040338
surrog,0.015687
sustain,0.048399
synthesi,0.009207
synthet,0.030684
taconit,0.047751
taxat,0.010139
tech,0.014010
techniqu,0.012675
technolog,0.083244
tension,0.009367
term,0.003896
textil,0.011150
thank,0.011340
theoret,0.006762
theori,0.009667
therefor,0.005605
thi,0.030846
think,0.007151
thu,0.004820
tidal,0.014854
time,0.021893
timescal,0.013381
tin,0.077226
tinto,0.018998
titanium,0.044273
today,0.005924
togeth,0.005686
tonn,0.218211
topic,0.013086
total,0.005754
trade,0.017897
tradeoff,0.013296
tradit,0.010386
transdisciplinari,0.015493
transit,0.014359
transport,0.014139
treatment,0.007586
tree,0.008495
trend,0.015754
trio,0.017112
tripl,0.011361
tungsten,0.015225
ultim,0.007132
uncertain,0.010902
uncommon,0.025284
unconvent,0.015253
understand,0.005597
underwat,0.013296
uneconom,0.016894
unit,0.004159
unless,0.018483
unmachin,0.023875
urban,0.008650
usabl,0.025306
use,0.090983
usg,0.032170
usual,0.009925
util,0.007460
vacuum,0.010760
valu,0.005285
valuat,0.022819
varieti,0.006192
veri,0.009419
view,0.005285
virtual,0.008155
vital,0.018420
voge,0.022772
volum,0.021192
vs,0.009957
wa,0.030432
war,0.023433
wast,0.019785
water,0.006361
way,0.022047
weak,0.008192
weaken,0.010329
weaker,0.011743
welfar,0.028496
wellestablish,0.013852
west,0.007081
western,0.006203
wind,0.009798
wire,0.011914
withhold,0.014159
worker,0.023030
world,0.029267
worldlead,0.021668
worldwid,0.008366
wors,0.011340
worst,0.022750
year,0.024972
yield,0.008056
zairean,0.020885
zinc,0.051972
zirconiumtitanium,0.023875
