accumul,0.016616
act,0.009899
administr,0.012110
agent,0.014768
aggreg,0.036634
america,0.012138
american,0.029441
appar,0.014786
appear,0.010032
approach,0.019936
argu,0.011522
arnold,0.022016
assumpt,0.014757
attend,0.016527
autobiographi,0.026165
avail,0.010587
ba,0.023046
base,0.022641
befor,0.008919
behavior,0.012251
believ,0.010802
berkeley,0.020397
bibliographi,0.015189
biographi,0.040291
birth,0.015389
born,0.029507
brendan,0.031316
built,0.013019
busi,0.035320
businesscycl,0.036554
california,0.016021
capit,0.045505
carnegi,0.025260
carnegierochest,0.042997
case,0.008746
central,0.019611
centuri,0.008982
ch,0.022320
challeng,0.012495
chang,0.015772
channel,0.017267
character,0.013267
chicago,0.102290
child,0.016800
classic,0.034672
collabor,0.016069
collect,0.010204
concis,0.021308
confer,0.013771
consid,0.008159
contribut,0.051343
correl,0.016307
cost,0.012300
countri,0.027621
critiqu,0.071099
crown,0.018120
curv,0.017212
cycl,0.014342
decad,0.012717
decemb,0.012839
depart,0.012266
depict,0.017451
depressionprevent,0.044119
develop,0.055976
deviat,0.019854
dissert,0.023828
divorc,0.023505
doe,0.009466
doesnt,0.020919
doi,0.074089
domin,0.011513
drive,0.015032
driver,0.021444
drop,0.015356
duke,0.022063
dynam,0.026233
e,0.045349
earn,0.015832
econom,0.202796
econometr,0.024781
economi,0.011503
economist,0.031628
ed,0.011791
edit,0.013183
edmund,0.021431
edward,0.015323
eldest,0.027879
emerson,0.059163
encyclopedia,0.014506
endogen,0.025502
equilibrium,0.017604
evalu,0.014594
expect,0.081011
explan,0.014827
extern,0.006586
fact,0.010694
figur,0.012474
financ,0.013347
financi,0.012024
flow,0.026529
follow,0.007205
form,0.006884
foundat,0.046981
friedman,0.023280
fulli,0.013579
fund,0.012418
fundament,0.011534
futur,0.021940
galbc,0.042080
gener,0.006472
given,0.009033
graduat,0.050633
great,0.010151
gregg,0.032665
gregori,0.021909
ground,0.013106
growth,0.068404
h,0.012511
ha,0.024023
harberg,0.038593
harvard,0.017597
heidelbergnew,0.042080
herald,0.025320
hi,0.056531
hirofumi,0.042080
histori,0.030008
hold,0.021698
hous,0.012082
human,0.008677
idea,0.010109
ideasrepec,0.035321
immers,0.025957
implic,0.015693
incorpor,0.012368
industri,0.010280
inflat,0.033924
influenti,0.014486
inform,0.008954
intellectu,0.015451
interview,0.037248
investig,0.012620
investor,0.017159
irration,0.030174
isbn,0.031942
island,0.013349
jane,0.023740
joseph,0.014842
journal,0.023169
jr,0.095656
jstor,0.022661
kasper,0.038191
keynesian,0.024727
known,0.007525
labor,0.014786
laissezfair,0.025923
late,0.010425
law,0.009071
lectur,0.016373
led,0.009718
lewi,0.018900
liberti,0.038227
librari,0.028293
lifetim,0.019282
link,0.006547
list,0.008372
literatur,0.013453
longrun,0.024519
luca,0.818696
lucass,0.036841
macroeconom,0.142393
macroeconomist,0.033209
mani,0.006805
mankiw,0.033209
manufactur,0.014359
marri,0.018875
maxim,0.017124
mechan,0.011119
mellon,0.027684
method,0.009325
microeconom,0.046885
milton,0.022353
minit,0.041304
mit,0.018295
model,0.065652
monetari,0.064564
money,0.026912
n,0.013521
nanci,0.051005
nd,0.014009
need,0.009051
neutral,0.049441
new,0.026902
nobel,0.070108
note,0.017362
output,0.015715
paper,0.024847
paradox,0.019255
paul,0.013087
peopl,0.008301
perspect,0.013473
peter,0.013729
phd,0.038913
phelpss,0.044119
phillip,0.023300
pioneer,0.015728
plan,0.011402
polici,0.044569
policymak,0.024648
poor,0.014887
posit,0.008923
possibl,0.008806
practic,0.009237
prescott,0.030019
press,0.030485
previous,0.013162
price,0.025563
prize,0.064410
problem,0.009233
project,0.010683
provid,0.022981
public,0.017390
purpos,0.011230
quantiti,0.014063
quarter,0.017958
quasimarxist,0.045566
ration,0.059518
reason,0.009827
receiv,0.020923
recess,0.019598
recurs,0.023873
refer,0.005475
regard,0.010505
relationship,0.020904
releas,0.013684
research,0.008883
respons,0.009497
resurg,0.023422
return,0.033245
review,0.012269
reviv,0.017401
rich,0.015702
rita,0.032058
robert,0.168556
romer,0.033505
rubenstein,0.038191
s,0.015532
school,0.022281
semin,0.020944
sens,0.011267
septemb,0.013205
seri,0.010908
sherryl,0.042997
solut,0.013038
solv,0.028049
son,0.014591
sound,0.016045
springer,0.018445
state,0.006667
stephen,0.016928
stokey,0.079021
student,0.012970
studi,0.024160
substitut,0.016934
suggest,0.010668
supervis,0.018221
suppli,0.012423
taught,0.016990
templeton,0.035545
tepper,0.038191
th,0.008738
theoret,0.012495
theori,0.107190
trial,0.017389
trick,0.025472
true,0.012338
understand,0.010344
unemploy,0.017848
univers,0.063142
unleash,0.028572
unsystemat,0.033505
util,0.013786
uzawa,0.038593
uzawaluca,0.045566
version,0.013330
view,0.009767
wa,0.024993
washington,0.016778
websit,0.014410
welfar,0.017552
whi,0.028043
wide,0.009815
written,0.012065
yakima,0.045566
year,0.007690
york,0.011737
yorkdordrechtlondon,0.044119
