abov,0.010950
account,0.090667
accumul,0.032818
act,0.019551
activ,0.008534
adjust,0.016372
aggreg,0.018088
agricultur,0.012713
alway,0.034506
ani,0.022615
argu,0.011378
arnaldo,0.034271
asid,0.019507
asset,0.079061
avail,0.010455
averag,0.012776
avoid,0.012776
bank,0.061847
best,0.011367
boom,0.019566
broadli,0.017264
busi,0.011626
buy,0.032631
capit,0.101108
car,0.018253
case,0.008636
cash,0.069058
caus,0.046098
central,0.009683
chanc,0.016628
chang,0.015575
children,0.014206
classic,0.011413
close,0.009243
concis,0.021042
confus,0.015549
consid,0.024171
consum,0.027513
consumpt,0.080570
context,0.012153
contribut,0.010140
convert,0.014083
corn,0.043211
corpor,0.013555
correspond,0.025084
cost,0.012146
count,0.015756
crop,0.017081
cutback,0.032009
david,0.012272
deem,0.018697
defer,0.023871
defin,0.009481
definit,0.010924
dellamor,0.043568
demand,0.037004
deposit,0.147212
depreci,0.024688
depress,0.017165
determin,0.009594
detract,0.031889
develop,0.006909
differ,0.021972
directli,0.011101
dissav,0.041554
distinct,0.021281
doe,0.009348
econom,0.100131
economi,0.022719
economist,0.015616
ed,0.023289
element,0.010578
els,0.017129
emerg,0.010660
employ,0.011033
encyclopedia,0.014325
equal,0.011327
equat,0.013834
eventu,0.011822
exampl,0.029798
exceed,0.017467
exist,0.008271
expect,0.011428
expenditur,0.018391
extrem,0.011931
factori,0.018200
failur,0.014472
fall,0.034062
fdic,0.065038
feder,0.013243
finafrica,0.043568
financ,0.052721
financi,0.023749
fix,0.026404
flow,0.013098
fluctuat,0.018574
forego,0.031023
form,0.006798
franco,0.025403
frugal,0.030035
fund,0.049055
futur,0.043332
gather,0.015506
gener,0.019173
giordano,0.032009
glut,0.030201
good,0.009888
govern,0.008458
great,0.010024
greed,0.027531
gross,0.017390
growth,0.056292
ha,0.005930
happen,0.028115
harvest,0.019717
henc,0.013878
henderson,0.024945
higher,0.010574
hold,0.021427
hous,0.011931
household,0.035386
howev,0.021655
hunt,0.017950
ident,0.012735
immedi,0.013074
import,0.007585
includ,0.006174
incom,0.095364
increas,0.068425
indianapoli,0.025838
inelast,0.028103
instanc,0.012045
instead,0.010417
institut,0.009411
insur,0.034295
interchang,0.020358
interestfre,0.031772
intergener,0.032519
intermediari,0.022574
inventori,0.046259
invest,0.367251
investopedia,0.033729
involv,0.008622
isbn,0.010514
issu,0.009544
j,0.011170
journal,0.011440
kept,0.016025
keyn,0.024606
kotlikoff,0.040789
label,0.016001
larg,0.015673
laurenc,0.027244
lead,0.008872
liberti,0.018875
librari,0.013970
lifecycl,0.026512
literaci,0.021818
loan,0.069008
long,0.009654
loss,0.013005
lost,0.012921
lot,0.018314
lowrisk,0.033397
machineri,0.018337
make,0.007561
mani,0.013441
margin,0.016295
market,0.022260
mattress,0.071658
mauri,0.029955
mean,0.008188
measur,0.009738
mere,0.014627
method,0.009208
milan,0.024945
minim,0.015693
minu,0.021977
misunderstood,0.028387
mobil,0.015793
modigliani,0.032009
money,0.106305
mortgag,0.021961
n,0.013352
nation,0.016477
nd,0.013834
need,0.017876
nomin,0.031038
note,0.017145
number,0.007438
occur,0.009446
oclc,0.021415
otherwis,0.014143
overproduct,0.031023
page,0.014576
pay,0.013881
payment,0.016025
pension,0.020657
peopl,0.024593
person,0.058375
perspect,0.013304
physic,0.009729
pileup,0.084920
plant,0.012908
posit,0.008811
possibl,0.026089
present,0.017050
preserv,0.028741
prevent,0.012189
primit,0.018866
produc,0.008871
product,0.026658
profession,0.027631
propens,0.079536
provid,0.007564
prudenc,0.030550
purchas,0.029002
purpos,0.011090
r,0.011409
rate,0.105660
read,0.009391
realiz,0.015119
receiv,0.010330
recess,0.038707
recur,0.023089
recycl,0.046019
reduc,0.020487
reequat,0.043568
refer,0.037850
relat,0.014581
repay,0.045707
replac,0.011019
requir,0.008512
resourc,0.010947
respons,0.009378
rise,0.010881
risk,0.053219
role,0.009472
rule,0.009870
run,0.011883
save,0.767773
season,0.034948
seed,0.019186
servic,0.010535
short,0.023058
shortfal,0.028329
signific,0.009606
sinc,0.007525
someon,0.017579
someth,0.014469
sourc,0.009466
specifi,0.015300
spent,0.049902
start,0.009525
stash,0.037346
state,0.006584
stimul,0.016841
stock,0.072594
subtl,0.022258
suppli,0.012268
tax,0.014143
term,0.035555
therefor,0.020457
thi,0.028144
think,0.013050
thu,0.017594
thumb,0.026053
time,0.019975
tool,0.012050
transfer,0.012877
treat,0.013177
type,0.009047
typic,0.020192
unit,0.007590
unless,0.016864
unlik,0.012532
use,0.049192
usual,0.009056
vacat,0.025838
valu,0.009645
variabl,0.027513
veri,0.008594
versu,0.017566
vital,0.016807
wa,0.012340
way,0.008046
wealth,0.015497
wherea,0.026117
workforc,0.021163
worth,0.017039
