ab,0.003023
abahlali,0.005661
abandon,0.006763
abb,0.004193
abbrevi,0.002939
abdel,0.004406
abil,0.003321
abl,0.006098
abolish,0.015131
abolit,0.009510
abort,0.003371
abov,0.001545
absent,0.002941
absolut,0.006141
abstent,0.004310
absurd,0.003468
abus,0.002596
academ,0.003615
accept,0.001515
access,0.006679
accommod,0.002802
accompani,0.002333
accomplish,0.004851
accord,0.019310
account,0.004264
accru,0.007048
accumul,0.016207
achiev,0.018220
acknowledg,0.004654
acquir,0.001965
act,0.002758
action,0.002965
activ,0.020473
activist,0.005758
actor,0.002782
actual,0.009268
adam,0.002449
adapt,0.003843
addit,0.003663
address,0.005452
adher,0.002441
adjust,0.002310
administ,0.004731
administr,0.011812
admit,0.005090
adopt,0.013324
adult,0.002362
advanc,0.010434
advent,0.002639
advertis,0.002836
advoc,0.051795
advocaci,0.009799
aerospac,0.003468
affair,0.001995
affect,0.003154
affili,0.011043
affin,0.002965
affirm,0.002913
afloat,0.004627
africa,0.003920
african,0.016923
africanedit,0.005661
afrocentr,0.005176
afterward,0.002658
agenc,0.005696
agent,0.002057
aggreg,0.002552
agit,0.003589
agrarian,0.009817
agre,0.001819
agreement,0.001842
agricultur,0.003587
aid,0.001810
aim,0.017234
air,0.001854
aircraft,0.005361
albania,0.003631
alexandra,0.004406
alexi,0.003871
alfr,0.004946
alghifr,0.005661
alien,0.002828
align,0.005214
allegi,0.006444
allend,0.018066
allergi,0.004183
alli,0.004458
allianc,0.018058
alloc,0.024085
allow,0.004800
allrussian,0.010539
alon,0.004128
alongsid,0.002510
alreadi,0.005274
alsoedit,0.003799
alterglobalis,0.011323
altern,0.009305
altogeth,0.002992
amelior,0.003913
america,0.016914
american,0.013674
americanedit,0.005661
amid,0.003200
analys,0.007078
analysi,0.005819
analyt,0.002200
analyz,0.002028
anarch,0.049278
anarchafemin,0.005438
anarchafeminist,0.005438
anarchismedit,0.005661
anarchist,0.099503
anarchistinspir,0.005438
anarchocommunist,0.009784
anarchonatur,0.005377
anarchosynd,0.019687
anarchosyndicalist,0.028413
anarquista,0.005579
anc,0.004451
andalusia,0.004516
andor,0.002112
andrea,0.003211
andrew,0.002451
andrognit,0.005661
angelo,0.004204
ani,0.008509
annual,0.003708
anoth,0.009286
anteced,0.003453
anthoni,0.002850
antiauthoritarian,0.005019
anticapit,0.005176
anticapitalist,0.017999
anticoloni,0.004273
anticoup,0.005505
antidisord,0.005661
antiestablish,0.005019
antiforeign,0.005269
antiglobalis,0.010877
antiimperi,0.009067
antiindustri,0.005377
antiqu,0.002497
antisocialist,0.010267
antistat,0.005221
antithet,0.004391
antivietnam,0.004921
antiwar,0.004336
antnio,0.004172
anywher,0.002954
ap,0.003646
apparatu,0.006007
appeal,0.002247
appear,0.006989
appli,0.002580
applic,0.001441
appreci,0.002678
approach,0.005556
appropri,0.003869
approxim,0.001644
april,0.005539
arab,0.002229
aragon,0.003997
arbitrarili,0.003332
architect,0.003208
archiv,0.002221
area,0.005993
arent,0.003793
argentinian,0.004451
argu,0.035323
ariel,0.004193
aristotl,0.002488
arm,0.007697
armi,0.012456
armistic,0.003850
aros,0.004793
array,0.005267
arrest,0.002652
arriv,0.001942
articl,0.004303
articul,0.002914
artifici,0.002038
ascrib,0.003187
asia,0.006217
asianedit,0.005661
asid,0.002752
aspect,0.007931
assembl,0.009420
assert,0.006220
asset,0.006693
associ,0.021222
associationist,0.004921
assum,0.005016
astronaut,0.003676
atheist,0.006585
attack,0.007783
attain,0.004886
attempt,0.008260
attitud,0.002477
attle,0.013943
attribut,0.007504
august,0.007336
augusto,0.008078
aural,0.004835
auster,0.003423
australia,0.004195
australian,0.007530
austrian,0.002891
author,0.012230
authoritarian,0.015482
autom,0.002700
autonom,0.009762
autonomi,0.007565
autonomia,0.005579
autonomist,0.009337
avail,0.004426
avaric,0.004863
averag,0.001802
awar,0.002183
award,0.002127
away,0.005515
babeuf,0.005269
bakeri,0.004607
bakunin,0.022257
balanc,0.003820
bandung,0.004783
bank,0.010472
banner,0.003540
banqu,0.004323
barcelona,0.003775
bare,0.002972
bargain,0.009808
baron,0.003211
barri,0.003195
base,0.042066
basemjondolo,0.005661
basi,0.006013
basic,0.004392
batista,0.009567
battl,0.002279
battleground,0.004363
bauwen,0.005269
bavarian,0.004350
beacon,0.003942
bebel,0.005505
becam,0.019953
becaus,0.008764
beckett,0.004735
becom,0.022135
befor,0.004971
began,0.008719
begin,0.002838
begun,0.002313
behalf,0.002684
behaviour,0.002243
belgium,0.002856
belief,0.009740
believ,0.021072
bellami,0.009033
benefit,0.005298
berlin,0.005183
bern,0.008244
berni,0.004892
bernstein,0.015511
bertrand,0.006340
besancenot,0.005661
betray,0.007056
better,0.003282
bhikhu,0.005661
biennio,0.005438
biggest,0.002732
billion,0.004134
bind,0.002513
biographi,0.002807
black,0.005892
blair,0.003913
blame,0.005782
blanc,0.004551
blanqui,0.010755
blanquism,0.005661
blanquist,0.010877
bloc,0.011680
bloodiest,0.004712
board,0.002099
bob,0.003385
bobbio,0.005093
bodi,0.001460
bolivia,0.003741
bolivian,0.004391
bolshev,0.004835
bolshevik,0.057279
bolshevikl,0.005661
bolster,0.003519
bond,0.002078
book,0.006915
bookchin,0.009784
bookkeep,0.003989
bourgeoi,0.007362
bourgeoisi,0.007995
branch,0.003095
brazil,0.007802
brazilian,0.006710
brian,0.005953
bridg,0.002404
briefli,0.002699
bring,0.007236
britain,0.010251
britannica,0.005919
british,0.029248
broad,0.013683
broader,0.004853
broadest,0.003769
broadli,0.002436
broke,0.002495
brought,0.001793
broz,0.004690
brutal,0.003172
bubbl,0.003050
build,0.004620
built,0.001814
bulgaria,0.003298
bulgarian,0.003724
buonarroti,0.005321
bureaucrat,0.009674
burkett,0.005505
burlington,0.004420
busi,0.006562
c,0.001392
cabet,0.005661
cafiero,0.005438
calcul,0.011142
calogero,0.005377
came,0.007968
camilo,0.005221
cammel,0.005661
camp,0.002637
campaign,0.006564
campu,0.003453
canada,0.006262
cancer,0.002680
candid,0.015715
capabl,0.003838
capac,0.004040
capit,0.093528
capita,0.002645
capitalismedit,0.005661
capitalist,0.066225
capitalistbas,0.005377
capitol,0.004627
car,0.002575
care,0.009155
caribbean,0.005561
caribbeanedit,0.005661
carlo,0.005547
carpent,0.007624
carrara,0.005377
carri,0.004713
carson,0.004065
case,0.002437
cast,0.002475
castro,0.011827
catalonia,0.012646
catastroph,0.002892
categori,0.001859
categoris,0.011044
cathol,0.007060
caus,0.006504
ccf,0.011323
cdf,0.004588
centenni,0.004030
center,0.001554
centr,0.002004
central,0.027326
centralis,0.019030
centralisedplan,0.011323
centralist,0.004809
centuri,0.030039
centuryedit,0.015528
certain,0.004002
champion,0.006051
chang,0.008791
chantal,0.005176
characteris,0.014609
characterist,0.006720
charbonnag,0.005661
charg,0.003761
charl,0.014934
charter,0.002622
chartist,0.014278
chavez,0.004892
chernov,0.005661
chi,0.003491
chiang,0.012337
chicago,0.002375
chiefli,0.003160
child,0.002341
children,0.002004
chile,0.018917
chilean,0.007783
china,0.022472
chines,0.029332
choic,0.001915
chomski,0.003558
chri,0.003281
christian,0.011333
christofia,0.005438
church,0.004404
chvez,0.022416
circl,0.002348
circumv,0.003621
cite,0.002038
citi,0.008416
citizen,0.005984
civic,0.003175
civil,0.021736
claim,0.007398
clara,0.008114
class,0.040417
classbas,0.004759
classconsci,0.011323
classic,0.006441
classifi,0.003943
classless,0.004533
claus,0.003246
cleanest,0.005579
clear,0.001814
clearest,0.004350
clement,0.010498
cleyr,0.005438
clip,0.003655
close,0.002608
closur,0.003147
cnt,0.019343
coal,0.011369
coalit,0.018896
codetermin,0.004985
coerciv,0.007599
coher,0.005373
cohes,0.006325
coin,0.008074
cold,0.006970
cole,0.010176
collabor,0.006717
collaps,0.002147
collect,0.021329
collectiv,0.003806
collectivis,0.023563
collectivist,0.016862
colleg,0.002116
colombian,0.004112
colonis,0.003301
combin,0.015290
come,0.004182
comintern,0.019687
command,0.012271
commensur,0.004048
commerc,0.002429
commerci,0.005602
commiss,0.005822
commit,0.004086
committe,0.006274
commod,0.018927
common,0.015323
commonli,0.004856
commonwealth,0.002518
commun,0.057361
communeedit,0.005661
communion,0.004022
communist,0.168306
compani,0.006157
companion,0.005623
companionship,0.004809
compar,0.001441
compat,0.005593
compens,0.009855
compet,0.002009
competit,0.001916
complain,0.003165
complet,0.002692
complex,0.001426
compos,0.001849
comprehens,0.002147
compris,0.005982
compulsori,0.003083
comput,0.003230
conceiv,0.002559
concentr,0.005723
concept,0.023127
concern,0.008211
conclud,0.001993
concomit,0.004131
condemn,0.008237
condit,0.012276
conduct,0.006683
confeder,0.005819
confederacin,0.005093
confer,0.019189
conflict,0.009078
confus,0.002194
congress,0.017474
congressedit,0.005661
connect,0.001605
connot,0.003222
consciou,0.008647
conscious,0.014900
consensu,0.004863
consequ,0.004973
conserv,0.009675
consid,0.013643
consist,0.009133
conspir,0.003927
constitu,0.011414
constitut,0.013853
constraint,0.004841
construct,0.006038
consum,0.007764
consumpt,0.006821
contact,0.002045
contain,0.004195
contemporari,0.019069
contest,0.005129
context,0.008574
contin,0.010048
continu,0.004724
continua,0.004759
contract,0.001955
contractu,0.006928
contradict,0.010416
contradictori,0.003441
contrari,0.007647
contrast,0.013174
contribut,0.008585
control,0.040152
controversi,0.003842
convert,0.001987
convok,0.009843
cooper,0.039129
coordin,0.018599
corbyn,0.005377
core,0.006210
corpor,0.009563
corporat,0.004363
corporatis,0.005505
correa,0.004892
correct,0.007852
correspond,0.003539
corrupt,0.002393
cost,0.003428
costa,0.010359
costli,0.006076
council,0.017776
count,0.004446
counterpos,0.005579
countri,0.039771
countrysid,0.003195
coup,0.007964
covelli,0.005505
cover,0.001605
creat,0.011924
creation,0.007098
creativ,0.012595
credit,0.003773
cri,0.003598
crippl,0.003580
crise,0.006015
crisi,0.006035
criteria,0.002441
criterion,0.002927
critic,0.015774
criticis,0.014347
critiqu,0.007430
crosland,0.004985
cross,0.002127
crow,0.003857
crown,0.002524
crucial,0.004746
crush,0.008947
cuba,0.009310
cuban,0.010753
culmin,0.002583
cultur,0.008795
cunhal,0.005661
current,0.023713
cybernet,0.003483
cybersyn,0.005055
cypru,0.003249
czechoslovak,0.004588
czechoslovakia,0.011533
d,0.004734
daili,0.004560
danger,0.004580
daniel,0.004849
danish,0.003083
david,0.005195
day,0.008826
deal,0.001570
dean,0.003177
death,0.008537
debat,0.005444
debt,0.006782
decad,0.001772
deceiv,0.003713
decemb,0.005367
decentralis,0.035761
decentralisedplan,0.005661
decis,0.009862
decisionmak,0.008430
declar,0.007531
declin,0.001851
decolonis,0.004162
decre,0.005599
dedic,0.002341
deduct,0.002820
deep,0.004340
deepli,0.002752
defeat,0.011532
defend,0.006543
defici,0.003092
defin,0.010703
definit,0.010790
degener,0.003413
degrad,0.005593
degre,0.004789
del,0.002943
deleg,0.005505
deleon,0.005661
deliv,0.002297
demand,0.017405
democraci,0.060803
democrat,0.127984
demograph,0.002617
demonis,0.005505
demonstr,0.001752
denationalis,0.005661
deng,0.004273
denison,0.005055
denmark,0.011439
denot,0.004757
denounc,0.009473
denunci,0.004588
depend,0.002572
depict,0.002431
deplet,0.003042
depos,0.003206
deputi,0.002610
deregul,0.007205
deriv,0.002964
describ,0.010799
descript,0.001782
descriptor,0.004261
desert,0.002772
design,0.001431
desir,0.009174
despit,0.009918
destin,0.002728
destruct,0.004614
determin,0.004061
devaraj,0.005661
develop,0.021450
devin,0.004712
dewey,0.003617
dharr,0.005505
dichotomi,0.003507
dictatori,0.004162
dictatorship,0.022052
dictionari,0.004727
did,0.007235
die,0.003735
differ,0.021703
difficult,0.001700
digger,0.004985
digit,0.002176
diminish,0.005279
dimitri,0.004298
direct,0.015534
directli,0.009398
director,0.002344
disagr,0.002772
disavow,0.004451
disband,0.006777
discont,0.003348
discuss,0.003181
dishonesti,0.004668
disloc,0.003913
dismantl,0.006833
dismiss,0.005194
disorderin,0.005661
disorderli,0.004759
dispar,0.005991
displac,0.002501
dissatisfact,0.003598
dissid,0.003472
dissolut,0.005875
dissolv,0.004842
distant,0.002709
distinct,0.007507
distinguish,0.005192
distort,0.008258
distribut,0.008042
divers,0.005625
divid,0.003091
dividend,0.009400
divis,0.001689
dmoz,0.002582
docherti,0.005505
doctrin,0.004675
document,0.001882
doe,0.006595
doi,0.002580
dolgoff,0.010643
domest,0.002019
domin,0.006417
dont,0.005448
doubl,0.004316
doubt,0.002516
douglascoldwel,0.005661
dr,0.002418
draft,0.002516
drama,0.003292
draw,0.005995
drop,0.002139
drug,0.002299
dtat,0.003128
dublin,0.003612
durabl,0.003284
dure,0.024688
dutch,0.002394
dweller,0.004093
dwight,0.003831
dynam,0.005483
earli,0.024652
earlier,0.006937
earn,0.002206
eastern,0.009740
eastwest,0.003812
ecoanarch,0.005505
ecolog,0.017694
ecologist,0.010249
econom,0.107895
economi,0.121822
economicpolit,0.005221
economicsedit,0.005269
economist,0.019832
economyedit,0.016133
ecosoci,0.016133
ecosocialist,0.038539
ecuadorian,0.009067
ed,0.003286
edf,0.004759
edit,0.005511
eduard,0.010998
educ,0.007476
edward,0.006405
effect,0.010262
effici,0.009188
effort,0.008127
egalit,0.005661
egalitarian,0.007215
egoism,0.004261
egypt,0.002478
einar,0.004533
eject,0.003571
el,0.002822
elast,0.002939
elderli,0.003287
eleanor,0.004102
elect,0.062321
elector,0.005036
electr,0.001940
electricit,0.005377
element,0.008956
eli,0.003729
elimin,0.008119
elit,0.007818
elitist,0.004298
eln,0.005019
elsewher,0.004839
emancip,0.006717
embed,0.002729
embodi,0.010855
embrac,0.005295
emerg,0.019555
emil,0.003301
emilio,0.004141
emma,0.008078
emphasi,0.010644
emphasis,0.009488
empir,0.001637
employ,0.006227
employe,0.012296
enabl,0.001861
enact,0.005203
encapsul,0.007383
encompass,0.004394
encourag,0.001929
encyclopdia,0.003044
encyclopedia,0.008085
end,0.016682
endeavour,0.003388
endgoal,0.005505
endors,0.005555
engag,0.003717
engel,0.043461
engend,0.003671
engin,0.003382
england,0.008146
english,0.004904
enhanc,0.006521
enjoy,0.006703
enlai,0.004892
enlighten,0.005125
enorm,0.002527
enrico,0.003793
ensur,0.003856
entail,0.005478
enter,0.003431
enterpris,0.035348
enthusiast,0.003345
entir,0.004567
entiti,0.005974
entitl,0.002423
entrepreneurship,0.003549
entryist,0.005579
environ,0.004667
environment,0.015095
environmentalist,0.003935
episod,0.005765
epithet,0.003973
equal,0.023975
equat,0.001952
equilibrium,0.002453
equip,0.002098
equit,0.006999
equiti,0.002685
equival,0.003781
era,0.003708
erect,0.003182
errico,0.010352
escal,0.012161
especi,0.002725
espous,0.003332
essay,0.009097
essenc,0.002651
essenti,0.011421
establish,0.032567
estat,0.007495
estim,0.004955
etymologyedit,0.004759
eu,0.005111
eurocommun,0.015664
eurocommunist,0.005438
europ,0.025464
european,0.039471
europeanedit,0.005661
europeedit,0.005505
evas,0.003793
event,0.009164
eventu,0.008341
everi,0.004406
everyon,0.008129
everyth,0.007011
evo,0.004647
evolutionari,0.009249
exact,0.002239
exactli,0.002299
exalt,0.003965
exampl,0.007358
excess,0.011341
exchang,0.004977
exchangevalu,0.005019
exclus,0.004010
execut,0.003555
exemplifi,0.002990
exhaust,0.002744
exil,0.005361
exist,0.015173
exmazzinian,0.005505
expand,0.001660
expans,0.013862
expansionari,0.004172
expect,0.001612
expel,0.002829
expens,0.002096
experi,0.005773
explicit,0.002562
explicitli,0.002389
explod,0.003453
exploit,0.004369
export,0.002153
expos,0.002351
expound,0.003487
express,0.004562
extend,0.001548
extens,0.006339
extent,0.001931
extern,0.001835
extrotskyist,0.005661
fabian,0.025641
faction,0.011089
factor,0.007440
factori,0.015408
fail,0.003529
fall,0.001602
famili,0.003250
fanci,0.004151
far,0.001591
farabundo,0.010539
farleft,0.004712
farm,0.004683
fascin,0.003499
fascist,0.003479
fashion,0.002470
fast,0.002402
father,0.004127
fault,0.003152
favor,0.003877
favour,0.023080
feasibl,0.002851
februari,0.005720
feder,0.028031
federacin,0.004985
feel,0.002194
fela,0.005661
fell,0.004533
fellow,0.002653
fellowship,0.003368
femin,0.024525
feminist,0.009229
ferdinand,0.003172
fernand,0.003877
feudal,0.006064
fewer,0.002489
fidel,0.003558
field,0.001281
fifth,0.002499
fight,0.002202
figur,0.008691
file,0.002619
film,0.002380
final,0.003036
financ,0.007439
financi,0.008377
financialis,0.005438
finland,0.009415
firm,0.020962
fiscal,0.002660
fiveyear,0.002858
flaw,0.002992
flesh,0.003499
flexibl,0.002598
flourish,0.002583
fluctuat,0.002620
fmln,0.005176
focu,0.001721
focus,0.003267
follow,0.014055
forc,0.018869
foreign,0.008169
forese,0.003671
forgotten,0.003314
form,0.041251
formal,0.007852
format,0.001711
formul,0.006029
foro,0.005438
forti,0.003133
forum,0.005155
forward,0.002227
foster,0.002683
foundat,0.006546
founder,0.004399
fourier,0.019651
fourierist,0.011158
fourth,0.013139
fractur,0.003540
frame,0.002398
framework,0.007192
franc,0.037731
franci,0.002403
francoprussian,0.004204
frank,0.002457
frankfurt,0.003468
franoi,0.003103
franoisnol,0.005438
fratern,0.003850
fraternit,0.005221
frederick,0.002831
free,0.018636
freeden,0.005438
freedom,0.023775
freemarket,0.003697
freemen,0.004985
frelimo,0.005019
french,0.027025
frequent,0.001764
friedrich,0.012835
fsln,0.016133
fulgencio,0.004921
fulli,0.003784
function,0.008994
fund,0.001730
fundament,0.004821
furthermor,0.002150
fusion,0.002925
futur,0.003057
g,0.005093
ga,0.002111
gain,0.010688
gamal,0.004420
gang,0.003472
gaston,0.004122
gather,0.004376
gave,0.003652
gay,0.021535
gaz,0.004892
gdf,0.005377
gdh,0.005505
gdp,0.007081
gear,0.003185
gender,0.013453
gener,0.028859
generos,0.004193
geneva,0.010008
georg,0.001808
gerhardsen,0.005221
german,0.007089
germani,0.013228
ghana,0.003545
gift,0.002832
given,0.001258
global,0.003333
globalis,0.008205
globe,0.002858
goal,0.012084
gobetti,0.005438
goe,0.002258
goldman,0.007415
good,0.013953
gorbachev,0.004057
gosbank,0.005321
gosplan,0.005269
gossnab,0.005438
got,0.002831
govan,0.005579
govern,0.057288
government,0.002626
governmentlink,0.005221
gradual,0.006052
gradualist,0.014507
grant,0.007696
grave,0.003059
great,0.002829
greater,0.003161
greatest,0.002208
greatli,0.002055
greec,0.002372
greek,0.005331
green,0.021584
grenada,0.004183
grew,0.004194
groenlink,0.005438
gross,0.004907
ground,0.001826
groundbreak,0.003575
group,0.026039
grow,0.004828
growth,0.006354
guarante,0.006906
guard,0.007869
guardian,0.003101
guengl,0.005661
guerilla,0.004093
guerrilla,0.009571
guid,0.001774
guido,0.004065
guild,0.027807
guilt,0.003775
guinea,0.002963
guis,0.003905
h,0.006973
ha,0.020922
half,0.001727
hall,0.007143
halt,0.002859
hamburg,0.003681
hand,0.004665
happi,0.002775
happier,0.004391
happiest,0.004735
harm,0.004839
harri,0.002639
hawker,0.004953
hay,0.003503
head,0.003240
health,0.005249
healthi,0.002740
heavi,0.010845
height,0.005004
held,0.014838
hell,0.003464
help,0.002748
henc,0.001958
henri,0.008091
herber,0.005438
hi,0.042762
hierarch,0.002879
hierarchi,0.007672
higgin,0.004406
high,0.005083
higher,0.001492
highest,0.005765
highli,0.001652
highlight,0.002584
highlydemocrat,0.005661
highpressur,0.004436
highrank,0.003920
hightech,0.003775
hinterland,0.003957
hippi,0.004647
histor,0.012688
histori,0.003136
historian,0.002114
historyedit,0.004249
ho,0.003219
hoan,0.005505
hobhous,0.004953
hobson,0.004377
hodgkin,0.004215
hold,0.010582
homophil,0.005579
homosexu,0.014525
honorari,0.003235
hope,0.002136
hous,0.006734
household,0.002496
howev,0.009167
hugo,0.006391
human,0.024183
humanis,0.010352
hundr,0.001906
hung,0.003913
hungari,0.009323
hungarian,0.003235
hunter,0.003180
hutterit,0.004863
hybrid,0.002622
hyndman,0.005661
hypothet,0.002822
iberian,0.003528
ibrica,0.005269
iceland,0.003227
idea,0.029581
ideal,0.010210
identif,0.002472
identifi,0.009103
ideolog,0.042673
ignor,0.002176
ii,0.004927
iiedit,0.005661
illeg,0.002528
illegitim,0.003850
imaginari,0.003287
immedi,0.001844
immigr,0.002497
immut,0.007715
impedi,0.003898
imperi,0.014669
implement,0.012231
impli,0.005853
import,0.007493
impos,0.002158
imposs,0.002122
impossibilist,0.005661
improv,0.003088
inaugur,0.002899
incap,0.003381
incent,0.013065
inclin,0.003105
includ,0.037463
incom,0.009611
incorpor,0.001723
increas,0.003620
increasingli,0.009251
incur,0.003009
independ,0.010312
india,0.005764
indic,0.004631
indiffer,0.003468
indirectli,0.005409
individu,0.034953
individualist,0.007262
indonesia,0.011891
industri,0.053004
industrialis,0.007098
ineffici,0.005812
inelig,0.004436
inequ,0.018484
infiltr,0.003549
influenc,0.026264
influenti,0.018166
inform,0.003743
infrastructur,0.002124
infring,0.003764
inher,0.002405
initi,0.008182
injustic,0.003650
inkind,0.004712
innat,0.003087
input,0.013642
insid,0.002104
inspir,0.016612
instabl,0.005427
instead,0.005880
institut,0.017265
instrument,0.001932
insur,0.007258
insurrect,0.007362
insurrectionari,0.005019
integr,0.004543
intellectu,0.004306
intent,0.004224
interchang,0.002872
intermedi,0.002466
intern,0.056090
internationaledit,0.022647
internationalist,0.004499
internationalvienna,0.005661
internet,0.002058
interpret,0.001674
intertwin,0.007039
interven,0.005393
intoler,0.003655
introduc,0.005889
invest,0.007147
invit,0.002586
involv,0.008516
ireland,0.005246
iron,0.002247
irrat,0.003232
irretriev,0.005093
isc,0.015280
islam,0.006267
isol,0.004075
israel,0.005140
issu,0.009427
itali,0.013551
italian,0.016484
italiana,0.004162
item,0.002302
iv,0.002724
iwa,0.010111
iwusp,0.011323
iwuspedit,0.005661
j,0.001576
januari,0.014329
japan,0.002075
japanes,0.002391
jaroslav,0.004668
jawaharl,0.004607
jeremi,0.003311
jerri,0.003456
jewish,0.002601
jeyakumar,0.005661
jiang,0.004588
joe,0.003598
john,0.009992
join,0.005600
jomo,0.004953
joseph,0.006204
josip,0.004533
jr,0.002665
juch,0.004783
juli,0.005438
juliu,0.006386
june,0.001828
just,0.002926
justic,0.016968
karl,0.021244
kaunda,0.005019
ken,0.003483
kenneth,0.002816
kenyatta,0.005055
key,0.007985
keyn,0.003472
khrushchev,0.004183
kibbutz,0.014507
kibbutzim,0.009906
kill,0.008287
kind,0.001671
king,0.001998
kingdom,0.006677
kingsley,0.004533
kinnock,0.010352
knight,0.003143
knowledg,0.004735
known,0.014680
kollontai,0.005661
korea,0.007598
krogh,0.004084
kronstadt,0.019135
kropotkin,0.008755
kulak,0.005321
kuomintang,0.013218
kuti,0.005377
kwame,0.009618
label,0.004515
labor,0.020604
labour,0.093473
labourcredit,0.005661
labourmanag,0.005579
lack,0.003199
lag,0.003266
laid,0.004736
laird,0.004809
lamb,0.003781
land,0.015881
lang,0.003468
lanham,0.004065
lao,0.003580
larg,0.023222
larger,0.001656
largescal,0.002444
largest,0.008665
lassal,0.021079
late,0.014527
later,0.017470
latin,0.019721
launch,0.004226
law,0.013904
layer,0.002415
lcr,0.011011
lead,0.012519
leader,0.036696
leadership,0.009106
leagu,0.007723
leas,0.003167
led,0.028438
left,0.051851
leftedit,0.005661
leftist,0.016164
leftlibertarian,0.005093
leftnord,0.005579
leftw,0.017303
legaci,0.002638
legal,0.001731
legalist,0.008755
legisl,0.005763
legitim,0.002606
legitimaci,0.006422
lend,0.002695
lenin,0.066360
leninismbolshev,0.005505
leninist,0.004759
leon,0.012487
leonard,0.003232
leroux,0.005176
lessen,0.003336
lesser,0.002572
let,0.002351
leval,0.005579
levant,0.003536
level,0.012547
lewi,0.002633
leyland,0.004953
lgbt,0.007090
liber,0.062429
libert,0.004647
libertarian,0.063086
liberti,0.010653
libr,0.004102
life,0.013488
light,0.003459
like,0.014569
likelihood,0.002909
likewis,0.002485
limit,0.006407
line,0.001501
linguist,0.002466
linh,0.010442
link,0.001824
linksedit,0.003831
lise,0.004261
list,0.010500
live,0.021706
loach,0.005505
local,0.001421
localis,0.008061
logic,0.002030
lon,0.003758
london,0.003533
long,0.005449
longrun,0.003416
look,0.001732
loosen,0.003942
lopold,0.004647
lost,0.001823
lot,0.002584
lotta,0.005269
loui,0.007102
low,0.001608
lower,0.003100
lsi,0.015167
ludwig,0.002881
luther,0.003650
luxembourg,0.003566
luxemburg,0.012784
lvaro,0.004350
m,0.001500
macdonald,0.003824
machin,0.004051
machineri,0.002587
maduro,0.009425
magnitud,0.002588
main,0.009297
mainli,0.008709
maintain,0.004388
major,0.022262
make,0.010669
malatesta,0.010039
malaysia,0.006131
male,0.002353
malefemal,0.004350
man,0.005569
manag,0.021037
mancur,0.004953
mandat,0.002614
mandela,0.004627
mander,0.005321
mani,0.020863
manifest,0.004827
manifesto,0.009924
mankind,0.003027
manmad,0.003371
manner,0.002024
manufactur,0.004001
mao,0.003837
maoisminspir,0.005661
maoist,0.004336
march,0.012179
margaret,0.003065
margin,0.002299
marginalis,0.004204
mari,0.004847
maritim,0.005401
mark,0.005053
market,0.054968
marketbas,0.003850
marshal,0.002780
mart,0.008999
martin,0.002220
marx,0.058651
marxian,0.011292
marxism,0.022967
marxismedit,0.005661
marxismlenin,0.013175
marxist,0.062669
marxistleninist,0.003877
maryland,0.003483
mass,0.008603
massacr,0.003059
materi,0.014702
mattachin,0.005661
mauric,0.003128
maximis,0.011240
maximum,0.002281
maynard,0.003416
mayor,0.006365
mazdak,0.005019
mean,0.040441
meaning,0.002726
measur,0.008245
mechan,0.004648
media,0.001924
mediev,0.004475
medina,0.003965
medium,0.007175
meet,0.010185
mellor,0.005377
member,0.018741
men,0.007782
menshevik,0.004690
mention,0.002031
mep,0.004451
mere,0.002064
merg,0.002526
meritocrat,0.004809
metabol,0.002780
method,0.006497
metric,0.002817
mexican,0.003342
mexico,0.002617
mi,0.005290
michael,0.001930
michel,0.002876
midth,0.005177
midtol,0.004193
mikhail,0.009914
milan,0.003519
mileston,0.003368
miliband,0.005176
milit,0.013112
militari,0.010183
militaryl,0.005093
militaryplast,0.005661
militia,0.003246
million,0.013183
milwauke,0.004420
miner,0.002322
minework,0.005377
minh,0.004273
minim,0.002214
minimum,0.004577
minist,0.009465
ministeri,0.003495
ministri,0.002255
minor,0.005824
mise,0.003741
mission,0.002091
mitterrand,0.004892
mix,0.016144
mixtur,0.002623
mobilis,0.003831
mode,0.004724
model,0.035286
modeledit,0.005661
moder,0.002403
modern,0.017618
modernis,0.003617
modif,0.002493
modifi,0.002047
moi,0.004533
monarchi,0.002689
monasteri,0.003187
mondragon,0.005176
monetari,0.004498
monetarist,0.004112
money,0.018750
mongolian,0.008387
monopoli,0.005376
monstrou,0.004391
month,0.003707
moral,0.006296
morelli,0.005661
morri,0.009998
moscow,0.009017
mostli,0.001790
motiv,0.008198
mouff,0.005438
mould,0.003871
movement,0.098379
movementsedit,0.005661
movi,0.002869
mozambiqu,0.003593
muhammad,0.009041
mujer,0.005176
mulroney,0.005133
multiparti,0.002691
multipl,0.003227
municip,0.005113
municipalis,0.005661
murray,0.003034
muslim,0.007039
mutual,0.013278
mutualcredit,0.005221
mutualist,0.012425
myer,0.003935
nacion,0.003487
naivet,0.005505
nasser,0.008547
nation,0.025576
national,0.003598
nationalis,0.044366
nationalist,0.002720
nationwid,0.003187
natur,0.011200
naturist,0.005176
nazism,0.004093
ndp,0.009337
necess,0.005258
necessari,0.015048
necessarili,0.002053
need,0.011351
neg,0.001819
negoti,0.006588
nehru,0.008999
neil,0.003332
nelson,0.003170
neoclass,0.009525
neocommun,0.005661
neoliber,0.031753
nep,0.014676
nepal,0.007124
network,0.001753
new,0.019680
newli,0.004414
newsreel,0.004985
nguyen,0.004712
nicaragua,0.003764
nicaraguan,0.018591
nicol,0.003812
night,0.002573
nikita,0.004162
nineteenth,0.002624
nkrumah,0.009971
noam,0.003575
nomin,0.002189
nonalign,0.003464
noncompetit,0.004647
nonetheless,0.002624
nonhierarch,0.005055
nonmarket,0.017243
nonplan,0.005661
nonproduct,0.005055
norberto,0.005133
nordic,0.025352
nordicstyl,0.005438
north,0.008329
northern,0.007845
norway,0.008846
norwegian,0.003260
notabl,0.004829
notesedit,0.004310
noth,0.004440
novemb,0.007527
nuclear,0.002143
number,0.006297
numer,0.006217
nyerer,0.014676
object,0.014342
oblig,0.004633
obrero,0.005055
observ,0.004154
obsolet,0.006544
obtain,0.001630
occup,0.010930
occupi,0.002103
occur,0.001332
octob,0.009071
offens,0.002923
offer,0.003120
offic,0.006755
offici,0.006371
old,0.005207
older,0.002201
oldfashion,0.004285
olivi,0.003927
olson,0.003981
omit,0.003278
onc,0.001567
onli,0.019315
onlin,0.001836
open,0.001436
oper,0.006617
operaia,0.005661
operaio,0.005579
operateus,0.005579
opin,0.004261
oppon,0.002606
opportun,0.005945
oppos,0.028053
opposit,0.010358
oppress,0.015471
optim,0.002225
orchestr,0.003898
order,0.008093
organ,0.006866
organis,0.059591
orient,0.002186
origin,0.012789
ortega,0.004690
orthodox,0.008475
oscar,0.003655
otherwis,0.001995
ought,0.003011
oust,0.009834
outbreak,0.002854
outcom,0.002144
outdat,0.007448
outlin,0.002042
outlook,0.003007
output,0.008759
outsid,0.003201
outstrip,0.003989
overal,0.009601
overcom,0.005153
overlap,0.004663
overproduct,0.004377
overthrew,0.003540
overthrow,0.012186
overthrown,0.003385
owe,0.002553
owen,0.027838
owenit,0.015401
owner,0.018985
ownership,0.115803
oxford,0.001971
pact,0.003150
pai,0.004249
paid,0.002139
pain,0.005314
palestin,0.003308
panther,0.009067
parad,0.003973
paradigm,0.002542
parallel,0.002173
parekh,0.005377
pari,0.016060
parliament,0.019044
parliamentari,0.009610
parti,0.262660
partial,0.003859
particip,0.009930
participatori,0.003781
particular,0.009192
particularli,0.013242
partido,0.007900
partybuild,0.005661
pass,0.003259
passion,0.009451
past,0.001664
pat,0.003981
path,0.004254
patriot,0.003061
paul,0.001823
paulo,0.012171
pawn,0.004569
pawnshop,0.005661
pay,0.001958
payabl,0.003752
payment,0.004522
pce,0.005133
pcf,0.005321
pci,0.004863
pcp,0.004759
pe,0.003752
peac,0.008093
peasant,0.026329
peasantbas,0.005661
peertop,0.004420
pel,0.010267
pellouti,0.005505
pend,0.003540
pension,0.002914
peopl,0.034702
pepper,0.003724
perceiv,0.008439
percept,0.002233
perfect,0.004688
perform,0.005899
period,0.004986
perman,0.002033
permit,0.004273
persian,0.002636
person,0.009610
perspect,0.005632
persuas,0.003304
peter,0.007652
petrograd,0.009971
petroleum,0.002696
pev,0.005661
phalanster,0.005661
phase,0.004035
philadelph,0.005505
philipp,0.003355
philosoph,0.009207
philosophi,0.026793
physic,0.002745
physician,0.002646
piero,0.004141
pierr,0.002700
pierrejoseph,0.017868
pink,0.003799
pinochet,0.008841
pit,0.003323
place,0.010678
plan,0.076266
planet,0.002380
planner,0.006659
plato,0.002763
play,0.004544
player,0.002745
pledg,0.002974
plenti,0.003298
podemo,0.005176
point,0.012170
poland,0.002866
polaris,0.003877
polic,0.002333
polici,0.037262
policiesgo,0.005579
polit,0.097442
politician,0.007551
politicsedit,0.010539
poll,0.002920
poor,0.010372
popul,0.005971
popular,0.010507
portion,0.002108
portrait,0.010207
portug,0.008408
portugues,0.008012
posit,0.006217
positiv,0.006833
possess,0.005656
possibl,0.006135
post,0.002036
postcapitalist,0.005093
postpon,0.003416
postul,0.002588
postwar,0.008560
potenti,0.006230
poter,0.005579
poverti,0.014849
power,0.029548
powerrel,0.005579
practic,0.010297
pragu,0.003787
prais,0.005626
preced,0.004558
precedentsedit,0.005661
preclud,0.003449
precursor,0.002620
predic,0.003320
predict,0.003520
predomin,0.002744
predominantli,0.002670
prefer,0.005526
preliminari,0.003208
premier,0.006023
premis,0.002822
present,0.008420
preserv,0.004055
presid,0.022618
presidenti,0.004920
press,0.001415
pressur,0.003622
presupposit,0.003981
prevail,0.002545
prevent,0.005159
previou,0.007257
previous,0.001834
price,0.012467
priest,0.002848
primarili,0.003289
prime,0.011597
princip,0.001879
principl,0.021662
prior,0.001817
privat,0.039676
privatesector,0.008476
privatis,0.007563
problem,0.003860
probusi,0.005221
procapitalist,0.005505
process,0.007961
proclaim,0.005443
produc,0.021280
product,0.097804
productivist,0.005377
profil,0.002597
profit,0.027022
profound,0.002744
program,0.004540
programm,0.006937
progress,0.018036
project,0.001488
proletariat,0.011992
promin,0.013206
promot,0.013729
prompt,0.002633
promulg,0.003067
properti,0.017480
prophet,0.003157
propon,0.002520
proport,0.003978
propos,0.016327
proprietor,0.003920
prosper,0.002487
protect,0.001603
protest,0.035773
protosocialist,0.005505
proudhon,0.021888
proudhonist,0.005579
provid,0.011741
provinci,0.002909
provis,0.002343
provision,0.012194
provok,0.003078
ps,0.003691
pseudonym,0.003898
pt,0.003584
public,0.038772
publicli,0.010298
publish,0.005341
puerto,0.003460
pull,0.002760
purchas,0.004092
purpos,0.004694
pursu,0.004376
pursuit,0.002712
putsch,0.004809
putschism,0.005661
quantiti,0.001959
quarter,0.010009
question,0.004532
quickli,0.001958
quit,0.002033
quran,0.003487
r,0.001609
race,0.002363
rachel,0.003864
radic,0.026465
rafael,0.003691
rail,0.009083
rais,0.005323
ralli,0.003167
rang,0.007220
rank,0.006093
rankandfil,0.005176
rapid,0.004170
rapidli,0.004056
rappoport,0.005505
rate,0.002981
ratio,0.002169
ration,0.006220
reach,0.001550
reaction,0.001956
reactionari,0.003799
read,0.002650
readingedit,0.004285
reagan,0.003612
real,0.001583
realis,0.003076
realtim,0.003198
reason,0.001369
rebellion,0.013621
receipt,0.003289
receiv,0.004373
recent,0.001321
recess,0.002730
reclu,0.004835
recognis,0.007067
reconstruct,0.004782
recoveri,0.002540
red,0.006344
redefin,0.006750
redgreen,0.018942
redistribut,0.009518
reduc,0.005781
reduct,0.006586
redund,0.006750
reelect,0.006215
reestablish,0.002906
reevalut,0.005661
refer,0.012970
referencesedit,0.003758
reform,0.042927
reformist,0.018279
refus,0.004453
regard,0.004391
regardless,0.002306
regim,0.008893
region,0.004099
regul,0.003612
regulatori,0.002640
reinvest,0.003746
reject,0.028214
rel,0.002736
relat,0.010287
relationship,0.007282
releas,0.001906
relev,0.001995
religi,0.007796
religion,0.003886
remain,0.011357
remiss,0.004607
remov,0.001761
remuner,0.015925
renam,0.002648
renationalis,0.005269
renault,0.004627
render,0.002502
renov,0.007637
rent,0.011751
reorganis,0.003935
replac,0.009329
report,0.004399
repres,0.010013
represent,0.003849
repress,0.011510
republ,0.041188
republican,0.005451
requir,0.006005
reserv,0.002029
resid,0.004042
resist,0.001977
resourc,0.020081
respect,0.014510
respond,0.006173
respons,0.009263
restor,0.004315
result,0.012754
resurg,0.003263
resurrect,0.006770
retain,0.008026
return,0.004632
revenu,0.006677
revers,0.002100
revert,0.003339
revisit,0.003528
revolt,0.008333
revolut,0.096399
revolutionari,0.070420
revolutionedit,0.010539
reward,0.002639
reword,0.005019
reybaud,0.005505
reynold,0.003636
rgie,0.005321
rgime,0.003973
rican,0.004310
ricardian,0.008934
ricardo,0.003468
rich,0.002188
richard,0.003769
rift,0.003503
right,0.032861
rightlean,0.005377
rightw,0.003519
riot,0.003048
rise,0.012283
risk,0.001877
rite,0.003388
rival,0.002520
rmt,0.010267
robert,0.011743
roch,0.004141
role,0.021386
roman,0.004093
romania,0.003200
romanov,0.004953
romant,0.003246
romantic,0.003671
rome,0.005210
ronald,0.002725
rongji,0.005269
root,0.005782
rosa,0.007715
rose,0.002315
rosselli,0.005377
rosso,0.005055
rout,0.002297
royal,0.002013
royalist,0.003799
rule,0.012535
run,0.011737
runoff,0.003479
rural,0.004935
russel,0.005348
russia,0.015697
russian,0.029040
s,0.030300
sacrific,0.003107
said,0.004703
saint,0.002551
saintsimon,0.032988
saintsimonian,0.005505
salari,0.005644
salleh,0.005661
salvador,0.014063
salvadoran,0.004921
salvadorean,0.005377
sam,0.006777
samesex,0.004057
samuel,0.002712
sander,0.006928
sandinista,0.009618
sasa,0.005438
saskatchewan,0.004499
satisfact,0.003160
satisfi,0.004526
sauvi,0.011323
saw,0.007468
say,0.003306
scale,0.001726
scandinavianstyl,0.005661
scarciti,0.003187
scarecrow,0.004215
scenario,0.002763
scene,0.002748
scheme,0.006889
scholar,0.003875
school,0.006209
schumpet,0.008061
scienc,0.002566
scientif,0.009212
scientificedit,0.005505
scientist,0.001744
scope,0.002243
scorn,0.004131
seat,0.013547
seattl,0.003707
second,0.012522
secret,0.002354
secretari,0.002492
secretarygener,0.003905
sect,0.003195
section,0.003781
sector,0.016003
secular,0.005281
secur,0.003242
seek,0.008560
seen,0.002994
segment,0.002614
seidel,0.005133
seiz,0.002623
seizur,0.003402
selfconsci,0.003818
selfdescrib,0.004377
selfdirect,0.004607
selfgovern,0.006051
selfish,0.003575
selfmanag,0.049009
selfregul,0.003758
sell,0.002158
senat,0.002617
seneg,0.003671
senghor,0.005019
sens,0.003140
sent,0.002114
separ,0.001393
septemb,0.001840
seri,0.004560
servic,0.019325
set,0.002363
settl,0.002168
sever,0.005535
sewal,0.004285
sex,0.002641
sexual,0.012536
sf,0.003957
shack,0.004735
shape,0.001818
share,0.013381
shift,0.003698
shipbuild,0.014986
shockwav,0.004647
short,0.001626
shortli,0.002374
shown,0.001840
si,0.006678
siddeley,0.005505
sieg,0.006325
siey,0.004985
signal,0.002195
signifi,0.003078
signific,0.008133
significantli,0.001958
silent,0.003162
similar,0.010144
simon,0.005102
simpli,0.001732
simultan,0.002225
sinc,0.006371
sindacal,0.005377
singapor,0.005596
singl,0.005684
singleparti,0.004467
sinosoviet,0.009380
sit,0.002807
sixth,0.002819
sixyear,0.003793
skill,0.002045
skou,0.005176
slate,0.003681
slaveri,0.005596
slight,0.003170
slightli,0.002301
small,0.006497
smaller,0.001805
socal,0.002142
social,0.367435
socialdemocrat,0.022257
socialis,0.017744
socialismedit,0.033971
socialist,0.536884
socialista,0.004627
socialistinspir,0.005321
socialistlean,0.005661
socialistori,0.010352
socialistrevolutionari,0.016316
socialistrun,0.005661
socialpolit,0.005133
sociar,0.005661
societa,0.004569
societi,0.079826
socioeconom,0.003067
softwar,0.002249
sold,0.006727
soldier,0.004832
sole,0.006466
solidar,0.009799
solut,0.001816
someon,0.002480
someth,0.002041
sometim,0.002764
somoza,0.004921
song,0.002816
sorel,0.005055
sort,0.002227
sought,0.008274
soul,0.002741
sourc,0.001335
south,0.004988
soviet,0.101202
sovietimpos,0.005661
soviettyp,0.009671
sp,0.003255
spacecraft,0.003348
spain,0.020309
spanish,0.027557
spark,0.005620
spartacist,0.005579
spd,0.014590
special,0.001328
specialist,0.007904
specif,0.007623
spectacular,0.003697
spenc,0.004323
sphere,0.002376
spiritu,0.002446
split,0.004364
spontan,0.005488
spread,0.003754
spring,0.007185
spur,0.005964
squat,0.004712
sr,0.003566
st,0.003423
stabilis,0.003617
stage,0.012981
stakehold,0.003413
stalin,0.024441
stalinist,0.004172
stanc,0.008781
stand,0.001995
standard,0.004290
start,0.004032
state,0.092913
statecontrol,0.009103
statedirect,0.010187
stateedit,0.005661
stateless,0.004151
statement,0.001949
stateori,0.005505
stateown,0.012506
stateownership,0.005055
statesector,0.005438
statism,0.004712
statistician,0.003545
statu,0.001773
stay,0.002324
stcenturi,0.004005
steel,0.007979
stem,0.002386
step,0.003601
stiglitz,0.004005
stock,0.002048
stockholm,0.003575
stonewal,0.005093
stood,0.002856
storm,0.002974
strateg,0.004635
strategi,0.007912
strength,0.004307
strenuou,0.004451
stress,0.002177
strike,0.014172
strive,0.003044
strong,0.006171
stronghold,0.003456
strongli,0.004093
structur,0.011166
struggl,0.008903
stuart,0.011780
student,0.001807
studi,0.004488
stunningli,0.005176
style,0.002188
su,0.003263
subject,0.001350
subordin,0.002930
subsequ,0.004971
substanti,0.003942
substitut,0.004719
succeed,0.004341
success,0.009857
successor,0.002385
suez,0.003691
suffer,0.001938
suffici,0.007852
suffrag,0.003121
suggest,0.002973
suharto,0.004690
sukarno,0.009177
sun,0.004711
superabund,0.005321
superpow,0.003650
supervis,0.002539
suppli,0.005193
support,0.030301
suppress,0.007295
surplu,0.002793
surpris,0.002792
survey,0.002041
suspect,0.002837
suspend,0.002639
sustain,0.006231
sv,0.004310
swan,0.003818
sweden,0.007957
swedish,0.005792
switzerland,0.002721
sympathi,0.003479
syndic,0.038313
syndicalismedit,0.005661
syndicalist,0.009971
syndicat,0.005377
synonym,0.005300
synthet,0.002633
syriza,0.011011
systemat,0.002028
t,0.001847
tacit,0.003831
tactic,0.002823
taiwan,0.002988
taken,0.006219
talent,0.006276
tank,0.002941
tanzania,0.003566
target,0.003954
tawney,0.004953
tax,0.007982
taxat,0.010443
taxpayerfund,0.005321
teach,0.002080
technic,0.013220
techniqu,0.001631
technocrat,0.012041
technolog,0.013779
temporari,0.002504
tend,0.005231
tendenc,0.011922
tent,0.003258
term,0.028095
terminolog,0.002500
territori,0.001858
tet,0.004835
text,0.001831
th,0.028005
thatcher,0.003877
theatr,0.002999
theme,0.002351
themselv,0.015751
theolog,0.002588
theoret,0.005223
theori,0.022404
theoris,0.007915
theorist,0.012374
theoryedit,0.005019
therebi,0.008791
therefor,0.012990
thesi,0.002627
thi,0.023827
thing,0.005069
think,0.001841
thinker,0.005134
thoma,0.007598
thoreau,0.004377
thorningschmidt,0.005438
thought,0.012039
thousand,0.003745
thu,0.012413
tide,0.003301
tienn,0.004074
tiennegabriel,0.005661
tight,0.006482
time,0.016911
tip,0.002961
tito,0.008755
tlatelolco,0.005438
today,0.004576
toni,0.003289
took,0.016588
tool,0.003400
torr,0.003844
total,0.005926
tour,0.003063
trabajo,0.004892
trabalhador,0.005221
trace,0.002036
trade,0.023041
traderel,0.009567
tradeunion,0.005055
tradit,0.008023
train,0.001833
trait,0.002516
transfer,0.001817
transform,0.006952
transit,0.012941
transnat,0.003764
transplant,0.003545
transport,0.003640
trelawni,0.004892
tremend,0.003085
trend,0.002028
tri,0.005014
trotski,0.057112
trotskyist,0.019568
troubl,0.002788
true,0.005158
tsarist,0.004285
tsipra,0.005438
turin,0.004151
turn,0.004404
twentieth,0.007515
twentyfirst,0.003607
type,0.008936
typic,0.001424
ujamaa,0.005093
uk,0.019463
ukrain,0.003172
umbrella,0.003162
unabl,0.011033
unchalleng,0.004377
uncomfort,0.003973
uncoordin,0.004835
undemocrat,0.004436
undermin,0.002814
understand,0.001441
understood,0.001992
undertaken,0.005472
undesir,0.003320
unemploy,0.012435
unequivoc,0.003927
unfeas,0.004451
unfulfil,0.004712
unhind,0.004735
union,0.066274
unionis,0.004953
unionist,0.011783
uniontwoandahalf,0.005661
uniqu,0.003621
unit,0.033202
uniti,0.002334
univers,0.006598
unlik,0.001768
unmarri,0.004204
unnecessari,0.006271
unrealist,0.003475
unregul,0.003752
unrip,0.005438
unsustain,0.007031
unwork,0.004569
upheld,0.003718
upper,0.004288
upris,0.014743
urg,0.002802
uruguayan,0.004569
usa,0.004741
usag,0.004454
usback,0.004985
use,0.030368
user,0.002355
usevalu,0.018675
usher,0.003252
usin,0.005438
uss,0.003566
ussr,0.024543
usual,0.005111
usufruct,0.005055
util,0.007684
utilis,0.017458
utilitarian,0.003365
utopian,0.044303
valu,0.012249
valuat,0.002937
van,0.002322
vanek,0.004921
vanguard,0.007755
vanguardist,0.005579
vari,0.004696
variant,0.010289
variat,0.005971
varieti,0.006377
variou,0.012088
varnish,0.004809
vast,0.002132
venezuela,0.009774
venezuelan,0.007978
veri,0.001212
vermont,0.008303
version,0.001857
versu,0.012393
vertic,0.002747
vicepresid,0.003430
victor,0.002858
victori,0.009837
vienna,0.006076
vietnam,0.017266
vietnames,0.010661
view,0.023137
vincent,0.003365
violent,0.005244
virtual,0.002100
vision,0.006900
vladimir,0.012087
voltairin,0.005438
voluntari,0.005875
von,0.002153
vote,0.010068
voucher,0.004363
wa,0.127990
wage,0.016333
walden,0.004499
wall,0.004496
walra,0.004249
want,0.009802
war,0.040728
waredit,0.005661
warfar,0.002693
warn,0.002553
warsaw,0.003691
wasnt,0.003519
wast,0.007641
watson,0.003165
way,0.011354
weaken,0.002659
wealth,0.010933
weimar,0.004112
weitl,0.005505
welfar,0.031796
wellorgan,0.004499
went,0.001947
west,0.001823
western,0.015973
wherea,0.001842
wherebi,0.007198
white,0.002016
wide,0.009573
widescal,0.004627
widespread,0.008160
wild,0.005448
wildcat,0.004783
wilhelm,0.002673
william,0.003403
win,0.007163
wing,0.014455
wish,0.002347
withdraw,0.002552
wither,0.007978
wobbl,0.004467
wolff,0.007675
woman,0.005302
women,0.014146
won,0.012897
word,0.010318
work,0.037476
worker,0.104766
workermanag,0.005321
workforc,0.002986
workingclass,0.024083
workingmen,0.009843
workmen,0.004551
workplac,0.016664
worksit,0.005093
world,0.033374
worldedit,0.005377
worldview,0.003258
worldwid,0.008617
worth,0.004808
wrack,0.004863
write,0.003320
written,0.001681
wrote,0.003618
xiaop,0.004588
yarrow,0.005133
yatsen,0.009177
ye,0.003388
year,0.007501
yearold,0.003094
youth,0.005356
yugoslavia,0.017945
zealand,0.002524
zeidler,0.005579
zemin,0.005093
zetkin,0.011323
zhou,0.003775
zhu,0.004048
zionist,0.004323
