abov,0.022112
activ,0.017234
advanc,0.021332
advoc,0.029649
affect,0.045141
alleg,0.035714
analyz,0.029033
anywher,0.042277
argu,0.022977
associ,0.033745
augment,0.044476
augustu,0.051106
becaus,0.015677
becom,0.016671
behav,0.037044
behavior,0.024430
berlin,0.037091
better,0.023485
bonheur,0.081026
bring,0.025890
broadli,0.034862
c,0.019931
capit,0.022685
capita,0.037857
car,0.036858
care,0.026204
case,0.017440
cassel,0.062061
caus,0.018617
chang,0.110082
chapterpreview,0.129273
choos,0.030006
citi,0.024089
civil,0.023927
classifi,0.028216
close,0.018665
commun,0.018241
compar,0.020633
confirm,0.030076
consid,0.032540
constantli,0.038891
consumpt,0.032539
contemporari,0.027289
convalescens,0.090864
countri,0.036719
creat,0.034129
critic,0.020521
crowd,0.043478
decis,0.023522
declin,0.026488
describ,0.017171
descript,0.025502
develop,0.013952
differ,0.059160
digniti,0.099708
disciplin,0.025707
distinct,0.021487
distribut,0.023019
doctrin,0.033457
domest,0.028907
doran,0.068109
drought,0.045547
dysfunct,0.049910
ecolog,0.031652
econodynam,0.081026
econom,0.330868
economi,0.137633
educ,0.021398
effect,0.065270
emphas,0.029478
employ,0.022279
entir,0.021786
environ,0.044530
equal,0.022874
especi,0.019504
essenc,0.037942
ethic,0.030913
exampl,0.045128
exclud,0.031597
expect,0.023077
extent,0.027637
extern,0.013133
factor,0.021297
factori,0.036751
faulti,0.053949
fear,0.031516
field,0.036685
fish,0.031338
focu,0.024641
foreword,0.054647
format,0.024497
forum,0.036889
freedom,0.141768
friedrich,0.036736
ga,0.030217
gdp,0.033779
gener,0.025812
global,0.023852
goal,0.024704
governor,0.032967
greater,0.022622
greatli,0.029412
gross,0.035117
group,0.032402
growth,0.022734
gustav,0.045957
ha,0.011976
hand,0.022254
happi,0.039713
harder,0.044641
harm,0.034626
health,0.025039
hellmich,0.090864
heterodox,0.052683
higher,0.042704
histori,0.014959
human,0.017304
iconoclasm,0.069598
impact,0.049228
improv,0.044203
includ,0.024936
incom,0.055020
increas,0.051814
indic,0.022094
individu,0.018526
inequ,0.037789
institut,0.019005
interact,0.022409
intern,0.015739
journal,0.023100
kelley,0.064394
known,0.015006
law,0.018089
lesstang,0.083912
level,0.053867
liber,0.027072
life,0.038604
link,0.052225
literaci,0.044059
litig,0.053139
local,0.040673
m,0.021474
mainstream,0.036438
mani,0.013571
manipul,0.032148
market,0.044950
marriag,0.037959
max,0.036691
mayb,0.054379
measur,0.019665
method,0.037190
metric,0.040322
mise,0.053536
mitchel,0.050313
mobil,0.031892
multidisciplinari,0.044911
n,0.053927
narrowli,0.046665
natur,0.016028
neg,0.026035
neglect,0.039274
new,0.026822
norm,0.034824
note,0.017310
onli,0.013820
overal,0.054959
overview,0.060168
overwhelmingli,0.048691
particip,0.023685
particular,0.018793
pattern,0.025617
paul,0.026098
peopl,0.049661
person,0.039293
phase,0.028872
philosoph,0.026353
philosophi,0.025562
phone,0.042846
physic,0.039293
pokrovskii,0.078788
polici,0.022218
polit,0.018844
practic,0.018420
preclud,0.049362
premis,0.040387
press,0.020263
process,0.016276
product,0.035888
profund,0.071347
progress,0.023465
prolong,0.043780
promulg,0.043903
prosper,0.035592
protect,0.022946
purchas,0.029282
pursuit,0.038816
qualiti,0.025652
rate,0.021336
reciproc,0.041017
reconstruct,0.034217
refer,0.021837
regard,0.020948
region,0.019553
regress,0.043071
regul,0.025849
relat,0.014722
relationship,0.041685
remark,0.033490
reprint,0.083984
research,0.017714
result,0.015209
review,0.048931
routledg,0.038910
safeti,0.035194
scienc,0.055093
scroll,0.107399
section,0.027055
select,0.023743
selfinterest,0.049362
shape,0.026025
shorter,0.038872
sign,0.025020
simon,0.036511
situat,0.023397
size,0.023665
small,0.018595
social,0.405965
societi,0.152315
socioeconom,0.482934
socioeconomist,0.090864
sociolog,0.036006
sometim,0.019782
sort,0.063748
spend,0.031543
springer,0.036782
stagnat,0.045511
stock,0.029318
studi,0.080298
supplement,0.037623
technolog,0.021910
tend,0.024954
term,0.057437
territori,0.026598
theme,0.033656
theori,0.053437
therefor,0.020654
time,0.026890
trade,0.021982
treati,0.031735
trend,0.058052
true,0.024605
umbrella,0.045260
usag,0.063748
use,0.024834
usual,0.018287
v,0.027096
valu,0.019477
vladimir,0.043244
von,0.030821
vs,0.036691
washington,0.033457
way,0.032497
wealth,0.031294
weber,0.046463
wesley,0.052036
widerang,0.053062
wieser,0.072893
