abandon,0.019862
abil,0.007314
abov,0.006806
accord,0.005316
account,0.025046
action,0.013064
actor,0.036766
actual,0.006804
addison,0.017173
addit,0.010757
advanc,0.006566
advantag,0.008252
affect,0.027789
aircraft,0.011807
al,0.009119
alreadi,0.015490
altern,0.027325
amankwahamoah,0.027080
ambigu,0.012492
amo,0.016820
analysi,0.006408
analyz,0.008936
ancillari,0.018072
ani,0.009371
anim,0.007441
appar,0.009075
appear,0.024631
approach,0.012237
area,0.005280
argu,0.014145
ark,0.071482
articl,0.006318
ask,0.017577
assess,0.009055
assum,0.014730
attempt,0.006064
averag,0.039705
avers,0.092704
avoid,0.031764
ayton,0.027080
bad,0.010906
bade,0.024576
base,0.004632
basebal,0.035005
bauman,0.021422
becam,0.011719
becaus,0.033779
becom,0.005131
behav,0.011402
behavior,0.052638
believ,0.006630
benchmark,0.014585
benefit,0.015558
bernheim,0.021817
best,0.007065
bet,0.097298
bettor,0.051657
bia,0.036672
blumer,0.044873
book,0.006092
brand,0.025914
british,0.014315
broad,0.008610
build,0.006783
built,0.007991
bulletin,0.014414
busi,0.050585
buy,0.010141
bygon,0.045226
calcul,0.008180
cambridg,0.008503
cancel,0.012161
car,0.034035
cartoon,0.017434
case,0.026841
cash,0.010730
caus,0.005730
centr,0.008828
chanc,0.041342
chang,0.009681
character,0.016286
charg,0.008285
chiefli,0.013920
choic,0.016872
choos,0.018472
chosen,0.009811
claim,0.006517
classic,0.014187
classifi,0.008685
cognit,0.010179
collabor,0.009863
commerci,0.008226
commit,0.053999
common,0.010384
compani,0.033902
complet,0.011861
concern,0.006028
conclud,0.008782
concord,0.053043
condit,0.042059
confid,0.010984
confirm,0.009257
consid,0.020032
consider,0.007216
constraint,0.010662
construct,0.006649
consum,0.008550
content,0.008473
context,0.007554
continu,0.010406
contract,0.008614
contrast,0.007254
correspond,0.015591
cost,0.483201
cours,0.007484
critic,0.006316
criticis,0.012639
current,0.005497
d,0.013903
daniel,0.010681
data,0.020560
deal,0.006917
decemb,0.007880
decid,0.008368
decis,0.137564
decisionmak,0.123784
deem,0.023243
defin,0.005893
demot,0.019748
depart,0.007529
depend,0.011332
deriv,0.006529
descript,0.007849
despit,0.007281
develop,0.004294
differ,0.009104
disappoint,0.014736
disast,0.011863
disposit,0.014625
disson,0.018618
distinct,0.013227
distinguish,0.007624
divid,0.006809
dividend,0.013803
divis,0.007442
doe,0.005810
doesnt,0.012840
doi,0.011368
doijsma,0.027080
dollar,0.020068
door,0.013429
dyson,0.017990
earli,0.005171
earlier,0.015279
econom,0.118817
economicsi,0.027080
economist,0.058239
ed,0.014475
edit,0.024275
effect,0.025113
effici,0.008095
element,0.006575
emphas,0.009073
employ,0.006857
end,0.005652
endow,0.013095
enjoy,0.009842
enorm,0.011135
enterpris,0.009731
environ,0.006853
equal,0.007040
error,0.009831
escal,0.013392
estim,0.007275
et,0.008887
evalu,0.008958
event,0.020184
everi,0.006469
evid,0.014100
exampl,0.046303
exchang,0.007308
exclus,0.008832
expect,0.007103
expenditureth,0.027080
expens,0.018467
experi,0.012715
explan,0.009100
extens,0.006981
extra,0.035522
facil,0.019820
fact,0.013128
factor,0.006555
factori,0.011312
fail,0.015546
failur,0.008995
fair,0.010471
fallaci,0.161642
farrar,0.018878
fast,0.021167
feasibl,0.012561
featur,0.013983
feel,0.028995
fifth,0.011010
figur,0.007656
financ,0.016384
financi,0.007380
finish,0.023793
firm,0.009233
fix,0.032823
follow,0.004422
foot,0.012011
foundat,0.007209
fox,0.028481
frame,0.010565
framework,0.007920
free,0.006314
freeman,0.013834
french,0.007440
frequent,0.007771
fun,0.017681
fund,0.007622
futur,0.060601
g,0.007479
gambler,0.019677
game,0.056921
gave,0.016089
giroux,0.019221
given,0.005544
good,0.012292
govern,0.015771
gregori,0.013447
group,0.009973
ha,0.025804
hal,0.017468
harald,0.018114
hardhead,0.025828
henc,0.008626
heurist,0.028291
hi,0.014870
high,0.022391
hill,0.010997
hors,0.047769
howev,0.017947
hr,0.017081
human,0.010652
hutzel,0.027080
hypothesi,0.019259
hypothet,0.012431
idea,0.006204
ident,0.007916
ignor,0.009589
implic,0.009632
import,0.009430
imposs,0.009347
incent,0.057550
includ,0.011513
incomplet,0.012047
inconsist,0.012847
increas,0.005316
incur,0.053031
ineffici,0.012801
inflat,0.010411
influenc,0.012178
inform,0.010992
inkster,0.081241
instal,0.021820
interact,0.006897
intermedi,0.010865
intern,0.009689
introduct,0.007328
invest,0.086584
investmentreap,0.027080
involv,0.021437
irrat,0.085445
irrelev,0.041192
irretriev,0.022436
irrevers,0.015260
irwin,0.017142
isbn,0.045747
issu,0.005932
j,0.013885
joint,0.009734
journal,0.007110
judgment,0.011716
just,0.025785
justifi,0.011117
kahneman,0.037237
kept,0.009961
klein,0.014639
known,0.009238
knox,0.056635
konomisch,0.026391
label,0.009946
laps,0.016454
later,0.005496
leav,0.007827
legal,0.007626
let,0.010356
licens,0.011005
light,0.007619
like,0.004936
limit,0.005644
line,0.006614
long,0.006000
longer,0.022868
loss,0.088921
low,0.021249
lower,0.013658
m,0.006609
make,0.046997
manag,0.033095
mani,0.012531
manifest,0.010631
mankiw,0.020384
margin,0.010128
market,0.027671
massachusett,0.012119
mcafe,0.022800
mcgrawhil,0.026711
measur,0.006053
mention,0.008947
merit,0.013188
michael,0.008505
microeconom,0.071945
million,0.058072
misalloc,0.021680
misgiv,0.021548
mistak,0.012719
mit,0.011229
modern,0.005543
money,0.033037
monthli,0.012597
movi,0.012639
n,0.008299
need,0.005555
new,0.020640
nobel,0.010758
nonrefund,0.024576
nonstandard,0.016684
nordhau,0.022999
normal,0.014732
ny,0.013373
oblig,0.010205
obtain,0.007183
obviou,0.011673
obvious,0.014765
onc,0.020716
onetim,0.017949
onli,0.012762
oper,0.011660
opportun,0.008729
optimist,0.031156
option,0.019286
order,0.005092
origin,0.025608
otherwis,0.017581
output,0.009646
outsid,0.007050
overli,0.029588
overrun,0.033160
owner,0.010453
p,0.007054
page,0.009060
paid,0.075383
paperback,0.015559
parkin,0.022270
particip,0.014581
particular,0.005784
pass,0.007179
past,0.021994
patron,0.014145
paul,0.008033
pay,0.017255
payment,0.019922
peopl,0.050953
perform,0.006496
perhap,0.008591
persist,0.010478
person,0.018141
pharmaceut,0.012589
pick,0.012029
place,0.020906
plant,0.016047
plu,0.010397
poeschel,0.027080
point,0.010721
polit,0.005800
politician,0.011087
possibl,0.005405
postdecis,0.025828
power,0.010846
pp,0.008639
practic,0.005669
precis,0.008729
predict,0.007754
prefer,0.008115
preorder,0.021680
present,0.005298
press,0.006237
preston,0.018933
previou,0.015983
price,0.109835
pride,0.014585
principl,0.019084
privat,0.007598
prize,0.009883
probabl,0.030417
problem,0.011335
process,0.005009
profit,0.018312
project,0.019672
promot,0.007559
prone,0.014639
properli,0.011144
propos,0.006538
prospect,0.067568
psycholog,0.018066
pull,0.012161
purchas,0.045066
quantit,0.009845
quantiti,0.008631
quirk,0.020964
r,0.007091
rais,0.007816
rang,0.006361
rate,0.019702
ration,0.100463
rationalitt,0.027080
rationalitya,0.027080
rd,0.085405
react,0.011742
read,0.005837
realiz,0.009397
realli,0.010813
realworld,0.013964
reason,0.006032
recogn,0.014413
recoup,0.037756
recov,0.031037
recoveri,0.011188
reduc,0.006367
reevalu,0.016580
refer,0.010082
reflect,0.007222
regard,0.006448
regardless,0.030480
regret,0.017434
relev,0.017581
remain,0.005558
repeat,0.009701
repres,0.005513
reput,0.011694
requir,0.005290
requisit,0.032665
resal,0.019748
research,0.005452
resold,0.040424
resourc,0.020412
respons,0.052465
result,0.009363
retrospect,0.044382
return,0.006802
review,0.015061
rise,0.006763
robin,0.014466
sale,0.009790
samuelson,0.016876
scale,0.007607
schaub,0.025828
schffer,0.022999
second,0.022064
section,0.008327
secur,0.007140
sell,0.019015
semipubl,0.025828
sens,0.006915
separ,0.006140
servic,0.006548
set,0.005206
shorthand,0.017268
shown,0.008105
signific,0.005971
similar,0.005585
simpli,0.007632
sinc,0.004677
sink,0.013931
situat,0.007201
slow,0.019313
softwar,0.019820
sold,0.009877
someth,0.008993
sometim,0.018267
specif,0.011192
spend,0.009709
spent,0.051695
sport,0.011109
spread,0.008268
st,0.007540
start,0.005920
state,0.004092
staw,0.081241
stranger,0.016405
strateg,0.010208
strategi,0.008713
strau,0.018771
stress,0.009592
strong,0.006796
strongli,0.009015
structur,0.005465
student,0.015922
studi,0.009886
stuttgart,0.018720
subject,0.023801
subsequ,0.007299
suffer,0.025611
suggest,0.013096
sum,0.027991
sunk,0.587758
sutton,0.018379
taken,0.020547
term,0.008839
test,0.007646
themselv,0.013876
theori,0.038379
theyv,0.019540
thi,0.041983
think,0.024335
throw,0.014363
ticket,0.157307
ticketbuy,0.108321
time,0.024831
told,0.023726
total,0.013052
tradit,0.011780
transact,0.010071
turn,0.006466
tverski,0.019473
type,0.005623
typic,0.006275
ultim,0.016180
unaffect,0.016684
uncertainti,0.010885
und,0.013761
underperform,0.039355
understood,0.008778
unifi,0.009790
uniqu,0.007975
unsurpris,0.021817
upfront,0.019608
usag,0.009811
use,0.019110
util,0.008462
valu,0.041966
valuabl,0.010980
variabl,0.025651
varian,0.021680
view,0.011990
volum,0.024037
vs,0.011293
wa,0.030682
wake,0.012478
wang,0.015145
want,0.025907
wast,0.033661
watch,0.023850
way,0.010002
weigh,0.013179
wesley,0.016017
whatsoev,0.016082
wherea,0.016233
wherebi,0.010568
whinston,0.021817
whyte,0.020964
william,0.007495
win,0.042071
winner,0.012878
won,0.009468
wont,0.016262
work,0.004585
worth,0.010591
wrong,0.011001
y,0.009961
york,0.021612
zero,0.009836
