accord,0.023259
activ,0.046420
adam,0.047206
administr,0.032523
advisor,0.059591
affect,0.060792
aggreg,0.049191
al,0.039898
alloc,0.046419
alway,0.031279
america,0.032599
american,0.026354
anyth,0.045970
area,0.023102
argument,0.039080
aspect,0.091713
assum,0.032224
becaus,0.021113
besley,0.109120
british,0.031316
bush,0.057852
busi,0.063235
cancel,0.053210
chang,0.021178
choic,0.036910
collect,0.027404
coloni,0.038846
compon,0.032355
concern,0.052753
consid,0.021911
contribut,0.027576
critic,0.027637
crown,0.048662
curv,0.092450
debat,0.034978
defin,0.025784
demand,0.033543
depict,0.046865
design,0.027596
diagram,0.051685
distort,0.106100
doe,0.050844
econom,0.074264
economist,0.042468
effect,0.065925
effici,0.141674
egg,0.054718
england,0.039251
et,0.038883
exampl,0.040517
fair,0.045814
famou,0.037369
fiscal,0.051283
focu,0.033184
form,0.018488
fund,0.033350
georg,0.034860
golden,0.049012
goos,0.091266
govern,0.069004
h,0.033600
ha,0.032257
harberg,0.103643
howev,0.019630
implement,0.067352
incid,0.095720
incom,0.074096
individu,0.024949
insid,0.040567
insur,0.046632
invers,0.051075
isbn,0.028593
issu,0.025955
jame,0.034114
kill,0.039928
king,0.038524
kingdom,0.032172
label,0.043516
law,0.024361
lay,0.045506
level,0.024181
levi,0.056830
lip,0.077199
loss,0.035368
lump,0.071669
macroeconom,0.109256
microeconom,0.125911
mirrle,0.101561
nation,0.044811
natur,0.021586
need,0.024307
new,0.018061
nondistortionari,0.203122
note,0.023312
offer,0.030067
onli,0.018612
outsid,0.030845
overal,0.037007
oxford,0.037991
paid,0.041227
paradigmat,0.080413
petti,0.071564
philosophi,0.034425
plan,0.030621
polici,0.179535
policymak,0.066192
prerevolutionari,0.093729
presid,0.033531
press,0.027289
price,0.034325
progress,0.031601
purpos,0.030159
quantiti,0.037766
quot,0.048509
read,0.025539
reason,0.026391
recent,0.025463
regress,0.058005
rel,0.026365
represent,0.037097
result,0.020483
richard,0.036327
say,0.031859
secur,0.031242
settler,0.055333
social,0.052068
someth,0.039347
state,0.017906
stealth,0.089979
structur,0.023911
stuart,0.113520
substitut,0.045476
sum,0.040823
suppli,0.033363
tax,0.730768
taxat,0.050315
thi,0.015307
tim,0.064477
triangl,0.060529
tricki,0.091266
type,0.024605
unit,0.041283
univers,0.021196
variou,0.023298
w,0.034338
want,0.037783
welfar,0.047137
worker,0.038096
