abus,0.038681
accept,0.022575
account,0.021178
act,0.020551
administr,0.050284
augment,0.046304
base,0.015668
belief,0.029024
benefici,0.039790
bodi,0.021757
boston,0.039974
busi,0.024442
capit,0.094471
caus,0.058148
chicago,0.035393
class,0.048173
coin,0.030073
collect,0.021184
compani,0.045867
compos,0.027554
congress,0.032543
consider,0.024408
constant,0.028875
context,0.025550
continu,0.017598
control,0.057892
counter,0.039273
countri,0.038228
crisi,0.029973
cut,0.030836
decis,0.048977
decision,0.085750
decisionmak,0.041867
declin,0.055155
decri,0.068650
demand,0.025931
describ,0.017877
develop,0.014526
differ,0.015397
dilut,0.050640
direct,0.038574
divorc,0.097595
draconian,0.069880
dure,0.016719
econom,0.076547
economi,0.047763
economist,0.032830
effect,0.033976
emerg,0.022411
employe,0.073282
encourag,0.028741
end,0.038238
ensur,0.028728
enterpris,0.164576
evid,0.023845
evok,0.053272
exert,0.040124
expens,0.062463
export,0.032078
footnot,0.046615
forc,0.037484
foreign,0.024341
friedman,0.048331
furthermor,0.032043
galbraith,0.196940
goal,0.051440
greater,0.023552
greatli,0.061242
group,0.016867
growth,0.047337
hegemon,0.062480
hierarch,0.042898
histor,0.021004
houghton,0.056892
ideolog,0.070642
import,0.015948
incom,0.057281
increas,0.017981
industri,0.042686
influenc,0.041190
influenti,0.060147
insid,0.031361
introduc,0.021934
john,0.042536
kenneth,0.083914
labour,0.031650
lack,0.023837
lawyer,0.045358
layoff,0.064612
lead,0.018652
leisur,0.051280
librari,0.029369
like,0.016697
likewis,0.037026
maintain,0.021796
manag,0.067162
manageri,0.254248
manual,0.039484
massiv,0.066523
maxim,0.177751
measur,0.020473
mifflin,0.057673
milton,0.046407
neoliber,0.157696
new,0.055849
notabl,0.023985
object,0.042736
opposit,0.025720
order,0.034451
organis,0.029594
paradox,0.039974
perceiv,0.031434
play,0.022568
possibl,0.018282
power,0.055029
pressur,0.026981
primari,0.023660
prime,0.028798
process,0.033889
profit,0.154845
prompt,0.039238
properti,0.021702
question,0.022509
quit,0.030292
rapid,0.031063
reduc,0.021535
refer,0.022735
regroup,0.059928
relat,0.015327
restructur,0.044901
result,0.031669
retain,0.029894
retir,0.038681
rise,0.022875
role,0.019914
s,0.080614
salari,0.126142
scandal,0.048005
school,0.023128
scientist,0.025994
second,0.018657
secur,0.024152
sharehold,0.367746
simpl,0.025137
sinc,0.015820
size,0.024637
state,0.027685
stock,0.030522
struggl,0.033164
support,0.018810
surviv,0.027286
task,0.029349
technician,0.050589
technostructur,0.607108
term,0.014949
themselv,0.023467
theori,0.055632
thi,0.035500
thorstein,0.066795
time,0.013998
transpar,0.040489
unabl,0.032877
usual,0.019038
valu,0.020277
veblen,0.062164
wa,0.025944
war,0.022474
work,0.015509
world,0.016039
yield,0.030906
