action,0.078737
address,0.048249
age,0.080252
america,0.044903
american,0.290420
approach,0.036874
april,0.098034
area,0.031822
associ,0.062599
attempt,0.036547
author,0.036075
bachelor,0.083441
basic,0.038866
becam,0.035314
befor,0.065991
benjamin,0.073258
book,0.036718
born,0.054575
busi,0.304864
c,0.036974
capit,0.042083
career,0.126950
center,0.041270
centuri,0.033226
challeng,0.046222
chang,0.029172
child,0.062146
cochran,0.514733
consid,0.030181
crisi,0.053406
cultur,0.077827
death,0.045327
degre,0.042383
die,0.049588
doctor,0.061763
earli,0.062328
econom,0.136394
enterpris,0.117299
examin,0.048767
extern,0.024364
field,0.068053
franklin,0.076219
frontier,0.073444
haverford,0.146156
hi,0.089622
histor,0.112281
histori,0.166506
historian,0.112287
import,0.028416
industri,0.038029
join,0.049557
leader,0.097416
life,0.107420
link,0.024220
manhattan,0.095895
marri,0.069823
master,0.059442
mere,0.054793
methodolog,0.058955
midth,0.068719
mind,0.105049
narrowli,0.086566
new,0.049757
nyu,0.114438
obtain,0.043291
open,0.038130
pennsylvania,0.250323
person,0.036445
perspect,0.049839
pioneer,0.058183
posit,0.033008
presid,0.046188
presidenti,0.065312
produc,0.033231
professor,0.057081
quadrangl,0.133260
railroad,0.164408
receiv,0.038698
refer,0.020255
religion,0.051589
research,0.032860
retir,0.137845
sever,0.029388
signific,0.035985
societi,0.035319
state,0.024665
taught,0.062851
thoma,0.100852
time,0.024942
topic,0.044727
twentyf,0.102765
unit,0.028433
univers,0.087590
valu,0.036130
wa,0.138683
work,0.055271
year,0.056899
york,0.043417
