abov,0.021910
accord,0.002444
accru,0.007138
accumul,0.009380
actual,0.003129
actuari,0.007555
ad,0.006240
addit,0.004946
advanc,0.003019
aeg,0.011658
aegergt,0.012136
aert,0.011302
aicdot,0.012136
algebra,0.010500
algorithm,0.004901
algrebra,0.012136
allow,0.007293
alon,0.004181
alreadi,0.010685
altern,0.003141
analog,0.008737
analysi,0.008841
analyz,0.004109
ani,0.019392
annual,0.018778
annuiti,0.424846
anoth,0.002351
answer,0.013059
ap,0.007385
appli,0.005227
applic,0.005839
approach,0.008441
appropri,0.007838
approx,0.039633
approxim,0.023323
aprnnt,0.012136
arithmet,0.011939
arizona,0.007049
asset,0.027118
assum,0.013548
assumpt,0.004165
azpilcueta,0.011302
b,0.016191
balanc,0.015477
bank,0.003535
base,0.008521
basi,0.006090
basic,0.008897
becaus,0.008876
becom,0.002359
befor,0.005035
begin,0.005749
benefit,0.003577
blackschol,0.007827
bond,0.021053
borrow,0.004892
bring,0.003664
btuhutcdot,0.024273
built,0.003675
c,0.050784
calcul,0.079000
calculu,0.005510
capit,0.006422
carr,0.007589
case,0.027155
cash,0.162849
cdot,0.013728
certain,0.002702
chang,0.006678
characterist,0.006806
choic,0.003879
cifvafrac,0.012136
ciin,0.011658
cileftfrac,0.012136
cileftleftirightnright,0.012136
cini,0.022938
cinm,0.012136
cite,0.004129
close,0.002642
closedform,0.008681
combin,0.019710
common,0.002387
commonli,0.006558
compar,0.002920
compens,0.004991
complic,0.004475
compos,0.003746
compound,0.075646
comput,0.016360
concept,0.002755
consid,0.011515
constant,0.015704
continu,0.026320
contribut,0.005796
conveni,0.005272
convent,0.003824
convert,0.012076
core,0.004193
cost,0.006944
coupon,0.022838
cours,0.003441
critic,0.002904
cumul,0.006268
current,0.002528
d,0.015984
daili,0.009237
date,0.006601
debt,0.022897
decid,0.003848
decreas,0.011666
defin,0.005420
delta,0.011313
deposit,0.032727
depositor,0.008273
deriv,0.036032
describ,0.004861
despit,0.003348
determin,0.021939
differ,0.012561
differenti,0.027990
dirac,0.007307
discontinu,0.005995
discount,0.148241
display,0.004488
displaystyl,0.312137
divid,0.006263
divis,0.003422
doe,0.010688
doubl,0.017489
e,0.096003
earn,0.035750
easili,0.008146
ebook,0.008114
econom,0.002601
emphas,0.004172
encod,0.005789
end,0.018196
endow,0.030111
enter,0.003475
entir,0.003083
equal,0.016189
equat,0.055360
equiti,0.010880
equival,0.011489
er,0.015022
erg,0.020970
error,0.004521
ert,0.021153
estat,0.010122
euro,0.006049
eutrbegincaseseutrtutuendcas,0.012136
evenli,0.007097
everi,0.005950
exactli,0.009315
exampl,0.046845
exercis,0.004084
exp,0.039932
expect,0.013066
explain,0.003200
exponenti,0.017169
exposit,0.006516
express,0.003080
extern,0.001859
f,0.105065
fact,0.009056
factor,0.015073
familiar,0.005030
favor,0.003926
final,0.003075
financ,0.007534
financi,0.030547
firstord,0.014260
fix,0.015094
flesak,0.012136
flow,0.116068
follow,0.018303
forev,0.006777
forgo,0.008165
form,0.001943
formal,0.009544
formul,0.008142
formula,0.195346
frac,0.079651
framework,0.003642
frequent,0.007148
ft,0.005556
fu,0.008369
function,0.028632
fundament,0.006511
futur,0.139343
fv,0.097424
fva,0.060683
fvaacdot,0.036409
fvacdot,0.012136
fvafrac,0.012136
fvainfrac,0.012136
fvcifva,0.012136
fvin,0.012136
fvpvin,0.012136
fvr,0.012136
fvt,0.011469
fvtit,0.012136
g,0.089424
gener,0.009134
geometr,0.015684
given,0.028049
gordon,0.011859
greater,0.003202
green,0.013116
grow,0.048901
growth,0.028962
h,0.031785
ha,0.015257
heavisid,0.008867
henc,0.003966
higher,0.006044
histori,0.002117
horizon,0.006197
host,0.004648
howev,0.002063
hundr,0.003862
huttext,0.012136
hyperbol,0.006857
hypothet,0.005716
ic,0.008065
idea,0.002853
ident,0.007280
ig,0.008925
igleftleftg,0.012136
ignor,0.004409
iin,0.009640
impli,0.003952
import,0.004336
importantli,0.005825
inacdot,0.012136
includ,0.003529
incom,0.015576
incomeori,0.011877
incorpor,0.003491
incorrect,0.006053
increas,0.014668
inde,0.004322
indefinit,0.005973
independ,0.002611
individu,0.007867
infin,0.006646
infinit,0.004978
inflat,0.014363
infrac,0.010399
inhomogen,0.016946
initi,0.008287
inright,0.024273
instanceth,0.012136
instantan,0.006670
instead,0.002977
instrument,0.011744
int,0.021267
integ,0.006096
integr,0.006136
intern,0.002227
interv,0.005356
intimid,0.007279
introduct,0.003370
intuit,0.005440
invers,0.010736
invest,0.032577
investor,0.004843
involv,0.007393
irightnright,0.012136
irm,0.011017
just,0.002964
k,0.007708
key,0.006470
kncik,0.012136
know,0.003851
known,0.008496
l,0.022451
larg,0.002240
larger,0.003355
later,0.005055
lead,0.002536
leas,0.006416
leav,0.007198
left,0.006776
leftapright,0.012136
leftfrac,0.006972
leftfv,0.012136
leftint,0.019703
leftirightni,0.035633
leftirightnicdot,0.012136
leftirightnleftgrightnig,0.012136
leftirightnright,0.012136
leftright,0.008608
lender,0.006871
length,0.004217
lfpartial,0.012136
light,0.003504
like,0.004540
linear,0.004522
link,0.001848
list,0.002363
log,0.047639
logarithm,0.006878
logb,0.012136
logfv,0.012136
logi,0.008925
logx,0.011658
long,0.005519
lower,0.006281
lpartial,0.010099
lumpsum,0.019281
lvf,0.012136
m,0.027357
make,0.004322
mani,0.005762
martn,0.008114
mathcal,0.031366
mathemat,0.010023
matur,0.009891
meaningless,0.007155
measur,0.002783
mental,0.009197
mention,0.004114
method,0.002632
methodolog,0.004498
mncinm,0.012136
model,0.007942
modif,0.010103
moment,0.004835
monetari,0.004556
money,0.091157
month,0.030039
monthli,0.052137
mortgag,0.018831
multipl,0.006537
multipli,0.021915
n,0.221369
natur,0.002268
necessarili,0.004160
need,0.017884
net,0.008935
nin,0.009373
nomin,0.008871
notat,0.005710
note,0.022053
notion,0.004020
nper,0.012136
nrm,0.009970
number,0.014883
o,0.026890
oblig,0.004693
obtain,0.006606
occur,0.024301
ode,0.032524
onli,0.007825
oper,0.002681
option,0.004434
ordinari,0.023172
overnight,0.007405
p,0.139505
paid,0.021666
paramet,0.004899
partial,0.003909
particular,0.005320
particularli,0.002980
past,0.003371
pay,0.007935
payment,0.201555
pde,0.008495
pe,0.045607
percent,0.008536
period,0.070707
perpetu,0.109395
perspect,0.003803
pfftime,0.012136
pftime,0.012136
place,0.002403
plu,0.004781
plug,0.007883
pmt,0.011152
point,0.012326
pp,0.003973
practic,0.002607
precis,0.004014
predefin,0.008001
prefer,0.011195
present,0.102346
price,0.007215
priceearn,0.010576
princip,0.034263
principl,0.005850
problem,0.005212
program,0.006131
properli,0.005124
provid,0.006486
ptime,0.021349
publicli,0.005215
pv,0.153855
pva,0.041596
pvaacdot,0.012136
pvafrac,0.012136
pvatim,0.012136
pvcdot,0.012136
pvci,0.012136
pvfrac,0.010893
pvga,0.012136
pvin,0.012136
pvp,0.012136
pvright,0.012136
q,0.005458
qtr,0.011469
qtrli,0.012136
qualif,0.018578
r,0.123924
rapid,0.004223
rare,0.012032
rate,0.178188
ratio,0.021976
readili,0.010577
real,0.012832
rearrang,0.019868
reason,0.005547
receipt,0.013328
receiv,0.008858
recipi,0.005965
recogn,0.003314
refer,0.001545
regular,0.008468
relev,0.008085
remain,0.012781
rememb,0.005674
rental,0.007660
repay,0.006532
repres,0.005070
requir,0.007299
respect,0.002939
restat,0.029664
result,0.002152
return,0.037536
revers,0.004255
right,0.002773
rm,0.022038
rough,0.006129
roughli,0.004335
routin,0.005548
rt,0.023693
rule,0.005642
rv,0.009592
rvequiv,0.012136
s,0.015344
salamanca,0.009295
satisfi,0.004584
save,0.013167
say,0.003348
schedul,0.005137
school,0.003144
scienc,0.002599
secur,0.006567
seen,0.003032
seri,0.018474
set,0.007182
sever,0.006727
share,0.006023
shed,0.006588
shortcut,0.008867
significantli,0.003966
similar,0.010274
similarli,0.004075
simpl,0.010253
simpli,0.017549
simplifi,0.010019
singl,0.011514
situat,0.003311
slightli,0.004662
solut,0.018401
solv,0.031670
sometim,0.002800
sophist,0.009898
soughtfor,0.011658
sound,0.004529
space,0.003316
special,0.002690
specif,0.002573
specifi,0.017493
spend,0.004465
spreadsheet,0.033167
standard,0.011588
start,0.005445
state,0.001882
statement,0.003948
steadili,0.005674
step,0.014590
stock,0.029050
stream,0.067024
subject,0.005472
subsequ,0.006713
substitut,0.004779
subtleti,0.008681
sum,0.068653
summar,0.005478
t,0.213328
tabl,0.012419
techniqu,0.003305
tenur,0.006521
term,0.014228
terminolog,0.005065
textprincipalcigo,0.012136
textprincipaltim,0.012136
textpvtextfvcdot,0.024273
textstyl,0.018163
tftrtft,0.012136
theoret,0.003527
theori,0.002521
therefor,0.002923
thi,0.048267
thu,0.010058
time,0.110386
timen,0.012136
tinfti,0.009970
tnfrac,0.010893
today,0.009270
togeth,0.002966
tool,0.006888
total,0.003001
trade,0.006223
treatment,0.003956
trial,0.004908
trt,0.010485
trtdtright,0.012136
true,0.006965
ttfubtudu,0.012136
tu,0.024393
turvdvright,0.012136
tutext,0.012136
twentyyear,0.009851
type,0.005172
typic,0.005771
u,0.120458
ubiquit,0.006783
underli,0.004084
understand,0.002919
understood,0.004036
unit,0.006508
univers,0.002227
unknown,0.008907
unrealist,0.007041
use,0.036910
usual,0.005177
ut,0.008517
utdelta,0.012136
v,0.187937
valu,0.311539
valuat,0.023805
vari,0.012684
variabl,0.058982
variat,0.004032
variou,0.007346
veri,0.004913
versu,0.005021
vt,0.008585
vtt,0.011302
vttint,0.012136
want,0.007942
way,0.006899
welldefin,0.006411
whi,0.003957
wish,0.004756
withdraw,0.005170
word,0.002985
worth,0.019481
x,0.011425
y,0.054969
year,0.043417
yearli,0.006376
yearrm,0.024273
yearstim,0.012136
yeartim,0.012136
yield,0.008404
yr,0.018230
zero,0.009047
