access,0.036694
accord,0.017679
addit,0.008943
adopt,0.012199
advanc,0.010918
agre,0.013328
agreement,0.445295
agreementani,0.046506
aka,0.024097
alli,0.016328
allow,0.026373
american,0.010016
antiglob,0.033894
appli,0.037802
applic,0.010557
area,0.008780
arrang,0.014412
basi,0.011011
basic,0.021447
benefici,0.039123
benefit,0.025870
bilater,0.060822
bit,0.021679
bloc,0.064166
breed,0.021375
bta,0.040866
busi,0.012016
capit,0.011610
certain,0.019542
chang,0.008048
circumst,0.016400
classif,0.015753
classifi,0.043325
common,0.043168
complet,0.009861
complex,0.010448
composit,0.014802
concern,0.030073
concis,0.021747
conclud,0.058414
confus,0.016071
contenti,0.025375
coordin,0.030273
cost,0.012554
countri,0.037587
cover,0.035268
creation,0.012997
currenc,0.062589
current,0.018282
custom,0.115508
databas,0.016705
david,0.012684
decad,0.012980
deepen,0.025661
definit,0.011290
defunct,0.025237
degre,0.011693
depend,0.009421
depth,0.018748
despit,0.012108
develop,0.007141
differ,0.007569
directorgener,0.035831
doha,0.030959
dougla,0.021101
dure,0.008219
econom,0.084672
ed,0.024069
effect,0.008351
effici,0.013460
elimin,0.044600
emu,0.030485
emueconom,0.046506
enact,0.019056
encyclopedia,0.014806
enterpris,0.016181
equal,0.011707
establish,0.018349
european,0.010707
exponenti,0.020693
express,0.011138
extern,0.013444
factor,0.010900
fair,0.017411
fiscal,0.038980
focu,0.012611
follow,0.007353
forc,0.009214
framework,0.079023
free,0.115503
freedom,0.014512
frequent,0.012922
fta,0.033609
ftaextens,0.046506
gain,0.011184
gatt,0.032491
gener,0.013211
global,0.024415
goal,0.012644
good,0.020440
govern,0.008741
grant,0.014092
green,0.015809
group,0.016584
guarante,0.016862
ha,0.006129
henderson,0.025781
howev,0.007460
ill,0.017849
includ,0.019144
incoher,0.029103
increas,0.026519
indianapoli,0.026705
inform,0.009139
integr,0.044373
intens,0.015267
interdepend,0.023075
intern,0.016111
invest,0.065442
irwin,0.028505
isbn,0.010867
itc,0.027359
item,0.016862
juli,0.013277
known,0.015361
labour,0.015560
lami,0.035621
level,0.027570
liberti,0.019507
librari,0.014438
link,0.006682
list,0.034182
lower,0.011355
map,0.014058
market,0.046012
marketfta,0.046506
mean,0.008463
measur,0.010065
member,0.039219
mfn,0.079672
moder,0.017604
monetari,0.032947
mostfavor,0.046506
mostli,0.013111
movement,0.074176
multilater,0.048776
nd,0.014298
necessarili,0.015042
negoti,0.016084
neighbor,0.017335
new,0.006864
nonsignatori,0.031961
normal,0.024497
north,0.012201
notif,0.061754
number,0.015375
oblig,0.016970
oclc,0.022133
oecd,0.022747
onli,0.021221
onlin,0.013449
oppos,0.012842
order,0.008468
organ,0.025146
outsid,0.011722
pact,0.092300
parti,0.011875
partial,0.014136
partner,0.033598
pascal,0.023905
perceiv,0.015454
perman,0.014892
pntr,0.042156
polici,0.034116
polit,0.009644
posit,0.009107
predecessor,0.019214
prefer,0.040481
preferenti,0.171368
product,0.009184
prolifer,0.021692
propos,0.010872
provis,0.017163
pta,0.036278
ptalimit,0.046506
quit,0.014892
quota,0.024119
r,0.011791
rang,0.010577
reaction,0.014330
read,0.009706
receiv,0.010677
reciproc,0.020993
reduc,0.021174
reduct,0.048241
refer,0.005588
region,0.040030
relat,0.015070
report,0.010741
requir,0.017595
respect,0.010628
rest,0.026187
restrict,0.038857
result,0.007784
round,0.017703
rta,0.072556
rule,0.010201
safe,0.018272
scope,0.032859
seek,0.012540
separ,0.010210
servic,0.032665
sign,0.025611
signatori,0.215113
significantli,0.028686
sinc,0.015554
socal,0.015693
special,0.009727
specif,0.009305
step,0.013188
subject,0.009894
substanti,0.028877
support,0.009247
tariff,0.170905
tax,0.014617
temporari,0.018342
term,0.014698
territori,0.040841
textil,0.021029
tifa,0.042947
topic,0.012340
trade,0.517560
treati,0.048727
type,0.046755
typic,0.031303
unfair,0.025872
unilater,0.024388
union,0.092462
unioncommon,0.046506
unioncustom,0.093012
unionfta,0.046506
unionshar,0.046506
unpredict,0.024481
use,0.006355
varieti,0.011678
wide,0.010017
world,0.023656
wto,0.440660
