abbott,0.003930
abil,0.001601
abl,0.002940
ablebodi,0.008851
abolish,0.009730
abov,0.008942
absenc,0.002140
absent,0.002837
absorb,0.002327
acceler,0.006717
accept,0.002923
accomplish,0.002339
accord,0.010476
account,0.004113
accumul,0.004466
accur,0.003966
achiev,0.001464
acknowledg,0.002244
acquir,0.001896
act,0.005322
activ,0.013939
actual,0.008939
ad,0.001485
addit,0.012954
address,0.001753
adjust,0.011141
administr,0.004883
adolf,0.003211
adopt,0.001606
adult,0.004557
advanc,0.004313
advers,0.002726
advertis,0.005470
advic,0.002533
advoc,0.005994
affect,0.004563
africa,0.001890
african,0.002040
age,0.024784
agenc,0.009156
aggreg,0.022156
agricultur,0.005190
aid,0.006985
aim,0.003324
akin,0.003115
alan,0.002467
alcohol,0.002672
alexand,0.002230
allevi,0.003107
alloc,0.002323
allow,0.011576
altern,0.007479
alway,0.001565
ame,0.003887
america,0.003262
american,0.006594
anarchist,0.003427
andor,0.006111
ani,0.003077
annual,0.001788
anoth,0.014555
antiwork,0.005245
anxieti,0.009269
appear,0.002696
appli,0.007466
applic,0.004170
approxim,0.003172
april,0.008904
area,0.002312
argu,0.013937
argument,0.003911
aris,0.001899
armi,0.006007
arrest,0.002558
articl,0.001383
asia,0.001998
asian,0.002217
aspect,0.001530
assault,0.002984
assert,0.001999
assist,0.001735
associ,0.001137
assum,0.003225
attach,0.008815
attack,0.001876
attain,0.004713
attempt,0.001327
attend,0.002221
attitud,0.002389
attract,0.001873
attribut,0.007238
australia,0.006070
austria,0.002693
austrian,0.002788
author,0.001310
avail,0.021345
averag,0.006955
avert,0.003795
avoid,0.001738
away,0.005319
axi,0.002669
b,0.001541
bachelor,0.003031
bank,0.003366
bankruptci,0.003038
barrier,0.011843
base,0.009129
becam,0.002566
becaus,0.020076
becom,0.008989
beer,0.003248
befor,0.008391
beg,0.003671
began,0.009811
beggar,0.004425
behavior,0.004939
believ,0.008710
benefici,0.005151
benefit,0.035771
best,0.003094
better,0.006331
beverag,0.003345
beveridg,0.004747
bias,0.002908
bid,0.002991
birth,0.006204
bl,0.016018
black,0.003788
blame,0.005576
blunt,0.003948
board,0.004050
bob,0.003265
bodi,0.001408
book,0.001334
boom,0.005326
boomerang,0.004876
boost,0.008256
brake,0.003957
brand,0.002837
breadwinn,0.005132
break,0.001934
brenner,0.004373
bright,0.003069
bring,0.001745
britain,0.005932
broader,0.002340
brought,0.003460
buffer,0.003291
build,0.002970
bureau,0.021240
bureaucraci,0.003126
bureaucrat,0.006220
busi,0.007911
calcul,0.023286
came,0.003074
camp,0.002543
canada,0.004027
canal,0.002788
capabl,0.001851
capit,0.010702
capitalist,0.011108
cardiovascular,0.006968
care,0.001766
career,0.006918
case,0.005877
cash,0.002349
categor,0.004779
categori,0.001793
caucasian,0.003817
caus,0.026351
causal,0.002617
caveat,0.003879
ce,0.002575
ceic,0.005551
censu,0.005513
center,0.001499
central,0.002635
centuri,0.026558
certain,0.002573
chang,0.005299
chapter,0.002191
characterist,0.001620
chariti,0.003050
check,0.002437
children,0.003867
china,0.001806
chines,0.002020
choic,0.007389
choos,0.008089
chore,0.004747
church,0.002124
cincinnati,0.004170
circl,0.002265
circumst,0.002159
cirrhosi,0.004664
citi,0.006494
citizen,0.001923
civil,0.001612
civilian,0.004888
claim,0.005708
class,0.003118
classic,0.015533
classif,0.002074
clear,0.005249
clearest,0.004195
clearli,0.002113
cleveland,0.003707
close,0.002516
coal,0.002741
cohes,0.003050
cohort,0.003832
coincid,0.002529
collect,0.004114
colleg,0.004081
combin,0.002681
come,0.001344
commerc,0.002342
commod,0.002282
common,0.002273
communist,0.002319
compani,0.001484
compar,0.009734
comparison,0.007886
compens,0.007129
compet,0.003877
competit,0.003697
competitor,0.002912
complementari,0.002743
complet,0.001298
compon,0.003238
comprehens,0.004142
compromis,0.002703
comput,0.003116
concept,0.002624
concern,0.001320
concis,0.002863
condit,0.010525
conduct,0.006446
confer,0.001850
confid,0.002405
conflict,0.001751
conform,0.002595
conjunct,0.002627
connect,0.001548
conscienti,0.007680
consensu,0.002345
consequ,0.003197
conserv,0.007465
consid,0.004386
consider,0.006320
constantli,0.002621
constrain,0.002733
constraint,0.002334
construct,0.001456
consult,0.002171
consum,0.001872
consumpt,0.015351
consumptiondemand,0.005778
contact,0.003946
contemporari,0.005517
context,0.001654
continu,0.001139
contracept,0.004034
contractor,0.003448
contribut,0.004140
control,0.007495
convex,0.003316
cope,0.003017
corp,0.002774
corpor,0.003689
correct,0.001893
correl,0.004383
correspond,0.003413
correspondingli,0.003550
cost,0.018185
count,0.023589
counterbalanc,0.004407
counterintuit,0.003824
countri,0.027223
countrysid,0.003082
coupl,0.004351
cours,0.003277
cover,0.003096
covizzi,0.005778
cp,0.007184
creat,0.008051
creation,0.005134
credibl,0.002926
crept,0.004614
crime,0.009331
crimin,0.002381
crise,0.005802
crisi,0.009702
criteria,0.002354
critic,0.005532
culmin,0.002491
cultur,0.004241
cumul,0.002984
currenc,0.002060
current,0.021668
curv,0.016194
cut,0.001996
cutback,0.004356
cycl,0.003855
cyclic,0.035046
damag,0.004058
data,0.019508
date,0.001571
david,0.003340
day,0.001418
daycar,0.004841
deal,0.003029
death,0.003293
debat,0.001750
debt,0.006541
decad,0.006837
deceler,0.003871
decemb,0.001725
decis,0.004756
declar,0.003632
declin,0.008926
decreas,0.027775
defeat,0.002224
defend,0.002103
defici,0.002982
deficientdemand,0.005778
deficit,0.005219
defin,0.009033
definit,0.014868
deflat,0.003453
degre,0.003079
delay,0.002401
demand,0.060435
demandbas,0.005655
demandsid,0.019806
democrat,0.001842
demograph,0.002524
demonstr,0.001690
deni,0.002179
denmark,0.002758
denomin,0.002801
depart,0.006594
depend,0.007444
deposit,0.002226
depress,0.028035
depth,0.002468
der,0.002460
deriv,0.002859
describ,0.001157
descript,0.001718
design,0.001381
desir,0.001769
despit,0.003188
destruct,0.002225
determin,0.002611
develop,0.002821
did,0.002791
diet,0.002780
differ,0.015949
difficult,0.003280
dig,0.003507
diminish,0.002545
direct,0.002497
directli,0.003021
disabl,0.010953
disappear,0.002390
discount,0.002714
discourag,0.008516
discrimin,0.005222
discuss,0.003068
diseas,0.003939
dishearten,0.004664
disloc,0.003774
disord,0.002423
dispar,0.002889
displaystyl,0.002153
dispos,0.002781
disput,0.001891
disrupt,0.002423
dissuad,0.004340
distinct,0.005792
distinguish,0.001669
distort,0.002655
divid,0.004473
divorc,0.006318
doctor,0.002244
document,0.003630
doe,0.010178
doesnt,0.002811
dole,0.004407
domest,0.003896
doubl,0.002081
downturn,0.006441
downward,0.003017
downwardslop,0.004951
draw,0.001927
drawn,0.002219
drive,0.002020
driver,0.002882
drop,0.002063
drug,0.002217
dure,0.023813
e,0.001523
ea,0.003641
eager,0.006897
earli,0.007926
earlier,0.003345
earn,0.008511
earner,0.003855
eas,0.005212
easi,0.002299
easili,0.001939
east,0.001740
eastern,0.001879
econom,0.047078
economi,0.047927
economist,0.025504
ed,0.003169
edit,0.003543
educ,0.008653
effect,0.008798
effici,0.010635
effort,0.007839
eighteenth,0.002893
elderli,0.006340
elect,0.005009
elector,0.002428
electrif,0.008391
elimin,0.003915
elizabethan,0.004076
elsewher,0.002333
emphas,0.003973
empir,0.003159
employ,0.099107
employe,0.007116
empow,0.003187
enabl,0.001795
enclosur,0.003795
encourag,0.009303
end,0.013615
enforc,0.002122
engag,0.001792
engel,0.006986
england,0.015715
enjoy,0.002155
enorm,0.002438
enrol,0.003113
ensur,0.001859
enter,0.008275
enterpris,0.006392
entir,0.001468
entiti,0.001920
entrant,0.003887
entri,0.002189
environ,0.001500
environment,0.007280
environmentit,0.005778
epi,0.004356
equal,0.004625
equilibrium,0.009464
equival,0.001823
eras,0.003653
erod,0.003258
error,0.002152
especi,0.005258
establish,0.004832
estim,0.007965
ethic,0.002083
eu,0.009859
eulf,0.017336
euro,0.005760
europ,0.006140
european,0.018330
eurostat,0.016943
event,0.002946
eventu,0.001609
everi,0.005666
everyon,0.010454
evict,0.003921
exacerb,0.003134
exact,0.002159
exactli,0.002217
examin,0.001771
exampl,0.009124
exce,0.002956
exceed,0.007132
excess,0.002187
exclud,0.004259
execut,0.001714
exemplifi,0.002884
exercis,0.001945
exist,0.013508
exogen,0.003521
expans,0.001910
expansionari,0.004024
expansionist,0.003957
expect,0.007777
expend,0.003624
expenditur,0.002503
experi,0.009744
experienc,0.008129
expert,0.002236
expir,0.003060
explain,0.001523
express,0.001466
extend,0.001493
extens,0.001528
extent,0.003725
extern,0.000885
extrem,0.003247
f,0.006670
face,0.001699
facilit,0.002040
fact,0.002874
factor,0.015789
fail,0.001702
failur,0.003939
fair,0.004585
fall,0.015452
fallen,0.002750
famili,0.009405
far,0.001535
farm,0.004517
farmer,0.009584
favor,0.001869
fear,0.008496
feder,0.001802
feel,0.002116
fell,0.002186
femal,0.013637
fertil,0.002372
fewer,0.014404
fight,0.004248
figur,0.003353
final,0.001464
financi,0.014545
fiscal,0.005133
fit,0.006183
flexibl,0.005012
focu,0.003321
focus,0.004727
follow,0.007746
food,0.003484
forc,0.059454
forceincreas,0.005778
forcetim,0.005778
ford,0.003205
forecast,0.002667
foreclosur,0.009006
foreign,0.003151
form,0.000925
fourth,0.004224
fraction,0.002369
franc,0.012131
franzini,0.005655
fredrick,0.009903
frequent,0.003403
friction,0.050700
frontier,0.002668
fullemploy,0.005132
fulltim,0.019342
fun,0.003871
function,0.001239
fund,0.005007
futur,0.002948
gain,0.005891
gallaway,0.005778
gallup,0.004076
gather,0.004220
gave,0.001761
gdp,0.004553
gender,0.010380
gener,0.006089
german,0.001709
germani,0.009113
giant,0.002647
given,0.002428
glanc,0.004044
global,0.008038
globe,0.005513
goal,0.003330
goe,0.002178
gone,0.002686
good,0.018842
govern,0.021872
government,0.002533
governmentfund,0.008417
governmentsponsor,0.004121
gradual,0.001945
graduat,0.006805
graphic,0.002603
great,0.010914
greater,0.004574
greec,0.002288
group,0.004367
grow,0.004656
growth,0.016855
guarante,0.004441
guarantor,0.004222
guid,0.001711
guidanc,0.002729
ha,0.012915
half,0.001666
hall,0.002296
hand,0.007499
hang,0.003242
happen,0.001913
hard,0.009934
hardcor,0.004718
hardship,0.003436
harm,0.002333
harmon,0.002942
harsh,0.002880
headhunt,0.005036
health,0.010125
heavili,0.001951
heidelberg,0.003665
held,0.001431
help,0.005301
henc,0.001888
henri,0.001951
herd,0.003230
heterogen,0.003043
hidden,0.013328
hide,0.002865
high,0.025741
higher,0.012952
highest,0.001853
highli,0.004780
highlight,0.002492
hire,0.015858
hispan,0.003832
histor,0.005439
histori,0.001008
hit,0.005012
hitler,0.006597
hold,0.002916
home,0.001728
homeless,0.014857
homemak,0.009617
homestead,0.004208
hors,0.002614
hour,0.014890
hous,0.001623
household,0.007224
howev,0.020631
huge,0.002251
human,0.001166
hundr,0.001839
hunt,0.004886
hunter,0.003067
hyperinfl,0.011067
hysteresi,0.004590
ideal,0.001969
ident,0.001733
ignor,0.002099
ii,0.004752
illustr,0.002064
ilo,0.025549
immigr,0.004817
impact,0.009953
imperfect,0.002980
implement,0.001685
impli,0.003763
implic,0.002109
import,0.003097
importantli,0.002774
impos,0.004163
imposs,0.004093
improv,0.004468
inabl,0.002922
inaccur,0.003281
incarcer,0.015652
incent,0.002520
includ,0.021848
incom,0.020395
increas,0.084978
increasingli,0.003569
inde,0.002058
indefinit,0.002844
independ,0.002486
index,0.003846
indic,0.004467
individu,0.031215
industri,0.019344
industrialis,0.003423
ineffici,0.008409
inequ,0.005094
infin,0.003164
inflat,0.045595
inflationfight,0.005461
influx,0.003123
inform,0.001203
inher,0.004639
inhibit,0.002980
inmat,0.004208
instead,0.004253
institut,0.008966
instrument,0.001863
insur,0.023338
intellig,0.001888
intern,0.010608
intervent,0.015375
interview,0.005006
introduct,0.001604
invest,0.008617
investor,0.002306
involuntari,0.033663
involv,0.004694
inward,0.003453
ireland,0.002530
isbn,0.008586
isrgoogl,0.005778
issu,0.001298
itali,0.002178
j,0.001520
jacob,0.002729
jail,0.003457
januari,0.003455
japan,0.006005
job,0.150513
jobless,0.004567
jobsearch,0.005778
jobseek,0.004912
john,0.001376
join,0.007202
joseph,0.001994
just,0.001411
karl,0.002276
katz,0.003677
key,0.003080
keyn,0.003348
keynesian,0.023263
keyssar,0.005778
kind,0.006449
kingdom,0.014491
kleinert,0.004690
know,0.003668
krueger,0.004664
label,0.002177
labor,0.123214
labour,0.110648
lack,0.006172
lancet,0.004444
land,0.003063
landslid,0.003436
larg,0.008532
largest,0.003343
late,0.005604
later,0.004814
latino,0.004390
latvia,0.003571
law,0.012192
lawrenc,0.002707
layoff,0.004182
lead,0.010867
leav,0.003427
lebaneseeconomyforum,0.005551
legal,0.001670
legisl,0.003705
level,0.026624
lewi,0.002540
liber,0.001824
librarian,0.003948
life,0.005203
like,0.017295
limit,0.007415
link,0.002639
liquid,0.002169
literatur,0.001808
littl,0.003097
livabl,0.009825
live,0.007851
livelihood,0.003507
local,0.004112
locat,0.001487
long,0.006570
longer,0.008345
longlast,0.003727
longrun,0.003295
longterm,0.017037
look,0.021722
loos,0.002515
lose,0.006385
loss,0.007080
lost,0.008793
low,0.018611
lowel,0.004087
lower,0.017944
lowincom,0.007283
lowpay,0.005082
lowpric,0.004912
lowskil,0.004912
machin,0.005861
machineri,0.004991
macroeconom,0.013669
main,0.003843
mainli,0.001680
mainstream,0.002455
maintain,0.005644
major,0.007515
make,0.010290
makework,0.005778
male,0.009079
manag,0.002898
mani,0.018293
manipul,0.002166
manli,0.004638
manual,0.002556
manufactur,0.003859
map,0.001851
margaret,0.005913
margin,0.006653
mark,0.001624
market,0.045444
marketclear,0.010165
marri,0.002536
marriag,0.007675
marx,0.005657
marxian,0.010891
marxist,0.005495
masculin,0.003597
mass,0.004978
massachusett,0.002653
match,0.002152
matter,0.001522
matur,0.002354
maynard,0.003295
mcgrawhil,0.002924
mcjob,0.005778
mean,0.010030
meant,0.002075
measur,0.027834
mechan,0.004483
media,0.003712
medic,0.003727
meer,0.004808
meet,0.003274
member,0.002582
men,0.020641
mental,0.002189
mention,0.001959
merchant,0.002403
method,0.012533
mexico,0.002524
microeconom,0.003150
mid,0.002015
midst,0.003484
migrat,0.002162
migratori,0.003994
militari,0.001637
million,0.014305
minimum,0.008829
minor,0.001872
miser,0.003832
mismatch,0.018296
mobil,0.002149
model,0.003781
moder,0.002318
modern,0.003641
monasteri,0.003074
monetari,0.008677
monetarist,0.007932
money,0.019893
monopsonylik,0.005778
month,0.003575
monthli,0.013791
mortal,0.002704
mortgag,0.002988
mostcit,0.005082
mostli,0.001726
mother,0.002332
motiv,0.001976
motor,0.002609
movement,0.002790
mule,0.003948
multipl,0.001556
multitud,0.003193
murray,0.002926
mute,0.004324
mzm,0.005310
nairu,0.025414
nairunatur,0.005778
namesak,0.004121
nation,0.012334
nativ,0.006274
natur,0.008642
nazi,0.005643
nber,0.004425
nd,0.001882
near,0.001663
nearli,0.007050
necessari,0.001612
need,0.010948
neg,0.001754
negat,0.003220
network,0.001691
neutral,0.002214
new,0.010846
news,0.002208
nineyear,0.004503
nobel,0.002355
nomin,0.002112
nonacceler,0.004664
nonagricultur,0.013333
nongovernment,0.003236
nonindustri,0.004463
norm,0.004694
normal,0.003226
north,0.001606
noshirk,0.005778
notabl,0.003105
note,0.007000
novemb,0.003630
nowdeclin,0.005778
nsc,0.004808
number,0.028346
numer,0.001499
nurs,0.002944
oblig,0.002234
obsolet,0.006312
obstacl,0.002920
occasion,0.002282
occup,0.008434
occur,0.011571
octob,0.001749
oecd,0.008986
offens,0.002819
offer,0.001504
offic,0.009773
offici,0.016899
ohio,0.006536
okun,0.004664
old,0.003348
older,0.008494
onethird,0.003074
onli,0.012109
open,0.004156
oper,0.003829
opportun,0.001911
oppos,0.001691
opt,0.003147
optim,0.002146
optimist,0.006822
optimum,0.003360
option,0.002111
organ,0.005519
organiz,0.002651
otherwis,0.001924
outlook,0.002901
outpac,0.004087
outperform,0.003526
output,0.006336
outsid,0.007718
outward,0.003115
outweigh,0.003436
overal,0.003704
overemphas,0.004278
overlap,0.002249
overli,0.003239
overse,0.006035
overtim,0.004145
owner,0.004577
oxen,0.004293
paid,0.002063
paper,0.001669
parish,0.003391
parti,0.001563
partial,0.001861
particip,0.038313
particular,0.002533
particularli,0.004257
partner,0.002212
parttim,0.007121
pass,0.004716
past,0.008026
path,0.002051
pauper,0.004463
pay,0.007556
payment,0.006543
payrol,0.003665
pdf,0.002342
peak,0.006661
penalti,0.003027
pension,0.002811
peopl,0.044628
perceiv,0.002035
percent,0.010162
percentag,0.018040
perfect,0.002260
period,0.014428
perman,0.009805
permit,0.002061
perpetu,0.005482
persist,0.011472
person,0.013241
personhour,0.010922
perspect,0.003621
phase,0.001945
phillip,0.003131
physic,0.003972
physician,0.002552
pill,0.007727
pinkcollar,0.005655
pit,0.003205
pizzuti,0.005655
place,0.004577
placement,0.009528
plan,0.001532
plu,0.002276
polic,0.002250
polici,0.022463
policymak,0.003312
polit,0.001270
poll,0.002816
poor,0.018007
popul,0.020157
populationth,0.005381
posit,0.004797
possess,0.001818
possibl,0.009468
post,0.001963
postworld,0.003493
potenti,0.003004
poverti,0.014322
power,0.003562
pp,0.003783
practic,0.001241
precis,0.001911
predict,0.005093
prefac,0.003330
prefer,0.010661
premium,0.002967
prepar,0.001881
preserv,0.001955
pressur,0.005240
presum,0.002590
preval,0.002555
prevent,0.008294
previou,0.005249
previous,0.001768
price,0.008589
primari,0.004595
primarili,0.004758
prior,0.001752
prison,0.007388
privat,0.001663
prize,0.002164
problem,0.014892
produc,0.004829
product,0.019350
profess,0.002424
profession,0.001880
profit,0.010024
program,0.013137
programm,0.002230
progress,0.003163
proletariat,0.007711
promot,0.003310
proof,0.002366
propens,0.003608
propos,0.004295
prospect,0.002465
prosper,0.002398
protection,0.003707
provid,0.013384
provis,0.002260
psycholog,0.001977
public,0.008180
publicli,0.002483
publish,0.002575
punish,0.002552
purchas,0.001973
push,0.004413
putsch,0.004638
qualifi,0.004880
qualiti,0.001728
quarter,0.004827
quarterli,0.002837
quickli,0.001888
quit,0.003922
r,0.003105
race,0.004559
railroad,0.002986
rais,0.005134
ran,0.002597
rancher,0.004407
rang,0.005571
rank,0.001959
rapidli,0.001956
rate,0.135175
ratefrac,0.005461
ratio,0.008371
ration,0.001999
rational,0.003275
raw,0.002400
reach,0.013460
reaction,0.001887
read,0.001278
readabl,0.003760
readi,0.002704
real,0.006109
realli,0.002367
realwag,0.005310
reason,0.003962
reassess,0.003701
receipt,0.003173
receiv,0.011248
recent,0.003823
recess,0.036876
recogn,0.001578
recognit,0.004034
recommend,0.004338
record,0.004653
recov,0.002265
recoveri,0.004899
recurr,0.003161
redistribut,0.003060
reduc,0.032066
redund,0.003255
reentrant,0.005381
refer,0.002207
reflect,0.006326
reform,0.001800
refus,0.002147
regard,0.002823
region,0.001317
regist,0.004564
regul,0.005226
reign,0.002544
reject,0.001814
rel,0.006597
relat,0.004961
relationship,0.007023
reli,0.001773
reliabl,0.002200
relief,0.002623
remain,0.009737
remark,0.002257
remov,0.001699
remuner,0.003840
renam,0.002555
rent,0.005667
replac,0.004499
report,0.009901
repres,0.008450
republ,0.005181
requir,0.004634
requisit,0.003576
research,0.004775
reserv,0.005871
resid,0.001949
resolv,0.004275
resort,0.005461
resourc,0.011919
respect,0.001399
respond,0.003969
respons,0.002552
restrict,0.001705
restructur,0.002906
result,0.019477
resum,0.002814
retail,0.002661
retir,0.007512
retire,0.004444
retrain,0.009181
reunif,0.003665
reunifi,0.004066
revers,0.004052
review,0.001648
revis,0.004398
revolut,0.005469
richard,0.001818
richest,0.003208
right,0.001320
rise,0.026656
risen,0.006200
riseth,0.005778
risk,0.003621
riski,0.003120
risktak,0.004264
robert,0.001618
roger,0.002467
role,0.002578
romer,0.004503
root,0.001859
rose,0.006699
rothbard,0.004034
roughli,0.002064
ruhm,0.005778
rule,0.001343
run,0.001617
rusti,0.004912
s,0.021919
said,0.001512
sale,0.002143
sampl,0.013158
save,0.002089
saw,0.003601
say,0.001594
scale,0.001665
scarc,0.002818
scarciti,0.006149
scenario,0.002665
school,0.008983
scotland,0.002766
search,0.015069
season,0.014269
second,0.002415
secondari,0.002095
secretari,0.002404
sector,0.005788
secular,0.002547
secur,0.004690
seek,0.013211
seen,0.005775
sefemploy,0.005778
self,0.002529
selfemploy,0.029922
selfesteem,0.003871
sell,0.006245
send,0.002301
senior,0.002439
sens,0.001514
separ,0.001344
septemb,0.001774
serv,0.001464
servic,0.018640
servitud,0.003930
set,0.002280
seven,0.003862
sever,0.004271
sex,0.002548
sexual,0.002418
shapirostiglitz,0.005655
share,0.005736
shift,0.008917
shiller,0.004690
shirk,0.018095
shock,0.005031
short,0.003138
shortag,0.002672
shortterm,0.010701
signific,0.005229
significantli,0.001888
similar,0.003669
similarli,0.001940
simonazzi,0.005461
simpl,0.003254
simpli,0.005013
simplifi,0.002385
simultan,0.002146
sinc,0.017411
singl,0.004112
situat,0.001576
size,0.003190
skill,0.017757
slash,0.003913
slaveri,0.002698
slowli,0.002360
small,0.002506
smoke,0.003043
soar,0.003319
social,0.016938
socialist,0.002291
societi,0.005132
socioeconom,0.002959
sociopolit,0.003608
sole,0.002079
solut,0.014018
solv,0.001884
somat,0.003576
sometim,0.005333
soon,0.001878
sourc,0.005153
south,0.001603
southwestern,0.003196
soviet,0.004436
spain,0.004353
special,0.001280
specif,0.002450
spectrum,0.002422
spell,0.002826
spend,0.006378
spent,0.002263
spinner,0.004992
spring,0.004620
springer,0.002479
spur,0.002876
st,0.006604
staff,0.002414
stage,0.003577
stamp,0.003029
stand,0.001924
standard,0.004138
stark,0.003457
start,0.002592
starv,0.003671
state,0.027781
statist,0.052090
stay,0.002241
stayathom,0.005381
steadi,0.002625
steadili,0.002701
steal,0.003379
stem,0.002302
stick,0.003079
sticki,0.007441
stigma,0.003930
stimul,0.002292
stimuli,0.003134
stimulu,0.005999
stop,0.002023
store,0.002075
stori,0.002076
strategi,0.007631
stress,0.008401
strong,0.004464
stronger,0.004931
structur,0.022736
struggl,0.002147
student,0.008716
studi,0.017318
sturdi,0.004373
subject,0.001302
submit,0.002565
subsequ,0.003196
subsidi,0.002853
substanti,0.003802
substitut,0.004551
suddenli,0.006077
suffer,0.009346
suffici,0.005680
suggest,0.011470
suicid,0.008809
suitabl,0.002273
summari,0.002464
superior,0.002279
suppli,0.021706
supplysid,0.020789
support,0.004871
surplu,0.002694
surpris,0.002693
survey,0.031500
surviv,0.001766
suscept,0.002952
sustain,0.006010
susten,0.003975
systemat,0.001956
taboo,0.003689
taken,0.001499
talent,0.006054
talli,0.004004
target,0.001907
tariff,0.002813
tast,0.005749
tax,0.007699
teacher,0.002347
technic,0.001821
techniqu,0.001573
technolog,0.005906
teenag,0.003665
temporari,0.009661
tend,0.001681
tent,0.003142
term,0.007742
territori,0.001792
textil,0.005538
textunemploy,0.010620
th,0.016442
thatcher,0.007480
themselv,0.006077
theoret,0.001679
theori,0.022810
therefor,0.004176
thermal,0.002626
thi,0.046731
thing,0.001629
thousand,0.001806
threat,0.004296
threaten,0.004657
threshold,0.002853
thu,0.004789
thwart,0.003630
tight,0.003126
time,0.020842
tobacco,0.002885
today,0.001471
togeth,0.002824
toledo,0.003985
tool,0.003280
total,0.014290
totalitarian,0.003360
town,0.004206
trade,0.007408
tradeoff,0.003302
tradesmen,0.004425
tradit,0.005158
train,0.005305
transit,0.001783
trend,0.001956
tri,0.004836
true,0.001658
tudor,0.004014
turn,0.001415
turnov,0.006583
twentiethcenturi,0.003540
twice,0.002441
twothird,0.002806
type,0.011082
typic,0.006870
u,0.047796
uk,0.005632
unabl,0.012770
undeclar,0.004567
underemploy,0.016731
underemployedthos,0.005778
underestim,0.003419
uneduc,0.004308
unemploy,0.873198
unfairli,0.004249
unhappi,0.003592
unhealthi,0.007576
union,0.021307
unit,0.034090
univers,0.001060
unless,0.002295
unnecessari,0.003024
unproduct,0.003707
unrest,0.005681
unskil,0.003636
unstabl,0.002732
updat,0.002481
uptod,0.003904
use,0.022596
usual,0.006162
v,0.001826
vacanc,0.022995
vagabond,0.004638
vagrant,0.009683
valid,0.003911
valu,0.002625
valuat,0.002833
van,0.002240
vari,0.001509
variabl,0.001872
variat,0.003839
variou,0.005829
vedder,0.005245
veloc,0.005386
veri,0.005848
veteran,0.006236
vianello,0.004992
viciou,0.007184
view,0.001312
viewpoint,0.002696
viii,0.003261
visibl,0.002263
visit,0.002057
volunt,0.002823
voluntari,0.019835
wa,0.041149
wage,0.114780
wale,0.005702
want,0.013236
war,0.004364
wast,0.002456
way,0.006570
wealthi,0.002672
week,0.021527
weekli,0.003038
weimar,0.011899
welfar,0.016513
wellb,0.002739
west,0.003517
wherea,0.003554
wherev,0.006570
whi,0.001884
whip,0.003966
white,0.001944
whitworth,0.004690
wide,0.001319
wikimedia,0.002854
wilder,0.003475
willingli,0.003966
winner,0.002819
wish,0.006793
withdrew,0.002878
women,0.037036
won,0.002073
work,0.086352
worker,0.118209
workerstexttot,0.005778
workforc,0.017282
workhous,0.013277
workingclass,0.003871
workplac,0.003214
worktim,0.005551
workweek,0.004718
world,0.010383
worri,0.003017
worthwhil,0.003720
wrote,0.001745
ww,0.003665
xenophobia,0.004664
year,0.018605
york,0.003154
young,0.015214
younger,0.002544
youth,0.010332
zero,0.002153
