abbrevi,0.011617
abil,0.001640
abl,0.004518
abov,0.009159
abroad,0.002589
access,0.003299
account,0.023875
accountsbas,0.011838
accrual,0.017987
achiev,0.001500
acquir,0.001942
act,0.009539
action,0.001465
activ,0.001189
actual,0.001526
ad,0.024347
addit,0.008444
adjust,0.004564
administ,0.009350
administr,0.015005
adopt,0.003291
adult,0.004668
advanc,0.001472
advantag,0.003701
advertis,0.002801
advoc,0.002046
affair,0.003943
affect,0.001558
afonso,0.004311
agenc,0.001875
agre,0.003595
agregado,0.011838
ahm,0.003426
al,0.004090
alan,0.002527
alcohol,0.005474
alleg,0.002465
allow,0.009486
alon,0.002039
alongsid,0.002479
alv,0.005032
alway,0.001603
amend,0.002514
america,0.003342
american,0.001351
amtac,0.005919
andor,0.002086
ani,0.011559
anim,0.001669
annual,0.001831
anoth,0.004587
apex,0.003712
appear,0.001381
appli,0.024220
applic,0.005696
approach,0.001372
approv,0.004096
approxim,0.001625
april,0.007296
arab,0.002202
arbitrari,0.002574
archiv,0.002194
area,0.010658
argu,0.001586
aris,0.001945
arvonlisvero,0.005919
ask,0.001971
aspect,0.001567
assert,0.002048
assess,0.004062
assign,0.002141
assum,0.008259
assumpt,0.002031
attempt,0.004080
attent,0.001944
attribut,0.003707
auf,0.004496
august,0.001811
australia,0.006217
australian,0.002479
author,0.005370
autom,0.002668
autonom,0.002411
autonomi,0.002491
avail,0.002915
avenu,0.003449
avoid,0.008905
balanc,0.003774
bangladesh,0.017020
bank,0.003448
barrier,0.002426
base,0.005195
basi,0.008911
basic,0.002892
bat,0.007056
bear,0.006694
becaus,0.009741
becom,0.006905
befor,0.002455
begin,0.002803
belgium,0.002822
beliz,0.003887
benelux,0.004397
bernd,0.004514
besid,0.002460
bet,0.003637
better,0.003242
beverag,0.003426
billion,0.006126
bird,0.007363
bjp,0.004925
blind,0.002942
board,0.002074
bokml,0.005919
book,0.006832
border,0.012708
borderadjust,0.011838
bought,0.002747
box,0.002695
branch,0.001529
brasil,0.004496
brazil,0.005138
brazilian,0.006629
bring,0.001787
british,0.001605
broadli,0.002406
brought,0.001772
brunswick,0.003887
build,0.004564
burden,0.013722
busi,0.063212
buy,0.011372
buyer,0.008608
calcul,0.009173
cambridg,0.001907
came,0.001574
canada,0.006187
canadian,0.002444
capita,0.002613
captur,0.001977
car,0.012723
care,0.007236
carlo,0.002740
carousel,0.016536
carri,0.001552
cascad,0.003461
case,0.006020
cash,0.016847
center,0.003071
certain,0.011862
certif,0.011195
certifi,0.003141
chain,0.012908
chanchal,0.005793
chang,0.001085
character,0.001826
charg,0.053891
charl,0.003688
check,0.004993
chequ,0.008374
children,0.001980
chile,0.003114
china,0.007400
choic,0.001892
cinema,0.006466
circul,0.002519
citi,0.001663
claim,0.007309
class,0.001597
claus,0.003207
coalit,0.002333
coin,0.001994
collect,0.042144
columbia,0.002678
combin,0.001373
commerci,0.003690
commiss,0.001917
commod,0.007012
common,0.004658
commonwealth,0.002487
compani,0.009124
compar,0.001424
comparison,0.002019
compat,0.002763
compens,0.007302
complex,0.001409
compli,0.003175
compon,0.001658
compulsori,0.006092
concept,0.001344
concern,0.001352
concert,0.003247
condit,0.001347
confid,0.002463
congressman,0.004413
consequ,0.001637
consid,0.015725
constant,0.001914
constitut,0.001520
constraint,0.002391
consum,0.049863
consumpt,0.029203
contenti,0.003422
contractor,0.007065
contribut,0.001413
controversi,0.001897
convent,0.001865
convers,0.001987
cooper,0.007363
corpor,0.005669
correct,0.001939
correctli,0.002767
correspondingli,0.003637
cost,0.025400
costli,0.003001
council,0.003512
counter,0.002604
counti,0.002866
countri,0.045630
cours,0.001678
creat,0.001178
credit,0.007455
creditinvoic,0.017757
critic,0.008500
croatia,0.003453
crossbord,0.003652
cultur,0.004344
current,0.012330
curv,0.009478
custom,0.025318
cvat,0.011838
danc,0.003088
danish,0.006092
date,0.003219
dateregardless,0.005919
day,0.001453
dbcft,0.005919
deadweight,0.012933
deaf,0.004112
debat,0.001793
decad,0.001750
decemb,0.001767
declar,0.007441
decreas,0.003793
deduct,0.013933
defend,0.002155
deficit,0.002673
defin,0.001321
degre,0.003154
delhi,0.003324
deliv,0.002270
demand,0.008597
denmark,0.011301
dental,0.003679
depart,0.003377
depend,0.001270
deposit,0.002280
describ,0.001185
despit,0.001633
destinationbas,0.011838
determin,0.002675
develop,0.002889
devic,0.002152
dhm,0.005373
diagram,0.002649
did,0.002859
differ,0.020421
difficult,0.001679
direct,0.011510
directli,0.003095
director,0.002315
disadvantag,0.008568
disbeliev,0.004591
discourag,0.002907
discuss,0.001571
distort,0.024475
distribut,0.001589
dmoz,0.002550
doctor,0.002298
doe,0.013032
dollar,0.002250
domest,0.017961
dr,0.002389
drag,0.003334
drug,0.002271
dual,0.005430
duti,0.004583
e,0.003121
earli,0.001159
earlier,0.001713
earn,0.006538
easili,0.001986
ec,0.003528
econmica,0.004959
econom,0.007614
economi,0.001583
economist,0.002177
educ,0.010340
edward,0.002109
effect,0.009012
effici,0.001815
effort,0.001605
ehtisham,0.005919
ein,0.003778
electr,0.001917
elimin,0.002005
emir,0.003305
emphasi,0.002103
employ,0.004614
enabl,0.001838
enact,0.007711
encompass,0.002170
encourag,0.001905
end,0.011410
endconsum,0.011838
endus,0.008468
enforc,0.002173
engag,0.001836
ensur,0.001905
entertain,0.002851
entir,0.001504
entiti,0.003935
entitl,0.002393
entranc,0.003265
equal,0.004737
equalis,0.005158
equit,0.003457
equiti,0.002653
equival,0.003735
essenc,0.002619
essenti,0.003223
establish,0.001237
estim,0.001631
eu,0.035346
europ,0.001572
european,0.010110
evad,0.003592
evas,0.003748
event,0.004527
everi,0.004353
evid,0.001581
exactli,0.004543
exampl,0.017654
exceed,0.002435
excess,0.004481
excis,0.018480
exclud,0.006544
exclus,0.001980
exempt,0.054253
exercis,0.001992
expect,0.003186
expenditur,0.002563
expens,0.014497
experi,0.001425
expert,0.004580
export,0.042544
exportimport,0.004571
extend,0.001529
extent,0.001908
extern,0.001813
extra,0.005311
face,0.001740
facil,0.002222
fact,0.007361
facto,0.002811
factor,0.001470
fall,0.001582
fallen,0.002817
far,0.001572
faroes,0.004925
favor,0.003830
favour,0.002280
februari,0.001883
feder,0.016616
fee,0.008142
feed,0.002662
fell,0.002239
felt,0.002447
ferri,0.003532
field,0.001266
fifth,0.002469
final,0.005999
financ,0.011024
financi,0.008277
finland,0.009301
finnish,0.007146
firm,0.002071
fiscal,0.010515
fix,0.001840
flat,0.007956
flexibl,0.002567
flow,0.001826
focu,0.003402
follow,0.001983
food,0.010707
foodstuff,0.007156
foot,0.002694
ford,0.013133
form,0.008530
formerli,0.002322
forum,0.002546
fraction,0.007281
framework,0.001776
franc,0.005325
fraud,0.028562
free,0.005665
freed,0.003196
frequent,0.001743
fresh,0.005570
fuel,0.002297
function,0.001269
fund,0.005129
fundao,0.005373
fundsno,0.005919
futur,0.001510
gain,0.003017
game,0.002127
gcc,0.012461
gendron,0.011838
gener,0.016038
german,0.007004
germani,0.020537
gewerblichem,0.005919
gnrale,0.004034
good,0.077200
gop,0.005313
govern,0.037732
grant,0.001900
greater,0.001561
greatest,0.002182
green,0.002132
grey,0.003305
groceri,0.004072
gross,0.026668
group,0.001118
grow,0.001590
growth,0.001569
gst,0.040472
gstfree,0.011838
guatemala,0.003748
guest,0.003274
guesthous,0.005206
gulf,0.008415
ha,0.024804
hand,0.003072
handl,0.004509
happen,0.001959
harmon,0.003014
hawaii,0.006598
headlin,0.003858
health,0.008643
heat,0.002186
help,0.001357
hi,0.003335
high,0.003766
higher,0.005896
highest,0.003797
hire,0.002707
histor,0.001392
hold,0.001493
holiday,0.002918
home,0.003541
homeown,0.008735
horizont,0.002859
hospit,0.002445
hot,0.002730
hotel,0.008956
hous,0.001663
howev,0.010063
hst,0.009357
human,0.001194
hundr,0.001883
hungari,0.003070
hypothet,0.005576
ibl,0.010746
iceland,0.009566
idea,0.001391
igv,0.005686
im,0.003277
impact,0.001699
implement,0.018989
implic,0.004320
import,0.020093
impos,0.008529
impt,0.005593
impuesto,0.022745
inadequ,0.002944
incent,0.010326
includ,0.012050
incom,0.041782
incomeearn,0.005373
incorpor,0.001702
increas,0.013116
increment,0.003132
incur,0.020814
inde,0.002108
india,0.011390
indian,0.008210
indic,0.004576
indien,0.005593
indirect,0.010776
indisch,0.005373
individu,0.002557
industri,0.001415
industrialist,0.003701
ineffici,0.005742
inform,0.002465
infrastructur,0.002099
inher,0.002376
initi,0.002694
inland,0.002975
input,0.033696
insid,0.002079
instanc,0.005037
instead,0.005809
institut,0.005248
instituto,0.004338
insur,0.007171
interamerican,0.004112
intern,0.011952
internet,0.002034
interpret,0.001654
interst,0.003701
introduc,0.015999
introduct,0.001643
introductori,0.002956
invest,0.003530
invoic,0.026876
invoicebas,0.011838
involv,0.001202
inwardoutbound,0.005919
isbn,0.001465
island,0.001837
issn,0.003199
issu,0.003991
item,0.013647
iva,0.019979
j,0.003114
januari,0.014156
japan,0.006151
join,0.001844
joint,0.002183
journal,0.004784
juli,0.007163
jurisdict,0.007549
keen,0.006830
key,0.003155
kind,0.001651
known,0.007252
kumar,0.003880
la,0.004138
label,0.002230
labour,0.002098
lack,0.001580
land,0.007844
larg,0.002185
largest,0.001712
later,0.001232
latin,0.001948
laur,0.005373
law,0.007493
lawandbusinessd,0.005919
lead,0.001236
leav,0.010533
left,0.001652
leftward,0.004777
legal,0.005131
legisl,0.007591
legislatur,0.002536
leksikon,0.005919
lend,0.002663
lessor,0.005512
let,0.004645
level,0.009916
levi,0.011653
lg,0.004413
liabil,0.005826
liber,0.001869
licenc,0.007100
lieu,0.003910
life,0.001332
like,0.007750
limit,0.006330
link,0.000901
list,0.002305
littl,0.001586
local,0.004212
locat,0.001524
loss,0.005439
lost,0.005404
lot,0.002553
lotteri,0.003917
low,0.001588
lower,0.010722
lowerincom,0.004994
lumpsum,0.004702
lxvi,0.005919
m,0.007412
machin,0.002001
magazin,0.004799
main,0.005249
maintain,0.002890
major,0.004398
make,0.006324
malaysia,0.006057
malaysian,0.003748
mandatori,0.003185
mani,0.011242
manufactur,0.037558
march,0.003437
margin,0.020444
match,0.011021
materi,0.008715
matter,0.003118
mauric,0.003091
mclure,0.011838
mean,0.005707
meaning,0.002694
measur,0.002715
mechan,0.006122
medic,0.007635
medicin,0.003952
meirverdiavgift,0.005919
meirvirisgjald,0.005919
member,0.023805
mercantilerevenu,0.005919
merchandis,0.003555
meromstningsafgift,0.005919
merverdiavgift,0.005919
mervrd,0.005919
mervrdiafgift,0.005919
method,0.020540
mexican,0.003302
mexico,0.018102
michael,0.003815
michigan,0.008974
microeconom,0.003227
middl,0.001709
minimum,0.002261
minist,0.001870
minu,0.012255
miss,0.002614
mistak,0.002852
mit,0.002518
model,0.002582
modern,0.001243
modi,0.004514
modif,0.002463
mom,0.014106
monetari,0.002222
money,0.003704
monitor,0.002241
monopoli,0.002655
mont,0.003107
motor,0.002673
muller,0.008088
multistag,0.004479
municip,0.002525
music,0.002278
mva,0.005158
mvg,0.005919
nadu,0.008622
narendra,0.004655
nation,0.010337
nationwid,0.003149
natur,0.003319
nearli,0.003610
necessari,0.001651
need,0.001246
neg,0.001797
nepal,0.010558
network,0.001732
new,0.005555
newfoundland,0.003858
newspap,0.010264
nexu,0.003873
nichol,0.008351
nichola,0.002788
nixon,0.003690
nondistortionari,0.005206
noneuropean,0.004034
nonvat,0.005919
nordic,0.007156
normal,0.006608
norway,0.005826
norwegian,0.003221
notabl,0.003181
note,0.005975
nova,0.003124
novel,0.002294
novemb,0.001859
nr,0.004072
nudansk,0.005919
number,0.003110
nynorsk,0.005919
object,0.001416
oblig,0.009156
observ,0.001368
occur,0.007901
och,0.004413
octob,0.003584
oecd,0.012273
offer,0.001541
offic,0.003336
offici,0.003147
offset,0.003014
oil,0.004137
om,0.008622
oman,0.003754
omstningsafgift,0.005919
omsttningsskatt,0.017757
onboard,0.004353
onc,0.001548
onli,0.010495
onlin,0.003628
ontario,0.003407
opel,0.022049
oper,0.003922
opposit,0.001705
opt,0.003224
option,0.002162
order,0.003426
organ,0.003391
organis,0.003924
origin,0.003446
otherwis,0.001971
outofst,0.005257
output,0.017307
outsid,0.003162
overal,0.003794
overhead,0.003690
overview,0.002076
owe,0.002522
owner,0.002344
packag,0.002627
paid,0.035928
paper,0.006841
paperwork,0.017917
pari,0.002266
parthasarathi,0.005686
parti,0.001601
particip,0.001635
particular,0.002594
particularli,0.001453
pascrel,0.005919
pass,0.014492
passag,0.004938
passeng,0.009252
paul,0.001801
paulo,0.008016
pay,0.029027
payabl,0.007414
payer,0.008329
payment,0.013404
payrol,0.003754
peopl,0.005714
percent,0.010409
percentag,0.004619
perform,0.001457
period,0.007389
persian,0.002604
person,0.012207
personnel,0.002561
perspect,0.003709
peru,0.003271
pesquisa,0.005257
pharmaceut,0.002823
physic,0.002712
place,0.004688
plan,0.001569
plu,0.002332
polici,0.007669
polit,0.001300
politi,0.003204
politician,0.009946
politiken,0.005593
poor,0.004098
posit,0.001228
possibl,0.002424
post,0.004023
postal,0.003191
pp,0.003875
practic,0.006358
pragmat,0.002897
predomin,0.002711
prefer,0.001820
premis,0.005576
prescript,0.003132
presenc,0.001797
present,0.001188
presid,0.001718
press,0.001398
pressur,0.001789
pretend,0.003679
previou,0.003584
previous,0.005435
price,0.045750
primari,0.001568
princ,0.002565
principl,0.001426
print,0.002232
prior,0.005385
privat,0.008521
problem,0.008898
process,0.002247
procur,0.003283
produc,0.013603
product,0.017343
profit,0.010268
program,0.001495
progress,0.004859
project,0.001470
projektgeschft,0.005919
promot,0.001695
properti,0.002878
proport,0.001965
propos,0.010265
prove,0.003668
provid,0.006327
provinci,0.008624
provis,0.004630
public,0.008379
publish,0.002638
puerto,0.006837
purchas,0.036388
purpos,0.003092
qualifi,0.002499
quantiti,0.003872
quasi,0.004552
qubec,0.004382
quebec,0.003489
quit,0.002008
quot,0.002486
r,0.001590
radio,0.002433
rahmen,0.005919
rais,0.007012
rate,0.083960
ratio,0.002143
raw,0.009836
real,0.003129
realiz,0.002107
reason,0.004058
rebat,0.034599
receipt,0.009751
receiv,0.008641
recent,0.001305
recht,0.004862
rechtsschutz,0.005919
record,0.003177
recov,0.009281
recover,0.004397
rectangl,0.004008
redistribut,0.003134
reduc,0.014280
reduct,0.002169
refer,0.002261
reflect,0.001619
reform,0.012907
reforma,0.004994
refund,0.008397
regard,0.001446
regardless,0.002278
region,0.004049
regist,0.011687
registr,0.014676
regress,0.005947
regul,0.001784
reimburs,0.003925
relat,0.004065
relianc,0.003022
remain,0.006233
remaind,0.002797
remit,0.008034
remitt,0.003690
render,0.002472
rent,0.005805
repay,0.003185
repeal,0.003411
replac,0.016897
report,0.005795
represent,0.001901
republican,0.002692
request,0.002291
requir,0.011866
resel,0.004234
resid,0.001997
residenti,0.003244
respect,0.001433
respons,0.002614
restaur,0.003347
restrict,0.001747
result,0.002100
retail,0.057254
retain,0.001982
retriev,0.002239
reveal,0.001982
revenu,0.061577
review,0.003378
rich,0.002161
richard,0.005586
rico,0.007119
right,0.002705
rise,0.003033
road,0.004379
room,0.002445
royal,0.001989
rule,0.011008
rv,0.004678
s,0.005345
sale,0.133956
salepurchas,0.005919
sampl,0.002246
santo,0.003477
save,0.002140
say,0.004899
sbt,0.005686
scheme,0.002268
scholarship,0.002695
school,0.001533
schwerpunkt,0.005686
scienc,0.001267
scope,0.004432
scotia,0.003910
secondari,0.002146
sector,0.007905
sell,0.008529
seller,0.030119
septemb,0.005453
serra,0.004777
servic,0.089591
set,0.009341
seven,0.001978
sever,0.001093
share,0.002937
sharma,0.004382
shift,0.010961
ship,0.002138
shome,0.005919
short,0.001607
shown,0.001817
siemen,0.004210
signific,0.002678
silvani,0.005919
similar,0.001252
similarli,0.001987
simpl,0.003333
simpler,0.002797
simpli,0.003423
simplic,0.006070
sinc,0.002098
singl,0.004212
situat,0.003230
sixth,0.002785
smallscal,0.003241
smart,0.003295
smith,0.004445
smuggl,0.003407
socal,0.002116
social,0.004003
sold,0.022154
solut,0.001794
someon,0.004901
soon,0.003847
sourc,0.007917
spahn,0.005593
spanish,0.004537
special,0.006560
specif,0.002510
specifi,0.002133
spend,0.013066
split,0.008624
ssrncom,0.005686
staff,0.002473
stage,0.010992
standard,0.012717
start,0.003983
state,0.040390
statement,0.001925
station,0.002291
stay,0.004592
stern,0.003582
stick,0.003154
stipul,0.003172
store,0.002125
strong,0.001524
studi,0.001108
style,0.002161
subject,0.008007
subnat,0.008164
substanti,0.001947
substitut,0.002331
subtract,0.016136
subtractionmethod,0.005919
success,0.001391
suggest,0.002937
sum,0.004185
superior,0.002335
supplementari,0.003811
suppli,0.032495
supplier,0.008862
support,0.001247
sure,0.002874
surplu,0.008280
svalbard,0.009267
sweden,0.007861
swedish,0.005722
tabl,0.002019
tait,0.004445
tamil,0.007609
target,0.001953
tariff,0.011526
tax,0.481086
taxabl,0.026279
taxat,0.025793
taxexempt,0.004271
taxvat,0.005919
televis,0.002364
tend,0.001722
tender,0.003498
term,0.002974
territori,0.005508
th,0.002405
themselv,0.003112
theori,0.003689
therebi,0.002171
therefor,0.001425
thi,0.025110
threshold,0.002922
thu,0.003679
ticket,0.003528
time,0.010210
tnvat,0.005919
tobago,0.003838
today,0.003014
togeth,0.002893
toll,0.003344
took,0.006555
topic,0.001664
total,0.013174
track,0.004642
trade,0.016694
trader,0.002582
tradit,0.002642
transact,0.022589
transfer,0.001795
transpar,0.002684
transport,0.010791
travel,0.001852
treati,0.006572
tremblant,0.005919
trend,0.004007
tri,0.003302
triangl,0.003102
trillion,0.002924
trinidad,0.003652
trip,0.002899
true,0.001698
trump,0.007981
truncat,0.011921
tt,0.003858
turnov,0.006743
twice,0.005001
type,0.007568
typic,0.001407
uae,0.004017
uk,0.001922
ultim,0.003629
um,0.004612
unemploy,0.002457
unfair,0.003489
uniform,0.002432
union,0.010912
unit,0.009523
univers,0.001086
unless,0.002350
upward,0.002920
urban,0.002200
usa,0.004684
usag,0.002200
use,0.023145
user,0.011636
usual,0.006312
util,0.001897
valor,0.008891
valu,0.028237
valuead,0.096830
vari,0.003093
varieti,0.001575
variou,0.002388
vat,0.787195
vatfre,0.005919
vatgdp,0.005919
vatgst,0.005919
vatregist,0.011838
vehicl,0.002382
vend,0.004514
vendor,0.003592
venta,0.010515
veri,0.002396
verifi,0.002652
vertic,0.002714
vietnam,0.014215
vietnambas,0.005919
virisaukaskatt,0.005919
virisaukaskattur,0.005919
vision,0.002272
viva,0.004496
vivat,0.011838
vol,0.004509
voluntarili,0.003400
von,0.002127
voteriniti,0.005919
vsk,0.005686
wa,0.020644
wage,0.002305
washington,0.002309
water,0.001618
way,0.005608
weak,0.002083
welfar,0.002416
whi,0.001930
whilst,0.005420
wholesal,0.019591
wide,0.002702
widespread,0.004031
widget,0.042999
wilhelm,0.002641
word,0.004368
work,0.003085
world,0.005318
worldwid,0.004256
wors,0.002885
written,0.001661
wto,0.009906
x,0.009287
year,0.003176
yellow,0.002946
yuan,0.003587
zealand,0.007483
zero,0.008825
zeror,0.020634
