abov,0.024054
accord,0.009394
action,0.109659
ad,0.011988
adam,0.066729
add,0.008957
addit,0.009504
address,0.007073
advantag,0.007291
affect,0.006138
aggreg,0.009933
agre,0.007081
alloc,0.018747
allow,0.004671
alway,0.031582
amsterdam,0.011948
ani,0.028978
anoth,0.013553
anticip,0.020894
appl,0.012232
applic,0.005609
assign,0.016874
assum,0.019521
asymmetr,0.025701
attempt,0.005357
aumann,0.019154
avail,0.005741
averag,0.007016
avoid,0.035080
b,0.043551
badli,0.012769
balanc,0.007434
banana,0.012804
base,0.004092
becaus,0.008527
becom,0.009067
began,0.005655
behavior,0.006643
benefit,0.020619
best,0.018727
better,0.019161
bimatrix,0.024710
blue,0.060573
book,0.005382
borel,0.016679
brian,0.046339
c,0.016261
cake,0.048838
case,0.004742
chang,0.004276
chapter,0.008841
chess,0.013864
choic,0.044722
choos,0.097924
circumst,0.008714
close,0.005076
coerc,0.015754
coercion,0.044658
coincident,0.015687
collect,0.005533
column,0.010778
common,0.004587
commonli,0.006300
compar,0.005611
competit,0.014920
complex,0.011103
comprehens,0.008356
comput,0.018859
concept,0.015883
conflict,0.007066
confus,0.017078
consid,0.017698
constant,0.030171
constitut,0.005990
constraint,0.028260
content,0.007486
context,0.006674
contrast,0.006409
conundrum,0.017645
conveni,0.010130
convers,0.007827
convert,0.007734
cost,0.020011
countri,0.009985
creat,0.013922
credibl,0.011808
critic,0.005580
cut,0.008055
decid,0.007394
definit,0.017997
deliv,0.008942
denni,0.013007
describ,0.004669
destini,0.013512
destroy,0.007934
destruct,0.008979
determin,0.005268
devic,0.008479
deviou,0.020509
differ,0.008044
diseas,0.007947
displaystyl,0.121676
distribut,0.006260
doe,0.015401
draw,0.015555
dual,0.010696
dualiti,0.013020
dutch,0.009318
e,0.006148
econom,0.029993
edit,0.014298
effect,0.004437
element,0.040666
elmer,0.015967
els,0.009406
elsevi,0.012827
enhanc,0.008460
enlarg,0.011667
ensur,0.007504
equal,0.006220
equat,0.007597
equilibria,0.015119
equilibrium,0.114560
equival,0.014715
escap,0.009171
espn,0.019676
everi,0.011431
exactli,0.008948
exampl,0.028636
excess,0.017655
exchang,0.051657
expect,0.006276
extens,0.006168
extern,0.003571
fact,0.017399
fallaci,0.012983
favor,0.007544
feel,0.008539
finit,0.009447
follow,0.011721
forc,0.004895
form,0.007467
function,0.005000
fundament,0.006255
furthermor,0.008370
g,0.006607
gain,0.071311
game,0.494530
gener,0.010529
given,0.009798
global,0.006486
goe,0.017580
good,0.059736
ha,0.022798
handbook,0.009885
happen,0.015439
hart,0.014095
hi,0.013138
howev,0.003964
human,0.004705
idea,0.005482
ignor,0.008472
imperfect,0.012025
impli,0.007593
impos,0.008400
imposs,0.008259
increas,0.004697
increasingli,0.007200
incred,0.013968
independ,0.010033
inform,0.019424
insight,0.009060
instead,0.005721
integr,0.005894
interact,0.006094
interdepend,0.012260
interpret,0.006516
interrupt,0.012149
invers,0.010313
isbn,0.005774
iui,0.023317
j,0.018402
john,0.011111
know,0.007400
kornheis,0.024710
labour,0.008267
larg,0.004303
larger,0.006445
lead,0.004872
lemon,0.016042
like,0.008723
linear,0.069509
link,0.003550
logic,0.007903
look,0.006742
lose,0.034352
loss,0.064279
lot,0.010057
lump,0.014472
m,0.052559
make,0.012456
mani,0.007381
margin,0.008948
market,0.006112
mathemat,0.006419
matrix,0.051248
maxim,0.037145
maximin,0.021166
maximum,0.008879
mean,0.004496
method,0.005057
michael,0.007514
mij,0.024710
mile,0.009491
minim,0.051707
minimax,0.052344
misstat,0.019276
misunderstand,0.013409
misunderstood,0.015589
mix,0.031415
model,0.005086
modifi,0.007967
morgenstern,0.016877
mu,0.025892
multipli,0.010526
mutual,0.008612
n,0.021998
nash,0.122060
negat,0.012995
negoti,0.008546
net,0.025749
neumann,0.025724
new,0.003647
noncompetit,0.018088
nonneg,0.015257
nonoccur,0.024710
nonzero,0.013409
nonzerosum,0.175825
noth,0.008640
number,0.012254
numer,0.006049
obtain,0.006346
occur,0.005187
offset,0.011873
onli,0.011275
onlin,0.007146
oppon,0.020286
optim,0.051963
option,0.017040
order,0.004499
origin,0.004525
oskar,0.014764
outcom,0.008347
overcom,0.010027
page,0.008004
pardon,0.014559
pareto,0.043104
parti,0.037860
particip,0.038648
particularli,0.005726
payoff,0.154844
percept,0.008691
perfect,0.009122
perform,0.005740
person,0.016028
pictur,0.009140
pie,0.016539
piec,0.009016
place,0.009235
play,0.035372
playabl,0.020509
player,0.288526
point,0.047363
pointloss,0.024710
poker,0.016929
polit,0.005124
pool,0.010691
posit,0.029034
positivesum,0.114100
possibl,0.004775
powerit,0.024710
pp,0.007633
prefac,0.013438
prefer,0.007169
prevail,0.009905
probabl,0.067186
problem,0.010015
proce,0.011399
procedur,0.008154
profession,0.007586
profit,0.008089
program,0.047119
properti,0.005669
propos,0.005776
provabl,0.015823
prove,0.007226
provid,0.004154
psycholog,0.031924
publish,0.005196
punish,0.010300
punishingtheoppon,0.049421
pure,0.022211
pursu,0.008515
raghavan,0.019823
random,0.008931
ration,0.016138
read,0.005157
reason,0.015988
receiv,0.005673
recreat,0.011469
red,0.074077
reduc,0.011250
ref,0.017091
refer,0.008908
refus,0.017331
regard,0.005697
rel,0.005324
relat,0.004003
repres,0.004871
represent,0.014982
respect,0.011294
result,0.016545
reveal,0.007810
rewardasyougo,0.024710
right,0.005328
rise,0.005975
robert,0.006529
row,0.011483
s,0.004211
say,0.019300
second,0.014620
secret,0.018324
seek,0.006663
select,0.006457
selfish,0.013915
semant,0.011007
sens,0.006110
seri,0.005915
serv,0.005911
servic,0.005785
shall,0.010839
similar,0.004934
simmon,0.016877
simpl,0.006566
simpli,0.013487
sinc,0.004132
situat,0.044540
social,0.010514
societi,0.005177
solut,0.042423
solv,0.053240
someth,0.007945
sometim,0.010759
special,0.005168
specif,0.009889
sport,0.009815
stakehold,0.013282
standard,0.016698
start,0.015693
strategi,0.115476
strictli,0.009746
subfield,0.010638
subject,0.005257
subtract,0.012713
suffer,0.007542
suffici,0.007640
sum,0.074194
suppos,0.009081
surpris,0.010867
t,0.007190
tac,0.019823
temporarili,0.011392
text,0.007129
th,0.004738
theorem,0.009264
theoret,0.013552
theori,0.033908
theoriz,0.011244
thi,0.024729
thing,0.006575
think,0.021500
thu,0.009662
tic,0.019276
toe,0.015464
togeth,0.005698
toni,0.012804
total,0.017298
trade,0.095653
transact,0.062289
transpos,0.015344
trap,0.010828
tri,0.013009
trick,0.013813
turn,0.011426
twoperson,0.018927
twoplay,0.095774
u,0.125358
unawar,0.013438
unfortun,0.011914
unit,0.004168
univers,0.004280
use,0.020261
usual,0.004973
util,0.052335
valid,0.007891
valu,0.021187
valuabl,0.019403
variabl,0.007554
vector,0.049973
volum,0.007079
von,0.016763
wa,0.003388
want,0.007629
warfar,0.010481
way,0.008837
wellb,0.011055
wien,0.015286
wilbon,0.024710
win,0.055756
word,0.005736
wors,0.011364
wright,0.012260
wrong,0.009720
x,0.029269
y,0.017601
zero,0.043455
zerosum,0.564033
zerozero,0.049421
