abil,0.003728
abl,0.020538
abov,0.003469
abund,0.060451
academi,0.005220
accident,0.007009
accord,0.005419
account,0.003191
acid,0.027299
acknowledg,0.005225
ad,0.003458
addit,0.005483
advanc,0.003346
affin,0.006658
agent,0.004620
agricultur,0.004027
aim,0.003869
air,0.004162
aircraft,0.006018
al,0.013944
alh,0.012527
ali,0.006717
allow,0.005389
alloy,0.037704
alo,0.010066
alpha,0.012545
alum,0.021839
alumen,0.014256
aluminium,0.205015
american,0.003070
ammonium,0.009089
amphoter,0.023663
amplifi,0.007441
ancient,0.003926
ani,0.002388
anim,0.011379
anoth,0.007819
anthoni,0.006399
antoin,0.007434
appar,0.004626
appear,0.003138
applic,0.032363
arab,0.005005
area,0.002691
argentina,0.006722
array,0.005913
arsenid,0.010741
assembl,0.004230
assist,0.004040
associ,0.002647
astatin,0.010857
atb,0.013165
atom,0.061600
attract,0.004360
august,0.008235
australia,0.004710
az,0.009828
b,0.014357
ban,0.005459
barley,0.008277
base,0.002361
basic,0.003287
bauxit,0.019245
bear,0.005071
becaus,0.009838
becom,0.010462
befor,0.016744
behavior,0.003832
berborit,0.014256
beryl,0.011120
better,0.003684
bh,0.019300
bibliographi,0.004752
bind,0.005642
biolog,0.027127
bitter,0.007393
bleach,0.009321
blend,0.013699
block,0.004867
bo,0.008869
bodi,0.016394
boil,0.007308
boisbaudran,0.012712
bolivia,0.008399
bombard,0.007252
bond,0.014001
boracit,0.014256
boracium,0.014256
boran,0.023897
boraq,0.014256
borax,0.060372
boric,0.011436
boron,0.505023
boroncontain,0.014256
borongroup,0.042768
borosil,0.013452
bound,0.004889
brazil,0.005839
britannica,0.006645
britannicacom,0.013803
bromin,0.009650
build,0.003457
bukovit,0.014256
burn,0.005601
c,0.006254
cabl,0.007123
california,0.005012
cambridg,0.004334
canada,0.004687
canning,0.010531
capabl,0.012928
car,0.005782
carbohydr,0.007711
carbon,0.010667
case,0.002736
catalyst,0.007146
categori,0.004175
cathod,0.009108
caus,0.011683
cell,0.023533
ceram,0.015390
certainli,0.006246
chain,0.004889
chapman,0.007884
character,0.008301
characterist,0.015088
charl,0.004191
chemic,0.029169
chemist,0.012578
chemistri,0.019186
china,0.008409
chlorid,0.007787
chlorin,0.015806
chlorophyl,0.009415
christian,0.004241
circuit,0.006174
classifi,0.008854
claudeaugust,0.013803
clay,0.006988
cloth,0.005721
coal,0.006381
coat,0.012967
cobalt,0.008301
coil,0.008451
colemanit,0.014256
collect,0.003192
color,0.010904
colorless,0.009797
combin,0.003120
come,0.012521
commerci,0.008386
common,0.018525
compar,0.009711
complet,0.003022
complex,0.012811
complic,0.004960
compon,0.018847
compos,0.008305
compound,0.128234
compris,0.004477
concentr,0.004283
conclud,0.004476
condit,0.006125
conduct,0.011254
conductor,0.023681
configur,0.012093
confirm,0.004718
consid,0.010210
construct,0.003389
contain,0.009420
content,0.008638
contrast,0.003697
contribut,0.003212
control,0.005816
convent,0.004238
convers,0.004515
cook,0.006171
copper,0.006078
count,0.009984
countri,0.011522
coval,0.007769
creat,0.005354
credit,0.008471
criteria,0.005481
crook,0.026120
crookesit,0.014256
crust,0.058318
cryolit,0.012211
cuga,0.014256
current,0.008406
danish,0.006922
davi,0.038081
death,0.003833
debat,0.004075
decad,0.007957
decay,0.042130
decompos,0.007095
decor,0.007106
decreas,0.008620
deep,0.009745
definit,0.003461
densiti,0.005282
dental,0.008361
deposit,0.005182
deriv,0.016640
determin,0.003039
develop,0.002189
devic,0.014675
devil,0.007753
devis,0.006004
diaspor,0.011831
diboran,0.012074
did,0.003249
differ,0.004640
diod,0.009149
directli,0.003517
discov,0.034692
discoveri,0.012298
display,0.034822
disrupt,0.011280
dissolv,0.021746
divers,0.004209
divid,0.003470
divis,0.003793
dmitri,0.017036
doe,0.005923
dopant,0.011193
dose,0.031915
drop,0.004804
dubna,0.022541
dye,0.007497
earli,0.002635
earlier,0.003894
earth,0.053784
ec,0.008018
ecosystem,0.005977
effect,0.010240
effici,0.004126
egyptian,0.005939
eld,0.012527
electr,0.030502
electrochem,0.008399
electroluminesc,0.012527
electrolysi,0.029778
electron,0.035278
electrophoset,0.014256
element,0.254721
elsewher,0.005432
emil,0.007413
emiss,0.006253
emit,0.006596
emsley,0.011270
encount,0.005190
encyclopedia,0.004538
energet,0.007140
energi,0.003689
enzym,0.006406
epd,0.013452
equip,0.004711
especi,0.012240
essenti,0.010990
estim,0.003708
etienn,0.010482
etymolog,0.005609
etymonlinecom,0.014256
european,0.006564
eventu,0.003745
everi,0.003297
everyday,0.005629
examin,0.008249
exampl,0.016521
exceed,0.005534
excess,0.005092
exist,0.005241
expand,0.003727
expans,0.008892
expect,0.003620
experi,0.009721
explos,0.005841
extern,0.002060
extract,0.040581
extractor,0.022872
extrem,0.011340
extrus,0.011723
f,0.003881
fall,0.003597
famili,0.003649
familiar,0.005575
far,0.003573
fed,0.007051
ferdinand,0.007123
fewer,0.005588
fewest,0.010345
fiberglass,0.011723
field,0.002877
fifth,0.005612
final,0.006817
fine,0.005633
finish,0.006064
fission,0.007998
fluoborit,0.014256
fluorin,0.027448
fm,0.008518
follow,0.006762
food,0.008111
form,0.045233
formal,0.003526
formula,0.004920
fourth,0.004916
framework,0.004037
franc,0.008068
free,0.006437
french,0.011377
friedrich,0.005763
function,0.008655
ga,0.018964
gah,0.011436
gain,0.003428
gallia,0.011621
gallit,0.014256
gallium,0.303294
gao,0.009368
garnet,0.011193
gase,0.006282
gaul,0.009149
gaylussac,0.010435
gener,0.008099
germanit,0.013803
ghana,0.007959
given,0.005652
glass,0.043481
goe,0.010142
gold,0.004900
good,0.009398
greater,0.014197
greatli,0.004614
greek,0.015961
green,0.019384
greenwood,0.007893
ground,0.004100
group,0.094050
grow,0.003613
growth,0.010700
guid,0.003984
guinea,0.006653
guitar,0.009926
ha,0.050733
hair,0.006709
halflif,0.034467
halid,0.009031
hall,0.010693
halogen,0.046609
halt,0.006420
han,0.005631
handl,0.005124
hard,0.009250
harm,0.010865
hazard,0.006435
heal,0.006907
heat,0.029813
heavier,0.028471
heaviest,0.026926
helium,0.007540
henderson,0.007903
henri,0.004541
hi,0.005053
hieronym,0.013452
high,0.017120
higher,0.006700
highli,0.011129
hinpci,0.014256
histori,0.002347
homologu,0.020605
howev,0.009147
hroult,0.012922
huge,0.005240
human,0.016289
humphri,0.026926
hundr,0.004281
hutchinsonit,0.014256
hydrid,0.027387
hydrogen,0.017510
hydroxid,0.018466
hypothes,0.011206
icosagen,0.014256
iiia,0.011621
iiib,0.012922
imag,0.004339
import,0.009613
improv,0.006935
impur,0.016394
incid,0.005575
includ,0.017605
incorpor,0.003869
increas,0.013548
inde,0.004791
indic,0.003466
indicum,0.012211
indigo,0.027151
indigoblu,0.014256
indit,0.013165
indium,0.305401
indiumcontain,0.014256
indiumiii,0.012922
indonesia,0.006674
industri,0.003216
inert,0.007969
inertpair,0.014256
inhibit,0.013874
ino,0.011723
instead,0.003300
institut,0.002981
insul,0.015342
intent,0.004742
interf,0.008028
introduc,0.003305
invent,0.004585
inventor,0.006972
iodid,0.009828
iodin,0.008588
iron,0.025234
ironiii,0.011526
isbn,0.009993
isotop,0.081914
item,0.010338
ito,0.010390
iupac,0.008038
jacqu,0.006536
januari,0.004021
japan,0.004659
japanes,0.005370
john,0.006410
joint,0.004961
joseph,0.004643
just,0.006571
kernit,0.013803
known,0.030607
koh,0.010345
laboratori,0.014343
lack,0.007184
lami,0.032758
lamp,0.015881
larg,0.004965
larger,0.014874
largest,0.003891
late,0.003261
later,0.005603
latin,0.017712
lavoisi,0.008164
lawrenc,0.006302
layer,0.005423
lead,0.016865
leader,0.004119
leaf,0.007639
lecoq,0.012074
led,0.009121
level,0.002817
lewi,0.005913
life,0.003028
light,0.007767
lighter,0.029574
lightweight,0.009108
lignin,0.010141
like,0.020130
likewis,0.005579
line,0.026973
link,0.002048
live,0.003046
livermor,0.010179
long,0.006117
longestliv,0.011193
longstand,0.006807
look,0.011669
lorandit,0.014256
loss,0.004120
loui,0.010631
low,0.007220
lower,0.010442
lowmelt,0.014256
lowrang,0.013452
m,0.003369
macedonia,0.008208
macroscop,0.006748
main,0.008946
mainli,0.003910
major,0.009996
make,0.014373
mani,0.027679
market,0.007052
martin,0.004986
mass,0.003863
materi,0.006602
maxim,0.005357
mean,0.007782
measur,0.003085
meet,0.003811
melt,0.006722
member,0.009016
mendeleev,0.028785
mercuri,0.006937
mere,0.009268
metabol,0.018730
metal,0.063738
metalloid,0.029983
method,0.008752
middl,0.003883
militari,0.003810
miner,0.088661
minor,0.008718
minut,0.005622
mirror,0.006360
mm,0.006893
mode,0.005303
moder,0.021586
modern,0.002825
modifi,0.004596
molecul,0.005086
monoisotop,0.012922
monomer,0.010531
month,0.008323
moreov,0.005404
moscovium,0.012361
mostli,0.004019
mous,0.007736
murder,0.005982
mx,0.010435
myocardi,0.010798
nation,0.002610
natur,0.025148
nearli,0.016411
need,0.002831
neglig,0.007009
neon,0.008903
neutron,0.007427
new,0.014729
newli,0.004956
nh,0.015626
nhf,0.014256
nihon,0.010798
nihonium,0.212963
nobl,0.006125
nonmet,0.009391
normal,0.003754
notabl,0.014458
note,0.002715
notic,0.016039
nuclear,0.014440
nuclei,0.006775
number,0.014139
numer,0.013959
nutrit,0.006766
object,0.003220
observ,0.009327
occur,0.011971
occurr,0.006093
odd,0.006645
odorless,0.011120
ongo,0.005154
onli,0.032526
onlin,0.004122
optic,0.005666
ore,0.060739
organ,0.005138
outer,0.006018
outermost,0.008231
outstand,0.006442
oxid,0.137502
oxygen,0.022941
p,0.007191
panel,0.013884
panhandl,0.013452
particip,0.003716
particl,0.010127
particularli,0.006607
pattern,0.004019
paul,0.008189
pdp,0.010029
perhap,0.004378
period,0.022391
peru,0.007434
pest,0.008265
pesticid,0.016578
ph,0.007461
phosphin,0.010919
phosphor,0.009960
photoelectr,0.008738
photosynthesi,0.007511
physic,0.009247
place,0.002664
planet,0.005344
plant,0.024538
plasma,0.006902
plate,0.012233
platinum,0.008477
plausibl,0.007041
point,0.005464
poison,0.019752
porcelain,0.009415
portion,0.004733
portmanteau,0.009737
possibl,0.005510
posttransit,0.010632
pot,0.008265
potassium,0.014980
powder,0.008028
power,0.002764
pp,0.004403
ppm,0.055931
precaut,0.008706
preciou,0.014179
predict,0.007904
prefix,0.007258
prepar,0.004380
present,0.005401
preserv,0.004552
press,0.003179
preval,0.005947
previous,0.004117
primari,0.003565
princip,0.004219
probabl,0.003876
procedur,0.009408
process,0.005107
produc,0.028105
product,0.028153
prohibit,0.005511
promin,0.012707
properti,0.022894
protein,0.010975
proton,0.013966
publish,0.002998
pure,0.021356
purifi,0.007687
purpos,0.007027
qualiti,0.004024
quantiti,0.030798
radic,0.004951
radioact,0.033145
radioisotop,0.018217
rang,0.009727
rapid,0.004681
rapidli,0.004554
rare,0.026672
rat,0.014338
ray,0.005851
react,0.017956
reaction,0.004392
reactiv,0.051630
readili,0.005861
realli,0.005511
recent,0.008899
reduc,0.012981
reduct,0.004929
refer,0.010278
reflect,0.003681
reflector,0.011193
refract,0.007830
regard,0.003286
regular,0.004693
reich,0.016773
rel,0.009214
relat,0.002309
reluct,0.006983
replac,0.003491
report,0.009878
research,0.011116
reserv,0.004556
residu,0.006612
resist,0.004439
respect,0.003257
rest,0.004013
result,0.011931
retriev,0.020358
richter,0.009828
right,0.003074
riken,0.011526
rise,0.003447
rock,0.005364
rod,0.007406
role,0.024008
room,0.005556
root,0.008655
routhierit,0.014256
royal,0.004520
rscorg,0.014256
rsted,0.010302
russia,0.010069
s,0.009718
sabatierit,0.014256
safe,0.005601
sainteclair,0.013452
salt,0.029347
sampl,0.015315
satellit,0.005977
saw,0.008384
scarc,0.006560
scienc,0.002881
scientif,0.003447
scientist,0.007834
second,0.002811
seen,0.010084
semiconductor,0.029904
send,0.005357
sent,0.004748
separ,0.006259
serv,0.003410
sever,0.012427
shell,0.017298
shift,0.004151
shoot,0.021794
short,0.003652
shortestliv,0.013452
shown,0.008262
signific,0.015217
silicon,0.007277
silver,0.005961
similar,0.008541
similarli,0.004516
simplest,0.006081
sinc,0.007152
singl,0.003190
sizeabl,0.008921
slightli,0.020669
small,0.011669
smaller,0.004054
societi,0.002987
sodium,0.021776
soft,0.006087
soil,0.005402
solar,0.011374
solder,0.011270
solut,0.004079
sometim,0.006207
somewher,0.007302
sourc,0.011996
spair,0.014256
spars,0.007186
special,0.002981
spectra,0.007769
spectroscop,0.041505
sphalerit,0.025845
spontan,0.012323
st,0.007686
stabl,0.079766
state,0.033378
stimul,0.016006
stomata,0.011050
store,0.004830
streak,0.009622
streetlight,0.012922
strength,0.004835
strengthen,0.005392
stringent,0.008038
strong,0.003464
stunt,0.009299
subatom,0.007578
suborgin,0.014256
substanc,0.010025
substitut,0.010596
succeed,0.004874
success,0.006323
suffix,0.008142
sulfat,0.017063
sulfid,0.008089
sulfur,0.007009
suppli,0.003886
suppos,0.010478
surinam,0.009050
surpass,0.006731
switch,0.005854
symptom,0.013569
synthes,0.024783
synthesi,0.010645
synthet,0.029566
tabl,0.018354
taken,0.003491
tasteless,0.011193
team,0.009958
teeth,0.007504
temperatur,0.028919
tend,0.003915
tendenc,0.010707
term,0.002252
test,0.003897
th,0.002733
thallium,0.391498
thalliumiii,0.027606
thallo,0.028512
theodor,0.006525
theoret,0.003909
theori,0.002794
therefor,0.009721
thermal,0.012227
thermomet,0.008616
thi,0.010699
think,0.004134
thnard,0.012211
thought,0.006758
thu,0.002787
time,0.004219
tin,0.014882
tini,0.006431
tl,0.038948
tlo,0.012922
tloh,0.014256
tlso,0.026330
today,0.003425
tool,0.003817
toxic,0.112070
trace,0.027430
transistor,0.008386
transmitt,0.008186
transport,0.004087
trend,0.031878
tri,0.007505
triel,0.028512
trival,0.011193
tube,0.006588
tunnel,0.007198
turkey,0.012436
turquois,0.011193
tusionit,0.014256
tutorvistacom,0.014256
twig,0.021062
uk,0.004370
ultim,0.004123
uncharacter,0.012361
uncommon,0.007308
uncompound,0.014256
uniqu,0.004065
unit,0.012023
unlik,0.011911
unreact,0.010798
unstabl,0.019082
usa,0.005322
use,0.068185
usual,0.008607
valenc,0.033204
valuabl,0.005597
varieti,0.007159
variou,0.002714
vase,0.009994
veri,0.019059
verminkil,0.014256
vessel,0.005804
vigor,0.006897
visual,0.005030
vital,0.005324
w,0.004000
wa,0.056692
wall,0.005048
water,0.003677
weld,0.008886
wet,0.007117
whler,0.009650
wide,0.012283
william,0.003820
windshield,0.012361
word,0.016547
world,0.014503
wound,0.006540
x,0.004221
y,0.005077
year,0.014437
yield,0.013972
zinc,0.030046
zn,0.009707
