abl,0.004130
abov,0.004185
absolut,0.005545
absorb,0.019609
academ,0.004897
acceler,0.006288
account,0.011552
accur,0.016712
accuraci,0.014182
acid,0.052702
activ,0.003262
ad,0.004172
addit,0.003307
adiabat,0.078167
adjust,0.006258
advantag,0.015225
affect,0.008545
affin,0.008033
air,0.015068
allow,0.013006
alon,0.005591
aluminium,0.009161
ambient,0.009502
analog,0.005842
ani,0.011526
antoin,0.008969
appli,0.003495
area,0.003247
arrang,0.005330
arriv,0.005263
assess,0.005569
atm,0.010743
atmospher,0.019215
attach,0.006190
averag,0.009767
b,0.004330
balanc,0.010349
bar,0.007391
base,0.002849
basic,0.003966
batteri,0.017714
becaus,0.005935
befor,0.013468
benzoic,0.099015
bigger,0.008849
bind,0.013616
biochemistri,0.007836
block,0.005873
bomb,0.156757
burn,0.033791
c,0.026412
ca,0.007251
calcul,0.035217
calg,0.048693
calgk,0.034401
calibr,0.113897
calori,0.021658
calorimet,0.660961
calorimetr,0.062368
calorimetri,0.107077
calvettyp,0.068803
candid,0.006082
candl,0.010414
capac,0.043788
capsul,0.010896
care,0.004960
caus,0.003524
cfc,0.012766
cfcmfc,0.017200
chamber,0.007006
chang,0.053585
character,0.010016
charg,0.005095
chemic,0.015083
circuit,0.007449
clfc,0.034401
close,0.007066
cm,0.008305
coeffici,0.007620
coffe,0.008241
coffeecup,0.017200
coflux,0.017200
combin,0.003765
combust,0.173381
common,0.006386
commonli,0.004385
compar,0.003906
compens,0.013349
complet,0.007294
compound,0.059509
compromis,0.007592
computer,0.009686
concentr,0.005168
concern,0.003707
condit,0.007390
conduct,0.009052
connect,0.004348
consequ,0.004490
consider,0.008876
consist,0.010604
constant,0.063006
constantpressur,0.061354
constantvolum,0.014734
construct,0.004089
contain,0.034099
content,0.010422
contribut,0.003876
control,0.017544
cool,0.014796
coolingh,0.034401
copper,0.007334
correct,0.021273
correspond,0.004794
cours,0.004603
cp,0.020178
cpfrac,0.016231
cross,0.005764
crucibl,0.036052
cup,0.044325
cv,0.156707
cvsteel,0.017200
cvwater,0.017200
cw,0.012482
cwmw,0.017200
d,0.017101
data,0.008429
day,0.003985
deduct,0.007641
delta,0.037823
depend,0.003484
deriv,0.008031
describ,0.003250
design,0.007758
detect,0.005799
detector,0.009395
determin,0.036676
develop,0.002641
devic,0.005902
dewar,0.013029
differ,0.011199
differenti,0.032086
direct,0.003507
displaystyl,0.048398
divid,0.004187
doe,0.003573
dont,0.014760
dq,0.013598
dqdt,0.032462
drug,0.006229
dsc,0.051840
dtcpbeta,0.017200
dtdt,0.016231
dtkcpbeta,0.017200
dure,0.012160
dv,0.011897
effect,0.006177
effici,0.004978
electr,0.031545
element,0.004043
empti,0.007580
encount,0.006262
energi,0.053415
engin,0.009164
ensur,0.005223
enthalpi,0.108516
entropi,0.008629
environ,0.004214
enzym,0.007729
equal,0.004330
equival,0.005121
error,0.006046
escap,0.019151
estim,0.004474
esurround,0.034401
esystem,0.031184
etot,0.034401
event,0.004137
everi,0.003978
examin,0.004976
exampl,0.008543
excess,0.012289
exchang,0.008989
exhibit,0.006002
exotherm,0.023426
expand,0.004497
experi,0.011730
experiment,0.015933
extern,0.002486
f,0.004683
facilit,0.011464
fact,0.004037
factor,0.012094
fast,0.006509
field,0.006944
final,0.004112
finish,0.007316
fix,0.005046
flammabl,0.059683
flow,0.060087
fluid,0.020106
flux,0.033458
fluxmet,0.032462
follow,0.005439
form,0.002598
formula,0.005937
ftt,0.014276
fuel,0.018902
fuell,0.010764
fulli,0.005126
fuse,0.058593
g,0.009199
ga,0.005720
gain,0.008273
gase,0.007580
gener,0.002443
given,0.006820
global,0.004515
gold,0.011824
good,0.011340
guarante,0.006236
guinea,0.016056
h,0.018892
ha,0.013602
half,0.004680
harder,0.008450
hc,0.083836
hct,0.034401
heat,0.419679
heater,0.024565
heatflow,0.017200
heavier,0.008588
hi,0.003048
high,0.003442
higher,0.004042
histori,0.002831
hmdelta,0.017200
hold,0.004095
holder,0.015459
hole,0.007738
hour,0.005974
hous,0.004561
howev,0.002759
ignit,0.039616
import,0.002899
impos,0.005847
includ,0.002360
increas,0.006539
increment,0.008588
indic,0.004182
induc,0.006732
industri,0.011642
initi,0.014777
inner,0.006834
input,0.006159
insert,0.007887
insid,0.011404
insul,0.027767
integr,0.012309
intern,0.008938
isotherm,0.080155
jacket,0.050365
joul,0.010505
just,0.003964
k,0.015464
ka,0.010362
kept,0.006126
key,0.004326
kinet,0.007695
known,0.022726
laboratori,0.017306
larg,0.002995
larger,0.004486
lavoisi,0.009850
law,0.006848
lead,0.003391
length,0.005639
lid,0.012648
like,0.003036
linear,0.012096
linearli,0.010119
link,0.002471
liquid,0.012186
loss,0.009943
lost,0.009879
m,0.040651
mafter,0.017200
main,0.010795
maintain,0.007926
make,0.011561
mani,0.005138
march,0.004713
mass,0.046612
materi,0.019915
mathemat,0.004468
maximum,0.012361
mbefor,0.017200
measur,0.074456
mechan,0.004197
melt,0.032443
metal,0.011831
method,0.007040
mfc,0.016231
microcalorimet,0.016231
midpoint,0.011897
min,0.010030
minut,0.006784
mix,0.005467
mixtur,0.007106
ml,0.010450
mode,0.019196
modul,0.007674
mole,0.020425
molecular,0.005940
monitor,0.012293
mtdsc,0.017200
multipli,0.007327
mw,0.010829
n,0.005104
nation,0.006298
necessari,0.009059
need,0.006833
nest,0.008803
newton,0.007176
ni,0.020003
nickel,0.018232
nonflamm,0.015338
nonreact,0.013696
nonrevers,0.015884
normal,0.009060
note,0.006553
number,0.002843
o,0.005993
object,0.003885
observ,0.007502
obtain,0.008835
occur,0.014444
ohm,0.011481
older,0.005964
onc,0.012741
onset,0.008743
optim,0.018085
order,0.003132
oscil,0.008225
otherwis,0.005406
outer,0.007261
outsid,0.004335
overcom,0.006980
oxygen,0.020760
p,0.017355
pallet,0.014568
pan,0.028187
pani,0.013598
paramet,0.006552
particl,0.006109
particular,0.003557
particularli,0.007972
peak,0.012473
perform,0.011986
permit,0.011577
pharmaceut,0.007742
phifactor,0.034401
physic,0.007438
pig,0.016952
place,0.003214
plate,0.007380
pmethyl,0.034401
polym,0.008541
poor,0.005619
possibl,0.009972
potenti,0.004219
power,0.010006
presenc,0.004928
present,0.003258
pressur,0.044155
prevent,0.004659
primari,0.004302
primarili,0.004455
principl,0.003912
problem,0.003485
procedur,0.005675
process,0.024649
produc,0.003391
product,0.006793
provid,0.002891
pure,0.010307
purgega,0.017200
q,0.029197
quasiisotherm,0.017200
r,0.008722
radial,0.009890
rais,0.009614
rang,0.003912
rate,0.044429
ratio,0.011755
reactant,0.010196
reaction,0.143107
read,0.003590
readi,0.007596
recent,0.003579
record,0.004356
refer,0.004133
reflux,0.014022
rel,0.003706
releas,0.015497
remain,0.010255
remov,0.004772
renew,0.012089
requir,0.006507
residu,0.007978
resist,0.005356
resolut,0.012646
respir,0.009334
respiratori,0.009364
respond,0.016724
result,0.002879
revers,0.005690
ring,0.007000
rise,0.004159
rod,0.008937
run,0.013627
runaway,0.010807
s,0.002931
safeti,0.013325
sampl,0.104717
sampleusu,0.017200
satur,0.009375
scan,0.066026
screen,0.015266
sensit,0.026630
sensor,0.017135
seri,0.004117
set,0.003202
setup,0.019349
sever,0.002999
sheet,0.007475
signal,0.017842
similar,0.003435
simpl,0.009141
simultan,0.006028
sinc,0.011506
singl,0.003849
sit,0.007604
size,0.008959
slab,0.023154
slow,0.005939
slower,0.008264
small,0.031681
snow,0.008912
solut,0.034452
space,0.004435
special,0.003597
specif,0.013767
stabil,0.005364
stainless,0.036848
standard,0.011623
start,0.007282
steel,0.064849
stir,0.010181
stirrer,0.015592
stoichiometri,0.011713
styrofoam,0.015884
submerg,0.010212
substanc,0.036288
substrat,0.008736
suddenli,0.008534
suggest,0.004027
suppli,0.004689
surround,0.031608
suspend,0.007150
t,0.085088
teach,0.005635
techniqu,0.013262
temperatur,0.145388
term,0.002718
test,0.014108
tfinal,0.017200
theori,0.003371
thermal,0.022129
thermocoupl,0.026835
thermomet,0.051984
thermopil,0.030230
thi,0.043034
threedimension,0.007901
thu,0.013451
time,0.007635
tiniti,0.017200
titrat,0.065503
tkdq,0.017200
tool,0.004606
total,0.016055
track,0.006364
transfer,0.014768
transmit,0.007048
tube,0.023847
type,0.020751
typic,0.015437
unknown,0.005956
use,0.056414
usual,0.003461
v,0.005129
valu,0.022122
vapor,0.008986
vari,0.004240
veri,0.006570
verifi,0.007272
versu,0.006714
vessel,0.028015
volum,0.024638
w,0.024134
wa,0.002358
wall,0.012182
water,0.057687
way,0.003075
wdelta,0.013798
weigh,0.032422
wet,0.008588
wire,0.058177
withstand,0.019675
work,0.005640
workhors,0.013417
x,0.010187
