abov,0.006000
absorb,0.028107
ac,0.012764
account,0.011039
achiev,0.005896
actual,0.005998
add,0.008937
addit,0.004741
adp,0.017675
advanc,0.017365
affin,0.069091
algebra,0.010064
allow,0.004660
alway,0.031511
american,0.005310
analysi,0.005649
andor,0.008201
ani,0.037174
anoth,0.013523
appear,0.005428
appli,0.035072
applic,0.022388
appropri,0.007512
approxim,0.006387
aris,0.007646
assert,0.008051
assess,0.007983
astut,0.017409
atmospher,0.009181
atom,0.008195
atp,0.027981
author,0.005276
automobil,0.011742
avogadro,0.016739
avoid,0.007000
b,0.006207
backward,0.023313
balloon,0.014571
base,0.004083
basic,0.005685
batteri,0.025391
becaus,0.029778
belg,0.019632
biochemistri,0.011232
biolog,0.013404
bodi,0.005670
bomb,0.010699
bond,0.024215
book,0.016112
break,0.007789
build,0.005980
bulk,0.050090
bull,0.013041
c,0.016225
calcul,0.007211
callen,0.019934
calor,0.015931
calorimet,0.017225
cancer,0.010409
captur,0.023314
carbohydr,0.013337
carnot,0.016369
carolina,0.012752
case,0.028394
catalog,0.038862
ceas,0.009560
cell,0.016280
cellular,0.010472
centuri,0.004860
chain,0.008455
chang,0.081077
chapter,0.008821
chemic,0.418008
chemist,0.010877
chemistri,0.024887
chloroplast,0.015005
citi,0.006536
cl,0.014732
classic,0.006253
clausiu,0.050834
clear,0.014090
clearest,0.016892
close,0.015194
coeffici,0.021847
collect,0.005521
combust,0.039240
come,0.005413
commonli,0.006286
commun,0.004949
complet,0.015684
complex,0.005539
compon,0.026077
composit,0.047086
concern,0.005314
concis,0.023059
condit,0.026484
confin,0.010164
congress,0.025446
connect,0.006232
consequ,0.006437
conserv,0.022543
consid,0.008829
consider,0.006361
constant,0.067734
constrain,0.022013
constraint,0.037596
consum,0.007537
contain,0.005430
content,0.014939
contrari,0.009899
contribut,0.005556
convent,0.007330
convers,0.007810
coordin,0.008024
correspond,0.006872
coupl,0.052560
cours,0.006597
creat,0.009260
creatur,0.011544
criterion,0.034100
crucial,0.009215
cryptic,0.016998
crystalwel,0.023872
cs,0.011566
current,0.019385
cylind,0.014082
d,0.116441
databas,0.008856
decreas,0.014909
defay,0.085516
defens,0.008309
defin,0.005195
degre,0.012399
deliv,0.035692
delta,0.021686
denot,0.009237
depend,0.029970
deriv,0.028780
describ,0.004659
determin,0.015771
develop,0.022716
devic,0.016921
dg,0.050996
dgsdtvdpsum,0.047745
dgtpleftfrac,0.023872
dgtpmathbb,0.023872
dgtpsum,0.068308
dh,0.017167
differ,0.004013
differenti,0.007665
dimens,0.008710
disappear,0.009625
discov,0.006666
disord,0.019517
displac,0.009713
display,0.008603
displaystyl,0.121405
dissip,0.067338
distanc,0.008061
distinct,0.005830
divid,0.006003
djdt,0.023872
doe,0.015366
donder,0.058477
dot,0.012233
drive,0.024401
driven,0.017626
dure,0.004357
dxi,0.019233
e,0.018403
ea,0.014661
earli,0.004558
easi,0.009256
ed,0.012760
electr,0.015072
electrochem,0.014526
electrod,0.041551
energet,0.012349
energi,0.216936
englishspeak,0.012491
ensu,0.011142
enthalpi,0.046664
entropi,0.160799
environ,0.012083
equal,0.031034
equat,0.037901
equilibr,0.016789
equilibrium,0.123831
especi,0.005292
establish,0.009728
everett,0.016642
everi,0.005703
evolv,0.014962
exampl,0.012245
exchang,0.019328
exist,0.004532
experi,0.005604
experiment,0.007612
explain,0.018406
explicit,0.019904
express,0.029526
extens,0.018464
extent,0.022498
extern,0.035638
f,0.013427
fact,0.005786
famou,0.007529
far,0.006180
feasibl,0.011073
field,0.004977
finit,0.018851
flexibl,0.010090
flow,0.014354
follow,0.007797
food,0.014028
forc,0.009769
form,0.007450
format,0.026588
formul,0.007804
formula,0.008510
foundat,0.019065
founder,0.008542
framework,0.006982
free,0.055668
freedom,0.007693
ft,0.010651
fuel,0.036126
function,0.034928
fundament,0.018723
g,0.131863
ga,0.024598
gener,0.017510
german,0.006882
ggtpni,0.023872
gibb,0.178530
gibbsduhem,0.022769
gilbert,0.011656
given,0.004888
gpartial,0.061390
graphic,0.010482
great,0.005492
green,0.008381
growth,0.006168
gt,0.016892
guggenheim,0.086733
h,0.006770
ha,0.009749
halfcel,0.021119
heat,0.077344
held,0.005762
herbert,0.010553
heterogen,0.012252
hi,0.008739
histor,0.005474
histori,0.004059
hold,0.005870
holland,0.012695
homogen,0.043907
howev,0.003955
hydrocarbon,0.025215
hydrolysi,0.015369
idea,0.005469
ident,0.006978
idni,0.042758
ietc,0.023872
ileftfrac,0.020665
ilya,0.048607
imathbb,0.021986
impli,0.007576
implic,0.008491
import,0.004156
imposs,0.008240
imu,0.054640
includ,0.006766
increas,0.023432
independ,0.030033
inequ,0.010254
insect,0.011073
insid,0.008173
intens,0.008094
intern,0.034166
interrel,0.011896
intersci,0.036962
introduc,0.028584
introduct,0.006460
inu,0.019934
involv,0.018898
inward,0.013902
ion,0.010568
iparti,0.019632
irrevers,0.040358
isbn,0.005761
isobar,0.017745
isotherm,0.016413
isotrop,0.016594
issu,0.005229
ith,0.034571
iv,0.010578
j,0.012240
john,0.011086
joul,0.015058
just,0.011365
k,0.073888
kdxi,0.071618
kelvin,0.013816
kind,0.006491
kinet,0.011031
kmathbb,0.068308
know,0.007384
kw,0.034219
laboratori,0.008269
law,0.044176
lead,0.004861
leadacid,0.019359
leak,0.027336
leftfrac,0.013365
legendr,0.016202
leq,0.015931
let,0.009129
lewi,0.020453
librari,0.022964
like,0.004352
limit,0.004975
linear,0.008669
link,0.007085
liquid,0.008733
list,0.004530
live,0.015804
local,0.016555
logic,0.015771
longman,0.013850
maint,0.013029
maintain,0.011362
major,0.008644
make,0.008286
mani,0.014729
manner,0.015725
mass,0.006681
massieu,0.021665
materi,0.005709
mathbb,0.015031
mathemat,0.038428
mathrm,0.025982
mean,0.004486
measur,0.021345
mechan,0.018049
membran,0.011537
mention,0.007887
mere,0.008014
merl,0.017538
method,0.015137
milieu,0.015167
minu,0.012042
mislead,0.012319
misnom,0.016243
mitochondria,0.014755
modern,0.009773
molar,0.014639
mole,0.014639
molecul,0.079175
molecular,0.008515
monograph,0.012718
motor,0.010507
movement,0.005617
mu,0.012917
multipl,0.006266
multitud,0.012857
muscl,0.011299
n,0.058532
near,0.006698
neg,0.021194
new,0.003639
ni,0.057345
niparti,0.022769
nirighttpnjneq,0.023872
non,0.023484
nonequilibrium,0.016690
nonetheless,0.010191
nonlinear,0.011161
north,0.012937
notat,0.010947
notion,0.007708
nu,0.014549
number,0.028530
o,0.008591
obey,0.011626
object,0.005569
obscur,0.011285
obtain,0.012664
occasion,0.009190
occur,0.031057
occurr,0.010537
omit,0.012729
onli,0.033752
onsag,0.018481
open,0.011155
order,0.017958
organel,0.014216
outlin,0.007930
outsid,0.006215
overal,0.007456
overview,0.008163
oxid,0.010809
p,0.118165
paper,0.026889
partial,0.044966
particularli,0.011427
partli,0.017520
passag,0.009706
past,0.006463
pdv,0.041765
percentag,0.009078
perfect,0.009102
perhap,0.022720
perturb,0.025325
phase,0.023503
phenomena,0.007778
phosphat,0.012596
physic,0.015993
physicist,0.028929
piston,0.095813
place,0.009214
point,0.004725
posit,0.004828
possibl,0.009530
potenti,0.042339
pp,0.015232
predict,0.006835
present,0.004671
pressur,0.028129
pressurevolum,0.018996
previou,0.014090
prigogin,0.161036
primari,0.012333
principl,0.028039
problem,0.009992
proceed,0.034198
process,0.101579
produc,0.014582
product,0.024345
progoin,0.023872
progress,0.006367
properti,0.011312
provid,0.004145
public,0.004704
publish,0.005185
pure,0.014774
push,0.008884
pv,0.015522
quantiti,0.030437
quasistat,0.018996
question,0.005866
r,0.018754
randal,0.029142
rate,0.017368
rd,0.008365
reactant,0.043848
reaction,0.273506
read,0.005145
real,0.012299
realli,0.009532
receiv,0.005660
recharg,0.017053
redox,0.029856
refer,0.005925
regard,0.005684
regardless,0.008956
rel,0.010624
relat,0.011984
relax,0.011325
releas,0.022214
remain,0.004900
remark,0.018175
remov,0.006840
replac,0.006037
repres,0.009720
requir,0.004664
respect,0.005634
respons,0.005138
restat,0.014216
restrict,0.006867
result,0.012381
righttpdxi,0.023872
righttpsum,0.023872
rigid,0.022050
role,0.005190
roy,0.012149
rubber,0.012857
rudolf,0.012177
rule,0.005408
run,0.013022
s,0.021011
sadi,0.017285
said,0.006087
sc,0.014953
scienc,0.004983
second,0.019451
seri,0.005902
set,0.009179
sign,0.006789
signific,0.005263
similar,0.009847
similarli,0.007812
simpl,0.019655
simpli,0.013457
simultan,0.008641
sinc,0.012369
situat,0.006348
slowli,0.019009
solid,0.008862
solut,0.021164
somewhat,0.008741
son,0.023685
sourc,0.005186
speci,0.015167
specifi,0.008383
spontan,0.074599
stabil,0.015380
stabl,0.008115
start,0.005219
state,0.018039
stoichiometr,0.017675
stop,0.008146
stp,0.017606
structur,0.033724
studi,0.021788
subject,0.005245
substanc,0.060684
success,0.005468
suggest,0.005772
supplant,0.013172
surpris,0.010843
surrog,0.015685
surround,0.015102
symbiosi,0.015139
symbol,0.007486
synthesi,0.009206
t,0.150663
tell,0.009288
temperatur,0.008335
tendenc,0.009259
term,0.015585
textbook,0.009294
th,0.014184
theorem,0.009243
theori,0.004833
thermochemistri,0.016457
thermodynam,0.465693
thi,0.040095
thophil,0.019779
thought,0.005844
thu,0.004820
time,0.021890
track,0.009123
traffic,0.010894
transfer,0.007056
transform,0.033749
transit,0.007178
translat,0.007098
transpar,0.010553
transport,0.007069
treat,0.007220
treatis,0.009947
treatment,0.015170
turn,0.017101
type,0.004957
typic,0.005532
u,0.038485
ufcirc,0.047745
unaccount,0.017969
undergo,0.009560
understand,0.016791
unexpect,0.012042
unifi,0.017262
unit,0.004159
univers,0.012812
unless,0.009240
unstructur,0.030982
upper,0.008326
use,0.043801
usual,0.009924
util,0.007459
v,0.014704
vari,0.006078
variabl,0.060302
varieti,0.006191
variou,0.014082
veri,0.004709
vessel,0.010039
volum,0.014126
w,0.013837
wa,0.013523
wall,0.008731
way,0.008818
whatev,0.010151
wide,0.010621
wiley,0.030270
willard,0.027368
wire,0.011913
work,0.072764
world,0.008361
written,0.006528
xi,0.050828
year,0.004161
zero,0.017343
