act,0.016640
alkan,0.050988
alken,0.051849
allen,0.067229
anoth,0.014003
appeal,0.027115
aris,0.023752
astrochemistri,0.051265
atom,0.050917
base,0.012686
becaus,0.013215
bond,0.275823
butatrien,0.229781
carbon,0.114628
carri,0.018954
central,0.016482
chain,0.052537
chiral,0.048522
chmopchcocccncl,0.076593
cistran,0.059748
class,0.019502
classic,0.019427
close,0.015733
common,0.014219
complex,0.034415
compound,0.026498
consecut,0.119278
contain,0.033742
copper,0.032657
coupl,0.027213
cumul,0.074654
cumulen,0.707334
cyclic,0.036526
cyclohexahexaen,0.076593
cyclopropatrien,0.076593
deriv,0.017881
dihalovinyliden,0.076593
dimethylformamid,0.072274
diphenylketen,0.076593
diphenyltribromoethan,0.076593
diphenylvinyliden,0.076593
dissimilar,0.046779
doubl,0.182261
element,0.018007
end,0.015480
essenc,0.063967
exampl,0.012680
fact,0.017976
feco,0.120283
form,0.011572
gemin,0.065608
hand,0.018759
hcccch,0.076593
heteroatom,0.061445
heterocumulen,0.076593
homocoupl,0.076593
hybridis,0.053698
hydrocarbon,0.039166
hydrogen,0.031359
intern,0.013267
isol,0.073741
isomer,0.051126
kind,0.020166
lack,0.019300
ligand,0.089852
make,0.012870
member,0.016148
metal,0.026342
method,0.015674
molecul,0.054657
molecular,0.026453
monometal,0.074161
nanotechnolog,0.041044
nodal,0.058336
nonhybridis,0.076593
number,0.025322
occupi,0.025372
odd,0.035704
orbit,0.032099
perpendicular,0.042167
phc,0.064873
phcfeco,0.076593
plane,0.030483
polyyn,0.074161
porbit,0.064196
possess,0.022743
proper,0.026037
rare,0.023884
reaction,0.070804
reduct,0.026483
refer,0.009204
region,0.016482
replac,0.018756
report,0.053071
resembl,0.029034
result,0.012821
rigid,0.102748
separ,0.016815
simpli,0.020902
sp,0.039268
space,0.019749
stereocent,0.064196
structur,0.029933
suboxid,0.068301
substitu,0.103105
synthes,0.033289
synthesi,0.085796
synthet,0.031770
tend,0.021035
tetraphenylbutatrien,0.153187
thi,0.038325
transit,0.022301
unlik,0.021332
veri,0.014628
vicin,0.041344
vinyliden,0.148323
wa,0.031509
