abil,0.013756
abl,0.018944
abov,0.012800
accur,0.008517
achiev,0.025156
activ,0.009976
adapt,0.007960
addit,0.010114
additionfragment,0.026299
adsorb,0.020144
advantag,0.023279
air,0.007679
alkaloid,0.018503
allow,0.039771
alon,0.008549
analog,0.008932
analysi,0.006026
analyt,0.018228
andor,0.017496
anoth,0.014424
apparatu,0.037325
appli,0.010688
applic,0.017910
approach,0.028766
area,0.024825
arrang,0.024450
art,0.007647
aspir,0.025134
associ,0.004883
autom,0.022373
batch,0.192070
bath,0.014035
becaus,0.004537
bed,0.013018
benefici,0.011062
benefit,0.029259
better,0.013595
boil,0.013483
bomb,0.011412
calcul,0.007692
carbonyl,0.016731
case,0.005047
catalysi,0.016393
catalyst,0.039549
caus,0.016165
chain,0.009019
challeng,0.007211
chang,0.013654
charlott,0.015923
chemic,0.069186
chemist,0.023205
chemistri,0.150426
chip,0.027108
choos,0.008684
chromatograph,0.022042
coin,0.008360
colin,0.013897
column,0.011470
combin,0.017272
commerci,0.015471
compani,0.006375
compar,0.011944
compon,0.006953
composit,0.016741
compound,0.018197
concentr,0.023705
concern,0.005668
condit,0.033899
conduct,0.006920
connect,0.006648
consid,0.018836
consist,0.005404
contact,0.008473
contain,0.005792
conti,0.021263
continu,0.102745
control,0.037554
convent,0.015638
cool,0.022622
coupl,0.028031
cours,0.007037
creat,0.019756
current,0.010338
cut,0.008572
damien,0.018779
deal,0.006505
decreas,0.007951
dedic,0.019399
defin,0.011083
desir,0.022799
detect,0.008867
detector,0.014365
determin,0.005607
develop,0.028269
devic,0.018049
diamet,0.013193
difficult,0.014085
difficulti,0.008721
diffus,0.022063
dilut,0.014078
directli,0.019464
disadvantag,0.011974
discuss,0.019766
disk,0.013870
displac,0.010360
dissolv,0.010029
distanc,0.008598
distribut,0.006662
domin,0.006644
dose,0.014719
drawback,0.015714
driven,0.009400
driver,0.012377
dure,0.004648
eas,0.011192
easili,0.008328
economi,0.006639
effect,0.004722
effici,0.022836
effort,0.006732
electrochem,0.015495
electrochemistri,0.065963
electrod,0.014773
electron,0.016270
elev,0.010846
elimin,0.008407
emerg,0.006230
enabl,0.007709
end,0.005315
endotherm,0.017651
engin,0.014012
enhanc,0.009004
equip,0.008691
especi,0.011290
establish,0.010376
ethylen,0.017602
exampl,0.013061
excel,0.010516
exchan,0.026299
exhaust,0.011367
exist,0.009668
exit,0.012752
exotherm,0.017908
expans,0.008202
experi,0.047826
experiment,0.032481
exploit,0.009049
explor,0.007407
extend,0.006412
extern,0.003801
extract,0.009358
extrem,0.006973
f,0.007161
face,0.007296
facilit,0.008764
factor,0.006164
far,0.013184
fine,0.010393
fix,0.007716
flammabl,0.018250
flow,0.474659
fluid,0.051236
follow,0.004158
frequent,0.007307
function,0.005322
ga,0.061222
gase,0.057951
gaseou,0.014613
gener,0.003735
given,0.015641
glass,0.022918
good,0.005779
gradient,0.012369
greater,0.006547
greatli,0.008513
greiner,0.020386
ha,0.006932
handl,0.028358
hazard,0.023743
heat,0.027499
held,0.006146
hex,0.019614
high,0.021055
higher,0.012360
highli,0.006843
highlight,0.010703
hour,0.018270
howev,0.008437
hydrogen,0.010767
idea,0.005834
ideal,0.016917
illumin,0.012213
immisc,0.022042
improv,0.012794
includ,0.007217
increas,0.009997
independ,0.005339
inject,0.038505
intensifi,0.012743
interact,0.006486
intermedi,0.010216
intervent,0.009432
introduc,0.006098
investig,0.007284
involv,0.005039
issu,0.005578
jamison,0.043254
jensen,0.016148
join,0.007732
key,0.006615
kinet,0.011766
klav,0.024816
lab,0.011356
laboratori,0.026460
larg,0.018321
larger,0.013720
lcm,0.061158
lead,0.015556
level,0.005197
librari,0.016330
like,0.018568
link,0.003778
liquid,0.018631
liquidliquid,0.042879
liter,0.029981
littl,0.013303
long,0.005642
longer,0.007167
low,0.006660
mainli,0.007214
make,0.008838
mani,0.007855
manner,0.008386
manpow,0.015270
manufactur,0.024862
mass,0.028507
materi,0.024359
matter,0.006536
maxim,0.009883
mean,0.014357
media,0.007971
method,0.005382
micro,0.028452
microfluid,0.020386
microreactor,0.184879
microwav,0.057087
mimic,0.014562
mini,0.017602
minim,0.009171
minipl,0.052598
minut,0.010372
mit,0.010559
mix,0.050152
mixer,0.020030
mixtur,0.021731
mlhour,0.026299
mm,0.012716
modular,0.029090
molecul,0.018767
momentarili,0.019167
mostli,0.007414
multi,0.033115
multicel,0.021627
multipl,0.013367
multipurpos,0.018853
multistep,0.040288
nano,0.018708
nanoparticl,0.037139
narrow,0.009813
natur,0.004639
necessari,0.006925
need,0.031344
new,0.003881
nitroglycerin,0.019920
nobel,0.010116
non,0.012524
noncompress,0.026299
nonmicrowav,0.026299
nonreact,0.020940
normal,0.006926
number,0.013042
obtain,0.006754
offer,0.025848
onli,0.012000
onlin,0.007605
oper,0.021929
optim,0.018434
organ,0.009480
oscillatori,0.018503
output,0.009070
overal,0.007953
oxomaritidin,0.026299
ozon,0.015248
parallel,0.027013
paramet,0.030055
particl,0.009341
particularli,0.006094
pashkova,0.026299
patent,0.011596
paul,0.007553
perform,0.030545
peripher,0.013379
perspect,0.007776
pharmaceut,0.011838
phase,0.058497
photochem,0.035109
photochemistri,0.072072
photon,0.012698
place,0.004914
plan,0.006581
plant,0.037723
plug,0.048359
point,0.015122
polym,0.013059
polymer,0.031132
posit,0.005150
possibl,0.035578
precaut,0.016062
precis,0.016416
prepar,0.016163
presenc,0.007535
pressur,0.045006
primari,0.013155
pro,0.014478
procedur,0.008678
process,0.037686
product,0.041549
professor,0.008906
progress,0.006791
propel,0.013965
proport,0.008239
proven,0.010525
provid,0.004421
publish,0.011062
pump,0.062666
purif,0.029124
quantiti,0.024350
raft,0.017155
rais,0.007350
ramshaw,0.026299
rang,0.017945
rapid,0.008636
rapidli,0.008401
rate,0.030876
ratio,0.053922
reach,0.006422
reactant,0.031180
reaction,0.340360
reactiv,0.023811
reactor,0.503906
reagent,0.126744
reagentless,0.026299
realiz,0.008836
rear,0.014136
reason,0.005672
recalcul,0.018779
recent,0.010945
redesign,0.015816
reduc,0.005987
refer,0.003160
relat,0.004261
repeatedli,0.011245
reproduc,0.010721
requir,0.009950
research,0.005127
resid,0.083728
revers,0.008700
review,0.014162
royal,0.016677
run,0.048616
runaway,0.016524
safeti,0.040746
save,0.008974
scalabl,0.017461
scale,0.143062
scaveng,0.032356
scienc,0.005315
screen,0.035012
second,0.005186
segment,0.108278
select,0.006872
sensit,0.010179
separ,0.005773
sequenc,0.008773
sequenti,0.013689
serial,0.028636
serialparallel,0.026299
setup,0.029583
sever,0.004585
share,0.006158
short,0.006738
shut,0.013204
signific,0.005614
sinc,0.004398
size,0.006849
slowli,0.010138
small,0.043056
smaller,0.022436
societi,0.011021
solid,0.056717
solut,0.045150
solvent,0.028332
sophist,0.010119
special,0.005500
specif,0.005262
speed,0.008994
spin,0.024397
stainless,0.018779
start,0.005567
state,0.007696
static,0.011251
steadi,0.011272
steadyst,0.016660
steel,0.011016
steep,0.014093
step,0.014916
stoichiometri,0.071634
storag,0.010466
straightforward,0.013924
stream,0.031626
studi,0.004648
subsequ,0.013727
success,0.005832
suck,0.016731
suitabl,0.019527
surfac,0.007964
synthesi,0.049098
synthet,0.010908
techniqu,0.033796
technolog,0.006341
temperatur,0.097807
term,0.004156
test,0.007190
therebi,0.018207
therefor,0.011956
thermal,0.056392
thermost,0.023109
thi,0.036188
throughput,0.016490
time,0.073940
timothi,0.028100
ton,0.023852
tool,0.007042
toxic,0.036484
transfer,0.052686
transport,0.007540
tube,0.060770
type,0.005288
typic,0.053106
unattend,0.020386
unit,0.008872
unlik,0.007324
unstabl,0.011734
use,0.093441
uv,0.014962
vari,0.032419
variabl,0.008040
variat,0.008244
varieti,0.006604
veri,0.010045
verif,0.013390
vessel,0.010708
view,0.005637
viscou,0.016804
volum,0.097943
volumemetr,0.026299
volumetr,0.036748
vs,0.021239
wa,0.003606
watt,0.014050
way,0.004702
webb,0.016524
wellestablish,0.014773
wherea,0.007632
wile,0.020144
word,0.006105
work,0.017247
yieldsselect,0.026299
