abil,0.009868
abl,0.006040
aboard,0.007022
abov,0.003060
absenc,0.004395
abund,0.029091
acceler,0.004598
accord,0.002390
achiev,0.009023
acid,0.009634
acquir,0.003894
act,0.005465
actinid,0.008286
activ,0.002385
actual,0.003059
addit,0.009675
affin,0.005874
agent,0.016305
ahrland,0.011401
air,0.007345
aircraft,0.015930
al,0.004101
albeit,0.006043
alchem,0.016883
alchemist,0.023128
alessandro,0.007303
alkali,0.007444
alkalin,0.022656
allow,0.007132
alloy,0.113102
altern,0.003072
aluminium,0.053594
alway,0.012860
amalgam,0.062535
amalgama,0.012577
amin,0.007252
analog,0.004272
ancient,0.010392
andrea,0.006361
anhydras,0.010015
ani,0.002107
anim,0.006693
anniversari,0.006340
annual,0.003672
anod,0.034157
anticorros,0.011868
antimoni,0.008441
anywher,0.005852
appear,0.005538
appli,0.007667
applic,0.014276
approxim,0.003258
aqua,0.008699
aqueou,0.021118
argyro,0.011615
arsenid,0.009476
ascrib,0.006315
associ,0.007006
astrolog,0.006916
atmospher,0.004683
atom,0.050168
attempt,0.002727
attract,0.011541
atyp,0.008307
australia,0.004155
author,0.002691
automot,0.006855
avail,0.008767
averag,0.003571
away,0.003642
b,0.003166
ban,0.004817
band,0.010397
base,0.004166
basic,0.002900
basin,0.005681
batteri,0.038859
batteryfuel,0.012577
bc,0.008530
bear,0.004474
beat,0.006064
becam,0.002635
becaus,0.017361
becom,0.006923
behav,0.035894
behavior,0.010145
believ,0.008945
beryllium,0.041978
better,0.003250
bibliographi,0.004192
billion,0.004094
binari,0.011514
bind,0.004978
bioaccumul,0.009876
biochemistri,0.005730
biolog,0.013676
birth,0.004247
bismuth,0.008418
blend,0.006043
blood,0.004694
bluishwhit,0.022802
bodi,0.002892
boil,0.025793
bombard,0.006398
bond,0.049411
boundari,0.004024
brass,0.054362
brittl,0.015870
bronz,0.011604
bulk,0.005110
buri,0.011401
burn,0.004941
byproduct,0.006398
c,0.013795
ca,0.005302
cadmia,0.012577
cadmium,0.366474
cadmiumbear,0.012577
cadmiumcontain,0.012577
cadmu,0.011401
calamin,0.032321
calcul,0.007357
calomel,0.012178
canada,0.004135
carbon,0.023529
cast,0.009809
castnerkelln,0.012577
cathod,0.032146
cation,0.007355
caus,0.012885
caustic,0.009016
cd,0.013293
cdcl,0.012178
cell,0.008305
center,0.006159
centuri,0.007438
chain,0.008627
chalcophil,0.023230
chang,0.002176
charact,0.007979
characterist,0.006656
charcoal,0.007602
charg,0.007452
chemic,0.029412
chemist,0.005549
chemistri,0.029623
china,0.003709
chines,0.004150
chlorin,0.006972
chromat,0.008699
chromiumii,0.011868
cinnabar,0.051268
circumst,0.004435
class,0.003202
classif,0.008521
classifi,0.003905
clearli,0.004341
close,0.010334
cn,0.014585
coat,0.011440
cobalt,0.007323
coeffici,0.005572
cohes,0.006265
collect,0.002816
color,0.004810
column,0.005486
combin,0.002753
come,0.008285
commerci,0.011098
common,0.030355
commonli,0.006413
commun,0.002525
compar,0.005712
comparison,0.004049
complet,0.005334
complex,0.022606
compon,0.006651
compound,0.056569
concentr,0.026453
condens,0.011175
condit,0.008106
conduct,0.003309
conductor,0.020893
confer,0.007602
configur,0.032009
confirm,0.004163
connect,0.003179
consequ,0.003283
consid,0.006756
consider,0.003245
constant,0.003839
constitut,0.003049
consum,0.007690
consumpt,0.004504
contact,0.004052
contain,0.022163
contamin,0.006161
content,0.003810
context,0.003397
contract,0.019369
contrast,0.003262
convert,0.003936
coordin,0.008187
copernicium,0.162711
copernicu,0.014425
copper,0.058991
copperii,0.010169
corderoit,0.012577
core,0.016404
corrod,0.030508
corros,0.030727
cosmet,0.007100
coulomb,0.007602
council,0.003521
countri,0.002541
coval,0.020565
cp,0.007377
cr,0.007539
creat,0.002362
credit,0.003737
crop,0.004774
crust,0.019295
crustal,0.017515
crystal,0.010835
current,0.009889
d,0.040642
damag,0.004167
darmstadt,0.009248
date,0.003227
dblock,0.055747
deal,0.003111
decay,0.010620
decreas,0.003803
deep,0.004299
deepli,0.005452
defin,0.002650
definit,0.006107
degre,0.003162
dens,0.021989
densiti,0.004660
dental,0.007377
depend,0.002548
deplet,0.006026
deposit,0.032004
deriv,0.002936
design,0.002836
despit,0.003274
detect,0.004241
diamagnet,0.027383
dicyano,0.012577
die,0.003700
dietari,0.007109
differ,0.004094
dioxid,0.005674
diracfock,0.011052
directli,0.003103
discov,0.013603
discoveri,0.003617
dissolv,0.004796
distil,0.013833
distinct,0.002974
distinctli,0.007056
distribut,0.003186
dival,0.019623
doctor,0.004608
document,0.003728
doe,0.005226
dshell,0.011615
dsubshel,0.011615
ductil,0.017399
dull,0.007751
dure,0.004446
dust,0.006304
dynasti,0.005021
earli,0.002325
earlier,0.006871
earth,0.021901
easili,0.015933
effect,0.009034
effici,0.003640
effluent,0.009248
egyptian,0.005240
electr,0.026911
electrochemistri,0.007886
electrod,0.014131
electrolysi,0.017515
electromagnet,0.005212
electron,0.116720
electroneg,0.008146
electropl,0.028006
electroposit,0.009749
electrowin,0.037733
element,0.136023
emiss,0.005517
energi,0.006509
enter,0.003399
environment,0.003737
enzym,0.011304
equip,0.004156
especi,0.010799
essenti,0.003232
establish,0.002481
estim,0.009815
et,0.003996
european,0.002895
ev,0.007615
eventu,0.003304
exampl,0.008329
exce,0.006072
exceed,0.004882
excess,0.004493
excurs,0.008244
exhibit,0.004389
exist,0.002312
expect,0.012777
expens,0.004152
experi,0.008577
explan,0.004092
expos,0.009314
extens,0.003139
extract,0.013426
extrapol,0.006679
extrem,0.006670
f,0.023973
fact,0.002952
fair,0.009418
fasada,0.012577
fatigu,0.007723
fe,0.007262
februari,0.007554
ferromagnet,0.016614
finish,0.005350
flammabl,0.008728
flask,0.009248
flerovium,0.010090
flue,0.011401
fluoresc,0.006775
fluorid,0.008441
follow,0.003977
food,0.003578
form,0.045609
format,0.006781
formerli,0.004657
founder,0.004357
fourth,0.004337
fr,0.006138
friction,0.006125
friedrich,0.005085
friend,0.004938
frog,0.007083
fume,0.008947
fusion,0.011590
g,0.003363
ga,0.008365
galinstan,0.011401
gallium,0.024326
galvan,0.033403
galvani,0.017515
gaseou,0.006989
gcm,0.026547
gener,0.005359
geochem,0.015006
geolog,0.004751
german,0.007022
germani,0.007487
germanium,0.008395
gesellschaft,0.007855
given,0.002493
global,0.006603
goal,0.003419
god,0.004351
gold,0.038909
goldi,0.009876
good,0.002764
grade,0.005798
gram,0.006948
greater,0.003131
greek,0.007041
greenockit,0.012577
groundstat,0.010015
group,0.098677
gsi,0.019887
ha,0.029840
halflif,0.007602
hard,0.004080
hardwar,0.011632
harm,0.004793
hazard,0.005677
health,0.006932
healthi,0.005428
heat,0.013151
heavi,0.004296
heavier,0.025119
heaviest,0.015837
heavili,0.004008
hermann,0.006077
hexagon,0.007855
hg,0.038341
high,0.017622
higher,0.011822
highli,0.009818
highpressur,0.008787
hindu,0.005764
histor,0.002792
histori,0.006212
hofmann,0.008849
homologu,0.009089
hotdip,0.012577
howev,0.012106
human,0.004790
hundr,0.003777
hybrid,0.005194
hydr,0.011615
hydrargyro,0.012577
hydrargyrum,0.011216
hydrid,0.008054
hydrogen,0.005149
hypothet,0.005590
identifi,0.003005
ii,0.003253
iib,0.018953
ill,0.004827
illustr,0.004239
import,0.008481
improv,0.003059
impur,0.028929
includ,0.005177
inclus,0.010242
incomplet,0.010835
increas,0.009563
inde,0.004227
independ,0.002553
indic,0.003058
individu,0.002564
induc,0.004923
industri,0.014188
ingredi,0.006529
inner,0.004997
insolubl,0.007935
instanc,0.003367
instrument,0.003828
intak,0.007589
interact,0.003102
intern,0.006535
invent,0.004045
involv,0.007230
ion,0.032348
ionic,0.006877
ioniz,0.006577
iran,0.005639
iron,0.031169
ironii,0.011216
irvingwilliam,0.012178
island,0.003684
isol,0.016145
isotop,0.012045
italian,0.004664
iupac,0.021275
jensen,0.007723
just,0.002898
k,0.003769
karl,0.004675
key,0.006327
kind,0.003311
king,0.003959
kjmol,0.008728
known,0.024927
krypton,0.018582
kyrgyzstan,0.008350
laboratori,0.012655
lamp,0.014011
lanthanid,0.041431
larg,0.010953
largest,0.006866
late,0.002877
latin,0.011720
layer,0.004784
layout,0.006964
leach,0.008127
lead,0.014880
leanest,0.025155
leberecht,0.012577
length,0.004123
lesser,0.005095
level,0.002485
lewi,0.005217
lexicon,0.007444
lie,0.004072
ligand,0.014755
lighter,0.013046
like,0.017760
likewis,0.004923
line,0.005949
linear,0.013267
liquid,0.022277
littl,0.009543
live,0.002687
livingstonit,0.012577
local,0.002815
locat,0.003056
long,0.002698
low,0.019112
lowest,0.004943
lowestmelt,0.012577
luigi,0.007410
lustrou,0.010253
m,0.002972
madanapala,0.011615
magnesium,0.049769
magnitud,0.005127
main,0.005262
maingroup,0.021547
mainli,0.006900
major,0.002205
make,0.010567
malleabl,0.016746
mani,0.022542
manufactur,0.003963
marggraf,0.012577
market,0.003111
mass,0.010225
materi,0.002912
matter,0.003126
mcl,0.010773
mcn,0.011868
mean,0.004577
measur,0.008166
medic,0.003827
medicin,0.003962
mediev,0.004432
melt,0.053378
member,0.010607
men,0.003853
mercuri,0.428453
mercuryaluminium,0.012577
mercuryi,0.024356
mercuryiv,0.011868
merit,0.005930
metal,0.328757
metalloid,0.008817
metallurgi,0.006768
metalmet,0.021547
meter,0.022374
method,0.002574
mgday,0.042612
mho,0.012178
microorgan,0.006207
million,0.013057
miner,0.032209
minut,0.004960
mix,0.003997
mixtur,0.010393
mobil,0.004414
moder,0.004761
modern,0.007478
molten,0.007709
molybdenum,0.007918
monoxid,0.007737
motiv,0.004060
multipl,0.003196
music,0.004567
mytholog,0.005812
n,0.003732
nation,0.002302
nativ,0.004295
natur,0.004437
nearli,0.007239
necessari,0.003312
need,0.002498
needlelik,0.010773
neg,0.003603
neighbor,0.014065
neighbour,0.005076
neutron,0.013105
nickel,0.013332
nickelcadmium,0.011615
nicolau,0.007467
ninov,0.012577
nitrogen,0.005736
nobl,0.005404
nonequilibrium,0.008514
nonscientif,0.008328
normal,0.006625
note,0.002396
ns,0.008001
nuclear,0.012740
nucleu,0.005505
number,0.012475
numer,0.003079
observ,0.005486
obtain,0.003230
occur,0.005281
occurr,0.005375
octahedr,0.008947
odd,0.005863
offici,0.003155
og,0.008418
oganesson,0.009527
old,0.006877
onc,0.003105
onli,0.030610
orang,0.006212
orbit,0.015813
order,0.002290
ordinari,0.009064
ore,0.083360
organ,0.009067
osmium,0.009052
outermost,0.007262
output,0.004337
overlap,0.004619
oxid,0.071685
oxygen,0.005060
p,0.028553
paramet,0.004791
particip,0.009835
particl,0.004467
pass,0.003228
passiv,0.005726
past,0.003297
pattern,0.003546
pave,0.005877
pb,0.006885
pblock,0.010015
peopl,0.004582
perform,0.002921
period,0.024694
phase,0.007993
physic,0.013597
pigment,0.006964
pile,0.007334
pipe,0.006956
pipelin,0.013592
place,0.004700
planet,0.009430
planetari,0.005958
plant,0.007216
platinum,0.007479
play,0.003000
pm,0.006294
point,0.016875
poison,0.011618
polonium,0.008671
poor,0.004109
poorli,0.005502
possibl,0.004861
potenti,0.003085
powder,0.007083
ppm,0.024673
precipit,0.005480
preclud,0.006832
predict,0.020922
predominantli,0.010581
prefer,0.003649
prepar,0.003865
presenc,0.003603
present,0.009531
primarili,0.006515
probabl,0.010259
problem,0.002548
process,0.018023
produc,0.024797
product,0.019871
prolong,0.006060
pronounc,0.005757
properti,0.020198
protect,0.019058
protein,0.004841
proton,0.012322
prototyp,0.006147
pulver,0.010906
pure,0.011305
purest,0.008373
pyrometallurgi,0.024356
qualiti,0.003550
quantiti,0.011645
quantum,0.004806
quarter,0.004957
quit,0.004027
radii,0.023520
radiu,0.018914
radium,0.008244
rain,0.006051
rang,0.002860
rare,0.015688
rate,0.002953
rda,0.009380
react,0.005280
reaction,0.019378
reactiv,0.017081
readili,0.015515
reason,0.005425
recent,0.002617
recharg,0.008699
recogn,0.003240
recommend,0.004455
recov,0.004652
recoveri,0.005031
red,0.004189
redefin,0.006685
reduc,0.017180
reduct,0.004349
refer,0.006045
refin,0.009482
regard,0.005799
regul,0.003578
rel,0.016260
relationship,0.005770
relativist,0.018722
releas,0.003777
remain,0.002499
remov,0.006979
replac,0.003080
report,0.002905
requir,0.004758
research,0.002452
reserv,0.008039
resist,0.019583
resourc,0.003059
respect,0.002874
rest,0.003541
result,0.012632
richest,0.013179
rise,0.003041
risk,0.003719
river,0.008264
roast,0.017894
rock,0.004733
role,0.005295
roman,0.008108
room,0.004902
roughli,0.004239
s,0.036442
sacrifici,0.008981
safeti,0.004871
salt,0.010356
samuel,0.005373
schwerionenforschung,0.010906
screen,0.005581
scrub,0.009016
sea,0.003856
second,0.007442
secondari,0.004304
section,0.003745
seen,0.002965
semiconductor,0.006595
separ,0.002761
seri,0.003011
set,0.002341
sever,0.006578
share,0.017671
shell,0.030523
shini,0.008539
shortform,0.010169
shown,0.003644
siberia,0.007212
signific,0.002685
sigurd,0.010541
silver,0.031555
silverii,0.012178
silverywhit,0.010439
similar,0.032654
similarli,0.007970
simpl,0.003342
sinc,0.008413
site,0.003543
situat,0.003238
slowli,0.009697
small,0.012870
smaller,0.003576
smelt,0.015620
smooth,0.005578
smoothli,0.007695
soda,0.008307
sodium,0.025617
soft,0.032223
solder,0.019887
solid,0.009041
solidifi,0.006924
solut,0.014395
sometim,0.002738
somewhat,0.008918
speci,0.015474
spectral,0.006459
spectrum,0.004974
speed,0.004301
spelter,0.011868
sphalerit,0.034204
spin,0.005834
stabil,0.015692
stabl,0.012419
standard,0.008499
stark,0.007100
state,0.018405
steel,0.010537
step,0.003566
stoichiometri,0.008564
stromey,0.024356
strong,0.009169
stronger,0.005064
strongli,0.008108
structur,0.004915
studi,0.002223
subshel,0.036994
substanc,0.004422
suggest,0.002944
sulfat,0.007527
sulfid,0.085646
sulfur,0.012368
summar,0.005357
summari,0.005062
superactinid,0.010653
superheavi,0.009166
superior,0.004682
supplement,0.005207
support,0.002501
symbol,0.011456
synthes,0.010933
synthesi,0.004696
synthet,0.005217
tabl,0.032386
taka,0.010653
tantalum,0.008787
tellurium,0.008947
temperatur,0.025514
tent,0.006453
term,0.003975
terminu,0.008881
tetrahedr,0.017456
th,0.009648
thebe,0.008849
theoret,0.010347
therefor,0.005718
thermomet,0.007602
thi,0.025174
thought,0.002981
thu,0.009835
time,0.009305
tin,0.006565
today,0.003021
togeth,0.002900
toler,0.005322
tomb,0.006699
tonn,0.027825
total,0.005870
toxic,0.046530
trace,0.008067
trade,0.003042
tradit,0.002648
traffic,0.005557
trail,0.006901
transit,0.036621
transmut,0.007252
transport,0.003606
trend,0.020089
trivial,0.006279
tungsten,0.007766
turn,0.002908
twice,0.005013
twothird,0.005764
type,0.002529
typewrit,0.009207
typic,0.005644
u,0.004908
ubb,0.010906
ubiquit,0.006633
uhb,0.012577
uhq,0.022432
uhqcn,0.011401
uhqco,0.011401
uhqpf,0.011401
understood,0.003947
unhexbium,0.012577
unhexquadium,0.159619
unhexquadiumii,0.011401
unhexquadiumiv,0.011401
unhexquadiumvi,0.011401
unhextrium,0.011401
union,0.006251
uniqu,0.003586
unit,0.004243
univers,0.002178
unlik,0.017515
unpair,0.008373
unrecord,0.009016
unusu,0.005099
upper,0.004247
use,0.072189
usual,0.010125
vacuum,0.010977
valenc,0.029295
valv,0.007193
vapor,0.019713
vari,0.003101
varieti,0.003158
variou,0.004789
veri,0.021620
vessel,0.005121
victor,0.005661
vilyuy,0.011615
volatil,0.011193
volta,0.007886
voltaic,0.008617
wa,0.043119
water,0.019468
watersilv,0.012577
wavelength,0.006372
way,0.004498
weak,0.008357
weight,0.016959
west,0.003611
wherea,0.003650
wide,0.010837
women,0.004003
wood,0.004853
word,0.005839
work,0.002062
world,0.002132
worldwid,0.004267
written,0.003330
year,0.004245
zamak,0.012178
zinc,0.523562
zincair,0.012577
zinccarbon,0.011615
zinccontain,0.012577
zinci,0.012577
zink,0.011615
zirconium,0.009291
zn,0.042824
zncl,0.012178
zrzn,0.012577
