abil,0.005848
abl,0.016107
abrupt,0.013039
acceler,0.008175
accomplish,0.017084
achiev,0.005347
act,0.004857
ad,0.005424
add,0.008105
addit,0.008600
adolf,0.011726
advanc,0.015749
advoc,0.007296
age,0.010646
agreement,0.006487
airplan,0.012469
alicycl,0.019649
alkali,0.026470
alkan,0.014885
alkyl,0.086104
alter,0.007624
aluminum,0.013360
amass,0.013425
amin,0.012892
anim,0.005949
anniversari,0.011272
anomal,0.012928
anoth,0.008176
applic,0.005076
area,0.008443
aromat,0.012928
art,0.019507
articl,0.005051
aryl,0.017030
atmospher,0.008326
attempt,0.004848
attend,0.016220
attorney,0.011671
august,0.012918
auwer,0.022360
avail,0.005195
avid,0.014885
award,0.119894
background,0.007299
base,0.003703
bayer,0.015466
becam,0.028108
becaus,0.015432
began,0.005117
behr,0.017804
bequeath,0.015569
biographi,0.019771
birthday,0.012576
bond,0.014640
born,0.007239
breil,0.022360
briefli,0.009506
brought,0.006317
butadien,0.017127
buten,0.021099
byproduct,0.011375
c,0.009809
carbinol,0.021650
carbon,0.033464
carboncarbon,0.032319
career,0.008420
carl,0.017140
catalyst,0.067253
catalyt,0.013174
caus,0.013744
chang,0.007740
chart,0.009778
cheap,0.010634
chemi,0.015967
chemic,0.058825
chemik,0.022360
chemisch,0.019939
chemist,0.029595
chemistri,0.082758
chicago,0.008366
chief,0.007148
children,0.021179
christmas,0.022360
chromium,0.014021
class,0.022774
coal,0.080078
collect,0.010015
color,0.008551
committe,0.007365
commun,0.004489
compani,0.005420
compet,0.014156
compound,0.123776
concentr,0.006718
consid,0.004003
consult,0.007927
contamin,0.010953
contribut,0.005039
control,0.004561
conveni,0.009166
convert,0.020995
copolym,0.017228
cordula,0.020269
cours,0.005983
cowork,0.013884
creativ,0.008871
credit,0.006643
cross,0.029973
cruis,0.036482
crystallin,0.012738
curriculum,0.010634
cyano,0.020269
cycliz,0.037482
danc,0.011010
darmstadt,0.016442
daughter,0.018845
day,0.005180
decemb,0.006300
delay,0.008768
denot,0.008377
deploy,0.009291
deposit,0.008128
der,0.026955
deriv,0.015660
desir,0.006461
determin,0.004767
deutsch,0.023214
deutscher,0.015906
develop,0.006867
did,0.005096
die,0.013156
dilut,0.023940
dimer,0.014415
diphtheria,0.016937
directli,0.011033
director,0.016510
disciplin,0.006326
disclos,0.011994
discov,0.006046
discoveri,0.019291
dissert,0.011693
dissoci,0.025344
dissolv,0.008527
doctor,0.032774
doubl,0.007601
dr,0.017036
dramat,0.007753
drove,0.011120
duisberg,0.021650
dure,0.007904
eager,0.012592
earli,0.008268
earlier,0.006107
easili,0.014163
eclips,0.011077
eclipseview,0.022360
educ,0.005265
elect,0.006096
electron,0.006916
elementari,0.009324
elimin,0.021444
emil,0.023257
encourag,0.006793
end,0.004519
engin,0.005956
engler,0.017678
enjoy,0.031477
enorm,0.008902
erhart,0.044721
erich,0.012840
especi,0.009599
etalcl,0.022360
ethan,0.043758
ether,0.038520
ethyl,0.015622
ethylen,0.119732
ethylenealuminum,0.022360
euro,0.010516
eventu,0.005874
excel,0.017883
exist,0.012331
exner,0.019649
expand,0.005847
experi,0.010165
experiment,0.006904
explain,0.005564
extens,0.011163
extern,0.003232
extra,0.009466
extrem,0.005929
factor,0.010481
famili,0.005723
father,0.007267
favor,0.006827
feasibl,0.010043
feder,0.019743
feedstock,0.015181
field,0.004513
final,0.010692
fischer,0.012469
flower,0.010037
follow,0.003535
foreign,0.011507
forerunn,0.011737
form,0.003378
formerli,0.016559
fortytwo,0.016442
foundat,0.017291
fr,0.010913
frankfurt,0.012214
franz,0.011671
free,0.030292
freerad,0.058167
french,0.005948
fund,0.006094
fundament,0.011320
fur,0.024428
ga,0.007436
garden,0.009885
german,0.062421
germani,0.046586
gesellschaft,0.027931
giessen,0.019649
giulio,0.045410
given,0.022165
goal,0.006079
grand,0.017171
grandchildren,0.028766
grandson,0.012381
great,0.004981
groe,0.018228
group,0.007974
growth,0.005594
h,0.006139
ha,0.008841
hall,0.008386
hallesaal,0.022360
halochrom,0.044721
halogen,0.014621
hannov,0.018228
happili,0.016159
heckel,0.020269
heidelberg,0.026764
help,0.009677
helsa,0.022360
hexasubstitut,0.044721
hi,0.158523
high,0.026853
higher,0.010509
highest,0.006768
highli,0.017456
highlight,0.009100
histor,0.004965
historisch,0.017442
home,0.012623
honor,0.009143
honorari,0.011395
honour,0.010423
hospit,0.008716
howev,0.003587
hydrocarbon,0.057171
ident,0.006328
identifi,0.005343
ill,0.008582
imag,0.006805
importantli,0.010128
impress,0.009021
includ,0.009204
incorpor,0.006069
individu,0.013677
indivis,0.012545
industri,0.015135
influenc,0.004868
inform,0.004394
initi,0.004802
instanc,0.005985
instead,0.010354
institut,0.042094
intact,0.011328
intermolecular,0.014383
intern,0.003873
interrupt,0.010994
intramolecular,0.016227
introduc,0.005184
introductori,0.010537
investig,0.006193
involv,0.004284
itali,0.007954
jointli,0.010663
just,0.005153
kaiserwilhelm,0.022360
kaiserwilhelminstitut,0.022360
karl,0.141317
karlzieglerschul,0.044721
kassel,0.036158
kasselbettenhausen,0.022360
kept,0.007963
keton,0.030453
kind,0.005887
knowledg,0.011117
known,0.007385
kohlechemi,0.022360
kohlenforschung,0.044721
kokoschka,0.019939
kurtz,0.016368
landmark,0.010404
larg,0.011683
largering,0.022360
largescal,0.008610
later,0.013184
laureat,0.011444
lavoisi,0.012805
laylin,0.022360
le,0.008802
lead,0.013226
lectur,0.016069
led,0.019076
left,0.005890
leopold,0.012410
liebig,0.014885
liebigdenkmnz,0.022360
life,0.014250
link,0.006426
lirx,0.022360
list,0.004108
lithium,0.064376
live,0.009555
locat,0.010866
london,0.012443
longchain,0.032736
lover,0.013039
low,0.005662
luis,0.019939
lutheran,0.013297
macrocycl,0.017557
mainli,0.006134
major,0.007840
man,0.019612
mani,0.020038
manymemb,0.067082
marburg,0.066385
maria,0.032763
marianna,0.038307
mark,0.005932
marri,0.018525
materi,0.010355
max,0.036117
maxplanckinstitut,0.020269
meanwhil,0.008934
medal,0.086802
medicin,0.007044
member,0.014142
memori,0.015372
merit,0.052720
metal,0.038451
method,0.009152
million,0.005803
minerallwissenschaft,0.022360
minist,0.006666
mit,0.008977
mixtur,0.009238
mlheim,0.134164
molecular,0.015445
montecatini,0.022360
mrite,0.021099
multimemb,0.033874
muscon,0.021099
museum,0.008909
musk,0.016159
mw,0.014077
namesak,0.015050
natta,0.079759
natur,0.007889
nd,0.013749
near,0.006075
necessari,0.005888
necessarili,0.007232
new,0.029703
nickel,0.023702
nobel,0.060207
nold,0.021099
notabl,0.005669
novel,0.008177
novemb,0.013254
numer,0.005473
observ,0.004876
obtain,0.011486
occur,0.004694
octob,0.012778
odifer,0.019389
olefin,0.066709
oligom,0.018939
omit,0.011544
onli,0.003401
open,0.010116
order,0.004071
organ,0.008060
organo,0.019939
organoalkali,0.022360
organolithium,0.017678
organometal,0.096113
organopotassium,0.021650
oskar,0.013360
otto,0.010410
outstand,0.040422
paint,0.046919
paper,0.006096
particular,0.004624
particularli,0.010363
pass,0.005740
patent,0.029579
path,0.007491
patron,0.011309
pave,0.020899
peac,0.007125
pentaphenylcyclopentadienyl,0.022360
perform,0.010388
perhap,0.006868
period,0.004390
person,0.004834
petroleum,0.018995
phd,0.009547
phenylisopropyl,0.044721
physic,0.009669
physicist,0.008745
pictur,0.024814
place,0.008357
plakett,0.022360
planck,0.044871
plastic,0.029801
polyethylen,0.078660
polym,0.033310
polymer,0.105881
pose,0.008999
possess,0.013279
post,0.007170
potassium,0.035245
potenti,0.005485
pour,0.011120
practic,0.004533
prepar,0.041229
present,0.016945
presid,0.018381
pressur,0.012755
previou,0.012778
previous,0.012918
principl,0.010171
prize,0.039509
procedur,0.014757
process,0.016021
product,0.013247
professor,0.022717
program,0.005329
progress,0.005774
promot,0.012087
prompt,0.009275
propen,0.019649
propylen,0.017938
public,0.008533
publish,0.018810
question,0.010641
quickli,0.006896
r,0.005669
radic,0.062136
ralhelimin,0.022360
rall,0.019649
rang,0.010171
rc,0.013993
rcz,0.022360
reaction,0.062011
reactiv,0.020245
read,0.004666
readili,0.009194
reagent,0.026940
realiz,0.007513
reason,0.004822
receiv,0.035936
recept,0.010634
recogn,0.017285
red,0.007448
refer,0.002687
relat,0.003623
relev,0.007028
renam,0.009328
repp,0.021099
republ,0.012613
requir,0.004230
research,0.047951
respons,0.004660
result,0.011228
resurrect,0.011921
ring,0.109210
ringsystem,0.022360
rli,0.040538
rout,0.008089
royal,0.014179
rubber,0.023321
ruggliziegl,0.022360
ruhr,0.066709
ruika,0.021099
run,0.005905
salt,0.055237
sash,0.017557
schmidtrottluff,0.021099
school,0.038268
schulterband,0.021099
scienc,0.036154
scientif,0.021628
scientist,0.006144
scission,0.020269
second,0.004410
semest,0.014966
semibenzol,0.022360
seri,0.005353
serv,0.010697
servic,0.005235
set,0.004162
share,0.010472
siemen,0.045024
signific,0.014321
similarli,0.007084
simpli,0.012204
sinc,0.003739
skill,0.007204
socal,0.007545
societi,0.046854
sodium,0.022771
soldier,0.008509
solut,0.012796
son,0.021481
soon,0.013715
sought,0.007285
span,0.008638
spark,0.009896
special,0.004677
spent,0.008266
spur,0.010503
ss,0.011493
stabil,0.013948
stabl,0.014719
star,0.008293
start,0.004733
stereoregular,0.022360
stereoregularli,0.022360
steric,0.015732
stern,0.012771
stilben,0.022360
strong,0.005433
sttten,0.022360
student,0.019095
studi,0.035569
substitu,0.015050
substitut,0.016620
success,0.009918
successor,0.008400
suddenli,0.011094
superior,0.016647
support,0.004446
swinburn,0.016677
synthes,0.038873
synthesi,0.025047
synthet,0.055650
systemat,0.007144
tablet,0.011921
technic,0.019953
techniqu,0.005746
technolog,0.016175
termin,0.008762
tetraphenylallyl,0.022360
textbook,0.008429
thi,0.050348
thu,0.004371
thwart,0.013255
ticl,0.019389
time,0.003308
titanium,0.013382
took,0.005842
tool,0.005988
topic,0.005933
trace,0.007170
travel,0.006603
tri,0.005886
triphenylmethyl,0.021650
trival,0.070231
und,0.022004
unexpect,0.010921
unexpectedli,0.013493
univers,0.046478
urban,0.007843
use,0.015278
util,0.006765
vaccin,0.012410
valley,0.008648
valuabl,0.008778
variou,0.004257
verdienstkreuz,0.021099
versatil,0.013382
vielgliedrig,0.022360
view,0.004793
visit,0.007513
von,0.037923
wa,0.122651
waldemar,0.017333
walter,0.008920
war,0.021249
way,0.007997
wealth,0.007701
wealthi,0.009758
weight,0.015075
werner,0.035518
whi,0.006880
whichl,0.022360
wide,0.004816
wife,0.019282
wilhelm,0.009414
witt,0.030362
won,0.007570
work,0.054992
world,0.007582
worth,0.008467
year,0.022644
yellow,0.010503
yield,0.014611
young,0.006943
zealou,0.016761
ziegler,0.744805
zieglernatta,0.041299
zielger,0.022360
zirconium,0.016518
