absorb,0.054250
affect,0.008865
appli,0.007252
approxim,0.018491
associ,0.013254
atmospher,0.039871
attract,0.010916
bath,0.019048
beaver,0.023338
black,0.044161
bodi,0.024626
boil,0.036595
bowen,0.047518
british,0.009133
btu,0.055332
budget,0.012804
c,0.039145
calcul,0.010439
calorimetri,0.049373
capac,0.011357
case,0.006850
caus,0.007312
chang,0.067947
characteris,0.016424
characterist,0.009443
chemist,0.015745
come,0.007836
commiss,0.010909
common,0.013251
commonli,0.018199
complet,0.007568
compon,0.009437
conceptu,0.013189
concern,0.007693
condens,0.095132
configur,0.015138
constant,0.054472
constanttemperatur,0.033678
context,0.009639
contrast,0.009256
correl,0.012773
covari,0.020124
cubic,0.018915
defin,0.007520
definit,0.008664
depend,0.007230
deposit,0.012973
deriv,0.008332
describ,0.020235
direct,0.007276
displaystyl,0.062765
distil,0.019626
doe,0.007414
dure,0.018924
earth,0.020715
eddi,0.067005
effect,0.012818
empir,0.018411
endotherm,0.023954
energi,0.184722
english,0.009188
enthalpi,0.067549
evapor,0.055430
exampl,0.017726
expand,0.009332
expans,0.022263
express,0.008548
extent,0.010855
far,0.008946
felt,0.013927
field,0.007204
flow,0.010389
fluid,0.013906
flux,0.086779
follow,0.016930
forc,0.007071
form,0.021570
framework,0.010107
fuel,0.013073
function,0.014446
fusion,0.082221
ga,0.023738
gase,0.015729
given,0.014151
ha,0.004704
hazard,0.016111
heat,0.522482
held,0.016682
hidden,0.031071
histori,0.005876
ice,0.046165
ideal,0.011479
import,0.006016
increas,0.006784
independ,0.007246
indic,0.008678
input,0.012781
intens,0.023434
intent,0.011872
interact,0.008802
intern,0.012364
introduc,0.024827
involv,0.006839
jame,0.009949
jg,0.048181
jonathan,0.016494
joseph,0.023250
joul,0.021798
kg,0.055134
kj,0.049057
l,0.062299
larg,0.006216
latent,0.652165
later,0.007014
latin,0.022171
latn,0.035690
lb,0.040663
lf,0.026243
lfrac,0.028631
lie,0.023111
liquid,0.063213
literatur,0.010537
ltexticettttextjg,0.035690
ltextwatertttttextjg,0.035690
lv,0.027183
m,0.033739
mani,0.010661
mass,0.029015
materi,0.024793
mean,0.012990
measur,0.007724
medium,0.013445
melt,0.033659
meteorolog,0.034587
method,0.007304
microwav,0.019368
mid,0.011743
molecul,0.012734
natur,0.006296
numer,0.008737
observ,0.007783
ocean,0.012136
origin,0.006535
overcom,0.014483
particl,0.012676
particular,0.007381
phase,0.079386
physic,0.007717
potenti,0.008755
prescott,0.023513
pressur,0.040719
process,0.019179
produc,0.007036
properti,0.024564
q,0.060583
qm,0.025201
qml,0.035690
quadrat,0.019626
quantiti,0.011015
quot,0.014148
radiat,0.013543
rang,0.016235
ratio,0.024392
reason,0.007697
recent,0.007426
refer,0.008577
reflect,0.009217
relat,0.011565
releas,0.032156
requir,0.020255
respect,0.016312
result,0.005974
sampl,0.012781
scotch,0.029095
search,0.010977
sens,0.008825
sensibl,0.132804
sever,0.006222
sinc,0.005968
size,0.009295
solid,0.025657
specif,0.085700
specifi,0.012136
steam,0.017777
studi,0.006308
sublim,0.041685
subsequ,0.009314
substanc,0.075295
surfac,0.054040
t,0.093468
tabl,0.022975
tabul,0.022335
taken,0.008740
techniqu,0.009172
temperatur,0.144802
term,0.028201
thermal,0.045917
thermodynam,0.076604
thermomet,0.021572
thi,0.004464
transfer,0.020428
transit,0.010391
transpir,0.022119
transport,0.010232
tropospher,0.023888
unit,0.006020
usag,0.037559
use,0.004877
usual,0.007183
valu,0.015300
vapor,0.186465
volum,0.030673
wa,0.029365
water,0.110490
wherea,0.010357
whiski,0.028631
word,0.008285
