accept,0.010484
accord,0.008350
actinid,0.028943
actual,0.021376
addit,0.008448
aluminium,0.023400
analog,0.014922
appear,0.019345
appropri,0.013386
argon,0.027716
arrang,0.013614
assign,0.030001
associ,0.008158
assum,0.011569
astatin,0.033461
asthenunknown,0.043933
atmospher,0.032719
atom,0.102220
base,0.021830
becaus,0.007580
befor,0.017200
believ,0.010414
best,0.011098
boisbaudran,0.039176
bombard,0.044701
booklet,0.062042
calcul,0.012849
calibr,0.024242
carlo,0.019191
characterist,0.011624
chemic,0.051368
classifi,0.013642
clearli,0.015165
cleve,0.033278
compar,0.009976
compos,0.025594
concept,0.009413
confirm,0.029084
contain,0.009677
contrast,0.011394
corona,0.029740
coronium,0.041456
correct,0.013583
correspond,0.012245
crook,0.026832
current,0.017271
cyclotron,0.030007
definit,0.010666
dens,0.019201
depend,0.008900
deuterium,0.030193
did,0.020026
differ,0.007151
digit,0.015063
discov,0.011879
discoveri,0.050536
dmitri,0.026250
document,0.013023
doe,0.009127
doubt,0.017409
dubnium,0.038605
dvi,0.039176
dvilanthanum,0.043933
dvimanganes,0.043933
ea,0.026125
earth,0.025499
eb,0.030289
edln,0.043933
eka,0.110467
ekaactinium,0.043933
ekaaluminium,0.075265
ekaboron,0.074421
ekacaesium,0.041456
ekaiodin,0.043933
ekamanganes,0.085076
ekasilicon,0.075265
ekatantalum,0.087867
element,0.268548
em,0.025846
emil,0.022847
emilio,0.028658
entitl,0.016766
eric,0.019291
ernest,0.020894
es,0.025731
ether,0.075683
eventu,0.011542
evid,0.011074
exampl,0.014546
exist,0.024227
explain,0.021865
express,0.010522
fairli,0.018395
fare,0.025060
faulti,0.026084
fe,0.025366
francium,0.034271
fredrick,0.035521
ga,0.029221
gallium,0.056647
gap,0.033810
gase,0.116172
gave,0.012636
germani,0.013075
germanium,0.087976
given,0.017419
gone,0.019271
good,0.009655
grotrian,0.043933
group,0.039167
ha,0.005790
hafnium,0.033651
heavier,0.065805
heaviest,0.027659
helium,0.023238
help,0.009507
henc,0.013549
hi,0.038932
high,0.008793
hydrogen,0.035974
hypothet,0.039055
identifi,0.041991
implicitli,0.023017
inert,0.024559
initi,0.009435
instead,0.010171
interact,0.010835
intern,0.007609
interstellar,0.050387
isbn,0.010265
isol,0.056396
isotop,0.042073
iupac,0.024771
kinet,0.019656
known,0.014511
laid,0.016387
lanthanum,0.030694
lar,0.027832
late,0.020104
later,0.017269
law,0.008746
lawrenc,0.019423
lecoq,0.037210
lifetim,0.018591
lighter,0.091139
lighterthanhydrogen,0.043933
lightest,0.087740
line,0.010390
lone,0.024897
mass,0.059527
massless,0.028658
match,0.015438
materi,0.010173
matter,0.010920
member,0.009262
mendeleev,0.709682
meter,0.019538
mobil,0.015420
molybdenum,0.027659
nearli,0.012644
neighbor,0.016376
neutron,0.022889
new,0.006484
nilson,0.042538
nm,0.047134
nobl,0.018877
note,0.008369
notifi,0.027228
nuclei,0.020880
number,0.007262
occupi,0.014553
offici,0.011021
onli,0.006682
origin,0.032180
oxford,0.013639
oxid,0.019261
paul,0.012618
period,0.077631
permeat,0.026125
perrier,0.036822
place,0.041049
posit,0.008603
practic,0.008906
predict,0.219243
predictor,0.026645
prefix,0.089479
press,0.009797
previous,0.012690
priori,0.022313
probabl,0.011945
prolif,0.023739
properti,0.030237
proport,0.013763
propos,0.010270
protactinium,0.177607
protohelium,0.043933
prove,0.012847
provid,0.007385
provision,0.042189
proxim,0.019241
public,0.008383
publish,0.018479
qualiti,0.012403
radioact,0.040857
rare,0.041099
rarefi,0.030909
read,0.009169
reason,0.009475
recogn,0.011320
refer,0.015838
regular,0.014463
requir,0.008311
respect,0.010040
respons,0.009157
result,0.007354
rhenium,0.031750
s,0.007487
sampl,0.015733
sanskrit,0.021866
scandium,0.096914
scerri,0.031750
second,0.008664
segr,0.033278
sever,0.007659
signific,0.009379
sinc,0.007347
situat,0.011312
small,0.017981
smaller,0.012493
sometim,0.009564
sourc,0.009242
speci,0.013513
spectral,0.022563
spot,0.036790
stabl,0.014459
star,0.016294
state,0.006428
stori,0.014894
suggest,0.010286
sun,0.032600
systemat,0.014037
tabl,0.183829
tc,0.027385
technetium,0.097362
teodor,0.037632
theoret,0.024095
theori,0.017224
theorist,0.017124
thi,0.010991
thorium,0.056777
time,0.006500
titanium,0.026293
transhydrogen,0.043933
transuran,0.033461
treat,0.012865
treatment,0.013516
tri,0.011565
unbiunium,0.039176
undetect,0.027773
unexplain,0.027280
univers,0.007609
unknown,0.015212
uranium,0.068858
use,0.024014
valid,0.014030
veloc,0.019321
veri,0.016782
version,0.012852
violent,0.018143
wa,0.096392
wavelength,0.022257
whi,0.027038
william,0.011773
xiv,0.024803
year,0.007415
yetundiscov,0.040572
york,0.011316
zero,0.015452
zirconium,0.032454
