abnorm,0.006123
absorb,0.004918
abund,0.039914
academi,0.004739
accept,0.006177
accord,0.004920
accumul,0.009439
accur,0.004191
acid,0.004956
add,0.004691
addit,0.004977
adjac,0.005630
advanc,0.003038
advantag,0.003818
affect,0.003214
affin,0.006044
agent,0.012584
aid,0.003690
air,0.030234
airsensit,0.012531
allow,0.002446
alon,0.004207
alpha,0.022780
alway,0.003308
analog,0.004396
analysi,0.005931
anesthet,0.017574
angioplasti,0.010551
ani,0.010841
anion,0.007976
anoth,0.007098
antibond,0.010162
appar,0.004199
appli,0.002630
applic,0.026443
appropri,0.003943
ar,0.021232
arc,0.013225
area,0.002443
arf,0.029104
arg,0.009751
argon,0.244956
arrang,0.016043
ascent,0.007849
asthma,0.008981
atmospher,0.033737
atom,0.163475
attempt,0.008418
attract,0.003958
august,0.003738
automobil,0.006163
avail,0.006014
away,0.003747
b,0.003258
balloon,0.015297
bang,0.006629
bartlett,0.017141
base,0.004287
basi,0.003064
becam,0.005423
becaus,0.026797
becom,0.002374
befor,0.005067
behavior,0.003479
believ,0.006136
bend,0.006935
bennett,0.007625
beryllium,0.008639
best,0.003269
beta,0.006067
big,0.004491
blimp,0.020929
block,0.004419
blood,0.004830
bloodstream,0.008402
blue,0.005287
bobrow,0.010232
bodi,0.008930
bohr,0.007334
boil,0.046448
bombard,0.013169
bond,0.072030
boron,0.007771
bottomrow,0.012942
bound,0.022194
breath,0.031889
bromin,0.017522
bubbl,0.012437
build,0.003139
bulb,0.023390
buoyanc,0.008662
c,0.025551
ca,0.010913
calcium,0.013059
californium,0.010741
cambridg,0.007869
cancer,0.005464
capac,0.004118
carbon,0.029054
carrier,0.005966
caus,0.010607
cavendish,0.008006
caviti,0.014366
cederblom,0.012942
cell,0.004273
centuri,0.005102
certain,0.005438
certainti,0.006271
cf,0.006700
chamber,0.005272
character,0.007536
characterist,0.003424
charg,0.003834
charli,0.008036
cheapest,0.008840
chemic,0.064314
chemist,0.011419
chemistri,0.047901
chlorin,0.014349
chromatographi,0.008148
chromospher,0.010643
circuit,0.005605
circumst,0.004564
class,0.003295
clathrat,0.031393
cleveit,0.011086
cliffsap,0.012942
cliffsnot,0.012212
close,0.002658
clue,0.007392
colleg,0.004313
collinear,0.010382
color,0.034648
colorless,0.017790
combin,0.008500
come,0.002841
commerci,0.003806
common,0.002402
commonli,0.013199
compact,0.005862
compar,0.005878
complet,0.002744
complex,0.005815
compon,0.013688
compos,0.003769
compound,0.165675
concentr,0.003888
conclud,0.004064
condit,0.025024
conditionsa,0.012942
configur,0.032938
conjunct,0.005553
consequ,0.006758
consid,0.011587
consider,0.003339
consist,0.005319
contain,0.017105
continu,0.007223
convert,0.008101
cool,0.005566
copper,0.016555
corros,0.007904
counter,0.005373
coval,0.021162
crack,0.006612
creat,0.002430
crust,0.019854
cryogen,0.025779
crystal,0.011149
current,0.002544
cut,0.004218
d,0.003217
danish,0.006284
data,0.006342
date,0.003321
david,0.003530
day,0.002998
daylight,0.008099
death,0.003480
decay,0.049177
decemb,0.003646
decompress,0.009392
decreas,0.023480
deduc,0.005934
deepsea,0.017574
degre,0.003254
densiti,0.014386
depend,0.002622
deposit,0.004704
deprec,0.008711
depth,0.010435
der,0.005200
deriv,0.003021
describ,0.004891
despit,0.006739
detect,0.004364
develop,0.005962
deviat,0.005639
devic,0.004441
did,0.002949
differ,0.006320
difluorid,0.059762
dimer,0.008344
dioxid,0.023356
direct,0.005277
disast,0.005489
discharg,0.033352
discov,0.031496
discoveri,0.018609
dissolv,0.009871
distil,0.028469
distinct,0.003060
distract,0.007133
disus,0.008344
dive,0.021601
diver,0.025147
dmitri,0.007733
doe,0.005377
domin,0.003270
dorn,0.010162
drysuit,0.012942
dubna,0.010232
dure,0.009150
e,0.003220
earli,0.002392
earnshaw,0.010305
earth,0.030048
eas,0.005507
easier,0.010245
easili,0.008197
ed,0.006698
edelga,0.012942
effect,0.011621
effici,0.003746
electr,0.003955
electromagnet,0.005363
electron,0.092082
electroneg,0.025147
element,0.094327
elimin,0.004137
elliott,0.007904
eman,0.007038
emiss,0.005677
empti,0.005703
end,0.002615
endohedr,0.023904
english,0.003332
enthalpi,0.008165
entir,0.006206
envelop,0.006971
equat,0.007958
erdmann,0.010382
ernst,0.005800
especi,0.005556
essenti,0.006651
establish,0.002553
estim,0.003366
evapor,0.006700
evid,0.006525
exactli,0.004686
exampl,0.012856
excess,0.004623
excim,0.079611
excit,0.011665
exhibit,0.004516
exist,0.004758
expens,0.004273
experi,0.008826
experienc,0.004295
experiment,0.003996
explain,0.006441
explor,0.003645
expos,0.004792
extend,0.003155
extract,0.009210
extrem,0.017159
eye,0.004782
f,0.042290
facilit,0.004313
factor,0.003033
fail,0.003597
fairli,0.005419
fall,0.003265
famili,0.003312
farther,0.006682
faster,0.004991
fewer,0.005073
field,0.007838
filament,0.014904
filler,0.019503
film,0.004852
firmli,0.006253
fit,0.004355
fl,0.007270
flammabl,0.008981
flerovium,0.010382
fluid,0.005043
fluorid,0.017373
fluorin,0.058144
fluorohydrid,0.025885
follow,0.010232
forc,0.015385
form,0.056710
format,0.003489
formul,0.004096
forward,0.004541
foundat,0.003336
fourelectron,0.012942
fraction,0.030045
frank,0.005009
french,0.003442
friedrich,0.005232
ft,0.005591
fuel,0.004740
fulleren,0.026856
fusion,0.005963
ga,0.249645
gain,0.003112
gasdischarg,0.011373
gase,0.336535
gasesinclud,0.012942
geiger,0.009105
gener,0.005515
geochemistri,0.007796
german,0.003613
gilbert,0.006118
given,0.002565
glass,0.005639
glow,0.008115
goe,0.004603
gold,0.013346
gravit,0.005722
greater,0.003222
greek,0.010868
greenwood,0.007166
group,0.027692
guest,0.006755
h,0.007107
ha,0.018764
halffil,0.011952
halflif,0.015646
halogen,0.016926
hand,0.003169
hard,0.004198
harf,0.025885
hazard,0.005842
headlamp,0.012942
health,0.003566
heat,0.004511
heavi,0.013264
heavier,0.025848
hec,0.011373
heh,0.012212
held,0.006049
heliox,0.012942
helium,0.294382
heliumcan,0.012942
heliumoxygen,0.012942
help,0.002800
henri,0.008246
hexafluorid,0.042204
hexafluoroplatin,0.012212
hi,0.004587
hidden,0.005633
high,0.015542
higher,0.003041
highest,0.003917
highli,0.010103
highperform,0.008363
highprecis,0.009857
highpressur,0.009042
hindenburg,0.009857
histor,0.002873
histori,0.004261
hlio,0.011952
holloway,0.009653
host,0.004678
hot,0.005633
household,0.005089
howev,0.008305
hue,0.008813
hugo,0.006514
hundr,0.011661
hydrat,0.008363
hydrid,0.008287
hydrogen,0.042392
hydroquinon,0.011373
hypercapnia,0.025885
hyperpolar,0.010551
hyperval,0.011373
ice,0.005580
ideal,0.008325
identifi,0.015463
idl,0.007472
imag,0.011817
implic,0.004457
import,0.004363
improv,0.003148
inaccur,0.006935
incandesc,0.009042
includ,0.008879
incombust,0.012531
increas,0.031981
inde,0.004350
independ,0.002627
indic,0.009441
industri,0.011680
inert,0.043410
inflat,0.004817
influenc,0.002817
inorgan,0.005981
insid,0.017163
insight,0.004745
instanc,0.003464
institut,0.005414
insuffici,0.005800
integr,0.003087
interact,0.012768
interatom,0.018630
intermedi,0.005028
intermolecular,0.024975
interstellar,0.007422
intrins,0.005416
investig,0.003584
involv,0.007440
iodin,0.015593
ion,0.016643
ioniz,0.033840
isbn,0.021170
isol,0.016614
isotop,0.030986
isotrop,0.008711
j,0.006425
jane,0.006743
janssen,0.009432
jet,0.012515
john,0.005819
joint,0.009009
joseph,0.004215
k,0.011635
khimii,0.012942
kinet,0.005790
known,0.021375
kpa,0.008840
kr,0.034106
krf,0.079611
krypt,0.011952
krypton,0.191217
ksno,0.012942
label,0.013807
laboratori,0.008681
lack,0.006522
lamp,0.021626
landi,0.010096
larger,0.006752
largescal,0.004983
largest,0.003532
laser,0.044577
late,0.005922
later,0.010174
lattic,0.012755
law,0.002576
lawrenc,0.005722
lazi,0.008402
lead,0.005103
learn,0.003593
led,0.002760
lennardjon,0.021695
lethal,0.007372
level,0.002557
lewi,0.005368
lift,0.005709
light,0.031735
lighter,0.013424
like,0.006853
linu,0.007796
lipid,0.013473
liquefact,0.019827
liquid,0.036677
list,0.002378
lithospher,0.007796
littl,0.009820
livermor,0.009242
local,0.008690
lockyer,0.009971
london,0.007202
longestliv,0.010162
look,0.003531
lord,0.010124
lose,0.004498
low,0.039333
lower,0.003160
lung,0.013376
m,0.003058
macroscop,0.006127
magnet,0.020082
make,0.015223
manag,0.003063
mani,0.009665
manufactur,0.004078
mass,0.017536
materi,0.002996
matric,0.014123
matrix,0.005368
mean,0.009421
measur,0.002801
mechan,0.003158
medic,0.007876
medicin,0.008155
medium,0.009751
melt,0.036618
member,0.008186
membran,0.006056
mendeleev,0.017422
mercuri,0.006298
metal,0.026707
metallurg,0.008344
method,0.010594
methuen,0.008570
microfabr,0.009606
microlithographi,0.012942
miner,0.009469
minor,0.003957
minoru,0.011373
minut,0.005104
miss,0.016184
mix,0.012340
mixtur,0.010694
mo,0.007890
model,0.007991
modern,0.002565
moissan,0.011222
molecul,0.027707
molecular,0.017880
monatom,0.027517
mri,0.007412
multipl,0.003289
n,0.011522
na,0.006467
narcosi,0.023464
narcot,0.015781
nation,0.002369
natur,0.018265
nd,0.003979
ne,0.021678
nearest,0.006893
nearli,0.007449
need,0.002570
neg,0.003708
neil,0.006793
neon,0.113169
neutral,0.014043
neutronium,0.012531
new,0.009551
niel,0.007297
nitrogen,0.076743
nitrou,0.008895
nm,0.013885
nobel,0.004978
nobl,0.444902
noblega,0.012531
noblegaslik,0.012531
nonbond,0.011222
noncoval,0.009353
nonflamm,0.011541
nonmet,0.008526
normal,0.010226
norman,0.006025
notabl,0.003281
notat,0.040226
note,0.007397
noun,0.006730
nuclear,0.030589
nucleosynthesi,0.017278
nucleu,0.011330
number,0.004278
numer,0.006336
observ,0.005645
obtain,0.016620
occupi,0.004287
occur,0.005434
occurr,0.005531
octet,0.027834
octob,0.003698
odorless,0.020192
offer,0.003180
og,0.017325
oganesson,0.019607
ojima,0.012212
onc,0.003195
onli,0.027560
option,0.004462
orang,0.006392
orbit,0.032544
order,0.002356
organ,0.002332
organoxenon,0.012942
osnovi,0.011952
outer,0.021856
outermost,0.022418
oxfordbutterworthheinemann,0.012942
oxid,0.051068
oxygen,0.041656
p,0.013058
page,0.004192
panicinduc,0.012942
paramet,0.004930
partialpressur,0.012212
particip,0.006747
particl,0.004597
particular,0.010707
pattern,0.003648
paul,0.003717
peculiar,0.006658
period,0.022870
perxen,0.025063
peter,0.003899
phase,0.004112
phosphor,0.009042
phosphoru,0.007046
physic,0.011193
physicist,0.010124
physiolog,0.005037
pierr,0.005505
platinum,0.007696
plutonium,0.008505
podosek,0.012942
point,0.019845
poison,0.005977
polariz,0.019827
polonium,0.008923
porbit,0.032543
possibl,0.005002
potassium,0.013600
potassiumargon,0.010643
potent,0.007696
potenti,0.019050
practic,0.002623
preced,0.004646
predict,0.014352
preliminari,0.006540
prepar,0.011932
present,0.002452
presid,0.003546
press,0.005772
pressur,0.014766
prevent,0.007012
price,0.007261
primordi,0.006893
principl,0.005887
prize,0.004573
problem,0.002622
process,0.004636
produc,0.007654
product,0.005111
projector,0.009315
properti,0.023754
proport,0.004054
propos,0.006051
provid,0.006527
psi,0.007462
pu,0.008402
publish,0.005443
puriti,0.006942
qualiti,0.003653
quantiti,0.003994
quantum,0.004946
quartz,0.008234
question,0.003079
radiat,0.004911
radioact,0.042127
radiotherapi,0.008981
radiotrac,0.011373
radiu,0.019463
radium,0.033936
radon,0.115777
ramsay,0.034651
rang,0.002943
rare,0.008071
rate,0.003039
rayleigh,0.024755
reach,0.003160
react,0.016302
reaction,0.015952
reactiv,0.082028
reactor,0.007085
readili,0.005321
realiz,0.004348
reason,0.002791
receiv,0.002971
recoveri,0.005177
reduc,0.011785
refer,0.003110
reflect,0.003342
refriger,0.015051
rel,0.005577
relat,0.004194
remov,0.003590
replac,0.012677
report,0.005978
repres,0.005102
requir,0.002448
research,0.007569
resembl,0.004906
resist,0.004030
reson,0.017857
respect,0.008873
result,0.021664
retain,0.008180
risk,0.003826
rn,0.022674
rnf,0.011952
rob,0.007432
rod,0.006724
row,0.006014
royal,0.008207
rule,0.005678
russia,0.004571
russian,0.004553
s,0.008823
salt,0.005328
sampl,0.004634
scienc,0.005231
scientif,0.003129
scientist,0.014226
scottish,0.005970
scuba,0.016926
search,0.007961
seawat,0.007536
seep,0.008981
semiconductor,0.006787
sensit,0.005009
separ,0.014207
servic,0.003030
set,0.002409
seventh,0.006275
sever,0.013539
shell,0.047114
shield,0.006099
short,0.006632
shorter,0.005537
shortliv,0.006110
shown,0.007501
si,0.006806
sick,0.006106
signific,0.005526
silicon,0.006606
silver,0.016235
similar,0.010338
simplest,0.005521
sinc,0.006493
singl,0.008690
size,0.010112
slight,0.006462
small,0.018540
societi,0.002711
sodium,0.006590
solar,0.005163
solid,0.013956
solidifi,0.007125
solubl,0.034607
someth,0.004161
sometim,0.002817
soon,0.003969
sourc,0.002722
space,0.003337
spck,0.012212
spectrum,0.005118
specul,0.004503
spheric,0.012642
stabil,0.004036
stabl,0.042598
stage,0.003780
standard,0.017492
state,0.011363
steadili,0.011419
stellar,0.007261
stranger,0.007591
strong,0.003145
structur,0.010116
studi,0.006862
substanc,0.013652
substitut,0.004809
success,0.005741
suffer,0.003950
suggest,0.003030
suitabl,0.004805
sulphur,0.008363
sun,0.009603
superconduct,0.007547
superfluid,0.008736
superheavi,0.009432
superson,0.018211
suppress,0.004956
surgeri,0.012206
surround,0.007927
swedish,0.005903
synthesi,0.009665
synthet,0.005368
systemat,0.004135
tabl,0.033326
taken,0.003169
tasteless,0.010162
techniqu,0.006652
temperatur,0.039382
tend,0.007109
tendenc,0.009721
term,0.004090
termin,0.005071
test,0.003538
tetrafluorid,0.011222
tetroxid,0.010232
th,0.004964
theoret,0.007098
theori,0.010148
theoriz,0.005889
therefor,0.008826
thermodynam,0.005555
thermomet,0.007823
thi,0.022666
thorium,0.016726
thought,0.003067
threecent,0.012212
threshold,0.006029
tightli,0.006780
time,0.007660
tissu,0.005230
titanium,0.007745
togeth,0.008954
tool,0.003465
toxemia,0.012212
toxic,0.005985
tractabl,0.007976
transit,0.007536
translat,0.003726
trap,0.028356
trend,0.012403
trimix,0.012942
tube,0.011962
tungsten,0.007991
typic,0.005807
ultim,0.003743
ultraviolet,0.006761
unabl,0.004498
understand,0.005876
unexpectedli,0.007809
uniqu,0.007381
unit,0.006549
univers,0.015693
unreact,0.019607
unstabl,0.017324
uranium,0.013523
use,0.074284
usual,0.005209
utterli,0.008067
uv,0.007363
valenc,0.052754
valu,0.002774
van,0.004734
vapor,0.006761
variat,0.004057
variou,0.002464
ventil,0.008526
veri,0.017303
violat,0.004789
volum,0.003707
wa,0.033721
waal,0.007660
want,0.003996
wavelength,0.006556
weak,0.008599
weinhold,0.012942
weld,0.024203
william,0.003468
word,0.012018
work,0.002122
write,0.003384
written,0.003427
x,0.003832
xe,0.077612
xecl,0.012212
xef,0.152518
xenic,0.012531
xenon,0.337703
xeo,0.025063
year,0.002184
zero,0.004552
