abl,0.007250
abnorm,0.004761
abov,0.014696
absenc,0.003517
ac,0.005210
academ,0.002865
accept,0.007206
accord,0.007652
accordingli,0.004306
account,0.006760
accur,0.006519
acknowledg,0.003689
act,0.002186
actinid,0.072941
actinium,0.037723
actual,0.002448
ad,0.007325
adam,0.003882
adapt,0.003046
addit,0.013549
adjac,0.013137
adjust,0.003662
advantag,0.005939
advis,0.003867
advoc,0.003284
affect,0.005000
affin,0.070512
afford,0.004108
albeit,0.004836
albert,0.003888
alexandreemil,0.009745
alkali,0.053618
alkalin,0.024173
alloy,0.005324
allud,0.005844
alper,0.008436
altern,0.007375
aluminium,0.010722
alway,0.005145
ambigu,0.004495
america,0.005362
american,0.010838
americium,0.007624
amphoter,0.008353
analogu,0.005229
analyz,0.003216
andor,0.003348
ani,0.021920
announc,0.003212
anomal,0.011639
anomali,0.005224
anomaliesthorium,0.010065
anoth,0.007360
answer,0.003406
antoin,0.005248
appar,0.006532
appear,0.019944
appli,0.008181
applic,0.002284
appreci,0.004245
approach,0.002201
approxim,0.005214
archetyp,0.005606
ard,0.007903
argon,0.006349
argu,0.005090
argument,0.009643
aris,0.003121
arrang,0.031191
articl,0.002273
artifact,0.004533
aspect,0.002514
assign,0.010310
associ,0.001869
astatin,0.007665
atom,0.274335
attempt,0.002182
attent,0.003119
attract,0.015392
attribut,0.005948
august,0.002907
author,0.008616
avail,0.002338
availabilitymethod,0.009745
averag,0.002857
avoid,0.002857
awar,0.003461
away,0.002914
b,0.010136
balanc,0.003028
barium,0.006774
base,0.010002
basi,0.009532
becam,0.010543
becaus,0.013893
becom,0.003693
befor,0.007881
began,0.002303
begin,0.002249
behav,0.020517
behaviour,0.021341
belief,0.003088
benfey,0.009295
beryllium,0.013437
better,0.005203
bguyer,0.008844
bibliographi,0.003355
bind,0.003983
bismuth,0.006736
block,0.065296
bohr,0.017112
bond,0.016475
book,0.002192
born,0.003258
bound,0.010355
boundari,0.006441
bradi,0.006700
break,0.003180
bridg,0.015245
brief,0.003656
bring,0.002867
build,0.004882
c,0.002207
cadmium,0.013330
caesium,0.020954
calcul,0.005887
came,0.002526
candid,0.003559
capabl,0.003042
carbon,0.018829
career,0.007580
case,0.007727
categor,0.007855
categori,0.017689
cation,0.011772
caus,0.008249
ce,0.008467
cent,0.004793
centr,0.006354
centuri,0.001984
cerium,0.014802
chain,0.003451
challeng,0.002760
chancourtoi,0.017689
chang,0.001742
charact,0.019157
character,0.002930
characterist,0.018642
charg,0.008945
chart,0.004401
chemic,0.123569
chemist,0.084370
chemistri,0.050798
chemistryphys,0.008727
chlorin,0.011159
circl,0.003723
circul,0.004042
circumst,0.003549
claim,0.009382
classif,0.017047
classifi,0.015628
clear,0.002875
close,0.006202
closer,0.011470
coinag,0.005479
collabor,0.003549
colleagu,0.004176
collect,0.002254
colour,0.008820
colourless,0.007851
column,0.100973
combin,0.002203
comment,0.007402
common,0.007474
commonli,0.007698
compani,0.004880
compar,0.004571
comparison,0.003240
compet,0.006372
complet,0.008537
composit,0.006407
compound,0.020893
compris,0.015806
concept,0.002156
concern,0.004339
conclus,0.003443
concurr,0.004764
condit,0.002162
conduct,0.005297
configur,0.089654
confirm,0.016658
congenor,0.009745
connect,0.002544
consequ,0.002627
consid,0.001802
consist,0.006205
constitut,0.002440
construct,0.004786
contain,0.004434
contemporari,0.003022
context,0.002718
conting,0.004488
continu,0.007490
continuum,0.018450
contract,0.015500
controversi,0.009136
convent,0.005985
convers,0.003188
copernicium,0.008138
copper,0.004291
correct,0.006224
correl,0.003602
correspond,0.022443
count,0.007049
counterpart,0.008288
courtin,0.010065
coval,0.010971
credit,0.002990
critic,0.002273
crystallin,0.005733
cube,0.005756
culmin,0.004094
current,0.011870
cylind,0.011497
d,0.040029
danish,0.004887
data,0.007399
databas,0.003615
date,0.002582
dayah,0.010065
dberein,0.017689
dblock,0.089223
decay,0.008498
decemb,0.008508
decis,0.005211
decreas,0.024346
definit,0.014661
degre,0.002530
delectron,0.009497
delimit,0.006094
deme,0.028639
denot,0.003770
depend,0.002039
depict,0.007709
deprec,0.006774
deriv,0.002349
descend,0.003740
describ,0.003804
despit,0.002620
detect,0.003393
determin,0.010730
develop,0.010819
diagram,0.012754
diatom,0.005921
did,0.011470
differ,0.019660
differenti,0.012516
difficulti,0.006675
digit,0.003451
dimens,0.007111
dirac,0.017156
directli,0.002483
discov,0.029937
discoveri,0.011577
display,0.010536
disput,0.006217
disregard,0.005334
disreput,0.007215
distanc,0.006581
distinguish,0.002743
distribut,0.002549
divid,0.002450
divis,0.002678
dmitri,0.018042
doe,0.002091
draft,0.003988
drawn,0.007294
drip,0.006984
dubna,0.007957
dufour,0.008975
dull,0.006203
duma,0.006736
dynam,0.002897
earli,0.005582
earlier,0.002749
earth,0.014605
eas,0.004283
easi,0.003778
easier,0.007967
easili,0.003187
editor,0.003960
effect,0.018075
eighth,0.005192
einsteinium,0.007802
ekacaesium,0.009497
electr,0.006152
electron,0.273987
electroneg,0.117342
electronshel,0.010065
electrostat,0.005696
element,0.440140
elliot,0.006503
elsewher,0.003835
emerg,0.002384
emiss,0.004415
emit,0.004657
emphas,0.013061
empir,0.002596
emsley,0.007957
encompass,0.003483
encyclopaedia,0.005877
end,0.020342
energi,0.072931
english,0.005182
enter,0.002720
equal,0.005067
equat,0.009283
essenti,0.002586
establish,0.009928
estim,0.002618
europ,0.002522
eventu,0.002644
evid,0.002537
exactli,0.003644
exampl,0.029994
exce,0.004859
exclud,0.007000
exert,0.004269
exhibit,0.014049
exist,0.012951
expand,0.010527
expect,0.015338
expens,0.003323
experi,0.004576
experiment,0.003107
explain,0.015028
explor,0.002834
express,0.002410
extens,0.005025
extern,0.001454
extra,0.004261
extraordinari,0.004856
extrapol,0.005345
extrem,0.008006
f,0.035628
fact,0.004724
factor,0.002359
fair,0.003768
fall,0.005079
famili,0.007728
familiar,0.003936
far,0.005045
farther,0.015590
fashion,0.003916
faster,0.003881
favour,0.003658
fblock,0.122655
featur,0.005032
felectron,0.046475
fewer,0.003945
feynman,0.005462
field,0.002031
final,0.002406
finit,0.003847
firmli,0.004863
fit,0.003387
flerovium,0.024223
fluorid,0.006755
fluorin,0.019379
follow,0.009549
footnot,0.009919
forc,0.001994
form,0.042581
formal,0.002489
format,0.005427
formul,0.003186
forth,0.004044
fourdimension,0.006700
fourth,0.006942
fraction,0.003894
framework,0.002850
francium,0.023554
french,0.002677
fsubshel,0.010065
function,0.002036
g,0.002691
ga,0.016736
gadolinium,0.007544
gain,0.002420
gallium,0.012977
gap,0.019365
gase,0.062102
gaseou,0.011185
gave,0.005790
gblock,0.008277
gener,0.020014
geolog,0.003802
geologist,0.005371
german,0.011239
germanium,0.020155
gigur,0.009745
given,0.011972
glenn,0.005877
gmelin,0.007665
gold,0.006919
good,0.002211
gradat,0.007335
greater,0.012529
greatli,0.003258
ground,0.005790
group,0.227924
grove,0.005771
gustavu,0.007367
ha,0.051739
hafnium,0.007709
halogen,0.026326
hand,0.002465
handbook,0.004026
handout,0.007624
happen,0.003144
haran,0.007367
hard,0.003265
hardwir,0.007544
hassium,0.008525
heavier,0.020101
helium,0.053240
helix,0.012008
henc,0.015521
henri,0.003206
hgf,0.018590
hi,0.024974
high,0.002014
higher,0.014191
highermor,0.010065
highest,0.003046
highli,0.010476
highlight,0.004096
hinrich,0.016707
histor,0.002234
histori,0.001657
horac,0.005957
horizont,0.027529
howev,0.019376
human,0.003833
hydrogen,0.070055
idea,0.002232
ident,0.005697
identifi,0.007215
idiosyncrat,0.006214
ignor,0.006902
illustr,0.003392
immedi,0.008773
imperfect,0.004898
import,0.003393
inaccur,0.005393
incipi,0.006631
includ,0.011048
incomplet,0.008671
increas,0.042090
increasingli,0.002933
incumb,0.005334
inde,0.003382
independ,0.004086
indic,0.002447
inert,0.033759
infer,0.003823
inform,0.001977
innermost,0.013667
inorgan,0.004651
instanc,0.005388
instead,0.004660
insul,0.005416
integerbas,0.009497
interchang,0.004553
intermedi,0.003910
intern,0.005230
internet,0.003263
interpret,0.005308
interrupt,0.004948
interv,0.012575
introduc,0.002333
involv,0.001928
iodin,0.006063
ion,0.021571
ionic,0.016512
ioniz,0.100005
irregular,0.009308
island,0.002948
isotop,0.024097
iupac,0.062428
iva,0.008014
ivb,0.009497
janet,0.005748
jeanbaptist,0.005393
jensen,0.012361
johann,0.004257
john,0.004525
joint,0.003503
juliu,0.010123
jump,0.009187
june,0.002898
kekul,0.007802
khazan,0.009123
kjmol,0.020954
klein,0.005268
know,0.003014
known,0.023272
krd,0.009497
la,0.006640
laboratori,0.020254
labyrinthin,0.008525
lack,0.002536
lalu,0.009497
lamina,0.007244
lanthanid,0.112727
lanthanum,0.098449
larg,0.005259
larger,0.005251
later,0.007912
lavoisi,0.005764
law,0.008015
lawrencium,0.071617
layout,0.016719
leach,0.006503
lead,0.003969
leav,0.002816
led,0.002146
left,0.021211
leftmost,0.008277
leftstep,0.010065
lemnisc,0.008727
leopold,0.005586
letter,0.003283
level,0.001988
lie,0.003258
light,0.008226
lighter,0.005220
like,0.019542
liken,0.005886
likewis,0.003939
limit,0.002031
line,0.009522
link,0.007231
linu,0.006063
list,0.009247
lithium,0.011591
littl,0.002545
locat,0.007336
long,0.006478
longer,0.002743
lothar,0.014671
lower,0.007373
lutetium,0.116323
lutetiumth,0.010065
m,0.002378
macroscop,0.004764
madelung,0.015703
magnesium,0.017068
main,0.002105
major,0.005293
make,0.005073
mani,0.009019
manifest,0.003826
manner,0.006419
mark,0.005340
marker,0.005116
mask,0.005273
mass,0.005455
match,0.007073
matter,0.002501
mc,0.005844
mean,0.001831
meant,0.003411
measur,0.002178
mechan,0.007368
medium,0.007583
melt,0.009492
member,0.014854
mendeleev,0.115167
merck,0.007470
mercuri,0.024490
mercuryiv,0.009497
metal,0.231930
metalloid,0.049395
methan,0.005579
method,0.006179
meyer,0.022451
mg,0.006083
microscop,0.004293
middl,0.002742
milit,0.005196
mind,0.003136
mineralog,0.005661
minut,0.003969
miss,0.020977
mistak,0.004577
mix,0.006398
mixtur,0.004158
model,0.010358
modern,0.007979
modernday,0.004733
molar,0.011952
monatom,0.007133
moscovium,0.026182
moscow,0.004764
moseley,0.013878
mostli,0.008513
multival,0.008074
music,0.003655
natur,0.019531
nd,0.006188
near,0.002734
nearest,0.005361
necessarili,0.003255
need,0.001999
neg,0.008652
neighbor,0.003751
neon,0.025145
neonlik,0.010065
neptunium,0.007367
neutral,0.007280
neutron,0.031463
new,0.019312
newland,0.022411
nh,0.005516
nihonium,0.035378
niobium,0.007665
nobel,0.003871
nobl,0.069198
noblegaslik,0.009745
nonetheless,0.004160
nonmet,0.119358
nonmetal,0.046656
nonrelativist,0.006203
normal,0.002651
notat,0.004469
note,0.009587
notic,0.015099
notion,0.009439
nottingham,0.006647
novemb,0.008949
nuclear,0.013593
nucleu,0.052871
nuclid,0.006682
number,0.068217
numer,0.014784
object,0.002273
oblast,0.006736
observ,0.010975
obtain,0.002585
occasion,0.007503
occupi,0.026673
occur,0.040148
occurr,0.004301
octagon,0.007851
octav,0.013437
odl,0.019491
offici,0.010099
offset,0.004836
og,0.006736
oganesson,0.053368
old,0.002751
onc,0.002485
onethird,0.005053
onli,0.021433
open,0.002276
optim,0.007055
orbit,0.025309
order,0.023826
ordinari,0.003626
ordinarili,0.005819
organ,0.003628
organis,0.003148
origin,0.003686
oscillatori,0.007081
ostentati,0.008353
otherwis,0.003163
outermost,0.011623
outsid,0.002537
overlap,0.003696
overview,0.003332
oxid,0.008825
oxygen,0.008098
p,0.015233
page,0.003260
pair,0.003544
paper,0.005488
paradox,0.004253
parenthes,0.006104
parti,0.002570
partial,0.003059
particular,0.002081
particularli,0.004664
pass,0.002583
pattern,0.022701
paul,0.005781
pblock,0.040072
pekka,0.008525
peninsula,0.004424
period,0.243069
person,0.002176
perspect,0.002976
phase,0.003198
photograph,0.004577
physic,0.028291
physicist,0.011810
place,0.022570
placement,0.010440
platinum,0.005985
plutonium,0.006614
pm,0.005037
point,0.007716
polyatom,0.007107
poor,0.006576
popular,0.007138
posit,0.025624
positron,0.005689
possibl,0.009726
post,0.003227
posttransit,0.007507
potassium,0.005288
potenti,0.004938
pr,0.011294
practic,0.002040
precis,0.006283
predat,0.004233
predict,0.041857
predilect,0.007851
predominantli,0.004233
prepar,0.003093
presenc,0.002884
present,0.003813
presum,0.008514
previous,0.005814
primordi,0.010722
prioriti,0.004021
prism,0.006417
prize,0.003556
problem,0.002039
produc,0.009921
product,0.003975
professor,0.003408
progress,0.007797
project,0.002359
prompt,0.008349
pronounc,0.009214
proof,0.003888
properti,0.122384
propos,0.009412
proton,0.044373
prove,0.002943
provid,0.003384
psubshel,0.010065
publish,0.031752
pull,0.008753
pure,0.009047
pursu,0.006936
pyramid,0.005124
pyykk,0.008975
quantiti,0.012425
quantum,0.019233
quarantin,0.006917
question,0.011974
quickli,0.003104
r,0.002552
radic,0.003496
radii,0.056467
radionuclid,0.007133
radiu,0.045408
radon,0.006431
rare,0.006277
ratio,0.006879
raynercanham,0.009295
reactiv,0.022782
reactor,0.005510
reason,0.002170
receiv,0.004621
recent,0.012566
recentestim,0.010065
recogn,0.005187
recognit,0.009946
recommend,0.003565
rectangular,0.017178
recur,0.025823
refer,0.006047
refin,0.003794
reflect,0.002599
refractori,0.007107
refus,0.003529
regard,0.016243
regardless,0.003656
region,0.004331
regular,0.003313
reinstat,0.005497
rel,0.004337
relationship,0.013852
relativist,0.024970
releas,0.009068
releg,0.006147
reli,0.005828
remain,0.006001
remov,0.022341
repeat,0.003491
report,0.002324
repres,0.003968
requir,0.011424
reserv,0.003216
resid,0.003204
respect,0.009200
rest,0.008501
restrict,0.002803
result,0.010109
retriev,0.017967
review,0.002710
richard,0.002988
ridicul,0.005675
right,0.021705
rightmost,0.008205
rise,0.002433
rnfdsp,0.009497
rnfsp,0.009745
roman,0.009733
roughli,0.003392
row,0.070160
ruin,0.004809
rule,0.011039
russia,0.003554
russian,0.007082
russiau,0.010065
s,0.030878
salt,0.004144
saltlik,0.008525
sargentwelch,0.009497
sblock,0.015914
scandium,0.051807
scerri,0.007273
scheme,0.014561
school,0.002460
scienc,0.002034
scientif,0.002433
scientist,0.002765
screen,0.004466
screw,0.006519
seaborg,0.044611
search,0.003095
second,0.015881
seen,0.009493
select,0.002630
selenium,0.006581
separ,0.008839
sequenc,0.013431
seri,0.009638
set,0.001873
settl,0.006875
seven,0.006348
sever,0.007019
shape,0.002882
share,0.011784
sharpli,0.009517
sheffield,0.006445
shell,0.073279
shelltwo,0.010065
shield,0.014229
shini,0.006833
short,0.002578
shown,0.014584
signific,0.010744
significantli,0.003104
silicon,0.005138
silver,0.004208
similar,0.042212
similarli,0.003189
simpl,0.002674
simpli,0.008240
simultan,0.003527
sinc,0.011782
singl,0.004505
size,0.007864
slight,0.005025
slightli,0.003648
small,0.006179
smaller,0.005724
socal,0.003396
societi,0.004218
sodium,0.005124
soft,0.004297
solid,0.003617
sometim,0.015339
somewhat,0.003568
somewher,0.005155
soon,0.003086
spatial,0.003935
special,0.004210
specif,0.002014
spectra,0.010971
spectroscop,0.005860
spectrum,0.003980
speed,0.003442
spent,0.003720
sphere,0.003767
spiral,0.020605
spontan,0.004350
stabil,0.003139
stabl,0.013251
stairshap,0.010065
standard,0.006801
start,0.008523
state,0.005891
stow,0.007583
strictli,0.007939
strongli,0.003244
structur,0.011800
student,0.002865
studi,0.001778
style,0.003468
subcategori,0.011513
subdivid,0.009225
subject,0.002141
sublevel,0.008844
subsequ,0.010507
subset,0.004222
subshel,0.074011
substanti,0.006249
substitut,0.003740
success,0.008929
suggest,0.021209
support,0.002001
switch,0.004133
synthes,0.034996
synthesi,0.007516
synthet,0.012524
tabl,0.298049
tableth,0.010065
tabular,0.007470
taken,0.002464
tantalum,0.007032
techniqu,0.005173
tellur,0.007583
tellurium,0.007159
tend,0.013821
tendenc,0.007559
tennessin,0.025061
term,0.012725
tetraval,0.007665
thallium,0.007470
theme,0.003728
thenknown,0.009123
thenunknown,0.008844
theodor,0.004607
theoret,0.005520
theori,0.009865
theoriz,0.004580
therebi,0.003484
therefor,0.006864
thermal,0.004316
thi,0.047845
thirdrow,0.009497
thirti,0.004538
thought,0.011928
threedimension,0.004623
thu,0.009838
tightli,0.010546
time,0.007446
today,0.004836
togeth,0.009285
trace,0.006455
tradit,0.006359
transit,0.067404
transuran,0.015331
travel,0.002972
treat,0.008842
tree,0.003467
trend,0.086812
triad,0.034269
triangl,0.004978
triples,0.010065
trival,0.023709
trivial,0.010050
truth,0.007163
ts,0.006261
twodimension,0.010843
twoelement,0.008014
ubiquit,0.005308
unclear,0.004421
unconvinc,0.007709
underli,0.009590
understood,0.006318
undu,0.006718
uniform,0.003902
unimport,0.006349
union,0.005002
uniqu,0.002870
unival,0.017050
univers,0.005230
unknown,0.003485
unlik,0.005606
unruli,0.007903
unstabl,0.004490
unsystemat,0.007401
unusu,0.008162
use,0.022007
usual,0.010128
vacuum,0.004392
valenc,0.052748
valencebas,0.010065
valid,0.006429
valu,0.015102
vari,0.007444
variant,0.024466
variat,0.006310
variou,0.009581
veri,0.007689
version,0.014722
vertic,0.021774
video,0.003704
viii,0.010722
virtual,0.003329
volatil,0.004478
wa,0.048307
wave,0.003394
way,0.001799
weak,0.006687
web,0.003649
webel,0.008436
weight,0.037322
went,0.003087
wherea,0.005842
wide,0.008672
william,0.002697
win,0.003785
winter,0.004171
wolfgang,0.005112
work,0.014852
wringley,0.010065
wrote,0.002867
xe,0.015089
xed,0.028493
xef,0.009123
xefd,0.019491
xefdsboth,0.010065
year,0.005096
ytterbium,0.031829
yttrium,0.082991
z,0.016427
zinc,0.010607
zirconium,0.007435
