abano,0.006881
abbasid,0.004821
abenguefit,0.007022
abov,0.002017
abu,0.004288
abulcasi,0.006153
accept,0.001978
accord,0.001576
acid,0.003175
acquaint,0.004612
act,0.003602
action,0.005809
activ,0.001572
actual,0.004034
acupuncturist,0.006759
ad,0.010056
addit,0.014350
adequ,0.006612
adher,0.012752
administ,0.003089
administr,0.008814
advanc,0.005839
advers,0.003691
advic,0.003430
advoc,0.005410
age,0.003947
agenc,0.002479
ailment,0.015034
aim,0.002250
akin,0.004218
albarello,0.007189
alberta,0.004970
albiruni,0.005408
alghaz,0.007285
allergi,0.005462
alli,0.002911
allianc,0.002947
allow,0.003134
almaridini,0.014378
almuwaffaq,0.006818
alqasim,0.005792
alreadi,0.002296
alsaydalah,0.007022
alwafid,0.007022
alway,0.002119
alzahrawi,0.006017
ambulatori,0.043730
america,0.002208
american,0.008928
analysi,0.001899
analyst,0.003576
analyt,0.002873
anatomi,0.003701
ancient,0.004567
andor,0.002758
ani,0.002778
anim,0.006618
annal,0.004228
anoth,0.006063
anticoagul,0.006184
antiqu,0.003261
apha,0.007189
apothecari,0.030769
apothek,0.007189
appear,0.003651
appli,0.008424
applic,0.001882
approach,0.001813
appropri,0.002526
approprori,0.007285
approv,0.005415
arcadian,0.006314
area,0.014088
argentina,0.003909
arrang,0.002569
arseni,0.006881
artemi,0.005967
arthriti,0.005382
articl,0.001873
asai,0.007189
asian,0.003002
aspect,0.002071
assess,0.005369
assign,0.002831
assist,0.007049
assistantswer,0.007189
associ,0.010777
assur,0.003590
asuka,0.006247
attent,0.002570
attribut,0.004900
australia,0.008218
australian,0.003277
austria,0.003646
author,0.005323
autom,0.003526
avicenna,0.004447
avoid,0.002354
away,0.002400
ayurved,0.005534
baghdad,0.013131
banner,0.004623
base,0.005493
basi,0.001963
basic,0.001911
bc,0.022493
bcacp,0.007285
becaus,0.005722
becom,0.001521
befor,0.001623
began,0.003795
begin,0.003706
belgium,0.003730
bencao,0.006651
benefit,0.002306
biochem,0.007814
biochemistri,0.007554
biolog,0.009015
biomed,0.008346
blur,0.004425
board,0.016449
bodi,0.011442
book,0.009030
botan,0.004640
botani,0.004335
boundari,0.005306
bowl,0.004827
branch,0.006063
brickandmortar,0.006467
britain,0.005354
british,0.002121
broker,0.004173
brought,0.002342
built,0.002369
busi,0.004284
buy,0.003006
caduceus,0.007285
cairo,0.004774
caliph,0.004304
canada,0.013630
canadian,0.006461
cancer,0.003500
canon,0.003456
capsul,0.005252
carbon,0.006204
card,0.003616
cardiovascular,0.004717
care,0.064560
carolina,0.004288
carri,0.004103
carystu,0.007102
case,0.007957
catalan,0.005178
categori,0.002428
caus,0.001698
cell,0.002737
cellular,0.003521
centuri,0.022882
certain,0.005226
certif,0.018497
certifi,0.016611
charact,0.002630
characterist,0.002193
charg,0.002456
check,0.003299
chemic,0.012118
chemist,0.007315
chemistri,0.025107
chemometr,0.006350
china,0.002445
chines,0.005471
choic,0.002500
chronic,0.011736
church,0.002875
circumst,0.002923
citizen,0.002604
civilian,0.003309
claim,0.003864
classic,0.002103
clay,0.004064
clear,0.002369
clearcut,0.005129
clinic,0.059753
clinician,0.009989
close,0.001703
code,0.004926
cognit,0.003017
coin,0.002635
collabor,0.008771
collect,0.003713
columbia,0.003540
combin,0.009075
come,0.001820
commenc,0.003850
commiss,0.002534
common,0.007696
commonli,0.006342
commun,0.028297
compani,0.008040
compar,0.001882
compens,0.003217
compil,0.006568
complet,0.003516
complex,0.011176
complianc,0.004085
compound,0.045896
compoundingdispens,0.007285
comprehens,0.005608
compulsori,0.004026
computer,0.004669
concentr,0.002491
concept,0.003553
concern,0.005361
condit,0.001781
conduct,0.002181
confect,0.006759
confectioneri,0.006510
conflict,0.004742
conic,0.005003
consid,0.005938
consider,0.002139
consist,0.001703
consult,0.032336
consum,0.012674
contain,0.001826
contemporari,0.002490
continu,0.004627
contraind,0.006388
contribut,0.001868
control,0.010148
conveni,0.003399
copi,0.003069
copper,0.007070
correct,0.002563
correspond,0.002311
cosmet,0.009361
cost,0.013429
costcontain,0.007285
council,0.002321
counsel,0.012294
countri,0.011727
cours,0.002218
court,0.002414
cphath,0.007285
creat,0.001557
critic,0.003745
croatia,0.004564
cross,0.002778
cultur,0.001914
cuneiform,0.005263
current,0.004889
custom,0.010296
d,0.004121
da,0.003388
danger,0.002990
date,0.010638
deal,0.002050
decad,0.002314
decid,0.002481
decre,0.003656
decreas,0.002507
deepli,0.003594
defin,0.003494
degre,0.004169
deliveri,0.007358
demand,0.002272
depart,0.006696
depend,0.001679
deploy,0.003445
deriv,0.005807
describ,0.006267
design,0.011219
desir,0.002395
develop,0.006366
devic,0.002845
devot,0.003009
diagnost,0.008153
dichotomi,0.004580
did,0.001889
differ,0.012146
difficulti,0.002749
digit,0.002842
diocl,0.006555
dioscorid,0.005967
direct,0.003381
directli,0.004091
disciplin,0.021112
discoveri,0.004768
diseas,0.016000
dispens,0.062014
dispensari,0.018944
disposit,0.004335
distil,0.009119
distinct,0.003921
distinctthos,0.007285
divers,0.002448
divid,0.002018
divin,0.003386
doctor,0.021267
doctorpati,0.012368
doctorpractition,0.007285
doe,0.003445
domain,0.002486
domin,0.002094
door,0.003981
dose,0.009281
dozen,0.003560
drew,0.003508
drink,0.003775
drug,0.183157
drugrel,0.006651
drugstor,0.033257
du,0.003598
dubrovnik,0.006427
durabl,0.004288
durat,0.003625
dure,0.005861
duti,0.012117
dynasti,0.003310
earli,0.004598
earlier,0.002264
earliest,0.007685
eas,0.003528
east,0.002356
eastern,0.002543
eber,0.005395
ed,0.002145
educ,0.011715
edwin,0.004043
effect,0.008933
efficaci,0.008422
effici,0.002399
egyptian,0.003454
elderli,0.004292
elizabeth,0.003646
emerg,0.005893
empereur,0.006949
emperor,0.006760
employ,0.002033
enclav,0.004761
end,0.001675
enforc,0.002873
engin,0.002208
english,0.004269
englishspeak,0.004200
ensur,0.010072
enter,0.002240
entir,0.001988
entitl,0.003164
environ,0.002031
ephesu,0.010952
epidemiolog,0.004339
equip,0.005480
especi,0.003559
essenti,0.002130
establish,0.008178
estev,0.007022
estim,0.002156
estonia,0.004596
et,0.002634
ethic,0.002820
etymolog,0.003262
europ,0.006234
evalu,0.002655
evid,0.002090
evolv,0.002515
exam,0.013183
exampl,0.004118
execut,0.002321
exemplifi,0.003904
existshealth,0.007285
expand,0.004336
expect,0.004211
expens,0.002737
experi,0.001884
expert,0.006054
expertis,0.003738
explain,0.002063
expressli,0.004849
extend,0.004043
extens,0.002069
extent,0.002521
extern,0.001198
facil,0.005875
fact,0.005838
factor,0.001943
fall,0.002092
famou,0.002532
farmer,0.003244
fastest,0.004327
fda,0.010127
feasibl,0.003724
feder,0.012201
feel,0.002865
fellowship,0.004398
field,0.006695
fifti,0.003884
fip,0.013303
florenc,0.004411
focal,0.004596
focus,0.004267
follow,0.002622
food,0.004717
form,0.005011
formul,0.005249
foundat,0.002137
franc,0.002346
franciscan,0.005357
freder,0.004870
french,0.004411
frequenc,0.003132
fulfil,0.006628
fulltext,0.005596
function,0.005033
fund,0.002259
fundament,0.004197
futur,0.001996
gah,0.006651
gain,0.001993
gaper,0.007285
gener,0.008243
geriatr,0.011161
german,0.004629
germani,0.004935
given,0.004931
globe,0.003732
gmgmcg,0.007285
goal,0.004508
golden,0.006641
govern,0.004675
gphc,0.014571
gradual,0.002634
graduat,0.003071
great,0.007388
greec,0.003097
greek,0.016245
green,0.002818
greet,0.004821
groceri,0.010765
group,0.002956
grow,0.006304
grown,0.003156
ha,0.015299
hair,0.003902
hall,0.003109
han,0.003275
handl,0.002980
happen,0.002590
harm,0.003159
health,0.041127
healthcar,0.019301
healthrel,0.005680
hematologyoncolog,0.007102
hepat,0.005168
hepler,0.007285
herb,0.004723
herbal,0.020516
herbroot,0.007189
hi,0.002939
hierarchi,0.003339
high,0.008297
highest,0.005019
highli,0.004315
histor,0.001841
histori,0.013650
hivaid,0.005357
home,0.014041
homebound,0.006881
hospit,0.067870
hour,0.005760
hous,0.002198
household,0.003260
howev,0.007980
human,0.003158
hydrocodon,0.007189
hygieia,0.007285
ibn,0.010703
identifi,0.001981
ii,0.002144
illeg,0.003302
impact,0.006738
imper,0.004434
imperi,0.006385
impli,0.002547
import,0.004193
importantli,0.003755
improv,0.004033
includ,0.017065
inconveni,0.005274
increas,0.004728
increasingli,0.007248
independ,0.005049
india,0.005018
indian,0.005426
indic,0.006048
individu,0.006762
industri,0.005612
infecti,0.008780
influenc,0.001805
inform,0.011405
informat,0.014226
informaticist,0.007189
infus,0.004704
ingredi,0.008608
inhal,0.005072
inherit,0.003039
inhom,0.007022
initi,0.012465
inject,0.004046
inorgan,0.003831
insid,0.005497
instanc,0.006658
instead,0.001919
institut,0.006937
instruct,0.003085
insur,0.003159
intact,0.004200
integr,0.005933
interact,0.010224
interdisciplinari,0.006737
intern,0.007180
internet,0.029574
interoper,0.005421
intervent,0.002973
intraven,0.005504
introduct,0.002172
investig,0.002296
involv,0.003177
ireland,0.003425
irelandclick,0.007285
isaac,0.003547
islam,0.010913
israel,0.003356
issu,0.014069
itali,0.005898
item,0.006012
itsi,0.007285
japan,0.002710
japanes,0.003123
japon,0.006818
jing,0.005345
journal,0.004215
jurisdict,0.003326
kaf,0.007022
kdansha,0.007285
kept,0.002953
kindr,0.005773
kingdom,0.004359
kitab,0.005138
know,0.002483
knowledg,0.006183
known,0.006846
kusadasi,0.007189
lab,0.003580
landmark,0.003857
languag,0.002059
larg,0.005776
larger,0.002162
late,0.001897
latin,0.005150
law,0.004951
lead,0.001634
led,0.001768
legal,0.002261
legisl,0.007525
legitim,0.006806
letter,0.002704
level,0.003276
liber,0.002470
librari,0.005148
licens,0.009788
likewis,0.003245
limit,0.001673
link,0.003574
list,0.007617
literatur,0.004896
live,0.003543
lloyd,0.004225
llvia,0.007022
locat,0.004029
logo,0.004265
lollipop,0.014204
lower,0.004049
lowercost,0.006388
magazin,0.003172
mailord,0.006602
main,0.003469
major,0.004360
make,0.004179
manag,0.021584
mani,0.023528
manual,0.003460
manufactur,0.002612
manuscript,0.003717
maria,0.004049
mass,0.002246
materi,0.003839
materia,0.016887
mathemat,0.002153
mawangdui,0.006759
mean,0.001508
measur,0.001794
medic,0.136245
medica,0.016471
medicamenti,0.007022
medicin,0.060080
medicini,0.007022
medicss,0.007285
mediev,0.008766
medscheck,0.007285
meet,0.002216
meiji,0.005395
men,0.005081
merchandis,0.004698
mesu,0.006949
met,0.002801
metabol,0.003631
method,0.008484
mexico,0.003418
middl,0.004517
midwiferi,0.006042
militari,0.004432
millennium,0.006839
million,0.002151
miscellan,0.004761
mix,0.005270
mode,0.006168
modern,0.008216
molecul,0.002958
molecular,0.005727
monasteri,0.004162
monitor,0.008888
moreov,0.003143
mortar,0.010238
movement,0.001889
mtm,0.006555
muhammad,0.003935
multiplechoic,0.006510
museum,0.009911
muslim,0.003064
mythic,0.004564
nara,0.005920
nation,0.004554
nativ,0.002831
natur,0.002925
navig,0.003421
nd,0.002549
near,0.002252
need,0.008235
neonat,0.005564
netherland,0.006385
neurologyepilepsi,0.007285
new,0.011014
newli,0.002882
nih,0.010715
nipon,0.007285
noncompound,0.007102
noninstitut,0.006555
nonprescript,0.006510
north,0.004350
note,0.003159
novel,0.003032
novella,0.005448
nuclear,0.016796
number,0.001370
numer,0.002029
nurs,0.011959
nutrit,0.007871
nyokan,0.007285
o,0.002889
obtain,0.010647
occasion,0.003090
offer,0.004074
offic,0.008821
offici,0.002080
old,0.004533
oldest,0.002963
omnicar,0.007285
onc,0.002047
oncolog,0.005037
onduti,0.007285
onli,0.003783
onlin,0.004795
ontario,0.004504
open,0.007502
oper,0.006913
opposit,0.004508
optim,0.014529
optimis,0.005055
optimum,0.004549
oral,0.003540
order,0.004529
organ,0.005977
organis,0.002593
organiz,0.003589
orient,0.005709
origin,0.001518
ou,0.005448
outcom,0.011204
outdat,0.004863
outlin,0.005333
outsid,0.002090
outsourc,0.004698
overal,0.002507
overhear,0.006949
owner,0.006198
oxid,0.003635
paid,0.002793
pain,0.003470
pakistan,0.003745
papyri,0.005753
papyru,0.009108
parenter,0.006467
pari,0.002996
particip,0.004322
particular,0.008574
particularibu,0.007022
pass,0.004256
past,0.004346
patent,0.003656
patient,0.136822
patientcar,0.007285
patientdoctor,0.007285
patientspecif,0.006759
pattern,0.002337
pay,0.002557
payment,0.002953
pedaniu,0.006555
pediatr,0.004892
peopl,0.004531
percent,0.005503
perform,0.021186
perfum,0.005395
period,0.004883
person,0.003585
personnel,0.006772
perspect,0.002451
pestl,0.012307
peter,0.002498
pharm,0.007102
pharma,0.039062
pharmaboard,0.007285
pharmaceut,0.100773
pharmaci,0.795036
pharmacist,0.420603
pharmacistsand,0.007189
pharmacodynam,0.012935
pharmacogenom,0.006247
pharmacognosi,0.013407
pharmacoinformat,0.007285
pharmacokinet,0.019052
pharmacolog,0.038493
pharmacopoedia,0.007189
pharmacotherapi,0.013204
pharmacylik,0.007189
pharmacyresourc,0.007285
pharmakeia,0.007102
pharmako,0.007102
pharmakon,0.006949
pharmerica,0.007285
photo,0.004239
pht,0.006949
physic,0.003585
physician,0.044928
physiolog,0.009681
pioneer,0.005724
place,0.006197
plan,0.004149
plant,0.002378
play,0.001978
point,0.001589
poison,0.011488
polici,0.004054
popul,0.001949
posit,0.001623
possibl,0.001602
potassium,0.004356
potenti,0.006102
ppa,0.006350
practic,0.048745
practition,0.016486
precursor,0.003422
prefer,0.002405
preheian,0.007189
premis,0.007370
prepar,0.017835
prescrib,0.026855
prescript,0.099354
preserv,0.002647
prevent,0.002246
price,0.004651
primari,0.006221
primarili,0.008590
principl,0.001885
print,0.002950
prior,0.004745
privat,0.002252
problem,0.001680
process,0.004455
product,0.008187
profess,0.016415
profession,0.022911
project,0.001943
promot,0.004482
proper,0.002818
properli,0.006607
properti,0.007608
proprietor,0.005119
provid,0.018120
provinc,0.002904
provinci,0.003799
psa,0.006069
psychiatr,0.004447
psychiatri,0.008877
publish,0.001743
puigcerd,0.006949
purpos,0.002043
push,0.002987
qualiti,0.004681
question,0.001972
quickli,0.002557
radioact,0.007710
ran,0.003516
rang,0.003771
rank,0.005304
rare,0.002585
rate,0.003893
ratio,0.002833
rd,0.002813
reaction,0.002554
reader,0.003397
receiv,0.007614
recent,0.003450
receptor,0.004243
recip,0.010238
reciper,0.007285
recogn,0.002136
recommend,0.002937
reconcili,0.004169
record,0.006300
red,0.002761
reduc,0.003775
refer,0.005978
refresh,0.005680
regard,0.001911
regimen,0.010843
regist,0.012358
regul,0.009435
regular,0.005459
regulatori,0.003448
relat,0.008060
relationship,0.005705
reliabl,0.002979
remain,0.001647
remedi,0.011822
remuner,0.010398
report,0.003830
repres,0.006537
request,0.006056
requir,0.014116
research,0.006465
resid,0.007919
resourc,0.004034
respect,0.001894
respons,0.006912
restat,0.004780
restor,0.002817
result,0.002775
retail,0.021621
revers,0.002743
review,0.020092
rhaze,0.005753
rheumatoid,0.005833
right,0.003575
rinsiyohayashi,0.007285
risk,0.002451
riskbenefit,0.006555
role,0.015708
root,0.007550
round,0.003156
rout,0.002999
royal,0.002628
rx,0.005876
rzi,0.006510
sabur,0.006881
safe,0.003257
safeti,0.016057
sahl,0.005504
samhita,0.005698
santa,0.003948
say,0.002158
school,0.002027
scienc,0.028488
scientif,0.006015
scientist,0.006835
scope,0.002929
scotland,0.003745
scottish,0.003824
seal,0.003736
seawat,0.004827
sector,0.005224
seen,0.001954
select,0.002166
sell,0.014092
senior,0.006604
sens,0.002050
separ,0.018203
serv,0.001983
server,0.004711
servic,0.025236
servitori,0.007022
set,0.010804
seven,0.002614
sever,0.008673
shampoo,0.006510
share,0.001941
sharif,0.005490
shennong,0.013020
shift,0.002414
shop,0.007435
siegel,0.005734
sign,0.002283
significantli,0.002557
silic,0.004994
similar,0.004967
simpl,0.004406
simpli,0.006788
simplicibu,0.007022
sinc,0.004159
singl,0.001855
site,0.004671
siyunsai,0.007285
skill,0.002671
smallbusi,0.006881
smith,0.002937
snack,0.006215
societi,0.006949
soderlund,0.007285
sodium,0.004221
sold,0.002928
sole,0.002814
sometim,0.007220
sorceri,0.005876
sourc,0.001744
spain,0.002946
special,0.010405
specialis,0.012052
specialist,0.006881
specialti,0.063010
specif,0.011613
specifi,0.002819
spend,0.005756
squar,0.002937
st,0.004470
stabil,0.002586
stabl,0.002728
state,0.014559
stateregul,0.006388
statist,0.002274
statu,0.002315
stay,0.003035
steril,0.004711
stock,0.005350
stone,0.003096
storag,0.003299
store,0.011237
storefront,0.006467
storelik,0.007285
strand,0.003954
strategi,0.002583
strength,0.005624
structur,0.001620
student,0.002360
studi,0.019050
styliz,0.005476
subdivid,0.003799
subject,0.001764
sublim,0.004841
subspecialti,0.005148
substanc,0.014576
substandard,0.005920
substanti,0.002574
suck,0.005274
suitabl,0.003078
sumerian,0.004780
superior,0.003086
supermarket,0.005046
supervis,0.009946
supplement,0.003433
suppli,0.009042
supplier,0.003904
support,0.001648
surgeri,0.003909
sushruta,0.011469
swallow,0.004723
symbol,0.010069
synthesi,0.003095
synthet,0.003439
systemat,0.002649
t,0.002412
tablet,0.017682
taih,0.006881
taken,0.002030
tallinn,0.006042
target,0.002581
task,0.002572
team,0.002895
technician,0.066511
techniqu,0.002130
technolog,0.005997
templ,0.003665
term,0.005241
terminolog,0.003265
test,0.002266
text,0.009568
th,0.020670
themselv,0.002056
therapeut,0.004091
therapi,0.031787
therefor,0.001884
thi,0.017632
thing,0.002206
thorough,0.004159
thth,0.004629
time,0.007361
titl,0.004978
titsingh,0.007102
tkai,0.007102
tobacco,0.003907
today,0.001992
togeth,0.001912
tokyo,0.004394
topic,0.002200
total,0.001934
town,0.002847
toxic,0.003834
toxicolog,0.020714
toy,0.004539
tpn,0.007022
tradit,0.012223
train,0.023945
translat,0.007161
travel,0.002448
treat,0.002428
treatis,0.006690
treatment,0.005101
trend,0.005297
trier,0.005943
tripod,0.006427
true,0.002245
turkey,0.003616
turn,0.001917
type,0.003334
typic,0.007441
uk,0.012708
unabl,0.002881
unavail,0.004534
undergo,0.003215
understand,0.001882
undertak,0.003764
uniqu,0.004728
unit,0.012587
unitdos,0.007285
universalibu,0.006881
unlik,0.004618
unnecessari,0.004095
unwil,0.004821
use,0.021528
usual,0.005006
va,0.004821
valid,0.010591
valuabl,0.003255
varieti,0.008328
variou,0.009471
vendor,0.004748
veneri,0.006881
veri,0.001583
veterinari,0.023969
vicodin,0.007285
violat,0.003068
visit,0.005571
vitriol,0.006280
volum,0.004750
wa,0.018191
walk,0.003542
watkin,0.005943
way,0.001482
western,0.002085
wherea,0.002406
wish,0.003066
wonder,0.004017
word,0.009624
work,0.021750
world,0.005623
worldwid,0.005626
write,0.004336
written,0.002195
wrote,0.007087
year,0.006997
yield,0.002708
younger,0.003445
youth,0.003497
yr,0.005876
zakarya,0.006703
zealand,0.003297
