action,0.021371
activ,0.069420
aid,0.052185
alkaloid,0.128751
analyt,0.031709
analyz,0.029236
anim,0.024345
anthraquinon,0.088594
appli,0.018593
applic,0.020771
array,0.037953
assembl,0.027152
atom,0.030413
attack,0.028042
ayurved,0.061076
ayurveda,0.060911
bacteria,0.039929
benefit,0.025449
bind,0.036215
bioactiv,0.063084
biochromatographi,0.091499
biolog,0.074619
biosynthesi,0.055590
botan,0.153633
botani,0.047848
calcium,0.046164
case,0.035124
cell,0.060417
centr,0.028881
channel,0.034672
chemic,0.053491
chemistri,0.030786
chines,0.120772
chromatographi,0.115213
combin,0.040062
commonli,0.023329
compon,0.096774
compound,0.126623
consid,0.016384
constitu,0.032898
constructedcarbon,0.091499
control,0.037331
crude,0.044117
d,0.022743
dad,0.072857
deriv,0.021361
describ,0.017292
detector,0.249900
determin,0.019510
develop,0.042151
differ,0.044680
diod,0.058723
disciplin,0.025887
discoveri,0.026312
diseas,0.029429
drug,0.099405
eastern,0.028074
element,0.043023
elsd,0.091499
elucid,0.094148
especi,0.019640
etci,0.091499
ethnobotani,0.071846
evapor,0.047368
extract,0.065116
field,0.055413
flavonoid,0.080403
food,0.026030
function,0.018517
fundament,0.023161
fungi,0.043783
garden,0.121359
ha,0.024120
health,0.025214
herbal,0.169805
high,0.018313
hplc,0.146806
human,0.052275
hydrogen,0.037462
import,0.015425
includ,0.012555
index,0.028732
indic,0.022249
insect,0.041096
institut,0.038277
ion,0.039220
isol,0.029364
larg,0.015936
lcm,0.070927
led,0.019515
life,0.019437
light,0.024928
liquid,0.032411
list,0.033626
literatur,0.027015
mainli,0.025100
major,0.016040
mani,0.027332
mass,0.024795
mechan,0.022327
medicin,0.259442
medicineindian,0.091499
membran,0.085630
metabol,0.040073
method,0.056176
modern,0.018135
mplc,0.091499
msd,0.158679
natur,0.016141
new,0.027010
nmr,0.054760
number,0.015125
oil,0.030177
onli,0.027835
oxygen,0.036812
perform,0.021254
pharmacognosi,0.073980
pharmacolog,0.047199
phosphoru,0.049815
physiolog,0.035612
phytochem,0.321877
phytochemistri,0.392029
phytosterol,0.086340
plant,0.262495
polyphenol,0.071846
potenti,0.022446
primarili,0.023698
product,0.018069
protect,0.023107
qualiti,0.051663
rapid,0.030046
reason,0.019734
receptor,0.046829
red,0.030477
refer,0.010995
refract,0.050259
reproduc,0.037303
research,0.053514
rid,0.053052
saponin,0.168998
scatter,0.040604
screen,0.081209
secondari,0.031311
similar,0.018273
simpl,0.024314
spectrometr,0.071376
step,0.025948
strive,0.043873
structur,0.035758
studi,0.080860
subfield,0.039393
substanc,0.032172
synthes,0.039767
techniqu,0.117582
themselv,0.022698
therapeut,0.045157
therefor,0.020799
thi,0.011445
tradit,0.019269
tropic,0.039050
type,0.018398
ubc,0.072339
use,0.037511
variou,0.034841
volatil,0.040714
way,0.016362
wide,0.039418
wild,0.039258
