achiev,0.006684
acid,0.032118
acidiron,0.027954
action,0.006529
actual,0.006800
adolf,0.014659
adriaan,0.020953
air,0.073464
aircraft,0.011801
airship,0.087225
akira,0.019598
alga,0.029402
allischalm,0.101359
altern,0.006827
amedeo,0.020849
anabaena,0.027954
anastasio,0.021537
anthoni,0.012548
antoin,0.029155
applic,0.012692
arn,0.018609
arthur,0.010839
atlant,0.011260
atmospher,0.010409
attempt,0.006061
august,0.016149
automobil,0.013312
autonom,0.010744
avogadro,0.037957
axl,0.021949
b,0.007038
bacon,0.028491
balloon,0.115644
baptista,0.022258
bar,0.012011
barrag,0.021062
base,0.004630
basf,0.023429
batteri,0.028788
beardmor,0.026378
becam,0.011713
bed,0.013838
benot,0.018659
besieg,0.015842
black,0.008647
blanchard,0.018609
blowpip,0.054133
bockri,0.055908
bohr,0.015842
boil,0.014331
bonhoeff,0.022788
bori,0.016030
born,0.009051
bort,0.021949
bourdon,0.052756
boyl,0.047773
britain,0.009026
brown,0.021743
build,0.020340
built,0.039937
c,0.012263
calorimet,0.019530
car,0.022678
carl,0.010713
carlisl,0.020650
carri,0.006917
cart,0.016868
catalyt,0.016470
categor,0.010908
caus,0.005727
cavendish,0.017292
cecil,0.016757
cell,0.184582
centrifug,0.016840
centuri,0.027552
chain,0.009587
charl,0.016437
charless,0.021062
charlir,0.027954
christian,0.008316
cl,0.016702
clapeyron,0.022601
clark,0.012425
classic,0.007090
coal,0.012513
coin,0.017773
collect,0.012520
combin,0.006119
combust,0.088980
come,0.006138
commerci,0.032889
commiss,0.008544
compon,0.007391
compress,0.013250
compressor,0.062547
concept,0.005989
condit,0.006005
confirm,0.009253
constantin,0.015533
constitut,0.006776
convert,0.008749
cool,0.012023
cosmic,0.013130
count,0.019577
critic,0.012626
cross,0.009367
cubic,0.014815
cylind,0.015966
cyril,0.017134
d,0.006948
daedalu,0.021290
daniel,0.021351
davi,0.012445
day,0.006476
dayton,0.019738
dberein,0.049128
dd,0.017746
decompos,0.013913
decomposit,0.014012
deepc,0.027954
defens,0.009420
deiman,0.027954
demonstr,0.038574
deni,0.009949
dephlogist,0.023429
deposit,0.010161
depriv,0.013785
describ,0.010565
descript,0.015691
design,0.006304
destroy,0.008975
determin,0.005960
deuterium,0.019211
develop,0.012877
devic,0.009592
devis,0.023549
dewar,0.063523
differ,0.004550
dilut,0.014964
dirig,0.023676
discov,0.037793
discoveri,0.008038
distanc,0.009139
doubl,0.009502
drift,0.013233
drive,0.009221
drummond,0.040079
duplic,0.014080
dure,0.004940
economi,0.007057
eduardovich,0.027954
edward,0.009400
effect,0.005020
electr,0.017088
electrod,0.015703
electrodynam,0.015515
electrolysi,0.077855
electrolyt,0.032990
electron,0.008647
electrostat,0.015821
electrovan,0.027954
elimin,0.008936
ellm,0.027954
employ,0.006854
ene,0.020555
energi,0.014468
engin,0.126599
envis,0.014115
erren,0.111817
erwin,0.015607
etienn,0.020555
eugen,0.025266
exist,0.005138
experi,0.019063
experiment,0.017262
explain,0.006956
explor,0.007873
explos,0.022909
facilit,0.009316
factiti,0.024239
falkenhagen,0.027954
faraday,0.047226
farm,0.010310
fat,0.014150
felic,0.022100
ferdinand,0.027936
flame,0.015337
flask,0.020555
fli,0.023068
flight,0.079244
florenti,0.025339
follow,0.004420
fontana,0.018710
forklift,0.023676
formula,0.019298
forster,0.019463
franc,0.007910
franci,0.010581
franoi,0.013663
freder,0.016421
free,0.006311
friedrich,0.033905
fritz,0.014904
fuel,0.235516
fuell,0.017493
fujishima,0.026378
fusion,0.012879
futur,0.006730
ga,0.176633
gaffron,0.027954
gase,0.024639
gaseou,0.015533
gaug,0.013663
gave,0.008040
gaylussac,0.020463
gazaa,0.027954
gb,0.038071
gemini,0.021537
gene,0.010721
gener,0.011911
germani,0.008320
gk,0.020202
goldsworthi,0.047353
golf,0.017425
great,0.018683
grid,0.013990
grove,0.048091
grubb,0.022601
grubbniedrach,0.027954
gurney,0.042823
ha,0.003684
haber,0.037022
haldan,0.017228
han,0.011042
harteck,0.025815
hb,0.019093
heat,0.029230
heinkel,0.025339
helmont,0.020286
henri,0.008906
hi,0.014863
high,0.005595
hill,0.010991
hindenburg,0.021290
hinshelwood,0.024927
hippomobil,0.027954
hirth,0.027954
histori,0.004602
hma,0.021537
hmb,0.027954
hofmann,0.039334
hondafujishima,0.027954
hour,0.009709
humphri,0.017599
hundr,0.008395
huntington,0.016729
hybrid,0.011544
hydrail,0.027954
hydrid,0.017900
hydro,0.016868
hydrochlor,0.018659
hydrocrack,0.026378
hydrodesulfur,0.026378
hydrogen,0.663814
hydrogenair,0.027954
hydrogencool,0.027066
hydrogenfil,0.024239
hydrolysi,0.017425
hydrox,0.027954
ice,0.012052
ideal,0.008990
igor,0.017292
illinoi,0.013525
impos,0.009502
improv,0.006799
inflamm,0.034146
instal,0.010904
institut,0.005847
instrument,0.008508
interconnect,0.013358
intern,0.029052
introduc,0.006481
invent,0.062936
ionexchang,0.024927
ionic,0.015286
iron,0.019792
ironsteam,0.027954
isaac,0.011959
isbergu,0.027954
isbn,0.006532
island,0.008189
isol,0.017942
issu,0.005929
iv,0.011994
ivi,0.019151
j,0.013878
jackson,0.014294
jacqu,0.012818
jame,0.015586
jan,0.012143
japanes,0.010530
jar,0.016896
jeanfranoi,0.019035
jeanpierr,0.017103
jet,0.040548
johann,0.035471
john,0.018854
joinvillelepont,0.027954
jone,0.012268
joseph,0.018210
jule,0.016118
jw,0.019035
k,0.025131
karl,0.010392
km,0.020798
known,0.004616
konstantin,0.018868
kreb,0.018923
kw,0.038797
la,0.018443
lamb,0.033299
lamp,0.015570
lane,0.014127
langer,0.018923
laplac,0.015862
latent,0.015478
launch,0.018607
lavoisi,0.048027
law,0.055651
lawrenc,0.012358
lemeri,0.024927
leningrad,0.019961
lenoir,0.024564
leon,0.013744
leonard,0.014233
letter,0.009119
leuna,0.052756
level,0.005524
leyden,0.020748
lieuten,0.014743
light,0.007615
lighter,0.028995
limelight,0.021669
lindefrankcaro,0.027954
linear,0.009829
liquefi,0.018978
liquid,0.069315
list,0.005136
lockhe,0.020119
locomot,0.015703
london,0.007778
long,0.005997
low,0.007079
lowtemperatur,0.019335
ludwig,0.012684
lz,0.111293
machin,0.017838
machineri,0.011391
magazin,0.010694
main,0.005847
manomet,0.023945
march,0.007660
maser,0.020953
mass,0.007575
mayern,0.027954
mchp,0.027954
mean,0.005087
measur,0.012100
mechan,0.006821
megawatt,0.019398
meli,0.025339
membran,0.026160
metal,0.028842
meter,0.012431
methanol,0.019463
meusnier,0.027954
michael,0.017001
micro,0.015121
microalga,0.023945
mike,0.015337
mile,0.010737
mirai,0.026378
mixtur,0.023098
model,0.005753
modifi,0.009013
mond,0.037022
motor,0.023826
mysteri,0.012192
natur,0.004931
new,0.008251
nicholson,0.018868
nickel,0.014815
nicola,0.013838
niedrach,0.027954
niel,0.015762
nobil,0.014407
nonrefriger,0.027954
norg,0.024564
norman,0.013014
normann,0.027954
north,0.007334
nuclear,0.009438
observ,0.006096
obtain,0.007179
ohio,0.029838
oneman,0.021290
onlin,0.008084
oper,0.005827
orbit,0.011715
ostwald,0.019811
oxid,0.012255
oxygen,0.101218
oxyhydrogen,0.027954
p,0.007051
paet,0.025815
papin,0.022100
parahydrogen,0.025815
pari,0.010100
parr,0.022425
partial,0.008497
pass,0.014351
passeng,0.027488
patent,0.036978
paul,0.024087
pauli,0.016649
peter,0.008422
phenomenon,0.009513
philosoph,0.008107
photocatalysi,0.027954
photoelectrochem,0.023429
pierr,0.011890
pile,0.016300
pilot,0.013683
piltr,0.025815
pinch,0.018659
pipelin,0.030210
piston,0.018105
place,0.005223
plant,0.016039
platform,0.011311
platinum,0.016623
point,0.005358
pole,0.012795
polystyren,0.020748
post,0.008964
power,0.048784
practic,0.005667
pratt,0.018369
predict,0.007750
present,0.005296
pressur,0.023919
priestley,0.017493
primari,0.006991
principl,0.006358
process,0.025036
produc,0.044089
product,0.016561
project,0.019661
propel,0.029689
propos,0.006535
provid,0.004699
psi,0.016118
publish,0.029395
pure,0.008375
quantiz,0.015703
quantum,0.021366
quebec,0.015551
r,0.007087
react,0.023473
reaction,0.051682
rearrang,0.014394
redhot,0.023945
refer,0.003359
reform,0.016434
regen,0.019151
relat,0.022646
releas,0.008395
renard,0.022601
research,0.005449
retherford,0.024239
rhineruhr,0.026378
ritter,0.018710
rivaz,0.051630
rl,0.019811
robert,0.036930
rocket,0.085620
role,0.005884
royal,0.008863
rozier,0.024927
rozir,0.027954
rubber,0.014577
rudolf,0.027613
rudolph,0.018147
run,0.007382
russian,0.009834
rydberg,0.043338
s,0.014293
sabati,0.044850
safeti,0.010827
samuel,0.011941
schedul,0.011165
schnbein,0.021669
schrdinger,0.014979
scienc,0.005649
semitrail,0.027954
separ,0.006137
serv,0.006686
servic,0.006545
set,0.005203
shelishch,0.027954
shift,0.032563
shooter,0.020039
shuttl,0.016348
sikorski,0.046401
slush,0.023429
small,0.011441
solarhydrogen,0.027954
solarpow,0.022601
solarwasserstoffbayern,0.027954
sold,0.009872
solid,0.010047
space,0.014415
specif,0.005593
spectrum,0.022111
st,0.007536
state,0.004090
station,0.010213
steam,0.013924
steer,0.015442
stimulu,0.013693
storag,0.022250
stroke,0.014934
submarin,0.028254
success,0.006199
sulfur,0.027488
sulphon,0.026378
sulphur,0.018063
suntan,0.025339
superfluid,0.018868
surplu,0.012300
switch,0.022958
synga,0.027954
synthesi,0.010437
synthet,0.011595
tank,0.012950
technolog,0.013481
teisserenc,0.022988
temperatur,0.028353
term,0.004417
test,0.045857
th,0.021443
thaddeu,0.021537
theodolit,0.021949
thi,0.006993
thoma,0.033451
time,0.012409
timelin,0.044017
toenni,0.027954
touch,0.012339
toyota,0.018923
tractor,0.018416
transport,0.008014
tri,0.007358
troostwijk,0.027954
tsiolkovskii,0.027954
turbogener,0.027066
turquet,0.027954
type,0.016862
u,0.010908
umberto,0.020039
underground,0.012958
underwat,0.030146
univers,0.009684
use,0.061121
vacuum,0.012198
valdor,0.026378
valv,0.015987
van,0.020453
vandev,0.026378
vapor,0.014604
variou,0.005322
vehicl,0.021230
vern,0.019885
vessel,0.011382
voltaic,0.038303
voltamet,0.027954
volum,0.016016
von,0.028446
vulcain,0.026378
w,0.023533
wa,0.015333
water,0.072116
watt,0.014934
way,0.004998
weather,0.022929
weld,0.017425
went,0.008575
whitney,0.017391
wigner,0.017822
wilhelm,0.047076
willi,0.015683
william,0.022474
windi,0.020650
wolfgang,0.028395
word,0.006489
work,0.004583
world,0.004739
wrblewski,0.027066
wrote,0.007965
zeppelin,0.205100
zetterstrm,0.027954
zinc,0.014729
zygmunt,0.021290
