absenc,0.019374
acetylen,0.042715
acryl,0.040406
activ,0.010515
addit,0.021323
adjac,0.024120
aid,0.015809
alcohol,0.048387
alken,0.037529
alkenyl,0.053680
allyl,0.179301
allylichomoallyl,0.055440
ani,0.018575
ascertain,0.030350
atom,0.036855
attack,0.016991
becaus,0.009565
benzen,0.037421
benzyl,0.043247
bond,0.072599
carbon,0.062228
catalyst,0.027790
characterist,0.014669
chch,0.044825
chemist,0.024459
chemistri,0.018653
chlorid,0.030283
coin,0.017625
commonli,0.014135
compound,0.038361
conjug,0.029212
contain,0.024423
coupl,0.039395
crosslink,0.037421
deriv,0.025886
differ,0.009024
divinyl,0.055440
doubl,0.018846
electronwithdraw,0.047489
end,0.011205
ethen,0.050255
ethenyl,0.055440
ethyl,0.038733
ethylen,0.037107
etymolog,0.043632
exampl,0.018356
exist,0.010191
final,0.013255
follow,0.008766
form,0.008376
function,0.022439
german,0.015476
grignard,0.042715
group,0.098853
hcch,0.050255
hermann,0.026787
hydrogen,0.022698
import,0.018693
increas,0.010538
industri,0.012508
initi,0.011907
iupac,0.031260
join,0.016300
known,0.009156
kolb,0.039437
latin,0.017220
lithium,0.031922
manner,0.017680
michael,0.016859
minu,0.027077
molecul,0.019781
monom,0.139618
negishi,0.052314
observ,0.012090
occur,0.011639
onc,0.013688
organomagnesium,0.052314
organometal,0.034043
origin,0.010152
particip,0.014451
perform,0.012878
plastic,0.049258
polar,0.022442
polym,0.137647
polymer,0.065630
posit,0.010856
precursor,0.045770
product,0.010948
propargylichomopropargyl,0.055440
pvc,0.040766
r,0.014057
radic,0.019257
rchch,0.051198
reaction,0.034166
reactiv,0.050196
reagent,0.033398
rearrang,0.028548
reduc,0.012621
refer,0.013324
relat,0.008982
relationship,0.012717
rise,0.013406
satur,0.030216
sens,0.013708
singl,0.024817
skeleton,0.028349
sometim,0.012070
sphybrid,0.050255
styren,0.088289
substitut,0.020603
tabl,0.017844
term,0.026284
toxic,0.025637
turn,0.012818
unreact,0.041994
use,0.007576
vinum,0.053680
vinyl,0.881881
vinylen,0.055440
vinyliden,0.053680
vinylog,0.107360
wa,0.007602
wine,0.026091
