abov,0.017456
accentu,0.047880
alexand,0.026124
algernon,0.055603
allow,0.027119
alon,0.023317
alreadi,0.019864
anapaest,0.662430
anapest,0.184331
anapst,0.071731
anpaisto,0.071731
antidactylu,0.071731
apart,0.024987
assyrian,0.042723
atalanta,0.063965
away,0.020770
becaus,0.012376
befor,0.014041
blue,0.029305
book,0.015625
broke,0.028194
byron,0.045833
calydon,0.071731
came,0.018003
carrol,0.041708
cat,0.034932
centuri,0.014140
characterist,0.018980
charl,0.021089
chorus,0.059534
christma,0.038801
clark,0.031883
classic,0.018193
clement,0.039535
cohort,0.044889
come,0.031500
comic,0.077036
common,0.013316
complex,0.032231
compos,0.020894
consist,0.029481
context,0.019374
cover,0.018132
cowper,0.055603
dactyl,0.115088
deal,0.017742
deep,0.024519
desir,0.020728
destruct,0.026066
distanc,0.023453
dolor,0.056323
dr,0.027325
edward,0.024121
eliot,0.044713
end,0.014497
english,0.018467
exampl,0.059377
face,0.019902
fact,0.016835
feet,0.097142
finish,0.030512
fled,0.064185
foam,0.047880
foampal,0.071731
fold,0.033802
follow,0.045369
foot,0.092420
formal,0.017742
freer,0.050289
frequenc,0.027096
galile,0.048845
glanc,0.047377
gleam,0.062198
gold,0.024656
great,0.015980
greek,0.020078
hexamet,0.057544
hi,0.012713
high,0.014357
hous,0.019020
hunt,0.028615
iamb,0.122887
iambic,0.170130
immort,0.075091
independ,0.014563
innumer,0.045538
intern,0.012424
interspers,0.047751
journey,0.032950
latethcenturi,0.057996
lear,0.054045
length,0.023518
lewi,0.029753
like,0.025322
limerick,0.054632
line,0.067861
linelength,0.067686
liter,0.027258
long,0.061563
lyric,0.042723
make,0.012053
manner,0.022875
march,0.019655
meter,0.063801
metr,0.033715
metric,0.031832
milki,0.042457
mixtur,0.029635
moor,0.031987
nichola,0.031883
night,0.029073
nightli,0.055603
nonsens,0.040862
number,0.011857
ode,0.045347
oisin,0.069453
particularli,0.016622
pentamet,0.059534
play,0.017113
poem,0.139931
poetic,0.038129
poetri,0.099209
practic,0.014541
produc,0.014141
purpl,0.041768
quantit,0.025251
rare,0.022367
refer,0.008619
revers,0.047462
rhyme,0.045538
role,0.030200
roll,0.064327
round,0.027306
s,0.012225
saddlegirth,0.071731
saw,0.021094
scansion,0.063965
sea,0.021993
seen,0.016913
selkirk,0.069453
sennacherib,0.057116
seuss,0.061443
sever,0.012506
shakespear,0.042392
sheen,0.061443
short,0.018379
sigh,0.057116
sinc,0.011996
sixfoot,0.065022
smoke,0.035646
snark,0.065022
sometim,0.015616
spear,0.042860
spell,0.033109
st,0.019338
star,0.026604
stori,0.024317
straight,0.033272
stress,0.073802
strict,0.027876
strong,0.017431
struck,0.034115
substitut,0.026657
suppos,0.026360
swinburn,0.106999
syllabl,0.184144
t,0.020872
tetramet,0.180363
th,0.013755
thi,0.026919
tide,0.037303
time,0.010614
trimet,0.126065
triumph,0.037337
twa,0.055603
underneath,0.044126
unstress,0.054045
use,0.029407
vari,0.017685
veri,0.027400
vers,0.211925
version,0.020984
visit,0.024102
wa,0.009836
wander,0.080391
wave,0.024193
william,0.019223
wolf,0.036743
word,0.016652
written,0.018993
wrote,0.020439
yeatss,0.069453
