abaca,0.011973
abbrevi,0.006393
abov,0.003360
absenc,0.004825
abstract,0.018475
academ,0.003931
access,0.007263
accomplish,0.005275
accord,0.007874
account,0.012366
accur,0.004472
acid,0.010577
acidfre,0.013030
act,0.003000
activ,0.002619
ad,0.016749
addit,0.010622
address,0.007905
adher,0.010619
adopt,0.007244
adth,0.012313
advanc,0.006483
advantag,0.004074
advent,0.011480
afford,0.022547
age,0.023010
ago,0.005086
air,0.004032
album,0.025674
alexandria,0.007155
aliv,0.006558
alkalin,0.008291
allegor,0.008804
allow,0.005220
almanac,0.009750
alon,0.004488
aloud,0.009403
alphabet,0.006320
altern,0.006745
amazon,0.007509
analysi,0.003164
ancient,0.022818
andor,0.004593
andrew,0.005330
ani,0.018506
anim,0.003674
anoth,0.007573
ansiniso,0.013030
antiqu,0.016295
apophoreta,0.013808
appeal,0.004888
appear,0.015201
appli,0.002806
appoint,0.004314
approxim,0.010731
arab,0.004848
arcan,0.010459
archiv,0.004831
area,0.013035
argenteu,0.013030
argu,0.003491
arrang,0.004279
arriv,0.008450
art,0.016062
articl,0.003119
artifact,0.006219
artifici,0.004432
artist,0.016526
asia,0.009013
asid,0.011973
assembl,0.004097
assign,0.004714
associ,0.002564
assum,0.003636
assur,0.005980
atla,0.012308
attempt,0.002994
author,0.038420
authorship,0.008433
avail,0.025669
avid,0.009192
avignon,0.010153
avoid,0.003920
awkward,0.009268
background,0.004508
baghdad,0.007290
barcod,0.019229
bark,0.016296
barn,0.007856
base,0.006861
basi,0.003269
basic,0.009552
bc,0.023413
bear,0.004912
becam,0.017358
becaus,0.016677
becom,0.002533
beech,0.031917
befor,0.016218
began,0.009481
begin,0.009258
belong,0.004472
benedict,0.024298
better,0.003569
bi,0.007422
bias,0.006558
bibliograph,0.017804
biblion,0.013030
bibliophil,0.012134
biblo,0.013808
bind,0.076517
binder,0.019295
binderi,0.040110
biographi,0.006105
biolog,0.003753
bk,0.009217
black,0.008542
blank,0.054709
bliss,0.008729
block,0.028289
blockbook,0.013808
blue,0.005641
blunt,0.008902
board,0.009132
bodi,0.009528
book,0.661779
bookbind,0.023947
bookend,0.012134
bookkeep,0.008676
bookland,0.011573
booklength,0.010249
booklet,0.009750
booklik,0.013808
bookmak,0.011355
booksel,0.018806
bookshelf,0.010576
bookshop,0.010459
bookstor,0.027882
bookworm,0.013808
born,0.004471
borrow,0.010505
boston,0.005835
bought,0.006047
bound,0.042622
boustrophedon,0.011695
branch,0.003365
british,0.003533
broad,0.004251
bronz,0.006370
brought,0.007802
brown,0.005370
brownish,0.011077
bubbl,0.006634
built,0.003945
bukvalett,0.013808
bukvar,0.027617
bulgarian,0.008099
bulki,0.009582
bundl,0.007037
burma,0.007866
bushel,0.010404
busi,0.003567
buy,0.005006
buyer,0.006316
byblo,0.010704
ca,0.069860
calcul,0.004038
calendarappoint,0.013808
calfskin,0.025034
calip,0.010917
calligraph,0.010517
calligraphi,0.009822
card,0.006022
cardboard,0.009520
care,0.003982
carnegi,0.007655
carri,0.023920
carv,0.014050
case,0.005300
casebound,0.013808
casemak,0.027617
cassiodoru,0.011695
cast,0.005384
casual,0.008029
catalogu,0.028911
categor,0.005388
catenati,0.013808
cater,0.007776
cdrom,0.019958
ceas,0.005354
censorship,0.007728
center,0.003380
centuri,0.084383
certain,0.008704
certifi,0.006916
ch,0.006764
chain,0.014207
chang,0.009559
chapter,0.009881
charact,0.008760
characterist,0.003653
cheap,0.013135
cheaper,0.013650
cheapli,0.008641
check,0.021982
checkread,0.013808
chemic,0.004036
children,0.013079
china,0.008145
chines,0.018226
christian,0.012324
church,0.004789
circa,0.007123
circul,0.011093
cite,0.008867
citi,0.014643
civil,0.003636
clamp,0.008747
clasp,0.010771
class,0.007032
classic,0.003502
classif,0.060808
clay,0.020307
clc,0.011077
clean,0.006205
clergi,0.014442
climat,0.009052
cloth,0.011084
clothbas,0.013030
club,0.006147
clxxxiv,0.013808
cm,0.086675
coat,0.018840
code,0.016408
codex,0.129881
cognat,0.017149
coher,0.005843
coil,0.008186
collat,0.009347
collect,0.040201
collector,0.007518
colloqui,0.007377
colon,0.005624
color,0.021124
combin,0.003023
come,0.012128
comic,0.014830
commentari,0.012223
commerci,0.004061
common,0.030762
commonli,0.021124
commonplac,0.007567
commun,0.005544
compact,0.012509
compani,0.006695
compar,0.006271
complet,0.014640
compon,0.003651
compos,0.004022
comput,0.014052
computer,0.007776
conceal,0.007567
concern,0.002976
concis,0.006457
condit,0.005933
congreg,0.007664
congress,0.009500
conjectur,0.006695
consequ,0.003605
conserv,0.004208
consid,0.004945
consider,0.003563
constantin,0.007673
constantinopl,0.007333
contact,0.008897
contain,0.012166
content,0.033468
context,0.003729
continu,0.005137
continua,0.010350
contract,0.008506
contrast,0.003581
contribut,0.006223
contributor,0.006202
control,0.008450
controversi,0.004178
convent,0.004105
convert,0.004321
cookbook,0.010639
copi,0.092005
copier,0.012517
coptic,0.009403
copyist,0.031730
copyright,0.007493
correct,0.012808
corrector,0.011828
correspond,0.003848
cost,0.007455
counteract,0.008148
countri,0.008370
cours,0.003695
cover,0.055851
crack,0.007055
creat,0.015560
creation,0.003859
creator,0.006354
critic,0.003118
crossword,0.011828
crown,0.005491
crucial,0.005161
cultur,0.022315
cuneiform,0.008766
current,0.002714
custom,0.008574
cut,0.004501
d,0.003432
daili,0.014876
damag,0.009151
dampen,0.008607
data,0.020302
databas,0.009920
date,0.010630
ddc,0.013030
deacidif,0.012313
dealt,0.012709
decay,0.005829
decid,0.004131
decim,0.021220
declar,0.004095
declin,0.012076
decor,0.013767
dedic,0.005092
defin,0.002909
deliv,0.004997
demand,0.007570
denot,0.005173
depart,0.003717
depend,0.005595
deriv,0.006447
describ,0.002609
descript,0.003875
design,0.028027
desk,0.008433
destroy,0.008867
determin,0.002944
detriment,0.006966
develop,0.016963
devic,0.018954
devis,0.005816
devot,0.005011
dewey,0.015732
diagram,0.005832
diamond,0.006437
diari,0.007929
dictionari,0.005140
did,0.009442
die,0.004062
differ,0.022476
difficult,0.003697
digit,0.056814
direct,0.002815
disast,0.011714
discard,0.007091
discuss,0.003459
display,0.004818
distanc,0.004514
distinct,0.003265
distinguish,0.007528
distribut,0.003498
divid,0.006724
divis,0.003674
document,0.004093
domain,0.008281
domin,0.013955
donat,0.012701
doubl,0.004694
dozen,0.011861
dri,0.016659
drill,0.007025
drive,0.004555
drugstor,0.011077
duodecimo,0.013808
durabl,0.014284
dure,0.009762
dust,0.006921
dvd,0.008433
dynasti,0.016539
ean,0.010995
earli,0.017871
earlier,0.003771
earliest,0.008533
earthenwar,0.011077
easi,0.005184
easier,0.016396
easili,0.021865
east,0.011773
ebook,0.095828
econom,0.002793
edg,0.022276
edit,0.011985
editor,0.021735
educ,0.006503
effect,0.002479
effici,0.003996
effort,0.014140
egypt,0.016171
egyptian,0.005753
electron,0.025628
elementari,0.005758
eleph,0.014122
emerg,0.009814
empir,0.010685
enabl,0.004048
encyclopedia,0.004396
end,0.016745
engin,0.003678
english,0.007110
englishspeak,0.006995
entertain,0.018829
entir,0.009932
entri,0.004937
epigraphi,0.011077
equip,0.004563
eread,0.025504
especi,0.002964
essay,0.004946
establish,0.008172
estim,0.007184
ethnic,0.005037
etymolog,0.016301
etymologia,0.013030
europ,0.020767
european,0.006358
evalu,0.004422
event,0.003321
eventu,0.003628
everi,0.009582
everincreas,0.008624
evid,0.003480
exactli,0.005000
exam,0.007318
exampl,0.016002
excerpt,0.007055
excess,0.004933
exclus,0.004360
exercis,0.004385
exist,0.002538
expens,0.022794
experi,0.003138
explain,0.003436
explan,0.004493
explos,0.011316
export,0.004682
express,0.003307
extant,0.006754
extend,0.003366
exterior,0.007542
extern,0.001995
extrem,0.003661
face,0.003831
facilit,0.004601
fact,0.003240
factori,0.005585
fall,0.006968
familiar,0.005400
famou,0.004216
farmer,0.005402
fasten,0.009614
fear,0.004789
feat,0.008346
featur,0.006904
fed,0.006830
feder,0.004064
fewer,0.005413
fiction,0.038110
field,0.002787
fifth,0.005435
fiftieth,0.010350
final,0.006603
financi,0.003644
fine,0.016371
finish,0.017621
fit,0.004647
flatb,0.012752
flatten,0.016449
flexibl,0.005651
flip,0.008173
flow,0.004019
fluctuat,0.005700
foil,0.008389
fold,0.078086
folio,0.043668
follow,0.002183
forbidden,0.006749
forgotten,0.007207
form,0.029209
format,0.026060
forward,0.004845
fragil,0.007318
frame,0.005216
freedom,0.004308
fulli,0.004115
function,0.002794
fund,0.003763
fundament,0.003495
gain,0.006641
galaxi,0.006794
gall,0.008902
galley,0.020216
gash,0.011573
gather,0.009516
gave,0.003971
gener,0.015690
generalinterest,0.012517
genr,0.012890
german,0.003854
giga,0.010299
given,0.005475
global,0.007249
glossari,0.006653
glossi,0.010995
glu,0.027804
goatskin,0.011695
god,0.004777
goe,0.004912
gold,0.009492
golden,0.005530
good,0.006069
googl,0.006563
govern,0.002595
grade,0.006366
gradual,0.013163
grain,0.005930
graphic,0.011742
great,0.003076
greatli,0.004469
greec,0.015478
greek,0.011595
group,0.004924
grown,0.005256
growth,0.003454
guild,0.007559
gum,0.008882
gutenberg,0.036556
ha,0.020020
half,0.003757
hammerlik,0.013808
han,0.005454
hand,0.013528
handbook,0.005524
handcarv,0.012517
handheld,0.009294
handl,0.004963
happen,0.008627
hardback,0.020498
hardcov,0.026646
harvardyench,0.012517
heavi,0.004717
hebrew,0.006851
held,0.016135
hellenist,0.013877
help,0.008964
henc,0.004258
hendel,0.013808
herodotu,0.007908
hi,0.019579
high,0.002763
higher,0.003244
highli,0.007186
hing,0.008160
histor,0.006132
histori,0.011367
hobbyist,0.010200
hold,0.003287
holder,0.012411
hole,0.006212
home,0.007795
homework,0.009979
hour,0.014389
hous,0.003661
housekeep,0.009715
howev,0.011076
howto,0.011973
huge,0.005076
humid,0.007269
hundr,0.012441
hvac,0.011355
hymn,0.008064
hymnal,0.012517
idea,0.006127
identif,0.005376
ifla,0.011828
illumin,0.012826
illustr,0.027929
imag,0.012608
impact,0.003740
implement,0.003800
import,0.004655
imposs,0.009230
impress,0.016714
improv,0.013435
inch,0.014709
includ,0.026527
incorpor,0.003748
increas,0.013123
increasingli,0.004023
incun,0.012752
incunabula,0.024268
incur,0.006545
independ,0.002803
indepth,0.007918
index,0.008672
indic,0.006715
individu,0.005630
indoeuropean,0.008375
industri,0.021808
industrialis,0.007719
infinit,0.005344
influenc,0.003006
inform,0.046131
ink,0.032446
innov,0.004727
inpart,0.013808
inscript,0.014739
insid,0.022889
instanc,0.003696
instead,0.006394
institut,0.011553
instruct,0.005138
instrument,0.004202
intellectu,0.004682
intend,0.012676
intern,0.009567
internet,0.013433
interv,0.005750
introduc,0.006403
introduct,0.003618
invent,0.022206
inventor,0.006754
involv,0.007938
irish,0.006473
iron,0.009777
isbd,0.013808
isbn,0.032266
isidor,0.017387
islam,0.018175
issu,0.005857
item,0.005006
jan,0.005998
jew,0.006417
jewish,0.011316
job,0.009427
johann,0.005840
journal,0.010532
journey,0.006343
judaic,0.010249
judaism,0.006528
justif,0.006377
kakai,0.013808
kept,0.009836
kindl,0.009715
king,0.004347
known,0.029647
kobo,0.013030
koutoubia,0.013808
kuthodaw,0.013808
kutubiyyin,0.013808
lab,0.005962
labori,0.009051
lack,0.003479
laid,0.005150
languag,0.010290
larg,0.012025
larger,0.007204
largest,0.007538
late,0.009478
later,0.013569
latin,0.017156
law,0.002749
layout,0.038230
lcc,0.011828
lead,0.002722
leaf,0.014799
leap,0.007262
leather,0.015611
leav,0.027051
led,0.008835
ledger,0.009490
left,0.014550
length,0.009055
lent,0.007542
letter,0.013514
letterpress,0.026060
levi,0.006413
librari,0.158625
librarian,0.008902
libri,0.010064
lie,0.004471
life,0.002933
lifetim,0.005843
light,0.011286
like,0.004874
lime,0.016321
limeston,0.007795
line,0.022861
linen,0.008964
link,0.001984
linotyp,0.013808
list,0.012687
liter,0.005247
literaci,0.013391
literatur,0.012230
lithographi,0.010459
locat,0.016775
log,0.006393
logbook,0.012134
long,0.011851
longer,0.003763
longterm,0.004802
look,0.003767
lover,0.008052
low,0.003497
lowcost,0.008264
lowsel,0.013808
lowwhit,0.013808
luxuri,0.006846
macedonian,0.025484
machin,0.022029
magazin,0.021131
main,0.005777
maintain,0.006363
major,0.004841
make,0.023203
makereadi,0.055235
man,0.004037
manag,0.006535
mani,0.022686
manner,0.004403
manual,0.011527
manufactur,0.026108
manuscript,0.049534
map,0.008348
market,0.013662
marrakesh,0.011355
martial,0.007347
mass,0.003742
master,0.004869
materi,0.047963
matrix,0.005727
matter,0.010297
mayb,0.008264
mccain,0.010200
mean,0.030155
meant,0.009360
mechan,0.003369
media,0.008370
mediev,0.019467
mediterranean,0.005968
medium,0.015605
mediums,0.008494
meet,0.003691
melt,0.006511
member,0.002911
memorabilia,0.011828
mention,0.004417
merger,0.006612
mess,0.010064
metadata,0.018015
metal,0.033243
metaphor,0.006417
method,0.028259
mid,0.004543
middl,0.033859
midth,0.005629
million,0.003583
mimic,0.007646
miniatur,0.008029
minimis,0.008198
missal,0.012313
mo,0.067350
modern,0.035580
monast,0.007887
monasteri,0.041598
monk,0.026996
monograph,0.007123
monotyp,0.011164
morocco,0.007221
mosqu,0.015457
mostli,0.011679
mould,0.008418
mount,0.005319
movabl,0.032950
multipl,0.007019
multitud,0.007200
music,0.005014
muslim,0.020411
narr,0.006004
narrat,0.007585
nation,0.007585
need,0.005485
needl,0.008040
nefert,0.011573
neutral,0.004994
new,0.012228
newspap,0.016946
nile,0.007384
nobl,0.005933
nonfict,0.031847
nonreligi,0.008785
nook,0.012134
normal,0.007273
notch,0.020042
note,0.015784
notebook,0.017052
novel,0.030300
novelett,0.011257
novella,0.009074
nowaday,0.006905
number,0.022826
numer,0.003380
nun,0.008641
nursia,0.011257
nut,0.007876
object,0.006238
observ,0.003011
obtain,0.003546
occur,0.002898
octavo,0.012517
offic,0.003672
offlin,0.009192
offset,0.019904
offwhit,0.013030
old,0.007550
older,0.004788
oldest,0.004936
onc,0.003409
ondemand,0.010200
onevolum,0.011695
onli,0.021003
onlin,0.019967
opaqu,0.008304
open,0.003123
opportun,0.008619
oppos,0.007626
opposit,0.003754
option,0.009522
order,0.007543
organ,0.004977
origin,0.007586
otherwis,0.008680
outsid,0.003480
overlap,0.005071
overli,0.007304
owner,0.005161
ox,0.009551
oxturn,0.013808
pagan,0.014026
page,0.134196
pagoda,0.010108
paid,0.004652
painstak,0.010404
paint,0.011590
papal,0.007908
paper,0.128006
paperback,0.069140
paperlik,0.011973
papermak,0.020042
papyru,0.091020
parchment,0.117875
pari,0.004989
particip,0.007199
particular,0.005712
particularli,0.006399
pass,0.003544
pastfor,0.013808
path,0.004626
pave,0.006453
pecia,0.013808
peculiar,0.007104
pedersen,0.009938
peopl,0.015094
perfect,0.005097
perhap,0.016966
period,0.005422
permit,0.004647
persian,0.005732
persist,0.005173
person,0.011942
pest,0.008006
phoenician,0.016582
phone,0.006511
photograph,0.012560
physic,0.005971
pictur,0.015324
piec,0.030232
place,0.028385
plan,0.010366
plant,0.007922
plastic,0.012269
plate,0.011849
playingcard,0.013808
plot,0.011184
plough,0.009192
pod,0.009347
point,0.005293
poor,0.004511
popular,0.019586
port,0.005155
portabl,0.015221
possibl,0.013343
postag,0.008304
pound,0.006558
practic,0.005598
prais,0.006118
prayer,0.013789
prayerbook,0.011828
precursor,0.005700
predomin,0.005968
prefix,0.007031
prepar,0.016974
preparatori,0.008902
preprint,0.009120
prepubl,0.010995
presenc,0.003956
present,0.005232
preserv,0.004410
press,0.052350
pressman,0.011077
pressmen,0.013808
presum,0.005840
prevail,0.005535
prevent,0.011221
previou,0.003945
previous,0.003988
primari,0.006907
primarili,0.003576
princip,0.004087
print,0.304642
printer,0.024371
printondemand,0.012752
prior,0.003951
privat,0.026261
privileg,0.005971
problem,0.002798
process,0.019788
produc,0.040836
product,0.019088
profession,0.008479
project,0.003237
promot,0.007464
proof,0.005334
proofread,0.009786
properti,0.003167
prose,0.007399
protect,0.003487
provid,0.004642
public,0.063241
publish,0.081316
pugillar,0.013808
pulp,0.041388
pulpbas,0.013808
punctuat,0.008160
pupil,0.006825
purpl,0.008040
purpos,0.013613
puzzl,0.006966
qualiti,0.011695
quantiti,0.021308
quarto,0.023656
rag,0.009551
rare,0.008611
rate,0.009727
rawhid,0.012134
rd,0.009370
reach,0.003372
reactiv,0.006251
read,0.060523
reader,0.028292
readerus,0.013808
readi,0.018295
reason,0.005956
receiv,0.003170
recent,0.005746
recogn,0.003558
record,0.027981
red,0.009199
redistribut,0.006899
refer,0.014934
reflect,0.003566
reform,0.004059
regard,0.009550
region,0.002971
rel,0.005950
relat,0.006712
relax,0.006343
reliabl,0.004961
relief,0.005916
religi,0.012716
remain,0.002744
remov,0.003831
report,0.006378
repositori,0.007815
repres,0.002722
reproduc,0.005629
requir,0.010449
research,0.002692
respect,0.003155
rest,0.003887
restrict,0.007691
result,0.004622
reusabl,0.009938
revert,0.007262
review,0.011154
revolut,0.008221
rich,0.009516
richard,0.004099
right,0.008933
ring,0.005620
rise,0.006678
risen,0.006989
risk,0.004083
river,0.004536
robust,0.012021
roll,0.012383
roller,0.009614
roman,0.026706
rome,0.011331
room,0.005382
root,0.004191
round,0.005256
row,0.006417
rubric,0.017845
rule,0.018174
ruler,0.005544
run,0.003646
russian,0.009716
s,0.002353
saint,0.011097
sale,0.014502
saw,0.004060
say,0.003595
scheme,0.004994
school,0.010128
schoolbook,0.022155
scienc,0.002790
scientist,0.003794
scrape,0.009403
screen,0.006127
scribe,0.060021
scriptorium,0.012752
scriptur,0.006676
scriptura,0.010995
scroll,0.089769
searchabl,0.008711
second,0.005446
section,0.012335
secular,0.005743
selfpublish,0.010153
seller,0.006630
semivoc,0.013808
sens,0.003414
separ,0.018189
sequenc,0.009213
serbian,0.008304
seri,0.003305
serial,0.007518
seriou,0.004648
session,0.006313
set,0.030846
sever,0.009630
sevil,0.017570
sew,0.018921
sewn,0.010350
sextodecimo,0.013808
share,0.003233
sharp,0.005608
sheepskin,0.013030
sheet,0.102027
sheetf,0.027617
shelf,0.008099
shelv,0.008676
shelvabl,0.013808
sheng,0.009681
shop,0.012383
short,0.010614
shorter,0.011815
showthrough,0.013808
signatur,0.033795
signific,0.002948
silent,0.006878
silver,0.005774
similar,0.011030
similarli,0.008750
simpl,0.003669
simpli,0.003768
sinc,0.004618
singl,0.021634
situat,0.003555
size,0.064735
skin,0.005857
slant,0.009431
slavic,0.008087
slice,0.008160
slowli,0.005323
small,0.002825
smaller,0.019634
smartphon,0.008463
smithsonian,0.007897
smyth,0.010350
social,0.005875
societi,0.011573
sofer,0.012517
softwar,0.004892
sold,0.009753
solut,0.003951
someth,0.004440
sometim,0.018038
soni,0.009168
soon,0.004234
soot,0.010404
sorbonn,0.009979
sourc,0.002904
space,0.021363
spark,0.006111
spearhead,0.008064
special,0.005776
specif,0.011052
specifi,0.009390
speech,0.004975
speed,0.009445
spine,0.031262
spiral,0.014134
spiralbound,0.027617
spoilag,0.030897
spread,0.008164
st,0.007445
stabil,0.004306
stabl,0.004544
stack,0.014401
stamp,0.020491
stand,0.004340
standalon,0.008173
standard,0.018663
start,0.008769
state,0.006062
station,0.005045
statu,0.003857
steampow,0.009899
stem,0.005191
stiff,0.007815
stock,0.004455
stone,0.010315
store,0.023394
stori,0.023406
strap,0.010064
street,0.010539
stress,0.004735
student,0.015723
studi,0.017084
style,0.009516
stylu,0.032985
subject,0.017627
subtitl,0.009051
sudoku,0.012313
suggest,0.003233
suitabl,0.010253
summari,0.005557
supplier,0.013006
support,0.002745
surviv,0.003983
sutra,0.008160
symbol,0.004192
synagogu,0.018434
syriac,0.008747
tabl,0.013333
tablet,0.058898
taken,0.003381
tall,0.088171
tan,0.008040
tape,0.007534
tax,0.004340
taxsupport,0.012752
teacher,0.005292
technic,0.008214
techniqu,0.010647
technolog,0.006659
tell,0.005201
tend,0.022754
tension,0.005245
term,0.008728
territori,0.004042
test,0.003775
text,0.047806
textbook,0.010411
textfil,0.013808
textil,0.006244
textual,0.007255
th,0.066202
theft,0.015419
theme,0.010229
themselv,0.003425
thencurr,0.010021
therefor,0.009416
thi,0.032820
thing,0.003674
think,0.004005
thinner,0.008922
thought,0.003273
thu,0.008098
tight,0.007049
tighter,0.008510
time,0.024520
titl,0.024872
today,0.013270
togeth,0.015922
tome,0.008747
tomu,0.011164
toner,0.013030
took,0.007215
tool,0.011093
topic,0.014656
torah,0.008526
torn,0.008494
total,0.003222
town,0.014227
track,0.005109
trade,0.003340
trader,0.005685
tradit,0.014540
transit,0.004020
transport,0.003959
tree,0.014271
tremend,0.006710
tri,0.003635
trim,0.028043
trunk,0.008277
truste,0.008160
tschichold,0.013808
turn,0.003192
twice,0.005504
type,0.052755
typeset,0.043668
typic,0.024786
udc,0.011695
unbend,0.011460
unbound,0.016151
unchang,0.006157
uncoat,0.012313
understand,0.003134
uniform,0.005354
uniqu,0.003937
unit,0.004658
univers,0.007175
unlimit,0.006910
unsewn,0.013030
untru,0.009681
unusu,0.005599
upstream,0.008433
usa,0.005155
usag,0.014531
use,0.096238
usedmainli,0.013808
user,0.010246
usual,0.044466
valu,0.002959
vaniti,0.009520
vari,0.006809
variat,0.004329
varieti,0.003467
variou,0.005258
vellum,0.032985
vendor,0.007908
verbal,0.006644
veri,0.007912
versa,0.006554
version,0.004039
vi,0.006567
vice,0.005346
video,0.005082
view,0.002959
vine,0.008558
vitriol,0.010459
vivarium,0.013370
vo,0.028470
volum,0.007911
volumen,0.012752
wa,0.058700
want,0.008527
wareh,0.009938
wax,0.039229
way,0.014815
wealthi,0.006026
wealthier,0.008729
weav,0.007795
web,0.015020
western,0.003473
wet,0.006894
whi,0.004249
whimsic,0.009979
wide,0.011897
widespread,0.004436
width,0.007766
wood,0.053290
woodblock,0.010200
woodcut,0.010404
wooden,0.014830
woodfre,0.013808
word,0.054497
work,0.018112
workbook,0.010153
worker,0.004299
world,0.023413
worldwid,0.004685
worth,0.005229
woven,0.008479
write,0.101104
writer,0.009479
written,0.036563
wrote,0.003934
x,0.004089
xlviii,0.013030
yaqubi,0.011973
year,0.009322
yearli,0.006846
young,0.004288
z,0.005634
zoroastrian,0.008123
