aabb,0.069971
abomin,0.030463
absurd,0.046051
abus,0.017236
accord,0.008012
achiev,0.010080
alex,0.023650
alma,0.027914
anachronist,0.029350
andor,0.014022
appreci,0.017780
auden,0.065765
author,0.018043
awkward,0.028292
balliol,0.034664
baseless,0.033816
beginn,0.077099
bentley,0.254633
best,0.010648
betterknown,0.032287
biograph,0.043883
biographi,0.111819
book,0.009182
bottl,0.023621
brogan,0.036551
brown,0.016394
came,0.010580
chemist,0.018597
chesterton,0.065351
cite,0.013534
class,0.010733
classic,0.010691
clerihew,0.851959
column,0.018386
comic,0.022635
commonplac,0.023102
compil,0.016697
comput,0.010724
consider,0.010876
consist,0.008662
contain,0.009285
contemporari,0.012659
contest,0.017028
contriv,0.026760
craig,0.022949
dactyl,0.033816
daili,0.015137
dark,0.016736
davi,0.037534
descript,0.011831
dewar,0.031929
doubl,0.014329
dure,0.007450
e,0.010488
ed,0.010908
edit,0.036588
edmund,0.039651
effect,0.007570
encyclopedia,0.013420
end,0.008519
england,0.013521
entitl,0.016086
entri,0.015072
eulog,0.030996
exampl,0.020936
famou,0.038618
flask,0.030996
follow,0.006665
fond,0.026648
forc,0.008351
form,0.044583
founder,0.014604
fourlin,0.037041
franc,0.011928
french,0.011213
friend,0.016549
fun,0.026648
g,0.011272
game,0.014298
garbl,0.035330
gener,0.005987
graffiti,0.030996
gravi,0.063194
h,0.011574
ha,0.033336
head,0.010756
hi,0.052297
humor,0.045131
humphri,0.053078
illustr,0.042628
includ,0.028920
individu,0.008594
introductori,0.019864
invent,0.040673
inventor,0.020618
irregular,0.038985
k,0.012632
klrhju,0.042153
known,0.006961
languag,0.010470
latin,0.013093
length,0.041463
letter,0.013751
light,0.022968
limerick,0.032105
line,0.079759
literari,0.017469
london,0.011729
magazin,0.016126
mater,0.030100
matter,0.010477
meter,0.018746
metr,0.039626
mostli,0.011884
new,0.012443
nicola,0.020867
nonbiograph,0.042153
nonenglish,0.030857
note,0.008030
notebook,0.052054
occasion,0.015712
open,0.009535
order,0.007675
origin,0.023157
oversimplifi,0.027631
parodi,0.051309
paul,0.012107
peopl,0.007679
person,0.009114
phrase,0.016783
poem,0.061674
poetic,0.044814
poetri,0.019433
point,0.016159
poke,0.031597
popular,0.029895
pp,0.013021
practition,0.033526
prefac,0.022924
preming,0.039776
press,0.009400
princeton,0.035268
print,0.014999
produc,0.008310
pronunci,0.021181
properti,0.009670
provid,0.007086
public,0.008043
publish,0.053192
punch,0.025393
pupil,0.020835
ran,0.035759
read,0.008797
regard,0.009718
remain,0.008377
remark,0.015536
reposit,0.030218
reveal,0.013324
rhode,0.023207
rhyme,0.160565
richard,0.012514
s,0.007184
said,0.010408
satir,0.023535
satirist,0.032675
scheme,0.015246
school,0.030918
schoolboy,0.064210
schoolfriend,0.042153
scienc,0.008519
second,0.008313
seriou,0.014190
set,0.007846
sherborn,0.037041
sir,0.015912
skill,0.013581
slightli,0.015279
sole,0.014310
someth,0.013554
son,0.013498
sourc,0.008867
spectat,0.026993
spuriou,0.027176
st,0.011364
stanza,0.058701
structur,0.008236
student,0.011999
style,0.014526
subject,0.044841
succinct,0.029873
sun,0.015639
target,0.013126
teagu,0.042153
telegraph,0.021822
theme,0.015613
thermo,0.031597
thi,0.005273
titl,0.012654
togeth,0.009721
true,0.011414
tvf,0.040815
unbalanc,0.027238
univers,0.007301
unknown,0.014596
unlik,0.011740
unpolish,0.033564
unusu,0.017092
use,0.028802
usual,0.016967
vers,0.062270
version,0.012331
view,0.009035
volum,0.012076
w,0.011828
wa,0.052023
whimsic,0.060927
win,0.015852
word,0.019572
work,0.006911
writer,0.028938
written,0.022323
yearold,0.020543
