adventur,0.078452
aga,0.062305
alex,0.046149
allend,0.058512
ancient,0.022654
andrzej,0.058512
anim,0.021885
ann,0.036620
annmari,0.074562
araki,0.072280
belva,0.082255
best,0.020779
bird,0.064367
bizarr,0.107572
book,0.017918
brideshead,0.082255
brook,0.041500
brother,0.031616
buddenbrook,0.079643
byzantium,0.048611
c,0.018043
cadwel,0.082255
captain,0.038106
carr,0.048537
catherin,0.044980
chamber,0.033506
chang,0.014236
chines,0.027142
chronicl,0.198858
cinema,0.042393
circumst,0.029007
classic,0.020863
claudiu,0.053786
colleen,0.063761
come,0.018061
cookson,0.073349
coven,0.046496
crown,0.032710
cycl,0.025890
declin,0.023979
delderfield,0.082255
deriv,0.019203
devic,0.028226
dorothi,0.050883
dream,0.036463
dune,0.049718
dunnett,0.074562
dynasti,0.032840
ebb,0.058966
eugenid,0.082255
evelyn,0.052673
event,0.019787
evergreen,0.057467
exampl,0.013617
exist,0.015120
f,0.022397
fall,0.041510
famili,0.252651
fast,0.031126
film,0.030838
flow,0.023944
follow,0.013006
form,0.012428
forsyt,0.082255
fortun,0.036882
frank,0.031836
friend,0.032293
gabriel,0.041036
galsworthi,0.071323
garca,0.050417
gener,0.011683
genr,0.038392
georg,0.023433
giovent,0.082255
godfath,0.060762
great,0.018324
haley,0.064587
heimat,0.082255
henri,0.026206
herbert,0.035207
hirohiko,0.082255
histor,0.018264
histori,0.013542
hive,0.057871
hole,0.037006
hous,0.043622
household,0.032343
howard,0.037717
howatch,0.082255
hundr,0.024703
iceland,0.167247
immigr,0.032355
includ,0.022573
intent,0.027362
interconnect,0.039305
isabel,0.051273
italian,0.030507
jake,0.067056
jalna,0.082255
jame,0.022931
jeffrey,0.042244
jia,0.057272
john,0.036986
jojo,0.164510
kent,0.048761
king,0.025896
knee,0.049718
kristin,0.061348
la,0.054271
land,0.020573
languag,0.020432
lavransdatt,0.079643
leonardo,0.044494
literari,0.034088
literatur,0.048571
live,0.017575
loui,0.030671
lymond,0.082255
macdonald,0.049551
mallen,0.082255
manga,0.054757
mann,0.050693
mazo,0.077617
mccaffrey,0.072280
mccullough,0.061348
mean,0.014968
mediev,0.028990
meglio,0.075961
michen,0.063375
middlesex,0.062648
miniseri,0.057667
mrquez,0.065030
multipl,0.020905
niccol,0.050979
nors,0.051076
north,0.021580
note,0.015670
novel,0.180493
number,0.027194
old,0.022489
p,0.020748
palaeologian,0.082255
particular,0.017012
pegasu,0.065987
period,0.032299
perspect,0.024321
philippa,0.059693
plain,0.035518
plenti,0.042737
popular,0.019445
portray,0.035378
r,0.020856
red,0.027398
refer,0.009884
relat,0.013327
renaissanceset,0.082255
revisit,0.045706
rise,0.039781
roch,0.053655
root,0.049939
sachar,0.075961
saga,0.555594
saint,0.033052
sapkowski,0.082255
say,0.021415
sequenc,0.027441
seri,0.098457
seriou,0.027690
set,0.015312
shannara,0.075961
sigrid,0.071323
smith,0.029146
snow,0.042621
social,0.017500
solitud,0.057871
sometim,0.017908
spirit,0.031083
star,0.030507
stori,0.027885
stranger,0.048247
subgenr,0.052443
success,0.018243
sunlight,0.042894
sunshin,0.053527
susan,0.042061
taylor,0.034614
teeth,0.043299
televis,0.031007
terri,0.046496
themat,0.047965
thi,0.010289
thoma,0.024607
thorn,0.098776
time,0.012171
tower,0.040233
trilog,0.048247
typic,0.018455
undset,0.079643
univers,0.014247
use,0.011240
vaca,0.072280
wa,0.011279
war,0.019541
waugh,0.064165
west,0.023621
whenc,0.052909
white,0.026118
williamson,0.050327
witcher,0.082255
won,0.027847
word,0.038191
writer,0.028233
year,0.013883
youth,0.034694
zadi,0.082255
