abus,0.015014
academ,0.010454
accept,0.008762
accessori,0.022714
accord,0.013959
account,0.008220
actual,0.008933
adam,0.014165
adapt,0.011114
advertis,0.098407
advoc,0.011981
age,0.008741
airlin,0.017766
allow,0.013882
america,0.009782
american,0.023724
analog,0.012472
ancien,0.025079
anew,0.024714
announc,0.011721
annual,0.021444
appeal,0.025998
appropri,0.011188
archaic,0.020013
archiv,0.012846
argument,0.011726
aristocraci,0.019676
arm,0.011129
art,0.021356
articl,0.008295
artilleri,0.019078
assassin,0.016519
assembl,0.010896
associ,0.013636
atlant,0.044372
audienc,0.015754
author,0.015717
automobil,0.017487
avoid,0.010425
awar,0.012628
away,0.031897
baker,0.018891
base,0.012163
basi,0.008693
becam,0.023078
becaus,0.019006
becom,0.006737
beer,0.019480
befor,0.007187
begin,0.008206
best,0.009276
bibl,0.016877
big,0.012743
blatt,0.032743
blister,0.027523
block,0.025074
bob,0.019577
bookstor,0.024714
bourbon,0.046621
branch,0.008950
brand,0.034022
breakingoff,0.036719
brew,0.022426
britain,0.011856
british,0.028191
broad,0.011304
bureaucrat,0.018649
burlesqu,0.029029
busi,0.047437
buy,0.013313
cabl,0.018347
case,0.007047
categori,0.032266
cater,0.020678
cathol,0.040829
caus,0.007523
cave,0.016948
ceas,0.014238
celebr,0.014527
censor,0.022308
censorship,0.020551
cent,0.017487
central,0.015803
centuri,0.014476
certainti,0.017792
chang,0.019065
child,0.013538
chinlength,0.036719
chronic,0.017325
church,0.050944
churchstat,0.029688
circul,0.103241
citi,0.009734
civil,0.009669
claim,0.008556
class,0.028048
close,0.030170
cloth,0.014736
coffe,0.017594
collect,0.024669
combin,0.008038
common,0.006816
commun,0.022114
compani,0.008901
complain,0.018304
comput,0.018683
computerindustri,0.036719
condit,0.007888
consum,0.033677
contain,0.016175
content,0.022248
continu,0.013662
control,0.014981
copi,0.013591
corpor,0.033184
corrupt,0.055368
corset,0.033909
cosmet,0.020730
cost,0.009912
cotermin,0.030195
counterpart,0.015117
cover,0.018564
coverag,0.016959
craft,0.016959
creat,0.013792
creel,0.029688
crisi,0.011634
critic,0.024879
crook,0.022426
cultur,0.033908
current,0.014435
d,0.009126
da,0.015008
daili,0.013185
dame,0.022047
danc,0.018080
date,0.009422
david,0.010015
day,0.008507
debat,0.010496
decad,0.010248
decid,0.010987
declin,0.010704
defin,0.007737
definit,0.026743
deliveri,0.016294
depart,0.009885
der,0.014754
despit,0.009559
determin,0.015658
develop,0.011276
dick,0.021056
did,0.008369
die,0.010802
digit,0.012589
discuss,0.027597
dispens,0.019616
display,0.012813
dissemin,0.017558
distanc,0.012005
distribut,0.074419
dmoz,0.014932
doe,0.007628
don,0.018712
dougherti,0.030475
dress,0.018728
du,0.015934
dure,0.006489
eager,0.020678
earli,0.033944
earliest,0.011345
edit,0.021247
editor,0.014449
educ,0.008647
edward,0.024695
electron,0.011358
element,0.008632
emphas,0.011912
employ,0.009003
enabl,0.010764
end,0.007421
enemi,0.015170
engag,0.010748
england,0.011778
engrav,0.021835
entail,0.015839
entertain,0.016689
entir,0.008804
era,0.010724
erbaulich,0.036719
especi,0.007881
espn,0.029237
european,0.008454
event,0.052999
everyon,0.015671
evolv,0.011141
exampl,0.042553
exemplifi,0.017292
expans,0.011452
expens,0.012122
explain,0.009137
expos,0.067981
express,0.008794
extern,0.005307
extrem,0.009736
faction,0.016032
fall,0.009265
famou,0.022426
fashion,0.071430
featur,0.009179
fee,0.015887
fell,0.013109
financ,0.021510
financi,0.009690
firearm,0.021000
flapper,0.062905
flourish,0.014938
focu,0.009957
focus,0.018897
forc,0.007274
form,0.011095
format,0.009899
forum,0.014907
foster,0.015516
franc,0.041562
fraud,0.016718
frauen,0.032743
free,0.033162
french,0.019535
furthermor,0.012438
gain,0.017660
gap,0.014129
gave,0.021123
gazett,0.043809
gender,0.015560
gener,0.041723
generalinterest,0.033284
gentleman,0.047564
georg,0.010460
german,0.010250
germani,0.010928
girl,0.017920
given,0.007279
glamor,0.030195
glamour,0.031100
global,0.009638
glossi,0.029237
govern,0.020706
graham,0.018495
greater,0.009141
gunpowd,0.021412
ha,0.004839
hairstyl,0.027124
hand,0.008993
harper,0.074785
hate,0.020836
hausfrau,0.036719
heavi,0.012544
held,0.017162
help,0.015892
herbert,0.015716
hi,0.006507
high,0.007349
histori,0.012090
historian,0.012230
historiqu,0.030195
home,0.020728
hopkin,0.017881
horrid,0.030195
howev,0.023562
hundr,0.011027
ida,0.019078
ill,0.014093
illustr,0.024755
imag,0.011176
immort,0.019219
inch,0.019557
includ,0.015115
increas,0.020938
independ,0.007454
indict,0.023261
industri,0.008284
industrybas,0.036719
ineptitud,0.029456
ingram,0.028290
instead,0.008501
intern,0.006360
internet,0.011906
investig,0.010170
involv,0.014072
issu,0.085672
jean,0.015052
jeanpaul,0.023360
jet,0.017754
job,0.012533
john,0.008255
johnson,0.016585
journal,0.093353
journalist,0.068339
juli,0.010483
jungl,0.020678
just,0.016926
kept,0.013077
king,0.011560
kingdom,0.009654
kneelength,0.032266
la,0.012113
label,0.013057
labor,0.011915
ladi,0.019329
lag,0.018891
lami,0.028125
larg,0.012790
late,0.016802
latest,0.016208
launch,0.048883
lay,0.013655
lead,0.007240
learn,0.010193
left,0.009672
leg,0.018013
level,0.021768
life,0.015600
like,0.019444
likelihood,0.033654
lincoln,0.020601
line,0.008684
link,0.005276
list,0.013494
literari,0.030434
literatur,0.010841
lloyd,0.037424
local,0.024655
locat,0.017843
london,0.020434
look,0.010018
loret,0.036719
lower,0.008965
m,0.008677
machin,0.011715
magazin,0.744538
magazinesnot,0.036719
mail,0.019009
main,0.007681
mainli,0.010073
major,0.012874
make,0.012340
mani,0.016452
manufactur,0.023142
marat,0.064532
market,0.009082
mass,0.029851
matter,0.009126
mcclurestook,0.036719
mean,0.006682
meat,0.016837
media,0.033387
mediafindercom,0.036719
medicin,0.011568
medium,0.013832
member,0.007741
mercur,0.026879
mid,0.012082
middl,0.010003
middleclass,0.020756
militari,0.009815
millionmark,0.036719
mobi,0.031452
model,0.045347
modern,0.014555
monarch,0.016023
monarchi,0.031105
monath,0.036719
monopoli,0.015545
month,0.010719
monthli,0.066153
movi,0.016594
muck,0.032266
muckrak,0.089065
multipl,0.009332
muse,0.022426
music,0.013334
napoleon,0.033095
nation,0.006723
natur,0.006477
need,0.007293
neue,0.027253
new,0.048777
newer,0.017817
news,0.052972
newspap,0.060083
newsstand,0.032743
newsstandonli,0.036719
nicknam,0.019255
nonpaid,0.031452
north,0.009633
novel,0.013428
number,0.018209
object,0.008294
observ,0.008007
offici,0.009211
oil,0.012110
older,0.012732
oldest,0.013125
onli,0.011170
onlin,0.010619
oper,0.022963
opinion,0.025791
order,0.006686
organ,0.006618
orient,0.012642
outlet,0.019385
overthrew,0.020476
ownership,0.014248
oxbridg,0.032266
pack,0.017704
page,0.047579
pagin,0.098231
paid,0.037113
pari,0.039804
parisian,0.025315
pass,0.009425
patent,0.016191
patricia,0.020917
peerreview,0.038807
pen,0.019441
peopl,0.006689
period,0.072092
perissu,0.036719
persist,0.013756
person,0.007939
peupl,0.027124
phillip,0.018776
philosophi,0.010330
pickup,0.027386
pictur,0.013582
piec,0.013398
play,0.017520
poem,0.035815
poetri,0.016928
polit,0.091381
politicallyoften,0.036719
popul,0.008632
popular,0.034722
portray,0.015793
post,0.011775
postag,0.022083
poverti,0.014312
predecessor,0.015170
prepaid,0.026761
preserv,0.011726
press,0.016377
price,0.051499
priest,0.016473
print,0.156789
process,0.006577
produc,0.007239
product,0.021754
profession,0.033821
progress,0.009482
promin,0.021820
propaganda,0.018602
prostitut,0.021290
provid,0.006173
public,0.105104
publish,0.054057
purchas,0.035499
qualif,0.017679
qualifi,0.014631
quarterli,0.017011
quiescent,0.029029
rack,0.025315
rais,0.010262
rake,0.025397
rang,0.008351
rapid,0.012057
ray,0.015072
read,0.015327
reader,0.045139
readership,0.047131
rebelli,0.022547
receiv,0.016860
record,0.009300
refer,0.013237
reflect,0.009482
regim,0.012858
region,0.007901
regular,0.024177
reimpos,0.027386
relationship,0.016845
reli,0.010632
religi,0.022542
remain,0.007297
report,0.008480
request,0.013411
retail,0.015958
revolut,0.032793
right,0.007918
rigid,0.016419
rise,0.008879
rockefel,0.021940
role,0.015459
roosevelt,0.019717
root,0.033439
s,0.031291
sale,0.012854
samuel,0.015686
satir,0.020501
savan,0.026879
say,0.009559
scandal,0.018633
schedul,0.043997
scholar,0.011205
scientist,0.010090
scot,0.022933
select,0.009595
senat,0.015137
sens,0.018158
sensuou,0.027253
sent,0.012230
sequenc,0.012249
serv,0.008783
set,0.006835
sever,0.012804
shape,0.010517
share,0.008598
sharpli,0.017359
shop,0.016464
shortcom,0.020576
sin,0.017463
sinclair,0.024252
size,0.009563
slinki,0.031839
slowli,0.014154
small,0.007514
social,0.039060
societi,0.023082
sold,0.012968
sometim,0.007994
sought,0.011963
sourc,0.007724
space,0.009467
special,0.023041
spiritu,0.014149
sponsor,0.015395
sport,0.014584
ss,0.018874
st,0.009899
standard,0.016542
stannard,0.033909
start,0.031093
state,0.016119
statement,0.011273
statist,0.030224
steffen,0.030475
stimul,0.027485
stop,0.024264
storag,0.014613
store,0.024883
storehous,0.027386
stori,0.024896
street,0.028025
strict,0.014270
strong,0.008923
style,0.012653
subscrib,0.038403
subscript,0.099739
support,0.021904
survey,0.011804
sylvanu,0.030475
tarbel,0.030475
target,0.011434
technic,0.021843
technolog,0.008854
telegraph,0.019009
telephon,0.016787
term,0.011605
th,0.014083
thank,0.016887
therebi,0.012710
thi,0.045932
thousand,0.010829
thu,0.007178
time,0.021733
titl,0.022046
total,0.017136
trade,0.026650
transatlant,0.021733
transit,0.010691
trend,0.011729
trickl,0.025481
typic,0.008238
ultim,0.010621
understand,0.008335
unit,0.012387
unleash,0.023024
unlik,0.010226
unqualifi,0.025927
unsaf,0.023894
unspecif,0.030195
unterredungen,0.036719
upton,0.027386
urban,0.025761
urg,0.032416
use,0.025089
usual,0.007390
variat,0.011511
varieti,0.009220
variou,0.006991
vendor,0.021028
ventur,0.016174
vers,0.018080
victorian,0.019717
videoag,0.036719
view,0.007870
vignett,0.029029
vigor,0.017766
volum,0.031557
wa,0.100704
wall,0.013003
want,0.011337
wast,0.029461
water,0.009472
way,0.006566
weaken,0.015381
web,0.013313
week,0.012907
weekli,0.036438
went,0.011263
whi,0.011299
whitlock,0.032743
wide,0.015818
wildlif,0.017498
winter,0.015217
women,0.046749
wood,0.014170
wooden,0.019717
word,0.017048
work,0.030101
world,0.018677
write,0.009601
written,0.019445
wrote,0.010462
year,0.018592
yearn,0.025653
young,0.045610
