academ,0.012905
achiev,0.010839
addit,0.008717
aesthet,0.020897
affair,0.014247
africa,0.027986
african,0.015102
akyn,0.045329
albert,0.017512
aldin,0.027684
alreadi,0.012552
altern,0.011071
ancient,0.024968
ang,0.032495
ani,0.015187
anteced,0.024652
anthropologist,0.022106
appear,0.009980
archiv,0.015859
art,0.026364
articl,0.010240
attempt,0.009828
avoid,0.012870
away,0.013125
b,0.022826
background,0.014798
bard,0.030257
base,0.007507
bauman,0.034720
becaus,0.007821
bedtim,0.039832
belong,0.014680
bernardi,0.041861
bibliographi,0.015110
bodi,0.010425
book,0.039497
breiting,0.045329
c,0.009943
cahier,0.036953
cambridg,0.027562
categori,0.013277
cc,0.025370
ce,0.019066
centuri,0.008935
chadwick,0.063558
chicago,0.016959
circul,0.018207
coin,0.014410
collect,0.010151
come,0.009953
common,0.016830
commun,0.036400
compar,0.010293
complex,0.010183
compon,0.011985
composit,0.014427
compositioninperform,0.045329
concept,0.029137
conduct,0.011928
conscious,0.017729
consid,0.016233
constitut,0.021978
contemporari,0.013613
continu,0.008432
convey,0.021012
correspond,0.012634
cultur,0.062789
d,0.011267
dawn,0.022027
deaf,0.059427
def,0.035360
defin,0.028654
definit,0.011004
develop,0.006960
die,0.013335
domain,0.013593
dure,0.008011
earliest,0.014005
eastern,0.027816
eckhard,0.035360
ed,0.011730
edit,0.065574
effect,0.008140
encyclopaedia,0.026471
epic,0.067578
ethnopoet,0.038828
european,0.010436
exactli,0.016415
examin,0.013114
exampl,0.015008
expect,0.011512
express,0.043426
extend,0.011052
extern,0.006552
fade,0.023930
famili,0.011602
featur,0.011332
finnegan,0.074552
fluiditi,0.030424
folk,0.043321
folklor,0.050317
folklorist,0.033181
folksongthat,0.045329
fonti,0.045329
form,0.034244
franco,0.025591
function,0.009173
fundament,0.011474
gener,0.012876
genr,0.042314
gikandi,0.042773
grgkaradi,0.045329
growth,0.011341
guslar,0.043889
ha,0.005974
hainteni,0.045329
hector,0.030867
heritag,0.036653
herv,0.033485
histor,0.010065
histori,0.029851
homogen,0.020181
human,0.017265
idiom,0.028716
improvis,0.028538
includ,0.018659
inclus,0.018456
influenti,0.014410
inform,0.008907
intang,0.052639
interact,0.011179
introduc,0.010510
jame,0.012637
jan,0.039382
joke,0.054082
journal,0.011524
kamishibai,0.042773
kegan,0.029713
kershaw,0.035360
kimani,0.045329
knowledg,0.011268
korean,0.020797
languag,0.022519
languagebas,0.037992
later,0.008909
legend,0.021104
life,0.028888
link,0.006513
liter,0.017225
literaci,0.021979
literari,0.018785
literatur,0.321200
littratur,0.040421
live,0.019370
local,0.010145
london,0.012612
long,0.009725
lord,0.017729
lore,0.087871
lose,0.015754
make,0.007616
mali,0.025308
mani,0.006770
manual,0.018919
mask,0.023748
masterpiec,0.027352
maupeu,0.045329
mean,0.041245
media,0.041217
medium,0.017076
member,0.009556
methodolog,0.015854
methuen,0.030017
milan,0.025128
munro,0.035137
narr,0.039422
narrativediscurs,0.045329
nation,0.008299
natur,0.007996
near,0.012315
need,0.018008
new,0.013381
ngg,0.041861
nian,0.040421
njogu,0.045329
nonor,0.041861
nora,0.034153
offer,0.011137
old,0.012393
ong,0.034524
onli,0.006894
open,0.010254
oper,0.018898
oral,0.754855
oralformula,0.087779
orali,0.045329
oratur,0.175559
oxymoron,0.035360
page,0.029368
paint,0.019023
pantun,0.042773
paremiograph,0.045329
particularli,0.021008
pass,0.023272
patha,0.042773
paul,0.013019
peopl,0.016516
perform,0.021059
person,0.019602
perspect,0.013403
phrase,0.018047
pio,0.068670
poetri,0.146285
polit,0.009400
poni,0.033036
popular,0.010716
possess,0.013459
potenti,0.011120
pp,0.014002
practic,0.018378
preliter,0.030867
press,0.010108
principl,0.010310
prior,0.012972
profound,0.019592
project,0.021255
proverb,0.029713
proverbi,0.035360
proverbium,0.045329
publish,0.028599
quot,0.017969
recogn,0.011680
record,0.011481
refer,0.010894
regard,0.010450
relat,0.007344
remain,0.009008
result,0.007587
rich,0.015620
rodopi,0.033808
routledg,0.038822
russel,0.019093
ruth,0.026913
s,0.007725
scholar,0.041500
seanachai,0.045329
seen,0.010688
sens,0.011208
set,0.008438
shun,0.028040
simmon,0.030960
simon,0.018214
singer,0.024315
slam,0.033485
social,0.019287
societi,0.056989
someth,0.014575
song,0.020104
sophist,0.017442
sourc,0.019071
sphere,0.016965
spoken,0.081573
state,0.006633
stori,0.046101
storytel,0.027587
strategi,0.014121
structur,0.008857
studi,0.008011
sundiata,0.038392
t,0.013190
tale,0.021795
tar,0.029713
technolog,0.010930
televis,0.017087
tell,0.017076
tend,0.012449
term,0.021490
text,0.013077
th,0.008692
theorist,0.017669
thi,0.011340
thiongo,0.041861
thu,0.017724
time,0.006707
today,0.010890
tradit,0.057277
traditionssuch,0.045329
translat,0.013051
transmiss,0.018727
triulzi,0.045329
tsaaior,0.045329
turkish,0.021948
ugandan,0.065517
understood,0.042682
univers,0.007851
urban,0.015900
use,0.018583
utter,0.024983
vanish,0.022237
vansina,0.082179
vari,0.011175
verbal,0.021810
vigor,0.021932
visual,0.015994
voic,0.018068
wa,0.018647
walter,0.018083
way,0.008105
web,0.016435
wide,0.009764
word,0.073663
work,0.014864
world,0.023057
write,0.035559
written,0.060013
york,0.011676
yukar,0.043889
zirimu,0.090658
