aahhgg,0.011758
abraham,0.005249
absurd,0.006422
accept,0.002806
accord,0.004470
act,0.007663
acuffros,0.023516
adapt,0.003559
address,0.003365
adolf,0.006166
advantag,0.003469
affection,0.008243
african,0.003917
afroamerican,0.009172
agent,0.003810
aggress,0.004980
agudo,0.011758
airplan,0.006557
al,0.007667
alan,0.004738
alic,0.006836
allo,0.019710
allow,0.002222
allus,0.007448
alonso,0.008006
alter,0.004009
altern,0.002872
alway,0.003005
amadi,0.020970
american,0.002532
amus,0.014630
ancient,0.009715
andi,0.007358
ani,0.011819
anim,0.003128
anoth,0.023647
antholog,0.006346
anthoni,0.015834
anticip,0.004971
antihero,0.009669
antonio,0.011641
anxieti,0.005932
appeal,0.012487
append,0.007870
appli,0.002389
appreci,0.004959
approach,0.007716
appropri,0.003582
archiv,0.008227
aristotl,0.004607
armi,0.003844
art,0.023935
arthur,0.004559
artist,0.060979
aspect,0.002937
assembl,0.003489
assort,0.006907
astair,0.011095
ateam,0.011758
athen,0.006177
attack,0.014414
attempt,0.002549
audienc,0.010089
austin,0.006429
author,0.022649
autonom,0.004519
avoid,0.003338
bach,0.007726
background,0.003838
badg,0.008364
baker,0.006049
bakhtin,0.018465
band,0.009720
banderass,0.011758
baroqu,0.007563
bartholoma,0.022190
base,0.003895
becam,0.002463
becaus,0.006086
becom,0.002157
bedfordst,0.019517
befor,0.002301
belong,0.003808
ben,0.005763
besid,0.009222
bestknown,0.011750
better,0.009117
bfi,0.010071
blanch,0.008607
blank,0.006655
blaze,0.008607
blood,0.004388
blue,0.004803
book,0.012807
boot,0.007848
borgess,0.011758
brian,0.005512
bring,0.003350
british,0.003009
broadcast,0.005229
broader,0.013480
broadli,0.004511
broadway,0.008497
brook,0.011864
brought,0.003322
buffooneri,0.010858
burlesqu,0.027887
buster,0.009669
cabezn,0.010658
cambridg,0.007149
came,0.002951
campbel,0.012088
canada,0.003866
canadian,0.004581
cantata,0.020970
canwest,0.011758
capabl,0.003554
caponi,0.011758
career,0.013283
caricatur,0.032124
carlo,0.005136
carnivalesqu,0.010858
carrol,0.006836
carv,0.005981
caryl,0.009958
case,0.013541
cat,0.011452
catalys,0.007766
cavazzoni,0.011758
central,0.005060
centuri,0.011589
chamillionair,0.011758
chang,0.002035
chaplin,0.008859
charact,0.029840
chard,0.009585
charli,0.007301
chet,0.009958
children,0.007424
christma,0.006360
cir,0.008607
circuit,0.010184
citat,0.005375
cite,0.007550
claim,0.005480
classic,0.011929
clem,0.010858
clinton,0.006237
close,0.002415
code,0.003492
codifi,0.005927
colbert,0.008132
cold,0.004302
combin,0.005148
come,0.002581
comed,0.018865
comedi,0.020228
comfort,0.005734
comic,0.012627
comment,0.012971
commentari,0.010408
common,0.008731
commonli,0.002997
compon,0.003109
compos,0.006849
composit,0.014970
conceiv,0.004740
concept,0.002519
connect,0.002972
consid,0.006316
constitut,0.002850
construct,0.002795
consult,0.004168
contact,0.011364
contain,0.002589
contemporari,0.010594
contemporarytop,0.011758
context,0.019055
convent,0.006991
convers,0.003724
convey,0.005450
copyright,0.051046
counter,0.004881
countersong,0.011758
court,0.017121
coward,0.009006
cowardli,0.009432
cowboy,0.008646
coxcomb,0.011095
creat,0.013249
creation,0.003286
creator,0.005411
critic,0.013278
critiqu,0.004586
cultur,0.021716
current,0.004622
cycl,0.003700
dagel,0.011758
daili,0.004222
dan,0.005847
danc,0.005789
daniel,0.004490
dant,0.007546
date,0.003017
david,0.009621
dawson,0.008214
dead,0.004526
deal,0.008725
decid,0.003518
decis,0.006087
dee,0.016925
deepand,0.011758
defenc,0.004394
defens,0.003962
defin,0.009910
definit,0.008563
demonstr,0.003245
deni,0.008370
dentist,0.007983
dentith,0.023516
deriv,0.002745
design,0.002651
detect,0.003964
develop,0.001805
devic,0.004034
dialog,0.007119
dialogu,0.005040
dictat,0.005163
dictionari,0.013131
did,0.010719
didact,0.007959
diderot,0.007329
differ,0.005741
difficult,0.006297
dionysu,0.017371
direct,0.007192
disadvantag,0.005353
disast,0.004987
discuss,0.002945
disengag,0.007914
distinct,0.005561
distinguish,0.003205
doctrin,0.004329
doe,0.007328
don,0.005992
donaldson,0.008333
dont,0.005044
dr,0.013437
dragnet,0.009585
drama,0.018294
dress,0.011994
drink,0.005353
dryden,0.008396
dublin,0.006689
dull,0.007246
dunk,0.010658
earlier,0.009635
earliest,0.003633
eclips,0.005825
econom,0.002378
ed,0.015214
edit,0.003401
editori,0.006195
effect,0.012669
el,0.005226
eleg,0.006480
element,0.019350
elic,0.011095
eliot,0.014658
els,0.004476
emerson,0.007633
emot,0.004465
empow,0.006120
en,0.005341
enabl,0.003447
encyclopdi,0.007870
end,0.002376
english,0.021190
enterpris,0.004091
epic,0.011686
epistolari,0.009232
equipo,0.011095
era,0.003434
errant,0.009958
especi,0.002523
essay,0.004212
establish,0.002319
esti,0.011095
european,0.002707
event,0.008485
everi,0.002719
exampl,0.029199
excel,0.004702
exempt,0.005649
expect,0.005972
expens,0.003881
explain,0.002926
explan,0.003826
explicit,0.004746
express,0.002816
extend,0.008600
extens,0.002935
extern,0.001699
extra,0.004978
facilit,0.003918
fair,0.030815
familiar,0.004598
famou,0.007181
fan,0.006114
farm,0.004336
father,0.003821
fd,0.008214
felt,0.004588
fiction,0.009271
field,0.002373
film,0.070532
final,0.002811
fine,0.004646
finn,0.007688
firstev,0.007959
fisher,0.005734
flann,0.011384
flourish,0.004783
follow,0.007436
fool,0.014119
forgotten,0.006137
form,0.014212
formal,0.002908
formalist,0.008132
format,0.003170
formula,0.004058
fourth,0.004055
franchis,0.006275
francisco,0.005015
frankenstein,0.016111
fred,0.006028
french,0.006255
frequent,0.006534
friday,0.006724
frog,0.006621
fruit,0.004605
fun,0.037166
function,0.004759
game,0.007976
gate,0.005626
gaula,0.010658
gena,0.011758
gener,0.006680
genett,0.010332
genr,0.065857
gervaiss,0.011758
gibbonss,0.011758
girolamo,0.008497
glad,0.008187
gloomi,0.008769
glutton,0.009758
god,0.008135
gone,0.010315
good,0.002584
govern,0.002210
gower,0.016858
grail,0.008769
grard,0.007726
gray,0.005798
great,0.002619
greek,0.016456
gross,0.009088
grotesqu,0.008685
group,0.006289
grow,0.002980
grung,0.011095
guildenstern,0.022190
gun,0.005457
h,0.003228
ha,0.018597
habit,0.004927
half,0.003199
halfwit,0.011758
hamlet,0.007766
hand,0.002879
handl,0.004226
happen,0.003673
hargreav,0.008727
harri,0.004888
hat,0.006503
heedless,0.010485
hegemon,0.007766
heighten,0.006724
hell,0.006415
henri,0.011238
heracl,0.018229
heroturnedgod,0.011758
hi,0.018755
high,0.002353
hillari,0.008429
histor,0.010443
histori,0.001935
hitler,0.012667
holi,0.004921
hollywood,0.007480
holquist,0.020970
homer,0.006518
honor,0.004807
hood,0.022393
horizon,0.005665
hot,0.005118
houghton,0.007071
howev,0.003772
humor,0.050356
humour,0.007418
hutcheon,0.023516
hydeparodi,0.011758
idaho,0.008031
idea,0.005217
ideal,0.003781
identifi,0.005619
idiom,0.007448
ii,0.003041
ilan,0.008955
imagin,0.004646
imit,0.071480
includ,0.012907
inclus,0.004787
incongru,0.016319
incorpor,0.006383
inde,0.003951
inferno,0.008533
influenc,0.002559
inform,0.002310
infosoc,0.011758
infring,0.013940
ingredi,0.006103
inn,0.007464
innov,0.004025
insert,0.005391
inspir,0.007690
instead,0.002722
instruct,0.004375
intellectu,0.011961
intend,0.003597
intent,0.015645
intertextu,0.009059
interview,0.004805
introduc,0.002726
inventor,0.005751
invert,0.006281
involv,0.002253
ipo,0.007615
ireland,0.004857
irish,0.005512
iron,0.012487
ironi,0.007580
isbn,0.030223
issu,0.002494
j,0.002918
jame,0.003277
jekyl,0.009669
jennif,0.007037
jerri,0.006401
jess,0.007260
jesu,0.005693
jim,0.006143
jo,0.005530
john,0.007930
johnathan,0.009855
johnni,0.008243
jonathan,0.005434
jonson,0.009172
jorg,0.006896
josquin,0.010485
joyc,0.007315
jr,0.004936
juan,0.011443
judg,0.004291
juego,0.010858
juic,0.007315
justif,0.005430
k,0.003523
keaton,0.010071
kenneth,0.005215
keyboard,0.007651
kind,0.009287
king,0.014807
kingdom,0.009274
knight,0.005820
knock,0.007083
know,0.003521
known,0.007767
la,0.007757
lampoon,0.009114
land,0.002940
larg,0.004095
lassu,0.010485
later,0.002310
laugh,0.007670
launch,0.003913
laurel,0.016666
law,0.011704
lawsuit,0.006415
lear,0.008859
legal,0.003206
legisl,0.003557
lesson,0.005454
lewi,0.004877
liber,0.003503
life,0.004995
lift,0.010374
light,0.003203
like,0.002075
linda,0.012817
link,0.003379
liter,0.004468
literari,0.014618
literatur,0.013886
littl,0.002973
live,0.005024
lo,0.010658
london,0.006543
lost,0.003376
loui,0.004384
louis,0.015026
low,0.002977
lui,0.006049
lyric,0.007003
lytl,0.010658
maccool,0.011758
mad,0.006333
main,0.002459
major,0.002061
make,0.011854
man,0.003437
manag,0.002782
mani,0.007024
manner,0.003749
margaret,0.005677
margin,0.004258
mari,0.013466
marshal,0.005149
martin,0.008225
mass,0.003186
massachusett,0.005095
master,0.004146
materi,0.005445
mathi,0.010658
matrix,0.004877
mattson,0.011095
mean,0.021397
meant,0.003985
meanwhil,0.004698
media,0.003563
meet,0.003143
mel,0.016213
melodrama,0.009172
member,0.002478
men,0.003602
menac,0.007496
menard,0.009758
mention,0.003761
metaphor,0.005464
methuen,0.007786
mexico,0.004847
michael,0.007151
mid,0.003869
mifflin,0.007168
mikhail,0.006120
mimicri,0.007848
mind,0.003664
minim,0.004100
minor,0.003595
miser,0.007358
missa,0.010485
mixtur,0.004857
mla,0.008106
mock,0.021903
mockhero,0.011384
modern,0.016313
modernist,0.013919
modest,0.005673
monkey,0.006374
monti,0.026181
moralist,0.008462
motet,0.030215
movi,0.042511
mr,0.010447
mud,0.006789
mudarra,0.011758
murder,0.004934
music,0.055511
musicolog,0.009172
mythic,0.006473
nabokov,0.009006
nake,0.006201
nanett,0.022190
narr,0.005112
nation,0.002152
natur,0.002074
nazi,0.005417
nazti,0.011758
necessarili,0.007606
necessit,0.006256
neglect,0.005082
neoclass,0.005880
new,0.022561
news,0.008481
night,0.009531
nirvana,0.007580
nonantagonist,0.011758
note,0.004480
noth,0.004111
novel,0.030101
number,0.003887
o,0.004097
obrien,0.007766
observ,0.002564
occur,0.004937
octob,0.003359
odyssey,0.006846
offic,0.006254
ohara,0.008955
oid,0.009855
oj,0.009855
old,0.009644
older,0.008154
onc,0.002903
onion,0.007480
onli,0.005365
oppress,0.005730
oratorio,0.019710
ore,0.005566
origin,0.021531
outlast,0.018344
overrid,0.006779
owner,0.008789
oxford,0.025553
palestrina,0.010195
palin,0.010195
pamela,0.007580
pan,0.006422
paper,0.003205
par,0.005961
para,0.007260
parodi,0.915989
parodia,0.082307
parodist,0.034154
particular,0.002431
past,0.009246
pastich,0.053732
pastor,0.006137
patent,0.005184
pdf,0.004496
peculiar,0.006049
penguin,0.005843
perform,0.005462
perhap,0.007223
period,0.002308
permiss,0.016203
person,0.005084
perspect,0.006953
persuad,0.005614
petrokski,0.023516
petroski,0.011095
piec,0.004290
pierr,0.005001
place,0.002197
play,0.011220
playground,0.008055
pleas,0.005884
poem,0.028672
poet,0.016117
poetic,0.031251
poetri,0.005420
point,0.009014
poke,0.008813
polem,0.007418
polish,0.005249
polit,0.009754
pookah,0.011758
pop,0.006663
populac,0.006148
popular,0.008339
portray,0.005057
postmodern,0.018022
postmodernist,0.015266
practic,0.004767
pragmat,0.005430
pratt,0.015453
prdi,0.023516
predict,0.003259
press,0.013110
preval,0.009811
prez,0.007806
princip,0.003480
prior,0.006730
procedur,0.003879
produc,0.009272
product,0.002322
profess,0.004655
profession,0.003610
promin,0.006987
pronounc,0.005382
propalestinian,0.011095
properti,0.008092
propos,0.010995
prosodi,0.008727
protect,0.011877
proven,0.004705
provid,0.009883
pryde,0.011095
public,0.004487
publish,0.007418
pueo,0.011758
pull,0.005112
purpos,0.008694
puss,0.011758
pyckl,0.011758
python,0.021043
question,0.002797
questionthu,0.011758
quixot,0.018012
quotat,0.005917
quotidian,0.009506
rais,0.003286
randal,0.006948
rang,0.005348
rapper,0.010485
read,0.007362
reader,0.004818
reason,0.002535
rebellion,0.005044
receiv,0.002699
recent,0.009787
recommend,0.004165
recontextu,0.044381
record,0.002978
recreat,0.005457
reed,0.006715
refer,0.004238
reflejo,0.011758
refus,0.004123
regard,0.002710
region,0.002530
regist,0.004381
regul,0.003345
rel,0.002533
relat,0.003810
repeat,0.004078
report,0.005431
repres,0.004635
repris,0.007329
reput,0.014749
requir,0.002224
research,0.002292
respect,0.005374
retain,0.003715
reus,0.006480
revers,0.003890
review,0.009498
revolt,0.005144
reward,0.004888
rework,0.015195
rhetor,0.005470
richardson,0.006876
rick,0.007615
ricki,0.009758
rid,0.006817
ridicul,0.059669
right,0.002535
rigor,0.004757
ritz,0.010071
robin,0.012163
rock,0.008849
roll,0.010544
roman,0.003790
rose,0.004287
rosencrantz,0.022190
routledg,0.010070
rudolph,0.007633
rule,0.005158
rushdi,0.020143
russian,0.008273
s,0.010020
saddl,0.006827
samuel,0.005023
sanctifyin,0.011758
sand,0.011668
sangsu,0.011095
sarah,0.013578
sarcast,0.009006
satir,0.111604
saturday,0.014119
satyr,0.019338
save,0.004012
scari,0.010071
scarlett,0.010332
seattlebas,0.010858
second,0.006957
secret,0.004359
section,0.003501
seek,0.003170
seen,0.005544
select,0.003072
selfparodi,0.022769
sendup,0.032575
sens,0.014537
sensibl,0.006250
sentiment,0.005491
sequel,0.006938
seri,0.008444
set,0.008755
seuss,0.010071
sever,0.002050
shakespear,0.013897
shamela,0.011758
shane,0.008646
share,0.002753
sheep,0.005693
sheinberg,0.011758
short,0.009038
shostakovich,0.010195
shot,0.005495
shrek,0.010485
shriek,0.010485
signifi,0.011402
silk,0.005870
similar,0.002348
simon,0.009449
simpson,0.013177
sing,0.006510
sitcom,0.009232
skelet,0.006886
slam,0.008685
slave,0.004646
slightli,0.004262
social,0.010006
sociolinguist,0.008187
someth,0.011342
sometim,0.010239
somewhat,0.004168
somewher,0.006023
song,0.036506
soni,0.007806
sonni,0.009669
sought,0.003830
south,0.003079
southpaw,0.011758
spacebal,0.010485
spain,0.008357
spartan,0.008214
special,0.002459
spi,0.006680
spoof,0.062345
squar,0.004166
stage,0.010302
stan,0.007707
star,0.008722
start,0.002489
state,0.012044
stavan,0.011758
stella,0.008396
stephen,0.004368
steven,0.004954
stock,0.003793
stoog,0.009362
stori,0.011958
stricter,0.007107
style,0.032415
subcultur,0.007546
subject,0.012508
sublim,0.006866
subset,0.004932
suck,0.007480
suffici,0.007271
suggest,0.005505
sun,0.004362
suntrust,0.011095
superbad,0.011758
superhero,0.008569
supplant,0.006281
suprem,0.004027
sweeney,0.009855
swift,0.006549
swimtwobird,0.011758
t,0.006842
taken,0.005758
takeoff,0.008006
tale,0.011307
talk,0.004231
target,0.018307
targetbi,0.011758
taylor,0.004948
teach,0.003852
team,0.004106
technic,0.003497
techniqu,0.003022
teen,0.007480
televis,0.013297
teora,0.010332
term,0.007432
territori,0.003441
territorystyl,0.011758
texa,0.005551
text,0.020353
th,0.022548
thaso,0.009758
thcenturi,0.004534
theoret,0.003224
theori,0.006915
theorist,0.022916
therefor,0.002672
thi,0.010296
thing,0.003129
think,0.003410
thu,0.004597
tight,0.006002
time,0.001739
tirant,0.010858
tire,0.006927
told,0.009974
tone,0.005966
topic,0.003120
tract,0.005607
tradit,0.007428
tragedi,0.006613
tragic,0.007260
tran,0.006033
transform,0.006437
treat,0.003443
trend,0.003756
trial,0.008974
trip,0.005434
truchado,0.011758
turn,0.002718
tv,0.010874
twentiethcenturi,0.006798
twinkl,0.019710
twopart,0.007983
type,0.009457
ugli,0.007786
uk,0.010813
ultim,0.003401
ulyss,0.008132
una,0.008685
undercut,0.007563
underli,0.003734
underw,0.005705
underworld,0.016111
unintellig,0.007870
union,0.005844
unit,0.013884
univers,0.012220
unrel,0.005622
upheld,0.020660
usag,0.012373
usc,0.007496
use,0.033743
usual,0.004732
util,0.003557
utilis,0.006465
v,0.021038
valencia,0.008272
valentino,0.009669
valu,0.005040
vampir,0.007563
vancouv,0.007433
vast,0.003948
vers,0.011579
victoria,0.005781
victorian,0.006313
video,0.004328
view,0.002520
vile,0.009232
virgin,0.006023
virtu,0.004982
vladimir,0.005596
vocal,0.006143
voic,0.004687
wa,0.022573
war,0.002793
warhol,0.009758
wast,0.004717
watch,0.005013
way,0.008410
weapon,0.004366
webb,0.007387
weird,0.015532
wellknown,0.009232
western,0.011832
whitlow,0.011095
wikimedia,0.005481
wikinew,0.009506
wiktionari,0.007387
wildli,0.007651
william,0.003151
wind,0.009344
word,0.016378
wordsworth,0.008132
work,0.044340
workit,0.011758
world,0.001993
wrestl,0.014866
write,0.003074
writer,0.012107
wwe,0.011095
wwift,0.011758
x,0.003481
yankov,0.042634
ye,0.012550
year,0.001984
yearold,0.005730
york,0.015143
young,0.003651
younger,0.004885
youtub,0.006213
zone,0.012193
zucker,0.020143
