accord,0.013527
action,0.066488
andor,0.023673
arthur,0.027596
bear,0.025315
becaus,0.012279
befor,0.013931
better,0.018394
black,0.022014
boccaccio,0.053906
british,0.018213
brother,0.027354
case,0.013659
centuri,0.014028
charact,0.135456
character,0.041442
circumst,0.050194
cleve,0.053906
coin,0.022624
compel,0.034147
complex,0.015988
conscious,0.027834
consid,0.038229
content,0.021560
contributor,0.031964
creat,0.013365
creativ,0.028234
crime,0.027110
date,0.018262
deal,0.017603
deeper,0.032652
deliber,0.029250
delv,0.045572
deriv,0.016614
detect,0.023996
develop,0.010928
di,0.034007
dostoyevski,0.055880
drama,0.147636
dramat,0.024677
dynam,0.020486
earli,0.039474
edith,0.047250
effort,0.018219
elegia,0.067154
element,0.016731
embodi,0.030417
emot,0.054049
emphas,0.046176
employ,0.017450
encyclopedia,0.022657
enhanc,0.024366
exampl,0.011782
examplesedit,0.121921
explain,0.017709
extern,0.020573
far,0.017838
fayett,0.058524
featur,0.017791
fiammetta,0.071167
fiction,0.056117
flashback,0.053345
focus,0.018312
fragment,0.027667
french,0.018931
fyodor,0.051221
gener,0.010108
genji,0.060960
genr,0.332168
georg,0.020274
giovanni,0.038215
goe,0.025315
gothic,0.041994
greatest,0.024755
ha,0.009380
hamsun,0.061709
happen,0.022233
henri,0.022673
hi,0.012613
horror,0.241374
human,0.013553
hunger,0.038703
idea,0.031577
illustr,0.023989
incorpor,0.019317
inner,0.084836
interior,0.055212
intern,0.012327
interpret,0.018767
jame,0.019840
japan,0.023262
johnson,0.032144
karamazov,0.058017
knut,0.047900
la,0.023477
laureat,0.036422
linksedit,0.042944
literari,0.058986
literatur,0.042023
m,0.016819
macmillan,0.032126
madam,0.049386
madonna,0.056667
major,0.012476
man,0.020806
mcgrath,0.056667
mental,0.101787
miller,0.032829
mind,0.044353
modern,0.028210
modernist,0.042123
monologu,0.055166
motiv,0.045948
mysteri,0.062081
nobel,0.027374
notabl,0.036089
novel,0.390407
occas,0.029250
origin,0.026064
overlap,0.052273
palgrav,0.034912
pamela,0.045880
pan,0.038873
particular,0.014719
patrick,0.034053
play,0.016978
practic,0.014427
precursor,0.029377
preval,0.029690
primarili,0.018432
prime,0.021665
princess,0.039452
promin,0.021145
prose,0.038136
psycholog,0.574637
punish,0.029664
reader,0.029162
real,0.017750
realism,0.066728
red,0.023704
referencesedit,0.042123
reli,0.020607
richardson,0.041620
rise,0.017209
said,0.017571
samuel,0.030402
say,0.018528
sentiment,0.033237
similar,0.014212
slasher,0.063462
start,0.015066
state,0.031242
stendhal,0.065722
stori,0.024126
stream,0.028527
strongli,0.022940
subgenr,0.181495
subgenresedit,0.071167
suspens,0.036976
tale,0.034218
techniqu,0.036581
term,0.011246
text,0.020531
textual,0.037391
th,0.013647
thcenturi,0.027444
thi,0.008902
thriller,0.198208
trace,0.022822
uk,0.021816
unit,0.012004
valu,0.015254
victoria,0.034990
wa,0.019518
west,0.020436
wharton,0.051431
work,0.058341
world,0.012066
writer,0.024427
written,0.018844
