absent,0.021545
accept,0.011098
accord,0.008840
ace,0.028934
action,0.010862
adelbert,0.038599
age,0.011071
agre,0.013328
air,0.013580
alien,0.082866
alon,0.015118
alreadi,0.012879
american,0.010016
anderson,0.046080
andor,0.015470
andr,0.023075
angel,0.021200
ani,0.023373
anoth,0.008502
appli,0.009450
archaic,0.025347
arcturu,0.041472
argu,0.011760
aristocrat,0.024388
arthur,0.018033
assum,0.012247
attempt,0.010084
attitud,0.018148
author,0.009953
background,0.030365
bare,0.021775
becaus,0.032097
blur,0.024820
book,0.040524
broderick,0.040867
brook,0.023464
bulmer,0.043884
burrough,0.096821
c,0.030605
came,0.011672
camelot,0.042948
camp,0.019316
campbel,0.023905
carter,0.075632
case,0.026779
categori,0.027245
caus,0.009529
circumst,0.016400
civil,0.012247
claim,0.010837
clark,0.020671
class,0.035525
clearli,0.016053
close,0.009553
combin,0.020362
commonli,0.011857
compat,0.020485
consid,0.008327
consider,0.012000
contain,0.010243
contrast,0.012062
convent,0.027654
cosmolog,0.020876
creat,0.008734
creatur,0.021775
cultur,0.010736
dark,0.018465
david,0.012684
defin,0.009799
deliber,0.038229
depict,0.035623
describ,0.008789
devast,0.020274
die,0.041046
differ,0.007570
distinct,0.010997
distinguish,0.012677
doe,0.009661
downfal,0.027833
draw,0.014638
dure,0.008219
e,0.011571
earlier,0.012703
earliest,0.028739
earth,0.053987
earthli,0.027656
eddison,0.043884
edgar,0.050261
element,0.098404
encyclopedia,0.014806
especi,0.009982
event,0.011187
exampl,0.053896
excus,0.028505
exist,0.008548
explicitli,0.017501
explor,0.013098
f,0.012663
fairieswho,0.046507
fall,0.023470
fan,0.024185
fandom,0.037309
fantasi,0.681604
fantast,0.055848
far,0.023314
fiction,0.311717
fight,0.016131
film,0.034871
fletcher,0.030561
frame,0.017568
franchis,0.049641
free,0.010500
furi,0.032492
futur,0.011196
futurist,0.028454
gene,0.035674
genr,0.086827
georg,0.013249
good,0.010220
graphic,0.019773
group,0.008292
ha,0.006129
happen,0.014529
harold,0.022060
harrison,0.026256
heinlein,0.030639
henri,0.014817
hi,0.008242
histor,0.010326
horror,0.026289
howev,0.007460
hubbard,0.030410
illus,0.022697
illusionist,0.038979
illustr,0.015677
imit,0.043496
imposs,0.015544
improb,0.060821
includ,0.006381
incorpor,0.012623
instanc,0.012449
interplanetari,0.029587
interstellar,0.026669
invad,0.018386
jack,0.021734
jame,0.012965
john,0.052280
jr,0.019526
kenneth,0.020627
kline,0.033895
krull,0.038245
kuttner,0.040326
l,0.040590
label,0.016538
larg,0.008099
later,0.009140
lewi,0.038581
like,0.008209
lin,0.028878
lindsay,0.031391
lo,0.021078
m,0.010991
machineri,0.018952
mad,0.075154
magazin,0.053377
magic,0.085711
make,0.007814
mani,0.020838
mar,0.042059
max,0.056339
mechan,0.011348
miller,0.021453
mix,0.014781
moor,0.041478
movi,0.042036
myth,0.019625
nativ,0.015883
near,0.012635
neverexplain,0.046507
new,0.006864
nonration,0.039837
norman,0.021652
northwest,0.021018
norton,0.023947
novel,0.085042
number,0.007687
offer,0.011427
old,0.012715
omnipot,0.028990
oper,0.009694
oti,0.033473
outlet,0.024552
parallel,0.015923
paranorm,0.030485
partial,0.014136
peopl,0.008472
period,0.009131
permit,0.015652
philosoph,0.026977
planet,0.069743
planetari,0.044061
point,0.008914
possibl,0.017976
postapocalyps,0.046507
postapocalypt,0.035832
poul,0.071245
power,0.018036
pratt,0.030561
preoccup,0.028934
presenc,0.013325
primarili,0.012045
probabl,0.025289
protagonist,0.026634
pseudoscientif,0.029716
psionic,0.040867
publish,0.058685
pulp,0.027878
purist,0.034197
q,0.019735
queen,0.018494
r,0.011792
ration,0.030373
rationalist,0.025488
real,0.011599
realism,0.021803
refer,0.011177
regard,0.010722
rel,0.010020
relat,0.007535
reli,0.013466
repres,0.009167
rice,0.042156
road,0.016233
robert,0.012288
rod,0.024163
roddenberri,0.039390
romanc,0.077993
romant,0.023781
ron,0.027360
s,0.023779
sceneri,0.032381
scienc,0.310186
sciencefict,0.061755
scientif,0.022492
scope,0.016430
semifuturist,0.046507
sens,0.011499
seri,0.055668
serl,0.039837
set,0.017314
shannara,0.042948
shea,0.036050
silent,0.023165
simpli,0.012691
simultan,0.016299
sinc,0.007777
singl,0.010409
skeptic,0.020485
slave,0.018378
sleep,0.022133
smith,0.016479
social,0.019789
societi,0.009745
sometim,0.020250
specul,0.032364
spirit,0.017574
spragu,0.035227
stand,0.014617
star,0.051747
stark,0.026256
startl,0.031128
steampunk,0.076490
stori,0.173432
subgenr,0.118606
subject,0.009894
sun,0.017254
supernatur,0.045198
supernaturalfantasi,0.046507
sword,0.050977
tale,0.022361
techniqu,0.011952
technolog,0.011214
terri,0.026289
theme,0.017226
themselv,0.011537
theolog,0.018960
thi,0.034906
thing,0.024752
thunderdom,0.046507
togeth,0.010725
tradit,0.019588
travel,0.013733
trek,0.084190
trope,0.032168
type,0.028054
umbrella,0.023165
univers,0.008055
unknown,0.016103
use,0.031777
usual,0.018720
vagu,0.023004
vanc,0.034197
veneer,0.034518
versu,0.018155
view,0.009968
viriconium,0.043884
voyag,0.021275
w,0.013050
wa,0.019132
way,0.008316
weird,0.030717
wholli,0.022632
wide,0.010017
witch,0.028063
wolf,0.023822
work,0.022875
world,0.047313
writer,0.015963
