abel,0.019186
abl,0.007697
absolut,0.010336
abund,0.012358
acquaint,0.017835
act,0.006965
adair,0.023910
adapt,0.029112
addit,0.012330
adult,0.011930
affair,0.020152
aforethought,0.032059
agatha,0.099404
age,0.022895
ala,0.020225
alfr,0.012487
alison,0.021120
alway,0.008194
amateur,0.033283
american,0.020713
amus,0.019945
anna,0.017397
anoth,0.011722
anthoni,0.028782
apotheosi,0.027461
appar,0.010403
appear,0.014117
appl,0.015870
arc,0.016379
archetyp,0.017856
arnold,0.015490
arriv,0.009810
attempt,0.013902
attribut,0.009473
audienc,0.041265
august,0.009260
austin,0.017531
author,0.027445
aveng,0.021964
aw,0.022805
b,0.008071
basi,0.007590
beal,0.023794
beaten,0.018749
becam,0.013433
becaus,0.005531
becom,0.011764
befor,0.025102
belong,0.010382
ben,0.015715
bentley,0.043034
berkeley,0.043053
berni,0.024700
best,0.008098
bestknown,0.032038
better,0.008286
big,0.011126
bigger,0.016493
blake,0.042798
blind,0.015039
block,0.021892
blur,0.017109
board,0.010600
bodi,0.007373
book,0.020951
borderlin,0.020715
born,0.010380
box,0.013775
brand,0.029704
break,0.010128
brett,0.044644
british,0.041022
bumbl,0.029060
burglar,0.077762
c,0.021097
candl,0.019410
card,0.013983
carlo,0.014004
carr,0.056752
case,0.049227
cast,0.012501
celebr,0.012684
centuri,0.006319
certain,0.020207
chanc,0.023694
chandler,0.040046
chang,0.005548
charact,0.040679
chesterton,0.024851
chocol,0.020225
christi,0.088412
christianna,0.064118
church,0.011119
claim,0.007470
classic,0.024394
clayton,0.021285
clich,0.023682
climax,0.019034
clue,0.073244
coffin,0.042915
coin,0.010191
collinss,0.027798
colloqui,0.017127
columbo,0.032059
command,0.010326
commit,0.010316
commun,0.006436
compil,0.012698
complex,0.014405
conan,0.023265
conclus,0.010967
conduct,0.008436
conjunct,0.013755
consid,0.005740
construct,0.007622
convent,0.028594
convention,0.023074
countri,0.025911
cours,0.008579
cozier,0.032059
craven,0.026135
crime,0.109915
crimemysteri,0.032059
crimin,0.024936
crispin,0.048061
cure,0.015097
current,0.006301
danger,0.011562
dashiel,0.028171
date,0.008226
dead,0.037021
death,0.043105
deduc,0.014700
deduct,0.014242
deliber,0.013176
derr,0.029060
describ,0.006058
detect,0.118907
develop,0.004922
diamond,0.014944
dickson,0.065492
did,0.007307
differ,0.005218
difficult,0.008585
dilaurenti,0.032059
dine,0.041150
dinner,0.039230
direct,0.006536
disquisit,0.028171
dobynss,0.032059
dorothi,0.039663
doyl,0.021702
dr,0.012212
drama,0.033253
drink,0.014597
dure,0.005666
e,0.023929
earl,0.017921
earli,0.005927
earliest,0.029716
eastend,0.030251
eccentr,0.019650
edit,0.018550
editor,0.012615
edmund,0.030156
effort,0.008207
elleri,0.048567
elton,0.020715
emilio,0.020912
emmerdal,0.032059
end,0.019438
engag,0.009384
english,0.016507
englishstyl,0.064118
enter,0.008663
epitom,0.019545
especi,0.006881
ethel,0.023365
etymolog,0.012615
eventu,0.008423
everyth,0.011800
evolut,0.009622
exagger,0.016522
exampl,0.031845
excel,0.012820
expans,0.009999
experi,0.007287
expos,0.011870
express,0.007678
fact,0.007524
falcon,0.020575
fals,0.012019
familiar,0.012538
famou,0.009790
featur,0.040073
fell,0.011445
fiction,0.113759
field,0.006471
film,0.120191
final,0.015330
fit,0.010789
flourish,0.013042
follow,0.010138
footstep,0.022174
form,0.004843
franci,0.012135
francisco,0.013675
freeform,0.025345
freeman,0.015858
friedman,0.016379
frighten,0.019650
g,0.008572
gadda,0.032059
game,0.010874
gaston,0.020812
gather,0.011047
genr,0.044890
geopolit,0.017341
gideon,0.022892
gilbert,0.015156
girl,0.015646
given,0.019067
gladi,0.026363
golden,0.038522
gosford,0.032059
greek,0.008973
green,0.043592
greenwood,0.017751
grittier,0.031041
guest,0.016733
guilti,0.017007
ha,0.016902
half,0.008722
hammett,0.025527
hardboil,0.025527
headlin,0.019721
health,0.008834
help,0.006937
hercul,0.041724
hi,0.045455
highblown,0.032059
highsmith,0.029606
histor,0.007118
histori,0.005278
hitchcock,0.071732
hollow,0.018191
holm,0.036018
homag,0.020912
homicid,0.065297
horror,0.018122
hound,0.023467
hous,0.042504
howcatchem,0.064118
howdunnit,0.032059
howev,0.005143
human,0.006105
humor,0.017162
hundr,0.009628
hunt,0.012789
idea,0.007112
ident,0.027221
ile,0.023682
iless,0.032059
im,0.016749
imit,0.014991
immedi,0.018630
import,0.010809
impot,0.022636
includ,0.013197
initi,0.006885
inn,0.020352
innoc,0.033498
innumer,0.020352
inspect,0.015833
inspector,0.019034
intent,0.010664
introduc,0.007433
invert,0.051381
investig,0.053278
john,0.028831
jongnam,0.059212
josephin,0.049112
journalist,0.014916
just,0.007389
justic,0.010709
k,0.009607
katharin,0.023794
kaufman,0.022174
kill,0.031382
killer,0.057283
kim,0.035421
kind,0.008440
king,0.010093
kinki,0.028171
knew,0.014925
know,0.009601
knox,0.043278
l,0.018653
ladi,0.016876
larg,0.005583
law,0.006382
lawrenc,0.028347
leagu,0.012999
learn,0.008899
left,0.008445
length,0.010511
leroux,0.026135
liar,0.021577
librari,0.039813
life,0.006810
limit,0.006470
lina,0.026607
list,0.011781
littl,0.008108
live,0.006850
lock,0.013721
lockedroom,0.096177
logic,0.010253
long,0.006878
longer,0.008737
longrun,0.017250
lord,0.012538
luci,0.020267
lumet,0.032059
mad,0.017268
magazin,0.024530
mainli,0.008794
mainstream,0.012856
malic,0.022805
maltes,0.021830
man,0.009373
manderson,0.090754
mani,0.014364
meal,0.018053
men,0.009823
merulana,0.032059
mess,0.023365
michael,0.009749
mickey,0.024556
miln,0.023365
milo,0.023265
mislead,0.016019
mitchel,0.017751
mock,0.019907
mode,0.011926
moonston,0.029060
movi,0.028977
murder,0.215264
murgatroyd,0.032059
mysteri,0.321613
nearli,0.009226
necessarili,0.010369
neil,0.016828
nero,0.022720
nichola,0.028499
night,0.012993
notabl,0.016257
noth,0.011209
notic,0.012023
novel,0.105521
number,0.010599
occur,0.006730
offer,0.007877
onli,0.004876
open,0.007252
openli,0.016044
opportun,0.010006
order,0.005837
orient,0.011038
origin,0.017612
overview,0.010614
p,0.008086
paid,0.010801
park,0.012381
parodi,0.097557
parti,0.016372
pastich,0.048834
patricia,0.018262
pay,0.009889
peopl,0.005840
perform,0.014894
period,0.012588
perpetr,0.018588
perrier,0.026870
peter,0.009659
philip,0.013020
philosoph,0.009298
phin,0.028171
play,0.022945
plot,0.025966
plotdriven,0.029606
poirot,0.056342
poison,0.014806
pooh,0.026870
popular,0.007578
preciou,0.015943
predecessor,0.013245
predilect,0.025008
predomin,0.013857
premis,0.014249
prepackag,0.028171
present,0.018221
pretti,0.019758
prevent,0.008684
pride,0.016718
privat,0.008710
process,0.005742
profession,0.009843
protagonist,0.018359
provid,0.010779
pseudonym,0.019685
psycholog,0.010354
publish,0.006742
queen,0.025497
quickli,0.009887
quintessenti,0.023682
r,0.008128
rawson,0.025173
raymond,0.015833
reach,0.007829
reaction,0.009878
reader,0.052547
readeraudi,0.031041
real,0.023988
reason,0.006914
recent,0.006671
recip,0.039589
red,0.010678
reduc,0.007298
refer,0.011557
regard,0.014782
relat,0.005194
rememb,0.014143
replet,0.024283
return,0.007796
reveal,0.020267
revel,0.030893
revers,0.010606
revolv,0.015703
rex,0.041058
rhodenbarr,0.064118
ridley,0.021765
road,0.011190
roger,0.012919
role,0.013497
ronald,0.013761
room,0.024992
rosewood,0.027798
s,0.021856
sail,0.014571
sam,0.034219
san,0.012234
say,0.008346
sayer,0.026135
sayerss,0.031041
scream,0.021896
seal,0.014447
seclud,0.023168
second,0.006322
seemingli,0.015117
selfabas,0.032059
semiprofession,0.027798
sendup,0.059212
seri,0.015349
serial,0.034908
seriou,0.010792
set,0.017903
sever,0.016768
shall,0.028125
shear,0.018099
shell,0.012966
shelv,0.020143
sherlock,0.045785
shill,0.021341
shock,0.013170
shoot,0.016337
short,0.016428
shortli,0.011990
shot,0.014982
sick,0.015127
sidekick,0.027461
sidney,0.018562
sign,0.008827
sigsbe,0.032059
silverman,0.022982
sime,0.026607
similar,0.006402
similarli,0.010157
simon,0.038646
sinc,0.005361
sit,0.014173
sladek,0.029060
sleep,0.015257
sleuth,0.031041
smile,0.018510
snow,0.016611
socal,0.010818
solut,0.009173
solv,0.039470
sort,0.011245
spade,0.024154
spillan,0.030251
spin,0.014870
spirit,0.012114
spoof,0.145702
standard,0.007221
start,0.006786
steal,0.017690
stephen,0.011910
stoppard,0.029606
stori,0.141290
storylin,0.021830
stout,0.047821
street,0.012234
structur,0.006264
style,0.055237
subgenr,0.020439
subject,0.006820
success,0.007110
successor,0.012043
suddenli,0.015906
surpris,0.014099
suspect,0.085965
suspens,0.016656
suspicion,0.017232
sweet,0.016702
televis,0.012085
tell,0.024153
term,0.005066
tey,0.064118
thackeri,0.032059
theater,0.017323
theatr,0.015146
therefor,0.007287
thi,0.032082
thou,0.020484
thousand,0.009455
time,0.014231
titl,0.028872
tom,0.029418
tongueincheek,0.025008
touch,0.014151
town,0.011010
toyshop,0.032059
track,0.011862
tradit,0.013503
trent,0.151476
true,0.008681
truth,0.022815
turn,0.022237
tv,0.014824
typic,0.007193
unassail,0.026135
univers,0.005553
unlik,0.008928
unnatur,0.019124
unusu,0.012999
use,0.008762
usual,0.025808
valuabl,0.012586
van,0.023456
vanish,0.015727
variat,0.010050
varieti,0.024151
vein,0.015968
veri,0.012246
victim,0.028814
video,0.011800
viewer,0.018804
villain,0.020812
violenc,0.012769
visvi,0.022174
wa,0.026377
way,0.005732
weekend,0.019869
wheel,0.016148
white,0.010179
whodunit,0.591599
whodunnit,0.058121
wide,0.006905
wilki,0.026135
wimsey,0.031041
winni,0.027153
wolf,0.032843
word,0.022327
work,0.010512
write,0.025149
writer,0.033012
written,0.016977
wrong,0.012610
yellow,0.015058
young,0.019911
