abl,0.011478
aboard,0.080071
accid,0.010953
accord,0.004543
account,0.005351
acquir,0.014800
act,0.015578
action,0.011165
activ,0.004533
actor,0.020947
ad,0.005798
adapt,0.007234
adher,0.018381
admir,0.032296
ai,0.011413
alien,0.212942
allow,0.013554
allud,0.013878
alon,0.007769
american,0.005147
analys,0.008882
analysi,0.010953
android,0.073518
ani,0.012012
antagonist,0.013219
antihuman,0.018767
antinothuman,0.023901
anxiou,0.014841
appar,0.031025
appear,0.005262
argu,0.012088
arrang,0.007407
arriv,0.014627
ash,0.687424
asimov,0.015110
assault,0.023296
assert,0.007805
assum,0.006294
attach,0.008601
attempt,0.015547
audienc,0.071787
audio,0.011924
awar,0.008220
becam,0.005007
becaus,0.008248
befor,0.018715
begin,0.010683
behaviour,0.008446
believ,0.011332
benevol,0.013616
berserk,0.022073
bishop,0.011212
board,0.007903
bodi,0.016492
book,0.005206
booker,0.017826
brandywin,0.019837
break,0.030206
bring,0.006810
broadcast,0.010629
brought,0.013506
byer,0.017656
canist,0.039311
captain,0.011073
captur,0.007533
care,0.013786
carri,0.005915
cat,0.023279
cattl,0.010747
caus,0.009794
central,0.005143
centuri,0.004711
chanc,0.008832
chang,0.008273
charact,0.075823
character,0.013918
check,0.009512
chestburst,0.022554
choic,0.007209
claim,0.005569
clear,0.006829
clumsi,0.016479
collat,0.016180
collect,0.005352
come,0.010496
comfort,0.011656
commentari,0.021157
commit,0.007691
commod,0.008906
compani,0.028972
compass,0.035469
competitor,0.011367
compli,0.012099
comput,0.018242
concern,0.010304
confid,0.009387
connect,0.006042
conscienc,0.013426
consid,0.008559
context,0.006455
continu,0.013339
contract,0.007361
contrast,0.006199
control,0.004875
convey,0.011080
convinc,0.009769
corpor,0.072002
correct,0.007390
count,0.008369
counterrevisionist,0.023901
crash,0.010914
creatur,0.078339
crew,0.207732
crewman,0.020725
crewmat,0.022554
crewmen,0.018204
crux,0.018415
cycl,0.007523
dalla,0.015786
dan,0.011887
danger,0.008620
david,0.006519
day,0.005538
dead,0.009200
death,0.006427
decapit,0.017420
degre,0.012020
delet,0.013143
deliv,0.008650
delus,0.014521
demonstr,0.006596
depart,0.006434
depict,0.009154
describ,0.004517
destroy,0.015348
detect,0.008059
determin,0.005096
develop,0.007340
diari,0.013725
did,0.010895
die,0.007031
differ,0.007781
direct,0.004873
disagre,0.021101
disclos,0.012821
discov,0.025851
discuss,0.005988
disobey,0.016877
displaystyl,0.033626
disput,0.007381
distinct,0.005652
distract,0.013173
distress,0.024361
divers,0.007058
doctor,0.008758
doe,0.014897
drama,0.012396
drift,0.033945
driven,0.008543
dvd,0.014598
earlier,0.013057
earth,0.013873
easi,0.008973
echo,0.036923
electrocut,0.019174
embryo,0.012243
emit,0.011059
emot,0.009076
emul,0.012667
encount,0.008702
end,0.004830
ensur,0.021776
enter,0.006459
entiti,0.007496
equival,0.007117
era,0.006980
escap,0.017741
eventu,0.006279
evidenc,0.012441
evil,0.010747
exactli,0.008655
exampl,0.003957
exist,0.008787
expend,0.042442
experi,0.005433
explan,0.007777
explicitli,0.026984
express,0.005724
extent,0.007270
extraterrestri,0.013781
facehugg,0.045108
fact,0.033659
fail,0.006643
failur,0.007687
fair,0.008948
far,0.011982
fellow,0.009989
femal,0.017741
fiction,0.028271
fight,0.008290
film,0.125454
filmmak,0.015305
final,0.005714
flamethrow,0.019485
focus,0.006150
follow,0.011338
forc,0.009471
forfeitur,0.036831
form,0.010834
fox,0.012170
frighten,0.014650
functionari,0.016877
futil,0.014398
gallardo,0.021666
gerard,0.013917
giler,0.045108
goddamn,0.022554
got,0.010658
great,0.005324
greater,0.005950
greatli,0.007737
greimasian,0.047803
group,0.004261
h,0.006563
ha,0.015751
hadnt,0.017345
hand,0.005854
harsh,0.011241
head,0.030496
heed,0.016276
hero,0.011205
hi,0.076252
highpitch,0.019655
hill,0.018796
hindsight,0.016133
hit,0.009781
holm,0.026853
homosexu,0.013670
hoop,0.017656
hope,0.016088
hostil,0.019597
howev,0.023006
human,0.072830
hyperdyn,0.023901
hypersleep,0.022073
ian,0.011665
idea,0.010605
ideal,0.007687
imag,0.007274
imagin,0.009445
impregn,0.016180
incid,0.009348
inciner,0.018307
incur,0.011330
inde,0.016066
ineffici,0.010940
infect,0.021446
infest,0.031738
inform,0.004697
inher,0.009054
inhuman,0.015374
insan,0.014572
insid,0.007924
instal,0.009323
instruct,0.008894
intellig,0.014743
intercept,0.013762
intercours,0.015746
interpret,0.012606
interven,0.010152
intim,0.011823
invas,0.008615
investig,0.013240
involv,0.004580
irrelev,0.011734
jame,0.006663
journey,0.010979
just,0.005508
kane,0.109405
kavanagh,0.019837
kaveney,0.069428
keith,0.011887
kill,0.054594
kind,0.006293
know,0.007158
knowledg,0.005942
known,0.003947
lack,0.012046
lambert,0.027916
land,0.005978
larg,0.004162
larger,0.006234
later,0.018790
law,0.004758
learn,0.013270
left,0.018889
life,0.020310
lifeform,0.015142
like,0.016875
live,0.010214
log,0.011066
logic,0.007644
long,0.005128
look,0.006521
loughlin,0.047803
loyal,0.024079
loyalti,0.011445
lv,0.054613
m,0.005648
machin,0.007626
mad,0.025749
magazin,0.036577
main,0.005000
mainfram,0.015554
make,0.004016
malfunct,0.014676
man,0.006988
mandat,0.009840
mari,0.009124
marion,0.062517
marvel,0.014423
match,0.008399
materi,0.005534
member,0.040314
menac,0.045717
messag,0.019630
metaphor,0.022214
midwif,0.017575
mirzoeff,0.023901
mislead,0.011943
mission,0.015750
mistak,0.021740
mode,0.008891
monitor,0.008541
monster,0.014104
moral,0.007901
moreov,0.009060
mother,0.009102
motion,0.007969
movi,0.010802
muse,0.014598
narcissu,0.080133
natur,0.012649
nichola,0.010624
nois,0.011263
nonetheless,0.009879
nonfunct,0.016816
nonhuman,0.012119
nostromo,0.115952
note,0.013660
nothuman,0.023901
notion,0.014944
number,0.003951
obannon,0.021314
observ,0.026063
occur,0.010035
offic,0.025428
onc,0.005901
onli,0.010906
order,0.026114
organ,0.017232
origin,0.008753
ostens,0.012795
overlin,0.034993
parker,0.042121
parti,0.018310
particularli,0.005538
pass,0.006135
pay,0.007373
penalti,0.011814
penetr,0.010550
perfect,0.026472
perform,0.005552
person,0.005168
phallic,0.017740
phallu,0.020033
pharr,0.071705
pilot,0.011699
pitch,0.013494
pivot,0.011769
place,0.008933
plan,0.017943
play,0.011404
plot,0.019359
pod,0.016180
point,0.027488
pornograph,0.056303
pornographi,0.032360
portray,0.010280
possibl,0.004619
power,0.004634
preisaac,0.023901
prepar,0.007345
present,0.009056
previous,0.006904
prior,0.006840
prissi,0.023901
probabl,0.006498
prod,0.015786
product,0.009440
profit,0.007824
program,0.034182
proper,0.008125
properti,0.005483
protocol,0.030721
provid,0.004018
puriti,0.012821
purportedli,0.015409
purpos,0.005891
qualifi,0.009523
quarantin,0.032853
question,0.005687
quiet,0.013265
rank,0.007646
rape,0.013443
reaction,0.007365
reactiv,0.010820
real,0.005961
realiz,0.008031
reason,0.005155
recapitul,0.017656
receiv,0.005487
recov,0.008841
rectangl,0.015272
refer,0.002872
reflect,0.006172
regard,0.005510
regul,0.013599
regular,0.007868
reinterpret,0.013297
relat,0.011618
releas,0.007178
remain,0.004750
remors,0.018767
replac,0.005853
replica,0.015048
reproduct,0.009756
requir,0.004521
rerout,0.018415
rescu,0.045593
rest,0.013458
result,0.004000
retrospect,0.012643
return,0.011626
reveal,0.045331
revel,0.046065
revert,0.012570
ridley,0.016227
right,0.005154
ripley,0.376243
robot,0.053235
role,0.005031
rolledup,0.023901
roz,0.021666
ruin,0.011421
rule,0.005243
s,0.032589
sacrif,0.028702
sake,0.012000
say,0.006222
scan,0.011468
scene,0.072426
scheld,0.022073
scheme,0.008644
scienc,0.019323
scientif,0.005779
scientist,0.006568
scott,0.010629
script,0.011322
search,0.014703
second,0.004714
secret,0.017724
secretli,0.013839
seegson,0.023901
seemingli,0.011270
seen,0.011271
self,0.009870
semant,0.010647
sens,0.011820
sent,0.007961
sentient,0.027376
sequel,0.014104
serv,0.005717
sever,0.004167
sex,0.009945
sexual,0.056630
shadow,0.011191
share,0.011194
ship,0.057048
shock,0.019639
shown,0.006926
shuttl,0.041935
sign,0.026326
signal,0.016529
signifi,0.034769
simpli,0.019568
smith,0.008469
snatcher,0.060733
soon,0.007330
sooner,0.014304
space,0.006163
spaceship,0.031335
specifi,0.008127
specimen,0.024792
spent,0.008835
squeal,0.020725
stage,0.006980
start,0.005060
state,0.020986
stereotyp,0.013129
stranger,0.014019
struck,0.011367
structur,0.014011
subtli,0.015954
success,0.010602
suggest,0.011192
suicid,0.011460
suppos,0.017567
supposedli,0.012201
surpris,0.021023
surviv,0.020683
survivor,0.024837
suspici,0.013651
sweat,0.014471
symbol,0.007257
sympathi,0.013099
tell,0.009004
termin,0.009366
th,0.004583
thedu,0.023901
theretofor,0.047803
thi,0.014949
thirtyseven,0.017916
thompson,0.083081
threaten,0.009089
throat,0.014375
time,0.014147
total,0.011155
traitor,0.016276
transport,0.006852
treat,0.006999
true,0.006472
truth,0.008505
turn,0.011052
twenti,0.009832
twice,0.009527
uk,0.007327
uncloud,0.021666
undecipher,0.020033
underton,0.036209
unknown,0.008276
unmask,0.018415
unpleas,0.014281
unplug,0.020725
unsuccess,0.010280
upload,0.015444
use,0.006532
valu,0.005123
veri,0.004565
vessel,0.009732
victim,0.021482
view,0.015370
viewpoint,0.010522
violat,0.008844
violenc,0.009520
viru,0.012180
voic,0.009527
wa,0.042609
walter,0.009535
warn,0.019224
way,0.012822
welfar,0.018414
weylandyutani,0.090217
wholesal,0.012441
wholli,0.011631
willing,0.012211
wipe,0.012943
women,0.007607
word,0.016646
work,0.003918
wors,0.010992
worth,0.009051
wring,0.021314
written,0.006328
xenomorph,0.046285
year,0.012102
