aaron,0.017724
abil,0.002676
aboard,0.028566
abraham,0.004568
abu,0.005292
accept,0.004884
acclaim,0.023472
accompani,0.003760
accord,0.003890
accur,0.003313
achingli,0.009907
acknowledg,0.003750
act,0.006669
action,0.002390
activ,0.001940
actress,0.013660
actual,0.004978
ad,0.004964
adam,0.003947
adama,0.080899
addict,0.006038
addit,0.001967
address,0.002929
admir,0.004608
admit,0.004101
advanc,0.007207
adventur,0.004879
advertis,0.004570
africa,0.003158
aftermath,0.004847
agathon,0.017745
agenda,0.004531
agent,0.006632
ago,0.003769
aid,0.005836
air,0.065736
al,0.010009
alan,0.008247
album,0.006341
alessandro,0.005941
alex,0.005741
alien,0.004558
allegor,0.013048
allegori,0.024616
alli,0.007185
allianc,0.003637
allmovi,0.008414
alltim,0.006538
allus,0.006482
alon,0.003326
alston,0.007793
alway,0.005231
amazon,0.005565
ambigu,0.004570
america,0.016356
american,0.008815
amor,0.006849
analog,0.006951
analyz,0.003269
anastasia,0.009124
anchor,0.005292
ancient,0.016909
ander,0.018060
angel,0.013993
angl,0.004390
angri,0.006114
ani,0.017142
animos,0.006776
annihil,0.005517
announc,0.013065
anoth,0.007483
antagonist,0.005659
antimasculin,0.010232
anybodi,0.006164
anyth,0.003844
apocalypt,0.006812
apollo,0.012170
appar,0.003320
appear,0.006758
appl,0.005065
approv,0.003341
approxim,0.002650
april,0.023805
archaic,0.005577
arent,0.006114
arguabl,0.004740
arm,0.006202
armament,0.006038
armenian,0.005916
arriv,0.006262
articl,0.009247
artifact,0.004608
aspect,0.010225
assassin,0.004603
assist,0.008700
associ,0.001900
astonish,0.006318
atheist,0.005306
athena,0.014155
athlet,0.005620
atmospher,0.003810
attack,0.021952
attempt,0.004437
attend,0.003711
attract,0.003129
audaci,0.007307
audienc,0.004390
audio,0.010210
august,0.005911
australia,0.010142
australian,0.008090
author,0.002190
avail,0.021399
avoid,0.014526
award,0.010287
awardwin,0.007101
away,0.002963
b,0.002576
backdoor,0.008208
ballet,0.007225
baltar,0.066149
bamber,0.009449
bansuri,0.010232
base,0.003389
basestar,0.019815
basi,0.004845
basic,0.002359
battlestar,0.332599
battlestarwiki,0.010232
bay,0.004392
bear,0.003640
beauti,0.008912
becam,0.006431
becaus,0.005296
becom,0.005632
befor,0.012018
began,0.023419
begin,0.009147
begun,0.003729
behindthescen,0.008208
belief,0.009418
believ,0.009703
benedict,0.018006
benevol,0.005829
bennett,0.006029
bernhard,0.006114
best,0.033605
bestwritten,0.010232
better,0.005289
bianco,0.008765
bier,0.009275
billi,0.013517
billion,0.003331
bizarr,0.006691
bleed,0.006272
blend,0.004916
blood,0.007638
blow,0.004968
bluray,0.015340
bodi,0.002353
bold,0.005762
bomb,0.013322
bomber,0.017651
book,0.002229
boomer,0.015419
bore,0.005264
boston,0.008648
bostoncom,0.009655
boulevard,0.008089
box,0.013190
brass,0.006318
brave,0.006124
break,0.003232
breast,0.005755
breed,0.004703
brendan,0.007032
brilliant,0.005806
british,0.002618
broad,0.003150
broadcast,0.050058
brother,0.003933
brought,0.005782
brutal,0.005113
bsg,0.048279
buff,0.008576
bullet,0.005799
burn,0.004020
bush,0.004837
c,0.002244
cabl,0.005113
cag,0.008991
cain,0.006830
cairn,0.006887
calli,0.019311
callsign,0.023252
callum,0.009655
came,0.005136
camera,0.005077
campbel,0.005259
canada,0.006728
canadian,0.011961
cancer,0.004320
capit,0.002554
caprica,0.079262
caprican,0.020465
capt,0.007490
captain,0.009481
captur,0.003225
carro,0.009655
cast,0.027931
castrat,0.007395
cathol,0.003792
caus,0.002096
cavil,0.039631
cell,0.006756
central,0.002202
centurion,0.032835
certain,0.006450
certainli,0.004483
challeng,0.005612
chang,0.001771
channel,0.042653
charact,0.048691
characterist,0.002707
charg,0.003031
charli,0.006354
chavesjacobsen,0.010232
chicago,0.011485
chief,0.003271
children,0.006461
chines,0.006753
choic,0.003086
choir,0.007307
choreographi,0.008034
christian,0.003044
chrome,0.015118
chronicl,0.034633
church,0.003549
cic,0.016417
cigar,0.007490
cite,0.006571
citi,0.005425
civil,0.018862
civilian,0.012251
civilliberti,0.009655
claim,0.002384
clamor,0.008666
clarion,0.008666
class,0.002605
classic,0.005190
cling,0.006552
clip,0.005891
clue,0.005844
clyne,0.009275
coalit,0.003806
cocacola,0.007173
collect,0.002291
colonel,0.005376
coloni,0.068216
colonist,0.016113
columbia,0.004369
combin,0.002240
combust,0.005428
come,0.008987
command,0.026368
comment,0.015051
commentari,0.027173
commiss,0.003127
commission,0.004831
commun,0.002054
compat,0.004507
compel,0.004909
compet,0.003239
competit,0.003089
complet,0.004339
complex,0.009195
complic,0.003560
compon,0.002705
compos,0.011922
compris,0.012855
comput,0.002603
comrad,0.007101
concept,0.004385
concert,0.005297
conclud,0.003213
conduct,0.002692
confirm,0.006774
conflict,0.011704
confound,0.006104
confus,0.007072
conoy,0.009907
consensu,0.003919
consequ,0.002671
consid,0.003664
consist,0.006308
consol,0.006249
constantli,0.004379
constel,0.005916
contain,0.011269
contemporari,0.003073
content,0.003100
continu,0.007614
contradictori,0.005547
contrari,0.004108
contrast,0.002654
controversi,0.009288
cool,0.008802
coomaraswami,0.008991
correspond,0.002852
corridor,0.005916
costanza,0.008089
costar,0.008991
costum,0.006468
cottl,0.008872
cours,0.005476
cow,0.005417
crack,0.005228
crackdown,0.012683
craig,0.005571
crappi,0.010232
crashdown,0.010232
creat,0.009608
creation,0.005719
creativ,0.004059
credit,0.009121
crew,0.009881
crisi,0.003242
critic,0.023110
critiqu,0.003991
cult,0.010267
cultur,0.002362
curios,0.005614
current,0.004022
curvebal,0.010232
custom,0.003176
cybernet,0.011228
cyborg,0.006947
cycl,0.003220
cylon,0.477307
cylonoccupi,0.010232
d,0.012717
daddi,0.008666
damn,0.013448
dancer,0.006906
danna,0.009449
dare,0.006094
dark,0.004062
darker,0.013105
darkest,0.008492
databas,0.003675
date,0.010503
david,0.011163
day,0.014225
dead,0.003938
deadwood,0.009124
deal,0.005062
dean,0.005121
death,0.002751
debat,0.002925
debut,0.006249
decad,0.002856
deceiv,0.005984
decemb,0.023065
decenc,0.007670
decent,0.006455
decid,0.003061
decis,0.007946
deck,0.006812
declar,0.006069
declin,0.002983
dedic,0.003774
deep,0.006995
definit,0.002484
degre,0.002572
deiti,0.005027
delay,0.008025
delet,0.028135
deliv,0.003703
delphi,0.007251
delv,0.006552
demand,0.002805
depict,0.003919
derang,0.007837
deris,0.007124
descend,0.003802
describ,0.011603
design,0.002307
desir,0.002956
despair,0.006442
despit,0.010656
destini,0.005595
destroy,0.006571
destruct,0.011155
detour,0.008034
deu,0.006849
devast,0.013382
develop,0.006285
devic,0.007022
devot,0.007427
devout,0.006538
dian,0.006707
did,0.009329
didnt,0.005162
die,0.006020
differ,0.004996
difficult,0.002740
digitalplu,0.010232
direct,0.004172
directli,0.002524
dirk,0.006947
disc,0.017160
discard,0.005255
discontinu,0.004770
discuss,0.007690
dish,0.005949
display,0.003570
dissatisfact,0.005799
distant,0.008734
distinct,0.002419
distinguish,0.002789
distribut,0.005184
divin,0.008357
divis,0.002723
documentari,0.004828
doe,0.006377
doesnt,0.004697
dog,0.004703
dolbi,0.016547
dollar,0.003671
donnelli,0.007670
dont,0.021952
doral,0.019815
dougla,0.004643
download,0.011094
dr,0.007796
drama,0.047762
dramat,0.003548
draw,0.003220
drawn,0.003707
dream,0.004536
dreamwatch,0.010232
drew,0.004330
drink,0.004659
drive,0.003375
driven,0.010973
drop,0.003448
drum,0.011934
dualla,0.010232
dub,0.015161
duduk,0.009655
dumbek,0.010232
dure,0.009042
dvd,0.062496
dwarf,0.005706
dysfunct,0.005620
earli,0.007567
earlier,0.013975
earn,0.003555
earth,0.044544
eastern,0.003139
edg,0.004126
edit,0.008881
edmondson,0.009655
educ,0.002409
edward,0.017205
effect,0.005512
effectsbut,0.010232
effort,0.002619
eick,0.037799
element,0.002405
elimin,0.003271
ellen,0.005762
elsewher,0.003899
emmi,0.014249
emot,0.003885
emphasi,0.003430
empir,0.002639
employ,0.002509
en,0.004648
encourag,0.003109
end,0.026885
enemi,0.012683
engag,0.002995
england,0.003282
enjoy,0.007202
entertain,0.023255
enthral,0.008576
entireti,0.010814
entiti,0.003209
entitl,0.003905
episod,0.218348
eponym,0.006124
equal,0.007727
erhu,0.009655
establish,0.002018
ethic,0.003481
ethnic,0.007465
evangel,0.005941
eve,0.005535
event,0.007384
eventu,0.002688
everi,0.002366
everyth,0.007533
evidenc,0.005326
evok,0.005762
ex,0.005117
exact,0.003608
exchang,0.002673
execut,0.011461
exhibit,0.003570
exist,0.005642
existenti,0.005125
exodu,0.005908
expand,0.002675
experi,0.002326
expertli,0.009655
explain,0.002546
explor,0.002882
explos,0.004193
express,0.002450
extend,0.014970
extens,0.002554
extern,0.002958
extra,0.004332
extrem,0.002713
fabl,0.012308
face,0.002839
fact,0.002401
faction,0.004467
fail,0.002843
failur,0.003291
faith,0.015125
fall,0.005164
fallout,0.006582
famatta,0.010232
fame,0.004979
famili,0.007857
familiar,0.012006
fan,0.021285
fantasi,0.010712
far,0.007694
fascin,0.005639
fast,0.003872
fault,0.010162
favor,0.003124
fear,0.007098
featur,0.012790
featurett,0.009449
februari,0.012292
felix,0.005529
felt,0.003993
femal,0.015191
feminist,0.009916
fernando,0.005875
festiv,0.004697
fi,0.018884
fiction,0.028241
fight,0.003549
figur,0.002801
figurin,0.007054
film,0.003836
final,0.031806
finest,0.005984
flavor,0.005777
flaw,0.009644
fleet,0.040935
fli,0.008444
florida,0.004965
flute,0.013813
follow,0.008090
forb,0.005472
forc,0.006082
form,0.003092
format,0.016552
foster,0.004324
foundat,0.002637
fourth,0.010587
foxtel,0.009655
frak,0.010232
franc,0.002895
franchis,0.010922
francisco,0.008730
fugit,0.007077
fulltim,0.005386
fullydrawn,0.010232
funand,0.010232
fundamentalist,0.006482
futur,0.004927
futurist,0.006260
gaeta,0.009275
gain,0.002460
gaiu,0.036535
galactica,0.440013
galaxi,0.015104
galen,0.005799
game,0.006941
garner,0.005639
gasp,0.008208
gayatri,0.008341
geek,0.009655
gener,0.002906
genet,0.003435
genocid,0.010944
genocidelevel,0.010232
genr,0.009552
georg,0.002915
germani,0.003045
ghraib,0.008872
gibb,0.011399
given,0.002028
glen,0.006758
globe,0.004606
gloriou,0.012328
god,0.049562
gold,0.003517
goldberg,0.013660
gon,0.008089
good,0.006746
goodman,0.006612
govern,0.005770
grace,0.005331
gradual,0.003251
grant,0.003100
grappl,0.006674
gravit,0.004524
gray,0.005046
great,0.006839
greatest,0.010678
greatli,0.003312
grecoroman,0.005791
greek,0.011457
green,0.003478
grew,0.003380
grip,0.018255
gritti,0.008034
ground,0.002943
group,0.005473
guardian,0.004997
guest,0.005341
guid,0.005719
guild,0.011203
gun,0.004749
gut,0.005799
ha,0.021579
hagen,0.014065
hail,0.005434
half,0.025058
halfway,0.006306
hall,0.003837
halt,0.004608
halv,0.011628
hamburg,0.005933
hand,0.002506
handl,0.003678
happen,0.009590
harbing,0.007594
hardwar,0.004731
harshli,0.006524
hatch,0.006227
hate,0.005806
hd,0.050832
head,0.007833
heavi,0.006991
heck,0.007670
helena,0.006238
helfer,0.009655
hell,0.005583
hellenist,0.005141
helo,0.020465
help,0.002214
henderson,0.005672
hera,0.007457
herald,0.005686
hi,0.005440
hiatu,0.013255
hide,0.004788
high,0.004096
highdefinit,0.008492
higher,0.004809
highestr,0.009124
hinduism,0.004863
hint,0.005506
histori,0.005054
hit,0.004187
hod,0.008341
hogan,0.014347
holi,0.004282
home,0.005776
hope,0.003443
horrif,0.007594
host,0.003698
hot,0.004454
hotshot,0.009449
hour,0.017771
hous,0.002713
howev,0.003283
hulu,0.009907
human,0.081846
humancylon,0.009907
humanform,0.009655
humanoid,0.051539
husker,0.010232
hymn,0.005975
icon,0.010889
idea,0.002270
ident,0.002896
ideolog,0.003820
igncom,0.010232
immens,0.004860
implac,0.007932
impli,0.003144
implic,0.003524
import,0.008625
includ,0.030890
indecis,0.007032
indian,0.003348
individu,0.006258
inexor,0.007101
inexplic,0.013978
influenc,0.006683
inhabit,0.007032
innov,0.007007
insid,0.003392
inspir,0.003346
instead,0.004738
instinct,0.010702
instrument,0.003114
insurg,0.015711
intend,0.006262
intent,0.010211
intern,0.001772
internet,0.006636
interrupt,0.005031
interseason,0.009655
interven,0.008692
introduc,0.002372
involv,0.005882
iocom,0.009907
iraq,0.018105
ireland,0.008455
iron,0.003622
israelit,0.006658
issu,0.006511
iter,0.005061
itun,0.050051
ive,0.006643
jame,0.019969
jami,0.007124
jane,0.005331
januari,0.040412
japanes,0.003854
jeff,0.006011
jensen,0.006283
joanna,0.007010
john,0.004601
johnson,0.004621
jonah,0.007793
josh,0.007395
joshua,0.005692
joss,0.008414
journey,0.018802
judgement,0.010226
juli,0.011686
juliani,0.008991
jump,0.004670
jupit,0.005791
just,0.014150
kandys,0.010232
kara,0.029007
karl,0.003804
kat,0.008341
kate,0.019530
katrain,0.010232
keikeya,0.010232
keith,0.005089
kendra,0.008666
kennedi,0.005381
kevin,0.005306
kid,0.006038
kill,0.003338
killer,0.006094
king,0.003221
kingdom,0.002690
know,0.006129
knowledg,0.002543
known,0.013519
kobol,0.059447
la,0.003375
land,0.002559
larg,0.001782
larson,0.007307
laser,0.005034
later,0.024133
latest,0.004516
launch,0.003405
laura,0.024867
lawless,0.007101
lay,0.003805
lead,0.010088
leader,0.011827
leadership,0.003668
leah,0.008034
learn,0.002840
led,0.008729
lee,0.004598
left,0.005391
leitmotif,0.008991
leoben,0.009907
let,0.011366
level,0.002022
lexicon,0.006056
liberia,0.006085
liberti,0.004292
lieuten,0.005396
life,0.004347
lifeordeath,0.008492
light,0.002787
like,0.019868
limit,0.004130
line,0.002420
link,0.002940
lipson,0.008273
list,0.013162
litmu,0.008208
live,0.010932
lo,0.004637
locat,0.004972
long,0.006586
longer,0.008366
longlost,0.008147
longshot,0.009275
look,0.013959
lord,0.004002
lost,0.005877
louann,0.009655
love,0.004014
lt,0.056049
luci,0.006468
luciana,0.009275
lute,0.008208
lyndon,0.006691
machina,0.007490
machinimacom,0.009655
magazin,0.015659
main,0.012843
maintain,0.002357
major,0.007175
make,0.013755
male,0.003792
mani,0.012226
manmad,0.010868
mantra,0.006643
mar,0.004627
march,0.042059
margaret,0.004940
mari,0.023438
mark,0.010859
market,0.002531
marketplac,0.010692
martin,0.003579
massiv,0.003597
master,0.003608
match,0.003595
materi,0.002369
matt,0.006216
matthew,0.004903
maureen,0.015587
mcclure,0.008341
mccreari,0.057934
mcdonald,0.006496
mcdonnel,0.043674
mcfarland,0.007395
mcnamara,0.007457
mean,0.003724
media,0.003101
medic,0.003113
melani,0.007279
member,0.002157
membran,0.004788
memori,0.007034
mention,0.003273
metaphor,0.004755
michael,0.012447
michel,0.004635
mid,0.003367
middl,0.011151
midseason,0.009907
militari,0.010941
million,0.005311
miniseri,0.107609
minut,0.012108
missil,0.005269
mission,0.006742
mix,0.003252
mixtur,0.004227
model,0.008424
moder,0.003873
modern,0.002028
modernday,0.009625
mokhib,0.010232
moment,0.007693
monoth,0.006104
monotheist,0.024008
month,0.002987
moor,0.045631
moral,0.020296
moreov,0.003878
morph,0.006596
mostli,0.002884
motiv,0.003303
mount,0.003941
movi,0.046245
multifacet,0.006567
multilay,0.006658
museum,0.008154
music,0.026013
mysteri,0.013389
mystiqu,0.007837
mythic,0.005633
na,0.005113
nation,0.007494
natur,0.001805
nazi,0.009429
nbc,0.007032
nbcunivers,0.020465
necessarili,0.009929
need,0.004065
netflix,0.008414
network,0.005653
new,0.021144
newageinflect,0.010232
newest,0.006691
news,0.007381
newsday,0.019311
newsweek,0.007225
nicki,0.008765
night,0.004147
nightvis,0.009275
nomin,0.003529
noncommiss,0.015263
nonsens,0.005829
normal,0.002695
normallength,0.010232
north,0.002684
notabl,0.002594
note,0.003898
noth,0.003578
notic,0.003837
novemb,0.015163
nuclear,0.006909
number,0.023681
oath,0.005769
obsess,0.005933
occup,0.010569
occupi,0.010169
occur,0.004296
octob,0.011695
offer,0.012571
offic,0.029937
offici,0.007701
ok,0.007559
old,0.002797
olmo,0.064930
olympian,0.007670
omnibenevol,0.008414
omnipot,0.006378
omnisci,0.006658
onc,0.005053
oncegreat,0.009655
oneil,0.006691
ongo,0.003699
onli,0.010895
onlin,0.008878
open,0.004629
opera,0.017442
opin,0.006868
oppos,0.002825
oppress,0.004986
opt,0.005259
option,0.003528
oracl,0.005967
orchestra,0.013105
order,0.009316
organis,0.003201
origin,0.020612
orr,0.007793
osod,0.010232
outlaw,0.005428
overton,0.006707
overview,0.003387
owner,0.003824
pack,0.004933
packag,0.008573
pantheon,0.005933
par,0.005188
parabl,0.006627
parallel,0.007007
pari,0.003697
pariah,0.008341
park,0.003951
particular,0.002116
passag,0.004028
passion,0.005077
past,0.010729
paul,0.002939
peabodi,0.007335
peerless,0.010232
pegasu,0.049253
penikett,0.010232
peopl,0.011185
perceiv,0.006800
perform,0.002377
perhap,0.006286
perigard,0.010232
period,0.006027
perman,0.003276
perpetu,0.004580
person,0.006637
perspect,0.003025
peter,0.003083
petti,0.005984
philharmon,0.008147
phrase,0.008148
piano,0.006691
pick,0.004401
piec,0.003733
pigeonhol,0.007932
pilot,0.055096
piti,0.007173
place,0.007648
placement,0.005306
plain,0.004418
plan,0.012803
plane,0.008144
planet,0.034527
play,0.014647
playback,0.007750
player,0.008850
playstat,0.015964
plot,0.004143
plotlin,0.035491
plu,0.003804
podcast,0.012911
point,0.011768
polici,0.002502
polit,0.010610
politician,0.004056
polyth,0.019701
poniewozik,0.010232
popul,0.004811
popular,0.002419
portray,0.008802
pose,0.004118
poseidon,0.007149
possess,0.006076
possibl,0.003955
post,0.009844
postfinal,0.010232
postintelligenc,0.009449
postpon,0.005506
potent,0.006085
power,0.003968
practic,0.002074
prais,0.013601
prayer,0.005109
preced,0.003673
precipit,0.004458
predomin,0.004422
prefer,0.002969
prehistor,0.004686
prelud,0.006524
premier,0.053391
premis,0.009096
prequel,0.022185
present,0.001938
presid,0.019627
pretti,0.006306
preval,0.004269
previou,0.008771
previous,0.005911
primari,0.005118
primarili,0.002650
princip,0.003028
prior,0.002928
prisonertortur,0.010232
proceed,0.003548
proclaim,0.004386
produc,0.018156
product,0.006062
profan,0.007524
program,0.009756
progress,0.002642
project,0.002399
promin,0.003040
promot,0.002765
prop,0.006538
propheci,0.005891
prophetess,0.008341
propuls,0.006056
prove,0.002992
provid,0.003440
psp,0.008089
psycholog,0.006609
public,0.001952
puf,0.008089
punch,0.006164
purchas,0.013190
purportedli,0.006596
pursu,0.003526
pvc,0.007524
pythia,0.025729
qaeda,0.023010
qualiti,0.002888
quartararo,0.010232
question,0.002434
quotat,0.005150
race,0.015236
racetrack,0.008991
radhika,0.009655
radic,0.003554
rage,0.012132
ragtag,0.009449
raid,0.004616
rail,0.004879
ran,0.004340
randomli,0.005241
rang,0.002327
rank,0.013094
raptor,0.016547
rare,0.003190
ratio,0.003496
rational,0.005472
rave,0.008492
raw,0.004011
razor,0.048528
read,0.002135
real,0.007656
realism,0.009594
realiti,0.003344
realli,0.003956
reason,0.008827
recap,0.009449
receiv,0.002349
recogniz,0.011440
reconcili,0.005145
record,0.002591
recur,0.010501
redempt,0.005908
refer,0.009837
referenc,0.010566
refin,0.003857
refus,0.003588
regard,0.004718
region,0.046242
regular,0.003368
regurgit,0.007199
reimagin,0.051765
rekha,0.009275
relationship,0.002347
relativ,0.006038
releas,0.076829
relev,0.003216
relic,0.006124
religi,0.015705
religion,0.034450
remain,0.012202
remnant,0.004916
remov,0.008517
renew,0.003595
renni,0.007932
renown,0.005246
replac,0.002505
report,0.002363
repres,0.002017
repris,0.012757
rereleas,0.015768
resist,0.006372
resolv,0.003571
reson,0.004706
respect,0.002338
respons,0.002132
rest,0.002880
restor,0.003477
resurrect,0.016367
retribut,0.006724
retrospect,0.005412
return,0.002488
reveal,0.006469
revel,0.004930
review,0.013776
revisit,0.005686
revolt,0.004476
reward,0.004253
rewind,0.009275
rhode,0.005633
ricardo,0.005589
rich,0.003526
richard,0.006075
rick,0.006627
right,0.006619
road,0.003571
robert,0.005407
robot,0.031907
role,0.004308
roll,0.004588
roman,0.003298
romanc,0.005720
ron,0.006020
ronald,0.026355
root,0.006212
rose,0.003731
roslin,0.059449
round,0.003895
roxi,0.010232
rr,0.006552
rudimentari,0.005799
ruin,0.004889
run,0.018916
runtim,0.007279
ryan,0.018884
s,0.005232
sackhoff,0.020465
sacr,0.009418
sacrosanct,0.008666
saga,0.006283
said,0.007579
sale,0.003582
salvat,0.005311
sam,0.005461
samuel,0.004371
san,0.007810
saul,0.011866
savitr,0.010232
say,0.013320
scandal,0.010385
scene,0.031007
schedul,0.016348
schism,0.005984
sci,0.020024
scienc,0.014477
scientist,0.008435
scifi,0.108380
scintil,0.007199
score,0.013522
screen,0.009081
script,0.004847
scroll,0.036284
sd,0.006552
search,0.012589
season,0.286113
seattl,0.011951
second,0.018163
secondari,0.003501
secretari,0.004017
secretarygener,0.012589
secular,0.004255
seen,0.002412
seldom,0.005583
select,0.002673
selfdestruct,0.007457
senior,0.012227
sensat,0.005012
separ,0.004493
sepinwal,0.020465
septemb,0.014827
seri,0.151880
servant,0.009481
servic,0.002395
session,0.009356
set,0.013334
settl,0.006989
sever,0.003568
sexual,0.004040
share,0.004792
sharma,0.007149
sharon,0.027248
shaw,0.005806
sherman,0.006442
shini,0.006947
ship,0.013956
shoot,0.005214
shorten,0.005197
shorter,0.004377
shortli,0.003827
shout,0.006968
shown,0.005930
sidewalk,0.007793
sign,0.002817
signific,0.002184
similar,0.010217
simon,0.004111
sinc,0.008556
singl,0.002290
site,0.002882
situat,0.002634
skip,0.006306
sky,0.014600
slate,0.005933
slave,0.004043
sleeper,0.023796
slot,0.006627
small,0.002094
sneak,0.014852
soar,0.005547
societi,0.008576
soergel,0.010232
solar,0.004082
soldout,0.010232
somebodi,0.006627
sometim,0.002227
somewhat,0.007256
somewher,0.005241
son,0.003276
sophist,0.003937
sought,0.003333
sound,0.018016
soundtrack,0.007559
sourc,0.002152
space,0.015831
spaceopera,0.010232
spawn,0.005455
speaker,0.004394
special,0.010701
specialist,0.004246
specif,0.002047
spin,0.004746
spinoff,0.025367
spiritu,0.003943
split,0.010551
sprawl,0.006887
spring,0.003860
springfal,0.010232
stack,0.005336
staff,0.008068
stand,0.003216
standard,0.009220
star,0.003795
starbuck,0.088383
stardo,0.020465
stargat,0.008089
starledg,0.020465
start,0.017330
state,0.010481
statement,0.003141
stay,0.007491
steiner,0.006416
stellar,0.005741
stephani,0.006868
stephen,0.003801
stern,0.005844
sting,0.007054
stockwel,0.008991
stone,0.003822
store,0.013868
stori,0.031221
storylin,0.006968
storytel,0.012455
strike,0.003806
string,0.004545
stroke,0.005466
strong,0.002486
struggl,0.003587
strung,0.007793
student,0.002912
studio,0.005891
stumbl,0.006455
stun,0.006524
style,0.003526
subject,0.002177
subplot,0.008341
subscrib,0.005351
subsequ,0.005341
subvers,0.006429
succeed,0.003498
success,0.004539
suck,0.006510
suckag,0.010232
sudden,0.004899
suddenli,0.005077
suderman,0.010232
suggest,0.004791
suicid,0.029439
summer,0.003959
sun,0.003796
sunday,0.005679
sunset,0.006482
support,0.002034
suppos,0.003760
surpris,0.004500
surround,0.006268
surviv,0.023612
survivor,0.042532
suspens,0.005316
swagger,0.009655
swear,0.013853
syfi,0.035491
syfycom,0.010232
sympath,0.006596
syndrom,0.005214
t,0.002977
tackl,0.015807
tactic,0.004550
tahmoh,0.010232
taiko,0.009655
taken,0.002505
tale,0.014760
talk,0.007365
tanbur,0.009655
tarnish,0.007457
task,0.003174
tast,0.004803
tasti,0.008991
taylor,0.004306
teas,0.007750
technic,0.006087
technobabbl,0.009275
technocrat,0.006468
technolog,0.009869
televis,0.073291
tell,0.011564
tens,0.006047
term,0.001617
termin,0.004009
terrifi,0.006868
territori,0.002995
terror,0.018222
terrorist,0.025899
text,0.005904
textur,0.006020
th,0.003924
thank,0.004706
theaterhagen,0.010232
theatric,0.012612
theme,0.018951
theolog,0.008343
thereaft,0.004474
theyr,0.012683
thi,0.021760
thing,0.013615
think,0.002967
thirteenth,0.023079
thought,0.002425
thousand,0.003018
thrace,0.028219
threehour,0.007884
threemonth,0.007279
threeyear,0.005614
throw,0.005255
thu,0.002000
tie,0.003338
tigh,0.026000
tim,0.005391
time,0.030283
timesunion,0.010232
titl,0.003071
today,0.004917
togeth,0.009439
tom,0.004694
tomboyish,0.010232
tone,0.010385
tongueincheek,0.007982
took,0.005346
toptier,0.008414
tori,0.006849
tortur,0.005150
tradit,0.002155
train,0.002955
transcend,0.014523
transfer,0.002928
transmit,0.004193
travel,0.003021
tri,0.008081
triangl,0.005061
tribe,0.021065
tribun,0.015949
tricia,0.010232
troup,0.007709
trucco,0.008872
truehd,0.009655
tune,0.005559
turkish,0.004954
turmoil,0.005336
turn,0.018927
tv,0.094638
tvcom,0.008492
twelv,0.040630
twist,0.028072
twohour,0.017333
tyler,0.006724
type,0.002057
tyrol,0.031929
uk,0.021957
ultim,0.002959
unbroken,0.006416
uncertainti,0.003982
uncut,0.008034
understand,0.002323
uneasi,0.006468
unexplain,0.006354
unheard,0.007251
unimagin,0.022677
uninhabit,0.005407
unit,0.008630
univers,0.005317
unknown,0.003543
unlik,0.005699
unmistak,0.007279
unquestioningli,0.007982
unseen,0.006455
unsuspect,0.007631
unwit,0.008872
usa,0.003820
use,0.004195
usual,0.002059
util,0.003096
utterli,0.006378
valerii,0.020465
vancouv,0.006468
vari,0.002522
varieti,0.007708
variou,0.001948
veer,0.007149
vengeanc,0.007124
veri,0.005863
vernon,0.006429
version,0.023948
vibrant,0.006329
vichi,0.006524
video,0.011299
vietnam,0.004637
view,0.008773
viewer,0.018006
viewpoint,0.004504
violenc,0.012227
violin,0.007490
viper,0.049253
virtuou,0.006038
visionari,0.006468
visual,0.007221
vivid,0.006272
voic,0.004078
voiceov,0.008414
volum,0.008794
voyag,0.004681
wa,0.071563
wage,0.003760
wake,0.009131
walk,0.008742
wanta,0.010232
war,0.026741
waronterror,0.010232
warship,0.005601
warwick,0.006612
wast,0.004105
watch,0.004363
way,0.009149
weak,0.003399
web,0.003710
webisod,0.009907
websit,0.012944
week,0.010790
weekli,0.025386
weiss,0.006416
wert,0.008872
western,0.002574
whedon,0.009275
wholeheartedli,0.007982
whoopi,0.009449
wide,0.004408
wider,0.003896
widescreen,0.009907
wife,0.008824
wildli,0.006658
william,0.013711
win,0.003848
window,0.004809
winter,0.004240
wipe,0.005541
wire,0.004944
witwer,0.010232
wont,0.005949
woodwind,0.008872
word,0.004751
work,0.005033
world,0.006940
worship,0.004637
worthi,0.010793
wrack,0.007837
write,0.018730
writer,0.024586
written,0.010838
wrong,0.008050
wrote,0.017494
xbox,0.014915
yeah,0.017530
year,0.018998
yialli,0.010232
york,0.005271
yorker,0.006926
youll,0.007524
young,0.003177
zarek,0.010232
zeu,0.006596
zodiac,0.014202
zune,0.009907
