abbrevi,0.018427
abstract,0.013313
accommod,0.017568
accomplish,0.015205
accuraci,0.016408
actual,0.019366
adject,0.020679
algorithm,0.030335
ambigu,0.017778
anaphor,0.231227
anaphora,0.139900
angri,0.047563
ani,0.013335
anim,0.010589
ann,0.017720
anteced,0.216459
anyth,0.014952
appar,0.012915
argu,0.010064
arriv,0.012179
attach,0.014323
attend,0.014436
b,0.060127
base,0.013184
billi,0.026288
bind,0.031507
bob,0.042441
bobi,0.119405
bound,0.163805
c,0.017461
came,0.009989
carol,0.045287
caroli,0.119405
cataphor,0.119405
cataphora,0.159207
classic,0.010095
coindex,0.159207
colleagu,0.016516
come,0.017479
commonli,0.010148
compat,0.017531
complex,0.008942
comput,0.010125
concept,0.008528
connect,0.010061
consid,0.007126
constraint,0.015173
constru,0.023450
cop,0.055060
coref,0.147026
corefer,0.542807
coreferenti,0.112672
correct,0.012306
d,0.009893
deal,0.019689
deriv,0.009291
despit,0.020725
didnt,0.020081
difficulti,0.013198
discours,0.066935
dislik,0.087254
distinct,0.028236
distinguish,0.010849
draw,0.012527
earn,0.013829
els,0.015151
english,0.010247
enjoy,0.014007
estim,0.010353
everi,0.027620
everyon,0.016986
exampl,0.039536
exist,0.014632
explor,0.022420
express,0.152525
eye,0.014708
field,0.008034
final,0.009516
focu,0.010793
follow,0.031467
form,0.012027
gender,0.016866
gener,0.005653
grade,0.146796
grammat,0.023859
gratitud,0.025214
ha,0.026230
hei,0.033359
help,0.025839
henc,0.012275
heri,0.036079
hi,0.070542
hisi,0.119405
hurrican,0.021012
illustr,0.013416
import,0.006710
inanim,0.023522
indefinit,0.018484
index,0.012498
indic,0.029035
individu,0.016230
influenc,0.008665
instanc,0.010654
instead,0.009215
intend,0.012179
interpret,0.020992
iti,0.030148
jack,0.093003
jacki,0.029685
jerki,0.035492
jerri,0.086678
john,0.035794
kind,0.010479
known,0.006573
leaderi,0.039801
like,0.042152
linguist,0.061849
logician,0.023311
look,0.021719
lot,0.016199
loud,0.023668
loudest,0.032447
main,0.008326
mani,0.011889
mean,0.021729
mention,0.012732
mind,0.024805
minimum,0.014346
music,0.028908
musici,0.037557
natur,0.007021
nearest,0.021199
neighborsi,0.079603
note,0.007582
notion,0.012443
noun,0.144890
numer,0.009743
object,0.008990
occur,0.016711
onli,0.012108
paid,0.013409
parti,0.010163
peopl,0.007251
perhap,0.012225
person,0.017211
phenomena,0.012557
phrase,0.095080
pick,0.017119
pleonast,0.079603
point,0.007628
possess,0.011818
postced,0.079603
preced,0.071442
precis,0.012422
predic,0.041627
present,0.015081
proadject,0.039801
problem,0.016131
proform,0.238810
project,0.009331
pronoun,0.227373
proper,0.013530
proverb,0.026090
quantifi,0.033892
rain,0.019150
rang,0.009052
read,0.016614
real,0.009927
realli,0.015388
recal,0.018496
receiv,0.009138
refer,0.100440
referenti,0.114587
refus,0.013957
rel,0.008575
relationship,0.009129
resolut,0.043895
resolv,0.027786
right,0.008582
rule,0.008730
said,0.019654
say,0.020725
second,0.023549
semanticist,0.037557
sentenc,0.032703
shame,0.024858
ship,0.013571
sinc,0.006656
singl,0.008908
singular,0.017541
sometim,0.025996
soon,0.012206
specif,0.007964
split,0.054723
standpoint,0.042399
stricter,0.024057
student,0.067979
studenti,0.075115
subject,0.016935
succeed,0.013608
support,0.007914
syntact,0.023311
syntax,0.021073
task,0.024697
technic,0.023677
tend,0.010931
text,0.034448
theori,0.007802
theyi,0.159207
thi,0.009957
thing,0.010591
think,0.011543
thought,0.009434
thu,0.007781
togeth,0.009179
told,0.016882
tradeoff,0.021461
tradit,0.008382
type,0.008003
underli,0.012641
understand,0.009035
upset,0.022498
use,0.021756
usual,0.016020
vari,0.019625
variabl,0.146020
variou,0.007577
versu,0.015537
wa,0.016373
wage,0.014626
wellstudi,0.026288
wherebi,0.030080
wilmai,0.039801
woman,0.016620
work,0.006525
world,0.020246
written,0.010539
