abil,0.011389
abov,0.010597
accuraci,0.017952
achiev,0.010413
adapt,0.079090
address,0.012465
ae,0.084814
aka,0.022564
algorithm,0.365099
allow,0.008232
ani,0.014591
anim,0.023173
ann,0.019388
anoth,0.007961
ant,0.044928
appli,0.035397
applic,0.039544
approach,0.019053
approxim,0.033843
arbor,0.026989
art,0.012664
artifici,0.111832
ashlock,0.043548
assumpt,0.014103
attempt,0.009442
attract,0.013319
avail,0.010119
averag,0.012364
avida,0.043548
b,0.010964
banzhaf,0.038833
base,0.072129
bck,0.077667
becaus,0.007513
becom,0.007990
bee,0.093635
behavior,0.023417
behaviour,0.046168
believ,0.010323
benk,0.043548
best,0.011001
bestfit,0.037760
better,0.011255
bibliographi,0.014516
bicta,0.043548
bin,0.023012
binari,0.039866
bioinspir,0.032021
biolog,0.059190
biologischen,0.040216
birkhus,0.031218
birth,0.014707
borgelt,0.041092
breed,0.040032
brood,0.030638
candid,0.015398
capabl,0.013164
cell,0.014377
cellular,0.018497
chemistri,0.014652
chromosom,0.043451
classifi,0.054093
classifierset,0.043548
clear,0.012443
coloni,0.027649
combinatori,0.094226
commonli,0.011103
commun,0.008742
complex,0.058702
compon,0.011514
comput,0.177264
computermodellen,0.043548
concern,0.009386
condit,0.009355
confer,0.013161
connect,0.011008
consist,0.017898
constrain,0.019440
continu,0.008101
coupl,0.015472
crossov,0.026888
cuckoo,0.065972
d,0.032473
dawkin,0.026740
db,0.028011
deliveri,0.019325
der,0.017499
describ,0.016459
determin,0.027856
develop,0.006687
development,0.056469
differ,0.028353
differenti,0.027077
difficulti,0.014440
digit,0.029862
dimension,0.082736
direct,0.017757
distinct,0.010298
distribut,0.011032
divers,0.012860
doe,0.009047
dsa,0.037302
dynam,0.012535
ea,0.181277
econom,0.008809
egg,0.019472
eiben,0.040216
embryogenesi,0.030749
embryogeni,0.043548
emphas,0.014128
enabl,0.012766
encod,0.078412
engin,0.011601
entropi,0.021847
environ,0.010671
especi,0.018695
estim,0.011328
evalu,0.041845
evolut,0.143773
evolutionari,0.253765
evolutionsstrategi,0.043548
evolv,0.052854
exploit,0.029971
explor,0.036796
express,0.031290
extend,0.010618
f,0.023715
fact,0.010221
factor,0.010206
fatal,0.020924
fertil,0.016874
fetura,0.043548
field,0.026373
firefli,0.061061
fit,0.190530
fix,0.038331
flash,0.022605
flight,0.017635
flock,0.026597
fogel,0.060441
follow,0.006885
forag,0.073389
form,0.026319
francisco,0.018576
francon,0.040216
free,0.009832
freeli,0.018721
frommanholzboog,0.043548
function,0.052879
g,0.011645
galleri,0.022136
gaussian,0.023866
gene,0.033405
gener,0.037112
genet,0.175451
genom,0.039097
genotyp,0.024743
genotypephenotyp,0.113282
gep,0.042165
global,0.034294
graph,0.019152
group,0.007764
guid,0.012170
h,0.011957
ha,0.005739
handbook,0.017421
hanspaul,0.039475
harmoni,0.040153
held,0.010177
heurist,0.022025
holland,0.022424
honey,0.051957
howev,0.006986
hunt,0.034745
hybrid,0.017984
idea,0.028983
ideal,0.014006
ieee,0.023457
implement,0.035954
improv,0.010592
includ,0.011951
indirect,0.056109
individu,0.106547
inform,0.025673
ingo,0.032169
initi,0.018705
inspir,0.085453
instanc,0.011657
intellig,0.026862
interact,0.010740
intern,0.007543
internet,0.014121
introduct,0.034234
involv,0.008344
isbn,0.030527
iter,0.021541
j,0.010810
ja,0.025581
je,0.026888
k,0.013050
kaufmann,0.028689
keller,0.028763
klawonn,0.041092
knowledg,0.010826
known,0.007192
kruse,0.038267
lack,0.010973
lampinen,0.042165
landscap,0.035890
langdon,0.035210
latin,0.013526
leader,0.012584
learn,0.048358
leastfit,0.043548
length,0.028556
level,0.008605
light,0.011864
like,0.007686
limit,0.026366
linear,0.030624
link,0.006257
list,0.008002
local,0.019493
loss,0.012586
lulucom,0.043548
lunch,0.028011
lvi,0.029310
macroevolutionari,0.038267
make,0.014635
mani,0.013008
manufactur,0.013723
market,0.010771
matur,0.016744
maxim,0.016365
mcphee,0.043548
mean,0.007924
mechan,0.010626
meme,0.031471
memet,0.031603
metaheurist,0.096966
metaphor,0.020237
method,0.053472
methodolog,0.015231
michalewicz,0.078950
michigan,0.020767
michiganlc,0.043548
microevolutionari,0.039475
model,0.035854
modern,0.008631
moew,0.041092
morgan,0.020429
multigen,0.035811
multimod,0.029394
multiobject,0.033970
multipl,0.011067
musician,0.025109
mutat,0.099903
n,0.012922
nach,0.033552
natur,0.030728
natureinspir,0.037302
net,0.015126
network,0.012030
neural,0.038671
neuroevolut,0.038267
new,0.019282
nordin,0.038267
notion,0.013614
number,0.014397
numer,0.042643
numerisch,0.037760
offspr,0.021590
onli,0.006623
oper,0.045389
optim,0.320519
optimierung,0.080432
orchestr,0.026740
organ,0.031396
overcom,0.017672
oxford,0.027040
p,0.010984
packingcov,0.043548
paramet,0.049768
parasit,0.021300
parent,0.016205
particip,0.011351
particl,0.015467
particular,0.009007
path,0.014589
perform,0.020231
performanceori,0.043548
phd,0.037189
phenotyp,0.044347
pheromon,0.030121
physic,0.009415
pittsburghlc,0.043548
place,0.008137
plan,0.010897
plant,0.012493
play,0.010389
poli,0.027093
polit,0.009031
popul,0.061429
popular,0.010295
populationbas,0.101271
posit,0.017056
possibl,0.008416
pp,0.013452
practic,0.017656
press,0.029134
prey,0.022484
price,0.012215
primarili,0.045117
principl,0.009905
prinzipien,0.038833
probabl,0.011840
problem,0.123548
problemspecif,0.039475
proc,0.028763
procedur,0.014370
process,0.039003
program,0.166077
prohibit,0.016836
propos,0.010180
qualiti,0.012294
r,0.022083
randomli,0.022307
rate,0.010225
ratio,0.014881
real,0.032585
recent,0.009061
rechenberg,0.036499
recombin,0.043520
reduc,0.009913
refer,0.005233
refin,0.016416
reflect,0.011246
regener,0.023288
regular,0.014336
reinforc,0.017822
rel,0.009383
relat,0.007055
repeat,0.030209
replac,0.010664
repres,0.008584
represent,0.039606
reprint,0.040251
reproduct,0.035553
research,0.008489
richard,0.012928
rm,0.024873
robot,0.038797
robust,0.018955
role,0.009167
root,0.013219
rout,0.015755
rra,0.036884
rule,0.009552
runner,0.027361
runnerroot,0.040216
san,0.016619
schedul,0.017393
schwefel,0.039475
scienc,0.008801
sdr,0.033552
search,0.147341
seek,0.023485
seemingli,0.020534
select,0.022759
selfadapt,0.040216
set,0.008106
sexpress,0.041092
shape,0.012473
shown,0.012620
similar,0.026090
simon,0.017499
simpl,0.023144
simul,0.031650
size,0.022683
smith,0.015430
social,0.009265
solut,0.099685
solv,0.080422
someth,0.014003
sometim,0.018962
speci,0.013394
springer,0.088142
steinbrech,0.041092
step,0.049399
storn,0.042165
strategi,0.027134
strength,0.014771
string,0.019346
structur,0.017018
subset,0.018267
success,0.019316
suffici,0.013464
suit,0.067721
suitabl,0.016167
supervis,0.017414
surround,0.013337
swarm,0.053579
synergist,0.030862
synthesi,0.016260
t,0.025343
techniqu,0.044769
technisch,0.030638
termin,0.017064
test,0.011906
th,0.008351
theori,0.034147
therefor,0.019798
thermodynam,0.018693
thesi,0.036047
thi,0.043580
thu,0.008513
tierra,0.030220
time,0.006444
tradit,0.009171
tree,0.015002
tri,0.011463
tuza,0.043548
type,0.043782
typic,0.019541
undergo,0.016886
underli,0.027662
univ,0.049359
univers,0.007543
unlik,0.012128
updat,0.017643
use,0.047608
usual,0.008764
vector,0.035227
von,0.014771
w,0.024440
way,0.007787
weight,0.014679
wherea,0.012638
wiley,0.017822
wolv,0.028617
work,0.014280
yield,0.014227
z,0.053307
