abyssinian,0.027801
accept,0.008662
addit,0.006979
admir,0.032695
admiss,0.018403
agre,0.010402
america,0.009669
analog,0.012328
andrew,0.098086
annoy,0.023733
antholog,0.019592
anyon,0.015041
appear,0.031965
armi,0.047469
arrest,0.015163
arriv,0.011106
artifici,0.023302
assign,0.012392
assist,0.010287
associ,0.006739
attempt,0.007869
august,0.010484
away,0.010509
battl,0.130300
becam,0.007604
becaus,0.018787
begin,0.016223
benedetto,0.189496
better,0.009381
blackmail,0.026453
book,0.055346
boy,0.065576
broken,0.013871
brother,0.013951
brown,0.042348
bugger,0.032901
captain,0.050445
card,0.094987
career,0.013668
chamrajnagar,0.036296
chang,0.006281
charact,0.046056
child,0.026764
children,0.034378
choic,0.010948
class,0.027725
collect,0.008128
collector,0.059282
colleg,0.012096
colonel,0.019070
come,0.015939
command,0.058455
commun,0.014573
competit,0.010957
compli,0.018373
computercontrol,0.027070
confess,0.020240
consecut,0.018841
contain,0.007994
continu,0.013504
control,0.007404
convinc,0.014835
counselor,0.069274
data,0.008893
day,0.008409
dead,0.069857
debat,0.010375
decid,0.032582
deliv,0.013135
design,0.008185
destroy,0.023307
determin,0.007739
disappear,0.014169
discov,0.019628
discrep,0.019236
doe,0.015081
domin,0.009170
dragon,0.041192
dure,0.006415
earli,0.006710
eat,0.015657
edit,0.010501
educ,0.017095
effort,0.009292
email,0.019612
embezzl,0.023563
end,0.014671
ender,0.711030
endervers,0.070287
enemi,0.059983
environ,0.008893
event,0.008731
eventu,0.009536
expand,0.009491
expect,0.009218
extant,0.017753
extern,0.005246
fall,0.018316
famili,0.037161
familiar,0.014196
far,0.009097
father,0.058979
fight,0.025178
file,0.029952
final,0.017356
financi,0.009578
fleet,0.080665
food,0.010325
form,0.010968
foundat,0.009355
fund,0.009892
funer,0.019633
futur,0.008738
game,0.110804
geniu,0.019530
given,0.014391
good,0.007976
govern,0.006822
graduat,0.013444
graff,0.059695
graviti,0.015641
group,0.006471
ha,0.052623
hate,0.020596
hatrack,0.035143
hegemon,0.023973
helena,0.044257
hi,0.122225
high,0.007264
hive,0.025536
home,0.020489
hope,0.012215
horizon,0.017488
human,0.006912
hunter,0.018179
hyrum,0.034249
ident,0.010273
immedi,0.010546
import,0.006119
inadvert,0.022051
includ,0.009960
institut,0.007591
integr,0.008658
intellig,0.022388
interact,0.008951
intern,0.018861
invest,0.040859
issu,0.007698
jan,0.031534
jane,0.094551
john,0.089764
just,0.016731
kill,0.011843
later,0.014267
law,0.014451
lead,0.007156
leader,0.020977
leadership,0.026027
leak,0.020121
learn,0.010076
life,0.007710
link,0.005215
list,0.033347
love,0.028478
magazin,0.013886
make,0.006099
man,0.021223
mani,0.010842
mazer,0.105430
meal,0.020440
meanwhil,0.014502
media,0.022002
meet,0.067929
met,0.012264
militari,0.009702
mind,0.011310
minim,0.012658
mock,0.045075
mysteri,0.031662
nearlightspe,0.034249
nineteenth,0.015002
noth,0.012691
notic,0.013612
novel,0.013274
null,0.019592
offer,0.008918
offic,0.009653
offici,0.009105
onc,0.026885
onli,0.005520
option,0.012514
order,0.006609
orson,0.127232
outsid,0.009149
owe,0.014596
parent,0.013506
pass,0.009317
past,0.009514
paul,0.114677
paw,0.050048
peopl,0.006612
person,0.007847
pest,0.105224
phone,0.017115
plan,0.009082
planet,0.027215
plot,0.014698
poland,0.032769
polish,0.081017
popul,0.017066
possibl,0.007014
power,0.007038
prepar,0.011153
present,0.006876
prison,0.014596
program,0.008651
project,0.008509
properli,0.014462
protect,0.009166
provoc,0.022537
queen,0.014433
rackham,0.027964
read,0.015150
real,0.009052
realiz,0.024391
receiv,0.016666
recent,0.007552
refer,0.004361
refus,0.012728
reject,0.010752
relativist,0.018009
relay,0.020265
republish,0.022128
research,0.007075
result,0.006075
retir,0.014841
return,0.008827
reveng,0.021258
robert,0.009590
room,0.014147
rudolf,0.035853
say,0.009449
school,0.053244
score,0.015987
scott,0.080709
screen,0.016107
secret,0.013457
send,0.013640
seri,0.026067
serv,0.008682
set,0.006756
short,0.046499
sillian,0.036296
silverberg,0.029589
simul,0.026379
sinc,0.006070
sister,0.033507
site,0.010224
small,0.007427
smart,0.019070
softwar,0.012861
soon,0.011131
sorelledolc,0.072592
space,0.018717
speak,0.046558
speaker,0.077941
stage,0.010600
starport,0.036296
steal,0.020028
stori,0.172268
student,0.020663
subdivid,0.016633
summari,0.014608
taken,0.008888
talk,0.039186
taught,0.027068
tax,0.057041
teacher,0.069555
team,0.012676
tell,0.095711
test,0.039694
theresa,0.052680
thi,0.018161
thu,0.007096
time,0.005370
titl,0.010896
told,0.030790
toon,0.102748
tor,0.025024
torforg,0.034249
transfer,0.010387
tri,0.038218
trust,0.013269
truth,0.012915
turn,0.016784
tutor,0.021104
twenti,0.014930
unfortun,0.017500
univers,0.018861
unnam,0.067743
unspecifi,0.022013
use,0.004960
valentin,0.045796
veri,0.013864
version,0.021236
veteran,0.018481
victim,0.016311
victori,0.014058
voyag,0.016603
wa,0.004977
wait,0.032919
want,0.011207
war,0.025869
way,0.006490
websit,0.022956
wieczorek,0.145184
wife,0.015649
wiggin,0.219944
win,0.013649
work,0.005950
world,0.006154
xenocid,0.029346
young,0.011271
younger,0.015081
