abl,0.006206
abov,0.003145
abund,0.004981
academ,0.003679
academi,0.009465
access,0.020394
accolad,0.009378
accord,0.004913
account,0.002893
achiev,0.003090
acquir,0.012004
acquisit,0.026558
act,0.002807
actress,0.008626
actual,0.003144
ad,0.003135
addit,0.004970
address,0.003699
adjac,0.005622
adopt,0.003390
adultsupervis,0.012923
advanc,0.012136
advic,0.005346
adword,0.011934
aesthet,0.011916
affect,0.009630
afraid,0.007772
africa,0.003989
afterward,0.005411
age,0.015382
ago,0.004760
agre,0.003703
ahead,0.005735
aid,0.003685
aim,0.003507
alan,0.005207
algorithm,0.019699
align,0.005307
allow,0.007329
alphabet,0.035493
alreadi,0.003578
altern,0.003156
alto,0.016515
alway,0.006607
ambit,0.006407
ambiti,0.019076
amen,0.006918
america,0.003442
american,0.008350
analyz,0.004129
anatomi,0.005769
andi,0.016175
andrew,0.004989
android,0.087452
angl,0.005545
ani,0.004330
announc,0.045379
annual,0.003773
anonym,0.006504
anoth,0.002362
answer,0.008748
anticompetit,0.018386
anyth,0.004855
anywher,0.006013
apart,0.009003
appear,0.002845
appl,0.031988
appli,0.005252
applic,0.008801
appoint,0.012115
approach,0.008481
approv,0.004220
april,0.011274
arborist,0.012923
architectur,0.009267
archway,0.011356
argument,0.004127
arm,0.003917
aroundfirstgener,0.012923
arriv,0.003954
art,0.022549
artifici,0.004148
artist,0.005155
asid,0.016808
ask,0.012183
assembl,0.003835
asset,0.009082
assign,0.004412
assum,0.006806
assumpt,0.004185
astro,0.010147
asturia,0.009092
atmospher,0.004812
attack,0.007921
attempt,0.005604
attend,0.014062
attent,0.004005
attract,0.003952
auction,0.007075
audienc,0.005545
august,0.029864
author,0.005532
autoimmun,0.008558
autom,0.005497
autonom,0.004967
autonomi,0.005133
avail,0.003002
avid,0.008603
award,0.047640
away,0.003742
b,0.003253
bachelor,0.006397
backlash,0.008103
backlink,0.059674
backrub,0.087593
backward,0.006110
bad,0.005039
band,0.005341
base,0.006421
basic,0.002980
battel,0.024390
bbc,0.005588
beast,0.007661
beauti,0.005628
becam,0.027076
becaus,0.017838
bechtolsheim,0.012513
becom,0.014227
befor,0.005059
began,0.017747
behalf,0.005463
believ,0.006127
bern,0.008390
best,0.013059
bestknown,0.006457
beta,0.006058
better,0.016702
bibl,0.005940
billion,0.029452
billionair,0.026245
biotechnolog,0.019357
blog,0.013454
bloomberg,0.015929
blue,0.005280
blurb,0.011356
board,0.008546
book,0.011261
bore,0.006648
born,0.012553
boss,0.008410
boston,0.005461
bound,0.004432
branson,0.010627
breadth,0.007036
brick,0.007314
brigg,0.008535
brin,0.220396
broadband,0.007747
broadli,0.004958
brother,0.004967
bu,0.007250
build,0.025076
built,0.014771
bureaucrat,0.006563
burn,0.005077
busi,0.026714
businessperson,0.010726
buy,0.004686
byer,0.009546
calcif,0.010217
calico,0.030652
california,0.009088
campu,0.007028
canada,0.004249
capabl,0.003906
capac,0.004112
capit,0.006453
car,0.020969
care,0.003727
caribbean,0.005660
carl,0.009906
carlson,0.018457
carmel,0.010147
carri,0.006396
cartridg,0.009789
cartridgespag,0.012923
casey,0.009378
castl,0.006727
caufield,0.012195
caus,0.010592
center,0.006328
centersto,0.012923
ceo,0.148741
ceoi,0.012923
ceolik,0.012923
ceremoni,0.005476
certif,0.005766
chairman,0.016833
chang,0.017893
chapter,0.004623
characterist,0.003419
charg,0.003828
cheapli,0.008087
check,0.005143
chief,0.020657
childhood,0.006340
children,0.004080
chose,0.005580
chrome,0.009546
chromebook,0.011524
citat,0.011817
citationaft,0.012923
cite,0.008299
citi,0.003426
clad,0.009339
cleaner,0.008450
cleanli,0.008492
close,0.002654
cmo,0.009339
codenam,0.008370
cofound,0.034081
cogniz,0.008827
cohes,0.012874
cold,0.004729
collabor,0.009115
colleg,0.004306
coloni,0.004102
columbia,0.005518
combin,0.011317
come,0.005675
comfort,0.006302
commenc,0.012004
commerci,0.011403
commun,0.007783
compani,0.059529
compar,0.002934
comparison,0.004160
compatibilityh,0.012923
competit,0.011705
competitor,0.006146
competitorsin,0.012923
complet,0.002740
complex,0.002903
composit,0.004113
compound,0.008942
comprehens,0.008741
compris,0.004059
comput,0.062470
computersthat,0.012923
conceiv,0.005210
concern,0.002785
conclus,0.004421
confer,0.011717
congratul,0.009546
connect,0.006533
consid,0.006942
consider,0.003334
consist,0.010623
consolid,0.010420
construct,0.003072
consult,0.009164
consum,0.003951
consumpt,0.004628
content,0.003915
continu,0.004808
contract,0.003980
contrast,0.003351
control,0.002636
convert,0.008089
cook,0.005594
cooper,0.003792
cord,0.028331
core,0.012641
corpor,0.011679
count,0.004525
counteract,0.007626
court,0.003763
craft,0.005968
crawl,0.008723
crawler,0.021071
crazi,0.017936
creat,0.016990
creation,0.010835
creativ,0.010254
crew,0.006240
cruis,0.007028
curat,0.008087
dare,0.007697
data,0.012667
databas,0.004642
day,0.008983
daytoday,0.006770
deal,0.003196
decad,0.007214
decis,0.003345
deck,0.017206
declar,0.007665
deconstruct,0.007362
deed,0.006883
deep,0.004417
delay,0.005068
deleg,0.005602
deliv,0.009354
demonstr,0.003566
depart,0.003479
deposit,0.004697
deriv,0.003017
describ,0.019539
deserv,0.014057
design,0.046633
desir,0.003734
despit,0.003364
detriment,0.006520
develop,0.019845
devic,0.004434
devis,0.005443
diamandi,0.012195
did,0.008836
didnt,0.006520
difficult,0.003460
digit,0.013293
directli,0.009565
director,0.004771
disconnect,0.007685
discuss,0.006475
diseas,0.004156
disgruntl,0.009158
disk,0.006816
displac,0.005091
display,0.004509
dissert,0.006758
divis,0.010317
doctor,0.009471
document,0.011493
doe,0.002684
doesnt,0.005933
dollar,0.004636
domain,0.003875
donat,0.023775
dont,0.027725
door,0.006205
dorm,0.010726
dormitori,0.010449
download,0.014011
drive,0.012790
driverless,0.010081
driveway,0.011934
duart,0.017764
dure,0.027410
dynam,0.003720
earli,0.011947
earn,0.013471
east,0.011019
ebola,0.009339
ecofriendli,0.011715
ecohous,0.024390
econom,0.002614
ecosystem,0.005418
educ,0.006087
edward,0.004345
effect,0.006962
effort,0.003308
elabor,0.004971
elast,0.005983
elect,0.010570
electr,0.007900
electron,0.003997
element,0.003038
elementari,0.005389
elon,0.009503
els,0.009839
embark,0.013429
embodi,0.005523
emerg,0.003061
employe,0.030034
empow,0.006727
enabl,0.003788
encourag,0.003926
end,0.005224
energi,0.010033
engin,0.082629
engineersfrom,0.012923
enrol,0.006569
ensur,0.003924
enter,0.003492
entir,0.003098
entrepreneur,0.012033
entrepreneuri,0.007431
environ,0.009500
epidem,0.006631
epsilon,0.007950
equip,0.017084
era,0.003774
eric,0.011349
essenti,0.003320
establish,0.005099
estim,0.010085
eta,0.008087
eugen,0.005840
europ,0.003239
european,0.002975
event,0.003108
eventu,0.027164
everi,0.005978
everyon,0.005515
everyth,0.009514
exact,0.004557
exactli,0.004680
exampl,0.002139
exceed,0.005016
excel,0.005168
excess,0.004616
excit,0.005824
execut,0.028951
exemplar,0.008257
exert,0.005481
exhibit,0.004509
exist,0.007126
existth,0.012923
expand,0.006758
expans,0.008061
expect,0.003282
experi,0.011751
experienc,0.008577
explain,0.016080
explor,0.014560
express,0.003095
extens,0.003226
exterior,0.007059
extern,0.001868
extract,0.004598
ey,0.010147
eye,0.004775
facebook,0.007482
factor,0.006058
faculti,0.005518
fame,0.006289
famili,0.016539
famou,0.003946
famous,0.006205
far,0.003239
fascin,0.007123
fast,0.009780
faster,0.029902
father,0.004200
favour,0.004697
featur,0.022616
februari,0.003881
feel,0.008932
felip,0.008698
fellow,0.016204
fiber,0.006205
field,0.010435
fight,0.008965
figur,0.003538
final,0.012360
finalist,0.010367
financi,0.003410
fit,0.004349
focu,0.014019
focus,0.009976
follow,0.010217
followup,0.007580
forb,0.020734
forc,0.002560
form,0.001952
fortun,0.005794
forum,0.005246
foster,0.005461
foundat,0.013324
founder,0.013432
fr,0.006307
fraction,0.005000
framework,0.003660
francisco,0.005513
fratern,0.007838
free,0.002917
freedom,0.008065
french,0.003437
fret,0.010147
friend,0.010147
friendli,0.005884
ft,0.016749
fulfil,0.005166
fulltext,0.008723
fulltim,0.006803
function,0.002615
fund,0.010566
fundament,0.003271
furthermor,0.004377
g,0.003455
gain,0.006215
game,0.004383
garag,0.009228
garden,0.005713
gather,0.004453
gave,0.011151
gb,0.008800
genentech,0.010147
gener,0.003671
germani,0.003846
gigabyt,0.010946
given,0.007686
global,0.003392
gloria,0.008968
goal,0.010541
good,0.002840
googl,0.565107
googleorg,0.012513
googol,0.011070
got,0.005763
govern,0.004858
graduat,0.009573
grant,0.003916
graphhi,0.012923
great,0.002879
greater,0.009652
greatli,0.004183
green,0.008786
grew,0.004268
group,0.004608
grove,0.007411
grow,0.003275
growth,0.006467
gundotra,0.012923
gutenberg,0.020528
gym,0.009789
ha,0.020440
hacienda,0.009264
hadnt,0.009378
hand,0.003165
handheld,0.008698
handl,0.009290
handset,0.010831
happen,0.004037
happi,0.005648
hardwar,0.011952
harmoni,0.005958
harsh,0.006078
hashimoto,0.010449
hassan,0.007747
head,0.003297
health,0.014245
healthcar,0.006016
heart,0.004688
held,0.003020
helipad,0.012923
help,0.022373
hi,0.096202
high,0.007760
higher,0.003036
highspe,0.007580
himpag,0.012923
hire,0.022311
histor,0.005739
histori,0.004255
hit,0.005289
hold,0.012308
home,0.021887
honor,0.005284
honorari,0.013172
hospit,0.005037
hous,0.017134
howev,0.002073
html,0.016780
huge,0.009501
hull,0.007172
human,0.007383
hundr,0.003881
hybrid,0.005337
hypertextu,0.012195
id,0.007028
idea,0.017202
identifi,0.003088
ii,0.003343
ill,0.004960
imag,0.003933
immers,0.007362
impact,0.007001
impati,0.009193
implement,0.003556
import,0.010893
improv,0.009430
inaugur,0.005901
incept,0.006648
includ,0.015960
incorpor,0.007015
increas,0.002456
increasingli,0.003766
increment,0.012905
indefinit,0.006002
independ,0.002623
index,0.020291
individu,0.002634
industri,0.002915
inexpens,0.006939
influenc,0.008441
influenti,0.004108
inform,0.015238
infrastructur,0.004325
initi,0.024980
ink,0.007591
inkjet,0.021071
innov,0.030974
input,0.004628
insid,0.004284
inspir,0.004226
instat,0.009638
institut,0.016219
instructor,0.007673
intel,0.016479
intellig,0.007971
intend,0.003954
intens,0.008485
intent,0.004299
interfac,0.005561
interior,0.005013
interlochen,0.012923
intern,0.002238
internet,0.029334
interoper,0.008450
interven,0.005489
interview,0.031693
intric,0.007106
introduc,0.005993
introductori,0.006090
invent,0.037409
inventor,0.012642
inventori,0.006643
invest,0.010911
investor,0.014600
involv,0.004952
io,0.007798
ipo,0.016740
iselin,0.012923
island,0.007572
isnt,0.006932
issu,0.008223
januari,0.018228
java,0.006467
jay,0.006842
job,0.017645
johann,0.010932
john,0.005811
join,0.003799
jokingli,0.009789
jon,0.007131
joseph,0.004209
juli,0.007379
jump,0.005898
june,0.011165
junior,0.006733
just,0.011914
justic,0.004317
juxtapos,0.009029
kanna,0.011206
kappa,0.008492
kennedi,0.040779
kept,0.004602
key,0.006501
keynot,0.017997
kid,0.007626
kind,0.006805
king,0.004068
kleiner,0.009592
knew,0.006016
knowledg,0.016064
known,0.002134
lab,0.011161
laboratori,0.004334
lag,0.006648
lans,0.018838
laptop,0.008603
larg,0.011254
largescal,0.004976
larri,0.055926
laryng,0.011206
launch,0.008602
lawrenc,0.005713
lawsuit,0.007051
lead,0.002548
leader,0.007469
leadership,0.004633
led,0.016538
left,0.010213
legaci,0.005370
lego,0.009193
lemo,0.031883
lend,0.005486
let,0.004785
letter,0.004215
level,0.002553
levi,0.018006
levinson,0.009158
lie,0.004184
life,0.008236
like,0.020530
limit,0.005216
line,0.003056
link,0.009285
linux,0.008698
list,0.009499
listen,0.006032
liter,0.004911
littl,0.003268
live,0.002761
load,0.005860
loan,0.004954
locat,0.003140
long,0.005545
longer,0.010566
longterm,0.004494
look,0.007052
loos,0.005309
lorrain,0.008968
lost,0.003711
lot,0.021040
low,0.006546
lp,0.008275
lteam,0.012923
lucinda,0.011070
lure,0.008187
luxuri,0.006407
lyman,0.009460
machin,0.004123
magazin,0.029665
maintain,0.005955
mainten,0.005123
maiz,0.007028
major,0.006797
make,0.023888
malse,0.012923
man,0.007556
manag,0.039760
mani,0.001930
manner,0.004121
manuscript,0.005794
mar,0.005843
march,0.017706
marconi,0.027685
mark,0.003428
market,0.009590
marri,0.005353
mass,0.003502
massachusett,0.011200
master,0.004557
materi,0.008977
mathemat,0.003357
matia,0.011934
matur,0.004969
max,0.005218
mayb,0.015469
mba,0.009158
mean,0.002351
measur,0.002797
mechan,0.006307
media,0.003917
meet,0.003455
member,0.008174
memo,0.008910
memori,0.004442
men,0.007919
menlo,0.009301
mentalitygoogl,0.012923
mention,0.012403
mess,0.009419
meter,0.005747
method,0.002644
michigan,0.061631
microsoft,0.027058
microsystem,0.008910
mid,0.008505
middl,0.003520
milk,0.006307
million,0.036896
millionour,0.012923
millisecond,0.016143
minim,0.004507
mission,0.004258
mit,0.005188
mitig,0.006138
mobil,0.009072
model,0.005320
modern,0.002561
momentum,0.005614
money,0.011449
monorail,0.010627
montessori,0.019277
moonshot,0.023430
mother,0.004921
motiv,0.016688
motor,0.005507
motorola,0.019093
mountain,0.004594
movement,0.002944
multilevel,0.008294
multipl,0.003284
museum,0.005149
music,0.028160
musk,0.018679
nascent,0.007164
nation,0.007098
natur,0.004559
nearterm,0.008939
nec,0.009957
necessari,0.003403
necker,0.009957
need,0.010268
neg,0.007406
nervefunct,0.012923
nest,0.006614
net,0.008978
network,0.010710
new,0.026705
nichola,0.011488
nicknam,0.006777
nikola,0.008312
nisen,0.012923
nonengin,0.024390
note,0.012310
novel,0.004726
novemb,0.011490
novoc,0.012923
nowher,0.007352
nu,0.007626
number,0.010681
observ,0.002818
obsess,0.007493
ocean,0.008789
octob,0.011078
offer,0.003175
offic,0.017186
offici,0.016210
okemo,0.025847
old,0.003533
older,0.004481
onc,0.003190
onli,0.003931
onlin,0.003737
open,0.002923
oper,0.008082
opportun,0.004033
order,0.002353
organ,0.009317
organiz,0.005594
origin,0.004733
os,0.007798
outlook,0.006122
outstand,0.005840
overal,0.003908
overhaul,0.016701
overse,0.012737
oversight,0.006764
overtak,0.008136
owner,0.004830
page,0.590300
pagecsstanfordedu,0.012923
pagerank,0.020581
pageth,0.011715
paint,0.005423
pair,0.013652
palo,0.017116
panel,0.006293
paper,0.003523
paperwork,0.009228
paralyz,0.026401
parent,0.014427
park,0.009982
partial,0.003928
particip,0.006737
pass,0.006635
passeng,0.006354
passion,0.012824
past,0.003387
patent,0.022794
path,0.004329
pave,0.006039
pc,0.006932
pedro,0.006849
pentium,0.011070
peopl,0.018835
perceiv,0.004294
percent,0.004288
percussionist,0.012195
peril,0.007785
period,0.007612
perkin,0.007811
permeabl,0.007824
person,0.011177
pertin,0.007637
perturb,0.006637
perviou,0.012923
peter,0.003894
phd,0.022073
philanthrop,0.008800
philipp,0.006829
phone,0.006094
pichai,0.023869
pioneer,0.004461
place,0.012075
plan,0.009702
platform,0.005229
play,0.006166
plenti,0.006714
plotter,0.009193
plu,0.004804
plugin,0.009301
point,0.009908
polici,0.003160
polymath,0.014648
poor,0.004222
popular,0.012220
pore,0.007759
portfolio,0.005874
portion,0.004291
posit,0.007592
possess,0.003837
possibl,0.004995
post,0.008288
poster,0.007950
potenti,0.009511
power,0.007517
pr,0.007250
practic,0.005239
prais,0.005725
praisedit,0.012923
premis,0.011488
present,0.004897
presid,0.021248
press,0.005764
pressur,0.003686
pretti,0.015929
prevent,0.003500
previou,0.003692
previous,0.011199
price,0.003625
primari,0.006464
primarili,0.003347
princess,0.007164
print,0.022993
printer,0.007603
prior,0.003698
priorit,0.007482
prize,0.013701
probabl,0.007027
problem,0.010475
proceed,0.004481
process,0.011574
processor,0.006911
product,0.038283
productrel,0.012195
professor,0.008753
profil,0.010573
profit,0.004230
profoundli,0.007090
program,0.024643
progress,0.006675
project,0.045450
promin,0.003839
promot,0.003493
properti,0.008894
propos,0.006042
protect,0.009791
provid,0.010863
proxim,0.005660
prt,0.010018
public,0.009864
publish,0.002718
purchas,0.012494
purpos,0.003185
pursu,0.004453
push,0.013970
python,0.007709
qualifi,0.010299
quarterli,0.005987
quartz,0.008222
queri,0.021726
question,0.012300
questionandansw,0.010449
rachel,0.007865
radmoor,0.012923
ran,0.010963
rang,0.002939
rank,0.016537
rap,0.008968
rapid,0.004243
rapidli,0.004128
rare,0.008059
rate,0.006069
rd,0.004384
reaction,0.003982
read,0.005394
reader,0.005295
real,0.003223
realiz,0.017370
realli,0.009993
rear,0.006946
reason,0.002787
reassum,0.010535
recal,0.024023
receiv,0.017802
recent,0.005378
recipi,0.005994
recycl,0.006608
redesign,0.007772
reduc,0.002942
refer,0.006212
refin,0.004871
regard,0.002979
regist,0.004815
rejuven,0.008514
rel,0.005569
relat,0.004187
releas,0.007762
relev,0.004062
reli,0.003742
remain,0.005137
rememb,0.005701
renaiss,0.005135
renew,0.004541
rent,0.011959
reorgan,0.019481
replac,0.006329
replic,0.005481
report,0.023879
reportedli,0.006167
repres,0.005095
requir,0.007334
research,0.022675
resembl,0.004899
resourc,0.006288
respect,0.002953
respond,0.008377
respons,0.008081
restrict,0.003599
restructur,0.012268
result,0.008653
retriev,0.004614
return,0.003143
reus,0.007123
reveal,0.004085
reverseengin,0.010147
review,0.003479
reviv,0.004935
revolut,0.003847
richard,0.003836
richest,0.020312
right,0.002786
role,0.019044
roll,0.005794
roof,0.007558
room,0.020150
rough,0.006158
rubin,0.008603
rudimentari,0.007324
run,0.006825
sad,0.007547
said,0.019145
sale,0.009048
san,0.004931
saxophon,0.012195
saxophonist,0.011934
say,0.010094
scale,0.003515
schmidt,0.060643
scholarship,0.005553
school,0.022118
schweer,0.012923
scienc,0.026120
scientif,0.003125
scientist,0.007102
scott,0.005747
scrape,0.008800
screen,0.005735
script,0.006122
search,0.103353
second,0.010195
section,0.003848
sector,0.004071
secur,0.003299
seek,0.006969
seen,0.003047
select,0.003377
senior,0.030885
sens,0.022369
separ,0.002837
septemb,0.007490
sequoia,0.010831
sergey,0.034600
sergeyth,0.012923
seri,0.003093
serv,0.006182
server,0.029372
servic,0.009077
set,0.004811
settl,0.004413
sever,0.004506
shipyard,0.018121
shorten,0.006563
shortli,0.004833
shut,0.006488
signatur,0.006325
signific,0.002759
silicon,0.013194
similar,0.002580
simpl,0.003434
simplic,0.006253
sinc,0.002161
singular,0.011391
sister,0.005965
site,0.007281
size,0.003365
skill,0.004163
slidingglass,0.012923
slow,0.004462
smale,0.010018
small,0.005289
smaller,0.003675
smarthom,0.012923
smoother,0.009339
social,0.008248
socioeconom,0.006244
softwar,0.018317
solar,0.010311
solicit,0.007785
someon,0.015146
someth,0.016622
soon,0.011890
sopa,0.025847
sourc,0.005437
southworth,0.048780
space,0.003332
spacex,0.009638
spain,0.004593
span,0.004992
spanish,0.004674
spare,0.006727
spars,0.006515
speed,0.004420
spend,0.008973
spent,0.004777
spirit,0.004883
spread,0.003820
sq,0.012905
squar,0.004579
sr,0.007259
stabil,0.004030
staff,0.005095
standard,0.002911
stanford,0.040165
starck,0.012923
start,0.010943
state,0.018911
statement,0.003967
statist,0.003546
statu,0.003609
steel,0.005413
steelaluminium,0.012923
step,0.014660
steremberg,0.012923
steve,0.006643
steven,0.010892
stone,0.004827
stop,0.004270
store,0.004378
stori,0.013144
strategi,0.004026
strengthen,0.004888
structur,0.002525
struggl,0.004530
stucco,0.020295
student,0.007357
studi,0.004568
stuff,0.015519
style,0.008907
subsequ,0.003372
subsidiari,0.006536
success,0.002866
suffer,0.003944
suit,0.010048
sum,0.008623
summer,0.010000
sun,0.019179
sundar,0.023049
superior,0.004810
superstructur,0.008723
supervis,0.005168
supervisor,0.007547
superyacht,0.024390
surfac,0.003913
surgeri,0.006094
synthes,0.005616
tackl,0.006654
talent,0.006387
talk,0.009302
task,0.004009
taught,0.004819
teak,0.010367
team,0.058678
tear,0.006932
technic,0.011532
technolog,0.040512
tedx,0.011715
telecommun,0.005634
telepres,0.010831
teller,0.008055
tenet,0.006363
tenur,0.019658
term,0.004084
terri,0.007305
tesla,0.024827
test,0.010600
th,0.009913
thank,0.005943
theme,0.004786
thesi,0.005348
theyr,0.008009
theyv,0.009029
thi,0.011316
thing,0.037831
think,0.033734
thinktank,0.009378
thirdparti,0.008024
thirti,0.005827
thought,0.006126
threat,0.004533
thu,0.002526
thyroid,0.008430
tile,0.008040
time,0.040159
titl,0.003879
tmobil,0.011070
today,0.006210
togeth,0.011921
toler,0.005468
tomorrow,0.007734
tool,0.003460
toothbrush,0.011206
topic,0.003429
total,0.009047
tr,0.015370
traction,0.008222
train,0.003732
transform,0.007076
transhumanist,0.009339
transpar,0.005531
tree,0.008904
tremend,0.006280
true,0.003499
truste,0.007637
truth,0.004598
turn,0.002988
tweet,0.010217
twice,0.005151
twitter,0.008312
twohil,0.012923
twostori,0.011206
typic,0.002899
ui,0.009460
ultra,0.016479
ultramodern,0.011934
unabl,0.004491
unawar,0.007028
undergrad,0.012923
understand,0.002933
undertak,0.005867
underw,0.012542
underway,0.006946
unemploy,0.005062
unifi,0.004524
uniform,0.010022
union,0.003211
unit,0.006540
uniti,0.004750
univers,0.033578
unoffici,0.006631
unrel,0.006179
unspoken,0.010147
unsustain,0.007156
untold,0.009378
unveil,0.007371
url,0.025950
use,0.033555
user,0.038359
usergraph,0.012923
usher,0.006620
usmillion,0.010726
usual,0.005202
util,0.003910
uxa,0.025847
valley,0.009996
valu,0.002770
valuabl,0.010147
vancouv,0.008170
varieti,0.003245
vast,0.004340
ventur,0.005692
verg,0.007637
veri,0.017278
version,0.003780
vic,0.010081
vice,0.010007
vicepresid,0.006983
victor,0.011635
view,0.005540
viru,0.006586
vision,0.014044
visual,0.004560
vocal,0.020255
vocalcord,0.012923
voic,0.010303
volatil,0.011501
vote,0.004098
vp,0.008800
vs,0.005218
wa,0.101015
wall,0.004576
want,0.015961
warehous,0.007626
watch,0.005510
water,0.003334
way,0.006933
wealthi,0.005639
web,0.098406
webbi,0.012195
webmast,0.010018
websit,0.004087
week,0.009085
weeklong,0.009899
went,0.003964
west,0.003711
wherebi,0.004883
whetston,0.011524
white,0.004103
whizzessergey,0.012923
whove,0.012923
wide,0.002783
wife,0.005572
wiley,0.005289
window,0.006074
winograd,0.009737
wire,0.018733
word,0.003000
work,0.016951
workweek,0.009957
world,0.021913
worldclass,0.009228
worst,0.005961
worth,0.009787
worthi,0.006816
write,0.003379
writer,0.013308
written,0.003422
wrong,0.005083
wrote,0.029460
x,0.022961
year,0.015269
yearli,0.006407
york,0.003328
young,0.008026
youth,0.005451
youtub,0.013658
zeitel,0.012923
zero,0.009090
zerosthi,0.012923
zinc,0.006809
