abduct,0.009925
abyss,0.011782
accept,0.004038
access,0.004450
accessori,0.010467
acclaim,0.029111
accompani,0.012437
accord,0.003216
acquir,0.005239
act,0.011028
action,0.023713
activ,0.003209
ad,0.004104
adapt,0.005122
addit,0.016270
advanc,0.015891
adventur,0.024208
affect,0.008406
aftermath,0.008015
agent,0.010968
aggress,0.014334
ai,0.008080
aicontrol,0.015626
alexand,0.006162
alien,0.007537
allianc,0.030078
allow,0.009596
america,0.009015
amus,0.010527
ancient,0.009320
anderson,0.016766
android,0.020819
andromeda,0.108334
anim,0.009004
annihil,0.009124
announc,0.032409
answer,0.005727
antagonist,0.009358
apex,0.040062
app,0.040508
appear,0.011176
april,0.019683
arad,0.014672
arcturian,0.016921
aria,0.036840
arizona,0.009273
armandoowen,0.016921
armi,0.005532
arriv,0.010355
art,0.029525
arteriu,0.033842
artifact,0.007621
ascens,0.020456
ash,0.008690
ask,0.005317
assassin,0.007612
assign,0.011555
attack,0.025930
attican,0.016921
august,0.009775
avail,0.007863
avi,0.012817
award,0.011341
backstori,0.012749
bailey,0.010675
base,0.011210
batarian,0.033842
battl,0.024298
becam,0.003545
becaus,0.005839
becom,0.009314
befor,0.016562
began,0.003872
begin,0.003781
begun,0.006166
benefit,0.004706
best,0.012824
big,0.005872
biotic,0.009273
biowar,0.109387
blackberri,0.014332
blasto,0.031934
board,0.011190
bonu,0.011092
book,0.040547
break,0.005346
bridg,0.006407
bring,0.009643
bro,0.012083
broker,0.025549
c,0.003711
california,0.005949
calmli,0.013681
came,0.004247
canada,0.005563
canadian,0.006593
canon,0.007053
captain,0.007839
captur,0.005333
career,0.006372
cargo,0.008667
casey,0.036840
cast,0.006598
catastroph,0.007709
catherin,0.009253
caus,0.003467
center,0.016572
cerberu,0.086967
cerberuss,0.016921
chang,0.002928
chapter,0.006054
charact,0.118093
character,0.004926
characterbas,0.015626
charg,0.005012
chase,0.008832
check,0.006734
choic,0.010208
choicedriven,0.016921
choos,0.016764
chronolog,0.007745
cinemat,0.011742
citadel,0.060652
civilian,0.006753
cluster,0.007127
colin,0.008942
collect,0.003789
collector,0.064488
colonel,0.008890
coloni,0.016115
colonist,0.008882
combat,0.006818
combin,0.003704
come,0.007431
comic,0.109037
command,0.049054
comment,0.006222
commerci,0.004977
commun,0.003397
compani,0.004102
companion,0.022479
competit,0.005108
complet,0.003588
concept,0.003625
concurr,0.008010
conquer,0.007034
consid,0.006059
consist,0.003477
contact,0.010903
contain,0.003727
contend,0.007489
content,0.030759
continu,0.015740
controversi,0.005119
convict,0.007529
copi,0.037581
corrupt,0.006378
council,0.004737
crash,0.007727
creat,0.006355
crew,0.016340
crime,0.006446
critic,0.019108
cruelti,0.010527
csec,0.016921
cut,0.011031
cutscen,0.015338
cycl,0.015978
d,0.004206
danc,0.008332
danger,0.006102
dark,0.013437
datapad,0.067685
date,0.004342
davi,0.007533
david,0.004615
day,0.003920
dc,0.007194
deal,0.008370
decadesold,0.014044
decemb,0.014303
decept,0.009133
decis,0.013141
defend,0.005813
defin,0.003565
defo,0.012442
del,0.007844
delay,0.006635
demiurg,0.013116
depend,0.006856
design,0.011448
despit,0.013216
destin,0.007270
destroy,0.005433
determin,0.003608
develop,0.007795
devic,0.011613
dialogu,0.007253
dice,0.010859
dietz,0.012228
differ,0.008262
digit,0.017405
direct,0.003450
directli,0.008349
director,0.006247
disappear,0.006605
discov,0.022877
discoveri,0.014598
disregard,0.008968
distribut,0.008573
distributor,0.010959
dlc,0.027830
dont,0.007260
download,0.100901
dr,0.006446
drastic,0.007777
drew,0.021481
drink,0.007704
duo,0.011488
dure,0.020935
e,0.004210
ea,0.040250
earli,0.003128
earth,0.029464
easi,0.006352
easier,0.006697
edg,0.006824
edit,0.009791
effect,0.306917
effort,0.004331
element,0.007956
elit,0.013891
elus,0.010467
emerg,0.008017
emphasi,0.005673
encount,0.006160
encourag,0.005141
end,0.023940
endors,0.007403
engin,0.004507
enigmat,0.012620
enjoy,0.005955
enslav,0.008950
entangl,0.009626
entertain,0.015382
entir,0.008114
environ,0.004146
epilogu,0.013116
eponym,0.010127
equip,0.005592
escapist,0.014182
etern,0.007907
europ,0.004241
event,0.036635
eventu,0.004445
everi,0.007828
evid,0.008530
evolut,0.005078
exclus,0.021374
execut,0.009476
executor,0.012332
expand,0.017699
experi,0.007693
explain,0.004210
exploit,0.005822
extend,0.008251
extermin,0.020490
extern,0.002445
extragalact,0.011742
ezno,0.016921
face,0.004694
faculti,0.007225
fail,0.004702
fall,0.008539
fan,0.052799
far,0.004241
fate,0.007897
featur,0.033842
februari,0.005081
felt,0.006603
fermi,0.009985
fiction,0.020014
fight,0.005869
figur,0.023162
file,0.006981
film,0.095159
filmmak,0.010835
final,0.016183
firewalk,0.016921
fish,0.005836
flee,0.016042
fleet,0.007521
focus,0.017416
foehl,0.016921
follow,0.024080
forc,0.013410
forev,0.008916
form,0.002556
format,0.004562
foundat,0.004361
fourpart,0.026399
fourth,0.029180
franchis,0.036123
free,0.030564
friend,0.006643
frostbit,0.015089
funim,0.016921
futur,0.008147
gain,0.004069
galact,0.019850
galaxi,0.158193
game,0.338644
gameaccur,0.016921
gameplay,0.024074
gamescom,0.016921
gamesradar,0.015626
garner,0.018653
garru,0.016921
gener,0.004806
genocid,0.009049
geth,0.013915
gillian,0.024665
girl,0.008258
goe,0.006019
googl,0.008042
grayson,0.026755
great,0.011309
greater,0.004212
greatest,0.005886
greg,0.010110
grissom,0.014672
group,0.003017
grunt,0.012817
guidanc,0.007541
ha,0.026763
hale,0.010390
hanar,0.033842
handpick,0.012179
haplessli,0.016921
heleu,0.016921
help,0.007323
henc,0.005218
hi,0.014995
hibern,0.011992
highli,0.008806
highwat,0.012442
histori,0.002785
hobbi,0.010487
holograph,0.011704
homeworld,0.014182
hors,0.007225
hostil,0.006936
hough,0.013574
hour,0.005877
howev,0.002714
hq,0.050237
hudson,0.028695
human,0.016112
humanoid,0.010653
hunt,0.013501
hurri,0.011863
ident,0.004789
ign,0.027589
illus,0.016517
immin,0.009614
impend,0.010467
import,0.002852
improv,0.004116
includ,0.013931
inconsist,0.007773
increas,0.003216
increasingli,0.004930
incurs,0.018172
infiltr,0.037836
influenc,0.003684
inform,0.003325
ingam,0.014044
initi,0.010902
inner,0.006723
inquisit,0.010245
insectlik,0.014332
instal,0.046205
intellig,0.005218
intend,0.005177
interact,0.012519
interim,0.008026
interrupt,0.008319
introduc,0.003923
invas,0.018297
investig,0.018747
involv,0.003242
io,0.051054
ireland,0.006991
issu,0.032302
jacob,0.022625
jade,0.011357
jame,0.009434
januari,0.042960
japanes,0.006374
jashni,0.016921
jason,0.010245
jeff,0.009940
jemisin,0.016921
joker,0.014869
jon,0.018674
juli,0.019324
jump,0.007722
june,0.014619
kahle,0.016921
karpyshyn,0.050764
kasumi,0.015967
kayatta,0.016921
kc,0.012228
kill,0.005521
know,0.005067
known,0.008383
lair,0.027589
larg,0.005894
later,0.006651
laugh,0.011037
launch,0.005631
lawson,0.011205
lead,0.010009
learn,0.004697
leav,0.004735
led,0.003609
left,0.004457
legendari,0.018610
legion,0.009867
leviathan,0.010719
liara,0.032768
lieuten,0.008924
life,0.007189
like,0.005973
liner,0.011557
link,0.004862
list,0.006218
local,0.003787
lore,0.010934
lost,0.004859
lot,0.006887
m,0.007998
mac,0.058380
machin,0.005398
machinma,0.016921
main,0.024779
maintain,0.003898
major,0.011866
make,0.005686
male,0.006271
man,0.009894
manag,0.004004
mani,0.002527
map,0.005115
mar,0.007651
march,0.051004
marin,0.006401
mark,0.017957
mass,0.467723
mechan,0.004129
media,0.005128
medium,0.006374
meer,0.026573
member,0.017837
memori,0.005816
mental,0.006050
mercenari,0.019130
merchant,0.013281
messag,0.006948
met,0.005717
microsoft,0.026571
mike,0.009284
milki,0.040062
million,0.026351
minicom,0.050764
minigam,0.031253
miniseri,0.035589
minor,0.005174
miranda,0.023810
mission,0.022300
month,0.019760
mordin,0.016921
moreau,0.012749
morgan,0.007938
moriarti,0.013199
movi,0.007647
multipl,0.004300
multiplatform,0.015626
multiplay,0.024358
muzyka,0.016921
mysteri,0.007380
n,0.005021
narr,0.007358
neg,0.004848
nemean,0.015626
new,0.017483
nexu,0.010448
nk,0.011295
normandi,0.043636
north,0.004439
note,0.003223
novel,0.074261
novemb,0.015045
npc,0.012442
number,0.002797
numer,0.004142
octob,0.014505
offici,0.012734
omega,0.036652
onli,0.005147
onlin,0.014681
open,0.011483
oper,0.010582
order,0.006162
organ,0.009149
origin,0.034085
outbreak,0.007608
outer,0.007143
outsel,0.015338
overal,0.005117
overlord,0.011147
overwhelm,0.007497
pack,0.008158
page,0.027407
paid,0.005701
paint,0.007101
pallin,0.016921
paradox,0.007150
paragon,0.025498
parallel,0.011587
paramilitari,0.009811
park,0.006535
parti,0.008641
particip,0.004410
particularli,0.007842
partit,0.007745
passeng,0.008319
patch,0.009133
path,0.011338
pathfind,0.012386
paul,0.004860
pay,0.005220
perfect,0.006247
period,0.003322
perspect,0.010006
petit,0.008270
phone,0.007979
pick,0.007278
pictur,0.006259
piec,0.006174
pilot,0.008282
pinnacl,0.011119
pirat,0.008907
place,0.031621
plan,0.008468
planet,0.006343
platform,0.013694
play,0.004037
player,0.087812
playstat,0.079199
plot,0.047968
point,0.006486
popul,0.007956
popular,0.004000
port,0.006318
possibl,0.003270
power,0.003281
prais,0.007497
predecessor,0.013982
prequel,0.024457
previou,0.014505
price,0.004746
prima,0.011421
prior,0.014528
prison,0.006805
process,0.003031
produc,0.023352
program,0.004033
progress,0.004369
prohuman,0.016921
project,0.003967
prologu,0.012332
promin,0.005027
promot,0.004573
prompt,0.007018
protagonist,0.038762
protect,0.004273
prothean,0.016921
protosevich,0.033842
provid,0.005689
public,0.009687
publish,0.017793
purg,0.017936
purpos,0.012511
pursuit,0.007228
queen,0.006729
quest,0.008075
race,0.031495
raider,0.010448
rais,0.004729
ralli,0.008441
randal,0.010000
ranger,0.011454
rate,0.007946
ray,0.006945
reaction,0.005214
reader,0.006933
readi,0.007473
realiti,0.005531
reaper,0.164891
reason,0.007299
receiv,0.019424
recept,0.008047
recruit,0.007497
recur,0.008682
recurr,0.008736
red,0.005636
redempt,0.019540
refer,0.002033
refin,0.006378
refus,0.005934
regard,0.003901
relat,0.002741
relationship,0.003881
relay,0.009447
releas,0.269345
relev,0.005318
remot,0.006884
remov,0.004694
renegad,0.011557
repeat,0.005869
replac,0.004143
repres,0.003335
rescu,0.008069
respect,0.003867
respond,0.005484
respons,0.007053
restart,0.010697
retail,0.022063
retak,0.010568
retir,0.006919
retribut,0.011119
retriev,0.006041
return,0.016461
reveal,0.010697
revel,0.016306
reveng,0.009910
revenu,0.005932
review,0.004556
revolv,0.016577
reward,0.007034
rey,0.010909
ride,0.008840
right,0.003649
risk,0.005003
rogu,0.021768
roleplay,0.022469
romanc,0.018918
romania,0.008530
routin,0.007299
ruin,0.008085
run,0.008937
ruthless,0.010675
ryder,0.012228
s,0.005768
safe,0.006648
sale,0.011847
sand,0.008396
sander,0.009232
sara,0.010812
saren,0.092033
save,0.017323
say,0.004405
scene,0.007324
schedul,0.006758
scienc,0.003420
score,0.007453
scott,0.007525
screenplay,0.024773
second,0.013349
secreci,0.009969
sector,0.005331
select,0.004421
sell,0.005752
sent,0.005636
sentient,0.029072
separ,0.003715
septemb,0.009807
sequel,0.019970
sequenc,0.005645
seri,0.129629
serv,0.012143
servic,0.003961
set,0.034649
settlement,0.005934
seventh,0.016410
sever,0.008850
shadow,0.023768
shepard,0.300928
ship,0.011539
shooter,0.024261
shop,0.015174
shore,0.007731
short,0.017342
shortli,0.006328
showcas,0.010719
sign,0.004659
signific,0.003612
similar,0.003379
simul,0.006149
sinc,0.005659
singapor,0.007457
singl,0.011361
site,0.004766
situat,0.004357
sketch,0.018154
skill,0.005451
sky,0.008047
slowli,0.006523
smuggler,0.012386
sneaki,0.015338
sold,0.029881
soldier,0.025757
solomiss,0.016921
sovereign,0.020292
space,0.039268
speci,0.005204
special,0.003539
specialist,0.007021
spectr,0.057978
spike,0.009797
spinoff,0.020974
squad,0.032653
ssv,0.016384
stand,0.005318
star,0.012552
starship,0.011593
start,0.003582
state,0.007428
station,0.043277
statu,0.004726
stay,0.006194
stolen,0.009505
stop,0.011181
store,0.011466
stori,0.063102
storylin,0.034568
storytel,0.010298
strike,0.006294
student,0.004816
studio,0.019486
success,0.011258
suicid,0.008113
summer,0.006547
support,0.003364
surround,0.010365
survivalist,0.014494
taken,0.004143
tali,0.015338
task,0.010499
taylor,0.007120
team,0.011819
teaser,0.013286
technolog,0.004080
tell,0.012748
temp,0.011782
terminu,0.011948
terrorist,0.008565
thane,0.015089
thenlieuten,0.016921
thi,0.006350
thief,0.023485
thirdperson,0.037861
thoma,0.005062
thousand,0.004990
threat,0.017807
threaten,0.006434
tie,0.005520
time,0.007511
timelin,0.006661
titan,0.009867
titl,0.015239
tloak,0.050764
today,0.004065
tone,0.008587
total,0.007897
toy,0.009263
trace,0.005426
trailer,0.024560
travers,0.009202
trigger,0.006884
trilog,0.099253
trooper,0.012386
tsoni,0.033842
tull,0.014182
tv,0.007824
twice,0.006745
u,0.006603
undercov,0.012280
understand,0.003841
uneasi,0.010697
uniqu,0.009650
unit,0.002854
univers,0.023448
unknown,0.017577
unleash,0.010610
unnam,0.010527
unveil,0.009652
upris,0.007858
usa,0.006318
usaopoli,0.016921
use,0.004624
usual,0.003405
util,0.005119
valent,0.014182
vanguard,0.010334
varieti,0.004249
variou,0.016108
vast,0.005682
vega,0.028076
vehicl,0.006425
vehiclebas,0.015967
venari,0.016921
version,0.024751
video,0.043600
view,0.003627
viewer,0.009925
virtual,0.005596
voic,0.020235
wa,0.062650
wage,0.006218
walter,0.040503
war,0.020100
warner,0.010428
way,0.012103
weapon,0.006284
weav,0.009553
websit,0.005351
week,0.011896
wellconstruct,0.013199
wide,0.003644
wii,0.014044
william,0.004534
win,0.006363
window,0.047720
work,0.002774
world,0.002869
worldwid,0.011482
worri,0.008338
wreck,0.010110
write,0.004424
writer,0.005808
written,0.031364
xbox,0.086328
year,0.031416
zaeed,0.016921
zebra,0.011389
zeschuck,0.016921
