abil,0.020254
accord,0.014720
act,0.016825
action,0.180884
actual,0.037682
addit,0.014893
affer,0.125234
ai,0.147930
allen,0.033988
allow,0.014639
altern,0.018916
alway,0.019796
analysi,0.070984
ani,0.012974
anoth,0.014159
appli,0.031475
approach,0.016942
appropri,0.023598
artifici,0.024860
aspect,0.019348
assembl,0.022981
associ,0.028761
attain,0.029800
attempt,0.016792
autom,0.131770
avail,0.017995
averag,0.043977
base,0.012827
behavior,0.041645
book,0.016870
bring,0.022067
bruteforc,0.057481
build,0.018784
canon,0.032281
carbonel,0.066338
carnegi,0.042933
case,0.029729
causal,0.033100
chain,0.026560
chang,0.040210
channel,0.058694
chosen,0.027166
clarifi,0.035856
climb,0.040238
cognit,0.056375
command,0.024945
commonli,0.039492
complex,0.017399
comput,0.039405
concern,0.016693
connect,0.058732
consum,0.023676
control,0.047395
correl,0.027717
correspond,0.021586
craig,0.042164
creativ,0.030725
current,0.045669
denmark,0.034881
depend,0.015689
describ,0.043908
design,0.017465
desir,0.067138
detect,0.052226
develop,0.023784
diagnost,0.038077
differ,0.126059
discoveri,0.022271
effect,0.013907
effer,0.124257
embark,0.040238
engin,0.020631
environ,0.075908
exampl,0.012821
fail,0.021524
flow,0.045089
focus,0.019928
form,0.011701
framework,0.021932
frequent,0.021520
gap,0.029800
gener,0.011000
given,0.030707
goal,0.105283
goalbas,0.073078
goalseek,0.154891
gp,0.083432
ha,0.020415
henc,0.023885
herbert,0.033148
heurist,0.039170
hill,0.030452
howev,0.012424
human,0.014748
implement,0.021313
implic,0.026672
import,0.052225
improv,0.037676
industri,0.017473
inform,0.076095
inspect,0.038250
intellig,0.071657
introduc,0.017957
inward,0.043667
jaim,0.052579
kind,0.020390
knoblock,0.077445
knowledg,0.077012
larger,0.020201
layer,0.029460
lead,0.030540
learn,0.021499
learningassist,0.077445
limit,0.015629
lind,0.052736
load,0.070240
machin,0.024709
make,0.013013
mathemat,0.040235
mea,0.636871
mean,0.042280
meansend,0.181239
mellon,0.047052
memori,0.026620
mention,0.024775
method,0.015849
mfm,0.064910
minton,0.070202
model,0.015940
morten,0.063135
motor,0.066010
multilevel,0.049703
new,0.022861
newel,0.048089
note,0.014754
oper,0.080720
order,0.028204
outsid,0.019522
outward,0.039400
particular,0.032036
penetr,0.034185
perform,0.053970
plan,0.038760
polyt,0.067153
priori,0.039333
problem,0.109858
problemsolv,0.187245
process,0.027744
prodigi,0.052425
produc,0.015268
professor,0.026226
program,0.055378
progress,0.020000
project,0.018157
proof,0.059840
provid,0.013019
reason,0.033405
receiv,0.017780
recurs,0.040574
reduc,0.052892
refer,0.009306
relat,0.012548
relev,0.048683
represent,0.023478
s,0.013199
search,0.166746
select,0.040474
sensori,0.072158
sequenc,0.103346
sideeffect,0.048182
simon,0.031119
simpl,0.020579
sinc,0.012951
solut,0.022159
solv,0.095348
solver,0.098124
start,0.016395
state,0.135995
steven,0.032635
store,0.026240
strategi,0.096509
strip,0.033988
studi,0.013688
suggest,0.018132
suppos,0.028460
tabl,0.049854
taskindepend,0.073078
technic,0.023035
techniqu,0.079617
term,0.012238
theori,0.015181
thi,0.038751
thought,0.018356
tool,0.041479
tri,0.020387
univers,0.026829
use,0.074083
wa,0.021239
way,0.013849
work,0.012697
