abandon,0.004614
abdul,0.007600
abil,0.040790
abl,0.006241
achiev,0.003107
act,0.014118
action,0.003035
adapt,0.003934
addit,0.007498
address,0.007440
adopt,0.006818
advanc,0.009154
advantag,0.003834
advertis,0.011610
advisor,0.012658
affect,0.009685
afford,0.010610
age,0.006187
aggress,0.011010
agil,0.008101
aid,0.003706
alarm,0.006881
alchemi,0.014946
alchemist,0.007966
alert,0.013831
alien,0.005789
alison,0.008562
allow,0.014740
alon,0.012674
alongsid,0.005138
alreadi,0.003599
alter,0.017726
alway,0.003322
analogu,0.006752
ancient,0.014317
anger,0.006448
ani,0.002177
anim,0.003458
annihil,0.007008
announc,0.012446
annoy,0.008498
anoth,0.002376
apng,0.327188
appear,0.008584
applic,0.002950
appreci,0.005481
apprentic,0.024211
approach,0.002843
aptitud,0.008417
architectur,0.004660
arent,0.007765
arm,0.003939
armi,0.008498
arriv,0.015908
arrog,0.008584
art,0.007559
artist,0.005184
ascend,0.006473
ask,0.008168
assail,0.009280
assign,0.004437
associ,0.002413
assum,0.003422
attack,0.011949
attent,0.004028
attitud,0.005071
away,0.003763
babi,0.012917
balanc,0.015640
banish,0.023688
base,0.002152
batlik,0.011781
battl,0.065320
battlerobot,0.012996
beast,0.007704
beaten,0.007600
beauti,0.011320
becaus,0.004484
becom,0.016692
befor,0.007632
beg,0.015581
began,0.002974
begin,0.017428
begun,0.004736
behav,0.010597
behavior,0.003494
believ,0.003081
bend,0.006964
best,0.009849
bestial,0.010687
better,0.006718
bid,0.006347
birth,0.004389
bizarr,0.008498
blast,0.014583
blow,0.006311
bodi,0.017935
bolt,0.008540
bond,0.004254
book,0.005662
born,0.008416
boy,0.011740
brainstorm,0.010074
brand,0.006021
breath,0.006404
brink,0.008233
brother,0.004995
brown,0.005054
brutal,0.006494
built,0.007427
bull,0.006874
bullhead,0.012996
burp,0.012002
cannon,0.006929
capabl,0.011786
captur,0.004096
care,0.011244
caretak,0.016203
carmen,0.025819
carmenth,0.012996
caus,0.010652
caution,0.007022
cave,0.005999
cavern,0.009280
center,0.003182
certain,0.002730
cgi,0.018708
challeng,0.007128
chang,0.006748
charact,0.008245
charg,0.003850
children,0.036930
chri,0.053730
chrissean,0.012996
citi,0.010337
citizen,0.004083
civil,0.006845
claim,0.003028
clairvoy,0.009693
class,0.003309
clear,0.003713
close,0.002669
clown,0.009792
clueless,0.012264
cocki,0.012584
collect,0.002910
comb,0.007741
combat,0.010474
combin,0.005690
come,0.011415
comfort,0.006338
comic,0.069790
commend,0.008798
companion,0.005755
compass,0.006428
compassion,0.008398
compens,0.005043
compet,0.004114
competit,0.007847
complain,0.006478
compos,0.003785
concert,0.006728
conclud,0.004081
conclus,0.004446
condescend,0.012264
condit,0.002792
conflict,0.003716
conquer,0.005402
conscious,0.005083
constant,0.007934
constantli,0.005562
construct,0.006180
consum,0.003973
contain,0.002862
continu,0.012089
control,0.021210
coppola,0.023179
cotutelag,0.012996
courtyard,0.009245
creat,0.017086
creator,0.005981
creatur,0.030427
cretan,0.009792
crete,0.007923
critic,0.002935
crush,0.006104
cup,0.006698
curios,0.007130
current,0.005109
d,0.003230
danger,0.004687
dark,0.010320
darwin,0.005584
daughter,0.021907
dawn,0.018946
deadalu,0.440445
deadalusborn,0.012996
deadaluss,0.012996
deal,0.006429
death,0.006990
debut,0.007937
decid,0.003889
decis,0.006729
deeper,0.005963
defeat,0.004721
demon,0.028242
deriv,0.003034
desir,0.003755
destini,0.007107
destroy,0.020865
destruct,0.009445
determin,0.002771
develop,0.007983
devot,0.004716
diamond,0.012117
diamondlik,0.012264
diamondwith,0.012996
die,0.003823
difficult,0.003480
dig,0.007443
dimens,0.013774
dimension,0.006173
dine,0.008341
dinner,0.007951
direct,0.002649
discomfort,0.008117
discov,0.017571
discoveri,0.018687
dismay,0.008877
disobey,0.009177
dispatch,0.013670
display,0.013605
distanc,0.004249
distant,0.005546
distribut,0.013170
doe,0.002700
dormant,0.007589
doubt,0.015450
drastic,0.005973
drill,0.006612
drink,0.011835
drive,0.004287
driven,0.004645
durabl,0.006722
dure,0.004594
eager,0.007319
earli,0.002402
earth,0.022630
educ,0.003060
effect,0.002334
egypt,0.015221
electromagnetospher,0.012996
elong,0.007443
emot,0.004935
enabl,0.003810
encount,0.004731
enemi,0.010739
energi,0.010090
enhanc,0.008899
enorm,0.005174
enrag,0.009080
enter,0.010536
enterpris,0.018089
entrust,0.007669
environ,0.003184
equip,0.004295
era,0.003795
escap,0.009647
establish,0.002563
eventu,0.013658
everyday,0.005132
everyon,0.011093
everyth,0.004784
excel,0.005197
expand,0.006797
experi,0.005908
experiment,0.004013
explain,0.003234
exposur,0.005339
express,0.009338
extend,0.003168
extra,0.011004
extradimension,0.023562
extrem,0.006892
eye,0.004802
fabric,0.006010
face,0.003606
fact,0.003050
facto,0.005824
fail,0.003612
fall,0.003279
familiar,0.005083
far,0.006515
farewel,0.008584
fashion,0.005056
father,0.021119
fear,0.009016
featur,0.009747
feel,0.013474
feet,0.011734
fell,0.009280
fellow,0.005432
field,0.002623
fierc,0.019819
fight,0.022540
figur,0.007116
film,0.024363
finish,0.016585
fit,0.004374
fix,0.003813
flee,0.006160
fli,0.005362
flight,0.005263
flyer,0.019689
flyerflyer,0.012996
follow,0.006165
forc,0.010300
foremost,0.006710
form,0.009818
formid,0.014827
franchis,0.006936
friend,0.035718
friendli,0.005917
fulllength,0.009111
fur,0.007099
futur,0.006258
futurist,0.007951
gabriam,0.337919
gabriel,0.220456
gain,0.015627
game,0.008817
gate,0.006219
gather,0.004478
gave,0.003738
gazel,0.019201
gazellegazel,0.012996
gener,0.005538
geniu,0.006993
geniuslevel,0.012996
genuin,0.005959
ghost,0.013958
giant,0.005617
glimps,0.008477
global,0.003411
glow,0.016299
goe,0.004623
good,0.005712
grant,0.011815
gratitud,0.008233
graviti,0.005601
great,0.002895
greater,0.003235
greatest,0.004520
greek,0.003637
green,0.008836
greet,0.007557
grew,0.004293
grief,0.008437
grow,0.016471
guard,0.005369
guarda,0.010687
guardian,0.006347
ha,0.013704
hamil,0.022265
hand,0.003183
handl,0.004671
har,0.007163
hard,0.004216
harmoni,0.005991
haunt,0.008584
havoc,0.009019
headlong,0.011420
headquart,0.005692
heal,0.025190
help,0.005625
hi,0.188885
high,0.002601
highli,0.010146
histori,0.002139
hold,0.003094
home,0.003668
hoof,0.019689
horn,0.019544
horu,0.022539
howev,0.006254
huge,0.004777
human,0.012375
humanoid,0.016365
humil,0.009080
humor,0.013915
ident,0.003678
iii,0.004913
ill,0.004988
immedi,0.003776
immens,0.012346
implor,0.010013
improv,0.006322
improvis,0.008182
includ,0.003566
increas,0.004940
increasingli,0.003787
incur,0.006160
individu,0.002649
infant,0.018519
infect,0.034985
inform,0.005108
inhabit,0.004466
inquir,0.007567
insan,0.007923
insati,0.010348
insist,0.005241
instead,0.006018
instinct,0.006796
instruct,0.004836
intellig,0.004008
intend,0.003977
interven,0.005520
intuit,0.005497
invulner,0.020697
issu,0.005513
jd,0.016537
jealousi,0.008675
join,0.003821
journey,0.017910
julia,0.015361
jump,0.005931
just,0.005991
kalliu,0.038990
kane,0.101983
know,0.015569
knowledg,0.003231
known,0.002146
laboratori,0.004358
lament,0.007980
land,0.003250
landscap,0.005355
larg,0.002263
larger,0.003390
late,0.002973
later,0.002554
launch,0.012976
lead,0.010250
leader,0.003755
leadership,0.004660
leav,0.010911
led,0.002772
legaci,0.005400
lend,0.005517
let,0.004812
level,0.005136
levit,0.009556
life,0.008282
like,0.011470
limit,0.002622
littl,0.003287
live,0.002777
long,0.002788
look,0.007092
loss,0.007512
love,0.005098
loyal,0.006546
loyalti,0.006223
lull,0.009144
lush,0.009354
machin,0.016587
magic,0.005988
make,0.021839
man,0.007599
mani,0.007764
manifest,0.004940
manner,0.004144
mark,0.006896
martial,0.013831
marvel,0.015685
massiv,0.004569
master,0.004583
match,0.004567
materi,0.009028
matonti,0.037752
matontith,0.012996
matter,0.003230
meanwhil,0.010386
mechan,0.003171
media,0.003939
megalomaniac,0.011269
member,0.013700
men,0.007964
mental,0.013941
mentor,0.007091
merchandis,0.007365
met,0.004391
metalmit,0.125841
microbot,0.082469
mind,0.004049
mini,0.060893
miniminotaur,0.012996
minotaur,0.010275
mircobot,0.012996
mite,0.008417
mobil,0.004561
molecular,0.004488
money,0.003838
monitor,0.004644
monster,0.007669
motherli,0.012264
motion,0.008667
mount,0.005006
mourn,0.008457
mouth,0.006089
movi,0.005873
murder,0.005454
mutat,0.035778
mysteri,0.005668
myth,0.005484
namesak,0.008747
nanit,0.012002
nanobot,0.124185
nanopow,0.025993
nanotechnolog,0.076611
nasti,0.009210
nate,0.020027
nation,0.004759
nativ,0.008877
natur,0.013756
nearli,0.003740
neg,0.003724
negoti,0.004495
neighbor,0.004844
nephesh,0.012264
new,0.030693
newfound,0.008322
newgen,0.539395
night,0.005267
nightli,0.010074
nightmar,0.008723
north,0.006819
noth,0.004544
numangi,0.012996
numer,0.003181
nurtur,0.007083
observ,0.002834
occas,0.005341
occurr,0.005554
oct,0.007966
octob,0.003713
old,0.003553
older,0.004506
oldest,0.004645
onc,0.009627
onli,0.001976
oper,0.002709
opportun,0.004056
orb,0.019585
order,0.009466
organ,0.002342
origin,0.004760
ostentati,0.010786
overcom,0.005274
pain,0.005439
palac,0.012281
parent,0.019346
particularli,0.006023
pass,0.006672
passion,0.006448
past,0.003406
patriarch,0.007171
paus,0.007966
peac,0.004141
peopl,0.002367
perfect,0.009596
perplex,0.008850
person,0.002810
pertin,0.007680
pharaoh,0.110168
physic,0.011240
physiolog,0.005058
pioneer,0.004486
place,0.009714
plagu,0.012370
plan,0.013009
plant,0.003728
plasma,0.012586
plasmabas,0.012996
plot,0.010526
poison,0.012005
pompou,0.011420
ponder,0.008286
portal,0.012387
possess,0.011577
potenti,0.003188
power,0.052923
powerlust,0.012996
practic,0.002634
precis,0.004056
prefer,0.003771
prepar,0.003994
presenc,0.003724
present,0.002462
presentday,0.011062
pressur,0.003707
pride,0.006777
primari,0.003250
print,0.009249
problem,0.002633
process,0.004656
program,0.003097
progress,0.006712
promin,0.003861
prosper,0.005091
protect,0.016410
proteg,0.010013
proud,0.008070
prove,0.015202
public,0.002480
publish,0.002733
quantiti,0.004011
quarrel,0.008009
question,0.006185
quick,0.006085
quickli,0.012025
radiat,0.004931
rage,0.007704
rapidli,0.004151
rashid,0.008850
readi,0.005739
real,0.003241
realm,0.004933
rebanish,0.012996
recal,0.006039
reckon,0.007728
reconnect,0.008960
reconstruct,0.004894
recount,0.014495
refer,0.003123
refus,0.009115
reign,0.005400
relationship,0.002981
remain,0.007749
remark,0.004790
remind,0.007045
request,0.004747
research,0.002533
resembl,0.004926
resent,0.013468
resid,0.004137
respond,0.008424
respons,0.002708
rest,0.010977
restor,0.004416
retort,0.009955
return,0.006321
reveal,0.004108
reveng,0.007612
revert,0.006835
revit,0.007589
revolutionari,0.004970
rift,0.007171
rise,0.006285
roboduck,0.077056
roboinsectoid,0.012996
robot,0.023157
rocket,0.006634
role,0.002736
room,0.005066
routin,0.005606
royal,0.004120
run,0.006864
rush,0.006822
ruthless,0.008199
safe,0.005106
safer,0.007634
save,0.004435
say,0.003383
scepter,0.021375
school,0.006355
scienc,0.010507
scientif,0.003142
scientist,0.017857
sean,0.056934
second,0.005126
seek,0.010513
seen,0.003064
selfafflict,0.012996
selfdefens,0.008747
selfdisciplin,0.009792
send,0.019537
sens,0.006427
sent,0.008658
sentienc,0.009049
sentient,0.014886
sergeant,0.008519
seri,0.015556
serv,0.003108
set,0.004838
sever,0.006798
shape,0.007445
sharp,0.005278
shoot,0.006623
short,0.003330
sick,0.012265
sign,0.003578
similar,0.005191
simultan,0.004555
sinc,0.002173
situat,0.010039
skill,0.004187
sli,0.126100
slightli,0.004711
slow,0.004487
snout,0.009792
soeet,0.038990
sometim,0.002829
son,0.024971
soon,0.007971
sort,0.004559
sourc,0.002734
space,0.003351
spare,0.006765
special,0.002718
speed,0.008890
spirit,0.009822
spread,0.003842
stabl,0.004277
stalwart,0.011132
stand,0.004085
star,0.004820
state,0.001901
statu,0.003630
staunch,0.008199
stop,0.008588
stori,0.004406
storm,0.006089
strang,0.006448
stranger,0.007623
strength,0.017634
strengthen,0.004916
strict,0.005050
strive,0.018695
strong,0.003158
stronger,0.005233
strongest,0.012613
struggl,0.004556
style,0.004478
suddenli,0.006448
suitabl,0.009650
super,0.007053
supercrimin,0.012996
superhero,0.009472
superhuman,0.035090
superpow,0.007473
suprem,0.004451
sure,0.005956
surfac,0.003935
surpass,0.006136
taken,0.006365
talent,0.012848
teach,0.004258
teacher,0.004981
team,0.004539
technolog,0.015669
teleport,0.009646
televis,0.004899
tell,0.009792
temper,0.013114
tempera,0.015581
termin,0.005092
test,0.003553
thea,0.088064
theaalso,0.012996
thi,0.003251
throne,0.006132
time,0.009615
togeth,0.005994
took,0.003395
toy,0.007115
train,0.007506
transform,0.021348
transmedia,0.012996
transport,0.003726
trap,0.005695
travel,0.003838
tremend,0.006315
tri,0.003421
trial,0.009919
troop,0.004906
true,0.007038
truli,0.010893
tunnel,0.006562
turn,0.009015
tutelag,0.008989
twin,0.025579
type,0.002613
ultim,0.003759
understand,0.002950
underworld,0.053426
uneth,0.008009
univers,0.006753
unleash,0.024448
unpredict,0.006841
upcom,0.007483
upgrad,0.012480
urg,0.005736
use,0.026641
utopia,0.007657
vanish,0.006375
vengeanc,0.009049
veri,0.007446
victori,0.010068
video,0.004784
vision,0.028248
visionbook,0.012996
vivid,0.015932
voic,0.005180
volum,0.007446
vow,0.007646
wa,0.023169
wander,0.014566
want,0.004013
war,0.006175
watch,0.011083
wave,0.013150
way,0.006972
weapon,0.004826
weari,0.009280
weather,0.005330
whi,0.003999
wield,0.007778
wife,0.033622
wilgu,0.012002
wing,0.005917
word,0.003017
work,0.010654
world,0.033055
wors,0.005977
wrath,0.008457
wreak,0.009556
written,0.003441
xmen,0.011132
year,0.004387
york,0.016738
young,0.004036
youngest,0.007483
zaadar,0.012996
