adam,0.055649
advanc,0.011289
affero,0.048085
agi,0.249826
agiri,0.046558
aim,0.013052
alloc,0.018240
annual,0.014041
architectur,0.051722
artifici,0.123483
asia,0.015694
atom,0.015982
atomspac,0.048085
atomspacelik,0.048085
attent,0.014904
australia,0.015887
b,0.024213
base,0.031857
ben,0.094286
book,0.010474
broadbas,0.033480
build,0.011662
built,0.013739
code,0.057137
cog,0.032646
cognit,0.035002
cogprim,0.048085
commun,0.009653
compon,0.025428
comprehens,0.016261
confer,0.043598
consist,0.019762
contribut,0.010836
current,0.009451
cyc,0.037273
d,0.011952
databas,0.017272
dec,0.029114
defin,0.010132
design,0.032532
develop,0.022151
discoveri,0.013827
discuss,0.012046
drive,0.015863
dub,0.047498
ecan,0.048085
econom,0.009727
embodi,0.061655
emerg,0.011392
emot,0.036519
employ,0.023580
engin,0.051239
epstein,0.032364
evolutionari,0.017512
evolv,0.014590
extern,0.006950
ford,0.075506
formerli,0.017804
formula,0.016598
foundat,0.012394
framework,0.081706
fulltim,0.025312
fund,0.013105
futur,0.011576
gbook,0.048085
gener,0.068298
genet,0.016144
given,0.009533
gnu,0.032273
goertzel,0.223643
googl,0.068562
googletechtalk,0.144255
govern,0.009038
grammar,0.023641
graph,0.063441
ha,0.006337
handl,0.017283
hanson,0.033152
hardcov,0.030929
hart,0.027428
heljakka,0.048085
hold,0.011448
hong,0.066666
humanequival,0.046558
hypergraph,0.082377
ikl,0.048085
implement,0.039699
includ,0.019794
infer,0.018266
input,0.017219
institut,0.040231
integr,0.022940
intellig,0.133473
intend,0.014713
interact,0.023718
interfac,0.020691
interpret,0.012680
introduct,0.012600
involv,0.009214
isbn,0.011236
isomorph,0.027537
jeffrey,0.024695
joel,0.027763
journal,0.012225
kong,0.067245
languag,0.023888
learn,0.013349
licens,0.018921
link,0.013818
llc,0.030860
logic,0.030758
longer,0.013105
look,0.013119
m,0.011364
machin,0.015341
mani,0.007181
match,0.016897
metaoptim,0.042879
miri,0.036229
model,0.009897
modulo,0.033152
monash,0.035863
mose,0.025928
mosh,0.033711
natur,0.016964
nce,0.077149
network,0.026566
nlgen,0.096170
novament,0.090747
offici,0.012062
ongo,0.017385
open,0.043510
openai,0.039200
opencog,0.732923
openpsi,0.144255
origin,0.035221
p,0.012129
parttim,0.027959
pattern,0.013556
pdf,0.018389
perform,0.011169
phenomenon,0.016364
pitt,0.029745
pln,0.076575
po,0.028777
polytechn,0.029114
postdoc,0.040302
present,0.009110
primarili,0.012454
prime,0.029277
probabilist,0.118476
proceed,0.016673
program,0.011461
project,0.022547
proprietari,0.027250
psitheori,0.044406
public,0.009175
publish,0.010112
queri,0.026945
reason,0.010370
receiv,0.011039
ref,0.033259
refer,0.005778
relat,0.015582
relationship,0.011029
releas,0.028882
relex,0.048085
represent,0.014577
research,0.037497
result,0.008049
rise,0.011627
robot,0.064258
satisfi,0.017141
search,0.014790
segsim,0.048085
semant,0.042839
sentenc,0.019754
sept,0.031291
set,0.008951
sever,0.008383
siai,0.093116
sinc,0.008041
singular,0.042383
soar,0.026066
softwar,0.034076
solver,0.030462
sourc,0.060693
speak,0.015420
sponsor,0.020161
springer,0.019465
state,0.007036
subgraph,0.038015
summer,0.037208
support,0.028684
syntact,0.028162
tai,0.030657
term,0.015198
theori,0.018852
time,0.007115
today,0.011552
truthvalu,0.035689
uncertain,0.021259
uniti,0.017676
univers,0.016658
urg,0.021225
util,0.014548
vi,0.022869
video,0.070799
viii,0.025611
virtual,0.031808
vision,0.017418
wa,0.013187
websit,0.015206
wiki,0.026879
work,0.007883
workshop,0.023803
world,0.008153
youtub,0.152461
