adopt,0.039012
ai,0.213059
algebra,0.060709
allen,0.065270
artifici,0.238702
becom,0.027288
bobrow,0.117579
book,0.097193
case,0.057091
class,0.037868
classic,0.037722
code,0.044180
common,0.110439
context,0.040169
cover,0.037595
daniel,0.056796
dialog,0.090047
eliza,0.105399
expert,0.054303
extern,0.021497
g,0.039770
gener,0.021124
gp,0.080110
ha,0.019602
herbert,0.063656
histori,0.024485
homepag,0.173955
includ,0.040814
intellig,0.229345
introduc,0.034484
introduct,0.038971
isbn,0.034752
jc,0.094416
joseph,0.048443
knowledg,0.036973
languag,0.073885
link,0.021370
lisp,0.558427
logic,0.047566
machin,0.047451
mathemat,0.038633
newel,0.092349
norvig,0.310658
objectori,0.092173
onlin,0.043011
paradigm,0.178634
peter,0.089623
primari,0.037198
problem,0.060276
program,0.389934
publish,0.031278
recent,0.030947
refer,0.017871
represent,0.045086
research,0.028993
shaw,0.084392
simon,0.059761
sinc,0.024871
solv,0.045775
solver,0.094217
sourc,0.031286
standard,0.033500
stanford,0.057776
student,0.042335
studi,0.052572
surviv,0.042898
symbol,0.045156
techniqu,0.038223
text,0.042907
thi,0.018604
use,0.020323
wa,0.040788
weizenbaum,0.107930
wellknown,0.058389
wide,0.032035
word,0.034526
