accordingli,0.162774
act,0.123991
action,0.088866
actuat,0.125014
ad,0.046149
agent,0.431599
ani,0.031870
applic,0.043187
base,0.031509
brain,0.069776
calcul,0.055642
camera,0.188784
choos,0.062824
chosen,0.066733
complet,0.040340
concept,0.040761
correspond,0.053025
current,0.037394
detect,0.128291
essenti,0.048885
everi,0.044005
examin,0.055041
exampl,0.031495
function,0.077000
gestur,0.104029
given,0.037715
histori,0.062641
input,0.068126
intellig,0.117347
map,0.057508
moment,0.071517
onli,0.028936
perceiv,0.126433
percept,0.736014
process,0.068153
program,0.045344
psycholog,0.061443
record,0.048187
refer,0.022860
sensor,0.094760
sequenc,0.126932
spatial,0.074377
use,0.025997
vector,0.076946
