aacompl,0.020978
abil,0.005814
abovement,0.013578
abraham,0.009924
accord,0.008451
accordingli,0.009511
account,0.004977
action,0.010385
actual,0.005408
actuari,0.013059
addit,0.004275
adher,0.008548
adolph,0.013831
adrain,0.040304
adrienmari,0.017128
affair,0.006987
age,0.005292
agent,0.014410
alahuntsvil,0.019043
albert,0.008588
algebra,0.009075
analysi,0.005094
analyst,0.009590
analyz,0.021310
andrey,0.029146
ani,0.007448
anoth,0.008129
antholog,0.012000
appear,0.004894
appli,0.022588
applic,0.030281
approv,0.014519
approxim,0.005759
ar,0.012157
arbitrari,0.009125
arbitrarili,0.011669
area,0.008394
aris,0.006894
aros,0.008392
arriv,0.006802
artema,0.020978
artifici,0.007136
asid,0.009638
assess,0.064783
assign,0.053135
assist,0.006300
assum,0.005854
attempt,0.004820
attribut,0.006569
augustu,0.012504
author,0.009516
automobil,0.010587
avogadro,0.015093
avoid,0.006312
axiom,0.010538
axiomat,0.011636
b,0.190315
bag,0.013118
balanc,0.006688
ball,0.135667
base,0.007364
bass,0.014799
bay,0.028630
bayesian,0.023496
bbc,0.009614
becaus,0.003835
befor,0.013055
behavior,0.005977
belief,0.013642
believ,0.005270
bernoulli,0.025070
bertsch,0.020978
bessel,0.015184
bet,0.012890
bfrac,0.017342
bibliographi,0.007410
biolog,0.012086
blais,0.013118
blue,0.027248
bologna,0.013602
bool,0.014083
born,0.007198
bpacap,0.020978
bpacup,0.020978
bpapb,0.041956
bpb,0.019277
branch,0.005418
bright,0.011144
brightpleftarightpleftbrightpleftambox,0.020978
bruno,0.012253
buy,0.008060
c,0.014630
cach,0.014174
calcul,0.006502
card,0.058180
cardano,0.031282
case,0.017068
casino,0.027770
categori,0.006511
centuri,0.017529
certain,0.014013
certainti,0.021544
chain,0.007624
chanc,0.082156
chang,0.003847
chapter,0.007954
charact,0.007052
charl,0.006536
christiaan,0.013651
circumst,0.015680
citizen,0.006984
claim,0.010361
class,0.011321
clueb,0.019535
coin,0.035338
collaps,0.007518
collect,0.024893
combin,0.004866
come,0.004881
comet,0.012090
commod,0.016568
common,0.004127
compat,0.009792
compet,0.007037
complement,0.010064
complementari,0.009957
complet,0.004714
complex,0.009989
comput,0.005655
comt,0.012664
concept,0.023817
concurr,0.010524
condit,0.033432
conflict,0.012714
conjectandi,0.019277
conjectur,0.010779
consid,0.015923
consist,0.004568
constant,0.020358
construct,0.005285
consum,0.013593
context,0.006004
continu,0.012407
contrast,0.005766
contribut,0.010020
contributor,0.019970
convert,0.006958
convinc,0.009086
copenhagen,0.012130
correl,0.007956
correspond,0.006196
cotess,0.019535
count,0.007784
cournot,0.015641
cours,0.011898
cox,0.025102
crofton,0.041956
cromwel,0.015184
curv,0.016796
daniel,0.008490
data,0.010895
date,0.011410
deal,0.010997
decim,0.011387
decis,0.017265
decisionmak,0.009839
deck,0.029599
decoher,0.015697
dedekind,0.015093
deduc,0.010194
defin,0.018738
definit,0.005397
degre,0.011180
demon,0.012077
demonstr,0.006135
dempstershaf,0.019535
denot,0.033316
densiti,0.008237
depend,0.009007
deriv,0.005190
describ,0.025208
descript,0.018719
design,0.010027
desir,0.006424
determin,0.014221
determinist,0.043592
develop,0.017069
devis,0.009364
dice,0.071339
did,0.005067
didion,0.020152
die,0.013080
differ,0.014474
difficult,0.005953
digit,0.007622
disambigu,0.013305
discov,0.006011
discoveri,0.019179
discuss,0.011139
diseas,0.007150
displaystyl,0.250215
disregard,0.011782
distribut,0.016896
divid,0.005412
doctrin,0.016372
document,0.006590
doe,0.004618
domain,0.006666
donkin,0.020978
draw,0.013994
dtermin,0.019824
dure,0.003929
e,0.022125
earli,0.008220
earliest,0.027476
east,0.006318
ebook,0.028050
ecolog,0.007744
economi,0.005612
ed,0.005753
editor,0.008748
educ,0.005235
edwin,0.010842
effect,0.011977
efficaci,0.011291
einstein,0.019816
electron,0.006876
element,0.005226
elementari,0.009270
elli,0.012442
emerg,0.010534
emphasi,0.007454
empir,0.005734
encount,0.008094
encourag,0.006754
english,0.005723
ensur,0.006751
entitl,0.008484
environment,0.006606
equal,0.027982
equiprob,0.018282
equiti,0.009403
error,0.117219
erwin,0.012412
especi,0.004772
essenti,0.011425
estim,0.011566
etymolog,0.008748
europ,0.011144
event,0.240664
eventu,0.005841
everi,0.005142
everyday,0.017557
evid,0.016812
evolv,0.006745
exact,0.007840
exactli,0.008050
exampl,0.044166
exce,0.010734
exclus,0.042123
expect,0.005646
experi,0.040429
experiment,0.013728
expert,0.016234
explain,0.005532
exponenti,0.019784
exposit,0.011262
express,0.015973
extend,0.005420
extern,0.003213
f,0.006053
face,0.024673
facil,0.007877
factor,0.005210
failur,0.014300
fair,0.024970
fall,0.011219
famous,0.010674
favour,0.016162
feasibl,0.009985
fermat,0.013651
feynman,0.012064
fienberg,0.019824
file,0.018346
financ,0.019535
financi,0.011733
finetti,0.016932
firstyear,0.016581
fix,0.006522
flip,0.013158
forc,0.008809
form,0.006718
formal,0.027494
formul,0.021111
formula,0.007673
forth,0.008933
foundat,0.005730
franklin,0.010052
free,0.005019
frequenc,0.041990
frequent,0.006177
frequentist,0.017028
friction,0.010826
friedrich,0.008988
function,0.031494
fundament,0.011254
gambl,0.024341
gambler,0.015641
game,0.022622
gase,0.009797
gauss,0.053220
gave,0.019183
gener,0.003157
geometr,0.009036
geometri,0.008962
georg,0.006333
gerolamo,0.015875
giovanni,0.011937
given,0.044075
glaisher,0.019824
gnu,0.014921
god,0.007691
goe,0.007908
good,0.009771
govern,0.008357
grinstead,0.019824
group,0.003964
groupthink,0.015586
guarante,0.008060
h,0.018313
ha,0.008790
hack,0.013701
hagen,0.015278
hand,0.021780
head,0.028365
headhead,0.041956
headtail,0.019824
heart,0.024198
helmert,0.017834
hermann,0.010741
herschel,0.014205
heurist,0.011244
hi,0.007880
higher,0.005224
histor,0.004936
histori,0.010980
hold,0.005293
howev,0.017832
html,0.014432
huygen,0.013415
ian,0.010850
idea,0.004932
ignor,0.007622
impetu,0.011339
implement,0.006118
impli,0.006831
import,0.007495
imposs,0.007430
improv,0.005407
includ,0.012202
incorpor,0.012069
independ,0.013540
index,0.006981
indic,0.010811
individu,0.004532
induct,0.009731
industri,0.005015
induzion,0.020978
inertia,0.012397
infer,0.016890
infinit,0.008604
influenc,0.004840
influenti,0.007067
inform,0.004368
initi,0.004774
inourtimeprob,0.020978
instrument,0.006766
insur,0.008472
integr,0.005303
intelligencemachin,0.020978
interpret,0.052764
intersect,0.009903
introduc,0.015464
introduct,0.005825
invari,0.009716
invers,0.018558
invok,0.010552
irishamerican,0.020152
isbn,0.020779
issu,0.004715
italian,0.016491
ivori,0.011937
jakob,0.013179
jame,0.012395
jayn,0.016581
jeffrey,0.011417
john,0.004998
joint,0.015475
jqk,0.020978
judgment,0.009312
just,0.005124
kallenberg,0.037266
karl,0.008264
kinet,0.009946
know,0.006658
knowledg,0.016580
known,0.022029
kolmogorov,0.042708
la,0.007334
laboratori,0.007456
lacroix,0.019535
languag,0.016566
laplac,0.075691
later,0.004369
latin,0.013810
laurent,0.014054
lauri,0.014839
law,0.048685
lay,0.008267
learn,0.006171
lectur,0.007988
lee,0.009990
left,0.005856
legal,0.012124
legendr,0.029218
letter,0.007252
level,0.004393
liagr,0.020978
licens,0.008748
life,0.009445
like,0.019620
likelihood,0.050940
limit,0.004486
link,0.006389
listen,0.010376
littrow,0.020152
logic,0.014220
long,0.004770
longev,0.013158
look,0.006065
loss,0.006425
magnitud,0.018127
major,0.003897
make,0.007471
mani,0.006640
manipul,0.007865
manufactur,0.007005
market,0.005498
markov,0.025039
martin,0.007775
mathemat,0.069300
matter,0.005525
max,0.008977
maximum,0.007988
mccoll,0.020152
mcgrayn,0.020978
mean,0.016182
meant,0.007534
measur,0.038493
mechan,0.027124
meet,0.005943
membership,0.008091
memoir,0.023706
method,0.022748
middl,0.012113
millennia,0.010704
miller,0.010255
miscellanea,0.017834
model,0.013727
modern,0.022031
modif,0.008731
moivr,0.016664
molecul,0.007932
morgan,0.031287
mthode,0.017342
mutual,0.046493
natur,0.007843
nd,0.006834
necessarili,0.007191
neg,0.012740
new,0.006562
newtonian,0.034104
nineteenth,0.009189
nobil,0.011457
normal,0.011710
note,0.004235
notion,0.006950
nouvel,0.013752
number,0.040425
numer,0.010884
o,0.015493
object,0.015065
objectivist,0.015184
obscur,0.010176
observ,0.024241
occur,0.051339
occurr,0.019003
odd,0.051817
oil,0.007332
old,0.006078
olofsson,0.020978
onc,0.010978
onli,0.016907
oper,0.004634
opera,0.012631
opinion,0.023423
opposit,0.006044
orbit,0.018634
order,0.004048
origin,0.004071
outcom,0.135185
overlin,0.016274
oxford,0.006902
p,0.162625
pa,0.034343
pabpropto,0.020978
pacap,0.041956
pacup,0.020978
page,0.007201
pambox,0.041956
pamid,0.062934
papba,0.020978
particular,0.004598
pascal,0.011427
pattern,0.006267
pay,0.006858
payout,0.014609
pb,0.012170
pdf,0.017004
peac,0.007084
pearson,0.011572
peopl,0.008100
perceiv,0.007387
perform,0.015492
period,0.004364
peter,0.006698
peterss,0.019043
phenomena,0.007014
phi,0.012025
philosophi,0.006254
physic,0.019227
physicist,0.008695
pick,0.009562
pierr,0.009456
pierresimon,0.014963
play,0.015911
player,0.009614
pleftahbox,0.020978
pmbox,0.020978
pnot,0.020978
polici,0.005436
polymath,0.012599
popular,0.010511
posit,0.004353
possess,0.006601
possibl,0.042965
posterior,0.039850
posthum,0.024000
postscript,0.015875
pour,0.011056
power,0.008621
pp,0.020602
pptfrac,0.020978
pr,0.012473
practic,0.009013
precis,0.006938
precoc,0.020978
prepar,0.006831
preprint,0.014683
previous,0.006421
price,0.031180
primit,0.009321
principl,0.015169
print,0.007910
prior,0.025450
priori,0.011291
probabili,0.020978
probabilist,0.054776
probabilit,0.018282
probabilita,0.020978
probabl,0.683034
probiti,0.018123
problem,0.004505
process,0.015929
produc,0.013148
product,0.021951
profit,0.007278
proof,0.025766
propens,0.013098
properti,0.005100
proport,0.013929
proportion,0.012412
propos,0.010394
proposit,0.019363
protocol,0.009524
provid,0.007474
publish,0.004675
punnett,0.016500
pure,0.006660
qualifi,0.008858
quantif,0.012038
quantifi,0.028396
quantum,0.033984
quetelet,0.017456
r,0.005636
random,0.048214
rang,0.005056
ratio,0.022791
ration,0.007259
read,0.004640
realiti,0.007267
reason,0.009589
red,0.044430
reduc,0.005061
regul,0.012649
regular,0.014638
rel,0.009580
relat,0.007204
reliabl,0.023965
remain,0.004418
remark,0.008194
repeat,0.015422
rephras,0.015937
repres,0.004382
represent,0.006739
reprint,0.010274
requir,0.012616
result,0.037213
reveal,0.007027
revolutionari,0.008502
richard,0.019799
right,0.004794
rigor,0.008995
rippl,0.014573
risk,0.013147
robert,0.005874
roger,0.008958
role,0.004680
roll,0.059811
roulett,0.052369
round,0.008463
rule,0.024383
run,0.005871
said,0.005489
sake,0.011162
sampl,0.039806
satisfi,0.007925
scale,0.012093
schiaparelli,0.019535
schrdinger,0.011913
scienc,0.022466
scientif,0.010752
second,0.017538
sell,0.007557
send,0.008354
sens,0.010994
sensibl,0.011817
sensit,0.008604
separ,0.004880
seri,0.005322
set,0.020692
seventeenth,0.011604
sign,0.006121
signal,0.007687
signific,0.004746
sim,0.013858
similar,0.004439
simpl,0.005907
simpli,0.006066
simpson,0.024915
sinc,0.011153
singl,0.019903
situat,0.011449
sixsid,0.039071
sixteenth,0.011736
slow,0.007676
smooth,0.009860
snell,0.014921
societi,0.004658
sourc,0.004676
southampton,0.030754
space,0.034394
speed,0.007603
spite,0.010711
spread,0.006572
springer,0.017998
squar,0.023632
start,0.004706
state,0.009759
statist,0.091498
stochast,0.020636
stop,0.007345
student,0.006328
studi,0.011787
subatom,0.011817
subject,0.033109
subjectivist,0.016001
subset,0.009325
success,0.004930
suffici,0.006873
sum,0.007416
summari,0.008947
superstit,0.012872
sylvestr,0.019277
symbol,0.020250
symmetri,0.010350
tail,0.043058
tailhead,0.020978
tailtail,0.020978
taken,0.016332
technic,0.006612
tendenc,0.008349
term,0.010539
termsthat,0.020978
textpra,0.020978
tfrac,0.137888
th,0.004263
theorem,0.016669
theoret,0.006096
theori,0.122027
thi,0.038934
thoma,0.013301
thompson,0.011039
thu,0.008692
time,0.016448
tool,0.005953
toss,0.045982
total,0.015563
trace,0.007129
trade,0.010757
trader,0.018306
translat,0.006400
treat,0.006510
treatment,0.020518
trend,0.007101
true,0.006020
turn,0.005140
tutori,0.012324
twice,0.008861
type,0.004470
typic,0.004988
ubuweb,0.020978
unbias,0.026158
uncertainti,0.008652
uncount,0.014839
undefin,0.013179
underli,0.014121
understand,0.005046
understood,0.006977
undertak,0.010093
undesir,0.011625
unfavour,0.014332
union,0.005525
unit,0.003750
univ,0.037797
univers,0.015403
univoc,0.018282
use,0.045570
usual,0.004474
util,0.006726
valu,0.019061
vari,0.005481
variabl,0.006796
variat,0.006969
variou,0.004232
veri,0.008492
verlag,0.011937
version,0.019511
view,0.004765
virtual,0.007353
w,0.006238
wa,0.027437
war,0.005281
warranti,0.015049
washington,0.008186
watson,0.011082
wave,0.022494
way,0.003975
weight,0.014988
welldefin,0.011082
wellknown,0.008728
wheel,0.044793
wherea,0.006451
wide,0.004788
widespread,0.007143
wileyintersci,0.015586
wit,0.009055
witnesss,0.019535
wolstenholm,0.018633
word,0.010322
work,0.003645
writer,0.007630
written,0.011773
x,0.013166
xcehx,0.020978
year,0.003752
yield,0.014526
york,0.005726
zero,0.007819
zeroprob,0.020978
