aarona,0.008844
abil,0.013878
abl,0.006370
abstract,0.002958
abus,0.003616
academi,0.003238
acceler,0.012933
accept,0.004221
access,0.004652
acclaim,0.005071
accompani,0.006500
accomplish,0.003378
accord,0.006724
accur,0.002864
accuraci,0.003646
achiev,0.016919
acquir,0.005476
activ,0.001677
ad,0.002145
adapt,0.002677
add,0.003205
addit,0.003401
address,0.002531
adhd,0.006699
admit,0.003545
adult,0.003291
advanc,0.010382
advisori,0.008266
advoc,0.005771
aforement,0.004759
age,0.044213
agnost,0.005327
agre,0.005069
ahead,0.003924
ai,0.042233
aid,0.002522
aim,0.002400
alcor,0.016034
algorithm,0.003370
alik,0.004530
alkalin,0.005310
allen,0.007762
allow,0.006687
alongsid,0.003496
aloud,0.018067
altern,0.002160
alto,0.005651
alway,0.004521
amazon,0.009619
ame,0.005614
america,0.004712
american,0.007619
ami,0.005481
analysi,0.002026
analyz,0.005651
anatom,0.004484
ancient,0.002435
ani,0.004444
announc,0.002823
annual,0.007747
anoth,0.003233
answer,0.002993
anthoni,0.003970
antiag,0.008017
anticip,0.003739
antifragil,0.007575
anyth,0.003322
appear,0.005841
appli,0.005391
applic,0.006023
appoint,0.002763
approach,0.007739
approxim,0.002291
april,0.005143
architectur,0.006342
argu,0.015655
aris,0.002742
armi,0.002891
armwav,0.008844
art,0.018003
arthur,0.003429
articl,0.001998
artifici,0.011356
artist,0.003528
asid,0.003834
assembl,0.002624
assert,0.002888
assist,0.002506
associ,0.003284
astonishingli,0.007340
attack,0.002710
attempt,0.003835
attend,0.003207
attentiondeficit,0.007273
audienc,0.003794
austria,0.003889
author,0.003785
authoritarian,0.004313
automat,0.003432
avail,0.002055
avatar,0.005856
avid,0.005887
avoid,0.002511
awaken,0.004759
awar,0.003041
award,0.053349
away,0.002560
b,0.002226
bankruptci,0.004388
barnum,0.007273
barri,0.008902
base,0.007324
basic,0.004078
beat,0.004264
becam,0.001852
becaus,0.007629
becom,0.008113
befor,0.010387
began,0.008096
belief,0.008140
believ,0.006289
bell,0.007849
benefit,0.004919
best,0.011171
bestow,0.005251
bestsel,0.019997
big,0.009208
billion,0.005758
biochemistri,0.008058
biolog,0.021637
biologist,0.003792
biotechnolog,0.013247
bioterrorist,0.008345
black,0.002735
blind,0.029042
bline,0.008844
bloodcel,0.017688
blue,0.003613
board,0.008773
bodi,0.002034
bold,0.004980
book,0.052018
boom,0.003845
border,0.002986
born,0.008590
borough,0.006179
boston,0.003737
bought,0.003873
boy,0.003994
brace,0.005420
brain,0.016219
brand,0.004097
bring,0.005040
british,0.002263
brook,0.004462
brought,0.002498
bruce,0.004165
bs,0.005523
build,0.004290
built,0.007581
buren,0.007273
busi,0.011425
c,0.001940
cadr,0.005502
california,0.006219
calori,0.005568
camera,0.008776
cancer,0.003733
capabl,0.016041
capit,0.002208
capitalist,0.004010
captur,0.002787
car,0.003587
care,0.002550
career,0.003330
carnegi,0.004902
cartoonist,0.006596
case,0.001697
catch,0.004087
caus,0.001812
cave,0.004082
cb,0.005373
ccd,0.006244
cellsiz,0.008844
cellular,0.003756
center,0.004330
centuri,0.006973
ceremoni,0.011243
chairman,0.003840
challeng,0.002425
champion,0.004214
chang,0.007653
charact,0.014028
charg,0.002620
chargecoupl,0.006445
chemic,0.002585
chess,0.014886
chief,0.002827
children,0.005584
chill,0.005919
cholesterol,0.005769
church,0.003067
cine,0.007340
citi,0.004689
civil,0.006987
claim,0.028853
clark,0.003931
class,0.004503
classic,0.004486
clearest,0.006059
climat,0.002899
clinic,0.003540
clinton,0.014075
clone,0.004655
close,0.001816
coauthor,0.004655
cofound,0.009329
cognit,0.006438
cohenand,0.008844
cold,0.003236
collabor,0.003118
collect,0.003961
colleg,0.011789
come,0.007767
comment,0.006504
commerci,0.010405
common,0.003283
commonli,0.002254
commun,0.003551
communic,0.006137
compani,0.015008
compar,0.002008
complet,0.001875
compon,0.004677
compos,0.007728
comput,0.083251
computerbas,0.011004
computersimul,0.007490
concept,0.009474
concret,0.003720
concurr,0.004186
condit,0.001900
conduct,0.002327
conductor,0.004897
confer,0.013364
confid,0.003473
congratul,0.006533
congress,0.003042
connect,0.004471
consequ,0.002309
consid,0.001583
consist,0.005452
construct,0.008411
consult,0.009407
consum,0.002703
consumpt,0.003167
contemporari,0.002656
content,0.005358
continu,0.004936
contribut,0.003986
control,0.001804
convert,0.002768
cooper,0.002595
copi,0.003273
coproduc,0.007042
cornel,0.004294
corpor,0.005328
correct,0.013672
correctli,0.003901
correspond,0.002465
council,0.002476
counterfuturist,0.008844
counterintuit,0.005523
coupl,0.003142
cours,0.004733
cousin,0.004465
cover,0.004471
creactiv,0.008345
creat,0.021592
creation,0.002471
creativ,0.014035
criteria,0.003400
critic,0.021972
cryonic,0.006944
cryoprotect,0.008017
cultur,0.002041
cup,0.004558
currenc,0.002975
current,0.001738
custom,0.002745
cut,0.005765
cybernet,0.009705
d,0.004396
damag,0.002930
danger,0.009569
daniel,0.006755
data,0.004334
databas,0.006353
date,0.004539
daughter,0.003726
david,0.002412
day,0.006147
deadli,0.004902
deal,0.006562
death,0.007135
debut,0.005401
decad,0.004936
decemb,0.007475
decid,0.005292
decis,0.004579
declar,0.002622
decreas,0.002674
deep,0.003023
defeat,0.003212
defend,0.006076
defens,0.005961
defici,0.004307
deliv,0.003200
demand,0.004848
demo,0.005856
dennett,0.005614
depart,0.002380
depriv,0.008723
depth,0.003565
describ,0.005014
descript,0.002482
design,0.009972
desir,0.002555
destini,0.004836
destruct,0.003213
develop,0.020371
devic,0.021244
devot,0.009629
diabet,0.014414
dickson,0.006022
did,0.002015
didnt,0.008924
differ,0.005758
differentit,0.008017
difficult,0.004736
digit,0.009097
direct,0.005409
disabl,0.011864
discern,0.004462
discret,0.003202
discuss,0.006647
diseas,0.014222
disempow,0.007490
disentangl,0.005919
disord,0.007001
dispens,0.004724
dissolut,0.004092
divers,0.007835
divid,0.002153
divin,0.003611
dna,0.007009
doctor,0.019444
document,0.013108
documentari,0.029212
doe,0.005512
dollar,0.003173
domin,0.004469
donat,0.004067
dotcom,0.005701
doug,0.005841
dougla,0.004013
download,0.004794
dozen,0.003798
dramat,0.003066
draw,0.002783
dreamlik,0.007095
drink,0.004026
drive,0.005835
driven,0.003161
duplic,0.004454
dure,0.014068
dyslexia,0.006774
dystopian,0.006244
eagl,0.005172
earli,0.006540
earth,0.005133
econom,0.005367
econometr,0.004809
economi,0.004465
ed,0.002288
edgeorg,0.008844
edison,0.011839
educ,0.012496
effect,0.001588
effort,0.002264
electron,0.016414
elucid,0.004550
emigr,0.004109
emphasi,0.002965
employ,0.002168
empow,0.004603
emul,0.009374
enabl,0.012963
encourag,0.008061
end,0.001787
energi,0.006866
engin,0.009424
enhanc,0.009084
enrich,0.004279
ensur,0.002685
entir,0.010602
entitl,0.010125
entrepreneur,0.008235
environ,0.002167
essay,0.009504
essayist,0.006200
essenc,0.003693
essenti,0.004545
establish,0.001744
estim,0.002300
etern,0.008266
ethan,0.005769
event,0.002127
eventu,0.004647
everi,0.004091
everyon,0.003774
everyth,0.003255
evolut,0.005308
evolutionari,0.003221
evolv,0.002683
examin,0.002558
exampl,0.002928
execut,0.002476
exemplifi,0.004165
exhum,0.006814
exist,0.004877
expand,0.002312
expans,0.002758
expect,0.002246
expert,0.006458
explain,0.002200
explod,0.004809
explor,0.002491
explos,0.003624
exponenti,0.015741
expos,0.003274
express,0.006354
extend,0.004312
extens,0.008830
extern,0.001278
extract,0.003147
extrapol,0.004696
extrem,0.004690
facil,0.003133
facilit,0.002947
fact,0.002075
factor,0.008291
fail,0.004916
fair,0.006622
faith,0.003268
fame,0.012911
fantast,0.021241
fare,0.005044
fascin,0.009749
fat,0.013430
father,0.017245
fatkat,0.017688
favor,0.002700
fax,0.006291
feat,0.005345
featur,0.004422
featurelength,0.013548
februari,0.013280
feder,0.005206
feigenbaum,0.005936
felicia,0.007575
fellow,0.003696
fenster,0.008017
festiv,0.016241
fewer,0.003467
fiction,0.010460
field,0.005356
fight,0.003067
film,0.029841
filmmak,0.011327
final,0.002114
financi,0.004667
finish,0.003762
flatb,0.024502
flow,0.002574
fluctuat,0.003650
focu,0.004796
focus,0.002275
follow,0.002796
followup,0.005187
font,0.011713
fool,0.005310
forb,0.014189
forecast,0.007703
forehead,0.005872
foresaw,0.006222
foreseen,0.006117
forev,0.023300
form,0.002672
format,0.002384
forum,0.003590
foster,0.003737
foundat,0.011398
founder,0.003064
fourteen,0.004754
frank,0.003423
frantic,0.006445
fredric,0.013066
free,0.001996
freedom,0.002759
frequent,0.002457
frustrat,0.004484
fulltim,0.004655
function,0.001789
fund,0.002410
fundament,0.002238
funni,0.006315
futur,0.038326
futurist,0.032467
futuristrel,0.008844
gadget,0.006365
game,0.005999
garri,0.006158
gave,0.002543
gelernt,0.007886
gener,0.005024
genet,0.005938
geniu,0.009518
giant,0.003822
gift,0.003946
given,0.005260
glass,0.007707
global,0.011608
glucos,0.004891
goal,0.002404
god,0.003059
goe,0.006292
gold,0.003040
golden,0.003542
good,0.003887
googl,0.021017
got,0.003943
govern,0.003324
grace,0.004607
graduat,0.003275
grammi,0.014546
grand,0.013583
grant,0.002680
grave,0.004261
gray,0.004361
great,0.003940
green,0.003006
grew,0.002921
grossman,0.018292
group,0.001576
growth,0.008851
guid,0.002471
ha,0.037302
half,0.004812
hall,0.009950
han,0.003493
harcourt,0.005336
hard,0.002869
harold,0.004195
harvard,0.003415
hasten,0.005301
hauspi,0.008563
hdl,0.006596
head,0.006770
health,0.021934
healthi,0.007634
heart,0.009626
heavili,0.002818
hed,0.012731
hedg,0.004364
heir,0.008946
held,0.002066
help,0.007655
hi,0.112859
hidden,0.003849
hierarch,0.004010
hierarchi,0.003562
high,0.008850
highdens,0.006736
higher,0.004156
highest,0.008031
highli,0.004602
hightech,0.005259
highway,0.004412
hire,0.007634
histori,0.005824
hit,0.003619
hofstadt,0.005811
hofstra,0.008844
hole,0.003978
homocystein,0.007668
honor,0.028931
honorari,0.013521
hope,0.005953
hopper,0.006340
hous,0.009380
household,0.003477
howev,0.002837
hp,0.005382
human,0.032001
humanmachin,0.006736
hundr,0.002656
hybrid,0.003652
hyperact,0.006267
hyundai,0.007095
ibm,0.004495
idea,0.027469
ideal,0.002844
ieee,0.004763
ii,0.004575
illustr,0.002981
imag,0.002691
imit,0.008271
immedi,0.002569
immort,0.009258
immun,0.003826
impact,0.002395
impair,0.004542
impend,0.005471
impress,0.003568
improv,0.010756
impuls,0.004480
inaccur,0.004739
includ,0.014562
increas,0.005043
increasingli,0.005154
inde,0.002972
independ,0.005386
index,0.002777
indic,0.002150
individu,0.005409
induct,0.011614
industri,0.001995
inevit,0.003851
inform,0.006952
ingest,0.005157
inherit,0.003241
innov,0.012112
insid,0.002932
inspir,0.005784
instal,0.003450
instead,0.002047
institut,0.007399
instructor,0.005251
instrument,0.018843
intak,0.010673
integr,0.002109
intellectu,0.002999
intellig,0.040915
interact,0.004362
intern,0.012255
internet,0.014339
interperson,0.004938
interview,0.014459
intim,0.004374
intoler,0.005092
intraven,0.005872
introduc,0.002050
invas,0.003187
invent,0.025601
inventor,0.047585
inventori,0.004546
invest,0.004978
invit,0.007205
involv,0.010168
iq,0.005471
issu,0.005627
ithiel,0.008345
ive,0.005741
januari,0.009979
jaron,0.008167
jewish,0.003624
job,0.003018
john,0.003976
johnson,0.007989
join,0.007800
joseph,0.002880
journal,0.004497
joy,0.004739
jr,0.003713
june,0.007640
just,0.008153
k,0.010601
kai,0.005841
kapor,0.008167
kasparov,0.006814
kept,0.003149
keyboard,0.005755
keynot,0.012316
kind,0.004657
knfb,0.017688
knowledg,0.002198
known,0.004381
korea,0.003528
korean,0.004057
krzwal,0.008844
kurzweil,0.907963
kurzweilainet,0.017688
kurzweilcyberartcoma,0.008844
kurzweiln,0.008844
kurzwyl,0.008844
lab,0.007637
lack,0.002228
lament,0.005430
languag,0.010984
lanier,0.007340
larg,0.001540
larger,0.002307
largescal,0.003405
largest,0.002414
largevocabulari,0.008167
larri,0.009568
late,0.008094
later,0.005214
law,0.007042
layer,0.003364
lead,0.003487
leader,0.005111
leap,0.004651
learn,0.007365
lebanes,0.005556
led,0.003772
legal,0.004823
lemelsonmit,0.017688
lernout,0.008563
letter,0.002885
level,0.012234
lexisnexi,0.007668
liberti,0.003709
librari,0.002745
lie,0.002863
life,0.033818
lifeboat,0.006814
lifetim,0.011227
like,0.014049
limit,0.003569
linear,0.003109
link,0.002541
lipoprotein,0.006503
liquid,0.003132
literatur,0.007833
littl,0.004473
live,0.018897
localand,0.008844
long,0.005692
longer,0.002410
longerterm,0.005714
longev,0.005234
longterm,0.003075
look,0.004826
loophol,0.005741
lot,0.003599
lotu,0.005728
love,0.003469
low,0.002239
lower,0.002159
lucid,0.005969
lyndon,0.005783
lyon,0.004993
machin,0.081832
machineri,0.003604
macroeconom,0.007896
magazin,0.020301
magic,0.004074
main,0.001850
maintain,0.004075
major,0.006201
make,0.007430
maker,0.004031
man,0.012928
mani,0.007925
manifest,0.003362
manifesto,0.004607
mankind,0.008435
manufactur,0.002787
mar,0.003999
market,0.006562
marri,0.003663
martin,0.003093
marvin,0.015585
massachusett,0.003832
match,0.006215
md,0.004325
meant,0.002997
mechan,0.002158
medal,0.021457
media,0.008041
medic,0.013456
medicin,0.002786
medium,0.003331
meet,0.004729
mellon,0.005373
memori,0.006080
men,0.002709
mental,0.003162
merg,0.003519
metaconnect,0.008844
method,0.003619
microscop,0.003772
microsystem,0.006097
midcar,0.007210
midlif,0.007273
million,0.013772
mind,0.008267
mindof,0.008844
mindx,0.008844
minimum,0.003187
minski,0.016037
mission,0.002913
mit,0.021305
mitch,0.006503
mix,0.002810
mixtur,0.003654
mode,0.006580
modern,0.001752
moment,0.003324
monitor,0.003160
month,0.002582
moor,0.003943
moratorium,0.005826
moravec,0.006200
mostli,0.002493
mother,0.003367
mountain,0.003144
movement,0.002015
movi,0.019984
multifacet,0.005676
multipl,0.002247
murray,0.004226
museum,0.007048
music,0.038542
musician,0.010198
myer,0.005481
namm,0.008844
nano,0.006291
nanobot,0.014084
nanotech,0.007273
nanotechnolog,0.033175
narr,0.003845
nasa,0.004412
nascent,0.004902
nassim,0.005969
nation,0.016193
natur,0.001560
nci,0.006855
neal,0.005440
near,0.024028
nearli,0.002545
need,0.010540
neighbor,0.003296
neocortex,0.076386
nervou,0.004001
network,0.004886
new,0.014359
newer,0.004291
newquist,0.008844
news,0.015948
newsweek,0.006244
nichola,0.003931
nineweek,0.008844
nitrogen,0.004033
nonbiolog,0.018601
nonfict,0.010198
noninform,0.008844
nordhau,0.021819
normal,0.004658
notabl,0.004484
note,0.006739
notion,0.002764
nov,0.005545
nuanc,0.005187
number,0.005848
nunn,0.006944
nutrit,0.012593
obscur,0.004048
obtain,0.002271
occur,0.001856
ocr,0.006418
octob,0.005054
offer,0.006519
offic,0.004704
offici,0.004437
old,0.002418
older,0.003066
omnifont,0.017126
omnipres,0.005728
onesent,0.007668
onli,0.014797
onlin,0.002557
onset,0.004495
oper,0.001843
optic,0.014062
optim,0.003099
optimist,0.004926
option,0.003049
oral,0.003776
orchestr,0.010861
order,0.004831
organ,0.003188
organiz,0.003828
origin,0.003239
outlin,0.002844
outlook,0.004189
output,0.003050
outrun,0.006855
outstand,0.007993
overal,0.002674
overcom,0.003589
p,0.004461
pace,0.007887
page,0.005730
palo,0.005856
panel,0.004307
paper,0.007234
paradigm,0.003540
parent,0.006582
partial,0.002688
particip,0.002305
pass,0.004540
past,0.009273
patent,0.003899
path,0.002963
pathogen,0.009402
patient,0.003559
pattern,0.012467
patternrecognit,0.008017
patternrecognitionbas,0.008844
paul,0.002540
pauley,0.008844
pb,0.009683
pdf,0.003382
peopl,0.019335
peoplethi,0.008844
perceiv,0.002938
perform,0.006163
perfus,0.006814
perhap,0.005433
period,0.001736
permit,0.002976
perrett,0.008017
person,0.005736
petaflop,0.022727
philosoph,0.002565
philosophi,0.004976
phone,0.004170
piano,0.023132
pictur,0.003271
piec,0.006454
pill,0.022318
pioneer,0.006105
place,0.004958
plan,0.002213
planet,0.003315
plausibl,0.004368
play,0.004220
player,0.003824
plu,0.006575
plug,0.010841
pockets,0.007771
poem,0.008626
poet,0.004041
poetri,0.004077
point,0.001695
polytechn,0.005354
pong,0.006629
pool,0.003826
popul,0.002079
popular,0.002090
portabl,0.004874
posit,0.001731
possibl,0.011964
postmortem,0.006179
potenti,0.004339
poverti,0.003447
power,0.001714
practic,0.007171
prais,0.003918
pray,0.005210
preced,0.003175
precursor,0.003650
predecessor,0.003654
predict,0.053943
preexist,0.004562
prefer,0.002566
premier,0.008390
present,0.008378
presid,0.016964
press,0.001972
primari,0.004424
primat,0.009508
princip,0.002617
principl,0.002011
printtospeech,0.008844
prioriti,0.003533
privat,0.004805
prize,0.021877
problem,0.010753
proce,0.004079
proceed,0.006133
process,0.004752
produc,0.006974
product,0.017465
profession,0.002715
profit,0.002895
profound,0.003822
profund,0.006944
program,0.044268
progress,0.009136
project,0.010367
promin,0.002627
promot,0.004781
proper,0.003006
propos,0.004135
proposit,0.003851
protein,0.003404
prove,0.002586
prowess,0.005676
psycholog,0.002856
psychologist,0.003840
pt,0.004993
ptolema,0.005293
ptolemi,0.018232
public,0.011813
publish,0.014880
punditri,0.008844
puppet,0.005005
purpos,0.004359
qualit,0.003885
qualiti,0.002496
quantit,0.006226
queen,0.003517
quest,0.004220
questionnair,0.005345
quick,0.004141
quickli,0.002727
quot,0.014024
radic,0.009216
rais,0.004943
ramona,0.008017
rank,0.005658
rapid,0.002904
rate,0.004153
ray,0.025412
raymond,0.013104
rd,0.003000
reach,0.002159
read,0.022150
reader,0.018120
readera,0.008844
reagan,0.010063
real,0.006617
realiti,0.008672
realiz,0.002971
realm,0.003357
realworld,0.004415
receiv,0.016244
recept,0.004206
recipi,0.004102
recogn,0.013673
recognit,0.034958
recollectionsfrom,0.008844
recommend,0.003132
reconnaiss,0.005267
record,0.004480
red,0.005891
reduc,0.002013
refer,0.002125
regard,0.002039
regimen,0.017349
regul,0.002516
regularli,0.003617
regulatori,0.003678
releas,0.010624
religi,0.008144
religion,0.002706
relinquish,0.004880
remain,0.003515
remark,0.003259
remov,0.002453
renni,0.006855
renssela,0.006179
repair,0.007567
replac,0.002165
replic,0.003751
report,0.002042
reprogram,0.023550
republ,0.002494
requir,0.003346
research,0.008620
resourc,0.002151
respect,0.002021
respond,0.002866
respons,0.005530
restless,0.012045
result,0.001480
retriev,0.003157
return,0.008603
reveal,0.005591
revers,0.002925
reviv,0.003377
revolutionari,0.006764
right,0.011443
rise,0.004277
risk,0.002615
robot,0.019698
rodney,0.005345
roll,0.003965
rosenblatt,0.006596
rosenwald,0.008017
roughli,0.002981
royalti,0.004847
rubbish,0.006699
run,0.002335
s,0.004522
safe,0.003474
safer,0.005195
said,0.008734
save,0.003018
say,0.020723
scale,0.004811
scan,0.016974
scanner,0.016204
scansoft,0.008167
scenario,0.003849
scholar,0.002699
school,0.010811
scienc,0.033962
scientif,0.008554
scientist,0.009721
search,0.002720
seattl,0.005164
second,0.003488
secret,0.006558
secular,0.003678
seemingli,0.004170
select,0.002311
self,0.003652
selfdescrib,0.006097
selfpromot,0.007095
selfrepl,0.005728
sell,0.003006
sen,0.005092
senior,0.003522
sens,0.002186
sensor,0.004405
sentiment,0.004130
seoul,0.005826
seri,0.002117
seriou,0.002977
servic,0.002070
seven,0.011156
sever,0.009252
sexi,0.006663
share,0.004142
shift,0.002575
shortterm,0.003863
showcas,0.011205
signific,0.001888
significantli,0.002727
silicon,0.004514
similar,0.003532
simpl,0.002350
simul,0.006427
singl,0.003958
singular,0.105239
singularitythem,0.008844
site,0.004982
sixlay,0.008345
size,0.002303
skeptic,0.007791
skill,0.002849
small,0.001809
smart,0.004646
social,0.001881
softwar,0.018802
sola,0.006391
solar,0.003528
sold,0.009370
solut,0.005061
solv,0.005444
somewhat,0.003135
son,0.002832
song,0.003922
sonya,0.017688
sophomor,0.007575
soul,0.003818
sound,0.006228
south,0.002316
soviet,0.003203
speak,0.002836
speaker,0.007596
speakingtour,0.008844
speci,0.002720
specialist,0.003670
specif,0.001769
spectrum,0.003497
speech,0.025494
spend,0.006140
spiritu,0.027265
st,0.002384
stanc,0.004077
stand,0.002779
standard,0.001992
stanford,0.003435
star,0.003280
start,0.011233
startup,0.005142
state,0.022001
statist,0.002426
statistician,0.004938
statu,0.002470
stay,0.012950
stealthi,0.008844
steep,0.004739
stem,0.003324
step,0.005016
stephenson,0.005919
sterl,0.009828
stevi,0.007490
stockownership,0.008844
stone,0.003303
stop,0.002922
store,0.002996
stori,0.005996
strategi,0.008266
streamlin,0.005523
street,0.006750
stress,0.006066
strive,0.004240
strongli,0.002850
student,0.007552
studi,0.003126
stupid,0.005769
style,0.003047
subject,0.003763
submiss,0.004682
submit,0.003704
subsidiari,0.004473
success,0.007846
suffer,0.002699
suggest,0.010353
summit,0.004325
sun,0.006562
super,0.004799
supercomput,0.015853
superintellig,0.006059
superior,0.006584
supplement,0.007324
suppli,0.004822
support,0.001758
suppos,0.003250
surf,0.005663
surfac,0.002678
surround,0.002708
svforum,0.008844
swift,0.004926
sxsw,0.008844
synthes,0.030751
synthesi,0.003302
synthet,0.003668
tabletop,0.006899
taleb,0.005903
talent,0.004371
talk,0.009548
taught,0.003297
tea,0.004729
tech,0.010050
technic,0.007891
technolog,0.098100
technologiesth,0.008844
technologist,0.005769
ted,0.004809
teen,0.005626
televis,0.003334
tellurid,0.006814
temporari,0.003488
tend,0.002428
terri,0.014998
tesla,0.005663
test,0.012090
testifi,0.005044
text,0.020412
textbook,0.003334
texttospeech,0.027596
theater,0.004779
themselv,0.006582
theori,0.006935
theyr,0.005481
thi,0.017701
thing,0.002353
think,0.010260
thinker,0.010727
thought,0.002096
thousand,0.002608
thu,0.001729
time,0.013087
timelin,0.003481
tissu,0.003574
titl,0.002655
today,0.002124
togeth,0.002039
toler,0.003742
tom,0.004057
took,0.002310
tool,0.007105
total,0.006191
totalitarian,0.004852
toy,0.004841
track,0.003272
trade,0.002139
tradeoff,0.004768
tradit,0.001862
train,0.002554
trait,0.003504
transact,0.003184
transcend,0.033472
transhuman,0.012045
transhumanist,0.012783
translat,0.002546
treatment,0.002720
trend,0.011300
tribeca,0.008563
trillion,0.004122
true,0.002394
truth,0.003147
ture,0.004473
turn,0.002044
tv,0.004089
twelv,0.003901
twentyon,0.005903
type,0.003556
ultim,0.010233
unabl,0.003073
uncl,0.004729
unconvent,0.005471
underground,0.004099
understand,0.010038
understat,0.007273
unfalsifi,0.006474
unhealthi,0.005471
unimagin,0.006533
union,0.002197
unit,0.007459
unitarian,0.010603
univers,0.013787
unknown,0.003062
unless,0.003314
unreli,0.004739
unrestrain,0.006137
unveil,0.010089
upbring,0.005887
updat,0.003583
upload,0.005714
use,0.016920
user,0.016406
valley,0.003420
valu,0.001895
van,0.003235
varieti,0.006662
variou,0.003367
ventur,0.011687
veri,0.001689
vernor,0.013398
version,0.002587
viabil,0.005044
video,0.003255
view,0.011374
ving,0.013327
virtual,0.005850
viru,0.004507
virus,0.004422
vision,0.003203
visionari,0.016773
visit,0.005943
visual,0.009362
vitrifi,0.007412
voic,0.003525
vote,0.002804
voyag,0.016183
vr,0.006391
wa,0.071554
wall,0.006263
waller,0.006596
want,0.002730
war,0.002101
warm,0.003780
water,0.002281
wave,0.002982
way,0.006326
websit,0.013984
week,0.003108
weizenbaum,0.006418
wellpublic,0.006944
went,0.005425
westinghous,0.013327
whi,0.002721
white,0.011233
wide,0.005715
widespread,0.005683
william,0.002370
wine,0.008324
winner,0.012217
wireless,0.004794
wolen,0.008844
women,0.002815
won,0.005988
wonder,0.004285
wont,0.005142
work,0.011600
world,0.013496
worldsinc,0.008017
worldwid,0.003000
write,0.006938
writer,0.006071
written,0.023418
wrong,0.006957
wrongnot,0.008844
wrote,0.007560
xerox,0.012783
yale,0.004043
year,0.031348
yearli,0.004384
york,0.011390
young,0.013732
youth,0.003730
z,0.003608
