aaron,0.008424
abl,0.007006
absenc,0.005098
academi,0.005342
access,0.003837
accompani,0.005361
accur,0.004725
accus,0.005562
action,0.003407
actor,0.006393
ad,0.014157
adapt,0.004416
afterward,0.006109
age,0.003473
air,0.017042
al,0.004757
albeit,0.007010
alien,0.012998
align,0.005991
allianc,0.005187
allnew,0.012821
allow,0.002758
alpha,0.006420
altern,0.010691
american,0.009427
ancestor,0.005961
ancient,0.004018
ani,0.002444
anim,0.042702
animalbas,0.011617
announc,0.013972
annual,0.012781
appear,0.025699
approach,0.003191
approxim,0.003779
arc,0.022363
arce,0.014127
archer,0.008849
archiv,0.005104
ark,0.055936
armada,0.030907
armadaenergon,0.014590
arrang,0.004521
artifici,0.004683
asexu,0.008927
assort,0.008570
assum,0.007684
asteroid,0.008014
attack,0.008943
attempt,0.012654
attende,0.009472
attribut,0.004311
autobot,0.254291
avail,0.006780
aveng,0.019992
avengerstransform,0.014590
awaken,0.007851
award,0.009779
background,0.004763
backstori,0.043973
ban,0.005588
bankrupt,0.016802
bankruptci,0.007239
base,0.007249
battl,0.020951
battlestar,0.010778
bay,0.006263
beast,0.172989
becam,0.012227
becaus,0.002517
becom,0.018739
befor,0.011424
began,0.016696
begin,0.013043
believ,0.003458
best,0.011057
billion,0.009500
bimonthli,0.010829
blackarachnia,0.014590
blitzw,0.014590
board,0.004824
bob,0.015558
bodi,0.006711
bombshel,0.013767
book,0.041319
border,0.004926
botcon,0.072953
bought,0.006390
box,0.018808
brand,0.006759
breed,0.006706
bring,0.004157
british,0.003734
broadcast,0.012977
broke,0.005734
broken,0.011152
budianski,0.039678
build,0.003538
built,0.004169
bulkhead,0.013474
bumblebe,0.034605
burn,0.005732
buyout,0.010229
cabl,0.007290
californiabas,0.012357
callback,0.012651
cameo,0.023235
canadian,0.011370
cancel,0.006344
canon,0.006081
carri,0.003610
cartoon,0.109140
casey,0.010588
cast,0.005689
caught,0.006898
caus,0.002989
ceas,0.005657
celanim,0.014590
censor,0.008864
center,0.007144
certain,0.003065
challeng,0.004001
chamber,0.005943
chang,0.005050
channel,0.005528
charact,0.101827
chri,0.007539
citi,0.003868
class,0.014860
classic,0.007401
clerk,0.007717
cliffhang,0.012651
cliffjump,0.014590
clone,0.007680
club,0.025983
cobra,0.043113
cobrala,0.014590
code,0.004334
coincid,0.006025
collect,0.006535
collector,0.031774
combin,0.009582
come,0.003203
comic,0.250715
command,0.004699
commerci,0.004291
compani,0.010611
companion,0.012922
compet,0.004618
complet,0.009281
complex,0.003278
compris,0.004582
comput,0.003711
concept,0.012504
conclud,0.004581
conclus,0.004991
confirm,0.004829
confus,0.005042
consist,0.017990
constitut,0.003537
construct,0.003469
constructicon,0.014590
contain,0.009641
content,0.008840
continu,0.046144
contradict,0.011967
contribut,0.003288
convent,0.039042
convoy,0.008879
coproduct,0.010728
core,0.004757
corrupt,0.005500
counterpart,0.006007
countri,0.005896
cover,0.003688
crash,0.033314
creat,0.019181
creation,0.008155
creator,0.006714
criticis,0.006593
crossov,0.063062
crother,0.013767
cullen,0.020919
current,0.002868
custom,0.004529
cyber,0.009765
cybertron,0.262631
cybertronian,0.014590
cyclonu,0.014590
d,0.003626
damag,0.004834
danger,0.010524
dark,0.005793
date,0.003744
day,0.006761
dead,0.005616
deal,0.003608
decepticon,0.248040
defeat,0.005300
delay,0.005721
delux,0.013010
demand,0.003999
denni,0.007680
depict,0.011176
design,0.003290
despit,0.011396
destroy,0.018738
destruct,0.005302
detroit,0.009517
devast,0.006360
develop,0.002240
devil,0.023805
devour,0.009494
diaclon,0.058362
did,0.006651
die,0.004292
differ,0.009499
dinobot,0.029181
direct,0.002974
disappear,0.005695
discov,0.003945
discoveri,0.004195
discuss,0.003655
disguis,0.048996
displeas,0.010501
disrupt,0.005772
distinct,0.003450
ditch,0.009517
ditillio,0.014590
divid,0.003552
domin,0.007373
dorl,0.012357
dramat,0.005059
dreamwav,0.218859
drop,0.004917
dub,0.007206
duhamel,0.012498
dure,0.012894
dvd,0.017822
earli,0.005395
earlier,0.003985
earth,0.038109
edit,0.012664
editorinchief,0.009935
effect,0.007860
electron,0.004513
element,0.024011
empir,0.007526
encompass,0.005049
encount,0.005312
end,0.014744
endless,0.008258
energi,0.011327
energon,0.087543
enterpris,0.005076
entir,0.006996
episod,0.052993
era,0.008522
eric,0.006406
escal,0.006986
establish,0.008635
event,0.010529
eventu,0.023000
everi,0.003375
everyday,0.005761
evil,0.013121
evolut,0.004379
exampl,0.002415
exclud,0.005073
exclus,0.018430
execut,0.004085
exil,0.006159
exist,0.010728
exodu,0.008424
expand,0.015261
expans,0.004550
export,0.004947
express,0.003494
extend,0.003557
extent,0.004437
extern,0.002108
extinct,0.006131
extra,0.006177
eye,0.010783
face,0.008096
faction,0.012740
factori,0.017704
fall,0.003681
fallen,0.006553
familiar,0.011413
fan,0.030350
fanmad,0.013767
fatal,0.007010
fear,0.005060
featur,0.010942
fellow,0.006098
femal,0.010830
fiction,0.034515
fifth,0.011487
fight,0.010121
figur,0.019971
file,0.006020
film,0.098462
final,0.006977
finest,0.008533
finish,0.006206
focus,0.007508
follow,0.025378
followup,0.025674
forc,0.005781
form,0.006613
format,0.007867
formerli,0.005402
fortyfifth,0.014590
forward,0.005119
fourth,0.010064
fox,0.007429
franchis,0.054509
fresh,0.006478
fun,0.046119
function,0.002952
furi,0.010193
furman,0.047994
futur,0.007025
g,0.039016
galvatron,0.058362
game,0.029694
gap,0.005614
gather,0.005027
gender,0.006182
gener,0.035231
gi,0.072627
gibson,0.008911
given,0.002892
glass,0.006357
gobot,0.042381
got,0.006506
govern,0.002742
great,0.009751
grimlock,0.014590
gross,0.022555
group,0.005203
grow,0.003698
grown,0.005554
guardian,0.007126
guest,0.007615
guid,0.004077
h,0.008012
ha,0.011538
half,0.003969
hang,0.007725
hasbro,0.206518
hascon,0.014590
headmast,0.021361
heart,0.005293
heavili,0.009299
held,0.006819
hepburn,0.010882
hero,0.013680
heroic,0.008447
hi,0.020687
highestgross,0.023997
highlight,0.005938
hindranc,0.009661
hint,0.007851
hire,0.006297
histor,0.006479
histori,0.004804
hot,0.006351
howev,0.014043
hub,0.007486
hugo,0.007343
human,0.013893
humanoidtyp,0.014127
hunt,0.011641
huntsmen,0.013767
hurtl,0.014590
identif,0.005680
identifi,0.003486
idl,0.008424
idw,0.137679
ignor,0.005002
ii,0.011323
illustr,0.004918
inaccur,0.007818
incarn,0.016872
includ,0.014014
increas,0.002773
individu,0.005949
industri,0.003291
infiltr,0.008156
initi,0.006267
insecticon,0.014590
inspir,0.009543
instead,0.003378
intellectu,0.004947
intellig,0.004500
interpret,0.003847
interspl,0.014590
introduc,0.016915
inunivers,0.013226
involv,0.002795
issu,0.015474
item,0.005290
januari,0.004115
japan,0.014308
japanes,0.054964
jazz,0.009905
jetfir,0.014590
jim,0.007622
joe,0.074418
josh,0.010544
journey,0.006702
june,0.016807
junkion,0.014590
just,0.006725
kasem,0.013226
key,0.007339
kill,0.014282
kindersley,0.012357
kingdom,0.007672
knight,0.007222
known,0.009638
labeouf,0.029181
land,0.021896
larg,0.002541
larger,0.003806
larri,0.007892
late,0.003338
later,0.017205
latveria,0.014590
launch,0.004856
lead,0.014384
leader,0.016865
leadership,0.010462
learn,0.004050
led,0.009335
left,0.007687
leonard,0.007429
lesser,0.005911
letter,0.004759
level,0.002883
licens,0.022966
lieg,0.011704
life,0.015497
limit,0.014723
limitedrun,0.014590
line,0.044861
link,0.002096
lion,0.007506
live,0.003117
liveact,0.056908
lock,0.006245
long,0.003130
longer,0.003976
longtim,0.008216
look,0.007962
lord,0.005706
loyal,0.007349
lugnut,0.014590
machin,0.023276
magazin,0.011164
magnu,0.016825
main,0.015261
mainli,0.004002
make,0.009807
manag,0.003453
mani,0.006537
market,0.003608
marvel,0.132065
masterforc,0.014590
materi,0.010135
matrix,0.042364
maxim,0.010966
maximo,0.012651
meant,0.004945
media,0.004422
meet,0.007801
megan,0.011456
megatron,0.268418
member,0.003076
menac,0.009302
mention,0.004667
merchandis,0.008268
merg,0.005806
michael,0.004436
microman,0.043771
micromast,0.014590
million,0.007573
mini,0.009765
minicon,0.029181
miniseri,0.030687
miniunivers,0.014590
minor,0.004461
mission,0.004807
mix,0.018549
moon,0.031393
mostli,0.004113
movi,0.072533
mysteri,0.012727
mytholog,0.006742
nearli,0.004199
nebulon,0.014590
neg,0.008361
nemesi,0.021088
neo,0.009905
network,0.008061
neutral,0.005277
new,0.036610
newcom,0.009282
newli,0.005072
nick,0.008088
nimoy,0.012651
nomin,0.005032
note,0.002779
noth,0.005101
novel,0.005336
novella,0.009588
number,0.002411
numer,0.003571
occupi,0.004833
offic,0.003880
offici,0.025621
officiallyrecogn,0.013767
omega,0.007900
omnicon,0.014590
onc,0.003602
oneil,0.019081
ongo,0.005275
onli,0.006657
onlin,0.012659
op,0.009564
oper,0.003041
optimu,0.148217
optronix,0.014590
order,0.002656
organ,0.015778
origin,0.034734
orson,0.010229
ova,0.010728
packag,0.006112
page,0.004726
panel,0.007105
partner,0.005270
peac,0.004649
perform,0.006778
period,0.002864
person,0.003154
peter,0.008792
phase,0.004636
place,0.005453
plan,0.003651
planet,0.032820
plasma,0.007064
plot,0.005908
plu,0.005424
popular,0.003449
posit,0.002857
possibl,0.002819
potenti,0.003579
power,0.005658
powermast,0.014590
prais,0.006464
preced,0.005237
predacon,0.058362
predecessor,0.006028
prehistor,0.020047
present,0.024879
preserv,0.004659
previou,0.012507
previous,0.004214
primal,0.018372
primari,0.003649
prime,0.102163
primewar,0.014590
primit,0.006117
primu,0.055259
prior,0.004175
problem,0.005913
proceed,0.005059
produc,0.023012
product,0.023051
professor,0.004941
profil,0.005968
promot,0.011831
properti,0.010042
provid,0.004905
prowl,0.029181
public,0.016705
publish,0.046028
purpos,0.003596
pursuit,0.006233
quell,0.008570
quintesson,0.014590
race,0.005431
ratchet,0.021002
ravag,0.008596
reactiv,0.006605
real,0.014556
rebel,0.006370
reboot,0.032488
rebrand,0.009905
receiv,0.010049
recreat,0.013543
redeco,0.014590
redesign,0.008775
reengin,0.010379
refer,0.008766
reimagin,0.021088
reinterpret,0.008117
releas,0.096403
relev,0.004585
remast,0.012229
remedi,0.006934
remold,0.011456
replac,0.003572
represent,0.004423
reprint,0.006742
repris,0.009095
resolv,0.005092
respect,0.006668
respons,0.003041
resurfac,0.009262
resurrect,0.031116
retcon,0.013474
retroact,0.036380
return,0.017742
reveal,0.032284
revel,0.007030
reveng,0.008545
review,0.015714
reviv,0.005572
revolutionera,0.014590
roblox,0.014590
robot,0.064993
rock,0.005490
rod,0.007580
rodimu,0.029181
rogu,0.009385
role,0.006143
ruler,0.005858
run,0.007706
ryall,0.014590
s,0.009947
said,0.003602
sale,0.005107
sanction,0.006582
sari,0.012821
savag,0.008268
scatman,0.014590
schedul,0.011655
scope,0.005154
scourg,0.021986
scrambl,0.008746
scratch,0.008558
script,0.006911
season,0.067993
second,0.025898
secondincommand,0.010993
secur,0.007450
seen,0.003440
sent,0.009719
separ,0.006406
sequel,0.051658
seri,0.157181
serpentor,0.014127
serv,0.010470
set,0.051605
sever,0.007631
sexism,0.009965
shatter,0.008834
shia,0.016558
ship,0.004974
shockwav,0.021361
shooter,0.010459
shot,0.006818
shout,0.019871
shown,0.004228
sibl,0.008333
sidebysid,0.011241
sigma,0.022559
similar,0.005827
simon,0.017588
simpli,0.007963
simultan,0.005113
sinc,0.007320
singl,0.016328
site,0.004110
sixissu,0.014590
sixpag,0.013226
skyfir,0.014590
skywarp,0.014590
small,0.002985
smaller,0.004149
societi,0.003057
soft,0.006230
sold,0.005153
soldier,0.011104
sometim,0.003176
song,0.006471
sound,0.010275
soundtrack,0.010778
soundwav,0.012821
sourc,0.003069
souvenir,0.010379
space,0.003762
spark,0.006457
special,0.003051
specif,0.002919
sped,0.010125
spiderman,0.012357
spielberg,0.011617
spinoff,0.018085
spotlight,0.029217
springboard,0.010633
stalem,0.008746
stamp,0.007217
standalon,0.008636
star,0.010823
starscream,0.043771
start,0.006177
stasi,0.009588
state,0.006405
steel,0.006112
steven,0.006148
stop,0.009641
stori,0.089035
storyarc,0.014590
storylin,0.059613
struggl,0.005115
style,0.005027
subfact,0.013767
subsequ,0.011424
success,0.012944
sumdac,0.029181
sunbow,0.014590
supergod,0.014590
superhero,0.010633
supplement,0.012082
suprem,0.004997
suspend,0.006065
swarm,0.008975
sweep,0.007473
symkaria,0.014590
takara,0.058362
taken,0.007145
team,0.005095
technolog,0.003518
televis,0.005500
tell,0.005496
tenissu,0.014590
term,0.006917
terror,0.006495
terrorcon,0.014590
terrorist,0.007385
text,0.004209
thcenturi,0.011253
theme,0.005404
therebi,0.005050
thi,0.029202
thirtynin,0.010680
threeepisod,0.014127
thundercrack,0.014590
tie,0.009519
time,0.010795
timelin,0.005743
titl,0.017520
told,0.012377
tomi,0.011998
tonka,0.029181
took,0.003811
toransufm,0.014590
total,0.003404
toy,0.151763
toylin,0.029181
trade,0.003529
transforc,0.014590
transform,0.315556
transformerlandcom,0.014590
transformerscom,0.029181
transmet,0.014590
transtech,0.014590
transwarp,0.014590
travel,0.008617
trilog,0.034232
trion,0.014590
true,0.003950
tune,0.007926
turn,0.006746
tv,0.060723
twelveissu,0.014590
twist,0.008005
twopart,0.009905
twoseason,0.014590
tyres,0.014590
uk,0.013418
ultim,0.004220
ultra,0.018605
umbrella,0.007267
uncivil,0.010993
underw,0.007079
unfinish,0.008849
unicron,0.189678
unit,0.007383
univers,0.053073
unknown,0.005052
unnam,0.018154
unreal,0.009095
use,0.007975
usual,0.002936
util,0.004414
vari,0.003597
varieti,0.003663
variou,0.005555
vector,0.017704
vehicl,0.011081
vehiclebas,0.013767
version,0.012805
victori,0.005651
video,0.010741
villain,0.009472
visit,0.004902
visual,0.010296
voic,0.017448
vok,0.014590
volum,0.004179
voyag,0.006674
wa,0.082032
wait,0.006616
wall,0.005166
want,0.004505
war,0.083193
warrant,0.007526
wave,0.004921
way,0.002609
weapon,0.010837
weav,0.008237
web,0.005290
webisod,0.014127
websit,0.004614
weekli,0.007239
weird,0.009636
went,0.013427
wherea,0.004234
wield,0.008732
wildli,0.009494
won,0.004939
worker,0.004542
world,0.004947
worldwid,0.004950
wound,0.006694
wrap,0.016352
wreckgar,0.014590
write,0.003815
writer,0.020032
wrote,0.004157
yankov,0.013226
year,0.034477
yearlong,0.010302
youtub,0.007710
zone,0.010087
