aaron,0.014004
abl,0.005823
academi,0.026645
access,0.012758
acclaim,0.013908
accolad,0.017601
accord,0.004610
accus,0.009246
action,0.005664
activ,0.004600
actor,0.031884
actual,0.011801
adapt,0.007341
addit,0.004664
adult,0.009025
advis,0.009319
agent,0.007860
aggreg,0.009750
air,0.014164
al,0.007908
alarm,0.012842
album,0.030064
alert,0.012905
alli,0.017031
allianc,0.008622
allmovi,0.019945
amazingli,0.018687
american,0.015671
android,0.014920
angelo,0.016061
anim,0.019359
anniversari,0.024454
anyon,0.010051
appear,0.005340
appl,0.012006
approach,0.005306
approxim,0.006283
arkhipov,0.024254
arrest,0.010132
art,0.007053
arthur,0.009405
artifici,0.015571
ask,0.007621
assur,0.021009
atari,0.037840
att,0.016234
attack,0.029733
attempt,0.010518
attribut,0.007167
authent,0.011678
autom,0.010317
avail,0.005635
averag,0.006886
award,0.032512
b,0.006106
backdoor,0.019457
backgammon,0.018472
badham,0.187874
band,0.010025
base,0.016069
bb,0.014515
becaus,0.016739
becom,0.008900
befor,0.004747
began,0.016653
believ,0.017249
bering,0.045773
best,0.012254
biotox,0.024254
bit,0.022612
board,0.024060
bomber,0.027893
boob,0.021986
bore,0.012478
box,0.031265
break,0.007663
brest,0.071668
briefli,0.010312
bright,0.024316
broadcast,0.010786
broderick,0.085252
broken,0.009269
bruteforc,0.018002
built,0.006930
bulletin,0.012500
burton,0.014611
c,0.010640
cabinet,0.009353
california,0.017056
came,0.018262
canada,0.007974
cancel,0.021093
cann,0.018577
cantwellon,0.024254
carlo,0.010595
cast,0.018915
center,0.011877
chang,0.004197
charg,0.007185
checker,0.015709
chemic,0.007089
chess,0.027216
cheyenn,0.020130
chief,0.007753
cinematographi,0.018472
citi,0.006430
classmat,0.017456
code,0.036025
coin,0.007710
cold,0.008876
colecovis,0.024254
coleman,0.015859
colin,0.012817
colorfilt,0.022886
command,0.007812
commerci,0.007134
commodor,0.032379
compani,0.017640
competit,0.007322
complet,0.015429
complex,0.005449
compos,0.007064
comput,0.166604
computerrel,0.018472
computersecur,0.024254
concept,0.025984
conclud,0.015232
conduct,0.006382
congress,0.008343
connect,0.018393
consol,0.014813
consult,0.008599
continu,0.018048
control,0.029686
convinc,0.049567
corpor,0.007306
correctli,0.010700
cost,0.006547
countdown,0.019044
crack,0.012391
creat,0.009110
credit,0.014413
crew,0.011710
crewmemb,0.020130
crisi,0.007684
critic,0.021911
crosbi,0.016722
cuban,0.013693
culver,0.022398
current,0.004767
cycl,0.007634
d,0.006028
dabney,0.022886
dark,0.019260
data,0.005943
databas,0.017425
david,0.072768
day,0.011239
dead,0.028008
decid,0.007257
decis,0.006278
defcon,0.063093
defend,0.008332
defens,0.008173
defus,0.016831
delario,0.024254
delinqu,0.016945
demon,0.013176
deploy,0.010078
design,0.016409
despond,0.019044
destruct,0.008813
develop,0.018622
devic,0.008322
devis,0.010216
dial,0.065868
dialogu,0.020792
dicaprio,0.021986
did,0.016584
die,0.007135
differ,0.011843
direct,0.029671
directli,0.011967
director,0.035817
disabl,0.010845
disagr,0.010589
discard,0.012456
discov,0.013116
discuss,0.006076
display,0.033854
district,0.009007
doe,0.020155
draw,0.015268
drill,0.012339
drive,0.008001
dure,0.012860
dvd,0.044440
earli,0.013453
earlier,0.006625
earn,0.008427
easi,0.009105
ebert,0.019044
edit,0.007017
eleventhgrad,0.024254
emi,0.019457
employ,0.005947
employe,0.009394
enabl,0.007110
enact,0.009938
encourag,0.007369
end,0.004902
endlessli,0.017253
engin,0.006461
enter,0.006554
entertain,0.022048
enthusiast,0.012779
environ,0.005943
escap,0.009001
espionag,0.014539
event,0.005834
everi,0.005610
excerpt,0.012391
excit,0.021860
excruciatingli,0.024254
exist,0.013375
expand,0.012684
experienc,0.008049
expert,0.008856
explain,0.006035
extern,0.003505
extrem,0.006431
f,0.019812
face,0.013458
facil,0.008594
fail,0.020223
falken,0.228868
fals,0.027279
famili,0.018624
far,0.006079
farmer,0.009489
fascin,0.013368
favor,0.007405
fbi,0.016019
februari,0.007284
feed,0.010292
feel,0.016763
feet,0.010948
festiv,0.011134
fiction,0.009562
field,0.004896
fifthhighest,0.020775
figur,0.006640
film,0.318260
final,0.011598
folk,0.011590
follow,0.003835
footag,0.015938
forc,0.009610
form,0.003664
fraker,0.024254
frame,0.009162
friend,0.028567
fun,0.015333
funni,0.017319
furnitur,0.014205
futil,0.029222
game,0.139860
gave,0.013952
gener,0.017225
geniu,0.039153
genius,0.017528
genuin,0.011121
geoffrey,0.012533
gillard,0.020130
given,0.004808
givenpart,0.024254
global,0.019100
good,0.005330
gordon,0.011181
govern,0.004559
grade,0.011181
graham,0.012217
graphic,0.010312
gross,0.009373
group,0.004324
guess,0.013445
ha,0.009590
hack,0.044844
hacker,0.080517
hamburg,0.014062
happi,0.010600
harting,0.024254
hawk,0.038193
hed,0.017456
help,0.005248
hewlett,0.019312
hi,0.038688
high,0.004854
highli,0.006311
hire,0.010468
hobbyist,0.017917
home,0.006846
horn,0.012158
howev,0.003890
hp,0.044284
human,0.013857
hundr,0.007284
icbm,0.016887
idea,0.021523
identifi,0.005795
ii,0.006274
iii,0.018337
impress,0.009786
improb,0.015859
imsai,0.024254
inbound,0.017601
incid,0.009486
incident,0.014446
includ,0.006656
incurs,0.013024
indirectli,0.010331
inevit,0.010562
influenc,0.005280
insid,0.008040
inspir,0.031729
institut,0.005073
instruct,0.009025
instrument,0.007382
integr,0.005785
intellig,0.022441
interceptor,0.018801
intern,0.004201
internet,0.007864
intervent,0.008699
intrada,0.024254
intrigu,0.013658
introduc,0.005623
introvers,0.020775
invent,0.007800
io,0.014635
island,0.007105
issu,0.005144
j,0.006020
jame,0.006761
japanes,0.009136
jennif,0.058062
job,0.008279
john,0.032718
join,0.007131
joint,0.008441
joshua,0.040480
juli,0.020774
juvenil,0.014082
key,0.006100
kid,0.057248
kind,0.006385
kirkland,0.018920
know,0.007263
known,0.008011
kohut,0.020328
landscap,0.009994
lanter,0.024254
larg,0.004224
laser,0.023868
lasker,0.215715
later,0.009533
launch,0.064579
lawrenc,0.032169
lead,0.004782
learn,0.020199
led,0.005173
lennon,0.021031
leonard,0.012349
leonardo,0.013120
level,0.004792
lewi,0.010060
lightman,0.099727
like,0.021405
link,0.003485
list,0.013370
live,0.015547
local,0.005428
log,0.011229
long,0.005204
look,0.006617
loop,0.011037
loos,0.009964
loosen,0.015060
lost,0.006965
machin,0.007738
mack,0.017253
magazin,0.009279
make,0.008151
maltin,0.021628
mani,0.003622
mankiewicz,0.024254
mark,0.006434
martin,0.008483
mass,0.006572
massiv,0.008528
math,0.012424
matt,0.014735
matthew,0.011621
mayb,0.014515
maze,0.015783
mckittrick,0.043972
member,0.010227
met,0.032783
metal,0.008341
mgm,0.037840
michael,0.007375
micro,0.013120
microcomput,0.018472
middleclass,0.013710
militari,0.038901
militarythem,0.022886
million,0.006295
minut,0.019132
missil,0.112403
mix,0.007708
mm,0.011727
model,0.004992
modem,0.037155
mojo,0.019945
monochrom,0.018472
month,0.021242
moral,0.008017
mountain,0.008622
movi,0.043845
mtv,0.019312
murder,0.010178
music,0.008808
mutual,0.008453
nash,0.014975
natur,0.004278
naval,0.010109
nazi,0.011175
need,0.009635
neg,0.006949
new,0.010739
newer,0.011769
news,0.008747
nice,0.014539
nobodi,0.014023
nomin,0.016730
nonetheless,0.010025
norad,0.336497
north,0.006363
noth,0.008480
novemb,0.007188
nowin,0.022886
nsdd,0.024254
nuclear,0.081892
number,0.016037
obtain,0.012458
offer,0.005959
offic,0.025803
offici,0.012169
oli,0.021628
olli,0.021628
omnipres,0.015709
onenightonli,0.024254
onli,0.011067
oper,0.020224
order,0.004416
oregon,0.013641
origin,0.017766
outcom,0.008193
outofprint,0.020130
p,0.006118
packard,0.018002
pacman,0.020542
park,0.074935
particularli,0.005620
password,0.034378
pc,0.013010
person,0.005244
personnel,0.009905
peter,0.014616
phone,0.011437
pictur,0.008972
place,0.004532
plan,0.018208
plausibl,0.011979
play,0.034719
player,0.020977
playstat,0.018920
plot,0.029467
plotlin,0.021031
point,0.018595
poker,0.016617
polydor,0.022398
popular,0.005733
port,0.009056
posit,0.004749
possibl,0.009374
postproduct,0.019772
prais,0.021492
predica,0.016371
predict,0.006724
prepar,0.007453
preproduct,0.019457
present,0.009190
presid,0.006646
presidenti,0.009398
prior,0.006941
problem,0.004915
proceed,0.008410
produc,0.023908
product,0.014369
program,0.017343
progress,0.006263
project,0.017059
promot,0.006555
prop,0.030995
prove,0.007092
provid,0.004077
push,0.008739
question,0.005771
race,0.009028
rais,0.013557
rand,0.013591
rate,0.005695
reagan,0.027597
realiti,0.015856
realiz,0.016299
realtim,0.012217
rebelli,0.014893
reboot,0.036004
receiv,0.011137
recept,0.011535
recommend,0.008591
record,0.012287
refer,0.002914
referenc,0.012522
refus,0.017011
relat,0.003929
releas,0.072843
relinquish,0.013383
remain,0.004820
remak,0.016234
remot,0.009867
replac,0.005939
replica,0.015270
report,0.016805
requir,0.004588
research,0.009456
respons,0.010110
result,0.008119
retali,0.025584
return,0.011797
review,0.019592
ride,0.012671
right,0.005230
ripley,0.018180
rise,0.005865
rochin,0.024254
rock,0.009127
roger,0.009773
role,0.005105
room,0.009454
rotten,0.016722
rubinstein,0.016324
rumor,0.014400
run,0.019215
s,0.008267
sadist,0.018920
safe,0.009529
safeguard,0.012500
said,0.023954
sampl,0.008685
sang,0.016722
say,0.006314
scan,0.011637
scenario,0.031672
scene,0.031497
school,0.011859
schwartz,0.043546
scienc,0.004902
scientif,0.005865
scientist,0.006664
scifi,0.017126
score,0.010683
scott,0.010786
scrap,0.027893
screen,0.043053
screenplay,0.017754
screenwrit,0.018472
script,0.034468
search,0.007460
seattl,0.014164
second,0.004783
section,0.007221
secur,0.012384
seen,0.017156
select,0.006337
sens,0.005997
sequel,0.071561
set,0.009030
seth,0.015978
seven,0.007648
sever,0.016915
sheedi,0.070452
shoot,0.037080
shot,0.034004
sign,0.006678
silliest,0.024254
similarli,0.007684
simul,0.052883
sing,0.013430
singl,0.005428
siop,0.021986
sit,0.010723
situat,0.012490
smart,0.025486
societi,0.005082
softlin,0.024254
someth,0.007799
somewhat,0.008599
son,0.007766
song,0.053788
soon,0.007438
sound,0.025622
soundtrack,0.035834
soviet,0.061502
spacebas,0.017064
special,0.005073
specul,0.008439
staff,0.009562
stage,0.028335
stalem,0.014539
stanford,0.009422
star,0.026987
start,0.025673
state,0.017746
stephen,0.027032
stiff,0.013727
stillfilm,0.024254
stop,0.008013
stori,0.016445
strang,0.012034
strateg,0.017706
strategi,0.007556
strike,0.036091
string,0.010774
stuart,0.011250
student,0.006904
studio,0.013965
subcultur,0.015566
submarin,0.024514
substanti,0.007530
success,0.010758
successor,0.009111
suggest,0.005678
summer,0.009384
sunnyval,0.067196
superbright,0.024254
supercomput,0.043476
supergroup,0.019312
surpris,0.010666
suspens,0.012601
sysop,0.022886
tabul,0.015178
tactic,0.010786
taken,0.005939
tap,0.013816
tcm,0.018472
technic,0.007214
techniqu,0.006233
technolog,0.005848
teenag,0.014515
telecommun,0.010573
telephon,0.011088
televis,0.009143
tell,0.027410
term,0.007665
terrifi,0.016279
texa,0.011451
th,0.004651
theater,0.013106
theaterwid,0.024254
theatric,0.014948
thencommanderinchief,0.024254
theori,0.004754
thermonuclear,0.050328
thi,0.024272
thing,0.006454
think,0.014069
thorn,0.014563
thriller,0.016887
tia,0.022398
tictacto,0.042062
tie,0.007912
tilematch,0.024254
time,0.007178
titl,0.021843
told,0.010287
tom,0.011128
tomato,0.013908
took,0.006336
torpedo,0.015463
tourist,0.010810
track,0.017949
transform,0.006640
travel,0.007162
tri,0.006384
trigger,0.019735
tron,0.020328
true,0.006567
turn,0.005607
twentyfifth,0.018920
unabl,0.008429
uncl,0.012970
undercov,0.017601
understand,0.011012
unifi,0.008490
union,0.006027
unit,0.016365
unknown,0.008398
unlik,0.006755
unmotiv,0.020130
unusu,0.009834
unwil,0.014102
unwittingli,0.017456
usaf,0.017601
use,0.033144
user,0.008998
ustinov,0.024254
v,0.007232
variou,0.004617
vasili,0.016669
vector,0.009810
veri,0.004632
version,0.014191
vic,0.018920
video,0.035711
viewer,0.014226
virtual,0.008022
visibl,0.008966
vision,0.008786
visit,0.008149
visual,0.017116
wa,0.169624
walter,0.029027
wander,0.013591
war,0.103721
wardriv,0.024254
ware,0.014164
warfar,0.010287
wargam,0.352988
watch,0.010341
way,0.008674
weapon,0.027023
websit,0.007670
weekend,0.015032
whi,0.007463
whop,0.021986
whopper,0.024254
willi,0.027216
william,0.006499
win,0.018242
wing,0.011043
winner,0.011168
wonder,0.011752
wood,0.009360
wopr,0.352264
work,0.007953
world,0.020562
write,0.012684
writer,0.016650
written,0.012844
wrote,0.006911
year,0.004093
york,0.006247
young,0.007531
youth,0.010230
