abov,0.007846
abstract,0.010785
academ,0.018360
accord,0.006128
acm,0.018045
activ,0.006115
actuari,0.037880
advent,0.013403
algebra,0.039485
allow,0.006094
alongsid,0.012746
american,0.006944
analysi,0.044329
analyz,0.010302
anoth,0.011789
appli,0.307947
applic,0.102474
appoint,0.010075
approach,0.007053
approxim,0.008352
area,0.060872
aris,0.009998
arnold,0.015578
asid,0.013978
assess,0.010439
associ,0.005987
asymptot,0.017959
axx,0.027308
babbag,0.020556
base,0.005340
becam,0.006755
becom,0.005915
befor,0.006311
behavior,0.008669
biolog,0.008764
biologist,0.027654
blend,0.015492
blur,0.017207
book,0.007023
branch,0.023577
brigham,0.022850
broader,0.012322
broadli,0.012370
brown,0.012539
busi,0.024992
bxx,0.028332
cambridg,0.009802
categor,0.012582
categori,0.009444
centuri,0.012711
chang,0.005580
charl,0.009479
chemistri,0.010848
choic,0.009725
claim,0.007513
clara,0.020601
classic,0.016356
classif,0.032765
close,0.006623
code,0.019156
colleg,0.010745
combin,0.007058
combinator,0.018997
combinatori,0.017441
common,0.011971
commun,0.006472
comput,0.205070
concept,0.006908
concern,0.006950
confer,0.009744
connect,0.008150
consensu,0.012348
consid,0.017320
consider,0.008319
consist,0.019877
constru,0.018997
cours,0.034513
coursework,0.041479
creation,0.009011
crosslist,0.029227
cryptographi,0.018415
deal,0.007975
decis,0.008346
dedic,0.011891
degre,0.032429
deni,0.011476
depart,0.182281
describ,0.006093
design,0.014542
develop,0.019804
differ,0.005248
differenti,0.010024
difficult,0.008634
dirac,0.018319
directli,0.007954
disciplin,0.036489
distinct,0.022874
distinguish,0.017578
divid,0.007850
divis,0.017160
doctor,0.011814
drawn,0.011683
earli,0.005961
econom,0.065226
emerg,0.007638
emphasi,0.021621
enabl,0.009452
engin,0.077305
equat,0.009912
especi,0.013841
exampl,0.005337
exist,0.005926
experi,0.007329
extens,0.008048
extern,0.004660
fact,0.007567
faculti,0.027534
fall,0.008135
field,0.019526
financ,0.028332
financi,0.008508
fluid,0.012563
formul,0.010206
game,0.043746
gener,0.004579
graduat,0.023885
grew,0.010650
group,0.005749
growth,0.008067
ha,0.021248
hawk,0.016924
highperform,0.041668
histor,0.014318
histori,0.010616
holder,0.014489
host,0.011654
hous,0.008549
howev,0.010344
ii,0.008340
import,0.016307
improv,0.007842
includ,0.030969
increasingli,0.018791
industri,0.043647
institut,0.013488
insur,0.012287
interact,0.007951
interdisciplinari,0.013100
intim,0.015948
isaac,0.013793
jame,0.008988
jointli,0.015376
journal,0.008197
knowledg,0.008015
known,0.005324
label,0.011466
larg,0.005615
learn,0.008950
led,0.006876
left,0.008493
legaci,0.013397
lighthil,0.024557
line,0.007625
link,0.004633
littl,0.008154
logic,0.010312
lucasian,0.025490
major,0.005652
make,0.005417
manag,0.015261
mani,0.024078
math,0.049547
mathemat,0.795687
mathematician,0.065206
mathematicsoth,0.028332
mechan,0.015735
method,0.059386
midth,0.013145
mit,0.012945
model,0.019909
modern,0.006390
motiv,0.010408
ms,0.016010
msc,0.039315
natur,0.005687
new,0.014276
newton,0.013451
newtonian,0.016487
nonmathematician,0.028332
nontrivi,0.018440
notabl,0.024525
note,0.006142
number,0.005329
numer,0.039465
offer,0.015844
onli,0.009808
oper,0.020163
oppos,0.008903
optim,0.011300
organ,0.011622
outsid,0.024382
overlap,0.011841
particularli,0.007471
past,0.016903
paul,0.009260
pedagog,0.019908
phd,0.013767
phenomena,0.010172
physic,0.062743
physicist,0.012610
poincar,0.017670
polici,0.007884
popul,0.007580
pose,0.012977
practic,0.013072
primarili,0.008351
princip,0.009543
probabl,0.043832
problem,0.045737
procedur,0.010639
profess,0.012766
profession,0.019798
professor,0.010918
program,0.053796
promot,0.008715
prove,0.009428
psycholog,0.010413
public,0.006152
publish,0.006781
pure,0.086944
quantit,0.011350
question,0.007672
rais,0.009011
rang,0.007333
realworld,0.016098
refer,0.007749
reflect,0.008326
regard,0.007433
relat,0.010448
reli,0.018672
repres,0.012711
represent,0.009774
requir,0.012199
research,0.044000
resembl,0.012222
respect,0.014737
risk,0.009533
sake,0.016188
santa,0.015355
school,0.023649
scienc,0.188981
scientif,0.046781
se,0.016111
section,0.009600
sens,0.007972
separ,0.028315
sharpli,0.015243
siam,0.039178
similarli,0.010216
simul,0.011716
sinc,0.005392
singl,0.007216
skill,0.020776
small,0.006598
social,0.020579
societi,0.020268
softwar,0.011424
solut,0.009225
solv,0.009924
sometim,0.007019
spawn,0.017190
special,0.006744
specialti,0.015314
specif,0.012903
sponsor,0.013518
state,0.004718
statist,0.106161
statistician,0.036004
statu,0.009006
stephen,0.011978
stimul,0.012067
student,0.018356
studi,0.034192
subject,0.020579
substanti,0.020020
success,0.007151
supplement,0.013350
taught,0.048091
teach,0.010563
technic,0.009590
techniqu,0.008286
technolog,0.007774
term,0.015286
th,0.006183
theoret,0.026525
theori,0.075847
theorist,0.012568
thi,0.020166
thu,0.012607
time,0.004771
today,0.015493
tradit,0.013580
uk,0.009883
undergraduateonli,0.030424
unit,0.005438
univers,0.061434
use,0.057279
usual,0.006489
util,0.009755
variat,0.010108
variou,0.006138
veri,0.006158
wa,0.008842
war,0.007660
way,0.017297
wherea,0.009357
widespread,0.010360
work,0.010572
world,0.005466
young,0.010012
