abov,0.013225
absolut,0.004380
acdot,0.032224
advanc,0.006379
aleph,0.009818
algebra,0.033276
alon,0.004416
alpha,0.005978
altern,0.003318
alway,0.003472
ambigu,0.006068
analysi,0.006226
angewandt,0.011276
ani,0.022761
anoth,0.002484
answer,0.004598
anxn,0.012115
apostol,0.008226
applic,0.003084
argument,0.008678
arrang,0.008420
articl,0.006138
assert,0.008873
associ,0.002522
assum,0.007155
author,0.005815
avelsgaard,0.013586
avoid,0.003857
axaxaxcdot,0.013586
axiom,0.025761
b,0.075258
base,0.002250
basic,0.012531
becaus,0.016409
befor,0.002659
beitrag,0.011637
believ,0.003220
berlin,0.005546
big,0.009430
bigcup,0.012115
bigger,0.006989
biject,0.111357
birkhus,0.009739
book,0.002959
boston,0.005741
branch,0.003311
c,0.023842
calculu,0.011641
cantor,0.066150
cardin,0.061542
carol,0.007729
cartesian,0.035794
case,0.002607
cdot,0.007251
certain,0.002854
choic,0.012294
claim,0.003166
class,0.003459
collect,0.012170
come,0.005966
commonli,0.003464
compani,0.009881
compar,0.003085
complex,0.003052
comput,0.003456
concept,0.011644
conclud,0.004266
consequ,0.010641
consid,0.004865
consist,0.002792
construct,0.003230
contain,0.008977
contrast,0.003523
corollari,0.040788
correspond,0.026508
count,0.014272
countabl,0.753751
cover,0.003434
d,0.006754
day,0.003147
deceiv,0.007945
defin,0.022903
definit,0.029686
demonstr,0.003749
denomin,0.006215
denot,0.015270
denumer,0.012315
describ,0.005135
determin,0.002896
develop,0.002086
diagon,0.007801
die,0.003997
differ,0.004423
discret,0.004920
disjoint,0.008719
displaystyl,0.023892
distinct,0.006425
divid,0.003307
doe,0.005645
domain,0.004074
dot,0.013482
dover,0.006971
e,0.006760
earli,0.002511
earlier,0.003711
easi,0.005100
easili,0.012908
ed,0.007031
edit,0.007861
effect,0.004879
ein,0.008184
elabor,0.010452
element,0.076660
ellipsi,0.011076
empti,0.005987
enumer,0.014516
equival,0.016182
eric,0.005965
errorpron,0.009859
everi,0.028284
exactli,0.004920
examin,0.003930
exampl,0.029241
exhibit,0.004741
exist,0.014984
explicitli,0.005112
extend,0.006625
extern,0.001963
f,0.048093
fact,0.009566
falpha,0.011780
ferreir,0.010899
fewer,0.005326
final,0.003248
fine,0.005369
finish,0.005779
finit,0.114271
finitelength,0.012820
fletcher,0.008928
fm,0.008118
fn,0.017725
follow,0.015038
foresight,0.008719
foresman,0.012315
form,0.004105
formal,0.003360
formul,0.008601
foundat,0.010506
fr,0.006630
fraction,0.015770
function,0.074239
fx,0.007770
fy,0.008240
g,0.032698
gener,0.007719
georg,0.011611
given,0.021548
gm,0.008700
gmathbf,0.011387
gn,0.028192
gnm,0.012820
grand,0.005216
greater,0.003382
guess,0.007531
gx,0.019329
gy,0.010406
h,0.007461
ha,0.012535
halmo,0.010406
henc,0.016761
hi,0.004815
higher,0.003192
hilbert,0.007207
histori,0.004473
hotel,0.006466
howev,0.010897
hx,0.019891
immedi,0.003947
impli,0.008350
imposs,0.004540
includ,0.009321
index,0.004266
individu,0.002770
induct,0.005947
infin,0.007020
infinit,0.157759
inject,0.092832
inner,0.005398
instanc,0.003637
instead,0.003145
integ,0.148127
interestingli,0.008700
intersect,0.006052
introduc,0.006300
introduct,0.003560
intuit,0.005746
isbn,0.025398
jo,0.006390
john,0.003054
journal,0.003454
june,0.003912
k,0.004071
kamk,0.013155
kcdot,0.010985
key,0.003417
kind,0.003577
know,0.004068
kth,0.010184
labyrinth,0.009308
lang,0.014842
larger,0.007088
length,0.013364
let,0.025153
like,0.004796
likewis,0.005317
linear,0.004777
link,0.001952
list,0.009986
look,0.003707
lwenheimskolem,0.010899
m,0.016054
make,0.002283
mani,0.026379
manner,0.004332
mannigfaltigkeitslehr,0.013586
map,0.135536
martino,0.011780
mathbf,0.015081
mathemat,0.028234
mathematik,0.009593
mathworld,0.009397
mcgrawhil,0.006487
mean,0.009889
minim,0.018953
miss,0.005663
mn,0.016262
model,0.022372
multivari,0.007670
n,0.270127
naiv,0.007396
natur,0.062315
nd,0.008354
need,0.010795
neg,0.003893
new,0.014037
nin,0.009902
nn,0.008485
nondenumer,0.013586
nonempti,0.018675
nonenumer,0.013586
nonetheless,0.005615
nonintuit,0.011637
nonneg,0.016777
nonwel,0.013586
normal,0.003578
nostrand,0.009224
note,0.012942
notion,0.008494
nth,0.018041
number,0.130263
numer,0.003326
observ,0.005926
odd,0.012666
onetoon,0.039905
onli,0.010332
order,0.039583
ordin,0.019863
otherwis,0.008540
overal,0.008217
overview,0.004498
p,0.010281
pa,0.013992
pair,0.028705
paperback,0.007558
paradox,0.017224
particular,0.005620
path,0.004551
patti,0.010741
paul,0.003902
peter,0.004093
pick,0.005843
pictur,0.010051
pn,0.016566
pnancdot,0.013586
point,0.002604
polynomi,0.020547
posit,0.018624
possibl,0.002625
power,0.002634
pq,0.009628
precis,0.008481
present,0.002574
presum,0.005746
previou,0.007764
prime,0.012408
principl,0.003090
produc,0.002678
product,0.013415
proof,0.083983
proper,0.004618
properli,0.005413
properti,0.009350
proposit,0.053252
prove,0.007946
publish,0.002857
push,0.004895
pwskent,0.013586
q,0.046124
r,0.003444
ration,0.039929
reader,0.005567
real,0.020332
recal,0.006313
recurs,0.007118
refer,0.001632
rein,0.008254
reli,0.003934
repeatedli,0.005809
replac,0.003327
represent,0.004118
reprint,0.012557
requir,0.002570
restrict,0.003784
result,0.013645
revis,0.004878
role,0.005720
root,0.008248
rudin,0.011387
s,0.060206
saw,0.003995
scott,0.006042
section,0.008091
seen,0.009610
sens,0.003359
sequenc,0.031728
serg,0.008884
set,0.298441
setand,0.012547
similar,0.002713
simpler,0.006058
simpli,0.003707
simplifi,0.005291
simultan,0.004761
sinc,0.009088
singl,0.006081
situat,0.003498
size,0.038924
skolem,0.010467
small,0.008341
smaller,0.003863
sometim,0.005915
son,0.004350
sort,0.009531
springerverlag,0.021177
standard,0.009181
statement,0.008342
subset,0.091186
surject,0.128727
t,0.019767
talk,0.004889
technic,0.008082
tell,0.005118
tenabl,0.009739
term,0.012882
terminolog,0.005350
text,0.003919
theorem,0.091686
theori,0.021307
therefor,0.012353
thi,0.071382
thing,0.003615
thought,0.006440
thu,0.002656
time,0.004020
timeconsum,0.008312
today,0.003264
togeth,0.009399
tom,0.006233
topolog,0.006252
total,0.009511
transcendent,0.007258
treat,0.003978
triangular,0.015755
true,0.003679
turn,0.006282
uncount,0.099758
und,0.006685
understand,0.003084
union,0.023635
uniqu,0.003874
univers,0.004706
use,0.025993
usual,0.013672
valu,0.002912
van,0.004970
variant,0.005504
variou,0.002586
vector,0.005495
verif,0.006917
versa,0.012897
vice,0.010521
view,0.005824
vulgar,0.008759
w,0.003812
wa,0.001863
walter,0.005420
want,0.004195
way,0.007288
wayn,0.008066
weisstein,0.009460
welldefin,0.006772
wiley,0.005560
wonder,0.006583
word,0.003154
work,0.002227
writer,0.004663
written,0.003597
x,0.040232
y,0.004838
ye,0.007251
york,0.017498
z,0.038806
zfc,0.010133
zur,0.008118
