aaamathbf,0.013711
abelian,0.013141
abov,0.005005
absolut,0.008841
academi,0.002510
ackerman,0.005165
acoust,0.003640
actual,0.006671
advantag,0.002022
adxfleftxfrac,0.006855
adxfrac,0.034278
adxgxxxcdot,0.013711
afrac,0.004996
agxxxcdot,0.006855
ahmathrm,0.013711
ai,0.009821
aint,0.057762
aj,0.004440
ak,0.003980
alexand,0.004993
allow,0.001295
alreadi,0.001898
altern,0.001674
american,0.001476
amplitud,0.003832
analog,0.004657
analysi,0.017280
analyt,0.004751
analytiqu,0.010695
anbnquad,0.006855
ancient,0.001888
andhi,0.006855
andrey,0.004493
ani,0.014930
anibntextfor,0.006855
anieiphi,0.006855
announc,0.002188
anoth,0.005013
ansqrt,0.006855
appar,0.002224
applet,0.004627
appli,0.005572
applic,0.015563
approach,0.002999
approxim,0.008879
arbitrari,0.019698
archiv,0.002398
area,0.001294
arg,0.005165
argument,0.002189
aright,0.005689
arightcdot,0.006855
arightpi,0.006855
array,0.002843
arriv,0.004195
articl,0.004646
asid,0.002972
aspect,0.001712
associ,0.001273
assum,0.005416
assumpt,0.002220
astronom,0.002934
asum,0.005637
atan,0.011379
atextfor,0.006855
attempt,0.004459
attributionsharealik,0.005282
author,0.001467
avail,0.001592
axe,0.007130
axfrac,0.058724
axi,0.002988
b,0.008630
base,0.002271
basel,0.008078
basi,0.012985
basic,0.001580
bc,0.002324
becam,0.001436
becaus,0.003548
befor,0.002684
begin,0.003064
beginalignedakint,0.006855
beginalignedanfrac,0.006855
beginalignedcnfrac,0.006855
beginalignedhmathrm,0.013711
beginalignedleftfpi,0.006855
beginalignedmathc,0.006214
beginalignedsinfti,0.006855
beginalignedsintfrac,0.006855
beginbmatrixdfrac,0.006855
begincasesfrac,0.006469
behav,0.005589
believ,0.001625
belong,0.006660
ber,0.004051
berlin,0.002798
bernhard,0.004096
bernoulli,0.007731
best,0.001731
birth,0.002315
bloch,0.004307
bn,0.007831
bnfrac,0.006855
bodi,0.001576
bound,0.002351
boundari,0.002193
bounded,0.005588
boyc,0.005282
bracket,0.003748
branch,0.001671
bravai,0.011491
bravaislatticeperiodicfunct,0.006855
brooklin,0.006469
c,0.037595
calcul,0.010025
cambridg,0.004168
carleson,0.006469
carri,0.005089
cartesian,0.007224
case,0.015790
cauchyschwarz,0.005637
ccpm,0.006214
cdmathbf,0.006855
cdot,0.047565
cell,0.009053
celsiu,0.008614
central,0.001475
centuri,0.004054
chaleur,0.016913
character,0.001996
cinfrac,0.006855
cinright,0.006855
cjk,0.006113
ckmathbb,0.013711
clarifi,0.003174
classic,0.003477
clear,0.001958
close,0.001408
closedform,0.004627
cmathbb,0.013711
cn,0.019874
cncdot,0.006855
cninfti,0.006855
coeffici,0.057711
comb,0.008166
combin,0.003001
committe,0.002258
common,0.003818
commonli,0.003495
compact,0.040369
competit,0.002069
complet,0.002907
complex,0.004620
complexvalu,0.010036
complic,0.007156
compon,0.003625
compress,0.006499
comput,0.005232
concept,0.001468
concern,0.001477
conclud,0.002152
condit,0.005891
conjug,0.003612
connect,0.001733
consequ,0.001789
consid,0.003682
consist,0.004226
constant,0.004185
construct,0.003259
continu,0.007652
contribut,0.001544
control,0.001398
converg,0.094278
convers,0.002171
convolut,0.033616
coordin,0.011156
coordinatesystem,0.006855
corp,0.003105
correct,0.002119
correspond,0.005732
cosin,0.044939
cosjfrac,0.006855
cosmxcosnxdxpi,0.006855
cosmxsinnxdx,0.006855
cosnx,0.006214
counterexampl,0.004563
cpm,0.005251
creativ,0.002719
crnfrac,0.006855
crossproduct,0.006113
crystal,0.002953
curv,0.005179
custom,0.002128
customarili,0.004325
cz,0.006024
d,0.083498
dalembert,0.008965
dan,0.003409
daniel,0.005236
date,0.001759
decemb,0.001931
decompos,0.006824
decomposit,0.003436
def,0.032087
defer,0.003637
defin,0.018779
definit,0.001664
degre,0.010342
delta,0.021105
demonstr,0.003784
denomin,0.003136
denot,0.002568
densiti,0.002540
depend,0.001388
der,0.002754
deriv,0.006401
desir,0.001981
determin,0.001461
develop,0.001052
die,0.002016
differ,0.003347
differenti,0.019182
difficulti,0.002273
diprima,0.006855
dirac,0.003895
dirichlet,0.018206
discontinu,0.003195
discov,0.001853
discoveri,0.003942
discret,0.009930
discretetim,0.005088
discuss,0.003435
displaystyl,0.214599
distribut,0.006947
diverg,0.008534
divergent,0.006855
doe,0.002848
doi,0.002786
domain,0.010279
dont,0.002941
doubli,0.004895
dover,0.007035
draw,0.002157
dx,0.013351
dxdxdxfrac,0.006855
dxdydz,0.006331
dxendalign,0.006331
dxfrac,0.006469
dxicdot,0.006855
e,0.102343
earli,0.002535
easili,0.002171
econometr,0.003728
ed,0.008870
edit,0.001983
effect,0.001231
eigensolut,0.027422
eilefttfrac,0.020566
eimathbf,0.018340
eipi,0.074573
eitfrac,0.075412
eix,0.006469
ejtfrac,0.006855
elaps,0.004298
electr,0.002095
electron,0.002120
eleg,0.003778
element,0.003223
elementari,0.005717
ell,0.004576
emphas,0.004448
empir,0.001768
en,0.003114
enclos,0.003442
encount,0.002496
encyclopedia,0.002182
endalign,0.004450
eneinxnin,0.006855
engin,0.010958
english,0.003529
enriqu,0.004668
entir,0.001643
entwicklung,0.005221
epicycl,0.005251
eq,0.005113
equal,0.003451
equat,0.031615
equival,0.004082
eric,0.003010
especi,0.001471
essay,0.002455
essenti,0.001761
establish,0.001352
euler,0.007085
everi,0.006343
everywher,0.016458
exactli,0.004965
exampl,0.020429
exempt,0.003294
exist,0.002520
expans,0.014967
exponenti,0.006101
express,0.004925
extend,0.001671
extens,0.003422
extern,0.000990
f,0.177339
fact,0.004827
fast,0.002594
faster,0.002643
fcdot,0.005420
feel,0.002369
fejr,0.011379
felix,0.003704
fenrangl,0.006469
fgrangl,0.006113
fhat,0.006469
fin,0.016157
final,0.001639
finit,0.010483
fkn,0.006855
fkninkhat,0.006855
flash,0.003558
fleftxfrac,0.006855
fmathbf,0.010176
fn,0.053663
fncdot,0.006214
fncn,0.006469
fneinx,0.006855
fnf,0.006469
fnfpf,0.006855
fnfrac,0.006331
fninhat,0.006855
fnx,0.006113
fnxsum,0.006855
follow,0.006504
form,0.007250
formal,0.005087
formul,0.002170
formula,0.011832
fourier,0.438515
fourierlebesgu,0.006855
fourierrel,0.005689
fourth,0.002364
fpi,0.006024
fr,0.010037
frac,0.060651
freeman,0.006782
french,0.001823
frequenc,0.020717
frie,0.006214
fsfint,0.006855
fsum,0.006855
fucdot,0.020566
function,0.088795
fundament,0.001735
furthermor,0.002322
fx,0.007841
fxdfsum,0.013711
fxdx,0.005806
fxoverlin,0.006469
fxyeijxeikydxdi,0.006855
fxysum,0.006855
g,0.093496
gauss,0.004102
gave,0.001971
gener,0.016553
geq,0.004934
gi,0.007583
gibb,0.003818
given,0.010873
gn,0.009483
gnhat,0.006855
gnpi,0.006855
gonzalezvelasco,0.006855
good,0.001506
gradient,0.003224
great,0.001527
greater,0.001706
grightx,0.006855
group,0.017113
gsqrt,0.006469
gtextpvxudubig,0.006855
gustav,0.003467
gx,0.009753
gxdx,0.012428
gxuduscriptstyl,0.013711
gxxx,0.006855
gxxxfmathbf,0.006855
gxxxgxaxxgxxaxgxxxa,0.006855
gxxxsum,0.027422
h,0.030119
ha,0.009036
halfsum,0.006855
happen,0.002141
harmon,0.029646
hat,0.037916
hazewinkel,0.004096
heat,0.047790
held,0.001602
henc,0.002114
hertz,0.004298
hi,0.006075
hilbert,0.021822
histor,0.001522
histori,0.001128
hk,0.004654
hlder,0.005637
hmathbf,0.016628
hmathrm,0.027714
honour,0.003195
howev,0.003299
html,0.004450
hyperbol,0.003655
icdot,0.022550
idea,0.007604
ident,0.003880
ij,0.004640
im,0.025071
imag,0.006259
immedi,0.003984
impli,0.002106
import,0.004623
improv,0.001667
inadequ,0.003218
includ,0.001881
incorpor,0.001860
inde,0.002304
independ,0.001391
inequ,0.005702
infinit,0.013267
inform,0.002694
infti,0.099284
initi,0.002944
inner,0.002724
inquiri,0.002702
insid,0.002272
instanc,0.001835
instead,0.003174
int,0.052900
integ,0.019498
integerscjkeijxeiki,0.006855
integr,0.021259
interact,0.005072
interpret,0.003615
interv,0.019985
intervalendalign,0.006855
intrins,0.002869
introduc,0.003179
introduct,0.001796
invers,0.005722
investig,0.001898
involv,0.002627
isbn,0.009611
issu,0.001454
j,0.017018
jacobian,0.005018
jahrhundert,0.005113
java,0.003431
javascript,0.005088
jean,0.002810
jeanbaptist,0.003673
jersey,0.003355
jinvari,0.006469
jkin,0.006855
john,0.003082
joseph,0.006699
jpeg,0.005420
just,0.001580
justifi,0.002725
k,0.080125
katznelson,0.012226
kernel,0.011842
kin,0.004070
kind,0.001805
klein,0.003588
know,0.004106
known,0.006793
kolmogorov,0.004390
kroneck,0.004576
ksxquad,0.006855
kth,0.015416
l,0.035900
la,0.009046
lack,0.001727
lagrang,0.004015
langl,0.008965
languag,0.001702
laplac,0.007780
laplacebeltrami,0.018643
laright,0.006855
later,0.005389
lattic,0.023648
laurent,0.008668
laxfrac,0.013711
lca,0.012662
ldot,0.004726
le,0.005397
lead,0.001351
leav,0.003837
lebesgueintegr,0.006113
led,0.001462
left,0.001805
leftaco,0.006855
leftanbnright,0.006855
leftcrnicdot,0.006855
leftffrac,0.020566
leftfrac,0.011149
leftlmathbf,0.006855
leftsum,0.005282
leftxfrac,0.011491
legendr,0.004505
lejeun,0.005165
lemma,0.003931
lennart,0.005282
leonhard,0.004102
lg,0.014470
li,0.003511
licens,0.005395
lie,0.002219
life,0.001456
like,0.002420
lim,0.024990
line,0.003242
linear,0.012052
linearli,0.004033
link,0.000985
lmathbf,0.030566
local,0.004603
long,0.001470
longer,0.001868
look,0.001870
lpi,0.006214
lx,0.005637
m,0.084250
machin,0.002187
magnitud,0.002794
maintain,0.001579
make,0.002303
malu,0.005347
mani,0.007167
manifold,0.014196
manner,0.002186
mass,0.001857
materi,0.001587
mathbb,0.008359
mathbf,0.152199
mathemat,0.016027
mathematician,0.002772
mathematik,0.004840
mathew,0.004711
mathrm,0.028898
mathsci,0.006855
mathworld,0.004741
max,0.008304
maxcdot,0.020566
maxdx,0.006331
maxdxptfrac,0.013711
maxfrac,0.032345
maxima,0.004682
maxright,0.006855
maxrightendalign,0.013711
mcgrawhil,0.003273
mean,0.002495
measur,0.001483
mechan,0.003345
mention,0.004386
metal,0.004715
meter,0.003048
method,0.001402
metric,0.003042
michiel,0.004015
minfti,0.036680
minima,0.004576
mmmcdot,0.013711
mmmfrac,0.006637
mmmin,0.006855
mmoir,0.009579
mmxcdot,0.013711
mmxfrac,0.006855
mn,0.004102
mngeq,0.012938
mnquad,0.013711
model,0.002822
moder,0.002595
modern,0.002717
modifi,0.002210
modul,0.006117
monthli,0.003087
motion,0.002285
motiv,0.006639
multidimension,0.003823
multipl,0.001742
multipli,0.002920
mxxcdot,0.013711
mxxfrac,0.006855
n,0.376361
natur,0.001209
ncntextfor,0.006855
ncosnpi,0.006855
ncostfrac,0.006855
necessari,0.001805
need,0.002723
needlessli,0.005282
neg,0.001964
nendcas,0.006469
nequiv,0.011889
new,0.005059
nfrac,0.009546
ngeq,0.010766
nhat,0.011177
ni,0.003986
nineteenth,0.002833
ninfti,0.048233
nkhat,0.006855
nmathbf,0.016913
nnancdot,0.006855
nnhat,0.006331
nnncincdot,0.006855
nnncrncdot,0.006855
nnnhat,0.006855
nnnpneinx,0.006855
nnnunderbrac,0.006855
nnsinnxsinhni,0.006855
nonabelian,0.004975
noncompact,0.010442
nonconstruct,0.005113
nontrivi,0.007841
noperatornam,0.005689
norm,0.005255
notabl,0.001738
notat,0.012175
notationendalign,0.006855
note,0.002612
notion,0.002143
npi,0.005221
npright,0.006855
nprighteipi,0.006855
nprightrighteipi,0.006855
nquad,0.012226
nrightarrow,0.015339
nrightleftfrac,0.006214
nrightrightendalign,0.006855
nrightrightfrac,0.006855
nsinnpi,0.006855
nsintfrac,0.006855
nth,0.004551
number,0.002266
nxp,0.054845
nxpcosphi,0.006855
nxpicdot,0.006855
nxpphi,0.041133
nxpscriptstyl,0.006855
nxpsintfrac,0.006855
nxpsum,0.013711
nyquistshannon,0.006469
o,0.019110
obey,0.003232
obtain,0.007043
obviou,0.002861
odd,0.003195
onc,0.003385
onli,0.003128
oper,0.007145
operatornam,0.004307
optic,0.002725
order,0.002496
origin,0.007532
orthogon,0.007673
orthonorm,0.009950
oscil,0.006556
outsid,0.001728
p,0.081276
parallel,0.002347
parsev,0.017833
partial,0.029174
particular,0.011343
particularli,0.001588
partout,0.006469
period,0.025574
peter,0.002065
peterweyl,0.005745
phactori,0.006855
phase,0.002178
phasor,0.005637
phenomenon,0.002333
phi,0.003708
physic,0.002964
pi,0.218166
pint,0.032520
plancherel,0.005944
plane,0.005456
planetari,0.003247
planetmath,0.005420
plate,0.008824
point,0.003942
pointwis,0.020661
polynomi,0.017280
popularli,0.003398
posit,0.001342
possibl,0.003974
potenti,0.003363
power,0.002658
precis,0.004279
preliminari,0.003464
prelud,0.004370
preserv,0.002189
presqu,0.006024
press,0.003057
presum,0.002899
presumpt,0.004096
previous,0.001980
primit,0.011497
primitivevector,0.006855
princip,0.002029
principl,0.003118
prior,0.001962
problem,0.008335
process,0.002456
produc,0.001351
product,0.006769
pronunci,0.003444
proof,0.005297
propag,0.005788
properti,0.012582
propos,0.001602
prove,0.004009
proven,0.005487
provid,0.002305
public,0.002616
publish,0.008650
purpos,0.001689
pv,0.008632
pxsum,0.006331
q,0.002909
qseri,0.006024
quad,0.004334
quantum,0.002619
question,0.001631
r,0.062577
rang,0.001559
rd,0.004652
read,0.001430
real,0.008549
realvalu,0.009152
rearrang,0.003530
reciproc,0.012379
recov,0.002535
reduc,0.001560
refer,0.002471
relat,0.001110
relationship,0.001572
replac,0.005036
repres,0.009459
represent,0.010391
republ,0.001933
rereleas,0.005282
research,0.001336
respect,0.001566
result,0.013770
revolution,0.003458
richard,0.002035
riemann,0.004057
riemannian,0.017802
riemannlebesgu,0.006214
rightcdot,0.005088
rightdyendalign,0.006855
rightlimit,0.006855
rigour,0.004806
rond,0.004895
rudin,0.005745
s,0.046737
sake,0.003442
sampl,0.002455
satisfi,0.002443
sawtooth,0.005872
say,0.003569
scalar,0.003688
score,0.003019
scriptstyl,0.027531
second,0.004056
section,0.004082
seek,0.001848
sens,0.005085
sequenc,0.011435
seri,0.137861
set,0.008933
sever,0.001195
sf,0.008546
sfuca,0.006855
shape,0.001963
shell,0.002772
shown,0.001986
signal,0.004740
similar,0.004107
similarli,0.002172
simpl,0.020039
simplifi,0.002670
sin,0.035866
sinc,0.009172
sine,0.040332
sinfti,0.019407
sinh,0.015942
sinhnpi,0.006855
sinhnysinhn,0.006855
sinmxsinnxdxpi,0.006855
sinnx,0.006214
sinphi,0.006855
sintfrac,0.006855
sinusoid,0.009950
site,0.001931
sncdot,0.041133
snx,0.012428
snxfrac,0.006855
snxsum,0.006855
solid,0.004928
solut,0.011769
solv,0.016880
someth,0.002204
sometim,0.004477
somewhat,0.004861
son,0.002195
sophist,0.002637
sourc,0.005768
space,0.022980
span,0.002648
specif,0.001371
specifi,0.002331
spectral,0.003520
sphere,0.002565
spheric,0.003348
springer,0.005550
squar,0.019433
squareintegr,0.010999
srie,0.005806
stackrel,0.032998
standard,0.001544
state,0.002006
stationari,0.003324
stoneweierstrass,0.006113
straightfoward,0.006469
studi,0.002423
sturmliouvil,0.006024
submit,0.002871
subscript,0.003724
subspac,0.004325
substitut,0.002547
subtl,0.003391
suitabl,0.002545
sum,0.045742
summabl,0.018072
summat,0.003952
sup,0.009829
superposit,0.011908
sur,0.003681
surpris,0.003015
sx,0.034539
sxcdot,0.027422
sxcosnxdxquad,0.006855
sxfrac,0.006855
sxicdot,0.006855
sxpi,0.006855
sxrightcdot,0.006855
sxsinnxdxfrac,0.006855
t,0.031918
techniqu,0.001761
teeth,0.003608
temperatur,0.002317
tend,0.005648
term,0.008667
termbyterm,0.006637
text,0.005933
textand,0.006855
textarglefteixright,0.006855
textcommon,0.006855
textfor,0.005458
textperiod,0.006855
textperiodicint,0.006855
textprincip,0.006855
textpvx,0.006855
textreleftfrac,0.006855
textwhen,0.013711
th,0.002629
thefouriertransformcom,0.006855
theorem,0.051404
theori,0.009407
therefor,0.004675
thi,0.029158
thinwal,0.005806
thori,0.008965
threevari,0.006855
thu,0.004020
time,0.010144
titl,0.002058
tool,0.001835
topic,0.001819
tperiod,0.006855
trace,0.002198
tradit,0.001443
transform,0.031906
translat,0.007895
treatis,0.002766
trigonometr,0.046306
true,0.001856
tutori,0.003800
twodimension,0.003692
tx,0.009056
txysum,0.006855
type,0.001378
typic,0.003076
u,0.024077
unabridg,0.005314
unchang,0.003057
underbrac,0.005745
underli,0.002177
understand,0.001556
une,0.004343
uniform,0.005316
uniformli,0.011209
uniqu,0.003910
unit,0.005782
univers,0.001187
use,0.016863
usual,0.004139
valid,0.002189
valu,0.002939
valuebig,0.006855
vanish,0.003363
variabl,0.010479
variat,0.002149
varphi,0.004789
vector,0.024956
veri,0.001309
version,0.002005
vibrat,0.003345
view,0.002939
volum,0.007855
vorlesungen,0.005282
w,0.007695
wa,0.009400
walter,0.002734
wave,0.009248
wavelik,0.004601
way,0.006129
wayback,0.004307
weak,0.002277
webpag,0.004370
weisstein,0.004773
whenev,0.003226
whi,0.002109
wide,0.001476
widehat,0.033826
wiley,0.002805
william,0.001837
work,0.006744
write,0.014341
written,0.005445
x,0.521731
xdfrac,0.020566
xendalign,0.005806
xfrac,0.004290
xfxfnxleq,0.006855
xp,0.009908
xpartial,0.048780
xpi,0.017069
xsum,0.005347
xxpleftoperatornam,0.006855
xxpoperatornam,0.027422
xxpsxcdot,0.006855
xy,0.004051
xyzxfrac,0.006855
y,0.073249
yaco,0.006855
ycdot,0.006214
ycoskfrac,0.027422
ydfrac,0.020566
ydyint,0.006855
year,0.001157
yield,0.004479
yitzhak,0.005221
york,0.003531
z,0.050351
zendbmatrix,0.006855
zero,0.009644
zptdfrac,0.013711
ztransform,0.005872
zygmund,0.006113
