abstractli,0.049527
algebra,0.030530
anatomi,0.033389
arm,0.022669
array,0.093070
artifact,0.033686
bell,0.066381
bermuda,0.045440
black,0.023135
boustrophedon,0.063347
canberra,0.046180
carotid,0.059130
choke,0.109499
concret,0.031459
doe,0.015538
eisenstein,0.056964
eulerian,0.055512
eye,0.027639
floyd,0.048906
geographi,0.027213
geomet,0.050930
geometr,0.060805
geometri,0.060304
group,0.013335
ha,0.009858
heronian,0.070575
histor,0.016607
ideal,0.024055
includ,0.020525
incomplet,0.032216
instrument,0.022764
integ,0.070907
kind,0.039384
like,0.013201
list,0.013743
love,0.029341
lozani,0.069070
matric,0.040809
matrix,0.031023
metaphor,0.034756
method,0.015306
music,0.027161
narayana,0.053617
number,0.123637
optic,0.029731
parliamentari,0.028302
pascal,0.076890
physic,0.016171
polynomi,0.113113
prism,0.047685
provid,0.012573
pyramid,0.038082
pythagorean,0.042606
refer,0.008987
relat,0.012118
rencontr,0.072417
research,0.014580
romberg,0.059130
second,0.014751
sequenc,0.024951
shape,0.042844
space,0.019285
stirl,0.098054
studi,0.013219
submandibular,0.067797
subment,0.065723
sunni,0.039485
symbol,0.022709
theori,0.014661
thi,0.009356
thing,0.019903
topic,0.019846
trade,0.018094
transform,0.020475
triangl,0.813923
triangular,0.390291
tripl,0.068920
triquetra,0.072417
valknut,0.072417
word,0.017363
