algorithm,0.018541
analysi,0.011148
bell,0.043182
block,0.016612
bruno,0.026816
calculu,0.020844
chines,0.016054
cluster,0.020493
composit,0.015486
consid,0.008711
cover,0.012299
crank,0.034230
cumul,0.047421
danc,0.023957
data,0.023844
deriv,0.011358
di,0.023249
disjointset,0.048653
divis,0.025894
dobinski,0.091820
equival,0.014487
especi,0.010443
ewenss,0.085507
exact,0.017157
exponenti,0.021649
fa,0.028495
ferrer,0.037266
feshbachfano,0.048653
field,0.009821
formula,0.100766
frequenc,0.018379
function,0.059078
gener,0.006910
glaisher,0.043386
graph,0.064192
integ,0.069189
interv,0.040524
kernel,0.028014
kind,0.012810
knuth,0.035018
landau,0.029024
lattic,0.023975
law,0.009686
link,0.006991
mathemat,0.025277
matrix,0.040362
matroid,0.039031
mechan,0.011872
multipartit,0.047108
multipl,0.012365
noncross,0.048653
nonoverlap,0.035018
number,0.040213
oper,0.010142
order,0.026578
partit,0.935349
pentagon,0.031156
plane,0.019363
polynomi,0.024527
probabl,0.013228
problem,0.029578
process,0.017430
quantum,0.018593
quotit,0.137731
rank,0.015564
recurs,0.025490
refin,0.018341
relat,0.007883
restaur,0.025966
sampl,0.034846
set,0.045285
solid,0.017487
squar,0.017239
statist,0.026699
stirl,0.063785
stochast,0.022581
stratif,0.028887
structur,0.009507
sum,0.016231
tableau,0.035308
theorem,0.036481
theori,0.028613
topolog,0.022390
total,0.011353
transform,0.013319
tverberg,0.047108
twelvefold,0.039663
uniti,0.053657
varianc,0.024428
view,0.010429
way,0.017400
x,0.014407
young,0.030217
