affin,0.036561
applic,0.017771
arrang,0.024259
audio,0.039055
automaton,0.050584
b,0.039420
basic,0.018051
bernoulli,0.132421
birthdeath,0.069808
blood,0.029220
branch,0.038162
bridg,0.029644
brownian,0.134858
calculu,0.100618
case,0.015025
categorystochast,0.073869
cellular,0.033251
cf,0.040526
chain,0.026848
chines,0.025832
cir,0.057305
combin,0.017137
composit,0.024916
compound,0.027083
condit,0.016817
constraint,0.029843
continu,0.014563
continuoustim,0.054883
control,0.015969
coordin,0.025479
cox,0.044195
current,0.015387
data,0.019182
defin,0.016495
differenti,0.024337
diffus,0.032837
dirichlet,0.051975
discretetim,0.116206
displaystyl,0.027533
distribut,0.059497
domain,0.070425
eeg,0.051839
ekg,0.064972
equat,0.024067
everi,0.018108
exampl,0.025920
exchang,0.020456
expect,0.019882
famili,0.020037
familiar,0.030618
field,0.079015
finitedimension,0.101169
fluctuat,0.032314
function,0.047528
futur,0.018846
galtonwatson,0.069808
gamma,0.038206
gaussian,0.128711
gaussmarkov,0.126589
girsanov,0.062333
given,0.015520
ha,0.010318
homogen,0.034852
imag,0.023826
includ,0.032225
inclus,0.031875
incomplet,0.033720
independ,0.015893
inhomogen,0.051573
integr,0.018673
interv,0.032601
jump,0.035727
karhunenlov,0.070962
landscap,0.032258
larg,0.013634
linear,0.027525
list,0.014384
local,0.017521
looperas,0.075797
lvi,0.052690
malliavin,0.068790
market,0.019363
markov,0.264511
martingal,0.103410
materi,0.018127
mathemat,0.040671
medic,0.023821
model,0.016113
motion,0.052205
movement,0.017837
n,0.046460
natur,0.013809
normal,0.020618
number,0.012940
onsagermachlup,0.078283
order,0.014254
ornsteinuhlenbeck,0.059962
outcom,0.026445
passag,0.030817
past,0.020520
patient,0.031507
percol,0.052690
point,0.030009
poisson,0.092388
popul,0.018404
possibl,0.030258
practic,0.015870
present,0.014831
pressur,0.022328
probabilist,0.038576
probabl,0.063853
process,0.574927
queue,0.098572
random,0.367845
rang,0.017805
rate,0.018382
region,0.016846
restaur,0.041780
s,0.040026
samplecontinu,0.078283
scheme,0.056627
semimarkov,0.078283
semimartingal,0.067056
seri,0.056222
set,0.014572
signal,0.027068
space,0.040370
special,0.016374
speech,0.028207
state,0.022911
static,0.033490
stationari,0.113877
stochast,0.290672
stock,0.025259
stratonovich,0.068790
subset,0.065675
suffici,0.024204
symmetri,0.072894
telegraph,0.040526
temperatur,0.026467
theorem,0.058698
theori,0.030692
thi,0.009792
time,0.069503
timehomogen,0.072294
topic,0.020772
topographi,0.042713
variabl,0.023933
variat,0.024541
versa,0.037157
vice,0.030310
video,0.028815
wald,0.053801
walk,0.100327
wiener,0.045199
