abelian,0.054009
abstract,0.028274
addit,0.016255
adjoint,0.031369
affin,0.019738
algebra,0.034504
allow,0.007989
andr,0.020970
area,0.015958
arrow,0.020627
axiom,0.020034
basic,0.009745
bicategori,0.039030
biproduct,0.042264
braid,0.029233
branch,0.010301
cartesian,0.044539
categori,0.767541
categorytheoret,0.036647
certain,0.008880
chain,0.014494
chase,0.022060
classifi,0.013124
close,0.017363
coequal,0.032563
cogener,0.035423
coimag,0.040922
cokernel,0.036202
colimit,0.035796
collect,0.018929
combinatori,0.022862
comma,0.029952
commut,0.021556
comonad,0.042264
compact,0.019144
complex,0.009495
concept,0.009055
concret,0.017777
condit,0.009079
connect,0.010683
coproduct,0.031077
dagger,0.086082
deriv,0.019733
descent,0.018616
diagram,0.035703
dimension,0.020074
direct,0.017234
dual,0.018295
dualiti,0.022269
eilenberg,0.034171
embed,0.018169
enrich,0.061349
epimorph,0.036202
equalis,0.034755
equival,0.012584
essenc,0.017648
exact,0.044713
examin,0.012228
exponenti,0.018806
extens,0.010550
faith,0.015618
field,0.017063
finit,0.016157
follow,0.006682
forget,0.023321
formalis,0.049079
functor,0.431241
galoi,0.027437
glossari,0.020363
glu,0.028366
grade,0.019484
grothendieck,0.031369
group,0.030143
groupoid,0.033652
guid,0.011811
ha,0.005570
heyt,0.030671
hilbert,0.022421
histori,0.013916
hom,0.034171
homolog,0.021501
imag,0.012863
influenti,0.013436
initi,0.009077
inject,0.020627
intric,0.023241
introduct,0.011074
invers,0.017640
isomorph,0.024204
joyal,0.037688
kan,0.029527
kelli,0.023921
kernel,0.024335
lane,0.021358
lawver,0.033905
lemma,0.121183
limit,0.025588
local,0.009459
mac,0.024302
magma,0.078731
mani,0.012624
mathemat,0.054894
max,0.017066
medial,0.029735
metric,0.018755
mitchel,0.023402
model,0.008699
monad,0.028955
monoid,0.123752
monomorph,0.033905
morphism,0.144779
natur,0.022366
non,0.020127
nonsens,0.024076
normal,0.011131
number,0.006986
object,0.085921
outlin,0.013593
overview,0.013993
particular,0.008741
person,0.009138
pointless,0.028211
pontryagin,0.031221
preabelian,0.042264
preaddit,0.042264
preorder,0.032761
product,0.016692
profinit,0.037138
properti,0.009696
prove,0.012359
provid,0.007105
pullback,0.034454
pushout,0.042264
refer,0.005078
relat,0.006847
represent,0.012812
result,0.007074
ribbon,0.028610
ring,0.017201
samuel,0.018055
satisfi,0.015066
saunder,0.024681
scheme,0.015286
scholar,0.012898
semigroupoid,0.042264
sens,0.010450
sequenc,0.014099
set,0.023602
sheaf,0.031221
short,0.010829
signific,0.009023
simpler,0.018847
slice,0.024977
small,0.008649
snake,0.022443
space,0.054488
speci,0.012999
specif,0.016914
state,0.006184
strongli,0.013623
structur,0.016517
studi,0.007469
subcategori,0.024171
subobject,0.078061
subtl,0.020906
sum,0.014099
symmetr,0.020127
term,0.006679
termin,0.016561
theorem,0.015845
theori,0.157418
theoryfib,0.042264
thi,0.005286
topo,0.091631
topoi,0.033905
topolog,0.058348
topos,0.035796
transform,0.023140
triangul,0.027437
use,0.011551
vector,0.034189
way,0.015115
william,0.011326
yoneda,0.036202
zero,0.029729
