abl,0.043043
alway,0.045823
analysi,0.041078
analyt,0.062126
capac,0.057045
case,0.034408
characteris,0.082497
close,0.036824
cofin,0.157528
cofinit,0.150251
combinator,0.105623
complement,0.081155
concept,0.115231
conul,0.169159
defin,0.037774
definit,0.043522
dens,0.156702
densiti,0.199268
everywher,0.086075
exampl,0.029678
given,0.035540
introduc,0.041567
ip,0.110482
larg,0.093666
list,0.065881
mathemat,0.139703
meagr,0.129554
measur,0.038799
natur,0.063247
neglig,0.088140
nowher,0.101988
null,0.096766
number,0.029633
numer,0.043885
particular,0.037077
partit,0.082055
piecewis,0.129554
possibl,0.034645
properti,0.041127
ramsey,0.115838
real,0.044712
regular,0.059018
schnirelmann,0.173575
sens,0.044327
serr,0.122072
set,0.634051
small,0.146747
stationari,0.086925
studi,0.031684
subset,0.150395
sure,0.082153
syndet,0.331103
theori,0.035142
thi,0.022425
unbound,0.104840
use,0.024497
veri,0.034239
x,0.106169
zero,0.063051
