ab,0.083611
adolph,0.109225
ahmad,0.193089
alfio,0.175564
ali,0.082732
alqadi,0.165665
alqalqashandi,0.175564
alqh,0.165665
arabiamediev,0.156557
asghar,0.148699
belgium,0.078985
born,0.284221
brazil,0.071910
canada,0.057724
china,0.051780
daniel,0.067047
edward,0.059038
frank,0.067952
ibn,0.151097
iraq,0.155321
italyswitzerland,0.165665
jeremi,0.091553
mediev,0.061876
morocco,0.091808
orman,0.127408
pakistan,0.079298
persia,0.086384
persiamediev,0.169989
qad,0.175564
qadir,0.136952
qinglai,0.175564
quad,0.110988
quarteroni,0.175564
quastel,0.175564
queiroz,0.152232
quetelet,0.137854
quillen,0.162132
quin,0.109651
quinn,0.119551
qurra,0.138799
qushji,0.144374
ruy,0.140841
s,0.029922
sahl,0.116563
schaumberg,0.175564
thbit,0.152232
turkeymediev,0.175564
usa,0.262212
van,0.064227
willard,0.097441
xiong,0.135266
