algorithm,0.025941
applic,0.015454
april,0.019796
b,0.017139
calculu,0.029165
cartan,0.938564
cartanambrosehick,0.068074
cartanbrauerhua,0.068074
cartandieudonn,0.068074
cartanhadamard,0.062866
cartaniwahori,0.068074
cartankarlhed,0.068074
cartankhl,0.068074
cartankuranishi,0.068074
catk,0.068074
connect,0.034417
criterion,0.031383
decomposit,0.034124
e,0.016937
einsteincartan,0.055495
equival,0.020269
form,0.010285
formal,0.016838
formula,0.023498
french,0.018109
henri,0.021688
involut,0.047560
lemma,0.039037
lie,0.022041
magic,0.031365
mathematician,0.027534
matrix,0.028236
maurercartan,0.064236
method,0.013931
newtoncartan,0.059819
note,0.012969
physic,0.014718
potenti,0.016699
prolong,0.032799
seminar,0.037184
son,0.021798
space,0.017552
subalgebra,0.057056
subgroup,0.035835
theorem,0.204173
theori,0.040034
thing,0.018115
