algorithm,0.061831
arithmet,0.075306
bottleneck,0.101740
capac,0.051631
channel,0.061484
code,0.144597
commun,0.065146
compress,0.153823
condit,0.069714
confus,0.056070
cross,0.054373
data,0.039758
diffus,0.068060
diverg,0.067330
encod,0.146075
entrop,0.116315
entropi,0.651186
fisher,0.079129
hick,0.098239
hirchman,0.162253
huffman,0.120426
inform,0.286964
joint,0.056472
kullbackleibl,0.137424
law,0.032301
list,0.029814
lossless,0.122249
mathemat,0.042148
maximum,0.058301
method,0.033204
negentropi,0.132272
noisychannel,0.149838
page,0.052560
principl,0.036904
quantum,0.124015
rang,0.036904
redund,0.086248
rnyi,0.121621
scienc,0.032793
secreci,0.095598
secur,0.041425
selfinform,0.149838
shannon,0.096947
shannonhartley,0.149838
theorem,0.182489
theoret,0.044493
theori,0.222648
thi,0.020296
topic,0.043054
uncertainti,0.126300
wikipedia,0.087216
