complex,0.017206
conjectur,0.037135
disk,0.040393
dualiti,0.040354
equat,0.023545
form,0.011571
geometri,0.061750
group,0.027311
halfplan,0.065602
henri,0.048800
hilbertpoincar,0.076586
homolog,0.038962
honour,0.035701
hyperbol,0.081665
idea,0.016990
inequ,0.031851
isometri,0.057704
known,0.012648
lemma,0.043918
map,0.023151
mathemat,0.019894
method,0.015673
metric,0.033986
millennium,0.031586
minkowski,0.047113
model,0.063055
modular,0.042357
number,0.012660
oper,0.015964
optic,0.030444
pbw,0.074154
physic,0.016559
plot,0.031015
poincar,0.923418
poincarbendixson,0.066408
poincarbirkhoff,0.070726
poincarbirkhoffwitt,0.074154
poincareinstein,0.065602
poincarhopf,0.074154
poincarlelong,0.076586
poincarlindstedt,0.076586
poincarsteklov,0.074154
prize,0.027064
problem,0.015519
recurr,0.039541
residu,0.035524
seminar,0.041833
separ,0.016814
seri,0.036668
space,0.019747
spacetim,0.039095
sphere,0.057327
symmetri,0.035656
synchron,0.042068
theorem,0.172276
twodimension,0.041253
usual,0.015413
