abov,0.017028
abstract,0.023405
activ,0.001474
addit,0.001495
allow,0.005878
altern,0.001899
alway,0.005962
analog,0.002640
analogu,0.008079
andor,0.002586
angl,0.006671
ani,0.013024
anoth,0.004264
antipr,0.014672
antiprismat,0.013663
anwendung,0.006338
apart,0.002708
apeirogon,0.114878
apeirohedra,0.062198
apeirohedron,0.007336
apeirotop,0.091618
appear,0.005135
appli,0.001579
area,0.001467
aros,0.002934
arrang,0.036140
atla,0.006930
attempt,0.001685
auf,0.005573
author,0.001663
away,0.002251
b,0.001957
base,0.005150
becaus,0.002682
bercksichtigung,0.007774
besonder,0.007774
bodi,0.003576
book,0.005080
bound,0.002666
boundari,0.002487
bracket,0.004251
c,0.006821
camera,0.003857
cartesian,0.004096
case,0.016415
cc,0.008702
ccc,0.004774
cell,0.048769
celltransit,0.015549
central,0.001673
characteris,0.003577
characterist,0.010285
chi,0.008550
choos,0.002567
circl,0.011503
circumscrib,0.005047
class,0.001979
clifford,0.008904
close,0.001597
cmndpqest,0.015549
color,0.002973
combin,0.003404
combinatori,0.008411
come,0.001707
common,0.001443
commonli,0.001982
compact,0.028173
complet,0.006594
complic,0.002705
compound,0.102212
compris,0.002441
concav,0.005012
connect,0.007861
consid,0.004176
consist,0.003195
constrain,0.006941
constraint,0.005927
construct,0.005545
contain,0.001712
continu,0.001446
converg,0.003144
convex,0.105252
coprim,0.018194
correct,0.002403
correctli,0.003430
correspond,0.004334
count,0.005445
cover,0.009826
coxet,0.123015
coxeterdynkin,0.007774
creat,0.001460
cube,0.013339
cubic,0.016482
curvatur,0.004346
cyclic,0.003707
d,0.007730
decagon,0.006659
defect,0.007047
defin,0.003276
definit,0.007550
degener,0.016716
delimit,0.004707
densiti,0.002880
depend,0.003150
der,0.009372
describ,0.004407
diagram,0.022987
die,0.004574
differ,0.005062
digon,0.007047
dihedr,0.005889
dihedra,0.015549
dihedron,0.007336
dimens,0.129093
dimension,0.025849
disc,0.004346
disk,0.004100
displac,0.003062
display,0.002713
displaystyl,0.082035
distanc,0.002542
distinct,0.001838
ditel,0.007774
ditop,0.022583
ditrigon,0.007527
diverg,0.006452
dnn,0.007179
dodecadodecahedron,0.015055
dodecahedron,0.034665
domain,0.006994
doubl,0.005285
dpqest,0.007774
drawn,0.002817
dual,0.040386
e,0.007737
edg,0.062712
edgetransit,0.007774
edmund,0.003656
effect,0.001396
eightdimension,0.006831
eighteen,0.004265
einleitung,0.006286
element,0.009139
elsewher,0.002962
embed,0.003342
empti,0.003426
en,0.003531
end,0.001571
endpoint,0.004925
enumer,0.012460
equal,0.003914
equals,0.006933
equat,0.002390
equilater,0.012572
equival,0.004629
etsdqpcnm,0.007774
euclidean,0.144636
euler,0.020088
evensid,0.007774
everi,0.007193
exampl,0.007722
excav,0.003863
exist,0.027154
express,0.007448
extend,0.003791
extern,0.001123
extrem,0.002061
f,0.002117
face,0.045299
facet,0.038391
facetransit,0.007774
fact,0.001824
factor,0.001822
fail,0.006482
faith,0.005746
famili,0.013930
figur,0.085137
finit,0.008916
fishey,0.007336
fit,0.005233
flag,0.010295
flat,0.026295
foldout,0.006659
follow,0.003688
form,0.030542
fourdimension,0.005175
fourteen,0.004179
frac,0.013756
fundament,0.005904
fve,0.007774
gener,0.009938
geometr,0.009481
geometri,0.003134
german,0.002170
given,0.004624
gleicheckigen,0.007774
gleichflchigen,0.007774
glossari,0.003746
graph,0.003419
great,0.005196
greaten,0.007527
grnbaum,0.006516
group,0.006931
h,0.023483
ha,0.005123
half,0.004230
halfspac,0.006659
hecatonicosachoron,0.007527
helic,0.004731
hemicel,0.023324
hemicub,0.007336
hemincub,0.007774
hemingon,0.007774
heminorthoplex,0.007774
hemioctahedron,0.007336
hemipolytop,0.007774
hemipq,0.007774
hess,0.004567
hexacosichoron,0.007527
hexagon,0.009711
hexagram,0.006933
hi,0.005511
higher,0.023751
higherdimension,0.005135
hn,0.005203
hold,0.003702
hole,0.003497
honeycomb,0.232250
horocycl,0.014359
hosohedr,0.007527
hosohedra,0.023324
hosohedron,0.014672
hosotop,0.022583
howev,0.001247
hubard,0.007527
hyperbol,0.207260
hypercub,0.036628
hypercycl,0.014359
hyperspher,0.013483
icosahedron,0.018314
ideal,0.002500
ident,0.002200
identifi,0.001857
ihrer,0.006831
imag,0.007099
immedi,0.002259
impli,0.002389
improp,0.054404
inaccess,0.008550
includ,0.008534
indefinit,0.003610
index,0.002441
indic,0.001890
inequ,0.003233
infin,0.016070
infinit,0.069211
inscrib,0.004723
instanc,0.002081
instead,0.001800
integ,0.007370
intersect,0.010389
isol,0.002495
j,0.001929
johnson,0.003511
just,0.001791
justif,0.003590
k,0.013979
keplerpoinsot,0.027732
kind,0.004094
kn,0.005161
knm,0.007527
known,0.005136
kugelteilung,0.007774
leav,0.002175
left,0.004096
leftfrac,0.029502
lehr,0.005691
len,0.003897
length,0.002549
lgon,0.007774
lie,0.002517
like,0.009606
limit,0.001569
line,0.014710
link,0.001117
list,0.015714
lm,0.005218
lmn,0.013663
local,0.001740
look,0.002121
lorentzian,0.011778
lower,0.001898
ludwig,0.003527
m,0.060634
main,0.001626
make,0.001306
mani,0.013934
manifold,0.008049
map,0.011751
maxim,0.002921
mcmullen,0.006741
medial,0.010939
minu,0.003797
mit,0.003121
mn,0.009305
model,0.003200
modifi,0.002506
multidimension,0.004335
multipl,0.001975
n,0.080749
napeirotop,0.007774
natur,0.004114
ncube,0.006831
ndimension,0.019500
ndn,0.006831
ndnn,0.015549
near,0.002112
neg,0.002227
neighbor,0.005796
new,0.002295
ngonal,0.007774
nkknmnk,0.007774
nm,0.029193
nmgon,0.007774
nmnnm,0.015549
node,0.007745
noncompact,0.029607
nonconvex,0.049173
nondegener,0.012293
noneuclidean,0.004915
nonplanar,0.013663
normal,0.002047
norman,0.003619
northoplex,0.007774
notabl,0.003942
notat,0.031068
note,0.001481
npoint,0.014672
npolytop,0.031099
nsimplex,0.007336
nspace,0.006338
nsphere,0.013319
nspheric,0.007774
null,0.008393
number,0.019278
object,0.001756
obtain,0.011981
occur,0.001632
octahedr,0.005530
octangula,0.007774
odd,0.003624
oddnumb,0.006286
offer,0.001910
omit,0.004014
onc,0.001919
onedimension,0.004507
onelowerdimension,0.007774
oneparamet,0.006286
onli,0.010643
open,0.003517
oper,0.001620
opposit,0.002113
optim,0.002724
order,0.001415
ordinari,0.002801
origin,0.002847
orthogon,0.004351
orthoplex,0.022009
otherwis,0.004887
overlap,0.002855
overview,0.002574
p,0.066678
pack,0.003748
page,0.002518
pair,0.008213
paper,0.002119
paracompact,0.074156
parallel,0.005323
partial,0.007089
pass,0.001995
pattern,0.002191
pentagram,0.012381
perimet,0.005071
period,0.001526
permut,0.009080
perpendicular,0.004280
petri,0.005083
pfrac,0.015142
pgon,0.007774
pgonal,0.007774
pi,0.025849
planar,0.004765
plane,0.071167
platon,0.016402
poincar,0.008521
point,0.001490
polychora,0.031099
polychoron,0.007527
polyed,0.007774
polygon,0.268132
polyhedra,0.138794
polyhedron,0.099178
polytop,0.449609
posit,0.001522
possibl,0.001502
potenti,0.003814
power,0.004522
pp,0.002401
pq,0.055099
pqh,0.007774
pqpq,0.007179
pqqr,0.007774
pqr,0.083196
pqyz,0.007774
previous,0.008983
prightfrac,0.007774
prightsin,0.007774
prism,0.004956
prismat,0.011980
produc,0.003065
product,0.001535
project,0.023696
proven,0.003111
provid,0.001307
pure,0.002329
q,0.079183
qfrac,0.018080
qr,0.017311
qright,0.007179
qrightsin,0.007774
r,0.033512
ration,0.002538
realis,0.011301
realiz,0.002612
recogn,0.002003
reduc,0.001769
refer,0.000934
reflect,0.002007
regard,0.001792
regular,0.399294
relat,0.007558
remain,0.001545
remov,0.002157
repeat,0.005393
repetit,0.003811
repres,0.010728
research,0.001515
rhombic,0.007047
ridg,0.004092
right,0.003353
righthand,0.004809
ring,0.009493
rotat,0.015465
rrightco,0.007774
rrightsin,0.007774
rs,0.004675
s,0.011925
said,0.001919
sampl,0.005568
say,0.002024
scale,0.006343
schlfli,0.155054
schlflihess,0.015055
schwarz,0.005232
secondli,0.004108
seen,0.020165
segment,0.012803
selfdual,0.006659
separ,0.001706
set,0.010131
seven,0.012258
sevendimension,0.007047
seventeen,0.004389
share,0.012744
shown,0.011265
similar,0.001552
simpl,0.002066
simplex,0.015289
sin,0.018488
sinc,0.001300
singl,0.003480
sinlsinmcosn,0.007774
skew,0.107147
skip,0.004791
small,0.004773
smaller,0.002210
solid,0.013972
solut,0.004449
space,0.122287
speak,0.004986
special,0.001626
sphere,0.017459
spheric,0.064552
spiral,0.003979
squar,0.005509
sright,0.007047
st,0.004192
star,0.100925
stardihedra,0.007774
starhoneycomb,0.023324
startil,0.015549
state,0.001137
stella,0.005551
stellat,0.019549
straight,0.007212
strictli,0.006133
studi,0.001374
subdvid,0.007774
subgroup,0.004092
subset,0.006522
suggest,0.001820
summari,0.003129
surfac,0.002354
symbol,0.059015
symmetr,0.007405
symmetri,0.021718
tabl,0.010009
tessel,0.262976
tesseract,0.006659
tetrahedron,0.011778
theori,0.003048
therefor,0.001767
thi,0.017506
thirti,0.003505
thirtytwo,0.005530
thu,0.001519
tile,0.159620
time,0.005752
togeth,0.001793
topolog,0.010733
tori,0.005203
toroid,0.006104
toru,0.010465
trace,0.002493
transit,0.002263
triacontahedron,0.007336
triambic,0.007527
triangl,0.007691
trivial,0.003881
true,0.002105
truncat,0.004925
twodimension,0.004187
twoparamet,0.007047
type,0.009379
und,0.003825
uniform,0.021103
uniqu,0.004434
unlik,0.002165
use,0.007437
usual,0.003129
v,0.002318
veri,0.001484
version,0.002274
vertex,0.214082
vertextransit,0.023324
vertic,0.063913
vfec,0.007774
viewer,0.004560
visual,0.005486
von,0.002637
way,0.001390
welldefin,0.003875
wellform,0.005489
whenev,0.007318
write,0.002033
written,0.004117
yellow,0.003651
yield,0.002540
zero,0.005469
zerohol,0.007774
zigzag,0.022765
