abov,0.008328
add,0.012405
admit,0.027438
al,0.022318
algorithm,0.026084
alway,0.008748
ani,0.028667
anoth,0.006257
applic,0.007769
assign,0.011685
associ,0.006355
assum,0.009012
basic,0.015783
becom,0.006279
bij,0.034224
bin,0.054257
binari,0.015665
bipartit,0.023994
bj,0.024254
bound,0.070426
capac,0.054453
case,0.013138
choic,0.010323
chosen,0.024011
class,0.017428
coeffici,0.015163
collaps,0.011574
combinatori,0.018513
common,0.019060
constrain,0.015278
constraint,0.052187
contain,0.022615
copenhagen,0.018673
correspond,0.028618
cut,0.011156
d,0.008506
decis,0.017719
defin,0.007211
denot,0.012822
densiti,0.025362
diku,0.034224
dimens,0.012090
direct,0.006977
discuss,0.008574
displaystyl,0.252784
doe,0.014220
element,0.040231
equal,0.008615
essenti,0.008794
et,0.021750
exactli,0.012393
examin,0.009902
exampl,0.005666
exceed,0.039857
exhibit,0.011942
exist,0.006291
far,0.008578
fewer,0.013416
fit,0.011518
fix,0.030124
follow,0.005411
form,0.005171
formul,0.010833
fpta,0.068449
gener,0.014583
given,0.020355
ha,0.009021
hard,0.011103
ident,0.019373
ildot,0.029316
includ,0.004696
indic,0.008322
infin,0.017685
initi,0.007350
instanc,0.009161
instead,0.007923
integ,0.048669
inverseparametr,0.034224
item,0.335055
j,0.101949
jldot,0.029316
jleq,0.030074
k,0.010256
keller,0.045209
knapsack,0.747134
knapsacklik,0.068449
leq,0.022115
limit,0.013814
lueker,0.034224
m,0.088971
mani,0.010223
match,0.012026
maxim,0.064308
maximum,0.024595
mdimension,0.028987
mgeq,0.096884
model,0.007044
multidimension,0.019085
multipl,0.052189
multiplechoic,0.026873
multipli,0.014578
n,0.142184
need,0.006798
nest,0.017515
ni,0.019900
nldot,0.026873
nonlinear,0.015493
nonneg,0.042263
note,0.006520
npcomplet,0.049265
number,0.022630
obey,0.016138
object,0.015461
optim,0.011995
p,0.043164
pack,0.049504
page,0.011086
pattern,0.028946
phd,0.014613
pick,0.014720
pising,0.034224
pj,0.064908
pldot,0.034224
pnp,0.024534
posit,0.013404
possibl,0.006614
practic,0.006938
problem,0.228870
profit,0.078429
pseudopolynomi,0.034224
pta,0.026697
quadrat,0.018820
reallif,0.020902
reason,0.007381
refer,0.012338
relat,0.005545
remov,0.009495
report,0.007904
restrict,0.009532
scale,0.009308
select,0.035772
set,0.038226
setunion,0.034224
sever,0.005967
shape,0.009802
shown,0.029754
similar,0.006834
sinc,0.005723
singl,0.007660
size,0.017827
socal,0.011549
sometim,0.007451
special,0.014317
specifi,0.011637
stock,0.011042
strongli,0.011032
studi,0.006049
subdivid,0.015684
subset,0.071781
sukp,0.034224
sum,0.022835
taken,0.008380
thesi,0.014164
thi,0.008562
time,0.030386
total,0.047917
tri,0.009009
type,0.006881
uj,0.029316
unbound,0.120093
union,0.008505
univers,0.005928
unless,0.012826
upper,0.023117
use,0.023384
usual,0.006888
variabl,0.031389
variant,0.097060
version,0.010012
violat,0.012664
volum,0.019609
w,0.048019
wa,0.009386
weight,0.138442
wi,0.047500
wish,0.012655
wj,0.025525
work,0.005611
xi,0.017638
xj,0.025282
y,0.012189
yileftrightarrow,0.034224
