abraham,0.016441
abram,0.012325
acroniu,0.018414
ailana,0.018414
alan,0.014841
albert,0.007114
albrecht,0.011665
aldn,0.012655
aleksei,0.015142
alessandro,0.010691
alessio,0.016692
alexand,0.013412
alexandru,0.014104
alfalaki,0.018414
alfat,0.018414
alfazr,0.017829
alfr,0.021517
alfri,0.014024
anatoli,0.013050
ancient,0.005071
andr,0.018273
andrea,0.009313
andrew,0.007108
anton,0.010149
antonio,0.009115
anuka,0.018414
arabiamediev,0.016420
argentina,0.017366
ariel,0.012162
arnoldo,0.016692
arran,0.015773
arthur,0.007140
athanassio,0.017375
augusto,0.011715
austria,0.080983
aviezri,0.018414
avner,0.015967
awi,0.016420
b,0.004636
baptist,0.010220
barlow,0.013200
basqu,0.011765
bc,0.012488
belgium,0.024853
benedict,0.010800
benjamin,0.008003
benson,0.012100
bent,0.010722
bernd,0.013253
born,0.661799
botarel,0.018414
brazil,0.015084
brazilusa,0.018414
brian,0.008632
britain,0.095135
bruno,0.020298
burton,0.011093
c,0.004039
canada,0.036327
canadahungari,0.017829
carlo,0.016088
celin,0.017005
cesar,0.011791
charl,0.027070
charlott,0.011149
china,0.027155
chinausa,0.034010
chri,0.009515
ciprian,0.017005
colombia,0.009638
cornelia,0.014274
countri,0.003720
croatia,0.010137
czech,0.018120
d,0.009154
da,0.007526
dan,0.009157
david,0.025112
daviet,0.018414
del,0.008536
delbert,0.015433
della,0.022112
denmark,0.041468
di,0.017598
djairo,0.018414
domenico,0.014104
dominiqu,0.012291
doyn,0.016420
edgar,0.009950
edward,0.012384
egypt,0.007188
egyptfr,0.018414
elizabeth,0.008098
emanuel,0.011412
england,0.112226
eric,0.008085
erica,0.013874
erik,0.030696
erl,0.015596
ernst,0.016504
ervin,0.014458
etta,0.018414
evgraf,0.017829
f,0.010028
fa,0.010784
faa,0.013733
faber,0.025003
fabri,0.043987
faddeev,0.015433
faddeeva,0.017829
faedo,0.018414
fagnano,0.036828
fahroo,0.018414
fai,0.014458
faill,0.018414
fajardo,0.016420
fajtlowicz,0.018414
falcon,0.023636
fale,0.015433
falken,0.017375
fallati,0.017829
falmagn,0.018414
falt,0.015283
faltinsen,0.018414
fan,0.028728
fang,0.025231
fanghua,0.018414
fano,0.015142
fantappi,0.018414
far,0.004615
farb,0.017375
farg,0.016692
faria,0.014364
fariba,0.018414
farissol,0.018414
farka,0.015773
farmer,0.007204
farr,0.015142
farrar,0.012429
farrel,0.026841
fasenmy,0.018414
fathi,0.017375
fatou,0.015283
faudre,0.017829
faugr,0.016692
faulhab,0.017375
faulkner,0.013307
faur,0.013479
favard,0.016181
favila,0.017375
fawcett,0.015283
fe,0.010632
fearnhead,0.018414
fechner,0.013479
feder,0.005419
federgruen,0.018414
federico,0.012359
fedkiw,0.018414
fedorov,0.015142
fedorovich,0.017375
fef,0.017375
feferman,0.014558
fefferman,0.017829
fehr,0.014558
feichting,0.017829
feig,0.016181
feigenbaum,0.024718
feigl,0.014662
feinberg,0.014558
feinstein,0.014458
feit,0.015967
fejr,0.015283
feket,0.016420
feldbau,0.018414
feldheim,0.017375
feldman,0.011791
felix,0.009950
felkel,0.018414
fellegi,0.017005
feller,0.015283
fenchel,0.030285
feni,0.017375
fennema,0.016181
fenstad,0.018414
fenton,0.014274
ferdinand,0.009201
fergola,0.018414
ferguson,0.033279
ferligoj,0.018414
fermat,0.011307
fernandez,0.027080
fernholz,0.016420
ferniqu,0.017829
fernndez,0.024082
ferrand,0.018414
ferrara,0.013253
ferrari,0.039760
ferrer,0.014104
ferro,0.013602
fesenko,0.018414
fet,0.016692
feuerbach,0.012821
fey,0.016181
fibonacci,0.012162
ficatelli,0.018414
fichera,0.018414
fichtenholz,0.018414
fiedler,0.016181
field,0.007434
fienberg,0.016420
figal,0.018414
figueiredo,0.016420
filep,0.018414
filippo,0.013363
filippov,0.034751
filon,0.018414
filopanti,0.018414
fin,0.010849
finck,0.017375
fine,0.014554
finetti,0.014024
finger,0.009888
finkel,0.016692
finn,0.012041
finney,0.014662
finsler,0.015773
finster,0.018414
finsterwald,0.018414
fir,0.013733
firrufino,0.018414
fischer,0.051344
fishburn,0.015142
fisher,0.017961
fisk,0.013420
fit,0.006197
fitch,0.025391
fix,0.005402
fize,0.018414
flach,0.017375
flajolet,0.017829
flander,0.011412
flandro,0.018414
flanneri,0.012865
flapan,0.018414
flaschka,0.018414
fleetwood,0.015283
fleiss,0.017829
fleme,0.011149
fletcher,0.036302
flett,0.018414
flggelotz,0.018414
flicker,0.014187
fllmer,0.018414
flner,0.018414
flo,0.014458
floer,0.017829
flood,0.016071
floquet,0.016692
florenski,0.015967
floyd,0.012041
fludd,0.015967
flux,0.008954
flynn,0.013002
fo,0.027467
foata,0.018414
fodor,0.012131
foguel,0.036828
foia,0.016420
foka,0.018414
folk,0.008799
folkman,0.016692
folland,0.015283
fomenko,0.017375
fomin,0.031934
foncenex,0.018414
fonseca,0.013602
fontain,0.012291
fontana,0.012325
ford,0.038553
forder,0.017375
forelli,0.018414
foreman,0.014458
formula,0.006356
forni,0.015967
fornss,0.018414
forrest,0.012193
forsyth,0.013802
fort,0.008973
fortet,0.018414
fortin,0.015967
fortun,0.008256
foss,0.014104
fossombroni,0.018414
foster,0.046688
fouli,0.017375
founder,0.006379
fountain,0.012100
fourcroy,0.015596
fourier,0.009498
fourman,0.015773
fournier,0.015142
fouvri,0.018414
fowler,0.022533
fox,0.056256
foxbi,0.018414
fraenkel,0.039150
frahm,0.018414
franc,0.151114
franca,0.012100
francaviglia,0.018414
francesca,0.013948
francesco,0.010691
franci,0.006970
francin,0.013948
francl,0.018414
francur,0.018414
franel,0.018414
frank,0.035636
frankel,0.026726
frankl,0.013200
franklin,0.016653
franoi,0.009000
franscini,0.017005
franz,0.009611
franzn,0.018414
fraser,0.011207
frass,0.015773
frattini,0.015967
frauenfeld,0.016181
frchet,0.013948
frdric,0.012225
fre,0.015967
freder,0.010817
fredholm,0.016181
fredi,0.015967
freed,0.009384
freeden,0.015773
freedman,0.038087
freeman,0.009108
frege,0.011074
freidlin,0.018414
freil,0.017375
freiman,0.018414
freitag,0.016420
freivald,0.017375
frenet,0.015596
frenkel,0.028049
freudenth,0.017005
frey,0.026401
freyd,0.017005
frhlich,0.015283
fri,0.032697
frick,0.014772
frieden,0.016692
friedland,0.041844
friedman,0.037632
friedmann,0.013602
friedrich,0.007444
friesenhausen,0.018414
friet,0.018414
friez,0.030285
frigessi,0.017829
frink,0.017375
frisbi,0.017375
frisch,0.012465
frischlin,0.018414
frisi,0.018414
frisiu,0.031546
friz,0.017375
frlicher,0.018414
fro,0.015596
frobeniu,0.013802
froda,0.018414
froes,0.015773
frolk,0.018414
frost,0.011056
frostman,0.017829
frucht,0.015773
fubini,0.015283
fuch,0.038210
fueter,0.018414
fugled,0.017829
fujiwara,0.014888
fukaya,0.016181
fulcni,0.018414
fulkerson,0.015142
fuller,0.010661
fulton,0.013307
funk,0.013733
funkhous,0.018414
furstenberg,0.016692
furttenbach,0.018414
furtwngler,0.018414
fusco,0.017375
fuss,0.013200
g,0.009848
gaetano,0.014024
gari,0.009080
gaston,0.011954
gemma,0.014274
geneviev,0.015773
georg,0.036721
gerald,0.009440
gerd,0.012577
gerhard,0.010574
germani,0.175381
germanyaustria,0.017005
germanychil,0.018414
germanyswitzerland,0.016692
gino,0.015283
giovanni,0.029664
giulio,0.012465
giusepp,0.010950
gordon,0.008489
gottlob,0.011074
graef,0.016420
greec,0.006880
gregori,0.008853
gregorio,0.013363
grigorii,0.018414
grotjan,0.018414
gued,0.018414
guido,0.011791
gustav,0.009313
gyula,0.014662
gza,0.014888
h,0.010112
han,0.036371
hannah,0.012011
hansbjrn,0.018414
harley,0.013253
hartri,0.015773
harvey,0.009230
heinrich,0.009033
helaman,0.017005
helmar,0.018414
henri,0.011733
herbert,0.007881
hermann,0.008897
herta,0.018414
hillel,0.013602
honor,0.007529
howard,0.008443
hugh,0.008541
hungari,0.099148
hungaryisrael,0.017829
hungaryusa,0.017005
ibn,0.007923
ibrhm,0.017375
igor,0.011391
ilyich,0.014104
immanuel,0.009186
ireland,0.015215
iren,0.026100
irmgard,0.016692
irv,0.009807
ismail,0.011327
israel,0.044724
istvn,0.030867
itali,0.183410
italysicili,0.018414
ivan,0.019576
ivar,0.013050
j,0.022855
jacob,0.016414
jacqu,0.008443
jacquelin,0.012695
jame,0.005133
japan,0.012038
jean,0.022646
jeancharl,0.028375
jeanclaud,0.013420
jeanmarc,0.015011
jeffrey,0.009457
jen,0.022533
jeremiah,0.012821
jerom,0.010196
jianq,0.017829
jing,0.011871
joan,0.019796
johan,0.010588
johann,0.038943
john,0.028980
jon,0.010160
josef,0.011207
joseph,0.041986
jr,0.015462
jrme,0.014458
julio,0.012011
k,0.005518
kaitai,0.018414
kaml,0.014364
kamp,0.015142
karl,0.006845
kenji,0.014187
kenneth,0.008167
klau,0.010899
kte,0.017375
kurt,0.009584
ky,0.013602
l,0.016071
latviasoviet,0.018414
lazaru,0.012501
leopoldo,0.014662
lesli,0.010281
lester,0.022868
lin,0.011434
lipt,0.017829
lodovico,0.014772
lorrain,0.012778
loui,0.020598
louisbenjamin,0.018414
lszl,0.026726
ludvig,0.013420
luigi,0.010849
m,0.017407
macleod,0.012655
magnu,0.010617
marcu,0.009620
marguerit,0.012655
mari,0.014059
maria,0.017987
mark,0.004885
martin,0.012881
masahiko,0.016181
matthew,0.008823
matthia,0.011286
mauric,0.009074
mauro,0.013874
mediev,0.012979
merril,0.011617
mexico,0.007591
micha,0.012865
michael,0.022398
michel,0.008340
miroslav,0.015011
mitchel,0.010196
mose,0.009929
mrti,0.018414
muirhead,0.015142
mustafa,0.012070
napoleon,0.008298
nathan,0.010865
negret,0.018414
netherland,0.035453
new,0.005435
nicodemu,0.016181
nicola,0.036462
niel,0.010382
norman,0.017146
norway,0.017103
novara,0.016420
odd,0.008583
oronc,0.018414
orrin,0.015142
otto,0.017146
pablo,0.011456
paolo,0.011412
pasqual,0.015596
paul,0.015867
pavel,0.012100
penna,0.018414
perciv,0.013307
persia,0.018120
peter,0.016645
philip,0.007478
philipp,0.029192
philippa,0.013363
philippin,0.008728
phylli,0.013420
piero,0.012011
pierr,0.015665
poland,0.016625
portug,0.008128
pter,0.015283
quirico,0.018414
r,0.014007
ralph,0.028152
ray,0.007558
raymond,0.009094
raymundo,0.016692
ren,0.008671
reo,0.014364
republ,0.010387
robert,0.043789
roger,0.007420
roland,0.010632
romania,0.018565
ronald,0.015809
roy,0.009074
rsi,0.013874
rudolf,0.009094
russia,0.045524
russiasoviet,0.089330
s,0.009415
samuel,0.007866
sarah,0.010632
scipion,0.015596
scotland,0.008317
sebastian,0.011690
sergei,0.011617
sergey,0.012325
sergio,0.012225
shaul,0.015142
siemion,0.018414
sigismund,0.013307
sinn,0.013948
slovenia,0.010559
solomon,0.009457
soviet,0.006670
statist,0.005052
stefano,0.013002
stephen,0.006841
susan,0.009416
sweden,0.023078
switzerland,0.047358
sy,0.012225
tacito,0.018414
terrenc,0.012778
theodor,0.008428
thoma,0.033053
tienn,0.011818
torkel,0.017005
toschi,0.018414
tuval,0.018414
union,0.032034
unionrussia,0.016181
uriel,0.031192
usa,0.474415
usacanada,0.036828
vanc,0.013540
vera,0.011791
victor,0.008289
vittorio,0.014458
vladimir,0.008763
von,0.006246
w,0.005167
walter,0.022038
wang,0.009971
wayn,0.010933
wendel,0.011926
werner,0.009749
wilhelm,0.015505
william,0.034543
wolfgang,0.018704
xavier,0.011500
xx,0.011149
yilin,0.018414
yuval,0.014458
zdenk,0.016181
zealand,0.014645
zoltn,0.014558
zuber,0.015433
