aberdeen,0.015614
abil,0.005960
abstract,0.015247
academ,0.006489
accept,0.005439
achiev,0.043601
action,0.005323
activ,0.004322
actual,0.005544
ad,0.005528
add,0.008261
addit,0.008765
administr,0.006057
adopt,0.005978
advanc,0.005350
advisori,0.021302
advoc,0.007436
afanasyeva,0.022791
age,0.043404
aid,0.019497
alexeyevna,0.022791
algebra,0.093035
allow,0.004308
aloud,0.015519
alway,0.005825
america,0.006071
american,0.029451
amon,0.017263
analysi,0.010444
analyt,0.007898
ancient,0.031384
ani,0.007636
anoth,0.016667
answer,0.038569
appli,0.013894
applic,0.005173
apprentic,0.014152
approach,0.054845
appropri,0.020833
approxim,0.005904
archbishop,0.013510
archi,0.016539
area,0.012908
argu,0.005763
arithmet,0.084625
arm,0.006907
art,0.013255
arthur,0.008837
articl,0.010297
artifact,0.010265
asian,0.008253
aspect,0.017081
assess,0.029517
assign,0.031127
associ,0.033857
assur,0.009870
athlet,0.012519
attempt,0.009883
attend,0.008266
attent,0.007064
austrian,0.010377
author,0.014633
avail,0.005295
axiomat,0.011929
base,0.033974
basic,0.015766
bc,0.007728
bce,0.019173
becam,0.019099
becaus,0.015729
befor,0.013384
began,0.005216
begin,0.010187
belgian,0.012163
believ,0.005402
benefit,0.006339
best,0.017272
better,0.023563
biomedicin,0.015473
book,0.004964
boost,0.020484
branch,0.005555
brian,0.010684
briefli,0.009690
britain,0.007359
british,0.011665
broader,0.008710
brownel,0.020659
build,0.011055
calculu,0.048822
caleb,0.017778
california,0.024041
cambridg,0.013858
canada,0.007493
canadian,0.008880
canterburi,0.014072
career,0.008582
carri,0.005640
carrol,0.013252
cart,0.013752
cartograph,0.014206
case,0.013123
cast,0.008887
center,0.005580
centr,0.007193
central,0.004904
centuri,0.035941
certain,0.004788
chair,0.039307
challeng,0.018749
charl,0.006700
cheapest,0.015566
chemist,0.010054
chief,0.007285
children,0.057565
choos,0.022579
christ,0.011164
church,0.007905
civil,0.006001
civilis,0.011940
clarifi,0.010552
class,0.040622
classic,0.017342
classifi,0.007077
classroom,0.063625
clear,0.006512
clearinghous,0.015978
clinic,0.009124
colleg,0.037977
combin,0.004989
come,0.005004
commerc,0.008719
commiss,0.013932
committe,0.007507
common,0.004231
compar,0.005175
compet,0.007214
competit,0.006880
complet,0.004832
complex,0.005120
compos,0.006638
comput,0.011596
computerbas,0.014179
concept,0.034183
conceptu,0.025267
concern,0.009825
conclus,0.007796
concurr,0.010789
conduct,0.005997
confer,0.006888
confirm,0.007544
confus,0.007876
congress,0.015681
connect,0.028807
consid,0.012243
consider,0.011761
contemporari,0.006844
content,0.013809
context,0.012311
contin,0.009017
continu,0.012720
control,0.013947
controversi,0.020687
convent,0.013552
copernicu,0.013069
copi,0.008436
core,0.014862
council,0.025523
count,0.007980
countri,0.041446
cours,0.042693
cover,0.005761
craft,0.010526
creat,0.017121
creativ,0.009042
critic,0.010294
critiqu,0.008890
cruz,0.013069
cuisenair,0.043012
cultiv,0.008937
cultur,0.015784
current,0.013439
curricula,0.013087
curriculum,0.075877
dalton,0.012605
data,0.005584
date,0.011697
david,0.006216
decad,0.006361
decis,0.005900
declin,0.006644
deduct,0.020249
deepen,0.012576
defend,0.007829
definit,0.011066
deliber,0.009367
demonstr,0.006290
depart,0.006135
depend,0.018469
depth,0.009188
derisori,0.021506
describ,0.008614
design,0.005139
determin,0.004859
develop,0.017498
devot,0.008271
dictat,0.010007
didact,0.030856
differ,0.044517
differenti,0.014171
difficulti,0.030231
dilut,0.012200
dina,0.017778
disabl,0.010191
discipl,0.011694
disciplin,0.006448
discontinu,0.010624
discours,0.009582
discuss,0.011419
divis,0.018195
dmoz,0.009268
dodgson,0.038204
doe,0.009469
drill,0.011594
dublin,0.012966
dure,0.004028
dutch,0.025783
dutchrussian,0.022791
earli,0.021069
earlier,0.006225
east,0.006477
edmund,0.010719
educ,0.236160
educationjust,0.022791
effect,0.028650
effici,0.006596
effort,0.005834
egypt,0.017794
egyptian,0.018991
electron,0.007050
element,0.021433
elementari,0.066529
emerg,0.016198
emphas,0.007394
empir,0.005878
encourag,0.013849
end,0.004606
enforc,0.007898
engag,0.006671
engin,0.018214
england,0.014621
english,0.005867
enjoy,0.008020
enorm,0.009074
equal,0.005737
equat,0.035035
equip,0.007532
error,0.008011
essenti,0.029283
establish,0.017984
ethic,0.007754
euclid,0.064174
euclidean,0.023555
europ,0.011425
european,0.005247
evalu,0.021900
event,0.010965
eventu,0.011976
everi,0.010543
everyday,0.008999
evid,0.011490
exampl,0.026412
exercis,0.021715
exert,0.009667
exet,0.015764
exist,0.004189
expect,0.017365
experi,0.031085
experiment,0.007037
explan,0.007416
explicit,0.018398
explicitli,0.008576
explor,0.006419
exploratori,0.012802
exponenti,0.010141
express,0.005458
extend,0.005557
extens,0.005689
extern,0.003294
extrem,0.006043
facilit,0.007595
fact,0.016047
familiar,0.008914
famou,0.013920
fashion,0.008867
faulti,0.013532
featur,0.017093
feedback,0.020461
felix,0.024630
fewer,0.008934
fianna,0.018283
field,0.023004
fil,0.016539
final,0.005449
fl,0.012802
fluid,0.017761
focal,0.012634
focus,0.029323
follow,0.028830
form,0.013774
formal,0.016912
formula,0.007867
founder,0.031584
fraction,0.017636
french,0.006062
freudenth,0.042095
fun,0.014408
function,0.013837
futur,0.005487
gagn,0.019762
gattegno,0.022791
gener,0.009711
genuin,0.010450
geometr,0.009264
geometri,0.110257
georg,0.019478
given,0.004518
gold,0.007834
good,0.005008
governor,0.008269
grade,0.031521
gradual,0.007242
graph,0.010023
greater,0.011348
greec,0.008515
greek,0.006379
ground,0.006555
gttingen,0.014727
guid,0.006369
guitarist,0.020659
ha,0.027035
half,0.006201
han,0.009003
hand,0.005582
harvard,0.008801
held,0.010652
help,0.019728
heurist,0.023054
hi,0.008078
hiel,0.022067
hielegeldof,0.022791
hierarchi,0.009180
high,0.027370
higher,0.005355
histor,0.010121
histori,0.018761
homework,0.049412
honor,0.009319
howev,0.018281
human,0.008680
hungarian,0.011614
hypothes,0.008958
icm,0.018283
icmi,0.020659
idea,0.025281
impact,0.012347
import,0.030738
improv,0.005543
impuls,0.011546
includ,0.031273
increas,0.021660
independ,0.013881
index,0.007156
individu,0.004646
industri,0.005142
inferenti,0.015869
infinit,0.008821
influenc,0.014886
influenti,0.014491
inform,0.008957
ingenu,0.014499
initi,0.009789
instead,0.005276
institut,0.004767
instruct,0.025444
instructor,0.013532
integr,0.010873
intellectu,0.007728
intern,0.023686
interview,0.009315
introductori,0.021480
invent,0.007330
involv,0.017469
ireland,0.009416
isaac,0.009750
japanes,0.008585
joachim,0.014152
john,0.005124
johnni,0.015978
join,0.013401
journal,0.005794
k,0.006830
kill,0.007436
kind,0.006000
klein,0.035788
kline,0.016610
know,0.020477
knowledg,0.016997
known,0.011292
kumon,0.043012
l,0.006630
la,0.007518
larg,0.011908
late,0.005214
later,0.004479
lead,0.008987
leader,0.006586
learn,0.113888
lectur,0.016378
led,0.019444
lee,0.010242
lehrer,0.037831
lesson,0.042286
let,0.008439
lethal,0.012983
letter,0.007434
level,0.031526
lewi,0.009453
liber,0.006790
lifestyl,0.010726
like,0.008045
linear,0.008013
link,0.003274
literatur,0.013458
live,0.004869
local,0.005101
locat,0.005537
logarithm,0.012188
logic,0.007289
long,0.004890
look,0.006218
low,0.005772
lower,0.005565
lucasian,0.018018
lyon,0.012867
m,0.005386
ma,0.009512
main,0.009535
maintain,0.005251
major,0.003995
make,0.015319
maker,0.010389
male,0.008447
manchest,0.011820
mani,0.020424
mason,0.013034
masteri,0.027149
math,0.081721
mathemat,0.669010
mathematician,0.036873
mcluhan,0.015978
mean,0.016590
meaning,0.009788
measur,0.004932
mechan,0.005561
medalist,0.017358
mediev,0.008032
medit,0.011443
memori,0.007834
memoris,0.017666
mental,0.008149
merchant,0.008944
mesopotamia,0.011452
met,0.007701
metaphys,0.009635
method,0.088620
methodolog,0.023914
metric,0.010114
middl,0.006209
minu,0.011131
mit,0.009150
mix,0.007243
model,0.004691
modern,0.018069
money,0.006730
moneylend,0.016998
moor,0.020326
moral,0.007534
morri,0.011963
moscow,0.010789
mose,0.012289
mostli,0.006425
motiv,0.022072
movement,0.010386
multipl,0.017377
multivari,0.012867
mutat,0.010456
nation,0.037557
nationwid,0.022886
natur,0.004020
need,0.009054
new,0.026911
newton,0.009508
nmap,0.045582
nonexperiment,0.018283
nonroutin,0.019102
north,0.005979
northridg,0.019522
notat,0.010119
notic,0.008547
notion,0.007125
nottingham,0.015053
number,0.018837
numeraci,0.032549
object,0.030889
obtain,0.011707
offic,0.006061
older,0.007903
olymp,0.011370
olympiad,0.016836
ongo,0.008240
onli,0.006933
openend,0.014349
opportun,0.014227
option,0.007858
order,0.004150
organ,0.004107
organis,0.014260
origin,0.008347
outsid,0.011490
oxford,0.028303
panel,0.011099
papyru,0.050076
paradigm,0.009124
pari,0.008235
parodi,0.013870
parri,0.015869
parti,0.005819
particular,0.004713
partisanship,0.018742
past,0.011948
pattern,0.006425
pedagog,0.014072
pedagogi,0.014072
peerassist,0.021506
pen,0.012067
peopl,0.008304
period,0.008949
permut,0.013309
philosoph,0.006610
philosophi,0.006411
physicist,0.008914
pierr,0.009694
pioneer,0.007867
plane,0.009070
plato,0.009920
plya,0.017083
point,0.013105
polici,0.011146
polit,0.004726
poor,0.014892
popul,0.005358
popular,0.005387
potenti,0.005591
practic,0.036963
prealgebra,0.020659
precalculu,0.018147
precolleg,0.020027
predefin,0.014179
prefer,0.019838
prepar,0.007003
presid,0.006245
previou,0.006512
primari,0.011401
primarili,0.005903
principl,0.010367
prior,0.006522
probabl,0.012393
problem,0.060041
problemsolv,0.013776
procedur,0.022562
product,0.009001
profess,0.009024
profession,0.013995
profit,0.007461
profound,0.009851
progress,0.005885
project,0.005343
promot,0.006160
proof,0.008805
properti,0.005228
propos,0.005328
provid,0.007663
provinc,0.007983
psycholog,0.007361
public,0.004349
publish,0.023966
pupil,0.045060
push,0.008212
quadrat,0.025066
quadrivium,0.050051
qualit,0.050064
quantit,0.048138
quarter,0.008982
queen,0.009063
question,0.016269
quo,0.012043
rais,0.006369
random,0.090617
randomli,0.035023
rang,0.005183
read,0.004756
real,0.011369
realist,0.009412
reason,0.024577
receiv,0.010465
recent,0.014227
recommend,0.008073
record,0.005773
recreat,0.010578
reduc,0.005188
refer,0.005477
reform,0.013399
region,0.004904
regress,0.010803
reinforc,0.009327
rel,0.004910
relat,0.007385
releas,0.006844
relev,0.021490
remain,0.004529
remark,0.008400
remind,0.012354
renaiss,0.009056
renew,0.008008
repetit,0.011172
report,0.010528
repres,0.004492
represent,0.006909
requir,0.025869
research,0.084420
resourc,0.005544
respond,0.007386
respons,0.004750
result,0.038150
revers,0.007540
revitalis,0.016610
revolut,0.006784
reward,0.009474
rheticu,0.021047
rhind,0.033997
rich,0.007853
right,0.004914
rigid,0.010191
rival,0.009049
robert,0.024087
robust,0.009920
rock,0.008576
rod,0.011841
roman,0.007346
rote,0.033672
s,0.011653
sampl,0.016323
santa,0.010854
satirist,0.017666
satisfact,0.011343
schaaf,0.022791
scholar,0.020866
scholarli,0.009694
school,0.094727
scienc,0.027638
scienceori,0.018427
score,0.010039
scotland,0.010294
scroll,0.013469
second,0.004495
secondari,0.015598
seen,0.010747
select,0.011911
sens,0.011271
separ,0.005003
sequenc,0.007603
seri,0.005456
set,0.038183
seventeenth,0.011896
shell,0.009218
shortterm,0.009956
shown,0.006604
sign,0.012551
signific,0.009731
significantli,0.007029
similar,0.009103
simpl,0.018169
simultan,0.007987
sinc,0.007623
singlecas,0.022791
situat,0.005868
size,0.005935
skill,0.036714
small,0.009328
social,0.019395
societi,0.004775
softwar,0.008075
solid,0.008191
solut,0.006521
solv,0.056119
sometim,0.009924
somewhat,0.016161
song,0.020217
songwrit,0.018147
sort,0.007994
soviet,0.008256
space,0.005876
special,0.014301
specif,0.009121
spend,0.007912
ss,0.011715
st,0.006144
stage,0.006656
standard,0.046204
standardis,0.013662
standardsbas,0.020027
start,0.009649
state,0.033351
statist,0.018760
statistician,0.012725
statu,0.019098
stem,0.008568
strategi,0.014200
strength,0.007730
strong,0.005538
strongest,0.011059
strongli,0.007346
structur,0.013360
struggl,0.071912
student,0.240046
studi,0.084593
subject,0.014546
subservi,0.014152
subtract,0.011725
suffici,0.007046
suggest,0.005336
sumerian,0.026282
summaris,0.013596
superior,0.008484
support,0.004532
surpass,0.010761
symbol,0.013840
systemat,0.007282
tabl,0.007335
taken,0.011162
task,0.007071
tatyana,0.017778
taught,0.144473
teach,0.238943
teacher,0.104821
technic,0.006779
techniqu,0.011715
technolog,0.005495
tell,0.008585
tend,0.006259
term,0.003601
test,0.018693
textbook,0.025774
th,0.021853
theori,0.040210
therefor,0.005180
thi,0.039914
thing,0.012130
think,0.013220
thought,0.005402
time,0.023607
today,0.005475
tom,0.020913
tool,0.012206
topic,0.042334
toru,0.015340
trade,0.016541
tradit,0.004799
treatment,0.042070
trend,0.014561
tri,0.005999
trial,0.034790
trigonometri,0.027889
triniti,0.012533
trivium,0.016683
troubl,0.010007
true,0.006171
twentieth,0.017985
twoyear,0.012394
type,0.013748
typic,0.035795
umbrella,0.011352
uncommon,0.011684
understand,0.046565
understood,0.007153
unit,0.019222
univers,0.047373
unknown,0.007891
unless,0.008541
unrel,0.010898
unsolv,0.012055
unusu,0.009241
urban,0.015989
usa,0.034039
use,0.046718
usual,0.009173
valera,0.018147
van,0.016675
variabl,0.013935
varieti,0.011446
variou,0.013017
vedic,0.013034
veri,0.004353
vision,0.008256
visual,0.016084
vulgar,0.014693
wa,0.075007
war,0.005414
way,0.004075
wealth,0.007849
wellimpl,0.020659
wherea,0.006614
whi,0.028053
wide,0.004909
wider,0.008679
william,0.018323
wish,0.008427
wittenberg,0.017559
word,0.010582
work,0.022420
world,0.007728
worldwid,0.007732
write,0.005959
written,0.006034
x,0.006748
y,0.008117
year,0.019234
york,0.005870
young,0.007077
younger,0.009470
