abil,0.006392
abraham,0.021821
abund,0.009421
academ,0.013917
accept,0.011665
access,0.006428
accompani,0.008981
accord,0.004645
achiev,0.005844
ackoff,0.019460
acquisit,0.010045
action,0.005708
activ,0.018542
ad,0.011857
address,0.006996
administr,0.006495
admiralti,0.015548
adopt,0.019233
advanc,0.017214
advantag,0.007211
aerial,0.013083
aerialdeliv,0.021476
affect,0.012142
africa,0.007544
aid,0.006969
air,0.021410
aircraft,0.165093
airlin,0.035477
airspe,0.020484
algorithm,0.018627
alli,0.008580
alloc,0.037084
allow,0.004620
alter,0.008333
american,0.005263
analys,0.054497
analysi,0.084005
analyst,0.010543
analyt,0.033880
annot,0.012721
antiaircraft,0.016904
antitank,0.017971
aorg,0.021476
appli,0.039732
applic,0.055483
apprais,0.013941
approach,0.016040
appropri,0.022341
approxim,0.006331
area,0.055370
argu,0.006180
arjang,0.042953
armi,0.023973
armour,0.041934
arnoff,0.021476
aros,0.009226
arriv,0.022436
articl,0.005521
artilleri,0.025396
ask,0.007680
assad,0.037661
assign,0.066759
associ,0.004538
assur,0.010585
atlant,0.009844
attack,0.029961
attempt,0.015898
australia,0.008075
autom,0.020792
averag,0.020817
awar,0.008405
b,0.012307
babbag,0.015582
baron,0.012361
base,0.008096
basi,0.005786
battl,0.008773
bawdsey,0.020098
bayesian,0.012915
bb,0.014626
bcor,0.020935
bear,0.008694
becam,0.005120
becaus,0.021084
becom,0.004484
beer,0.012966
befor,0.014353
began,0.005593
behalf,0.010332
behaviour,0.017273
belgian,0.013043
bellman,0.017971
berkeley,0.010940
best,0.006174
better,0.044219
bias,0.011608
black,0.015120
blackett,0.152522
blend,0.011743
bomb,0.042425
bomber,0.126481
book,0.005324
boston,0.010327
branch,0.011914
bridgman,0.017520
britain,0.039459
british,0.062547
broad,0.007524
bronowski,0.019065
brought,0.006905
bs,0.015264
buffer,0.013137
bureau,0.010595
buse,0.060939
busi,0.037889
c,0.026806
calcul,0.014297
cambridg,0.014861
camouflag,0.050233
campaign,0.008422
canada,0.008035
canadian,0.009523
capabl,0.014776
capac,0.007777
capit,0.006101
carri,0.012096
case,0.004691
caught,0.011554
ccor,0.064429
cecil,0.014650
cell,0.008069
ch,0.023944
chain,0.033528
challeng,0.006702
chanc,0.009031
chang,0.025379
character,0.007116
characterist,0.006466
charg,0.021721
charit,0.013798
charl,0.021557
charn,0.041870
cheaper,0.012080
chip,0.012596
choic,0.007372
churchman,0.017257
circu,0.017320
citat,0.022347
civilian,0.009754
class,0.006223
classic,0.012398
cliff,0.025126
close,0.020081
closer,0.009284
coastal,0.040915
coeia,0.021476
cognit,0.008895
collect,0.005473
colleg,0.008145
collis,0.011524
colour,0.021419
combin,0.010701
command,0.070851
common,0.004537
commonwealth,0.009692
commun,0.009813
compani,0.011850
compar,0.005550
comparison,0.007868
complet,0.005182
complex,0.021963
compon,0.006462
comput,0.043525
conceiv,0.009852
concept,0.005236
concern,0.026341
conclus,0.008361
confer,0.007386
consid,0.004376
consider,0.006306
constitu,0.008787
constraint,0.018634
construct,0.005810
continu,0.004546
contribut,0.005507
control,0.009971
convoy,0.148746
cooper,0.014344
corpor,0.014725
cost,0.019792
cours,0.013080
coverag,0.011288
crew,0.023601
critic,0.005519
crucial,0.009134
custom,0.007587
d,0.006074
damag,0.072885
dantzig,0.037025
data,0.017966
daytim,0.016642
dc,0.010391
deal,0.012090
decad,0.013642
decid,0.007313
decis,0.101231
decisionmak,0.032450
defenc,0.045674
defens,0.024709
defin,0.005149
deliveri,0.010845
demand,0.006699
depart,0.013159
depend,0.004951
deploy,0.010155
depth,0.029558
descend,0.009082
describ,0.004618
design,0.011023
destroy,0.007847
destruct,0.008881
detect,0.008240
determin,0.020845
develop,0.030024
devot,0.017740
diagram,0.010323
differ,0.003978
direct,0.004983
disciplin,0.027659
discov,0.006608
divis,0.006503
doubl,0.008308
drama,0.012675
draw,0.007692
dull,0.015062
durat,0.010687
dure,0.025918
dutch,0.009216
dynam,0.021106
dyson,0.015720
e,0.018242
earli,0.018075
econom,0.004944
econometr,0.013291
edit,0.007071
editor,0.038470
educ,0.011511
effect,0.021945
effici,0.028296
effort,0.018770
eighth,0.012607
ejor,0.021476
elek,0.020700
emphasi,0.008194
employ,0.005992
employe,0.009466
enabl,0.007164
enact,0.010015
enamel,0.017971
encompass,0.016915
enemi,0.010097
engag,0.014308
engin,0.019532
england,0.007839
englewood,0.030015
entitl,0.018654
envelop,0.013165
equip,0.024232
era,0.007138
escort,0.015264
establish,0.009643
europ,0.012252
european,0.005627
event,0.005879
evidencebas,0.014772
exampl,0.008092
excel,0.009773
exchang,0.012773
execut,0.006843
expand,0.019172
experi,0.005555
expert,0.008924
extend,0.011918
extens,0.012201
extern,0.003532
f,0.006654
face,0.006781
facil,0.025980
fact,0.005736
factori,0.019770
far,0.012252
faster,0.009425
featur,0.006109
feder,0.014386
feet,0.066197
fewer,0.009580
field,0.044404
fighter,0.036813
financ,0.007158
financi,0.006449
finish,0.031188
flew,0.014053
fli,0.040337
flight,0.009897
floorplan,0.020700
flow,0.035573
focu,0.013255
follow,0.003864
foot,0.010496
forc,0.014526
ford,0.012792
form,0.011078
forrest,0.016184
fr,0.011928
franc,0.006916
franco,0.013798
frank,0.009459
frederick,0.010898
freeman,0.012089
freight,0.028587
french,0.006501
friction,0.011902
fulkerson,0.020098
futur,0.005884
g,0.006535
gain,0.005877
game,0.008290
gass,0.033809
gaug,0.011945
gener,0.010414
georg,0.020888
gerald,0.012530
german,0.034113
germani,0.021822
given,0.014536
global,0.019247
glossi,0.019460
goal,0.013290
gordon,0.011267
govern,0.013782
great,0.010889
greater,0.006084
grew,0.008073
grey,0.012878
ground,0.007029
group,0.021789
grow,0.006194
grown,0.009303
guess,0.013548
gwr,0.020700
h,0.033554
ha,0.019328
hand,0.005986
handbook,0.009777
harder,0.012007
harvard,0.009438
harvey,0.012251
health,0.013470
heavili,0.007788
help,0.021155
henderson,0.013548
herbert,0.010461
hi,0.004331
hierarchi,0.009844
hillier,0.020098
histor,0.010853
histori,0.020119
hit,0.010002
holt,0.014747
home,0.006898
hour,0.016978
howard,0.022414
howev,0.003920
humandriven,0.019606
humantechnolog,0.020935
hundr,0.007340
hungarian,0.012455
hunt,0.009750
idea,0.005422
identifi,0.017519
ifor,0.037661
igi,0.019190
ii,0.037935
iitsec,0.021476
ijori,0.021476
illumin,0.011350
imperi,0.009411
import,0.004120
improv,0.029724
includ,0.046951
increas,0.009291
india,0.014792
indic,0.017829
individu,0.014949
industri,0.044113
inflict,0.013151
influenc,0.005321
infor,0.021476
inform,0.057634
infrastructur,0.008179
initi,0.020996
innov,0.008368
input,0.017504
insight,0.017922
inspect,0.012071
instanc,0.006542
institut,0.025560
integr,0.005829
interact,0.006027
interdisciplinari,0.009930
interfac,0.010517
intermod,0.019322
intern,0.012700
interoper,0.015981
interserviceindustri,0.021476
intrins,0.010228
introduc,0.005667
introduct,0.025617
inventori,0.025126
invest,0.006878
involv,0.004683
isbn,0.011422
island,0.007160
issu,0.010368
italian,0.009064
j,0.018201
jacob,0.010892
japan,0.015978
japanes,0.009206
jay,0.012940
jdm,0.020098
jo,0.011494
john,0.032969
jointli,0.011655
jor,0.021476
journal,0.180196
jr,0.010261
k,0.014648
kammhub,0.021476
kan,0.017075
kantorovich,0.017971
kcb,0.019760
keeney,0.021476
kill,0.015949
kimbal,0.017257
kind,0.006434
kingdom,0.006425
kirbi,0.016850
kluwer,0.014650
known,0.016145
koopman,0.035781
kuhn,0.028545
l,0.021331
labor,0.023793
laid,0.009116
lanchest,0.020098
land,0.018339
larg,0.021283
largest,0.013342
later,0.019214
law,0.004865
layout,0.013533
learn,0.013569
led,0.005212
lenstra,0.019924
lester,0.015176
letter,0.007972
lieberman,0.017257
like,0.004314
limit,0.009865
line,0.005780
linear,0.034374
link,0.007023
locat,0.023753
logic,0.007816
logist,0.046621
london,0.006800
long,0.005244
longer,0.006661
look,0.013337
lord,0.009559
loss,0.063576
ltl,0.020098
m,0.011552
ma,0.010201
mail,0.012652
maintain,0.005631
major,0.004284
make,0.008213
manag,0.225579
manageri,0.013137
mandat,0.010062
mani,0.014601
manipul,0.008647
manufactur,0.038508
map,0.007388
mariana,0.014927
market,0.012090
markov,0.013763
materi,0.016978
mathemat,0.107930
matter,0.006074
mauric,0.012043
maximum,0.008782
mcarthur,0.019760
mcgrawhil,0.011671
mean,0.004447
meaning,0.010496
medic,0.007437
member,0.015458
men,0.007488
merchant,0.009591
messag,0.010036
metagam,0.019065
method,0.070024
methodolog,0.008548
militari,0.058799
minimis,0.014511
minimum,0.008809
ministri,0.017367
mit,0.019625
mmor,0.021476
mo,0.014900
model,0.080489
modern,0.019376
modigliani,0.017385
mor,0.020284
moreov,0.009264
morpholog,0.011064
mors,0.014723
ms,0.012136
multipl,0.006211
muth,0.018414
nation,0.004475
natur,0.008622
naval,0.010187
navi,0.009666
near,0.006640
nearli,0.007034
nearoptim,0.019924
need,0.009709
neg,0.007003
network,0.054012
neural,0.010851
new,0.043288
night,0.029717
nighttim,0.017320
nj,0.011850
nobel,0.009401
nonlinear,0.011064
nonquantifi,0.020700
nonvit,0.020284
normandi,0.015756
north,0.006412
northholland,0.015205
notabl,0.006196
note,0.004656
number,0.040401
numer,0.005983
o,0.025548
object,0.011041
observ,0.005330
obtain,0.006277
occup,0.008415
offici,0.036787
oil,0.008060
oldest,0.008736
om,0.033594
onc,0.006034
onli,0.014870
ontarget,0.020484
open,0.005528
oper,0.443247
opsearch,0.021476
optim,0.085659
ora,0.018228
order,0.004450
organ,0.044050
organis,0.007646
organiz,0.021159
origin,0.017902
outag,0.017590
outlook,0.011577
output,0.008429
overal,0.007391
overlap,0.017951
overview,0.008092
overwhelm,0.010828
owen,0.013394
p,0.006164
pack,0.011784
page,0.007917
paint,0.061540
palgrav,0.035969
paper,0.006663
particular,0.010110
past,0.006406
path,0.008188
patrick,0.023389
patrol,0.025983
peac,0.007788
penni,0.014674
peopl,0.004452
percent,0.008110
perci,0.014797
perform,0.017032
pergamon,0.015650
period,0.004798
person,0.005284
personnel,0.029942
petrochem,0.014823
philip,0.009926
philippin,0.011585
physic,0.005284
pioneer,0.008436
place,0.004567
plan,0.036696
planner,0.012816
polici,0.011952
polit,0.005068
port,0.009125
posit,0.004786
possibl,0.009446
post,0.007837
power,0.004739
pp,0.007549
pr,0.013712
practic,0.004954
preemin,0.013424
prefer,0.007091
prenticehal,0.028031
present,0.009260
press,0.038152
price,0.013711
princeton,0.061345
principl,0.027795
prize,0.008636
probabl,0.013290
problem,0.104007
problemsolv,0.014772
proceed,0.008474
process,0.021889
procur,0.012792
product,0.048265
profess,0.009677
profil,0.009997
profit,0.008001
program,0.040778
project,0.040111
prove,0.007147
provid,0.012326
psycholog,0.007893
public,0.013991
publish,0.066821
pursuit,0.010440
quadrat,0.013440
qualiti,0.006899
quantit,0.017207
quarterli,0.056613
queue,0.046162
r,0.012393
radar,0.025855
rae,0.035325
raf,0.091232
raid,0.011026
raiffa,0.038644
railway,0.010958
ralph,0.012455
rang,0.016677
rate,0.017216
ratio,0.041759
ration,0.015961
raw,0.019161
ray,0.010032
read,0.005101
realis,0.011842
realworld,0.012202
reason,0.010542
recommend,0.025972
redistribut,0.012212
reduc,0.027819
reduct,0.008450
refer,0.005873
refineri,0.013613
regard,0.005634
region,0.005259
reject,0.007240
relat,0.007920
remedi,0.011616
reminisc,0.014131
remov,0.006781
report,0.011289
repres,0.004817
requir,0.004623
research,0.357353
researchbas,0.018830
reservoir,0.013220
resourc,0.005945
respons,0.010188
restrict,0.006807
result,0.016364
retail,0.010622
return,0.029720
reveal,0.023176
revenu,0.008568
rinnooy,0.020700
risk,0.007226
robert,0.006457
robot,0.010887
robust,0.010638
rose,0.008912
round,0.009303
rout,0.035369
row,0.022715
royal,0.007749
run,0.006454
russel,0.010294
s,0.012496
salesman,0.016358
saul,0.028341
saw,0.014374
schedul,0.029285
schlaifer,0.020935
scholarli,0.010396
school,0.005975
schrijver,0.020284
scienc,0.182768
sciencebas,0.016904
scientif,0.017730
scientist,0.026864
screen,0.010845
search,0.022552
second,0.019281
section,0.021832
sector,0.023099
separ,0.005365
servic,0.040056
set,0.013648
setup,0.013746
sever,0.008522
ship,0.033333
shoot,0.024910
short,0.006262
shortli,0.018282
sight,0.021797
simon,0.009820
simpl,0.006494
simplex,0.016020
simul,0.071051
sinc,0.008174
siso,0.020098
size,0.006365
skin,0.010366
sky,0.011623
slowest,0.016744
small,0.030010
smooth,0.010840
socal,0.008247
social,0.005199
societi,0.107545
softoper,0.021192
solli,0.020935
solut,0.020979
solv,0.015045
sometim,0.005321
son,0.046957
sort,0.017146
south,0.006401
spanish,0.008839
speed,0.008358
sponsor,0.010247
sport,0.009707
spot,0.010233
springer,0.029680
staf,0.013798
staff,0.009636
stafford,0.017134
stakehold,0.013137
standard,0.005505
start,0.005174
state,0.010729
station,0.035718
statist,0.060353
step,0.006931
stochast,0.011343
stochasticprocess,0.021476
store,0.008281
strateg,0.026763
strategi,0.022842
stream,0.009797
strong,0.011878
structur,0.004775
studi,0.008639
subdisciplin,0.011141
subfield,0.010522
submarin,0.061756
submerg,0.029022
success,0.005420
suffer,0.007460
suffic,0.014251
suggest,0.011444
sunk,0.073373
superintend,0.014747
suppli,0.026654
support,0.009719
surfac,0.014802
survey,0.023570
symposium,0.013083
synonym,0.010201
systemat,0.007809
tactic,0.021738
taken,0.005985
target,0.053274
task,0.007582
team,0.025608
techniqu,0.056533
technolog,0.011786
telecommun,0.010654
televis,0.009213
term,0.011587
test,0.013364
textbook,0.009213
th,0.004686
theori,0.028746
therefor,0.011111
thi,0.015286
thirteen,0.012261
thousand,0.007208
tie,0.007972
time,0.025315
timelin,0.009621
tjall,0.018614
tool,0.006545
topic,0.006485
total,0.005703
tradeoff,0.013178
tradit,0.005147
traffic,0.010799
train,0.042349
transact,0.008801
transport,0.042043
travel,0.021652
trigger,0.009943
tucker,0.015090
uboat,0.100782
uk,0.037460
umbrella,0.012174
unappreci,0.019924
uncertain,0.010805
unclear,0.010737
understand,0.005548
undersurfac,0.020284
undertook,0.012745
unit,0.016491
univers,0.016933
untouch,0.030529
usag,0.008573
usbas,0.015450
use,0.060118
v,0.007288
valu,0.005238
variabl,0.022416
varieti,0.006137
variou,0.009306
vast,0.008207
vehicl,0.009280
veri,0.004667
vessel,0.009951
vital,0.018257
vol,0.008784
volum,0.014003
w,0.054867
wa,0.090489
waddington,0.038921
wagner,0.015034
wansbroughjon,0.021476
war,0.087097
warehous,0.014421
warn,0.009828
warship,0.026759
water,0.012610
way,0.008741
weapon,0.009076
websit,0.015458
went,0.007497
west,0.007018
white,0.015521
wide,0.015793
wiley,0.060013
wileyblackwel,0.015062
william,0.013099
winner,0.011254
wolfpack,0.019924
women,0.007779
work,0.040071
world,0.049728
worldwid,0.008292
wouldnt,0.015866
yate,0.017736
year,0.008250
yield,0.007985
york,0.050363
zealand,0.009719
zone,0.008448
zuckerman,0.036280
