abstract,0.044325
academi,0.048525
access,0.017426
account,0.014833
achiev,0.015844
acronym,0.038150
ad,0.016073
agenda,0.029340
aim,0.017984
appear,0.014588
appli,0.013464
applic,0.015041
appoint,0.020704
area,0.037527
articl,0.044906
avail,0.015395
base,0.010974
began,0.015164
ber,0.039157
berlin,0.027046
bibliograph,0.042715
bohr,0.112647
book,0.043300
brief,0.024069
brother,0.025467
build,0.016070
carl,0.025394
central,0.014258
classif,0.022443
close,0.013610
code,0.019682
compet,0.020973
confer,0.040049
consid,0.011864
construct,0.015753
contain,0.014594
content,0.020073
convinc,0.027081
copenhagen,0.036151
courant,0.145505
credit,0.019686
current,0.026047
data,0.016235
databas,0.047601
david,0.018071
death,0.017817
der,0.026624
die,0.019492
distribut,0.016785
donat,0.030472
dream,0.029371
earlier,0.018098
edit,0.019169
editor,0.052145
effici,0.019177
electron,0.020495
em,0.038979
england,0.021253
english,0.017058
entir,0.015886
entri,0.047382
essenc,0.027667
european,0.030510
exist,0.012179
extern,0.009577
famou,0.020233
felix,0.035802
ferdinand,0.033107
fiz,0.198772
focu,0.017968
follow,0.010476
form,0.020021
formerli,0.024533
formul,0.020973
fortschritt,0.062521
foundat,0.034157
fr,0.064673
free,0.014959
french,0.017625
frequenc,0.025028
german,0.018496
gmbh,0.046290
great,0.014760
grenzgebiet,0.120121
gttingen,0.128441
harald,0.085826
heidelberg,0.079306
help,0.014338
hermann,0.032013
hi,0.023486
hilbert,0.035150
histori,0.010908
howev,0.010629
ihr,0.114903
incorpor,0.017984
independ,0.013451
inform,0.026040
infrastructur,0.022174
initi,0.028460
inkamath,0.066257
institut,0.027717
intent,0.022040
intern,0.011476
invit,0.026989
issu,0.042161
jahrbuch,0.164973
jewish,0.027150
jfm,0.056754
journal,0.050535
karlsruh,0.146835
karlsruhedatabas,0.066257
klein,0.034680
larg,0.011539
late,0.015159
later,0.013022
leibniz,0.032674
librari,0.020570
like,0.011695
link,0.009520
literatur,0.019562
main,0.013860
major,0.011615
mani,0.009895
manner,0.021129
math,0.169697
mathemat,0.292596
mathematician,0.080397
mathematik,0.140352
media,0.020082
minkowski,0.040759
money,0.019566
monthli,0.029842
neugebau,0.160713
new,0.009779
niel,0.037359
number,0.010952
occasion,0.024697
offic,0.017622
organis,0.041456
otto,0.061695
paper,0.018064
particularli,0.015353
peer,0.030527
physic,0.014326
physicist,0.025914
place,0.012381
predominantli,0.027869
prefac,0.036033
print,0.023576
proceed,0.022975
produc,0.013062
professor,0.022437
protest,0.023331
provid,0.055694
public,0.037930
publish,0.111477
pure,0.039703
realis,0.032104
recent,0.013787
recommend,0.023470
record,0.016782
refer,0.015923
referativnyi,0.064153
reject,0.019628
relat,0.032206
reliabl,0.023807
research,0.012916
resign,0.027208
review,0.285445
rich,0.022832
richard,0.039340
rockefel,0.039589
rung,0.044347
russia,0.023400
s,0.011292
scienc,0.026782
sciencebusi,0.051685
search,0.020379
serial,0.036072
servic,0.077565
sever,0.011552
shorten,0.033651
similar,0.013232
sinc,0.011080
socal,0.022358
societi,0.027766
soon,0.020320
soviet,0.024001
spaciou,0.048289
springer,0.053642
start,0.014026
state,0.019391
subject,0.014096
subscript,0.071989
suffici,0.020486
suggest,0.015513
thi,0.008288
time,0.009804
togeth,0.030560
took,0.017310
topic,0.017581
treat,0.019403
und,0.065202
union,0.016466
unit,0.022353
univers,0.011476
use,0.009054
volum,0.018981
volunt,0.030546
wa,0.054514
web,0.024024
week,0.023290
work,0.021726
world,0.022468
worldwid,0.022480
year,0.022366
zbmath,0.183564
zentralblatt,0.589282
zhurnal,0.064153
