abil,0.007676
account,0.006571
activ,0.011135
advers,0.039204
aerial,0.031426
airport,0.012290
alter,0.010008
america,0.023458
american,0.025287
analysi,0.026904
appendic,0.021892
appli,0.017894
applic,0.019990
aqueduct,0.019055
area,0.005541
articl,0.006631
aspect,0.007333
assess,0.019007
associ,0.016351
assur,0.012712
attent,0.009098
austrian,0.013364
author,0.006282
automat,0.011390
avalanch,0.040097
background,0.009582
backho,0.025452
base,0.004861
basi,0.006949
bate,0.018556
bear,0.010441
behavior,0.007892
behaviour,0.020745
berkey,0.026607
blast,0.032937
bluff,0.023372
book,0.012788
bore,0.015101
boston,0.012403
branch,0.007154
bridg,0.011115
brief,0.010663
british,0.007511
brock,0.040474
build,0.007119
bulldoz,0.022897
bulletin,0.015128
cabl,0.014667
california,0.010320
canal,0.013364
caus,0.006014
cave,0.013548
centenni,0.018634
centuri,0.017358
chapter,0.010501
charl,0.008630
chicago,0.010982
cite,0.009424
citi,0.046691
civil,0.030918
cliff,0.015088
close,0.006029
coastal,0.012284
collaps,0.029780
columbia,0.012533
commenc,0.013632
commerci,0.017267
committe,0.009668
commonli,0.007484
compani,0.007116
complet,0.006224
concern,0.006327
condit,0.025223
conjunct,0.012594
consid,0.010511
constraint,0.011189
construct,0.027915
contain,0.006465
content,0.008892
crucial,0.010971
culmin,0.011941
d,0.007296
dam,0.060837
damag,0.009726
data,0.028770
david,0.008005
dc,0.012479
dean,0.014690
death,0.007893
debri,0.051805
decomposit,0.014713
definit,0.007126
deform,0.029427
degre,0.014761
describ,0.005547
design,0.046337
develop,0.022536
developmentth,0.027107
dewat,0.028420
differ,0.004777
dimens,0.010369
disciplin,0.024913
divis,0.007811
drainag,0.017427
drill,0.029866
dure,0.020751
dynam,0.008449
earli,0.010854
earliest,0.009069
earth,0.051111
earthquak,0.027487
earthrock,0.029353
earthstructur,0.058706
earthwork,0.022002
econom,0.005938
edit,0.008492
editor,0.011550
edmonton,0.022356
educ,0.027650
electromagnet,0.012164
emiss,0.012875
engin,0.445720
environ,0.014385
environment,0.017446
eros,0.029264
erupt,0.013548
essenti,0.007542
evalu,0.018803
event,0.007061
excav,0.014586
excavat,0.029353
execut,0.008219
experi,0.013344
f,0.031970
facil,0.020801
factor,0.006879
failur,0.028322
fault,0.058301
field,0.005925
fieldwork,0.018332
firstclass,0.020173
flood,0.012809
flow,0.025634
fluid,0.011437
follow,0.004641
forcefield,0.027697
forens,0.015541
form,0.004434
format,0.015827
foundat,0.030264
franci,0.022222
frost,0.017624
fundament,0.007430
ga,0.009761
gain,0.014117
gener,0.004169
geograph,0.009436
geohazard,0.029353
geolog,0.587674
geologist,0.360310
geomechan,0.029353
geophys,0.045546
geophysicist,0.020578
georg,0.008362
geotechn,0.192537
german,0.016388
gi,0.016234
global,0.007705
glossari,0.014142
govern,0.005517
government,0.012143
gp,0.015811
gpr,0.025452
graduat,0.021744
great,0.013078
ground,0.050656
groundwat,0.018261
h,0.008059
ha,0.007737
habitat,0.013532
handbook,0.011742
harbor,0.014519
hazard,0.172256
heav,0.052350
heavi,0.010027
heritag,0.011867
highresolut,0.019488
highway,0.014643
histori,0.004832
hoover,0.018332
hot,0.012776
human,0.033539
hundr,0.008815
hydrogeolog,0.040875
hydrolog,0.015378
identifi,0.007013
illustr,0.009894
imageri,0.015603
impact,0.039756
import,0.004948
includ,0.012083
industri,0.013245
inform,0.005768
instal,0.011450
institut,0.006139
interact,0.014478
interpret,0.015481
investig,0.024390
isbn,0.020576
jackson,0.015009
kamp,0.024138
kansa,0.017141
karl,0.010912
karrow,0.029353
kiersh,0.029353
kinemat,0.016159
knowledg,0.007297
known,0.004847
landform,0.017927
landslid,0.032937
larg,0.005112
late,0.006716
later,0.011538
legget,0.058706
lie,0.009503
life,0.006235
line,0.006942
linear,0.010320
liquefact,0.022483
literatur,0.008666
locat,0.007131
log,0.013590
lurch,0.024138
magnetomet,0.022897
mainli,0.008052
mainten,0.011636
mani,0.004384
manmad,0.015587
manual,0.012251
map,0.062113
margin,0.010629
mass,0.015908
materi,0.027187
mcgrawhil,0.014016
measur,0.006352
mechan,0.107440
media,0.008896
method,0.030035
methodolog,0.010266
militari,0.007846
minim,0.010236
minnesota,0.015634
mitig,0.041825
model,0.006041
modern,0.005817
monitor,0.020978
movement,0.006688
mudflow,0.027697
multitud,0.015306
natur,0.010356
nd,0.009024
need,0.011661
new,0.012997
nitkarnataka,0.029353
nonripp,0.029353
note,0.005592
object,0.019891
obtain,0.007538
occur,0.006162
offshor,0.014142
onli,0.004464
oper,0.006118
organ,0.005290
orlean,0.019193
outfal,0.055395
page,0.019017
parent,0.010923
park,0.011336
paul,0.008430
pen,0.015541
penetr,0.012956
peopl,0.005347
perform,0.027273
phase,0.018654
photograph,0.026698
physic,0.006346
pier,0.018056
pipelin,0.031722
pit,0.030728
plan,0.014690
plant,0.025262
platform,0.011877
poroelast,0.029353
porou,0.018405
posit,0.005748
postconstruct,0.029353
potenti,0.007200
power,0.011383
pp,0.009067
practic,0.035703
practition,0.011672
preblast,0.029353
predict,0.008137
prepar,0.018040
present,0.005561
press,0.006545
price,0.008233
princeton,0.012279
princip,0.008688
principl,0.013352
privat,0.007974
problem,0.005948
process,0.026289
prof,0.016995
profession,0.009012
profil,0.012007
program,0.013992
project,0.041291
prompt,0.012175
properti,0.013468
protect,0.007412
provid,0.029608
public,0.011202
publish,0.024693
purpos,0.007234
pyroclast,0.023929
quarri,0.019011
radar,0.015526
railroad,0.014315
realm,0.011142
reclam,0.019241
recogn,0.015126
recognit,0.009668
recommend,0.031193
reddi,0.021301
redlich,0.027697
refer,0.007054
refract,0.016123
regard,0.006767
reginald,0.019055
relat,0.023779
remedi,0.013951
remot,0.011941
replenish,0.017682
report,0.088134
requir,0.011105
reservoir,0.015877
residenti,0.015182
resist,0.009140
resourc,0.007141
respons,0.006118
restor,0.009975
result,0.009826
retrofit,0.022356
review,0.015807
rie,0.023732
rip,0.018838
rippabl,0.058706
robert,0.015511
rock,0.110461
rockfal,0.029353
role,0.006179
ruptur,0.017712
sampl,0.010511
sand,0.014564
satellit,0.012307
scienc,0.017797
scope,0.010369
sea,0.009000
seich,0.026607
seismic,0.109997
sens,0.007258
separ,0.006444
sever,0.005117
sewag,0.018518
sewer,0.020048
shake,0.017802
shallow,0.014920
shape,0.008407
sinkhol,0.023547
site,0.008268
slake,0.027107
slope,0.042517
societi,0.018451
soil,0.122353
solv,0.009034
special,0.012279
spread,0.008677
spring,0.011072
springer,0.011882
st,0.007913
stabil,0.027465
start,0.006214
stereoscop,0.021892
stormwat,0.023048
stress,0.010066
structur,0.034413
student,0.008355
studi,0.036315
subbottom,0.025452
subdisciplin,0.013380
subsea,0.047465
subsid,0.014564
survey,0.047180
systemat,0.009378
t,0.008541
tail,0.014212
taylor,0.012352
tecton,0.015541
terzaghi,0.117412
test,0.016050
text,0.016936
textbook,0.011065
th,0.016887
theoret,0.008049
theori,0.005754
titl,0.008811
togeth,0.006769
topograph,0.033620
toronto,0.015250
track,0.010861
train,0.042385
transit,0.008546
transmiss,0.012127
travers,0.015963
treatment,0.018061
trench,0.033143
trenchless,0.026607
tsunami,0.017927
tunnel,0.029643
turbin,0.018226
twin,0.014442
type,0.017706
typic,0.013171
undergradu,0.013075
understand,0.019990
uniqu,0.008370
unit,0.004951
univers,0.005084
unstabl,0.013096
use,0.004011
v,0.017506
valu,0.006291
variou,0.011177
venkat,0.027697
veri,0.005606
versa,0.013932
vibrat,0.014325
vice,0.011365
vika,0.025143
volcan,0.042252
volum,0.016817
w,0.008236
wa,0.016100
waltham,0.022233
wang,0.015894
washington,0.010808
wast,0.011775
water,0.022717
waterfront,0.021042
waterseepag,0.029353
watersuppli,0.027697
watson,0.014632
weak,0.009751
wetland,0.017373
william,0.007866
wind,0.011663
withdraw,0.011799
work,0.048125
worldwid,0.009959
written,0.007772
year,0.009908
york,0.015121
