ablat,0.110599
abut,0.030464
accommod,0.016888
accumul,0.069760
acut,0.019087
ad,0.018562
add,0.013868
adhes,0.021823
adjust,0.013920
alaska,0.021999
alberta,0.022934
alean,0.033175
alpin,0.094848
altern,0.009345
ancient,0.010537
annual,0.022344
anthropolog,0.016488
apart,0.013327
arctic,0.020120
area,0.036116
arnold,0.018486
art,0.033378
associ,0.014209
astroglaciolog,0.033175
atla,0.017052
austria,0.016826
b,0.009633
balkema,0.032405
bed,0.018939
benn,0.028262
bergschrund,0.033175
berlin,0.015617
biolog,0.010400
blatter,0.033175
block,0.013063
boulder,0.044492
bowl,0.022278
break,0.012087
brittl,0.024137
build,0.009279
caltech,0.023802
calv,0.026294
cambridg,0.058160
cascad,0.021111
case,0.007343
categori,0.011206
caus,0.007839
center,0.018735
centimet,0.024779
centr,0.036229
central,0.008233
chilecentro,0.033175
cientfico,0.030041
cirqu,0.181486
climat,0.012541
climatolog,0.022152
coars,0.023408
coarser,0.028262
cohes,0.019057
colorado,0.020717
commiss,0.011694
compon,0.010116
compos,0.011144
condit,0.008219
confin,0.015772
constant,0.011678
contin,0.015137
continent,0.046933
copenhagen,0.020875
corn,0.018370
corri,0.028980
cover,0.009671
creep,0.049444
crevass,0.030041
cryopediolog,0.033175
cryospher,0.079651
cwm,0.032067
data,0.018750
david,0.010435
day,0.017729
depend,0.007751
deposit,0.097353
depress,0.029191
der,0.015373
descend,0.014218
direct,0.007800
discoveri,0.011002
distinguish,0.010429
dougla,0.017360
drift,0.018112
drumlin,0.066350
dynam,0.022027
earth,0.011103
ecolog,0.013327
ed,0.029702
edg,0.015430
elong,0.043821
end,0.007732
eros,0.057217
esker,0.031462
estudio,0.028396
europa,0.023408
evan,0.019771
evapor,0.019806
exampl,0.006334
excav,0.019012
exce,0.018473
exist,0.007032
extend,0.009328
extern,0.005530
extraterrestri,0.022060
extrem,0.010145
factor,0.008967
failur,0.012305
fairbank,0.029477
fall,0.009653
faster,0.029508
fault,0.018998
featur,0.019129
field,0.015447
fine,0.015119
finer,0.022576
flour,0.022787
flow,0.044550
form,0.034684
format,0.010314
fractur,0.021335
frost,0.022972
fundament,0.009684
gain,0.009200
gener,0.010868
geograph,0.012299
geographi,0.027841
geolog,0.043358
geologist,0.020419
geomorpholog,0.022214
geophys,0.039577
glaci,0.032067
glacial,0.178483
glaciat,0.120685
glacier,0.553592
glaciolog,0.326034
glaciologist,0.057960
glim,0.032405
global,0.010043
gradient,0.017994
gravelsand,0.033175
greater,0.009525
greek,0.010709
greenlandantarctica,0.033175
greve,0.032405
ground,0.011004
group,0.034109
ha,0.010085
hambrey,0.033175
happen,0.011952
head,0.009763
headward,0.030934
heinz,0.023579
high,0.015315
hill,0.045132
histori,0.006299
hook,0.020337
horn,0.019178
human,0.007286
hydraul,0.021135
hydrolog,0.020044
iac,0.063508
ice,0.478392
iceberg,0.026212
ig,0.053101
impact,0.010364
improv,0.009306
includ,0.010499
innsbruck,0.027765
institut,0.024007
integr,0.009126
interdisciplinari,0.015545
intern,0.026508
involv,0.007331
irish,0.017936
isbn,0.053640
j,0.018994
jrg,0.026294
kame,0.030247
kettl,0.028262
key,0.009623
kilomet,0.019117
known,0.006318
laboratori,0.012831
lake,0.029826
land,0.009569
landscap,0.031531
larg,0.013327
later,0.007519
latin,0.011883
latitud,0.019178
leav,0.021414
leb,0.033175
level,0.007560
link,0.005497
list,0.014060
liter,0.014538
logo,0.019683
london,0.010645
long,0.008209
loss,0.011058
low,0.019379
make,0.006429
manner,0.012201
mar,0.017300
margin,0.013855
mass,0.020735
materi,0.035437
matter,0.009509
measur,0.008280
mechan,0.009336
meet,0.010229
melt,0.072164
meteorolog,0.037077
meter,0.034030
michael,0.011634
molecular,0.013214
moon,0.016463
morain,0.091393
moscow,0.018112
mountain,0.040804
movement,0.052306
nation,0.014010
natur,0.006749
nd,0.023525
near,0.010394
new,0.011294
north,0.010037
northern,0.011818
note,0.007288
number,0.006324
onc,0.009446
onli,0.005819
onlin,0.011064
outward,0.019464
outwash,0.032772
overview,0.012667
oxford,0.011878
past,0.010029
paterson,0.025538
peak,0.013872
peopl,0.006970
pergamon,0.024500
period,0.007511
permafrost,0.027114
person,0.008272
phenomena,0.012070
photo,0.019564
physic,0.016544
pit,0.020026
plain,0.033041
pluckingquarri,0.033175
pluto,0.025335
polar,0.030975
possibl,0.007394
postglaci,0.028262
precipit,0.016670
press,0.025596
principl,0.008702
proglaci,0.030692
project,0.008970
pyramid,0.019480
rais,0.010692
ralf,0.027884
rapid,0.012563
rate,0.017967
ravin,0.029477
rd,0.012981
recedingadvanc,0.033175
reconstruct,0.014407
refer,0.004597
remain,0.007603
remov,0.010615
research,0.022376
rib,0.024897
ridg,0.060420
rim,0.024340
river,0.012570
rock,0.100785
roger,0.015417
rotat,0.015220
rotterdam,0.025402
rug,0.024087
run,0.010103
russian,0.013460
sandgravel,0.033175
sapporo,0.031190
scale,0.010406
scienc,0.030930
scientif,0.009251
sea,0.011731
sedimentari,0.022897
shape,0.010958
shear,0.021599
sheet,0.066514
singl,0.008563
slope,0.018473
slow,0.013210
slowli,0.014748
smooth,0.033938
snow,0.079297
societi,0.024050
sourc,0.008048
space,0.009865
spire,0.030041
springer,0.015487
squar,0.013556
stagnant,0.045016
stanley,0.016852
steep,0.041004
stratifi,0.045794
stream,0.015336
stress,0.026243
stronger,0.015405
structur,0.007476
studi,0.033811
subglaci,0.031462
subject,0.008139
sublim,0.044685
sum,0.012763
summer,0.014802
tarn,0.028826
temperatur,0.025870
tend,0.021015
termin,0.014992
thousand,0.022568
till,0.019319
tillunsort,0.033175
time,0.005661
today,0.009192
tokyo,0.020277
tongu,0.021387
topographi,0.020875
torn,0.023536
transvers,0.022183
tunnel,0.057957
type,0.007693
uk,0.011728
underli,0.012151
univ,0.021682
univers,0.046390
universidad,0.024838
unrestrict,0.022860
unstratifi,0.032772
valdivia,0.029477
valley,0.073987
van,0.013996
vari,0.009432
varv,0.031754
veen,0.030692
veloc,0.016826
veri,0.014614
w,0.010736
wale,0.017812
washington,0.014087
wastag,0.062380
water,0.009870
winter,0.015855
world,0.006487
year,0.006457
york,0.019710
zone,0.026450
