abbrevi,0.002624
abel,0.003391
abil,0.002964
abl,0.004082
abov,0.005517
absolut,0.005482
academi,0.002075
acceler,0.002072
accept,0.002705
access,0.016397
accommod,0.002501
accord,0.002154
account,0.001268
accumul,0.002066
accur,0.040381
accuraci,0.056076
achiev,0.001355
acquir,0.003509
acquisit,0.002329
act,0.001231
action,0.002647
activ,0.002150
actual,0.004136
ad,0.009624
adapt,0.003431
addit,0.017438
address,0.001622
adjust,0.002062
administr,0.006025
adopt,0.004460
advanc,0.005322
advantag,0.003344
adversari,0.003195
advis,0.002177
advisori,0.005297
aeronaut,0.020351
aerospac,0.009287
af,0.003814
afb,0.009321
affect,0.005631
afford,0.002313
afscn,0.009960
afspc,0.005667
afterward,0.002373
age,0.001349
agenc,0.006779
aggreg,0.002278
ago,0.002087
agreement,0.004933
agricultur,0.008006
ahead,0.002515
aiaa,0.004750
aid,0.001616
air,0.046339
aircraft,0.014356
airlin,0.005484
airspac,0.007394
airtoground,0.005348
al,0.005543
algebra,0.004627
algorithm,0.006479
align,0.002327
allay,0.004366
alli,0.003979
alloc,0.012899
allow,0.008570
almanac,0.028013
alpha,0.014963
alphabet,0.002594
alreadi,0.001569
altern,0.005537
altitud,0.014579
alway,0.001448
amateur,0.005884
ambigu,0.017720
american,0.004882
analysi,0.003896
analyt,0.001964
ancillari,0.036623
andor,0.003770
andpdf,0.005667
angl,0.002431
angular,0.002905
ani,0.006646
anim,0.001507
anniversari,0.002857
announc,0.009045
anoth,0.005181
answer,0.001918
antenna,0.019448
antonio,0.002805
anyon,0.002348
anywher,0.002637
apart,0.003948
api,0.003461
apl,0.017467
appear,0.001247
applet,0.003825
appli,0.010365
applic,0.019299
approach,0.003719
approv,0.001850
approx,0.006985
approxim,0.014682
april,0.003296
architectur,0.008128
archiv,0.003965
area,0.006420
arg,0.004270
argentina,0.002672
argu,0.001433
argument,0.010860
aris,0.003515
arm,0.005153
armi,0.005559
arpa,0.004341
arrang,0.005269
array,0.002350
arriv,0.008671
artifici,0.005457
artilleri,0.002944
ascend,0.002823
ascens,0.010277
asia,0.001849
ask,0.003561
aspect,0.001415
asset,0.001991
assign,0.001935
assist,0.008031
associ,0.005262
assum,0.004477
assumpt,0.001835
assur,0.004909
astrometri,0.004167
astronaut,0.013126
astronomi,0.004837
atc,0.033986
atmospher,0.012663
atol,0.003461
atom,0.015070
attach,0.002039
attack,0.003474
attempt,0.001228
attribut,0.001674
augment,0.024968
august,0.004911
australia,0.001872
author,0.014556
autom,0.002410
automat,0.002199
automot,0.003089
autonom,0.002178
avail,0.025022
aviat,0.017005
awar,0.003898
award,0.011395
axi,0.002470
b,0.031394
bad,0.002210
bahrain,0.003403
balanc,0.001705
ballist,0.013524
balloon,0.003349
ban,0.002170
bancroft,0.021465
band,0.032796
bank,0.001558
bar,0.002435
base,0.015958
basi,0.004025
basic,0.005227
becam,0.005937
becaus,0.010756
becom,0.005199
befor,0.007766
began,0.002594
begin,0.002533
beginaligneddelta,0.005054
beidou,0.009960
benefit,0.004729
berengu,0.005348
best,0.007158
beta,0.013285
better,0.001464
bia,0.007431
biassign,0.005667
billion,0.003690
binari,0.002594
biphas,0.004703
bit,0.029062
bitlong,0.005667
bitrat,0.004914
block,0.007740
blocki,0.010275
blockii,0.005667
bluetooth,0.004480
board,0.009370
boe,0.003506
bomber,0.006517
booster,0.004186
born,0.001835
bot,0.007394
boundari,0.001813
bowditch,0.004546
bpsk,0.005667
bradford,0.007258
branch,0.001381
brightunderset,0.005667
british,0.001450
broadband,0.016987
broadcast,0.017643
bthe,0.005348
build,0.002749
buildup,0.003199
built,0.001619
bush,0.002679
buy,0.002055
c,0.012432
ca,0.026284
calcul,0.021550
calendar,0.002663
calif,0.003825
california,0.001992
caller,0.004393
came,0.002845
canaver,0.008586
capabl,0.022273
cape,0.005465
car,0.002299
carri,0.011220
carrier,0.039193
carrierphas,0.005667
cartesian,0.002986
cartograph,0.003532
cartographi,0.003290
case,0.007614
caus,0.003483
cdma,0.013861
celesti,0.002758
cell,0.001871
cellular,0.004814
center,0.002775
centimet,0.011012
centimeterlevel,0.005667
central,0.001219
chaffe,0.004980
chair,0.002443
chairman,0.002460
challeng,0.001554
chang,0.007847
channel,0.006443
chapter,0.002027
character,0.001650
charl,0.001666
cheap,0.002695
chief,0.001811
china,0.003343
chip,0.005842
chri,0.002928
circular,0.002535
circumst,0.001998
citat,0.002591
civil,0.008955
civilian,0.052024
claim,0.001320
clarifi,0.002624
classif,0.001919
classifi,0.003520
clear,0.001619
clinton,0.006013
clock,0.127991
close,0.002328
closedform,0.019127
clue,0.003237
cmr,0.010975
coalit,0.004216
coars,0.003467
coarseacquisit,0.017003
coast,0.003971
code,0.048825
codeless,0.005667
col,0.003553
cold,0.002074
collabor,0.001998
collat,0.003836
collect,0.003807
collier,0.003715
colonel,0.002977
colorado,0.015345
combat,0.004567
combin,0.006203
come,0.001244
command,0.016430
commensur,0.003613
comment,0.002084
commerc,0.004336
commerci,0.008335
commiss,0.005197
commit,0.001823
committe,0.011201
common,0.004208
commonli,0.001445
commun,0.009102
compani,0.002748
compar,0.005148
comparison,0.001824
compass,0.002803
compat,0.002496
compens,0.002199
compet,0.001794
competit,0.001711
compil,0.002245
complement,0.002565
complet,0.007211
complex,0.001273
compon,0.028473
compos,0.011556
comput,0.021628
conceiv,0.002284
concept,0.008500
conceptu,0.004188
concern,0.006108
concis,0.005300
conclus,0.001938
condit,0.007305
conduct,0.002982
cone,0.009217
confirm,0.003752
conflict,0.001620
congress,0.005849
conjunct,0.002431
connect,0.002865
consid,0.002029
consider,0.002924
consist,0.005823
constant,0.005190
constel,0.029492
construct,0.001347
consum,0.001732
consumpt,0.002029
contact,0.003652
contain,0.007490
contemporan,0.003241
content,0.003434
conting,0.002527
continu,0.010543
contract,0.001745
control,0.032373
convert,0.003547
cooper,0.003326
coordin,0.018447
cornerston,0.003056
corp,0.002567
corpor,0.006829
correct,0.024533
correctli,0.002500
correl,0.002028
correspond,0.004739
cost,0.015299
council,0.001586
countri,0.002290
countryspecif,0.003920
coupl,0.002013
cours,0.001516
coursewar,0.004800
coverag,0.010470
cpgp,0.022670
creat,0.007450
creation,0.001584
credit,0.003368
criterion,0.002612
critic,0.005120
crop,0.002151
cruis,0.006164
crustal,0.003946
crystal,0.002441
cs,0.007976
current,0.011140
cusp,0.004206
custom,0.001759
customerssuch,0.005667
cyber,0.003793
cycl,0.003567
d,0.002817
daili,0.002035
danci,0.004660
dark,0.002250
darpa,0.003733
data,0.029164
date,0.005817
datum,0.003946
day,0.013131
dc,0.002409
dead,0.002181
decad,0.001581
decca,0.005054
decemb,0.004790
decid,0.001695
declar,0.005042
decod,0.014077
decrypt,0.008373
dedic,0.012542
defens,0.015280
defin,0.009554
deform,0.002841
degrad,0.012482
degre,0.004275
delay,0.022226
delta,0.047359
demand,0.001553
demodul,0.027964
demonstr,0.003128
deni,0.004034
denial,0.003003
denot,0.004246
depart,0.015257
depend,0.003444
depict,0.002170
deploy,0.014130
deputi,0.004660
deriv,0.002646
describ,0.003213
descript,0.004772
design,0.016616
destroy,0.001819
detect,0.015288
detector,0.003095
determin,0.015710
deterr,0.006923
deton,0.014302
develop,0.027850
development,0.002449
deviat,0.007408
devic,0.031117
dgp,0.024572
did,0.002583
diego,0.005894
differ,0.030443
differenc,0.018643
differenti,0.007048
digit,0.007772
dilut,0.009102
dimension,0.002691
direct,0.013866
directli,0.002796
director,0.004184
disabl,0.002534
disadvantag,0.002580
disast,0.002404
discontinu,0.002642
discrimin,0.004833
discuss,0.004259
display,0.009888
displaystyl,0.047841
disrupt,0.002242
distanc,0.011118
distinct,0.002680
distinguish,0.001544
distribut,0.001435
diverg,0.002351
divis,0.003016
dmoz,0.002304
dnss,0.010696
document,0.001680
doe,0.002354
dollar,0.004066
domest,0.001803
dont,0.002431
dop,0.004660
doppler,0.007394
dosimet,0.004703
doubl,0.003853
draper,0.004206
draw,0.001783
drift,0.008049
drill,0.002883
driver,0.002667
drop,0.003820
dropsond,0.005667
drove,0.002818
dualfrequ,0.005667
dualus,0.009407
dure,0.007012
earli,0.006287
earth,0.021382
earthcent,0.004854
earthquak,0.005307
easton,0.012237
ecuador,0.003349
edg,0.002285
educ,0.001334
effect,0.007124
effici,0.004921
effort,0.005803
egm,0.005137
egno,0.005234
electromagnet,0.002348
electron,0.005259
elev,0.002337
elimin,0.012682
ellipsoid,0.003907
embed,0.002436
emerg,0.005371
emeritu,0.003449
emit,0.002622
emp,0.004582
employ,0.001389
enabl,0.018276
encod,0.020410
encompass,0.001961
encrypt,0.014454
end,0.001145
endalign,0.003679
enforc,0.001964
engag,0.001659
engin,0.009059
england,0.001817
enhanc,0.017464
ensur,0.008606
enter,0.001531
entir,0.001358
entiti,0.001777
envis,0.002861
ephemera,0.004854
ephemeri,0.035378
epoch,0.011968
equal,0.001426
equat,0.029622
equip,0.016858
equival,0.003375
equivalentlevel,0.005667
error,0.059767
ese,0.005234
essenti,0.005825
establish,0.004472
estim,0.013268
et,0.001800
europ,0.001420
european,0.005219
evenli,0.003127
eventu,0.001489
everi,0.007866
everyday,0.002238
everywher,0.002721
evolut,0.005103
examin,0.001639
exampl,0.004691
exceed,0.002200
execut,0.014283
exemplari,0.003688
exempt,0.002723
exif,0.005667
exist,0.007292
expect,0.008636
experiment,0.003500
explain,0.001410
explicitli,0.002132
export,0.005765
express,0.004072
expressli,0.003314
extens,0.002829
extern,0.002457
extrasolar,0.003895
faa,0.008454
facil,0.002008
facilit,0.003777
fact,0.002660
factor,0.001328
fail,0.003150
failur,0.003645
fairli,0.002373
falcon,0.003637
fall,0.001430
fame,0.005516
faq,0.003539
farm,0.002090
farmer,0.002217
faster,0.004371
fault,0.002814
fcc,0.104574
fear,0.001965
feasibl,0.002545
featur,0.002833
februari,0.015319
feder,0.020017
feet,0.010233
fencedin,0.005137
fewer,0.004443
field,0.006864
fifth,0.002231
file,0.002338
filter,0.002611
final,0.002710
fit,0.003814
fix,0.008314
flag,0.002501
fleet,0.005038
flexibl,0.002319
flight,0.009180
foc,0.004703
follow,0.002688
followon,0.004316
footbal,0.002803
forc,0.032564
foremost,0.002926
form,0.007707
format,0.007640
formerli,0.002098
foundat,0.002921
fourdimension,0.003772
fourth,0.003909
frac,0.005014
fraction,0.002192
frame,0.012845
franci,0.002145
frank,0.002193
freeli,0.007309
frequenc,0.044960
friedwardt,0.005667
ft,0.004897
fuel,0.002076
fulli,0.010134
function,0.011470
fund,0.001544
fundament,0.001434
futur,0.004093
g,0.001515
gain,0.002725
galileo,0.011032
game,0.001922
garcia,0.007258
gaussnewton,0.010275
gave,0.001630
gdop,0.011335
gener,0.012880
geocach,0.004980
geodash,0.005667
geodet,0.011578
geofenc,0.005667
geoid,0.004248
geoloc,0.004914
geometr,0.011519
geometri,0.004569
georg,0.003229
geospatialintellig,0.005137
geostationari,0.004512
geotag,0.005667
germanamerican,0.004186
ghz,0.021833
given,0.004494
global,0.020828
globe,0.002551
glonass,0.018643
gold,0.005844
good,0.003736
gore,0.007525
govern,0.011718
gp,0.705225
gpsalloc,0.011335
gpsbase,0.005137
gpscellular,0.005667
gpsd,0.005667
gpsenabl,0.005054
gpsequip,0.005667
gpsgovgener,0.005667
gpsin,0.005667
gpss,0.014564
gpst,0.005667
gpsutc,0.005667
grade,0.002612
grant,0.001717
graphic,0.002409
gravit,0.002505
great,0.002525
greater,0.002822
greatli,0.001834
gregorian,0.007242
grid,0.002836
ground,0.030973
groundbas,0.051301
group,0.003031
grow,0.004309
growth,0.001418
guard,0.004683
guidanc,0.010104
guier,0.011335
gulf,0.005068
ha,0.020169
half,0.001542
halfminut,0.005667
hall,0.004251
handheld,0.003814
handoff,0.010275
handset,0.009500
happen,0.001770
hawaii,0.002980
hazard,0.002558
head,0.001446
health,0.003123
healthi,0.002446
heavi,0.001936
height,0.006701
help,0.002452
hi,0.001004
high,0.001134
higher,0.001331
highest,0.001715
highli,0.004424
highqual,0.003359
highrat,0.005348
highspe,0.003324
hill,0.002228
histori,0.000933
holloman,0.005667
homeland,0.002898
honor,0.004635
hopkinss,0.005667
horizont,0.002583
host,0.002048
hostil,0.004646
hour,0.015749
hous,0.001502
howev,0.009092
howitz,0.004293
html,0.003679
human,0.002158
hundr,0.005106
hybrid,0.002340
hyperboloid,0.026884
iaf,0.015412
ibm,0.002880
icbm,0.019731
idea,0.001257
ideal,0.001822
identifi,0.005417
idot,0.004660
igeb,0.005667
ii,0.004398
iif,0.005137
iii,0.006427
iiia,0.009240
ijk,0.026170
ijkalpha,0.034006
ijkb,0.039673
ijkphi,0.005667
ileftsqrt,0.005234
immedi,0.001646
impact,0.003070
impart,0.003160
imperfect,0.005516
implement,0.003119
import,0.001910
impract,0.003232
improv,0.019300
inaccur,0.003037
inactiv,0.003762
inch,0.003018
inclin,0.002772
includ,0.021775
incompat,0.002854
incomplet,0.002441
incorrectli,0.003030
increas,0.006463
independ,0.002301
indian,0.001854
indic,0.005512
individu,0.002311
indoor,0.003437
induct,0.004961
industri,0.002557
inerti,0.012948
inform,0.027844
initi,0.009738
inmarsat,0.003743
input,0.006088
insid,0.001878
instal,0.002210
instanc,0.001517
instantan,0.002939
institut,0.003556
integ,0.005373
integr,0.013519
intellectu,0.001921
intend,0.005202
intent,0.003770
interag,0.008297
intercel,0.005054
interceptor,0.004393
intercontinent,0.003598
interdepart,0.005667
interfac,0.002438
interfer,0.020580
interior,0.002198
intern,0.009817
internet,0.001837
interpret,0.005978
intersect,0.020197
introduct,0.002970
invent,0.003645
inventor,0.002772
invers,0.007096
investig,0.001569
involv,0.003258
ioc,0.002921
ionospher,0.026204
ionospherictropospher,0.005667
iraqi,0.006840
isbn,0.002648
island,0.004981
isol,0.001818
issu,0.010819
itarfre,0.005667
iter,0.014017
ivan,0.006025
j,0.036580
jaizki,0.005667
jam,0.011201
januari,0.009592
java,0.002836
john,0.001274
joint,0.001972
jointli,0.002702
juan,0.002758
juli,0.001618
june,0.003264
justif,0.002617
justifi,0.002252
k,0.040763
kal,0.004582
kalman,0.004031
kane,0.003706
kargil,0.004750
kept,0.002018
key,0.007127
kg,0.005836
kill,0.001849
kilomet,0.002832
kind,0.001492
kinemat,0.006240
km,0.014758
knot,0.003319
know,0.001697
known,0.011232
korean,0.002600
kwajalein,0.009240
l,0.062656
labor,0.001839
laboratori,0.009504
lack,0.001428
lackland,0.005667
landbas,0.003733
larger,0.001478
largest,0.001546
late,0.001296
later,0.003341
latest,0.002501
latitud,0.011364
launch,0.043385
law,0.002256
lc,0.011038
lead,0.002235
leap,0.011922
leastsquar,0.009025
leav,0.001586
led,0.003626
lefthat,0.004914
leftxyzbrightarg,0.005667
legaci,0.007065
leick,0.005348
lessthancomplet,0.005667
let,0.004197
level,0.002239
liaison,0.003532
licens,0.011151
license,0.004703
light,0.004632
lightsquar,0.158695
like,0.004001
likewis,0.002218
limit,0.010294
line,0.006702
linear,0.001992
link,0.002443
listen,0.005290
littl,0.002866
lmn,0.024901
lmna,0.017003
load,0.002570
local,0.003805
locat,0.041312
lock,0.004851
locu,0.003043
logist,0.002702
long,0.003648
longer,0.001544
longitud,0.012782
longrang,0.003375
loran,0.015162
lose,0.001969
lowbitr,0.005348
lowcost,0.003391
lower,0.005535
lowgdop,0.005667
lte,0.004854
m,0.012055
machin,0.001808
machineri,0.002309
magazin,0.004336
magnitud,0.004621
mainfram,0.003688
mainframebas,0.005054
mainli,0.001554
maint,0.005990
maintain,0.007835
major,0.002980
make,0.011428
manag,0.008047
mandat,0.002333
maneuv,0.009635
mani,0.006771
manmad,0.003009
manual,0.002365
manualnavstar,0.005667
manufactur,0.010716
map,0.006853
march,0.003106
marin,0.002143
mark,0.003007
market,0.002803
massachusett,0.002455
master,0.007994
match,0.005974
materi,0.001312
mathemat,0.001472
mathrm,0.017918
matrix,0.002350
matter,0.004226
maximum,0.004073
mb,0.003532
mc,0.013163
mcclure,0.004620
mcgraw,0.003526
mcode,0.005667
mean,0.006188
measur,0.039253
mechan,0.002766
medal,0.002750
medium,0.002135
meet,0.004545
melendez,0.005667
member,0.001194
membership,0.002062
memori,0.001948
mendizab,0.005667
messag,0.055858
meter,0.022685
method,0.017398
methodi,0.005348
mhz,0.039331
mi,0.007084
microsecond,0.004167
mid,0.001864
migrat,0.002001
mileston,0.003006
militari,0.051511
millimet,0.010794
million,0.007355
min,0.006609
miniatur,0.003295
minim,0.003953
minimum,0.006128
minut,0.008941
miss,0.002362
missil,0.026266
mission,0.001867
mit,0.002275
mitig,0.005383
mm,0.002740
mobil,0.041775
mode,0.002108
model,0.003499
modern,0.015726
modif,0.002226
modifi,0.003654
modul,0.012643
moneron,0.005137
money,0.001673
monitor,0.028354
month,0.001654
moreov,0.002148
mosaic,0.003120
motient,0.005667
motion,0.007559
movement,0.005165
ms,0.002814
mss,0.031365
msv,0.004620
mtk,0.005348
multidimension,0.003160
multilater,0.005944
multipath,0.004800
multipl,0.007202
multipli,0.007242
multiservic,0.005667
munit,0.013726
myriad,0.003207
n,0.033637
nanosecond,0.008413
nanosecondsp,0.005667
nasa,0.002827
nathaniel,0.003561
nation,0.016603
nato,0.002832
natur,0.000999
naval,0.009449
navi,0.015690
navig,0.147328
navstar,0.026170
navstargp,0.005667
nd,0.005227
near,0.009239
nearearth,0.004227
necessari,0.002985
need,0.013509
neighbor,0.004225
neighborhood,0.002836
network,0.014090
new,0.011711
nextel,0.005348
nga,0.008842
nikon,0.004980
nll,0.005667
nmea,0.011335
node,0.002823
nois,0.002670
nomin,0.001954
nondegrad,0.005348
nonlinear,0.005131
nonnavig,0.005667
nonnomin,0.005667
nonuniform,0.003762
normal,0.004478
notat,0.002516
note,0.002159
notic,0.002125
notif,0.003762
novemb,0.003359
ns,0.018028
ntia,0.010696
nuclear,0.017222
nudet,0.011335
number,0.017801
numer,0.012487
object,0.005120
observ,0.006180
observatori,0.005791
obtain,0.005822
oc,0.020933
occult,0.003403
octob,0.001619
ocx,0.055594
offer,0.004177
offic,0.004522
offici,0.002843
offset,0.013616
omega,0.003069
omit,0.002926
onboard,0.011799
onc,0.004198
onehalf,0.003526
onethousandth,0.004393
ongo,0.002049
onizuka,0.005348
onli,0.016379
oob,0.011335
open,0.002564
oper,0.051984
oppos,0.003130
optic,0.002252
orbit,0.064132
order,0.007224
orient,0.001951
origin,0.008302
originalurl,0.009321
oscil,0.002710
otherwis,0.001781
outofbandemiss,0.005667
outperform,0.003263
outsid,0.002857
overcom,0.002300
overdetermin,0.020396
overlay,0.007394
oversaw,0.003232
owner,0.002118
p,0.011437
pacif,0.002170
page,0.003671
pair,0.007983
paradox,0.002395
parallel,0.003881
paramet,0.002159
parkinson,0.013657
parlanc,0.003621
particip,0.004432
particular,0.002344
particularli,0.002626
partli,0.002013
partner,0.004094
pass,0.002909
path,0.003797
patrol,0.003012
pattern,0.003195
payload,0.004001
pc,0.003040
pdf,0.004335
pentagon,0.003629
peopl,0.003097
perceiv,0.001883
perfect,0.002092
perfectli,0.002601
perform,0.009215
performancebas,0.004703
period,0.006676
permit,0.003814
perri,0.003473
persian,0.002352
person,0.002450
pertain,0.002589
pet,0.005938
phase,0.019810
phaseth,0.005348
phasor,0.009321
phi,0.030658
phone,0.010690
photograph,0.002577
physic,0.002450
physicist,0.004433
pick,0.002437
pilefttild,0.005667
pilot,0.005548
pinpoint,0.007079
pioneer,0.001956
place,0.003177
plan,0.007091
plane,0.004511
planet,0.002124
plate,0.002431
platform,0.002293
play,0.002704
plu,0.002107
point,0.009777
polari,0.004450
polici,0.006929
port,0.002116
portion,0.001881
posit,0.077693
possibl,0.006572
postur,0.003276
potenti,0.009732
power,0.006593
pp,0.001750
practic,0.008042
precis,0.047762
precisionguid,0.010696
predecessor,0.011708
predict,0.006285
predomin,0.002449
preliminari,0.005728
present,0.001073
presid,0.013977
presidenti,0.002196
pressur,0.001616
prestigi,0.003052
prevent,0.004605
previou,0.003238
previous,0.003274
price,0.001589
primari,0.002835
princip,0.003355
prior,0.001622
prize,0.002002
prn,0.020550
probabl,0.001540
problem,0.006891
procedur,0.001870
proceed,0.001965
process,0.009137
produc,0.002234
product,0.001119
profession,0.001740
professor,0.001919
program,0.013509
progress,0.001463
prohibit,0.004382
project,0.007972
projectil,0.003512
promis,0.004035
promot,0.001531
proper,0.001926
properti,0.003900
propon,0.002250
propos,0.006624
proprietari,0.003211
protect,0.004293
protocol,0.014569
prototyp,0.005540
prove,0.001657
provid,0.028584
provis,0.002091
pseudoinvers,0.005054
pseudorandom,0.008158
pseudorang,0.017003
pseudosatellit,0.005667
public,0.007570
publish,0.002383
puls,0.005723
purchas,0.001826
pure,0.001698
purpos,0.001396
pursu,0.001953
push,0.002042
py,0.033190
quadrat,0.003116
quadratur,0.004113
qualcomm,0.005348
qualiti,0.003200
quantiti,0.006996
quickli,0.003496
quiet,0.003145
r,0.020118
ra,0.003089
race,0.002109
radii,0.003532
radio,0.021985
radionavig,0.017003
radiosond,0.004421
radiu,0.002841
ralpha,0.009500
random,0.002048
rang,0.016758
rank,0.003626
rapidli,0.001810
rate,0.003992
rbeta,0.005137
rdelta,0.021392
reach,0.001384
read,0.003548
readabl,0.003480
readi,0.002503
reagan,0.006448
real,0.001413
realiz,0.007617
realtim,0.014274
reap,0.003546
reason,0.004889
receiv,0.163955
receivergener,0.005234
receivermeasur,0.005667
receiverprocessor,0.005667
receiversatellit,0.005667
recent,0.001179
recept,0.016173
reckon,0.003370
recogn,0.002920
reconnaiss,0.003375
reconstruct,0.002134
record,0.005742
recreat,0.002630
reduc,0.005161
redund,0.006025
refer,0.004767
region,0.003658
regul,0.003224
regularli,0.004636
regulatori,0.002357
reject,0.001679
rel,0.014654
relat,0.002754
relationship,0.001300
relativist,0.005624
relay,0.003164
reliabl,0.008146
reliefemerg,0.005667
remain,0.006758
renam,0.002364
repeat,0.005897
replac,0.005551
report,0.005236
repres,0.003351
republ,0.001598
repurpos,0.004293
request,0.002070
requir,0.013938
rescu,0.002702
research,0.005524
resel,0.003825
reserv,0.001811
residu,0.005257
resolut,0.004167
resolv,0.005935
resourc,0.001378
respect,0.005180
restrict,0.001578
result,0.010435
ret,0.004854
retir,0.002317
retriev,0.004046
return,0.001378
reus,0.003123
review,0.003052
revolut,0.001687
revolution,0.002859
right,0.002444
risjtk,0.011335
risk,0.003351
rkp,0.005137
robert,0.001497
robot,0.005049
roc,0.003621
rockwel,0.004512
roger,0.006851
role,0.004772
ronald,0.004865
root,0.005161
rotat,0.002254
rout,0.002050
royal,0.001797
rphi,0.015702
rs,0.003408
rtcm,0.017003
rtk,0.014250
rugbi,0.003706
rule,0.008702
run,0.004490
russia,0.002001
russian,0.003987
s,0.031877
sa,0.003000
safe,0.002226
safeti,0.002195
safetyoflif,0.005667
said,0.001399
sakhalin,0.004480
salpha,0.009500
san,0.002162
sand,0.002812
satellit,0.401602
satellitebas,0.004914
satellitegroundbas,0.005667
satellitereceiv,0.005667
satelliteterrestri,0.011335
satellitetoground,0.005667
satisfi,0.002020
satmod,0.005667
save,0.005802
say,0.001475
sbeta,0.004800
sc,0.006874
scale,0.004624
schedul,0.002263
scheme,0.002049
schriever,0.011335
scienc,0.002290
scientif,0.004111
sdelta,0.009709
sea,0.001737
search,0.003486
second,0.022356
secondsintoweek,0.005667
secor,0.028338
secreci,0.003339
secretari,0.004450
sector,0.005356
secur,0.010129
seen,0.004009
segment,0.044335
seismic,0.007079
select,0.008886
selfnavig,0.005667
send,0.004259
sensibl,0.003012
sensor,0.014115
sent,0.009439
separ,0.004977
septemb,0.006569
sequenc,0.009453
sequenti,0.002950
sera,0.004167
seri,0.001356
serial,0.003085
serv,0.004067
servic,0.051752
set,0.007385
sever,0.003952
sgp,0.004980
share,0.003981
sharp,0.002301
shell,0.004584
shelton,0.004546
shift,0.003301
ship,0.003865
shot,0.005297
shovel,0.004186
shown,0.001642
si,0.014903
sider,0.008335
sight,0.007582
sign,0.003121
signal,0.103864
signifi,0.005496
signific,0.007260
significantli,0.005244
similar,0.003395
simpl,0.001506
simpler,0.002527
simplifi,0.002207
simul,0.004119
simultan,0.005959
sinc,0.005687
singlevari,0.005137
sirf,0.005667
site,0.001596
situat,0.005837
size,0.001476
sj,0.003920
sky,0.002695
skyterra,0.005667
slbm,0.021392
slow,0.007827
small,0.003479
smaller,0.003223
socal,0.001912
softwar,0.008033
sold,0.004003
soldier,0.004313
solut,0.040542
solv,0.015700
sometim,0.002467
soon,0.003476
sop,0.008961
sophist,0.002180
sourc,0.007153
soviet,0.004106
sp,0.005811
space,0.040919
spacebas,0.011962
spacecraft,0.008967
special,0.007112
specif,0.005670
spectrum,0.031381
speed,0.023260
sphere,0.014848
spheric,0.005536
sphi,0.015162
spilker,0.005667
spireto,0.005667
sport,0.002251
spot,0.002373
spread,0.001675
spreadspectrum,0.005348
spring,0.008552
sprint,0.004001
sputnik,0.007766
sqrt,0.003059
squadron,0.006423
squar,0.022090
ss,0.011653
ssm,0.004703
stabl,0.005596
staff,0.002234
standalon,0.006709
standard,0.010213
standardsso,0.005667
stanford,0.002201
stark,0.003199
start,0.001199
startup,0.003295
state,0.029857
station,0.041415
stationari,0.002748
statist,0.001555
statu,0.006332
step,0.001607
steward,0.003859
stop,0.001872
store,0.001920
strain,0.002356
strateg,0.002068
stray,0.007227
strong,0.001377
structur,0.002214
studi,0.006010
subcommut,0.005667
subfram,0.051009
subject,0.002411
submarin,0.005728
submarinelaunch,0.009407
subscript,0.009236
substitut,0.002106
subtract,0.008747
success,0.007542
suffer,0.001730
suffici,0.003504
sum,0.005672
sunnyval,0.005234
superior,0.004219
suppli,0.001545
support,0.006762
suppos,0.002082
surfac,0.010297
surveil,0.005984
survey,0.018220
surveyor,0.007291
surviv,0.001634
sustain,0.001854
sv,0.011543
switch,0.004654
symbiot,0.003286
synchron,0.046697
synthes,0.002463
synthesi,0.002116
t,0.024738
ta,0.003300
tai,0.014454
talpha,0.008682
target,0.015884
tbeta,0.004450
tdelta,0.004293
tdoa,0.011335
team,0.003958
tec,0.009828
technic,0.001685
techniqu,0.007283
technolog,0.021866
tecton,0.006001
telecommun,0.002470
telemat,0.004512
telephon,0.002591
telephoni,0.003772
telescop,0.002913
tenbit,0.005667
term,0.001791
terrestri,0.033547
territori,0.001659
test,0.013946
testsposs,0.005667
texa,0.002676
th,0.003260
thenyear,0.005667
theoret,0.001554
thereaft,0.002478
therebi,0.001961
therefor,0.001288
thi,0.041830
thirdparti,0.003519
thought,0.001343
thousand,0.003343
threat,0.001988
threaten,0.002155
threedimension,0.005207
thu,0.007756
ti,0.020843
tibsicbigr,0.005667
tild,0.004206
tilt,0.003381
timat,0.022670
time,0.067093
timealign,0.005667
timekeep,0.004079
timelin,0.002231
timeofday,0.010696
timesin,0.005487
timestamp,0.004582
timezon,0.004800
tisirightc,0.005667
tj,0.003895
tk,0.003836
toa,0.013350
today,0.002723
tof,0.014941
tool,0.004553
tot,0.008335
total,0.005290
tour,0.002734
tower,0.013860
track,0.041944
tracker,0.020315
trade,0.001371
traffic,0.005008
train,0.003273
trajectori,0.002827
transfer,0.006488
transit,0.016502
translat,0.001631
transmiss,0.023416
transmit,0.044126
transmitt,0.009763
transpond,0.004546
transport,0.003249
travel,0.010042
treati,0.001979
triad,0.007718
triangul,0.003679
trimbl,0.009709
tripl,0.020890
troop,0.002139
trophi,0.004186
truck,0.003127
true,0.010743
tune,0.003078
turn,0.001310
twelv,0.002500
twentyon,0.003783
type,0.003418
typic,0.006358
ultra,0.003613
unabl,0.001969
uncertainti,0.002205
unclear,0.002489
uncorrect,0.004421
understand,0.002573
undesir,0.002963
undetermin,0.003814
unduli,0.003895
unfamiliar,0.003290
unhealthi,0.003506
uniform,0.002197
union,0.004225
uniqu,0.009697
unit,0.032505
univac,0.004546
univers,0.002945
unknown,0.013737
unlik,0.001578
unman,0.003629
unobstruct,0.008900
unpredict,0.002983
updat,0.022962
upgrad,0.010885
upload,0.010986
upper,0.001914
usa,0.002116
usaf,0.020565
usag,0.001988
usb,0.003973
usd,0.002841
use,0.086745
user,0.067289
usersatellit,0.005667
usnd,0.005667
ussr,0.002738
usual,0.006844
utc,0.035515
vacat,0.003254
valid,0.010860
valu,0.009719
variabl,0.006930
varieti,0.001423
variou,0.005395
vehicl,0.023674
veloc,0.004985
vendor,0.003245
veri,0.004329
verizon,0.004800
version,0.003316
vice,0.004388
vicin,0.003059
view,0.002429
violat,0.002097
virginia,0.002730
visibl,0.010475
visual,0.001999
vital,0.002116
volum,0.001623
vs,0.002288
vulner,0.002410
w,0.001590
wa,0.049740
waa,0.015702
waiver,0.008413
war,0.012118
warfight,0.004854
warn,0.002279
warrant,0.002923
washington,0.002086
wave,0.005734
wavelength,0.014356
way,0.003040
waymark,0.005234
weak,0.001882
weapon,0.006314
weaponswhich,0.005667
weather,0.004648
websit,0.001792
week,0.021914
weekend,0.003512
weiffenbach,0.011335
weight,0.003821
welldefin,0.002825
west,0.001627
wg,0.004130
wherea,0.001644
whi,0.005232
white,0.003599
wholesal,0.002950
wide,0.008545
widespread,0.001821
william,0.004556
wind,0.002252
wing,0.005161
winner,0.002609
winterberg,0.005667
wireless,0.006144
withstand,0.003241
word,0.001315
work,0.003716
world,0.002882
worldwid,0.005768
wsensor,0.005667
x,0.021818
xhat,0.004854
xi,0.002921
xray,0.002585
xxiyyizzibcpiin,0.005667
xxiyyizzibcpiright,0.005667
xxiyyizzibigl,0.005667
y,0.022204
year,0.013392
yhat,0.005234
yi,0.003539
yield,0.003703
ysensor,0.005667
z,0.025438
zero,0.009967
zhat,0.005348
zi,0.004031
zone,0.001959
