abraham,0.048655
absolut,0.035140
adher,0.041908
age,0.025945
ampl,0.064119
angular,0.055877
anim,0.028998
area,0.020576
base,0.018052
basic,0.050263
branch,0.026566
brief,0.039593
came,0.027355
cataclysm,0.078445
catastroph,0.148963
centuri,0.085939
chang,0.018863
charl,0.064089
concept,0.116763
concern,0.023493
consider,0.028122
contribut,0.024561
creat,0.020469
darwin,0.046831
date,0.027968
debat,0.031154
depend,0.022080
deposit,0.039618
deriv,0.025444
describ,0.020597
develop,0.033472
differ,0.017740
disciplin,0.030836
discoveri,0.062685
domin,0.027537
dure,0.019263
earli,0.020151
earth,0.316302
earthquak,0.051031
econom,0.022048
edinburgh,0.054810
environment,0.032390
eros,0.054331
event,0.104876
evid,0.027473
evolut,0.065423
explos,0.044661
extract,0.038782
face,0.030239
fact,0.025580
famou,0.033283
focus,0.056090
form,0.016467
fossil,0.046695
fuel,0.039924
geolog,0.617574
gradual,0.138530
greatli,0.035280
group,0.019433
half,0.029655
hazard,0.049200
heavili,0.034732
hi,0.019316
histor,0.072602
histori,0.161496
hutton,0.199698
idea,0.024179
impact,0.029524
importantli,0.049368
includ,0.044866
increment,0.054417
influenc,0.023728
interpret,0.028741
jame,0.030384
key,0.054828
knowledg,0.027095
known,0.018000
larg,0.037964
law,0.021698
liter,0.041417
live,0.023287
lyell,0.137519
materi,0.025237
mean,0.019834
met,0.036829
meteorit,0.067170
millennia,0.052477
natur,0.019226
nicolau,0.064711
niel,0.061454
note,0.020764
observ,0.071307
old,0.029798
onli,0.016578
oppos,0.030096
organ,0.019644
origin,0.019958
paleontolog,0.059338
passag,0.042905
past,0.057140
period,0.021398
phenomena,0.034386
plant,0.031267
present,0.041298
prevail,0.087379
principl,0.049580
process,0.078092
product,0.021523
propos,0.050958
provid,0.036645
radioact,0.050680
radiometr,0.071803
raw,0.042725
reconstruct,0.041043
rel,0.023483
religi,0.033455
religion,0.033358
resist,0.033939
result,0.018244
rock,0.041015
said,0.026910
scotland,0.049228
scriptur,0.052698
search,0.033523
sequenc,0.036360
sever,0.019002
shape,0.031217
short,0.027926
specul,0.037923
steno,0.077241
stensen,0.108990
stratigraphi,0.142888
strongli,0.035132
structur,0.021297
subsurfac,0.068206
sudden,0.052188
support,0.043345
surfac,0.066010
techniqu,0.056023
tell,0.041057
th,0.083604
theori,0.042731
thi,0.013633
time,0.032255
timescal,0.059145
today,0.026186
togeth,0.025135
unconform,0.093359
understand,0.074227
uniformitarian,0.209380
use,0.029788
varieti,0.027368
veri,0.041633
versu,0.042547
view,0.023362
violent,0.045010
volcan,0.104591
vs,0.044010
wa,0.089674
weather,0.044699
west,0.031298
work,0.017869
