abl,0.003402
aboutcom,0.010240
abov,0.013793
absorb,0.005384
acceler,0.005180
accord,0.002693
account,0.006344
accumul,0.005167
accur,0.009178
achiev,0.006777
act,0.006157
activ,0.005375
ad,0.006875
address,0.004056
adequ,0.005650
administr,0.003766
advanc,0.009980
aeiro,0.011760
aeronaut,0.008480
aerosol,0.009408
affect,0.003519
afford,0.005784
age,0.003373
agenc,0.016949
agricultur,0.028025
agronomist,0.010372
ahead,0.006288
air,0.095169
aircraft,0.029912
airflow,0.010327
airfoil,0.010853
airsea,0.011202
albert,0.005474
alberti,0.010158
aldinawari,0.010733
aldn,0.009738
alfri,0.010792
alhazen,0.008466
allen,0.006218
allhuman,0.011760
allow,0.005357
alnabat,0.011457
altitud,0.007290
ambul,0.009383
american,0.015259
analysi,0.003247
analyz,0.009055
ancient,0.003902
ander,0.008336
anemomet,0.045470
angular,0.007264
ani,0.002373
anim,0.003770
antoin,0.007389
anwa,0.011551
anytim,0.009678
anywher,0.006593
appear,0.003119
applic,0.019301
appoint,0.004427
appropri,0.004317
approv,0.004627
april,0.004120
archiv,0.004957
area,0.008025
argu,0.003583
aris,0.004394
aristotl,0.016658
armi,0.004633
arriv,0.004336
assess,0.004588
assign,0.004838
associ,0.002631
astronom,0.012130
atla,0.006315
atlas,0.009801
atmosper,0.011760
atmospher,0.295497
atom,0.004710
attempt,0.009217
auditorium,0.010327
aurora,0.008733
australian,0.011204
austria,0.006231
authorit,0.007517
autom,0.006027
avail,0.003292
aviat,0.014172
bachelor,0.007014
background,0.009252
bacon,0.007221
balanc,0.004263
band,0.005857
baroclin,0.011551
baromet,0.018312
barometr,0.010198
baron,0.007167
barotrop,0.011126
base,0.018776
basi,0.003355
basic,0.009802
battista,0.009359
bc,0.014415
beaufort,0.010792
becam,0.008906
becaus,0.007334
becom,0.005199
befor,0.002773
began,0.006486
begin,0.009500
behav,0.005777
benefit,0.003941
benjamin,0.006158
bergeron,0.010792
bernoulli,0.007989
best,0.007159
bez,0.010853
bias,0.006730
bjerkn,0.033379
black,0.017533
blais,0.008361
bluestein,0.022735
board,0.004685
bodi,0.009777
bologna,0.008669
bolt,0.018623
book,0.015434
boom,0.006161
boundari,0.036274
branch,0.006907
breakthrough,0.006931
breez,0.010467
brihatsamhita,0.010917
broad,0.008724
broadcast,0.006301
bucket,0.008921
budget,0.005083
buffalo,0.008239
build,0.003436
buoy,0.009243
bureau,0.024572
burlington,0.009866
byer,0.010467
calcul,0.024867
california,0.004982
calor,0.027469
cambridg,0.008616
capac,0.004509
carbon,0.010603
carlgustaf,0.011551
carlo,0.006190
carnot,0.009408
carri,0.003506
case,0.002719
caus,0.020323
ceil,0.008061
ceilomet,0.011760
cell,0.004678
celsiu,0.017806
center,0.013877
centigrad,0.011367
central,0.012197
centuri,0.036313
certain,0.002977
challeng,0.003885
chang,0.009809
chao,0.006295
chaotic,0.022356
charact,0.004495
character,0.004125
charl,0.004166
chemic,0.008284
chemistri,0.009535
chill,0.009484
christoph,0.011401
circl,0.005241
circul,0.011383
cirru,0.010984
ckm,0.011367
classic,0.003594
classif,0.004800
classifi,0.004400
clear,0.004048
clement,0.007810
climat,0.041804
climatolog,0.032818
clive,0.008765
cliwoc,0.023521
clock,0.006808
cloud,0.049777
coars,0.008669
collect,0.019040
columbu,0.007438
combin,0.003102
combust,0.007517
come,0.003111
comet,0.007706
command,0.009128
commod,0.005280
common,0.002630
commun,0.002844
compani,0.003435
compil,0.005612
complet,0.003004
compos,0.008255
composit,0.004510
comput,0.021630
concept,0.009108
concern,0.003054
condit,0.018265
cone,0.007681
consensu,0.005427
consid,0.002537
consist,0.002911
constel,0.008193
construct,0.013476
consult,0.005024
contain,0.003121
context,0.003827
continu,0.002636
continuum,0.012987
contrari,0.005689
convers,0.004488
cool,0.006094
corioli,0.037732
corp,0.006418
correct,0.004381
counter,0.005882
countri,0.002863
coupl,0.005034
cours,0.003792
creat,0.005322
crew,0.006841
crook,0.008654
crop,0.005379
crucial,0.005296
crystal,0.006103
cumulativethrust,0.011760
current,0.013926
curtail,0.007892
cutigliano,0.011551
cycl,0.017840
cyclon,0.065184
daili,0.005088
dalton,0.007837
daniel,0.010823
dart,0.009900
data,0.048611
date,0.003636
david,0.003864
day,0.016416
deal,0.014019
death,0.003810
decad,0.003954
decay,0.005982
decid,0.004240
decreas,0.004284
dedic,0.005226
deduc,0.006497
deep,0.004843
defend,0.004867
defin,0.008957
definit,0.003440
deflect,0.024185
degre,0.010689
del,0.006568
demand,0.003884
demonstr,0.003910
denni,0.007459
densiti,0.005250
depart,0.007629
depend,0.005741
deprec,0.009537
deriv,0.006616
describ,0.026779
descript,0.003977
deterior,0.006407
determin,0.012085
develop,0.019583
devic,0.004862
devis,0.005968
dictionari,0.021099
did,0.003229
differ,0.011532
difficulti,0.004698
dioxid,0.006393
directli,0.006991
disciplin,0.004009
discov,0.011494
discret,0.005131
discuss,0.003550
dispers,0.005971
distinct,0.003350
distribut,0.007179
disturb,0.006109
divers,0.004184
divid,0.003450
document,0.004200
domin,0.007160
dougla,0.012859
drag,0.015064
drawn,0.005134
drihm,0.011760
driver,0.006668
drop,0.004775
dure,0.002504
dust,0.007103
dynam,0.032632
dynasti,0.005657
earli,0.007859
earth,0.053460
earthobserv,0.011367
earthquak,0.006634
eclips,0.007020
ecosystem,0.005941
ed,0.011001
edg,0.005714
edmund,0.013329
educ,0.010011
edward,0.004765
effect,0.020357
effici,0.008202
effluvia,0.011367
effort,0.007255
el,0.012596
electr,0.004331
electromagnet,0.005872
electron,0.013149
element,0.003331
elsevi,0.007355
elucid,0.007290
em,0.008336
emiliano,0.011283
emiss,0.006215
empir,0.003655
encyclopedia,0.009022
end,0.005727
endeavor,0.006905
energi,0.022002
engin,0.003774
englishspanishfrenchdutch,0.011760
ensembl,0.015094
enterpris,0.004930
entir,0.003397
environ,0.006944
environment,0.012633
envis,0.007155
equal,0.003567
equat,0.017426
equip,0.014049
error,0.009961
especi,0.003041
essay,0.005076
establish,0.022363
estim,0.011058
europ,0.003551
european,0.003262
evangelista,0.009769
event,0.017044
everyday,0.005595
evid,0.003571
evolv,0.008599
exactli,0.005131
excel,0.005666
exist,0.010419
expect,0.003598
experienc,0.004702
explain,0.014104
explan,0.013833
explor,0.003991
explos,0.005806
extent,0.004310
extern,0.002048
extratrop,0.021137
extrem,0.007514
fahd,0.010517
fahrenheit,0.009288
fall,0.007151
fallout,0.009114
farmer,0.005544
faulti,0.008413
feasibl,0.006364
felt,0.005529
ferdinando,0.010118
ferranti,0.010419
ferrel,0.011283
field,0.014302
finnish,0.008072
firefli,0.009934
fitzroy,0.028612
flash,0.014711
fleet,0.006298
flight,0.005738
flood,0.018551
florenc,0.015079
flow,0.016500
fluid,0.027607
focu,0.003842
focus,0.003646
follow,0.004481
forc,0.019652
forecast,0.228334
forerunn,0.007438
forest,0.005386
fork,0.008815
form,0.012846
formal,0.010514
format,0.007640
foundat,0.007305
founder,0.004909
franci,0.005364
franklin,0.006407
free,0.006398
freiberg,0.010733
frequent,0.003937
fri,0.008387
friction,0.013801
frit,0.009833
frontal,0.008749
fundament,0.003586
futur,0.006823
gabriel,0.007069
gale,0.008799
galilei,0.007748
galileo,0.006895
gallego,0.010792
garcaherrera,0.011760
garret,0.010568
gase,0.037470
gaspardgustav,0.011126
gather,0.009766
gaug,0.027703
gaugesnow,0.011760
gener,0.008050
generalpurpos,0.008765
geodynam,0.010080
geograph,0.004555
geometr,0.005760
georg,0.004036
geoscienc,0.008287
geospati,0.009801
gift,0.006322
gimeno,0.011760
given,0.005618
glickman,0.011053
global,0.040917
globe,0.006378
glossari,0.027310
govern,0.007990
gp,0.007632
gradient,0.006664
great,0.006313
greek,0.007932
greenhous,0.007783
grid,0.007091
group,0.005053
guid,0.007920
gunther,0.010467
gustavo,0.009738
h,0.007781
ha,0.007470
hadley,0.010240
hair,0.006668
half,0.007711
halley,0.017072
hard,0.004597
harvest,0.006209
heat,0.034573
heavenli,0.007930
heavi,0.014522
height,0.011169
held,0.003311
help,0.003066
helsinki,0.008494
henri,0.004514
hernndez,0.009708
herrera,0.010118
hexagon,0.008850
hi,0.010045
high,0.008508
higher,0.003329
highlight,0.005767
hill,0.005571
histor,0.006292
histori,0.004665
hoist,0.009969
holton,0.010676
honolulu,0.009359
horac,0.008387
horacebndict,0.010733
horizon,0.013655
horizont,0.012919
hour,0.004922
howard,0.006497
howev,0.002273
human,0.008095
humid,0.022378
hurrican,0.014961
hydrodynam,0.008669
hydrolog,0.022272
hydrologist,0.010419
hydrometeorolog,0.031865
hydrometeorologist,0.011760
hygromet,0.034103
ian,0.006915
ice,0.024438
idea,0.006287
ideal,0.004557
identifi,0.003385
ignor,0.004858
ii,0.007331
illinoi,0.006856
illumin,0.006580
impact,0.003838
implic,0.004880
import,0.016722
impress,0.005717
inch,0.015094
includ,0.019444
incomplet,0.006103
increas,0.013467
india,0.008576
indic,0.003445
indispens,0.007819
individu,0.008667
industri,0.006394
influenc,0.003085
inform,0.011138
initi,0.009130
innsbruck,0.010283
input,0.005074
instabl,0.006056
institut,0.005927
instrument,0.008625
intensif,0.009408
interact,0.017473
interdisciplinari,0.011515
intern,0.004909
interv,0.005901
introduc,0.013142
introduct,0.003713
invent,0.013672
invers,0.005914
investig,0.007849
invis,0.006837
involv,0.008146
irvisuv,0.011760
isbn,0.016555
isobar,0.010198
issu,0.009016
jacob,0.006315
japan,0.009263
jet,0.013703
jetstream,0.011760
jma,0.011760
job,0.004836
johann,0.005993
john,0.009557
joseon,0.009620
joseph,0.009231
jr,0.011898
june,0.004080
just,0.003266
kaml,0.011053
kenneth,0.006284
kepler,0.007539
key,0.003564
kilometr,0.006493
kinemat,0.015602
kinet,0.006339
king,0.004461
kingdom,0.014902
kitab,0.008782
km,0.021085
knnen,0.011457
knowledg,0.014091
known,0.011701
koek,0.011760
korea,0.005652
laboratori,0.009504
laid,0.005285
lake,0.011046
land,0.014176
larg,0.009871
larger,0.003696
largescal,0.010913
late,0.006484
later,0.008355
latin,0.004401
launch,0.009432
lavoisi,0.016230
law,0.014105
layer,0.043123
le,0.005578
lead,0.002794
leadership,0.005080
learn,0.011801
led,0.015111
leon,0.006967
lesli,0.007911
lessen,0.007445
level,0.005600
lewi,0.005877
ley,0.019539
librari,0.004399
lidar,0.018816
life,0.006020
lift,0.018754
light,0.007721
lightn,0.048183
like,0.002501
limit,0.002859
line,0.010054
link,0.004072
local,0.009514
locat,0.013771
lofti,0.009510
log,0.006560
logia,0.008193
long,0.003040
longer,0.003862
longterm,0.004927
lorenz,0.008336
low,0.003588
lower,0.003460
lui,0.014580
luke,0.008579
lunar,0.014904
machin,0.004521
mackinnon,0.010621
maddenjulian,0.011283
magnet,0.016490
main,0.002964
mainli,0.007774
major,0.002484
make,0.002381
manag,0.006707
mani,0.016931
manner,0.004518
manual,0.005914
map,0.017134
maria,0.006920
marin,0.010720
maritim,0.012055
mark,0.003759
market,0.003504
mass,0.015359
massachusett,0.006140
massiv,0.009964
mathemat,0.011042
matt,0.008609
matter,0.007044
maximum,0.005091
mcgrawhil,0.006766
md,0.006931
mean,0.002578
meant,0.004802
measur,0.036802
mechan,0.006915
medic,0.004312
medici,0.008903
meet,0.003788
mela,0.010283
melt,0.006681
mercuri,0.013791
mercurytyp,0.011551
meso,0.010517
mesoscal,0.056838
met,0.004788
meta,0.009156
mete,0.010467
meteor,0.008170
meteorolog,0.659149
meteorologist,0.085360
methan,0.007855
method,0.002899
metro,0.009094
mi,0.005903
micro,0.007665
microphon,0.009678
microscal,0.019800
midlatitud,0.052098
midth,0.005777
milan,0.007855
mile,0.005442
militari,0.022727
millennia,0.013645
minimum,0.005107
minut,0.005589
mix,0.004503
model,0.046666
modern,0.002808
modest,0.006837
modif,0.005565
molecular,0.004894
momentum,0.006155
monoxid,0.008717
monsoon,0.018270
monterey,0.010733
month,0.004136
moon,0.006097
motion,0.018899
mountain,0.005037
movement,0.009686
multidisciplinari,0.007004
multilingu,0.008903
mundo,0.010080
munjong,0.011367
muslim,0.005236
narrow,0.005287
nation,0.020756
natur,0.019997
nautic,0.008609
naval,0.011813
navi,0.016812
nd,0.008713
near,0.007699
nearli,0.004078
necessari,0.003731
neglect,0.006124
network,0.027401
new,0.010457
news,0.005110
newspap,0.005796
nineteenth,0.005857
nio,0.009034
niosouthern,0.010853
nitrogen,0.006463
nive,0.011457
noaa,0.017953
nogap,0.023521
nomenclatur,0.006647
nonurban,0.011283
norburi,0.011126
norway,0.006580
norwegian,0.014554
note,0.010798
notion,0.004429
nuclear,0.009568
number,0.004684
numer,0.031220
object,0.003200
observ,0.055625
observatori,0.014479
obstacl,0.006757
obtain,0.003639
occur,0.002974
ocean,0.024091
oceanatmospher,0.011202
oceanographi,0.015463
offic,0.033920
offici,0.003554
ogimet,0.011760
older,0.004913
oldest,0.010130
olog,0.010158
onc,0.003498
onli,0.002155
onlin,0.012294
oper,0.008861
optim,0.004966
order,0.002580
organ,0.007662
oscil,0.040655
osnabrck,0.010984
outcom,0.004787
outdoor,0.008439
outsid,0.003571
overlap,0.005204
overse,0.006982
oxford,0.008798
oxygen,0.005700
ozon,0.008216
p,0.003574
pacif,0.005427
paper,0.011590
paramet,0.005398
parcel,0.016933
pari,0.005120
parma,0.010240
partial,0.004307
particularli,0.003283
pascal,0.007283
passim,0.011367
passiv,0.006452
pattern,0.011985
pdf,0.005419
peopl,0.005163
percent,0.004702
percentag,0.005217
perform,0.009874
period,0.002782
peripheri,0.007855
person,0.003063
phase,0.004502
phenolog,0.010853
phenomena,0.040236
phenomenon,0.004822
phlogist,0.011367
phlogistiqu,0.011202
phlogiston,0.018917
photodiod,0.011202
photogrammetri,0.009738
physic,0.018383
pick,0.012189
plan,0.010638
planet,0.005312
plant,0.012195
platform,0.005733
play,0.003380
pleas,0.007091
point,0.002716
pole,0.006486
polish,0.006325
pollut,0.006298
pomponiu,0.010853
port,0.005290
portion,0.004705
possibl,0.008215
postul,0.005777
potenti,0.010428
power,0.008243
practic,0.002872
precipit,0.024697
predecessor,0.005854
predict,0.070714
prepar,0.008709
present,0.002684
press,0.015800
pressur,0.024250
prevail,0.005680
prevent,0.003838
prieto,0.022735
primari,0.003544
princ,0.005794
princeton,0.005927
princip,0.004194
principl,0.006446
print,0.005042
prior,0.008110
privat,0.003849
problem,0.002871
process,0.020306
produc,0.008381
product,0.002798
profession,0.008701
prognost,0.010327
program,0.010132
progress,0.007318
project,0.009966
properti,0.003250
propos,0.016563
protect,0.003578
provid,0.002382
ptolemi,0.007303
public,0.002704
publish,0.017881
purpos,0.003492
push,0.010211
pyranometerpyrheliometerspectroradiomet,0.011760
qualiti,0.024002
quantifi,0.006033
quantit,0.009976
quantiti,0.004373
quickli,0.008740
r,0.003592
radar,0.014990
radiat,0.026886
radio,0.010993
radioact,0.006589
radiosond,0.022107
radon,0.009054
rain,0.081816
rainbow,0.041808
raindrop,0.010733
rainfal,0.007389
rang,0.016115
read,0.005915
reader,0.005806
receiv,0.003253
recognit,0.004667
rediscov,0.007417
reduc,0.006451
refer,0.003405
reflexion,0.010240
refract,0.015567
region,0.009147
regular,0.004665
relat,0.004591
reliabl,0.015275
remain,0.005632
remot,0.023059
renew,0.009959
report,0.003272
requir,0.016083
research,0.027625
resolut,0.005209
respect,0.009715
respons,0.005906
result,0.011859
reverend,0.009074
revers,0.004688
revolut,0.004218
reynold,0.008115
ricardo,0.007740
richardson,0.016574
ridg,0.007459
river,0.004655
robert,0.003744
roberto,0.008624
roger,0.005710
role,0.008949
roman,0.004567
rosario,0.009510
rossbi,0.021968
rotat,0.011274
roulston,0.011283
run,0.007484
rush,0.007438
rutherford,0.008361
s,0.007245
sadi,0.009934
said,0.003498
satellit,0.023765
saussur,0.009074
saw,0.004167
scale,0.104062
scheme,0.005125
schill,0.010853
school,0.003464
scienc,0.017183
scientif,0.013706
scientist,0.019469
scintil,0.009969
scott,0.006301
sea,0.017379
seal,0.006385
season,0.011005
sec,0.008287
second,0.005589
secondari,0.004849
section,0.004219
seen,0.006682
seismomet,0.010467
sejong,0.010733
selfempti,0.011202
sens,0.007007
sensor,0.028233
sent,0.009439
separ,0.003111
seriou,0.004770
servic,0.026541
set,0.007913
seu,0.010240
sever,0.002470
sexangula,0.011457
sharpli,0.006699
sheer,0.008227
shift,0.004126
ship,0.009663
sign,0.003901
signific,0.009075
similar,0.002829
simpli,0.003867
sinc,0.009479
singl,0.003171
singleverticallevel,0.011760
sir,0.010698
site,0.003991
size,0.011071
skill,0.004565
sky,0.020218
slightli,0.005136
small,0.005799
smallest,0.006168
smithsonian,0.008104
smoke,0.014083
smoki,0.010984
smolder,0.010984
snapshot,0.009199
snow,0.036712
societi,0.014846
softwar,0.005021
soil,0.005369
solar,0.016958
solut,0.008109
solv,0.004361
sometim,0.006170
son,0.004537
sonic,0.009054
space,0.007307
spatial,0.016620
specialist,0.005880
specif,0.005670
speed,0.009692
sphere,0.005303
sprang,0.008654
squall,0.011760
st,0.003820
stall,0.007883
standard,0.003191
start,0.005999
state,0.031104
station,0.036241
statist,0.007776
steam,0.007058
step,0.004018
stock,0.004572
store,0.004801
storm,0.019917
stratospher,0.009221
stream,0.011360
strena,0.011457
student,0.012101
studi,0.047585
subclass,0.008685
subclassif,0.010984
subdisciplin,0.006459
subsequ,0.003698
success,0.006285
suggest,0.006635
summit,0.006931
sun,0.015772
supplement,0.005867
sur,0.007609
surfac,0.042911
surfaceatmospher,0.011652
surviv,0.004087
swedish,0.006463
swingingpl,0.011551
swoop,0.042486
synopt,0.076739
synopticdynam,0.023521
systemat,0.004527
taken,0.003470
task,0.004396
tax,0.004453
teacher,0.005430
technic,0.004214
techniqu,0.003641
technolog,0.003416
teleconnect,0.011202
telegraph,0.014671
televis,0.010683
temperatur,0.043118
term,0.013436
th,0.032609
theoder,0.011053
theodor,0.006486
theophrastu,0.016672
theori,0.025000
therefor,0.006442
thermodynam,0.012165
thermomet,0.017130
thermoscop,0.010984
thi,0.023043
thing,0.011312
thousand,0.004179
thunder,0.018486
thunderbolt,0.010419
thunderstorm,0.019357
time,0.037742
timescal,0.038448
tip,0.006609
tiro,0.011283
today,0.003404
todd,0.008275
togeth,0.003267
tokyo,0.007510
tool,0.011384
topograph,0.008115
tor,0.009769
torricelli,0.009866
toufic,0.011457
trace,0.004544
trade,0.010284
trader,0.005834
tradit,0.002984
traffic,0.006261
train,0.012276
transmissomet,0.011760
transport,0.008125
travel,0.004184
treatis,0.005717
tremor,0.009510
tri,0.003730
tropic,0.036286
tropopaus,0.010327
tropospher,0.009484
troposphericstratospher,0.011760
trough,0.009408
turbul,0.022047
tutori,0.007855
twilight,0.018866
type,0.008547
typic,0.015896
uk,0.004343
ultim,0.004098
uncertainti,0.005515
understand,0.035385
understood,0.004447
unifi,0.004960
uniqu,0.012122
unit,0.028683
univers,0.014727
unrealist,0.007757
upanishad,0.008903
updat,0.005740
upper,0.004785
urban,0.004970
urbanachampaign,0.009708
use,0.048410
usual,0.008555
util,0.008574
vacuum,0.006183
valley,0.005480
vallombrosa,0.011283
valu,0.003037
vapor,0.007403
varhamihira,0.011457
vari,0.003493
variabl,0.021660
variat,0.004442
varieti,0.007116
variou,0.005395
veget,0.005657
veri,0.002706
vertic,0.006130
vilhelm,0.021466
violent,0.011703
visibl,0.005238
visual,0.005000
vivid,0.008685
vol,0.005093
volum,0.004059
wa,0.050521
war,0.006733
warn,0.011397
warsaw,0.008239
wasnt,0.007855
water,0.007311
waterus,0.011457
waterwheel,0.010118
wave,0.014337
way,0.005067
wear,0.006422
weather,0.430055
weatherman,0.011760
week,0.004980
weight,0.009553
went,0.004346
westerli,0.009592
wheeler,0.008287
wide,0.009156
wilkinson,0.008536
william,0.007594
wind,0.067567
windforc,0.011760
woodruff,0.010676
word,0.003289
work,0.011616
world,0.019221
wren,0.009649
written,0.015008
wrote,0.020188
x,0.004196
year,0.011958
yield,0.009259
york,0.007300
zamg,0.011760
zone,0.009796
