aard,0.006672
abil,0.001889
abl,0.001734
abod,0.004784
abov,0.012308
absenc,0.002525
absorb,0.002745
abund,0.008356
academ,0.002057
acceler,0.005283
accept,0.005173
accord,0.006867
account,0.004852
accret,0.051971
accretionpow,0.006818
accumul,0.007904
achiev,0.003455
acknowledg,0.002648
action,0.001687
actual,0.001757
addit,0.004168
address,0.004136
adopt,0.003790
advanc,0.001696
advent,0.003003
advisori,0.003376
affair,0.002271
affect,0.003589
age,0.003440
agre,0.004141
alan,0.005823
aldin,0.004412
aleksand,0.010946
aliv,0.003431
almagest,0.004748
alreadi,0.002000
alter,0.002463
alway,0.001846
ambigu,0.009682
ammah,0.006549
ammisaduqa,0.006189
ammonia,0.007937
analysi,0.001655
analyz,0.004617
ancient,0.017909
angl,0.012400
anglosaxon,0.008580
angular,0.011113
ani,0.007262
announc,0.011532
annual,0.002109
anoth,0.005284
anticlockwis,0.005842
anticyclon,0.005712
antiqu,0.002842
anu,0.004521
apart,0.002517
apastron,0.020454
apex,0.004276
aphelion,0.005753
aphrodit,0.016088
appar,0.007034
appear,0.007954
appli,0.002936
approach,0.007903
appropri,0.002201
approxim,0.001871
april,0.004202
arbitrari,0.002965
archiv,0.005055
argu,0.005481
argument,0.002307
arisen,0.003750
aristarchu,0.004877
arithmet,0.003353
aros,0.002727
articl,0.003264
aryabhata,0.019564
aryabhatiya,0.005313
aryabhatiyabhasya,0.006189
ascend,0.017995
asia,0.002358
assembl,0.004288
aster,0.005636
asteroid,0.023813
astrolog,0.011920
astronom,0.077316
astronomi,0.021586
atmospher,0.032287
atom,0.002401
attach,0.002600
attract,0.002209
attribut,0.008540
au,0.015752
august,0.004174
automat,0.002803
averag,0.006154
avicenna,0.003875
avoid,0.002051
away,0.004184
axe,0.007515
axi,0.015749
axial,0.030368
b,0.007276
ba,0.003654
baal,0.010778
babylon,0.008275
babylonian,0.044806
bajjah,0.011068
bare,0.003383
base,0.010770
bc,0.019601
becam,0.003027
becaus,0.018700
becom,0.017234
befor,0.002828
began,0.003307
begin,0.004844
begun,0.002633
belief,0.004433
believ,0.015416
belt,0.039714
bhaspati,0.006443
binari,0.009921
bind,0.002859
black,0.002235
blend,0.003471
bodi,0.033237
borrow,0.005497
bound,0.004956
boundari,0.002312
brahe,0.009233
bright,0.007243
brightest,0.004863
bringer,0.006265
broad,0.002224
brown,0.028101
budha,0.006443
build,0.001752
c,0.004754
calcul,0.004226
calendar,0.003396
came,0.001813
camp,0.003001
candid,0.002554
cap,0.003378
captur,0.018219
carbon,0.008110
care,0.002083
catalog,0.003796
categori,0.002116
cathol,0.002678
caus,0.005921
caviti,0.004010
ce,0.006078
ceas,0.002801
celesti,0.010548
center,0.003538
centr,0.011403
central,0.001554
centuri,0.037032
cere,0.031330
certain,0.004554
certainli,0.003166
certainti,0.003501
cha,0.010888
challeng,0.001981
chandra,0.004616
chang,0.006252
characterist,0.021030
chemic,0.004224
cheop,0.006265
chief,0.002309
china,0.004262
chines,0.004768
choic,0.002179
chthonian,0.006818
church,0.002506
circl,0.005345
circular,0.012930
circumstellar,0.005566
civil,0.005708
claim,0.001683
clarif,0.004374
class,0.003679
classic,0.001832
classif,0.007342
classifi,0.006731
clear,0.020645
clearanc,0.008540
climat,0.002368
clockwis,0.009931
close,0.007421
closer,0.002744
closest,0.013430
cloud,0.012690
cloudcollaps,0.013636
cluster,0.015217
collaps,0.014661
collect,0.001618
collid,0.007515
collis,0.010221
comet,0.023577
comment,0.002657
commentari,0.003197
committe,0.002379
common,0.004024
commonli,0.001842
commonsens,0.004453
commun,0.005802
companion,0.003199
compar,0.004922
complet,0.001532
complex,0.006493
compos,0.008418
composit,0.006899
comprehens,0.002443
compris,0.002269
comput,0.001838
concentr,0.004341
concept,0.001548
concord,0.004567
condit,0.003104
conduct,0.001901
confirm,0.004783
conform,0.003061
consid,0.018113
consist,0.004454
constant,0.002205
constitut,0.003503
contain,0.001591
content,0.002189
contrast,0.001874
contribut,0.003256
controversi,0.006558
convent,0.006444
copernicu,0.004143
copi,0.002674
core,0.028270
correspond,0.002013
cosmolog,0.003243
coulomb,0.004367
counterclockwis,0.010061
counterpart,0.002974
countri,0.001459
cours,0.009667
creat,0.009498
criteria,0.005556
criterion,0.016655
cronu,0.011424
cronuss,0.006818
cross,0.002421
crust,0.003694
cultur,0.008340
cuneiform,0.004587
current,0.004260
cutoff,0.004587
cycl,0.002274
dale,0.008501
dark,0.002868
data,0.008852
date,0.005562
dawn,0.003511
day,0.025111
debat,0.002065
decay,0.006100
decemb,0.006107
decid,0.002162
declassifi,0.005120
decreas,0.004369
deep,0.002469
defer,0.003833
defin,0.009135
definit,0.049117
deflect,0.004110
degeneraci,0.005030
degre,0.001816
deiti,0.007099
delin,0.003810
dens,0.003157
denser,0.013434
depend,0.005855
depos,0.003648
deriv,0.010121
descend,0.005370
describ,0.005462
descript,0.002027
desir,0.002087
detect,0.012181
determin,0.004621
deuterium,0.064555
develop,0.005547
diamet,0.003624
did,0.004940
didier,0.010400
differ,0.007056
differenti,0.006739
direct,0.004419
directli,0.003565
disagr,0.003154
disc,0.008078
discov,0.021490
discoveri,0.031167
discuss,0.001810
disk,0.022865
dispar,0.003409
displac,0.002846
disput,0.004463
dissent,0.003778
distanc,0.021262
distinct,0.005125
distinguish,0.003939
diurnal,0.004950
divid,0.007036
divin,0.005901
divis,0.001922
doe,0.001501
domin,0.007302
drag,0.007681
drake,0.004668
dramat,0.002505
draw,0.002274
dri,0.002905
drive,0.002383
drop,0.002435
dure,0.012770
dust,0.014487
dutch,0.002724
dwarf,0.132968
dynam,0.006239
earli,0.008015
earth,0.102748
earthli,0.004296
earthsiz,0.023185
easili,0.002288
eastern,0.002216
eccentr,0.022143
eclips,0.003579
eclipt,0.010359
educ,0.001701
effect,0.009082
effici,0.002091
egypt,0.002820
eject,0.012191
elabor,0.002779
electr,0.002208
electromagnet,0.002994
electron,0.002235
element,0.006794
ellipt,0.019889
elong,0.004137
els,0.002750
embryo,0.003701
emissari,0.004950
empir,0.001863
encyclopaedia,0.008439
end,0.002920
energet,0.003619
energi,0.011218
english,0.007440
enlil,0.006055
entir,0.001732
enuma,0.006349
epicycl,0.005534
equal,0.001818
equat,0.004442
equilibrium,0.005582
equival,0.004302
erd,0.004679
erda,0.006265
eri,0.029794
ertho,0.006818
escap,0.005363
especi,0.001550
establish,0.002850
estim,0.007518
euphem,0.010675
europa,0.004420
european,0.003327
evapor,0.003740
eventu,0.003796
everi,0.005014
everlarg,0.005890
evid,0.003642
evolv,0.002192
exact,0.002548
exampl,0.002392
exceedingli,0.004577
exclud,0.010050
exist,0.007969
exoplanet,0.105321
expand,0.001889
expect,0.007340
explain,0.001798
explicitli,0.002719
explor,0.006105
express,0.001730
extend,0.001761
extern,0.001044
extrasolar,0.129110
extrem,0.007663
eye,0.008010
face,0.004009
fact,0.005087
factor,0.001693
fail,0.004016
fall,0.005469
far,0.003622
farther,0.007461
farthest,0.019508
father,0.002348
featur,0.007225
fell,0.002579
field,0.014586
fieri,0.004950
final,0.003455
fix,0.002119
fleet,0.003211
flow,0.002103
fluid,0.008446
focus,0.001859
follow,0.010282
forc,0.004294
forget,0.003987
form,0.020742
formal,0.005361
format,0.021428
formerli,0.002675
formula,0.002494
foundat,0.001862
frail,0.011006
fred,0.003704
free,0.001631
freefloat,0.026814
frequenc,0.002729
frge,0.006818
friday,0.004132
fulfil,0.008664
fullest,0.004877
fullfledg,0.004539
function,0.001462
fuse,0.028129
fusion,0.026632
futur,0.001739
ga,0.021626
gaia,0.004647
gain,0.003475
galilean,0.004420
galilei,0.003951
galileo,0.007032
ganymed,0.011272
gap,0.002780
gase,0.012737
gather,0.002489
gave,0.002078
ge,0.004290
gener,0.011289
geneva,0.007592
geocentr,0.004461
geodynamo,0.006055
geolog,0.002729
geometri,0.002912
geophys,0.007474
german,0.004034
giant,0.062462
given,0.005729
gleamer,0.006818
god,0.044995
goddess,0.008039
gradual,0.002295
graft,0.004647
gravit,0.019166
graviti,0.028024
great,0.006438
greater,0.005396
greaterthanearths,0.006818
greatli,0.002338
grecoroman,0.008179
greec,0.005399
greek,0.036404
ground,0.004156
group,0.002576
grow,0.003662
grown,0.002750
guidelin,0.003167
ha,0.024761
habit,0.009084
half,0.007863
halfway,0.004453
hand,0.001769
hard,0.002344
hawaii,0.003799
hd,0.013459
health,0.001991
heat,0.005036
heavier,0.010822
hebrew,0.003585
helio,0.010725
heliocentr,0.008463
helium,0.019109
heliumi,0.006818
hellenist,0.007261
hemispher,0.022767
henc,0.004456
herald,0.004014
herm,0.009870
hespero,0.006818
hi,0.007683
high,0.004338
higher,0.003395
histor,0.003208
histori,0.004758
hold,0.001720
hole,0.003250
host,0.013058
hostprimari,0.006818
hot,0.015725
hour,0.012548
hourli,0.004748
howev,0.001159
human,0.001376
hundr,0.004340
hurrican,0.007629
hydrogen,0.017749
hydrolog,0.003785
hydrostat,0.009174
hypothes,0.002840
iau,0.075824
ibn,0.006218
ice,0.012461
idea,0.003205
identifi,0.006906
idolatr,0.005842
ignit,0.004160
ii,0.003738
illustr,0.004871
imag,0.002199
immedi,0.002099
impact,0.005871
import,0.001218
improv,0.001757
inclin,0.003534
includ,0.012888
incorpor,0.007845
increas,0.010987
inde,0.002428
independ,0.002933
india,0.006559
indian,0.002364
indic,0.003513
indistinguish,0.008078
individu,0.001473
indoeuropean,0.004382
induc,0.008484
influenc,0.003146
inher,0.002737
initi,0.009310
insid,0.002395
insol,0.004981
instanc,0.001934
instead,0.003345
intellig,0.002228
interact,0.003563
interchang,0.003269
interior,0.008408
intern,0.006257
interstellar,0.004143
intrins,0.003024
introduc,0.001675
invent,0.002323
invis,0.003486
inward,0.004074
ionospher,0.004772
iron,0.002557
irregular,0.003341
ishbosheth,0.006818
ishtar,0.006119
isol,0.002318
isotop,0.010379
issu,0.001532
iuppit,0.006818
j,0.003587
jame,0.002014
japan,0.002361
jeanluc,0.004935
johann,0.003056
jord,0.006549
journal,0.001836
jovian,0.005444
juno,0.005014
jupit,0.179941
jupitermass,0.027272
just,0.006661
justic,0.002413
kbo,0.006549
kepler,0.042291
keplerb,0.013636
keplerf,0.013636
kept,0.002573
kerala,0.009359
ketu,0.006549
kinet,0.003232
king,0.002274
know,0.002163
knowledg,0.001796
known,0.029832
kokhav,0.020454
korea,0.002882
kuiper,0.025603
lack,0.005462
laid,0.005390
land,0.001807
languag,0.010768
larg,0.015101
larger,0.032041
largest,0.005916
late,0.001653
later,0.005680
latin,0.004488
launch,0.002404
law,0.001438
lay,0.002687
layer,0.002748
lead,0.002849
learn,0.002005
leav,0.002022
led,0.004623
leftov,0.005048
length,0.002369
levanah,0.006818
level,0.001427
levinson,0.005120
lie,0.007018
life,0.003069
lifetim,0.006115
light,0.013779
lighter,0.003747
lightyear,0.004863
like,0.010203
likelihood,0.003311
likewis,0.005656
limit,0.013124
line,0.003417
link,0.001038
list,0.006638
littl,0.001827
live,0.001543
local,0.001617
locat,0.005266
lock,0.003092
long,0.001550
longer,0.005907
longest,0.006845
longitud,0.008148
look,0.001971
lose,0.012556
loss,0.002088
lost,0.002074
love,0.005669
low,0.003659
lowboilingpoint,0.006818
lowdens,0.005313
lower,0.005292
lowmass,0.005796
luminari,0.005120
lunar,0.003799
lyttleton,0.006818
maadim,0.006818
magnet,0.036436
magnetospher,0.029347
main,0.001511
mainsequ,0.017020
maintain,0.003329
major,0.001266
make,0.004856
makeup,0.003814
man,0.002112
mandat,0.002974
mangala,0.005796
mani,0.014029
manner,0.002304
mantl,0.024234
mar,0.065345
maragha,0.005941
marduk,0.006055
margot,0.005636
mass,0.121397
massiv,0.035567
materi,0.010038
mathemat,0.005630
matter,0.010775
mayor,0.007243
mb,0.004503
mean,0.010519
mechan,0.001763
mediev,0.002546
meet,0.003863
melt,0.003407
member,0.004570
mercuri,0.091420
mercuriu,0.005890
mesopotamia,0.007261
messeng,0.003785
metal,0.007454
metallicityan,0.006818
metalpoor,0.006672
metalrich,0.005796
methan,0.008011
michel,0.006545
microlens,0.011883
midth,0.002945
milki,0.017106
millennia,0.003478
millennium,0.002980
minim,0.002519
minimum,0.005208
minineptun,0.006818
minor,0.002209
mission,0.004761
mixtur,0.002985
mj,0.013942
model,0.008923
modern,0.005728
molecular,0.002495
moment,0.005432
momentum,0.009416
monday,0.004405
monitor,0.002581
moon,0.062185
moonlet,0.006818
morn,0.003469
mostli,0.004074
motion,0.012046
movement,0.003292
mulapin,0.006189
multipl,0.005509
multitud,0.003767
muslim,0.002670
mytholog,0.013356
nabu,0.006349
nake,0.011432
narr,0.006283
nasa,0.010814
nativ,0.002467
natur,0.007647
navagraha,0.006818
nd,0.002221
near,0.001963
nearest,0.007696
nearli,0.002079
nebula,0.004171
necess,0.002991
need,0.001435
neglig,0.003552
neighborhood,0.010848
neighbour,0.002916
neighbourhood,0.004213
neoassyrian,0.005221
neptnu,0.006818
neptun,0.057068
neptunea,0.006818
nergal,0.019649
net,0.002509
new,0.002132
newli,0.002511
nickel,0.003829
night,0.008785
nilakantha,0.005566
ninth,0.003737
node,0.017995
nogah,0.006818
noncoplanar,0.006265
noneuropean,0.004647
nonintersect,0.006443
nonmagnet,0.005600
nonrom,0.006818
north,0.005687
northern,0.002232
note,0.002753
nuclear,0.002439
number,0.013138
numer,0.001768
nundin,0.006818
object,0.102823
observ,0.031515
observatori,0.003691
occur,0.003033
occurr,0.003088
octob,0.004129
odd,0.003368
offici,0.009063
old,0.001975
oldest,0.002582
olympian,0.016248
omen,0.005101
onc,0.003568
onli,0.017584
oph,0.006818
oppos,0.005985
opposit,0.001964
orbit,0.214997
order,0.006578
ordinari,0.005207
origin,0.009261
ot,0.010359
outer,0.003050
outgass,0.005221
outsid,0.001821
outward,0.003675
oxygen,0.002906
pair,0.002544
palla,0.011006
pantheon,0.016757
parent,0.008066
parmenid,0.004521
partial,0.002196
particl,0.002566
particul,0.004270
particular,0.001494
particularli,0.001674
pass,0.001854
pattern,0.002037
pegasi,0.012886
penetr,0.003189
peopl,0.001316
percept,0.007623
perfect,0.002667
perfectli,0.003317
perform,0.001678
perhap,0.002219
periapsi,0.006549
periastron,0.013636
perihelion,0.010241
period,0.011349
perman,0.002313
perpendicular,0.003977
perpetu,0.012937
pestil,0.005842
phaethon,0.020454
phainon,0.013636
phenomena,0.002279
phosphoro,0.027272
photoevapor,0.006818
photojourn,0.006189
physic,0.007811
place,0.001350
plane,0.028756
planemo,0.013636
planet,0.763905
planetari,0.102683
planetarymass,0.032216
planetarynam,0.006818
planetarytyp,0.006818
planetesim,0.028982
planethood,0.019649
planetmass,0.006818
planets,0.006265
planetwid,0.005566
plant,0.002072
plantai,0.006818
pluto,0.071770
pmo,0.006055
poetic,0.003840
point,0.011079
pole,0.009921
popul,0.008493
popular,0.001708
pose,0.002908
poseidon,0.005048
posit,0.007074
possibl,0.009774
potenti,0.003545
poyntingrobertson,0.006818
practic,0.004394
precis,0.004510
predict,0.002003
preexist,0.003727
premodern,0.004074
presenc,0.002070
present,0.004106
preserv,0.002307
press,0.003222
pressur,0.006182
presum,0.003056
pretelescop,0.006818
prevail,0.002896
preval,0.003014
prevent,0.001957
previou,0.002064
primarili,0.005614
prime,0.002199
principl,0.001643
probabl,0.001964
probe,0.003404
problem,0.001464
problemat,0.003299
process,0.010354
produc,0.005698
product,0.001426
proport,0.002263
propos,0.013513
propound,0.004166
protect,0.001824
protogerman,0.005534
protoplanet,0.022693
protoplanetari,0.021350
protostar,0.011592
provid,0.001214
proxim,0.009493
psr,0.022545
ptolemi,0.018619
public,0.002757
publish,0.001519
pull,0.003141
pulsar,0.034652
pure,0.002164
purpos,0.001780
pyroei,0.020454
pythagora,0.004137
pythagorean,0.004116
qotb,0.006549
quaoar,0.006265
queloz,0.013099
quest,0.003448
quit,0.002313
radiat,0.002741
radio,0.002802
radioact,0.003359
radiu,0.007243
rahu,0.006818
randomli,0.003701
rang,0.004930
rapidli,0.002308
rare,0.002253
rate,0.001696
raymond,0.003568
rd,0.002451
reach,0.007058
realiz,0.002427
reason,0.003116
recaptur,0.003946
receiv,0.004976
recent,0.001503
reclassifi,0.004920
recognit,0.002379
red,0.009626
redistribut,0.003610
refer,0.006077
regard,0.004997
regardless,0.002624
region,0.004664
reinforc,0.002957
reject,0.002140
rel,0.007784
relat,0.001170
relationship,0.001657
releas,0.004340
religi,0.002217
religion,0.002211
remain,0.011488
remnant,0.010415
remov,0.002004
renaiss,0.002871
renam,0.003014
replac,0.003538
report,0.003337
repres,0.001424
republ,0.002037
requir,0.004100
research,0.001408
resolut,0.010624
reson,0.006646
respect,0.001651
rest,0.004068
result,0.004837
retain,0.006850
retrograd,0.005030
revis,0.007784
revolut,0.006452
revolv,0.014157
rich,0.002489
ring,0.011763
rise,0.001747
risk,0.002136
roam,0.004647
roch,0.004713
rock,0.005438
rocki,0.020745
rogu,0.018590
roman,0.030278
romanc,0.004039
rose,0.002634
rotat,0.051740
roughli,0.007306
round,0.016503
rule,0.003169
rx,0.005120
s,0.002462
sacr,0.009975
said,0.001784
samo,0.004549
samuel,0.003086
sank,0.004317
satellit,0.042413
saturday,0.004338
saturn,0.073631
saturnu,0.006818
saw,0.002124
say,0.001881
scandinavian,0.004079
scheme,0.007839
school,0.003533
scienc,0.002920
scientif,0.015725
scientist,0.001985
sea,0.002215
seal,0.003256
season,0.008417
second,0.005700
secondari,0.009890
sedna,0.005753
seemingli,0.003407
seen,0.008518
selen,0.011780
semimajor,0.010946
separ,0.004758
seriou,0.002432
set,0.002690
seven,0.009114
sever,0.008818
shabbatai,0.006818
shani,0.006818
shape,0.004139
share,0.008459
shift,0.004208
shiner,0.005996
shirazi,0.005337
shorter,0.003091
shortest,0.008540
shown,0.004187
shrink,0.003807
shrunken,0.006265
shukra,0.006549
sider,0.005313
sight,0.003222
signific,0.004627
significantli,0.011142
silic,0.004352
similar,0.015872
similars,0.006443
simpli,0.003943
simul,0.002625
sin,0.003436
sinc,0.004833
singl,0.003234
site,0.002035
size,0.022582
sky,0.017182
slightli,0.002619
slow,0.004989
slower,0.003471
small,0.007393
smaller,0.028766
smallest,0.015725
soil,0.002738
solar,0.121064
solartyp,0.006549
solid,0.005194
solstic,0.020482
somayaji,0.005636
someth,0.004646
sometim,0.004719
somewhat,0.002561
somewher,0.003701
son,0.004627
soter,0.005673
south,0.001892
southern,0.002242
space,0.020493
spate,0.005337
special,0.001511
specif,0.001445
spectrum,0.002857
speed,0.007413
sphere,0.005408
spheric,0.007057
spheroid,0.005083
spin,0.006703
spot,0.009076
st,0.005844
stabl,0.002378
stage,0.002110
star,0.187591
start,0.003059
state,0.002114
statement,0.006655
statu,0.006054
steadili,0.003187
steer,0.003991
steiglitz,0.006189
stellar,0.032431
stern,0.016507
steven,0.003044
sticki,0.004389
stilbon,0.020454
stochast,0.003353
storm,0.003385
straightforward,0.003825
strength,0.002450
strong,0.005267
strongest,0.003506
strongli,0.002329
structur,0.002823
studi,0.006385
subbrown,0.081816
subject,0.001537
subsequ,0.003771
substanti,0.006729
substellar,0.006818
suggest,0.011842
suitabl,0.002682
summer,0.002795
sun,0.091146
sunday,0.004010
sunlight,0.003767
sunlik,0.022693
sunspot,0.005065
superearth,0.006119
supermass,0.005389
supernova,0.008501
supersed,0.003491
superson,0.005083
support,0.001436
surfac,0.008752
surround,0.011064
surviv,0.006252
surya,0.005313
sustain,0.002363
sway,0.004043
sweep,0.003701
sync,0.005337
tabl,0.002325
tablet,0.007704
tail,0.003498
taken,0.001769
tantrasangraha,0.005996
team,0.010094
tecton,0.003825
telescop,0.022284
tell,0.002721
temperatur,0.007328
temporari,0.002849
tenth,0.003704
term,0.006851
terra,0.004503
terrestri,0.039478
tess,0.006189
text,0.004169
th,0.030483
thcenturi,0.002786
theoret,0.001981
theori,0.008498
thereaft,0.003159
therefor,0.006569
thermonuclear,0.024988
thi,0.025307
thought,0.010275
thousand,0.006393
threshold,0.003366
thrown,0.004024
thu,0.007063
thunor,0.006549
thursday,0.004539
tidal,0.008705
tie,0.002357
tilt,0.038793
time,0.016037
tini,0.006519
titan,0.008426
tiw,0.006549
today,0.003471
took,0.001887
tool,0.001934
torn,0.004444
total,0.001686
trade,0.001748
tradit,0.009130
trajectori,0.003604
transfer,0.002067
transit,0.006311
translat,0.004160
transneptunian,0.006265
transpir,0.004478
travel,0.002133
true,0.005869
tuesday,0.004823
turn,0.003341
twice,0.005760
tycho,0.009472
tychon,0.005600
type,0.005811
typic,0.003242
tzedeq,0.006818
ultim,0.004180
unalign,0.006055
understood,0.002267
underworld,0.004950
union,0.005387
uniqu,0.004120
univers,0.007509
unlik,0.002012
unmotiv,0.005996
unusu,0.002929
upper,0.004880
upward,0.006728
uranu,0.053803
uranuss,0.006549
use,0.012836
valu,0.009292
vari,0.012469
variabl,0.002209
variat,0.006795
variou,0.004127
vast,0.002426
veloc,0.003177
venu,0.095095
veri,0.009660
versa,0.003429
vesta,0.011201
vice,0.002797
vietnam,0.003274
view,0.003097
virtual,0.004779
visibl,0.005342
volatil,0.003215
volcan,0.003466
volum,0.002069
vote,0.006874
wa,0.053504
wander,0.008097
war,0.005149
waspb,0.006818
water,0.005592
way,0.006460
wden,0.006549
weakest,0.004724
weather,0.008890
webb,0.004539
websit,0.002285
wednesday,0.004713
week,0.002539
went,0.002216
western,0.007270
westward,0.004149
whatev,0.002974
wherea,0.012581
whippl,0.005996
white,0.004588
wide,0.003112
widespread,0.002321
wind,0.020097
winter,0.002994
wisdom,0.003199
wit,0.002943
wolszczan,0.013636
wood,0.002788
word,0.010064
work,0.008292
world,0.004900
write,0.001889
writer,0.002480
written,0.003826
year,0.009756
young,0.004487
zeu,0.013974
zone,0.012488
