addit,0.026594
adopt,0.018138
aeolian,0.053939
aki,0.059229
altern,0.016889
america,0.018420
appear,0.015224
appli,0.028102
archiv,0.024192
area,0.013054
arizona,0.075792
asteroid,0.113943
astrogeolog,0.110941
astronom,0.059192
avail,0.016067
avoid,0.019632
b,0.017409
barring,0.057954
becom,0.012687
bell,0.030685
belt,0.034551
biggest,0.029754
bodi,0.079518
branch,0.016854
bring,0.019702
brown,0.026892
caltech,0.043018
campbel,0.035542
case,0.026543
caus,0.014167
celesti,0.033648
center,0.050789
chang,0.023934
chosen,0.024255
close,0.014203
colorado,0.037443
combin,0.015137
comet,0.112814
common,0.012836
commun,0.013881
concern,0.029809
conduct,0.018195
conscious,0.027044
contribut,0.015582
conveni,0.028346
convent,0.020558
crater,0.119772
creat,0.012986
credit,0.020545
decid,0.020690
depart,0.018614
depend,0.014008
describ,0.026135
descriptor,0.092819
determin,0.014743
disciplin,0.019563
divis,0.036801
earli,0.012784
earth,0.040133
earthbas,0.049971
ed,0.017893
eugen,0.031249
examin,0.020005
exogeolog,0.061660
extens,0.017260
f,0.018827
featur,0.103717
field,0.027917
fluvial,0.048824
format,0.018641
gener,0.009821
geo,0.045670
geolog,0.365684
giant,0.029887
group,0.012329
grow,0.017526
gsa,0.051830
ha,0.018227
histor,0.030707
histori,0.022768
iau,0.051830
identifi,0.016522
iii,0.026138
imageri,0.036755
impact,0.037461
import,0.011657
includ,0.037952
indic,0.016813
inform,0.013588
institut,0.057852
intern,0.023954
interpret,0.018234
investig,0.019152
involv,0.013250
isnt,0.037091
j,0.017164
jet,0.033433
john,0.015546
johnson,0.031231
just,0.015937
known,0.011419
kuiper,0.049003
laboratori,0.046381
line,0.016354
link,0.009935
long,0.014836
look,0.018866
loui,0.025783
lunar,0.036364
m,0.016341
magnet,0.026822
major,0.012122
makeup,0.036504
mani,0.010327
manual,0.028860
map,0.041805
mean,0.012583
meteor,0.039868
meteorit,0.042614
michigan,0.032974
minor,0.021144
mission,0.022781
mit,0.027762
montana,0.046807
moon,0.089264
motto,0.040618
museum,0.027551
near,0.018786
new,0.030617
nomenclatur,0.032437
onli,0.010517
origin,0.012662
physic,0.014950
planet,0.155540
planetari,0.753374
possibl,0.013363
precis,0.021581
prefix,0.035207
principl,0.015727
process,0.024771
program,0.016481
propuls,0.040927
rd,0.023460
read,0.014431
reason,0.014913
recognis,0.051308
refer,0.008309
relat,0.011203
remot,0.056261
research,0.053920
retriev,0.049373
roberg,0.060761
robinson,0.034073
rule,0.015167
s,0.023569
scienc,0.111801
selenographi,0.057388
sens,0.034195
sever,0.012055
shoemak,0.051830
sinc,0.011563
societi,0.014488
solar,0.027584
son,0.022142
southwest,0.032458
space,0.017829
st,0.018641
standard,0.031151
standardis,0.041449
state,0.020236
structur,0.027022
studi,0.036663
surfac,0.020939
survey,0.022228
term,0.010927
terrestri,0.062967
thi,0.008649
thrive,0.032014
today,0.016613
topic,0.036696
type,0.013903
typic,0.015514
underli,0.021961
union,0.017184
uniqu,0.019718
unit,0.011664
univers,0.083840
usag,0.024255
use,0.009449
varieti,0.017363
visitor,0.031631
volcan,0.033177
washington,0.025460
western,0.017395
wide,0.029788
wiley,0.028297
winslow,0.049767
work,0.011336
