abdmap,0.024842
abil,0.006497
abl,0.011930
absenc,0.008681
absorb,0.009440
acceler,0.009082
access,0.013067
account,0.005561
accur,0.024136
accuraci,0.030724
action,0.005802
activ,0.009424
adapt,0.007519
addit,0.004777
aerosol,0.049482
aim,0.006743
air,0.021762
airlaunch,0.022519
aka,0.012872
algal,0.016720
algorithm,0.037868
allow,0.009392
analysi,0.005692
angl,0.010659
ani,0.004161
annual,0.007254
applic,0.005639
archiv,0.026075
area,0.009380
aris,0.007704
asid,0.010770
assess,0.016087
atmospher,0.092510
attenu,0.014990
august,0.007176
avail,0.011545
averag,0.014107
avoid,0.007053
band,0.020536
base,0.008229
began,0.005685
benefit,0.006909
best,0.006275
bin,0.013128
biolog,0.020259
biooptic,0.024842
black,0.007684
bloom,0.028230
blue,0.040598
brows,0.050162
built,0.007098
bulk,0.010094
buoy,0.016205
c,0.005449
calcul,0.029065
calibr,0.027416
capabl,0.007509
capac,0.007905
carbon,0.046474
carl,0.009521
case,0.004768
caus,0.005090
cdom,0.024842
center,0.006082
chain,0.017040
chang,0.025797
characterist,0.006573
chlantilogmathsf,0.024842
chlorophyl,0.574296
chlorophylla,0.024842
clariti,0.013692
clear,0.007098
clearli,0.008575
clearwat,0.022519
climat,0.040716
close,0.005103
coastal,0.010397
coeffici,0.011006
collect,0.022254
color,0.057005
colour,0.010885
combin,0.005438
come,0.005454
commerci,0.007307
commonli,0.006334
compar,0.005641
comparison,0.007998
compon,0.019706
composit,0.007907
concentr,0.134357
concert,0.012860
contain,0.016416
contributor,0.011158
correct,0.023043
correl,0.008891
coverag,0.022948
cracknel,0.024842
creat,0.004665
cubic,0.013166
current,0.004883
daili,0.008921
data,0.213062
day,0.005756
debat,0.007101
decemb,0.013999
deep,0.016983
defin,0.010469
degre,0.018740
densiti,0.009204
depend,0.005032
deriv,0.028998
descript,0.006972
design,0.044820
despit,0.006467
detect,0.008376
detritu,0.017356
develop,0.003814
differ,0.036393
diffus,0.010420
dioxid,0.033624
directli,0.012257
discuss,0.006223
displaystyl,0.017475
dissolv,0.009473
distribut,0.012587
divid,0.012097
download,0.013467
e,0.006181
educ,0.005850
effect,0.004461
effici,0.014381
empir,0.006407
entir,0.011913
entitl,0.009480
environ,0.006087
equat,0.015275
equatori,0.013772
estim,0.090473
examin,0.014375
exampl,0.008225
exceed,0.009643
expand,0.006496
experi,0.011294
express,0.005950
extern,0.003590
f,0.013529
facilit,0.008279
far,0.012454
featur,0.012421
feldman,0.015908
fertil,0.009626
fieldofview,0.022519
fish,0.017136
fisheri,0.049932
flaw,0.011706
flight,0.010060
floor,0.011170
fluoresc,0.013381
foam,0.016582
follow,0.007856
followon,0.018921
food,0.014135
forese,0.014363
formal,0.006144
format,0.006697
formula,0.034301
free,0.005609
freeli,0.021359
frequenc,0.009384
ftp,0.019379
g,0.013286
gac,0.021541
gene,0.009528
gener,0.007057
geoey,0.022942
geophys,0.025698
glint,0.067558
global,0.032606
globe,0.011183
goal,0.013509
goddard,0.016090
good,0.005459
govern,0.004669
greatli,0.008041
green,0.042225
greener,0.019506
grid,0.024866
group,0.008859
h,0.006821
ha,0.006548
height,0.009791
higher,0.005837
highli,0.006464
home,0.007012
howev,0.003985
huge,0.009132
hypothes,0.009764
idl,0.014343
imag,0.022684
implic,0.008556
import,0.004188
inaccuraci,0.016538
includ,0.006817
increas,0.004722
index,0.015602
individu,0.005065
industrygovern,0.024842
influenc,0.005408
inform,0.004881
inorgan,0.011481
instead,0.005751
instrument,0.022684
interact,0.006126
intern,0.004303
iron,0.008794
journal,0.006315
k,0.007444
key,0.012497
kirbi,0.017127
km,0.046208
knowledg,0.006176
known,0.004102
l,0.065046
la,0.008195
lac,0.017416
lalambda,0.024842
land,0.006213
languag,0.006170
larg,0.008653
larger,0.012960
lastli,0.014007
latitud,0.012453
launch,0.008268
leav,0.006952
level,0.058910
light,0.081219
like,0.004385
line,0.005875
link,0.017848
littl,0.006283
locat,0.012072
loggerhead,0.019379
lr,0.016768
lra,0.022153
lralambda,0.024842
lrlambda,0.024842
lt,0.015119
ltlambda,0.024842
lw,0.021830
lwlambda,0.024842
m,0.017613
maintain,0.011448
manag,0.005879
mani,0.018552
map,0.015019
marin,0.028192
match,0.017459
matlab,0.016205
matter,0.006175
maximum,0.008926
mean,0.004520
measur,0.021507
met,0.008394
metric,0.011024
mg,0.045048
microscop,0.010597
minim,0.008664
mission,0.032740
model,0.020453
molecul,0.017728
monitor,0.026632
monthli,0.011189
multipl,0.006313
n,0.014744
nanomet,0.015979
nasa,0.049575
ndvi,0.024842
necessari,0.006542
new,0.003666
newcomb,0.017739
nflh,0.024842
nimbu,0.020821
nm,0.053305
nonwaterleav,0.024842
normal,0.013086
number,0.008213
numer,0.018244
o,0.008656
obscur,0.011371
observ,0.021671
ocean,0.177396
oceancolor,0.074528
oceanograph,0.032816
ocv,0.023442
offer,0.006104
onethird,0.012473
onli,0.007557
oper,0.010357
optic,0.019750
orbit,0.010411
orbview,0.024054
order,0.013571
organ,0.008955
origin,0.004549
output,0.017136
outweigh,0.013938
overal,0.015026
p,0.006266
pacif,0.009514
page,0.008047
par,0.012596
paramet,0.047319
particul,0.029363
particularli,0.011513
partnership,0.010332
pattern,0.007003
pegasu,0.019929
percentag,0.009147
perform,0.005770
period,0.004877
photosynthesi,0.013090
photosynthet,0.015672
phytoplankton,0.154650
pic,0.018438
pigment,0.013755
pixel,0.015873
plant,0.007126
play,0.017780
plug,0.015227
poc,0.020618
polynomi,0.012523
posit,0.004865
possibl,0.009602
predict,0.006887
present,0.004706
primari,0.037282
primarili,0.006434
process,0.031150
produc,0.009795
product,0.053966
program,0.005921
progress,0.006415
project,0.011649
promot,0.006714
proper,0.008445
propos,0.005807
provid,0.020882
public,0.004740
pump,0.011839
purpos,0.006122
python,0.014820
quantifi,0.010577
quit,0.007955
r,0.056691
radi,0.015805
radianc,0.163669
radiat,0.009427
rang,0.016951
ratio,0.050936
rayleigh,0.015839
read,0.005185
recent,0.005169
reconstruct,0.009355
record,0.012585
red,0.016549
refer,0.002985
reflect,0.089819
region,0.026730
relat,0.016100
relationship,0.011397
remaind,0.011078
remot,0.020213
remov,0.020678
repres,0.004897
research,0.014529
resid,0.007909
resolut,0.009132
resolv,0.008671
respons,0.005177
result,0.004158
retriev,0.008869
return,0.006041
rmathsf,0.074528
rocket,0.012681
role,0.020919
roughli,0.008374
run,0.006560
s,0.004234
satellit,0.104161
satelliteborn,0.024842
scale,0.033785
scanner,0.015172
scatter,0.022049
scienc,0.005021
scientif,0.012014
scientist,0.020479
sea,0.015234
seabass,0.024842
seada,0.024842
season,0.009647
seastar,0.024054
seaview,0.024842
seawif,0.529190
select,0.006491
sens,0.006142
sensor,0.061872
septemb,0.014398
sequest,0.017127
seri,0.005947
sever,0.004331
shallow,0.025256
shipbas,0.022942
similar,0.004961
simpli,0.006779
sinc,0.008309
sink,0.012374
slightli,0.009004
slow,0.017155
small,0.005084
softwar,0.035210
sourc,0.005226
space,0.012811
spacetim,0.012681
spatial,0.038851
speak,0.007966
specif,0.019884
standard,0.011192
state,0.003635
stop,0.008208
storag,0.009887
substanti,0.007712
subsurfac,0.046640
suggest,0.005816
sun,0.018434
sunlight,0.025910
surfac,0.007523
t,0.028915
taken,0.006083
tempor,0.032845
term,0.003925
test,0.006792
therefor,0.011294
thi,0.031076
thomson,0.012907
thousand,0.007327
thu,0.004856
tilt,0.014820
time,0.018380
tlf,0.022942
tlflambda,0.024842
tlg,0.024842
tlglambda,0.024842
togeth,0.005729
ton,0.011265
total,0.005797
tradeoff,0.013395
train,0.007174
transfer,0.007109
transit,0.007233
trophic,0.047939
turtl,0.014383
typic,0.005574
uncertainti,0.009669
undertaken,0.010706
uniform,0.019266
unprocess,0.054318
uptak,0.015227
use,0.047528
user,0.018434
usual,0.004999
valid,0.015868
valu,0.010650
variabl,0.022785
varieti,0.012476
variou,0.004729
veget,0.009918
veri,0.009489
vicari,0.016451
view,0.005325
violet,0.017356
visibl,0.009183
visual,0.008766
w,0.006971
wa,0.030659
ware,0.014507
water,0.064090
waterleav,0.099371
wave,0.008378
wavelength,0.062929
way,0.004442
websit,0.054995
wherea,0.007209
whitecap,0.023442
wide,0.010702
work,0.020365
world,0.008424
year,0.008386
yield,0.008116
zone,0.017175
