academ,0.005079
accept,0.008514
access,0.004691
accompani,0.006555
accord,0.003390
accur,0.005777
achiev,0.008532
acquir,0.005523
activ,0.010151
address,0.005106
advanc,0.004188
aerial,0.009549
age,0.004246
agricultur,0.020161
agroecolog,0.012946
agrolog,0.015109
agronomi,0.012690
agronomist,0.013058
agrophys,0.026235
air,0.010418
allow,0.003372
alter,0.012165
america,0.009504
analysi,0.008175
anthropolog,0.007687
appar,0.005789
appear,0.003927
appli,0.010875
applic,0.008099
appreci,0.007524
arabl,0.010372
archaeolog,0.014521
archaeologist,0.009346
archeolog,0.009843
area,0.016840
associ,0.009937
asssi,0.016833
atmospher,0.013286
australian,0.007052
avenu,0.009810
base,0.005909
basi,0.004223
becom,0.003273
bedrock,0.025477
belief,0.005473
better,0.004610
biochemistri,0.008127
biodivers,0.008473
biogeochemistri,0.012339
biolog,0.014548
biologist,0.007650
bioremedi,0.013372
biosolid,0.016833
biospher,0.008524
blur,0.009520
board,0.005898
bodi,0.008206
borlaug,0.015280
borrow,0.006786
branch,0.013044
break,0.005636
british,0.004565
bsss,0.016833
capabl,0.010785
capita,0.007432
carbon,0.020023
centr,0.005630
central,0.003838
centuri,0.010549
certifi,0.008935
challeng,0.004892
chang,0.009262
characterist,0.018881
chemic,0.010429
chemist,0.007870
chemistri,0.030011
civil,0.004697
classic,0.004524
classif,0.054386
classifi,0.005539
climat,0.029238
color,0.006822
combin,0.003905
come,0.007834
common,0.003311
commonli,0.004548
commun,0.007162
compel,0.008559
complex,0.008015
compon,0.004716
concept,0.034401
conceptu,0.019777
concern,0.007690
congress,0.006137
conserv,0.016310
consid,0.009583
consult,0.006324
consumpt,0.006388
contain,0.003929
contamin,0.017477
content,0.005404
context,0.004818
continu,0.003318
contrari,0.007162
contribut,0.004020
control,0.003639
controversi,0.005397
corollari,0.010711
countri,0.003604
cover,0.004509
credit,0.005300
crisi,0.005652
critic,0.008058
critiqu,0.006958
crop,0.006771
crust,0.018244
cultiv,0.006995
cultur,0.004118
curios,0.009787
current,0.003506
curriculum,0.008484
daili,0.006406
damag,0.011822
data,0.004371
date,0.009155
dead,0.013733
decadetodecad,0.016833
definit,0.008662
degrad,0.015715
depart,0.009605
depend,0.003614
deriv,0.004164
descript,0.005007
deserv,0.009701
desir,0.010310
determin,0.003803
develop,0.010957
dictat,0.007833
differ,0.008711
disciplin,0.015141
discoveri,0.005130
distinct,0.012655
distinguish,0.009725
divers,0.015804
divis,0.004747
dokuchaev,0.042614
draw,0.011230
drawn,0.006464
dri,0.007174
dynam,0.005135
earli,0.006596
earth,0.041417
earthi,0.013828
ecolog,0.006214
ecologist,0.009599
ecosystem,0.014959
edapholog,0.053764
effect,0.003203
effort,0.027402
element,0.004194
empir,0.004601
encycloped,0.011231
energi,0.004616
engin,0.009504
enhanc,0.006108
environment,0.015905
equat,0.005484
eros,0.008892
especi,0.003829
essenti,0.004584
everi,0.004126
excit,0.008039
exist,0.003279
explor,0.015073
express,0.004272
extern,0.002578
face,0.004949
fact,0.004187
factor,0.008362
fall,0.004501
familiar,0.006977
fao,0.008971
fat,0.009030
fault,0.008858
feedback,0.008008
fertil,0.020737
fiber,0.008565
field,0.014405
flood,0.015570
food,0.015225
form,0.008086
format,0.014428
fresh,0.007920
function,0.021661
futur,0.004294
gase,0.007862
genesi,0.017744
geograph,0.011469
geographi,0.012981
geolog,0.020216
geologist,0.019041
geomicrobiolog,0.014423
geomorpholog,0.020716
geoscienc,0.010433
given,0.003536
graze,0.009901
greenhous,0.009799
grow,0.004521
ha,0.011756
habitat,0.008224
handbook,0.007136
health,0.004915
heavi,0.012188
heavili,0.005684
highlight,0.007260
histor,0.003961
histori,0.005874
horizon,0.008595
host,0.006448
hot,0.007765
howev,0.002861
html,0.011581
hydrogeolog,0.012421
hydrolog,0.018692
hydropedolog,0.016833
hydrospher,0.010591
identif,0.006945
identifi,0.008525
illustr,0.006013
includ,0.014687
incorpor,0.004842
increas,0.003390
inde,0.005995
indic,0.004337
individu,0.007274
influenc,0.015535
inform,0.014022
initi,0.007662
insight,0.013082
insofar,0.009766
institut,0.007462
integr,0.004255
interact,0.004399
interdisciplinari,0.007248
intern,0.012360
interpret,0.004704
ipss,0.016833
irrig,0.008914
isric,0.033667
iuss,0.016474
kind,0.004696
knowledg,0.013304
lab,0.015406
land,0.026771
landbas,0.011752
landscap,0.044107
landslid,0.010008
landus,0.012184
late,0.004081
laureat,0.009130
layer,0.006786
licens,0.007020
light,0.014580
lime,0.010542
limit,0.003600
link,0.002563
list,0.013112
live,0.011435
local,0.003992
long,0.003827
look,0.004867
main,0.003731
mainli,0.004893
maintain,0.004110
major,0.003127
manag,0.042218
mani,0.007993
manual,0.007445
manur,0.012379
map,0.026964
mar,0.008066
materi,0.008261
matter,0.004434
mechan,0.004353
method,0.003650
michigan,0.017014
microbi,0.009810
microbiolog,0.027730
microbiologist,0.011875
microbiot,0.016171
micromorpholog,0.016171
mineralog,0.010033
modern,0.007071
monitor,0.006374
moon,0.007676
morpholog,0.024227
multiform,0.013372
municip,0.007183
nation,0.009799
nativ,0.006092
natur,0.022028
need,0.003543
new,0.005266
nikiforoff,0.016833
nobel,0.006861
nomin,0.006152
norman,0.008305
nscss,0.016474
numer,0.004367
nutrient,0.025090
nutriti,0.012690
obviou,0.007445
occupi,0.005909
occur,0.003745
optimum,0.019575
organ,0.012861
outer,0.007531
outward,0.009075
past,0.004676
pattern,0.005029
pedogenesi,0.012738
pedolog,0.087548
pedometr,0.016171
pedospher,0.023688
pedotransf,0.033667
pedro,0.009454
perform,0.008287
persist,0.006683
perspect,0.005274
phenomena,0.005628
physic,0.034715
place,0.003333
plan,0.004464
planet,0.013376
plant,0.015353
popul,0.004194
popular,0.004217
popularli,0.008844
poros,0.013178
portion,0.005923
posit,0.003493
possibl,0.003447
potenti,0.004376
practic,0.007233
preemin,0.009799
preserv,0.011394
previou,0.005097
previous,0.005153
primari,0.004461
prior,0.005105
prize,0.006304
process,0.019173
product,0.014091
profess,0.007063
profession,0.016431
profil,0.007297
properti,0.016370
protect,0.004505
publish,0.007503
qualiti,0.025181
radioact,0.008295
radiometr,0.011752
rais,0.004985
reclam,0.011693
red,0.005942
refer,0.008574
refin,0.013449
regardless,0.006480
region,0.003838
relat,0.014452
reli,0.005165
relief,0.007643
remedi,0.008478
remot,0.007257
renew,0.006268
replac,0.004368
research,0.006955
resourc,0.026040
restor,0.006062
rock,0.026853
role,0.003755
roughli,0.006013
russian,0.012552
sampl,0.006388
sanchez,0.013512
sandi,0.010526
sanitarian,0.016833
scale,0.004852
scheme,0.006452
scienc,0.090138
scientif,0.004313
scientist,0.053923
sediment,0.009482
sens,0.004411
sensit,0.006904
separ,0.003916
septic,0.013916
sequest,0.012299
sequestr,0.025380
seri,0.004270
serv,0.004267
servic,0.008353
set,0.003320
share,0.004177
silvicultur,0.013372
simpli,0.004868
site,0.010051
situat,0.004593
skin,0.007566
societi,0.018690
soil,0.946413
soilcentr,0.016833
soildepend,0.016833
soilform,0.015109
soilscienceinfo,0.016833
sometim,0.003883
special,0.003731
specialist,0.007402
specif,0.007139
sphere,0.006676
sssa,0.029340
staff,0.007033
standard,0.004018
state,0.015663
stay,0.006530
steward,0.012147
stimul,0.006676
storm,0.008358
stormwat,0.014007
stratif,0.010591
stratigraphi,0.011693
strictli,0.007036
structur,0.006971
studi,0.022071
sub,0.010526
subdisciplin,0.008132
substrat,0.009060
support,0.014189
surfac,0.016206
survey,0.057349
sustain,0.011671
sylviculturist,0.016833
synonym,0.007445
tabl,0.005741
taxonomi,0.034333
tend,0.004899
term,0.008457
textur,0.020990
th,0.010263
thi,0.013389
tradit,0.003756
transform,0.009767
transport,0.005114
treat,0.005224
treatment,0.005488
turn,0.004124
type,0.007174
understand,0.024299
uniform,0.006917
union,0.004433
uniqu,0.015261
unit,0.006018
univers,0.009270
unstabl,0.007959
url,0.011940
usa,0.006660
usag,0.006257
usda,0.048738
use,0.021940
valu,0.003823
valuabl,0.014007
variou,0.006793
vasili,0.012260
veget,0.028489
veri,0.003407
vernacular,0.030943
view,0.007647
vitrif,0.015676
wast,0.028627
water,0.023011
watersh,0.009589
way,0.003190
wcss,0.016833
weather,0.007316
weigh,0.008406
wetland,0.031677
winner,0.008214
work,0.002924
world,0.015124
wrb,0.016833
yield,0.005828
