academ,0.011646
accord,0.007775
acknowledg,0.014994
address,0.011709
adequaci,0.026253
agenc,0.012232
agenda,0.018114
aid,0.011665
alik,0.020954
american,0.008810
analysi,0.009373
analyt,0.567071
andor,0.013607
androcentr,0.126840
angel,0.018647
angloamerican,0.023923
ani,0.006853
ann,0.054637
apa,0.048807
appear,0.009006
appli,0.033251
applic,0.018573
approach,0.062644
area,0.015446
arena,0.021492
argument,0.013064
assum,0.010772
attempt,0.026609
author,0.008755
autonomi,0.016248
background,0.013354
bailey,0.051615
base,0.006775
basi,0.019371
becaus,0.007058
best,0.020668
biolog,0.011120
bridg,0.030981
build,0.019843
california,0.014383
cambridg,0.012437
case,0.007851
categori,0.011982
central,0.008802
certain,0.008595
characterist,0.010824
clarifi,0.018939
clariti,0.022546
clear,0.023377
closer,0.015539
commun,0.008212
companion,0.018114
compar,0.009289
compel,0.019628
concept,0.078884
concern,0.017635
conclus,0.013994
consciou,0.018572
consequ,0.010680
consid,0.014649
consist,0.016812
construct,0.009726
contest,0.016525
context,0.011048
contrarian,0.030821
contrast,0.010609
contribut,0.009218
convent,0.012162
core,0.066690
counter,0.033966
craft,0.018893
creat,0.007682
creation,0.011432
criterion,0.018859
cudd,0.079217
date,0.010497
defin,0.017239
demonstr,0.011289
depreci,0.022444
desir,0.023642
differ,0.006658
disciplin,0.023147
discuss,0.010248
distress,0.020846
doctrin,0.015062
doctrinair,0.032572
dotson,0.037777
draw,0.012875
e,0.010178
earli,0.007563
editor,0.016097
educ,0.009633
effort,0.010472
elimin,0.013077
emot,0.015534
empow,0.021293
encyclopedia,0.013023
engag,0.011974
epistem,0.048060
epistemolog,0.017971
especi,0.008780
essenti,0.021023
establish,0.008070
ethic,0.069587
european,0.009418
examin,0.011835
exampl,0.013544
excerpt,0.020900
experi,0.027896
extens,0.010211
extern,0.005912
femin,0.451452
feminin,0.024212
feminist,0.436073
field,0.033032
fordham,0.030663
form,0.012361
formal,0.010118
fricker,0.113332
gari,0.020173
garri,0.056966
goal,0.011122
good,0.008990
gynocentr,0.039608
ha,0.010783
hankinson,0.040907
histor,0.009083
histori,0.013469
hold,0.029219
hornsbi,0.072957
hypatia,0.031517
idea,0.009075
ignor,0.014025
import,0.006896
inclin,0.020008
includ,0.016839
inclus,0.016656
inde,0.013748
inequ,0.017013
influenc,0.008906
inher,0.015496
injustic,0.023522
inquiri,0.016128
insight,0.014999
insist,0.016498
instead,0.009471
institut,0.008556
intersection,0.035471
irredeem,0.033074
issu,0.060737
jennif,0.024482
june,0.011780
justic,0.013665
kansa,0.023889
key,0.010289
kind,0.010770
kristi,0.038600
languag,0.010161
law,0.016287
lesbian,0.027611
liber,0.012188
like,0.014441
limit,0.016511
line,0.009675
linguist,0.015891
link,0.005878
literatur,0.012077
lo,0.018540
logic,0.039250
lowel,0.027305
lynn,0.022867
magazin,0.015650
mainstream,0.032809
maintain,0.009425
major,0.007171
make,0.006873
malebias,0.037081
malpractic,0.027940
massachusett,0.017725
mean,0.014888
men,0.037603
metaphys,0.051883
method,0.033486
miranda,0.057561
mirror,0.018252
modern,0.008107
necessari,0.010772
need,0.008125
nelson,0.020424
neutral,0.014795
new,0.006037
newslett,0.024212
norm,0.047035
notion,0.025577
object,0.018480
onli,0.024888
open,0.009253
opportun,0.012767
oppress,0.019935
otherwis,0.012857
paper,0.011153
particularli,0.018959
permit,0.013767
perspect,0.012095
pervert,0.031910
philosoph,0.177967
philosophi,0.230165
polit,0.008483
posit,0.032043
possess,0.012146
postmodern,0.020900
poststructur,0.025702
practic,0.008293
precis,0.012767
prenat,0.028483
preval,0.017066
principl,0.009304
privileg,0.017690
promin,0.012154
propos,0.009563
publish,0.008603
pursu,0.014096
rang,0.027913
ration,0.013358
reach,0.009990
reason,0.017645
recogn,0.010540
recognis,0.015177
reconstruct,0.046214
refer,0.004915
reflect,0.010564
regard,0.028293
rehabilit,0.021196
repositori,0.023153
respect,0.009348
retain,0.012927
rethink,0.023427
review,0.011014
rigor,0.016552
s,0.006972
said,0.010100
say,0.010650
scholar,0.037452
school,0.010001
scienc,0.008267
scientist,0.011241
sexism,0.083821
share,0.009579
simultan,0.028674
situat,0.010533
social,0.026109
societi,0.008571
sociolog,0.016210
sometim,0.008906
somewhat,0.029007
special,0.008556
specif,0.008185
spirit,0.015458
stanford,0.015891
state,0.005986
structur,0.007993
studi,0.007230
subcategori,0.023395
tend,0.011234
tenet,0.020143
term,0.006464
theori,0.032076
thi,0.030703
thing,0.010886
thought,0.009696
tie,0.013344
topic,0.010854
tradit,0.077535
train,0.011813
truth,0.029112
type,0.008225
typic,0.009178
univers,0.042514
unrecogn,0.027380
usabl,0.020990
use,0.033541
valu,0.008768
varieti,0.020544
wa,0.011219
washington,0.015062
way,0.014630
wherea,0.011871
wide,0.008811
women,0.078122
word,0.009496
work,0.053656
