abov,0.008112
abstract,0.005575
accept,0.003977
accordingli,0.007130
accredit,0.008025
achaemenid,0.010980
acharya,0.012255
acknowledg,0.006109
action,0.003892
activ,0.003161
ad,0.004043
adopt,0.004372
adurbad,0.015392
adurfarnbag,0.016138
advis,0.006404
advoc,0.027192
aenesidemu,0.014862
aesthet,0.007684
age,0.023806
agrarian,0.034360
agrippa,0.012558
ahimsa,0.011856
akiva,0.014452
alcin,0.015108
alcmaeon,0.012624
alexand,0.006070
alexandria,0.017272
allianc,0.005925
ammo,0.013969
ammoniu,0.012841
amo,0.010024
anacharsi,0.015392
anaxagora,0.011186
anaximand,0.011282
anaximen,0.011948
ancient,0.068855
angira,0.016138
ani,0.005584
anoth,0.003047
antiochu,0.013271
antiphon,0.013271
antisthen,0.013833
aphrodisia,0.012919
apollonia,0.013587
arab,0.005851
arcesilau,0.013706
archimed,0.009374
archyta,0.013271
aristippu,0.013271
aristotl,0.006531
aros,0.012583
arriv,0.005100
arthashastra,0.011008
articl,0.003765
aruni,0.015392
asanga,0.013969
ascalon,0.013706
ascrib,0.008368
ashtadhyayi,0.015392
ashtavakra,0.029725
ashvapati,0.016138
asian,0.012071
ask,0.010474
assum,0.004389
assumpt,0.005397
assyrian,0.009927
atharva,0.013706
atheist,0.008644
atom,0.005540
atomist,0.010024
atri,0.016138
attribut,0.004925
augustin,0.008508
aureliu,0.011155
auster,0.008987
author,0.053508
autumn,0.008430
avesta,0.038524
avestan,0.012841
avoid,0.004732
axial,0.020015
badarayana,0.014862
bakhtshooa,0.016138
bamboo,0.009761
bardesan,0.016667
base,0.002760
battl,0.005983
bce,0.750148
becam,0.003491
becaus,0.002875
bef,0.014646
befor,0.009788
begin,0.018625
believ,0.015804
ben,0.024511
bharadwaja,0.016138
bhartrihari,0.014862
bi,0.017918
bin,0.017615
bloodi,0.008968
bloomsburi,0.022631
bodhidharma,0.014276
boethiu,0.011349
book,0.010892
borzouy,0.016138
brahma,0.011250
brhaspatyastra,0.016138
broad,0.005131
buddha,0.017918
buddhism,0.046676
buddhist,0.023052
buhai,0.014646
buwei,0.016667
c,0.124307
callicl,0.016138
came,0.004183
capac,0.005303
cardin,0.008388
carnead,0.013087
causal,0.007123
ce,0.280429
centuri,0.137993
chan,0.009820
chanakya,0.011125
chanda,0.013833
chao,0.007404
charact,0.005287
character,0.009705
charter,0.006883
chiefli,0.008295
china,0.029494
chines,0.043999
chio,0.012558
chit,0.013587
chndogya,0.031455
christian,0.014875
chrysippu,0.012841
chunqiu,0.014646
cicero,0.009532
cilicia,0.012841
citium,0.012493
classic,0.012682
cleanth,0.013706
clement,0.009186
clitomachu,0.015392
cognit,0.018199
collect,0.003732
come,0.003659
common,0.006188
commun,0.006692
compass,0.008244
concept,0.010713
conclud,0.005233
condemn,0.007207
confucian,0.083753
confucianist,0.012493
confuciu,0.030931
conscious,0.013037
consid,0.011937
consider,0.004300
construct,0.003962
consult,0.005909
contamin,0.008164
contemporan,0.009532
continu,0.003100
contrast,0.004322
cooper,0.004891
cosmic,0.007828
cosmo,0.008659
countri,0.006735
creation,0.013974
critia,0.014452
croton,0.013001
crvka,0.024624
cultiv,0.013072
cultur,0.011543
cylind,0.009519
cynic,0.010430
cyru,0.023056
damasciu,0.014276
dao,0.012095
daoism,0.011726
daol,0.014862
daosheng,0.016138
dawn,0.008099
day,0.003861
deal,0.008245
debat,0.009528
decis,0.004314
defin,0.003512
definit,0.004046
democritu,0.009705
deng,0.011218
denkard,0.014452
denomin,0.007624
denounc,0.008289
depend,0.003376
determin,0.003553
deuteroisaiah,0.015392
develop,0.012796
dialectician,0.013969
did,0.003798
die,0.014710
differ,0.008138
dignga,0.012493
diogen,0.023289
diplomaci,0.025839
diplomat,0.006079
direct,0.003398
disciplin,0.004715
discours,0.007007
discuss,0.012527
dissent,0.008715
divers,0.004922
divin,0.006806
divkara,0.015727
doctrin,0.012274
doe,0.006925
domin,0.004211
dong,0.011605
dualism,0.017808
dure,0.008837
dynasti,0.033272
earli,0.024652
earlier,0.004552
earliest,0.005149
east,0.009474
eastern,0.005113
eclectic,0.012370
egalitarian,0.009470
elder,0.015142
elea,0.012370
eleat,0.013706
element,0.011755
eliez,0.012312
els,0.012689
emedan,0.016138
empedocl,0.010770
emperor,0.013590
emphas,0.005407
emphasi,0.005588
empir,0.017196
empiric,0.008341
empiricu,0.012045
employ,0.004086
encourag,0.005064
end,0.010105
endeavour,0.008895
enforc,0.005776
engag,0.004879
epictetu,0.012312
epicurean,0.010472
epicuru,0.010329
epistemolog,0.007322
equal,0.004195
era,0.014603
especi,0.003577
essenc,0.020879
euclid,0.009386
everyon,0.021340
evolut,0.005002
exalt,0.010409
exil,0.014073
exist,0.003063
expans,0.005198
experi,0.003788
experienc,0.005531
expon,0.017481
exposit,0.008444
expound,0.009155
express,0.003991
extant,0.008152
extern,0.002409
extravag,0.010369
ezekiel,0.012312
famili,0.004266
famou,0.005089
far,0.004177
farroxzadan,0.016138
fashion,0.006484
fatalist,0.013271
featur,0.004166
fei,0.012147
feng,0.011528
field,0.003364
figur,0.013688
flaw,0.007854
flourish,0.006780
flow,0.004851
focus,0.012866
folk,0.007964
follow,0.005270
forc,0.003302
foresaw,0.011726
form,0.005036
founder,0.051971
fraught,0.011491
freeli,0.007165
frugal,0.011125
fundament,0.004218
fusion,0.007679
gain,0.004008
gatha,0.026741
gautama,0.021393
gave,0.004794
ge,0.009896
gener,0.002367
genuin,0.007642
gita,0.011685
godlik,0.011901
golden,0.013351
gondishapuri,0.016138
gongsun,0.026952
good,0.003662
gorgia,0.012766
gotama,0.014116
govern,0.003132
grammarian,0.011125
great,0.007426
greatest,0.011595
greatli,0.005395
greek,0.018661
gritsamada,0.016138
group,0.002971
grove,0.009558
guiguzi,0.016667
gundishapur,0.013969
guo,0.022436
guru,0.009835
habbakuk,0.016667
haggai,0.014276
half,0.004535
han,0.026336
hanshu,0.014862
harmoni,0.007684
health,0.004592
hear,0.006947
heaven,0.023670
heavili,0.005311
hellenist,0.025125
heraclitu,0.010493
hero,0.007813
hi,0.011816
highest,0.005045
hillel,0.012312
hinayana,0.013476
hindu,0.015276
hippia,0.013271
hippo,0.010040
histori,0.002744
hold,0.003968
hong,0.007702
horizont,0.007597
hosea,0.013833
howev,0.002673
hui,0.011095
human,0.028567
humil,0.011644
hundr,0.010011
hymn,0.009733
iamblichu,0.013271
idea,0.018488
imagin,0.006586
imit,0.007794
impact,0.004515
imperi,0.006418
implement,0.004586
implic,0.005740
import,0.008429
impos,0.005665
improv,0.004054
impuls,0.008444
inact,0.008590
includ,0.004574
incorrig,0.013370
index,0.005233
india,0.005044
indian,0.054537
indiana,0.008321
indic,0.004052
indiffer,0.009104
individu,0.003398
indoiranian,0.012624
influenc,0.014514
influenti,0.015896
inquiri,0.013142
insight,0.006111
instanc,0.004461
instead,0.007717
instinct,0.008715
integr,0.011927
intellectu,0.011304
intend,0.005100
intens,0.005471
intent,0.005544
intern,0.002887
introduct,0.008735
iranian,0.033234
isbn,0.003894
islam,0.010968
itiner,0.011349
jaimini,0.015392
jain,0.061407
jaina,0.012312
jainism,0.049955
jamadagni,0.016138
jamasp,0.015108
jame,0.004646
japan,0.010896
jasper,0.011155
jeremiah,0.011605
jewel,0.009974
jewish,0.013659
jnana,0.012919
joel,0.009623
john,0.003747
jue,0.015108
kanada,0.012431
kanva,0.014862
kapila,0.014646
karl,0.006196
karma,0.019792
kasyapa,0.014862
khosrau,0.013370
king,0.010494
know,0.004991
knowledg,0.008287
known,0.008257
knowsor,0.015727
koheleth,0.016667
korea,0.006649
kui,0.013969
kundakunda,0.014646
l,0.004848
laid,0.006217
lampsacu,0.013969
languag,0.012420
laozi,0.024295
larissa,0.013476
late,0.003813
later,0.013103
law,0.009954
lead,0.003286
leader,0.004816
learn,0.004627
legal,0.018180
legalist,0.011491
leucippu,0.011037
li,0.025612
life,0.003540
lifestyl,0.007844
like,0.005883
linguist,0.006475
link,0.004789
list,0.006125
lit,0.009175
literatur,0.014762
liu,0.009623
live,0.003561
lobbi,0.008465
local,0.003730
logic,0.021323
logician,0.039047
lokyata,0.014116
london,0.004637
long,0.003576
longev,0.009865
longzi,0.014646
love,0.013077
lshi,0.014646
lucht,0.015727
lucretiu,0.010493
lycophron,0.015727
madhyamaka,0.012312
mahabharata,0.021640
mahavira,0.011644
mahayana,0.010108
mahyna,0.012431
main,0.013946
maintain,0.003840
major,0.005843
malachi,0.013271
man,0.009745
mani,0.009957
manicha,0.011856
marcu,0.008707
mardanfarrux,0.032276
mark,0.008843
martial,0.008868
materialist,0.017808
matter,0.008285
mayb,0.009974
mazdak,0.039531
mediev,0.005874
megara,0.013001
melissu,0.014116
menciu,0.012624
menippu,0.015108
mention,0.010664
merit,0.007859
method,0.003410
metrodoru,0.045325
mi,0.006944
micah,0.014276
middl,0.018163
milesian,0.013087
miletu,0.010216
militari,0.008910
millennium,0.013748
mimamsa,0.050499
mind,0.010387
ming,0.009433
minortalk,0.016667
miscellan,0.009570
model,0.003430
moder,0.006309
mohism,0.023370
mohist,0.011186
moksa,0.013706
monk,0.008146
moral,0.016529
mortal,0.007361
movement,0.003797
mozi,0.035179
mundaka,0.015392
music,0.006052
musoniu,0.015727
mysteri,0.007269
mystic,0.008122
nagarjuna,0.011856
nahum,0.013833
narayana,0.011948
nasadiya,0.013370
natur,0.026461
naturalist,0.007502
naya,0.013833
nd,0.035869
ndrd,0.016667
necessari,0.004389
neoplaton,0.009583
neopythagorean,0.012919
neotaoism,0.029292
new,0.002460
nong,0.013271
normal,0.004389
northern,0.005148
notabl,0.004226
notb,0.015108
nyaya,0.011125
nyyvatra,0.016138
obadiah,0.013587
object,0.003764
offici,0.012543
ohrmazddadan,0.032276
old,0.013670
older,0.005779
onli,0.002535
ontolog,0.015090
orat,0.010369
order,0.006069
origin,0.018312
ostan,0.014452
ought,0.007905
pacstikyasra,0.016138
page,0.005399
pahlavi,0.011996
parallel,0.005706
parashara,0.016138
parmenid,0.010430
particular,0.003447
particularli,0.003862
passag,0.006561
passiv,0.007588
patajali,0.013001
path,0.005584
paul,0.004787
peac,0.005311
peasant,0.007679
peculiar,0.008574
peopl,0.009109
perceiv,0.005538
percept,0.005862
perfect,0.012306
period,0.022906
peripatet,0.011349
persian,0.020758
person,0.003603
pessimist,0.010234
phenomena,0.005258
pherecyd,0.014452
philo,0.022074
philolau,0.013706
philoponu,0.012045
philosoph,0.101515
philosophi,0.211002
pingala,0.013476
pini,0.012095
place,0.003114
plato,0.007255
platon,0.008790
plotinu,0.011125
pluralist,0.009433
plutarch,0.010581
poet,0.007615
polit,0.010369
porphyri,0.011685
portion,0.005534
portray,0.007168
posidoniu,0.012919
posit,0.003263
practic,0.010136
prakrit,0.012431
prakriti,0.013476
pravacanasra,0.016138
premanichaean,0.016667
present,0.003157
preserv,0.005323
presocrat,0.009636
primev,0.012255
primit,0.006988
principl,0.003791
probabl,0.004531
proclu,0.012312
prodicu,0.012766
professor,0.005644
profoundli,0.009144
project,0.003907
promot,0.004505
propon,0.006617
prosper,0.006528
protagora,0.011491
protoisaiah,0.016667
prowess,0.010696
publish,0.003505
pura,0.013087
purana,0.011125
purg,0.008833
purusha,0.026354
purva,0.027175
pyrrho,0.013370
pyrrhon,0.013476
pythagora,0.009545
pythagorean,0.009494
qin,0.030172
qualiti,0.004705
quash,0.011812
question,0.015863
rabbi,0.010493
raja,0.021692
rang,0.003791
rd,0.039585
reach,0.004070
read,0.003478
refer,0.002002
refin,0.006283
reflect,0.004304
refut,0.007911
regard,0.007685
relat,0.005401
relationship,0.003823
reliabl,0.005988
religi,0.010232
religion,0.005101
remain,0.003312
ren,0.007849
renunci,0.010872
result,0.002789
rig,0.018702
right,0.003594
rigved,0.013706
rise,0.008060
rishaba,0.016138
rishi,0.053904
ritual,0.007469
rival,0.006617
role,0.003508
roman,0.026862
romant,0.008522
roughli,0.005618
rta,0.013001
rufu,0.011419
rule,0.003656
ruler,0.013384
sacca,0.013271
sage,0.047373
said,0.004115
sake,0.008368
samayasra,0.015392
samkhya,0.023210
samo,0.010493
samsara,0.022074
sandilya,0.016138
sanmatistra,0.016138
sanskrit,0.024887
sattva,0.014646
saw,0.004901
say,0.004339
scholar,0.015259
school,0.199674
scienc,0.003368
scriptur,0.016117
second,0.003287
sect,0.041943
seek,0.008988
seen,0.003929
seer,0.023992
select,0.008710
selfconsci,0.010024
selfcreat,0.013001
selfcultiv,0.015108
selfish,0.009386
seneca,0.010795
sengzhao,0.014452
sensori,0.007764
seri,0.003990
seven,0.015768
sever,0.002905
sextii,0.015727
sextu,0.011685
shaivism,0.011812
shang,0.011095
share,0.003902
shastra,0.012200
shen,0.029924
shi,0.009558
shikandguman,0.016667
shimon,0.012431
shvetashvatara,0.015108
si,0.008765
siddhasena,0.014646
sight,0.007432
simpli,0.004548
simpliciu,0.012766
sinop,0.012624
sira,0.014452
skeptic,0.007341
skill,0.005369
social,0.007092
societi,0.010477
socrat,0.008605
song,0.007392
sophism,0.013001
sophist,0.012826
sort,0.011693
soul,0.007197
sourc,0.003506
southern,0.005173
speusippu,0.013271
sphere,0.006238
spirit,0.006298
spiritu,0.006422
spread,0.009854
spring,0.006287
sramana,0.050777
st,0.013480
standpoint,0.008877
start,0.003528
state,0.007317
stilpo,0.014862
stoicism,0.010696
strategi,0.005192
stratonicea,0.016667
street,0.006360
stress,0.011432
strict,0.006477
strong,0.004050
stronger,0.006711
structur,0.003256
studi,0.005891
su,0.017134
subsequ,0.004350
success,0.003696
suffer,0.005087
sui,0.010197
sukta,0.025839
sun,0.012367
sunzi,0.027175
survey,0.005358
sutra,0.029550
synthes,0.007244
syro,0.014862
systemat,0.015976
tactic,0.007412
tactician,0.014646
taken,0.004081
takshashila,0.013370
tama,0.012493
tang,0.009006
tansar,0.014862
tao,0.020015
taoism,0.028597
taoist,0.041558
tattvrthastra,0.015727
taught,0.006214
teach,0.016381
teachabl,0.014116
templ,0.014737
tenet,0.008207
term,0.005267
text,0.014425
textual,0.008757
th,0.086299
thale,0.009294
themistiu,0.015108
theophrastu,0.009805
theori,0.013069
thereof,0.008567
thi,0.027104
thing,0.004435
thinker,0.013477
thought,0.086913
thrasymachu,0.014116
thth,0.018611
time,0.004932
timon,0.014452
tirthankara,0.012694
tradit,0.014040
treatis,0.006724
tri,0.004387
tritoisaiah,0.016667
uddalaka,0.016138
umasvami,0.014862
umsvti,0.015727
underli,0.005293
understood,0.005231
uniqu,0.004752
univers,0.020209
upaniad,0.030217
upanishad,0.041889
uphold,0.009165
use,0.002277
usher,0.017075
utopian,0.009691
uttara,0.013706
vaisheshika,0.023056
vaishvanara,0.016138
valu,0.003572
variou,0.009520
vasishtha,0.016138
vasubandhu,0.012558
veda,0.056674
vedanta,0.010389
vedic,0.066727
vertic,0.007211
vichar,0.015727
vidya,0.013706
vietnam,0.007554
view,0.007145
virtu,0.007063
viswamitra,0.016138
viu,0.013969
vyasa,0.013969
wa,0.043425
wang,0.018051
war,0.011879
way,0.002980
wei,0.010536
welfar,0.006420
went,0.005112
western,0.004193
whenc,0.010720
wherea,0.004837
wind,0.006622
wizidagh,0.016667
work,0.013663
world,0.002826
worldview,0.008552
write,0.004358
writer,0.005721
written,0.008826
wrote,0.004749
wu,0.009457
wume,0.016138
xenocr,0.013087
xenophan,0.012200
xi,0.008590
xiang,0.051066
xing,0.023370
xiu,0.025388
xu,0.010515
xuanxu,0.014646
xun,0.012766
yajnavalkya,0.014116
yan,0.022631
yang,0.009197
yeshua,0.014862
yi,0.031229
yiji,0.016667
yinyang,0.025116
yoga,0.030538
yogacara,0.024986
younger,0.006925
yu,0.010108
yue,0.012312
zarathustra,0.038524
zechariah,0.013587
zen,0.020115
zeno,0.021253
zephaniah,0.014646
zhang,0.028373
zhongshu,0.027175
zhuangzi,0.011566
zi,0.011856
zoroastrian,0.039222
zou,0.026952
ztspram,0.033334
zurvan,0.052349
