absolut,0.027904
academ,0.008213
accept,0.020654
account,0.006458
achiev,0.006898
actual,0.014036
ad,0.006998
addit,0.016643
adequ,0.011504
adopt,0.015134
alway,0.007374
analyt,0.019995
ani,0.019331
anoth,0.021097
answer,0.009764
anthropolog,0.037297
anyth,0.010837
appear,0.012703
appli,0.011724
approach,0.018933
arbitrari,0.035524
arbitrarili,0.015142
arent,0.034474
argu,0.065655
argument,0.064492
ask,0.045326
associ,0.005356
assum,0.007596
assumpt,0.037371
attempt,0.018765
avail,0.006703
avoid,0.008190
axiomat,0.015100
basi,0.006830
bayesian,0.030489
bearer,0.017845
becaus,0.004977
becom,0.005293
beg,0.017293
belief,0.221283
believ,0.006838
belong,0.009342
bertrand,0.014403
bestknown,0.014415
bibliographi,0.009616
bird,0.033862
blob,0.021411
bodi,0.006635
bonjour,0.024179
book,0.006284
boven,0.023517
broad,0.008881
build,0.006997
carri,0.007139
case,0.005537
categor,0.011257
catherin,0.015775
certain,0.012122
character,0.025198
check,0.011481
circumv,0.032911
claim,0.013445
closer,0.010958
coher,0.354025
coherent,0.480738
coherentist,0.359148
complet,0.018352
compon,0.015255
comprehens,0.009756
concept,0.012362
concern,0.012436
conclud,0.009058
condit,0.018592
conjunct,0.012377
consid,0.015496
consist,0.017785
constitut,0.006993
construct,0.006859
contain,0.006354
contemporari,0.008664
contend,0.025535
content,0.026219
context,0.007791
contradict,0.011831
contradictori,0.015638
contrari,0.011582
contribut,0.006501
convers,0.009138
correl,0.010324
correspond,0.032163
coten,0.057697
counterfactu,0.019309
creat,0.005417
criteria,0.033277
critic,0.006515
david,0.007868
debat,0.008246
decid,0.008632
deem,0.011987
defend,0.019821
defens,0.009722
definit,0.021011
degre,0.021761
deni,0.010268
denial,0.015289
descart,0.013861
determin,0.012302
develop,0.013289
differ,0.018782
difficulti,0.009566
disbelief,0.018772
disjunct,0.019054
distinct,0.006822
distinguish,0.007863
diverg,0.023942
divid,0.007023
doe,0.023973
dogmat,0.116117
dure,0.005098
effect,0.010361
elgin,0.022503
els,0.010981
emerg,0.006834
empiric,0.014437
empiricist,0.017209
encyclopedia,0.018368
ensur,0.008761
entail,0.012444
entir,0.006917
entri,0.010315
epistem,0.067785
epistemolog,0.088718
epistemologist,0.020019
equal,0.007262
erik,0.016030
establish,0.011382
everi,0.006673
exampl,0.019104
excess,0.010305
exist,0.010605
experi,0.006557
explain,0.028715
explan,0.037549
explic,0.017496
express,0.013818
extend,0.007034
extern,0.004169
face,0.008004
fall,0.014558
fals,0.032446
famou,0.008809
fault,0.014325
final,0.006897
finit,0.011028
flat,0.012196
follow,0.004561
form,0.047946
formal,0.014271
formul,0.009131
forrai,0.028848
forth,0.011592
foundat,0.022308
foundation,0.202251
foundationalist,0.045304
foundherent,0.025725
framework,0.024509
fulfil,0.011531
function,0.005838
fundament,0.007302
gabor,0.021025
gener,0.012292
generalist,0.018237
given,0.022877
goe,0.010262
greater,0.014364
group,0.010287
ha,0.011407
happen,0.009012
harold,0.013683
hartmann,0.019153
help,0.006242
henri,0.009191
hi,0.015338
histori,0.004749
hoc,0.015955
hold,0.020605
holist,0.014651
howev,0.009255
hypothet,0.012822
ideal,0.009278
illustr,0.009724
impli,0.008865
implic,0.009935
imposs,0.028925
includ,0.007917
incoher,0.072213
inconsist,0.013251
individu,0.011763
inferenti,0.020086
infin,0.014907
infinit,0.055829
insignific,0.016499
insist,0.023269
instanc,0.007722
integr,0.006881
intern,0.014991
internet,0.009354
interpret,0.015215
intuit,0.024404
involv,0.011056
issu,0.006119
j,0.007161
joachim,0.017913
judg,0.010530
justif,0.266481
justifi,0.103208
k,0.008645
keith,0.014347
know,0.008639
knowledg,0.043030
lack,0.014539
laurenc,0.017466
lead,0.005688
lehrer,0.023943
lewi,0.011966
lie,0.009340
light,0.007859
limit,0.005822
line,0.013646
link,0.008290
littl,0.007296
live,0.006164
local,0.006456
logic,0.046133
long,0.006189
loop,0.065638
luc,0.020155
maintain,0.013294
make,0.029085
mani,0.008617
materi,0.006680
mathemat,0.007493
matter,0.007170
mean,0.015749
meant,0.048887
meet,0.007712
member,0.006082
mere,0.018755
metaphor,0.053624
metaphys,0.024392
minimum,0.010398
model,0.017813
modern,0.005717
moral,0.009536
mutual,0.010055
natur,0.005089
necessari,0.022790
need,0.011461
negat,0.015171
network,0.007969
nichola,0.012822
noncontradictionthat,0.028848
noncontradictori,0.026641
nondogmat,0.026641
nonent,0.026641
noninferenti,0.023943
nonlinear,0.013059
nonproblemat,0.028848
normal,0.015196
noth,0.010087
notion,0.009018
number,0.009537
object,0.032582
objectiv,0.020086
observ,0.012582
occam,0.036628
offer,0.014176
offshoot,0.016946
olsson,0.024179
onli,0.035104
oppos,0.007966
otherwis,0.018134
outcom,0.009745
outlin,0.009278
overli,0.015259
oxford,0.008956
p,0.101875
paradox,0.012190
pattern,0.008133
peopl,0.010511
perhap,0.008861
phenomena,0.036406
phenomenon,0.009817
philosoph,0.025101
philosophi,0.024347
plagu,0.013729
plural,0.012259
point,0.016588
popul,0.013564
popular,0.006819
pose,0.023222
posit,0.011298
possibl,0.005575
predic,0.015085
prefer,0.016740
premis,0.012822
primari,0.007215
primarili,0.014943
principl,0.013123
prior,0.008256
privileg,0.012475
probabl,0.007843
problem,0.046768
process,0.020670
produc,0.005687
project,0.006763
proof,0.055726
prooftheoret,0.090608
properli,0.011494
properti,0.006618
proposit,0.037690
provabl,0.018473
prove,0.008436
provid,0.019399
pure,0.008643
purpos,0.014220
qualifi,0.022989
question,0.020593
rain,0.013880
rais,0.024187
ration,0.009420
rationalist,0.015810
razor,0.034203
reach,0.014090
real,0.043172
realism,0.013524
realiti,0.009429
realli,0.033460
reason,0.043553
recent,0.006003
reduc,0.006567
refer,0.010399
regardless,0.020960
regress,0.082049
rel,0.006215
relat,0.014022
relationship,0.013234
relativ,0.068092
relativist,0.042941
reli,0.025060
relianc,0.013899
remain,0.011466
repair,0.012341
replac,0.007064
requir,0.016372
rescher,0.022096
resolv,0.010069
respond,0.009349
respons,0.012025
rest,0.008122
restrict,0.008034
result,0.019316
ridicul,0.016266
right,0.006221
risk,0.008530
russel,0.024302
said,0.014245
sampl,0.010330
satisfactori,0.015775
say,0.007510
scenario,0.012557
sea,0.008845
seaworthi,0.025725
second,0.005689
select,0.007538
selfevid,0.018089
selfjustifi,0.050700
sens,0.007133
sentenc,0.023703
separ,0.006333
seri,0.041437
serv,0.006900
set,0.064442
sever,0.010059
ship,0.009836
significantli,0.008897
similarli,0.009140
sinc,0.004824
small,0.005903
sole,0.009793
solut,0.008254
solv,0.008879
someon,0.033811
someth,0.018552
sometim,0.025123
sound,0.010158
specif,0.011545
specifi,0.009809
spinoza,0.016499
stanford,0.011207
statement,0.132859
statist,0.007915
stephen,0.010717
stowaway,0.022807
stress,0.009893
stronger,0.011615
structur,0.011274
suffici,0.008919
suggest,0.006754
support,0.011472
supposesin,0.028848
taken,0.021193
tend,0.007922
term,0.022795
termin,0.011304
terminolog,0.011360
theoret,0.007910
theori,0.180968
therefor,0.032788
thesi,0.011939
thi,0.068566
thing,0.007677
think,0.016734
thu,0.028199
time,0.004268
togeth,0.006653
total,0.006731
tradit,0.012150
tree,0.029815
trivial,0.014403
true,0.070306
truth,0.225833
truthstat,0.028848
truththeoret,0.057697
truthvalu,0.021411
turn,0.013340
type,0.005800
typic,0.012945
ultim,0.016689
understand,0.013098
univers,0.049970
unless,0.032435
unlik,0.008034
unrel,0.027589
use,0.023653
usual,0.023224
valid,0.009213
valu,0.024735
variat,0.018088
varieti,0.007244
variou,0.005492
verifi,0.012196
view,0.024735
virtual,0.019083
vocabulari,0.014426
wa,0.007911
way,0.036111
wide,0.006214
word,0.006697
work,0.004729
world,0.014674
