aaron,0.009781
abil,0.004430
abl,0.008135
abov,0.016491
absenc,0.011840
absolut,0.043698
absurd,0.009253
acceler,0.006193
accept,0.008086
accomplish,0.006472
accord,0.019321
account,0.007585
accumul,0.006177
accur,0.016459
accuraci,0.034920
achiev,0.012153
acquir,0.005245
act,0.018403
action,0.047482
actual,0.016486
ad,0.004109
adequ,0.027023
advanc,0.011932
afterconstruct,0.016941
agent,0.010981
aggress,0.007175
ago,0.006240
agreement,0.004915
aim,0.004598
albeit,0.008140
albert,0.026180
alexand,0.006170
allencompass,0.010998
allow,0.012809
alon,0.005507
alpha,0.007454
alreadi,0.014074
alter,0.005776
alway,0.012991
american,0.003648
analog,0.011508
ancient,0.004665
ani,0.036896
anim,0.004507
announc,0.005407
anoth,0.015486
answer,0.005734
anteced,0.027640
anyth,0.006364
aphrodisia,0.013132
apparatu,0.016029
appear,0.022380
appli,0.003442
applic,0.007691
approach,0.003706
approxim,0.004388
arbitrari,0.006954
arbitrarili,0.008892
argu,0.059976
argument,0.043284
aris,0.005253
aristotelian,0.008354
arriv,0.020736
arthur,0.006569
articul,0.007777
artifici,0.005438
aspect,0.012697
assert,0.011064
associ,0.006291
assum,0.022306
asymptot,0.009436
atom,0.039417
attain,0.006518
attempt,0.003673
attribut,0.010012
augment,0.008292
aureliu,0.011339
author,0.003625
avail,0.003936
averag,0.004810
avoid,0.004810
axtel,0.016941
b,0.012796
bad,0.006606
ball,0.015905
bang,0.008678
baron,0.008568
baruch,0.009864
base,0.019642
basic,0.003906
becaus,0.032153
becom,0.012433
befor,0.013265
begin,0.011358
beginn,0.010328
behav,0.006906
behavior,0.040994
behaviour,0.023947
behaviouri,0.016941
belief,0.020791
believ,0.024097
bell,0.007518
best,0.008559
better,0.004378
bf,0.010947
bibliographi,0.005647
big,0.005879
billiard,0.024289
billion,0.005515
biolog,0.018421
biologist,0.007265
block,0.011568
bluray,0.012698
boardgam,0.016941
bodi,0.003896
bohm,0.011919
bohr,0.019202
bohreinstein,0.013697
book,0.003690
borkowski,0.016941
bound,0.005810
brain,0.024855
brainmind,0.014349
break,0.005352
bring,0.009654
broad,0.005215
broader,0.006474
buddhist,0.007810
build,0.004109
bullet,0.028803
butner,0.016941
butterfield,0.012457
butterfli,0.019057
c,0.007432
calcul,0.009910
capabl,0.005121
capac,0.005391
card,0.007389
care,0.004885
carri,0.004192
case,0.029265
cast,0.013212
casual,0.039402
cat,0.008250
categoris,0.019645
caus,0.041654
causal,0.231705
causeandeffect,0.012051
causeseith,0.016941
ce,0.007126
cell,0.005593
center,0.008295
centuri,0.006679
certain,0.028476
certainti,0.016417
chain,0.052292
challeng,0.018583
chang,0.008796
chao,0.022578
chapter,0.006061
checkmat,0.014511
chess,0.038020
chiesa,0.014511
ching,0.011643
choic,0.020440
choos,0.011189
christian,0.005040
christof,0.013302
churchil,0.009650
citi,0.004491
claim,0.011843
classic,0.038673
classifi,0.005260
climat,0.005553
close,0.003480
closer,0.012871
coexist,0.016441
cognit,0.012332
coin,0.005385
collaps,0.017188
collect,0.003793
collis,0.007988
coloss,0.012006
combin,0.011126
come,0.003719
common,0.003145
commonli,0.008639
commun,0.003401
compar,0.003847
compat,0.029849
compatibil,0.013697
compatibilist,0.039397
compel,0.016257
competit,0.005114
complet,0.017962
complex,0.007612
compris,0.005321
comput,0.008620
conceal,0.009284
concentr,0.005090
concept,0.036299
concern,0.014607
conclus,0.028978
condit,0.043674
confluenc,0.010922
confus,0.011709
conic,0.010222
connect,0.012847
consciou,0.007691
consensu,0.006488
consequ,0.013269
consid,0.021234
consider,0.013113
consist,0.010444
constant,0.005171
constitut,0.004107
constraint,0.006458
construct,0.004028
contain,0.003731
contest,0.006843
context,0.009151
conting,0.007554
continu,0.006303
contrari,0.006802
contrast,0.004393
contribut,0.003817
control,0.013823
controversi,0.005125
conway,0.010581
coordin,0.005514
correct,0.005238
cosmic,0.007957
cosmo,0.017604
cosmologist,0.011402
cours,0.004533
creat,0.006363
creator,0.007796
criteria,0.006514
critic,0.007652
cultur,0.015644
curious,0.011536
cycl,0.010664
d,0.008421
danger,0.006110
daniel,0.012939
data,0.008302
david,0.009241
day,0.003925
daytoday,0.017751
dead,0.006521
deal,0.012571
dealt,0.007796
debat,0.062955
decay,0.021457
decis,0.008771
decoher,0.011962
decre,0.007470
deduc,0.007768
deed,0.009023
deeper,0.015545
defend,0.005819
defens,0.005709
deiti,0.016646
deliber,0.020889
delin,0.008935
demon,0.018407
deni,0.036180
dennett,0.021510
denot,0.006347
depend,0.030889
depict,0.012976
deriv,0.003955
describ,0.025613
descript,0.009509
design,0.003820
desir,0.024477
despit,0.004410
destin,0.007279
detector,0.009253
determin,0.534626
determinismin,0.016941
determinismnomolog,0.016941
determinist,0.224229
develop,0.018210
deviat,0.007381
dholbach,0.013132
dialect,0.007652
diamond,0.007897
dice,0.010872
dicerol,0.016941
dichotomi,0.009359
dictat,0.022316
dictionari,0.006306
dietrich,0.011077
differ,0.013787
differenti,0.005266
dimens,0.011970
direct,0.003454
disclos,0.009087
discov,0.013742
discoveri,0.004871
discuss,0.004244
displaystyl,0.005958
disput,0.005232
distant,0.014460
distinct,0.008012
distinguish,0.009236
distribut,0.008583
divers,0.005002
divin,0.020755
doe,0.056314
doi,0.006886
doisiciaidcplxco,0.016941
doix,0.011756
dont,0.014537
doubleslit,0.024802
doubt,0.013426
drive,0.011177
driver,0.007973
dualism,0.009050
dure,0.005988
dynam,0.009753
earli,0.003132
earman,0.027622
earth,0.004916
easi,0.006360
easili,0.005365
eastern,0.010395
ebb,0.012144
econom,0.006854
ed,0.004384
effect,0.033466
effortless,0.013590
egoism,0.011370
einstein,0.037753
electron,0.005240
element,0.015931
ellen,0.009540
elli,0.009481
ellsworth,0.012144
els,0.090288
emerg,0.024082
emergentist,0.014199
emerson,0.010998
empir,0.004369
empiric,0.008478
encapsul,0.009850
encount,0.006168
encourag,0.005147
encyclopedia,0.005393
endgam,0.012635
energi,0.004384
english,0.004361
enorm,0.006745
entir,0.036558
entireti,0.008952
entiti,0.005313
entri,0.006057
environ,0.008302
environment,0.020139
epictetu,0.012514
epiphenomen,0.012347
epstein,0.011402
equat,0.020834
ernest,0.008057
error,0.011910
especi,0.007273
establish,0.003342
etern,0.007917
ethic,0.011527
evalu,0.005426
event,0.126339
eventsa,0.016941
everi,0.027431
everyday,0.006689
everyth,0.049888
evid,0.008540
evolut,0.010169
evolutionari,0.012340
evolv,0.010280
exact,0.011948
exactli,0.018405
exampl,0.022437
exclus,0.010700
exert,0.014371
exhibit,0.005911
exist,0.071626
expect,0.008605
experi,0.053915
experienc,0.005622
explain,0.025294
explan,0.005512
explicitli,0.006375
explos,0.006942
express,0.008115
extant,0.008286
extern,0.004897
extraordinari,0.008174
extrem,0.013476
f,0.004613
facevalu,0.015986
fact,0.007952
factor,0.027795
fail,0.004708
fallaci,0.017802
fals,0.031757
famou,0.005173
far,0.016985
fashion,0.006591
fatal,0.040700
fate,0.015814
favor,0.005172
favour,0.006158
fermion,0.021464
fewer,0.013282
ff,0.010998
field,0.010259
figur,0.004637
finit,0.012953
finitedeterminist,0.016941
fix,0.029823
flow,0.004931
fluctuat,0.013986
focus,0.004359
follow,0.013394
forc,0.010069
foreknowledgebecaus,0.016941
forget,0.009348
fork,0.010539
form,0.033276
foundat,0.004366
fourth,0.005842
frac,0.007493
fraction,0.006554
frame,0.006399
framework,0.004797
franci,0.006413
free,0.164479
freedom,0.015859
freewil,0.014349
frequent,0.009415
friedrich,0.006849
fullfledg,0.010644
function,0.051428
fundament,0.008576
furthermor,0.005738
futur,0.065258
futurist,0.010365
g,0.004530
galaxi,0.008335
game,0.028732
gener,0.024063
genet,0.011375
geograph,0.005446
georg,0.009652
ghirardiriminiweb,0.016941
given,0.023510
god,0.058611
goe,0.012052
good,0.003723
gottfri,0.008834
govern,0.006368
gram,0.018718
grammat,0.010155
grant,0.005133
gravit,0.007490
graviti,0.043805
great,0.003774
griffith,0.009981
grow,0.004294
grown,0.006449
guid,0.004734
gun,0.007863
ha,0.035727
habitu,0.010138
half,0.004609
hand,0.016597
handson,0.011468
happen,0.052926
hard,0.021984
harri,0.035213
hawk,0.026677
hbar,0.011756
heinrich,0.008310
heisenberg,0.009809
help,0.010998
heraclitu,0.010666
hereditari,0.008014
herit,0.010205
hermann,0.008185
hi,0.009007
hidden,0.044245
highli,0.004408
highlight,0.006895
hindu,0.007763
hinduism,0.008052
histor,0.007523
histori,0.022313
hit,0.006933
hobb,0.009402
hold,0.012100
holland,0.008723
honderich,0.026264
horton,0.011435
howev,0.021742
human,0.054847
humankind,0.009284
hume,0.017431
huntington,0.010138
hurrican,0.008943
hypothes,0.006658
hypothesi,0.011666
idea,0.056377
ideal,0.005448
ident,0.004795
identifi,0.004048
ignor,0.023234
ihbar,0.013215
iii,0.006404
illus,0.016536
illustr,0.011421
imagin,0.006695
immateri,0.050215
imperfect,0.008244
impli,0.067680
implic,0.029173
import,0.005712
imposs,0.022649
improv,0.004120
inabl,0.008084
inadvert,0.010292
includ,0.013947
incompatibilist,0.055726
increas,0.003220
inde,0.017082
independ,0.003439
indetermin,0.040172
indeterminaci,0.024289
india,0.010253
indian,0.005543
indic,0.004119
indistinguish,0.009470
individu,0.017270
induct,0.007415
inevit,0.029512
infal,0.011218
infinit,0.013114
inflat,0.006306
influenc,0.014753
inform,0.009987
initi,0.018192
input,0.006066
instabl,0.007240
instead,0.027456
instrument,0.005156
interact,0.025069
interactionist,0.013052
interchang,0.007665
interconnect,0.008095
interfer,0.013670
intern,0.002934
internet,0.005493
interpret,0.026805
introduc,0.003928
introduct,0.004439
introspect,0.010275
intuit,0.007165
invok,0.008041
involv,0.022724
inwagen,0.027863
isbn,0.003958
isol,0.005436
issu,0.017967
iter,0.008380
iv,0.014537
j,0.029438
jain,0.010402
jame,0.004722
jare,0.010623
jessica,0.011536
jewish,0.006942
jm,0.010460
john,0.026662
jstor,0.008425
judaism,0.008009
judgment,0.042580
just,0.015618
karl,0.006298
karma,0.040234
kenrick,0.014511
key,0.008522
khayym,0.012698
kind,0.004460
knew,0.007887
know,0.040589
knowabl,0.011370
knowledg,0.033693
known,0.019585
koch,0.010402
lack,0.004269
landscap,0.006981
languag,0.008416
laplac,0.028840
larg,0.014753
larger,0.008838
largescal,0.013047
laser,0.008335
later,0.003329
law,0.050590
lead,0.010021
led,0.007226
leibniz,0.008354
leucippu,0.022437
level,0.006695
li,0.008678
libertarian,0.026577
libertarianist,0.016403
life,0.017994
lifedomin,0.016941
light,0.018462
like,0.011961
limit,0.013676
line,0.004006
linear,0.017870
linguist,0.006581
link,0.004868
literatur,0.005001
live,0.007239
local,0.007583
logic,0.037928
longer,0.009234
look,0.009244
lose,0.011775
ludic,0.014886
m,0.008007
machin,0.016215
macroscop,0.008020
mad,0.027376
maimonid,0.010460
main,0.007088
maintain,0.007807
make,0.037008
man,0.004953
mani,0.020242
manyworld,0.012635
march,0.004642
marcu,0.008851
marx,0.007824
mass,0.009181
materi,0.011768
materialist,0.009050
mathemat,0.013202
matter,0.021054
mcaniqu,0.013590
mean,0.021581
meaning,0.007275
meaningless,0.009425
measur,0.032999
mecca,0.010346
mechan,0.132289
mechanicsth,0.015107
mechanist,0.018675
mental,0.006057
mention,0.005419
mere,0.016521
messiah,0.011051
metaphys,0.014324
method,0.003467
mfrac,0.011502
microscop,0.007226
middl,0.004615
mind,0.010558
mindbodi,0.010188
minim,0.005908
minkowski,0.010421
misinterpret,0.010222
misnom,0.011161
mit,0.006802
model,0.055792
modern,0.016789
momentum,0.007359
monotheist,0.009937
moral,0.050404
mose,0.009135
motion,0.005648
motiv,0.016407
movement,0.003860
multipl,0.012917
multivers,0.011370
musser,0.014689
mysteri,0.007389
n,0.005027
nagel,0.011308
nassim,0.011435
natur,0.038851
naturenurtur,0.013393
nearli,0.004875
necess,0.007014
necessari,0.013383
necessarili,0.021919
necessit,0.009014
necessitarian,0.014349
need,0.010095
nervou,0.007665
neurolog,0.008471
neurosci,0.007718
neuroscientist,0.010172
newal,0.012144
newtonian,0.112619
niel,0.019104
nietzsch,0.009458
nomolog,0.055726
nondetermin,0.013489
nondeterminist,0.055664
noneastern,0.016941
nonlinear,0.015338
nonloc,0.011077
norm,0.006493
normal,0.004462
north,0.004444
notabl,0.004295
note,0.009682
noth,0.017771
notion,0.021185
nowak,0.013489
number,0.016803
numer,0.008294
nurtur,0.018467
nurturefocus,0.033882
object,0.030614
observ,0.029557
obvious,0.008943
occasion,0.006315
occur,0.035566
occurr,0.036204
oconnel,0.043535
offer,0.004162
old,0.004631
omar,0.009447
omnipot,0.010560
omnisci,0.055122
onc,0.008365
onebyon,0.014689
onli,0.007730
onlin,0.004899
ontolog,0.007669
oper,0.007063
opposit,0.009212
order,0.006169
ordinari,0.012208
origin,0.031023
otherwis,0.021299
outcom,0.034339
overlap,0.006221
p,0.004273
pantheism,0.010499
paradigm,0.006782
paradox,0.007159
parallel,0.005800
paramet,0.012907
parti,0.004326
partial,0.010299
particl,0.060173
particular,0.010511
particularli,0.003925
past,0.017763
path,0.045406
pattern,0.004776
paul,0.009732
penguin,0.008418
penros,0.010479
perceiv,0.011259
percept,0.005958
perfect,0.037526
perfectli,0.023332
person,0.007326
perspect,0.005009
persuas,0.008818
peter,0.005104
pfeifer,0.014199
phenomenolog,0.016930
philosoph,0.078617
philosophi,0.047660
photon,0.024539
physic,0.106228
physicist,0.019878
physicsth,0.016941
piec,0.018545
pierresimon,0.011402
place,0.009497
plan,0.008478
platonist,0.011077
play,0.016167
playabl,0.014060
player,0.036631
pmid,0.008626
point,0.019483
polit,0.003513
pool,0.007329
popular,0.004005
pose,0.013637
posit,0.033176
possess,0.005030
possibl,0.042563
power,0.003285
pp,0.010466
practic,0.017172
preced,0.006081
precis,0.015863
precondit,0.009981
predestin,0.058034
predetermin,0.064355
predict,0.140906
preestablish,0.038709
preordain,0.013132
present,0.022468
presocrat,0.009795
press,0.003778
presum,0.014331
previous,0.004893
primaci,0.009588
primordi,0.009023
principl,0.015413
prior,0.029090
probabilist,0.025045
probabl,0.055274
problem,0.020598
proceed,0.011749
process,0.018207
produc,0.006680
product,0.006691
progress,0.004375
properti,0.003886
propon,0.020179
propos,0.007921
proposit,0.029512
proven,0.006780
psi,0.019536
psycholog,0.038302
punish,0.007061
push,0.006104
quantiqu,0.015645
quantiti,0.005228
quantum,0.304299
question,0.004031
quit,0.010849
r,0.004295
radioact,0.015755
rais,0.004734
ralph,0.008633
random,0.042864
rare,0.010565
rate,0.003978
reach,0.012412
reaction,0.010440
read,0.003535
real,0.016902
realiti,0.027688
realli,0.006549
realm,0.006431
reason,0.025576
recent,0.003525
record,0.004291
recours,0.010090
recurs,0.008875
reduc,0.007713
reductionist,0.010421
refer,0.008143
referenc,0.008746
reflex,0.008952
reject,0.005018
rel,0.010950
relat,0.010979
relev,0.010649
reliabl,0.006087
religion,0.010370
remain,0.003367
rememb,0.007474
repeat,0.005876
repres,0.006679
requir,0.016024
research,0.006605
resist,0.005275
resourc,0.004121
respect,0.003871
respons,0.007062
rest,0.004769
result,0.025522
retrospect,0.008961
reveal,0.005355
review,0.009123
rietdijkputnam,0.014689
rigid,0.007575
rigor,0.006855
rise,0.008193
robert,0.004476
roll,0.007596
roughli,0.005710
rr,0.010848
rule,0.022297
sahotra,0.014349
said,0.012548
salient,0.010106
sam,0.009041
sapirwhorf,0.013697
sarkar,0.012832
sasra,0.012698
say,0.026464
sayest,0.016941
scale,0.046078
scenario,0.007374
school,0.004142
schopenhau,0.010848
schrdinger,0.018156
scienc,0.034240
scientif,0.028677
scientist,0.027932
scope,0.005985
screen,0.030072
search,0.005210
searl,0.010440
second,0.006682
section,0.005044
seek,0.004568
seemingli,0.007988
seen,0.003994
selectionist,0.027395
self,0.006996
selfcaus,0.015645
selfdetermin,0.009154
selfefficaci,0.011877
selfstructur,0.015986
sempl,0.013489
sens,0.016756
sensit,0.013114
sensori,0.007892
sentient,0.009702
separ,0.007438
septemb,0.004909
sequenti,0.008818
seriou,0.005703
set,0.022075
settl,0.005786
shouldnt,0.023286
signific,0.007233
significantli,0.005225
sikh,0.010623
similar,0.003383
simpl,0.009003
simpli,0.013869
simplifi,0.006598
simultan,0.005937
sinc,0.005666
singl,0.018958
singlecaus,0.013052
singular,0.014932
situat,0.013087
size,0.004412
skinner,0.019509
slight,0.008458
slit,0.011402
small,0.017335
smallha,0.016941
smart,0.017802
snooker,0.014689
social,0.021626
societi,0.017749
someth,0.081713
sometim,0.018442
somewher,0.008678
son,0.005424
sort,0.017828
soul,0.051207
spatial,0.006623
spatiotempor,0.011218
special,0.003543
specif,0.010169
specifi,0.011521
spectacularli,0.012051
speed,0.005794
spinoza,0.009689
split,0.017469
sprung,0.011105
standard,0.003816
stanford,0.006581
start,0.003586
state,0.012395
statist,0.009296
statu,0.004732
step,0.019217
stephen,0.018881
stimulu,0.008298
stochast,0.015726
stoic,0.020024
straight,0.007858
strategi,0.005277
strd,0.015986
stream,0.013582
street,0.006465
stretch,0.014284
strike,0.012604
strong,0.008233
strongest,0.008220
structur,0.013241
studi,0.002994
subject,0.014417
suboptim,0.011105
substanc,0.005956
substanti,0.005259
success,0.007514
suffer,0.005171
suggest,0.043632
supernova,0.009966
support,0.016843
suppos,0.006225
synonym,0.028284
synthes,0.007363
t,0.024648
tabl,0.010905
taken,0.012445
taleb,0.011308
taoism,0.009689
target,0.010551
taylor,0.014258
technic,0.005039
technolog,0.008170
ted,0.018426
teleolog,0.009458
temmer,0.015986
templeton,0.013215
tempt,0.010824
tenseless,0.016941
term,0.013386
tesser,0.013811
test,0.013895
testabl,0.009348
tfrac,0.009552
th,0.003248
themselv,0.012608
theolog,0.103602
theoret,0.009291
theori,0.083026
therefor,0.003851
thereof,0.008708
thesi,0.028046
thi,0.093246
thing,0.018033
think,0.004913
thoma,0.010136
thou,0.010824
thought,0.032124
thu,0.016560
time,0.035096
timelin,0.006669
tini,0.007643
today,0.004070
togeth,0.003907
toler,0.007169
topic,0.013486
trace,0.010865
tradit,0.021407
trajectori,0.008451
transistor,0.009966
translat,0.004877
treat,0.009922
trigger,0.013784
true,0.041288
truth,0.018084
type,0.006812
ultim,0.004900
unbroken,0.031869
uncaus,0.029023
uncertainti,0.032968
unclear,0.007442
unconsci,0.008471
underli,0.010761
understand,0.015383
understood,0.005317
unfavor,0.010043
unifi,0.005930
unintuit,0.014511
uniqu,0.004831
unitari,0.017785
univers,0.090970
unless,0.006349
unpredict,0.053508
unseen,0.010687
uranium,0.017702
use,0.032411
utter,0.009337
v,0.005051
valid,0.005410
vallach,0.016941
valu,0.007262
van,0.006197
vari,0.004176
variabl,0.020717
variat,0.005311
varieti,0.017016
variou,0.006451
vastli,0.008859
veloc,0.014901
veri,0.003235
verifi,0.007162
versa,0.008041
version,0.019824
vice,0.006559
victim,0.022840
view,0.036314
viewpoint,0.007458
vike,0.009505
violat,0.018806
void,0.009069
vol,0.012178
w,0.004754
wa,0.016262
waldo,0.011105
wari,0.010440
wast,0.006796
watson,0.008445
wave,0.085708
wavefunct,0.010687
way,0.039383
weak,0.016884
weaker,0.016136
web,0.006142
wei,0.010710
west,0.009730
western,0.021309
wherea,0.009833
wherev,0.009087
whi,0.010426
wholli,0.008244
wide,0.007298
wiley,0.006933
william,0.004540
win,0.006371
word,0.011798
work,0.011110
world,0.025852
write,0.008860
wu,0.009613
x,0.065216
xtpartial,0.031972
xvxpsi,0.015107
year,0.005718
