abil,0.021608
abstract,0.009212
accept,0.013145
accid,0.012620
accomplish,0.010521
accord,0.015704
acknowledg,0.010094
act,0.083766
action,0.025729
activ,0.015671
actor,0.012067
ad,0.006680
adag,0.020643
adapt,0.008336
addit,0.005296
address,0.023650
adequ,0.010982
adjust,0.010020
adventur,0.013133
advertis,0.012301
agenc,0.049413
agencymasscult,0.027540
agenda,0.012195
agent,0.044629
ahm,0.015043
aim,0.007475
allow,0.010412
alon,0.008952
alway,0.007039
ambigu,0.036904
american,0.005931
analysi,0.006310
analyz,0.070398
anderson,0.013643
anecdot,0.077164
angel,0.012554
ani,0.004613
anim,0.021982
anoth,0.005035
answer,0.046607
anxieti,0.013895
apolog,0.015945
appeal,0.009749
appli,0.005596
applic,0.012504
approach,0.006024
appropri,0.008391
architectur,0.009874
argument,0.008795
aristotl,0.032375
art,0.016017
aspect,0.006880
assert,0.008993
associ,0.015342
assumpt,0.026757
attempt,0.005971
attitud,0.042988
attribut,0.008138
audienc,0.106348
b,0.006934
bangladesh,0.014945
baron,0.013929
basic,0.019051
becam,0.005769
becaus,0.028510
becom,0.010106
begin,0.006155
behavior,0.007404
belief,0.025350
believ,0.019586
benefici,0.011584
benoit,0.019591
bernard,0.012294
biolog,0.007486
birt,0.024964
blakesley,0.027540
blame,0.037619
bodi,0.006334
bond,0.009016
boston,0.011637
brainwash,0.021773
bridg,0.010428
brim,0.023590
brissett,0.027540
broad,0.016957
brock,0.018987
bryan,0.016674
build,0.006679
burgess,0.018143
burk,0.539903
busi,0.014231
campaign,0.018980
case,0.010572
casuist,0.022093
catchism,0.027540
categor,0.010747
categori,0.008066
catherin,0.015060
caus,0.011285
central,0.005926
certain,0.023146
chang,0.004766
chappaquiddick,0.027540
characterist,0.014574
charl,0.008097
chief,0.008804
children,0.008695
choic,0.033228
clark,0.012241
classic,0.006985
clearli,0.009506
cluster,0.011600
cognit,0.010023
coin,0.008755
colleg,0.009178
combin,0.012058
come,0.012094
commit,0.008862
common,0.015338
commun,0.071876
compar,0.012507
comparison,0.008866
complet,0.011679
complex,0.024749
complic,0.009582
composit,0.008765
compositionist,0.025987
compris,0.008650
concept,0.029504
conceptu,0.030532
concern,0.011872
conclud,0.017296
concret,0.011584
condit,0.005916
confess,0.015358
conflict,0.007875
confront,0.011681
consciou,0.012503
conscious,0.010771
consequ,0.007190
consid,0.009862
construct,0.006548
consubstanti,0.048401
contextsnd,0.027540
contribut,0.006206
corpor,0.016592
correl,0.009856
correspond,0.007676
cover,0.013923
crabl,0.055081
creat,0.020689
criteria,0.010589
critic,0.024880
critiqu,0.010743
crucial,0.020587
cultur,0.031790
cycl,0.026005
data,0.006748
david,0.015023
deal,0.006812
death,0.014812
decenc,0.020643
decis,0.007129
defend,0.009461
defin,0.011606
definit,0.006686
deliber,0.011319
dell,0.017921
demonstr,0.007600
den,0.015162
denis,0.020440
denni,0.014497
deriv,0.006429
describ,0.010409
design,0.006210
determin,0.005872
detriment,0.013895
develop,0.004229
did,0.012554
differ,0.013448
differenti,0.008562
difficult,0.007375
dimens,0.009729
diplomaci,0.014231
direct,0.005615
discours,0.011578
discuss,0.020699
disgust,0.017837
disrupt,0.010896
dissolut,0.012743
distanc,0.009004
divis,0.036644
doi,0.011194
doisrr,0.027540
drama,0.214247
dramat,0.162346
dramatist,0.119418
dramatisticallynot,0.027540
dramaturg,0.091430
dramaturgi,0.021483
drawn,0.009979
drink,0.012539
drive,0.009085
dualiti,0.014511
duti,0.010062
dwight,0.016618
ed,0.014253
edgley,0.027540
edit,0.007968
edward,0.009261
effect,0.004945
electron,0.008519
element,0.038848
em,0.016202
embarrass,0.015945
emphas,0.008934
emphasi,0.009234
empir,0.007103
employ,0.006752
enabl,0.008073
enact,0.011285
engag,0.016123
english,0.007090
enthymem,0.024558
entrepreneuri,0.015836
epistemolog,0.012099
equal,0.006933
equat,0.008467
ernest,0.013098
essenc,0.034500
essenti,0.007077
establish,0.005433
event,0.006625
everyon,0.011753
everyth,0.010137
evid,0.006942
evil,0.012383
examin,0.031872
exampl,0.041035
exert,0.011681
exist,0.005062
expect,0.006994
experi,0.031302
explain,0.020560
explan,0.017923
exploit,0.009477
explor,0.007756
expos,0.010197
express,0.026384
extens,0.006874
extent,0.008376
extern,0.003980
extract,0.009799
extrem,0.007302
facilit,0.009178
factor,0.012910
failur,0.008857
fals,0.010325
falsifi,0.014866
famili,0.007049
featur,0.013769
feder,0.008105
feel,0.047586
feminist,0.026689
field,0.011119
figur,0.007539
final,0.006584
financ,0.008066
focus,0.014173
follow,0.013064
forc,0.005456
forgiv,0.016646
form,0.004161
fox,0.014022
fraction,0.021311
frame,0.010403
freeli,0.011839
fulfil,0.011008
fulli,0.008207
function,0.022294
funer,0.014897
g,0.007364
gender,0.023341
gener,0.015647
genr,0.012854
genuin,0.012628
gilbert,0.013020
goal,0.007487
govern,0.005176
grammar,0.013540
grand,0.010574
greater,0.006856
gregori,0.013241
griffin,0.017134
ground,0.023764
group,0.009821
guilt,0.212906
guilti,0.014610
guiltpurg,0.027540
h,0.007562
ha,0.021779
haag,0.021348
hamlin,0.026665
hand,0.006745
happen,0.008603
harold,0.013063
held,0.006436
help,0.005959
herbert,0.011787
heroiz,0.027540
hexad,0.027540
hi,0.019524
hierarchi,0.066561
high,0.005512
homophili,0.077962
howev,0.004418
human,0.110141
hyme,0.024964
hypothesi,0.009482
idea,0.012219
ideal,0.017715
ideat,0.020072
ident,0.023384
identif,0.128676
identifi,0.019742
ill,0.010570
imag,0.008382
imagemong,0.027540
imagin,0.010883
import,0.018571
imposs,0.009204
impress,0.022223
impressionmanag,0.027540
inadequ,0.012928
incid,0.010771
incipi,0.018143
includ,0.011337
increas,0.005234
indic,0.006696
individu,0.016845
inevit,0.011993
inferior,0.013251
influenc,0.029979
instrument,0.008382
interact,0.027168
interfac,0.011851
interfer,0.011111
interpret,0.021788
introduc,0.006385
involv,0.015832
islam,0.009062
issu,0.005841
j,0.020509
join,0.008097
jordan,0.013718
journal,0.007001
journalist,0.012814
jr,0.011563
k,0.016506
kennadi,0.027540
kenndi,0.027540
kennedi,0.014483
kenneth,0.097720
key,0.027709
kind,0.021753
kopechn,0.027540
l,0.032048
label,0.019587
lack,0.006939
languag,0.082092
larson,0.019666
lead,0.010860
learn,0.007645
legal,0.007510
legitim,0.011304
level,0.005442
life,0.035102
like,0.009722
ling,0.019591
linguist,0.010699
listen,0.012854
liter,0.020931
longman,0.015470
look,0.015028
lower,0.013449
m,0.006508
macdonald,0.016590
mainli,0.007555
maintain,0.006345
make,0.013883
maker,0.025108
man,0.024155
manag,0.013035
mani,0.004113
manner,0.008782
marksman,0.025433
mass,0.014926
massachusettsse,0.027540
materi,0.006377
matter,0.006845
maxim,0.010349
mcgrawhil,0.039454
mean,0.040094
meanwhil,0.011004
media,0.008347
men,0.008438
mere,0.017905
messag,0.011309
metamethod,0.027540
metaphor,0.012798
method,0.022544
middleclass,0.015567
miller,0.012704
minim,0.009604
miss,0.011479
modern,0.005458
moral,0.009104
mortif,0.049929
motion,0.009182
motiv,0.106687
movement,0.006275
myspac,0.044187
narr,0.011975
nation,0.005042
natur,0.019433
need,0.010941
neg,0.031565
negoti,0.009525
network,0.007607
new,0.040649
nichol,0.018333
normal,0.007253
normalci,0.021219
note,0.010493
notion,0.017219
nuanc,0.032307
ny,0.026338
occup,0.009482
occur,0.005781
offer,0.006767
old,0.015059
oneself,0.014244
ongo,0.019915
onli,0.004189
ontolog,0.037403
open,0.006230
opinion,0.019344
opportun,0.008595
optionsth,0.027540
order,0.045134
orderor,0.027540
ordinarili,0.015923
organ,0.009927
organiz,0.011921
orvil,0.023590
overcom,0.011176
overington,0.027540
overlap,0.040457
paper,0.007508
parallel,0.009429
park,0.010636
parlor,0.024200
partial,0.008371
pattern,0.031057
pentad,0.356067
peopl,0.110381
perceiv,0.009151
percept,0.009686
perfect,0.030502
person,0.023819
perspect,0.048859
persuas,0.028670
peter,0.008298
phenomenon,0.009372
philipetetlock,0.027540
phrase,0.010965
physic,0.005954
pivot,0.040683
place,0.020586
play,0.019711
player,0.011909
plot,0.011153
point,0.010557
polar,0.011148
polici,0.006734
polit,0.028557
pollut,0.036724
popular,0.013021
posit,0.010786
possibl,0.015967
potenti,0.006756
power,0.010680
predict,0.007635
prepar,0.016926
present,0.015653
presid,0.015093
press,0.006141
principl,0.012528
problem,0.016742
process,0.039465
profession,0.008455
propos,0.006438
proposit,0.011993
provid,0.013889
psycholog,0.008894
public,0.015766
punish,0.022959
purg,0.043788
purpos,0.040726
qualit,0.012099
quarterli,0.063794
question,0.026212
quo,0.029107
r,0.013965
rais,0.007697
rape,0.015490
ratio,0.037644
ration,0.008993
reach,0.006725
read,0.005748
real,0.006869
realiti,0.009002
realiz,0.018507
realm,0.010454
reason,0.005939
recept,0.013098
recogn,0.014192
recogniz,0.015395
recur,0.014131
redempt,0.047704
reduc,0.006269
refer,0.009928
reflect,0.014224
regard,0.012699
reject,0.008158
rel,0.005933
relat,0.013386
relationship,0.018951
reli,0.007974
religi,0.008453
remain,0.005473
rempel,0.027540
report,0.012721
repres,0.032573
request,0.010059
research,0.016107
resourc,0.006700
respons,0.005740
rest,0.007753
restrict,0.007670
result,0.018440
reveal,0.008705
review,0.007415
revisit,0.015303
rhetor,0.179398
rhythm,0.015026
right,0.005938
risk,0.008143
role,0.028988
root,0.016720
rotten,0.018987
rout,0.009963
sapirwhorf,0.022267
satisfi,0.009817
say,0.007170
scale,0.007490
scapego,0.092331
scapegoat,0.021483
scene,0.059608
sceneact,0.027540
sceneag,0.027540
scenekennedi,0.027540
scholar,0.042023
seek,0.007426
select,0.007196
self,0.034120
senat,0.011353
sens,0.013619
sentenc,0.022628
separ,0.006046
serv,0.006587
set,0.015380
sever,0.004801
sex,0.022918
shakespear,0.032552
shame,0.017200
share,0.012898
showbusi,0.027540
similar,0.022000
simon,0.011066
simpl,0.007318
simpli,0.007515
sin,0.026196
sinc,0.009211
site,0.015516
situat,0.014183
skill,0.017746
socal,0.009293
social,0.123046
societi,0.023083
sociolinguist,0.019175
sociolog,0.021826
someth,0.008855
sometim,0.005995
sorri,0.019903
sourc,0.005793
speak,0.008831
speaker,0.118280
specif,0.016532
spectacl,0.017234
speech,0.019847
stage,0.016087
stagecraftlik,0.027540
standard,0.006203
start,0.005830
state,0.008060
statement,0.008455
statu,0.015385
storytel,0.016761
strategi,0.042899
stress,0.009445
stretch,0.011610
structur,0.016144
studi,0.019470
subag,0.024200
substanc,0.077468
success,0.006108
suggest,0.012896
superior,0.010252
support,0.016429
surround,0.008434
swainson,0.022857
symbol,0.075258
symposium,0.014743
talent,0.013612
talk,0.009911
tap,0.015688
technic,0.016383
technolog,0.013281
ted,0.014977
tempor,0.012137
tendenc,0.010342
tension,0.010461
term,0.030466
text,0.015891
textual,0.014469
th,0.005281
theatric,0.016973
theme,0.020402
themselv,0.006832
theori,0.053988
therebi,0.009533
therefor,0.006260
thesi,0.011398
thi,0.044786
thing,0.007328
think,0.023962
thirst,0.018285
thu,0.005384
time,0.008150
togeth,0.006351
tool,0.007375
topic,0.021923
tourism,0.010715
transcend,0.013029
tri,0.036249
turn,0.006367
turner,0.014788
type,0.005537
typic,0.006179
tyranni,0.016226
ultim,0.023899
unconsci,0.013772
underli,0.008746
understand,0.050016
uniqu,0.015707
unit,0.018582
uniti,0.020248
univers,0.009540
use,0.056453
user,0.020435
util,0.016665
valid,0.008795
valu,0.017710
van,0.010075
varieti,0.006915
variou,0.005243
victim,0.024753
victimag,0.110162
view,0.017710
vilifi,0.021094
villain,0.017879
violat,0.010190
vividli,0.020440
w,0.007728
wa,0.015106
water,0.007104
way,0.019699
west,0.007908
western,0.006928
whi,0.033899
william,0.022141
win,0.010356
winterowd,0.027540
women,0.017531
word,0.012787
work,0.013546
worker,0.008574
world,0.014009
worthi,0.014525
writer,0.009453
york,0.021281
zemk,0.027540
