abil,0.008140
abl,0.002491
abort,0.005509
absenc,0.007251
absorb,0.003942
abstin,0.014547
abstract,0.006940
academ,0.002953
academia,0.010171
acceler,0.007586
accept,0.004951
access,0.002728
accompani,0.003812
accord,0.019720
account,0.011613
accultur,0.007152
accur,0.003360
act,0.051841
action,0.087234
activist,0.004704
actual,0.007572
adam,0.004002
addit,0.001995
address,0.026728
adject,0.005390
adjud,0.006817
adopt,0.005443
advanc,0.004871
advic,0.004292
advoc,0.010155
aesthet,0.019132
affair,0.006521
affect,0.010308
affirm,0.004760
afterlif,0.012065
age,0.002469
agenc,0.003102
agent,0.016812
ago,0.003821
aid,0.002958
aim,0.008448
alasdair,0.006963
aldo,0.007352
algorithm,0.003953
align,0.004260
aliv,0.004927
allen,0.004553
allow,0.003922
alphonso,0.008886
alreadi,0.002873
alter,0.010612
altern,0.002534
althia,0.009404
althuss,0.007299
altruism,0.006007
alway,0.021215
ame,0.006586
america,0.002763
amsterdam,0.005016
analyt,0.003595
analyz,0.006629
anarch,0.011502
anarchist,0.046453
ancient,0.011429
anger,0.005147
ani,0.019118
anim,0.035885
anonym,0.005221
anoth,0.005690
anscomb,0.029749
answer,0.007022
antholog,0.005600
antihumanist,0.007993
antirealist,0.007437
anybodi,0.006249
apart,0.003614
apatheia,0.008996
aphor,0.006586
apparatu,0.004908
appeal,0.003672
appear,0.002284
appli,0.035840
applic,0.004710
approach,0.011348
arbitr,0.011176
arbitrationin,0.009404
archiv,0.003629
area,0.009793
argu,0.020988
argument,0.019880
aris,0.012869
arisen,0.005385
aristippu,0.008261
aristotelian,0.005116
aristotl,0.028458
arrang,0.003215
art,0.006034
articl,0.011719
articlesalphabet,0.009404
artifici,0.003330
ask,0.003260
aspect,0.007775
assert,0.003387
assign,0.003542
associ,0.005779
assuag,0.007816
assumpt,0.003360
astroeth,0.008787
attach,0.003733
attain,0.003992
attempt,0.015746
attent,0.006431
august,0.002996
austin,0.005673
author,0.013322
autoethnographi,0.009404
automat,0.004025
autonom,0.003987
autonomi,0.004120
avoid,0.011782
awar,0.010704
axiolog,0.007273
axiom,0.004917
azurmendi,0.008787
b,0.002612
babi,0.010311
babywher,0.009404
background,0.003387
bad,0.016182
balanc,0.009363
bar,0.004457
barth,0.006382
base,0.020620
basi,0.009825
basic,0.016746
baudrillard,0.007467
bauman,0.007946
bc,0.010554
bear,0.003690
beauti,0.004518
becam,0.002173
becaus,0.010740
becker,0.012438
becom,0.007614
befor,0.002030
began,0.002374
begin,0.002318
beginn,0.006325
behalf,0.004386
behav,0.008459
behavior,0.019526
belief,0.012732
believ,0.014756
benefici,0.004363
beneficiari,0.005660
benefit,0.005771
bentham,0.019182
bernard,0.004631
best,0.020967
better,0.008044
bia,0.009068
big,0.003600
biggest,0.004464
bind,0.004106
bioethic,0.039518
bioethicist,0.016404
biolog,0.008460
biomed,0.005221
biotechnolog,0.010360
biotic,0.005685
birth,0.003503
bite,0.006219
black,0.003209
blackburn,0.006800
blackwel,0.004971
blend,0.004984
bliss,0.006558
blood,0.003872
bodi,0.004772
bonum,0.008610
book,0.009040
born,0.003359
bourgeoi,0.006015
branch,0.012644
break,0.009833
bring,0.002956
britannica,0.004836
broad,0.003194
broadli,0.003980
broke,0.004077
brought,0.002931
buckingham,0.007858
busi,0.026806
butchvarov,0.008787
button,0.006325
buy,0.003761
c,0.002275
cakecannot,0.009404
cambridg,0.009462
capabl,0.003136
capac,0.009904
care,0.011967
career,0.003906
carri,0.002567
case,0.001991
categori,0.006077
caus,0.008503
caution,0.005606
center,0.007620
central,0.008930
centuri,0.018406
certain,0.008719
challeng,0.002845
chang,0.001795
charact,0.016455
charl,0.003050
charlott,0.006281
charter,0.004284
chicago,0.007763
child,0.007650
china,0.003059
chocol,0.006545
choic,0.025035
christian,0.012346
churchil,0.005910
circumst,0.007317
citizen,0.003259
civic,0.005188
claim,0.009670
clara,0.006629
clare,0.007352
class,0.002641
classic,0.005262
clear,0.002964
clearli,0.003581
clone,0.005461
close,0.006393
cloth,0.004163
code,0.006163
cognit,0.003776
cognitiv,0.014087
coher,0.004390
coin,0.003298
coincid,0.004284
colin,0.005482
collater,0.005799
collin,0.005624
comfort,0.005059
commit,0.010015
common,0.015408
commonli,0.002645
commonplac,0.005685
commonsens,0.006394
commun,0.010414
compani,0.002515
complet,0.008799
complex,0.006992
compris,0.003258
conceiv,0.004182
concentr,0.003117
concept,0.017783
concern,0.031308
conclud,0.009773
conclus,0.007098
concurr,0.004911
condit,0.006686
conduct,0.030031
confer,0.003135
conflict,0.002966
confucian,0.023170
confus,0.003585
connect,0.002622
conquer,0.004312
consequ,0.048756
consequenti,0.094386
consequentialismteleolog,0.009251
consequentialist,0.067762
conserv,0.003161
consid,0.020435
consider,0.005353
consist,0.002132
conspiraci,0.005660
constitu,0.007460
constitut,0.002515
construct,0.002466
consum,0.003171
consumer,0.006531
contain,0.006855
contemporari,0.012463
content,0.012572
context,0.008406
contextu,0.005842
continent,0.004242
contrast,0.008072
contribut,0.002338
contributor,0.009319
contriv,0.006586
control,0.006349
controversi,0.006278
convent,0.003084
convers,0.003286
convict,0.004616
cool,0.004462
core,0.006765
corpor,0.018752
correct,0.012831
correctli,0.004577
correl,0.003713
correspondingli,0.006015
cosmolog,0.004657
count,0.007266
countri,0.002096
courag,0.005941
cours,0.008329
couzen,0.009116
cowardic,0.007467
creat,0.001948
creatur,0.004857
credenc,0.006735
credit,0.003082
crime,0.003952
crimin,0.004034
critic,0.009372
cultur,0.004790
custom,0.003221
customarili,0.006545
cyren,0.007108
cyrena,0.033044
d,0.007736
data,0.007626
date,0.002662
david,0.011318
deal,0.005132
death,0.027899
debat,0.002965
deceiv,0.012135
decid,0.003104
decis,0.032229
decisionmak,0.009183
declar,0.012307
declin,0.003024
deduct,0.004608
deepli,0.004497
defend,0.003564
defer,0.005504
defin,0.017489
definit,0.005037
degrad,0.004569
demand,0.002843
demonstr,0.002863
denot,0.003886
deon,0.017992
deontolog,0.048880
deontologist,0.008695
depend,0.006305
deriv,0.014532
derrida,0.020402
describ,0.021567
descript,0.040766
descriptivist,0.008531
desir,0.014990
destin,0.004457
destruct,0.003770
determin,0.022121
detriment,0.005234
develop,0.017524
devot,0.007530
dewey,0.005910
dharma,0.006131
dichotomi,0.005731
dictionari,0.003862
die,0.009156
differ,0.015198
difficult,0.013891
difficulti,0.003440
dilemma,0.005405
dimens,0.003665
direct,0.004230
directli,0.002559
disagr,0.004529
disciplin,0.008805
discomfort,0.006479
disposit,0.005425
distinct,0.007360
disturb,0.004473
divers,0.003063
divid,0.005052
divin,0.008473
dna,0.008222
doe,0.015087
doesnt,0.004762
domain,0.003111
domin,0.002621
donor,0.004995
dont,0.004451
dramat,0.003597
draw,0.003265
drawn,0.003759
drink,0.004723
drive,0.006845
duquesn,0.008457
duranc,0.009251
dure,0.007334
duti,0.026534
e,0.007743
earli,0.001918
earlier,0.005667
eastern,0.003183
eat,0.017901
econom,0.002098
economist,0.003600
ed,0.008054
edit,0.006003
editor,0.012247
editric,0.008146
effect,0.011178
effort,0.005312
egoism,0.006963
ehrlich,0.006834
elder,0.009425
elimin,0.003316
elkar,0.009116
elli,0.005806
els,0.007898
embrac,0.004326
embryo,0.005314
emerg,0.004915
emmanuel,0.006292
emot,0.015758
emotionalappetit,0.009404
empir,0.002676
employ,0.005087
employe,0.004018
encount,0.003777
encourag,0.009456
encycl,0.007467
encyclopdia,0.004974
encyclopedia,0.013212
end,0.010484
endur,0.009361
enforc,0.014381
engin,0.005527
english,0.008013
englishlanguag,0.006303
enjoy,0.007302
enquiri,0.005806
ensur,0.009452
entir,0.007462
entiti,0.003254
entri,0.003709
environ,0.005084
ephemer,0.006963
epictetu,0.022992
epicurean,0.019555
epicuru,0.019289
equal,0.015670
equat,0.003189
equilibrium,0.008016
era,0.003030
erron,0.005493
error,0.003646
eschew,0.006614
especi,0.008907
essay,0.007432
essenc,0.004332
essenti,0.007998
establish,0.002046
ethic,0.804781
ethica,0.008093
ethicist,0.007086
ethicsand,0.009404
ethicslist,0.009404
ethicsrel,0.018809
ethiko,0.009404
ethnographi,0.006600
ethnolog,0.006505
etho,0.012811
etiquett,0.027931
eudaimon,0.008202
euskal,0.008531
euthanasia,0.006817
evad,0.005941
evalu,0.006646
event,0.002495
eventu,0.002725
everi,0.002399
everyday,0.004096
evil,0.009329
evolut,0.006227
evolutionari,0.015114
evolv,0.003148
examin,0.015008
exampl,0.027481
exception,0.007776
excess,0.003706
exercis,0.013180
exert,0.013201
exist,0.007628
expans,0.003235
expect,0.002635
expens,0.003425
experi,0.016508
experiment,0.006406
expert,0.003788
explain,0.010327
explan,0.003375
explicitli,0.003904
explor,0.002922
exposit,0.005256
express,0.004969
extent,0.003155
exterior,0.005667
extern,0.001499
extrem,0.008253
fabric,0.004797
face,0.008635
fact,0.021915
faction,0.004529
fagothey,0.009404
fail,0.005766
failur,0.003336
fair,0.003884
fake,0.012418
fallaci,0.005450
fals,0.011668
famili,0.007966
familiar,0.004057
famin,0.005135
fashion,0.016145
father,0.003371
fear,0.028788
feasibl,0.004659
featur,0.002593
februari,0.003115
feel,0.003585
femal,0.003850
field,0.023038
fifti,0.004860
figur,0.002840
filial,0.015058
financ,0.003038
financi,0.002737
fit,0.003491
fix,0.006087
fleet,0.004611
flesh,0.005718
flounder,0.007664
flourish,0.004220
focu,0.011254
focus,0.002669
follow,0.013123
food,0.005903
forc,0.012333
forev,0.005466
form,0.010972
formal,0.002566
formul,0.003284
forward,0.003640
foucault,0.011867
foundat,0.002674
fragment,0.004033
frame,0.003919
framework,0.002938
frankena,0.009116
free,0.002342
freedom,0.006474
freeli,0.004460
fret,0.008146
friendship,0.005093
fruit,0.008127
frustrat,0.005260
fulcrum,0.008042
fulfil,0.012441
fundament,0.013130
futur,0.009991
g,0.005548
gap,0.003992
gather,0.003575
gave,0.002984
ge,0.006159
gene,0.003979
genealog,0.005531
geneprotein,0.008457
gener,0.008841
genet,0.006966
geneva,0.005450
geoethic,0.024783
geograph,0.003335
gielen,0.008996
gift,0.004629
given,0.002056
goal,0.005641
god,0.003589
golden,0.004155
good,0.093480
govern,0.005850
government,0.004292
gratif,0.007199
great,0.002311
greatest,0.025262
greek,0.020328
gregoriana,0.009404
grew,0.003427
ground,0.005968
group,0.005549
growth,0.002595
guid,0.014497
guy,0.005571
ha,0.013674
habit,0.013044
hand,0.005082
handl,0.003729
happi,0.031741
happier,0.007176
harder,0.005097
harm,0.007907
harmoni,0.004783
harper,0.005282
harri,0.004312
head,0.002647
health,0.005717
healthcar,0.004830
heaven,0.009822
hedon,0.026878
hedonist,0.022140
held,0.004849
help,0.006735
helsinki,0.006219
henc,0.003199
henri,0.003305
herria,0.008787
hesit,0.006150
hi,0.014710
hierarchi,0.004179
highest,0.009421
highli,0.008099
hisher,0.005894
histor,0.002303
histori,0.005124
hold,0.012350
honestli,0.007299
honor,0.004242
horstext,0.008787
howev,0.009986
hoy,0.079982
hugh,0.004812
human,0.041491
humananim,0.007628
humankind,0.005685
hume,0.005337
hundr,0.003115
hypothesi,0.003572
iageth,0.009404
iapg,0.009116
idea,0.011508
ideal,0.003336
ideolog,0.003873
idiosyncrat,0.006405
ignor,0.007114
ii,0.002683
il,0.005718
ill,0.007964
illeg,0.004132
illhealth,0.008202
illinoi,0.005019
illus,0.010126
immanuel,0.005175
immedi,0.006029
immor,0.017174
immort,0.005430
imper,0.005548
impli,0.006376
implicitli,0.005435
import,0.012243
impos,0.003526
improv,0.002523
includ,0.018506
increas,0.005916
inde,0.003486
independ,0.002106
index,0.003257
indiana,0.005180
indiscrimin,0.006643
individu,0.033844
individualist,0.011867
indulg,0.043677
infin,0.005361
influenti,0.006596
inform,0.012232
ingener,0.009404
inher,0.011790
inherit,0.003802
initi,0.004456
inquiri,0.016361
insan,0.006325
instead,0.007206
instil,0.006429
instinct,0.010850
institut,0.004340
integr,0.002474
intellectu,0.007036
intellig,0.003199
intens,0.003405
intent,0.006902
interact,0.002558
interchang,0.004694
intern,0.005391
internet,0.003364
interrel,0.005005
intersect,0.004621
intim,0.005131
intrins,0.013026
introduct,0.013593
inuenc,0.009251
investig,0.017241
inviol,0.007901
involv,0.007952
irrat,0.010565
isbn,0.007272
island,0.006079
issu,0.028607
j,0.005150
jacqu,0.004757
jalon,0.009251
jame,0.002892
jean,0.004253
jeremi,0.005410
joe,0.005879
john,0.013995
joseph,0.003379
journal,0.005275
joy,0.005559
judg,0.011360
judgement,0.005184
judgment,0.013038
judith,0.006209
just,0.004782
justic,0.017328
justif,0.009583
justifi,0.004124
kant,0.024805
key,0.002609
kidder,0.008886
kill,0.003385
kind,0.019121
kirbi,0.007152
know,0.015535
knowledg,0.025792
known,0.006853
krisian,0.009251
kropotkin,0.028611
la,0.006845
labor,0.006733
lack,0.005228
lafollett,0.009116
landscap,0.004275
languag,0.002577
larg,0.003613
larger,0.002706
largest,0.002831
larri,0.005612
late,0.002373
latent,0.005744
later,0.008156
lausann,0.006688
law,0.022719
lawrenc,0.004586
lead,0.014319
learn,0.002880
legisl,0.006278
letter,0.003384
levina,0.008322
levinass,0.018809
liberti,0.004351
librari,0.003221
lie,0.010077
life,0.039670
lifecent,0.009404
lifestyl,0.004882
lifetim,0.004390
light,0.002826
like,0.009156
likewis,0.004060
limit,0.002093
linda,0.005654
lingi,0.009404
linguist,0.008060
link,0.002981
list,0.001906
literatur,0.003063
littl,0.005247
live,0.026601
locat,0.002520
logia,0.005998
logic,0.003318
london,0.005773
longer,0.008482
look,0.005661
lose,0.007211
lost,0.002979
loui,0.003868
love,0.004070
luck,0.006112
lyon,0.005857
m,0.004903
machin,0.016550
macintyr,0.020775
main,0.002170
major,0.007275
make,0.017433
maker,0.004729
man,0.015166
manag,0.004910
mani,0.012396
manipul,0.003670
manner,0.003308
march,0.002842
margin,0.003757
markkula,0.008787
martha,0.006394
martin,0.003628
marxist,0.004654
mask,0.005435
massachusett,0.008991
materi,0.009609
matter,0.010315
maxim,0.015595
maximum,0.003727
mcgrawhil,0.004954
mean,0.022656
measur,0.002245
medic,0.006314
medicin,0.013074
medit,0.005209
meet,0.002773
member,0.002187
mental,0.007419
mentalconceptu,0.009404
mere,0.003372
merit,0.004892
merri,0.007628
merriment,0.008695
messi,0.007737
metaeth,0.104450
metaphys,0.004386
method,0.004246
michel,0.009398
middl,0.002826
miguel,0.005894
militari,0.016640
min,0.006049
mind,0.012931
minim,0.003618
misconduct,0.012788
miss,0.004324
mistransl,0.007408
mobil,0.003641
model,0.002135
moder,0.015709
modern,0.012337
modif,0.004074
modifi,0.003345
mohism,0.007273
mohist,0.041780
momentari,0.006888
moor,0.009253
moral,0.257226
mostli,0.002924
mother,0.003950
motiv,0.006698
movement,0.002363
mozi,0.014598
multifacet,0.006658
multipl,0.002636
narr,0.009022
narrowli,0.010656
nation,0.001899
natur,0.020132
naturalist,0.004670
nd,0.003189
necess,0.004295
necessari,0.005464
necessarili,0.003355
necessit,0.005520
need,0.016486
neg,0.005945
neuroscientist,0.006229
new,0.009187
newal,0.007437
newton,0.004328
nicomachean,0.007273
nietzsch,0.005792
nivison,0.008996
nobodi,0.005998
noncognitiv,0.015400
noncognitivist,0.007776
nondescriptivist,0.018809
noneconom,0.014934
nonexist,0.005323
nonhuman,0.015781
nonpsycholog,0.008787
nonrel,0.007737
norm,0.075549
notabl,0.002630
note,0.001976
noteworthi,0.011585
noth,0.025394
notion,0.009730
noun,0.005395
number,0.003430
nussbaum,0.007199
ny,0.004961
object,0.014061
oblig,0.026500
obligatori,0.012859
observ,0.011313
occur,0.008712
offer,0.010196
offici,0.005205
onc,0.005123
oneself,0.010732
onesid,0.007248
onli,0.006312
ontolog,0.014090
open,0.007040
oper,0.002162
opportun,0.003238
oppos,0.002864
opposit,0.002820
option,0.003577
orbi,0.007561
order,0.015113
ordinari,0.007476
organ,0.003739
origin,0.003799
ought,0.009842
ourselv,0.016611
outcom,0.010514
outlin,0.010010
outsid,0.007845
outweigh,0.011641
overal,0.003137
overarch,0.005799
oxford,0.009663
p,0.013084
pa,0.005342
pacif,0.007946
packag,0.004346
pain,0.026052
panayot,0.008695
paper,0.002828
paradigmat,0.006817
parent,0.007721
pari,0.003748
parti,0.002649
particip,0.002704
participantsso,0.009404
particular,0.030041
particularli,0.002404
pascal,0.005332
path,0.003475
patient,0.004175
pattern,0.002924
paul,0.014899
peac,0.006612
peerreview,0.005482
peirc,0.005925
peopl,0.041582
perceiv,0.003447
percol,0.006982
perhap,0.003186
perl,0.006784
permiss,0.004765
permit,0.003491
persever,0.007199
person,0.065053
personhood,0.007248
perspect,0.003067
persuas,0.005400
peter,0.012504
phd,0.004429
philosoph,0.039117
philosophi,0.075886
philosophicalsuch,0.009404
philosophya,0.009116
philpap,0.018749
phrase,0.004130
physic,0.004486
physicalmetabol,0.009404
piec,0.003785
pieti,0.006336
pinnacl,0.006817
pittsburgh,0.006336
place,0.001938
plagiar,0.027553
platform,0.004198
pleasur,0.091749
plenti,0.005390
plural,0.004408
podcast,0.013090
point,0.001988
pointless,0.006925
polici,0.005073
polit,0.025819
pontificia,0.008531
poor,0.003389
popul,0.009756
popular,0.004905
posit,0.014222
positiv,0.005582
possibl,0.010025
possiblear,0.009404
postcritiqu,0.028213
postmodern,0.026503
poststructur,0.019555
potenti,0.012725
pour,0.005159
power,0.008046
powerless,0.020158
pp,0.006409
practic,0.029445
pragmat,0.009583
pragmatist,0.006817
precis,0.006476
preconceiv,0.007628
predict,0.002876
prefer,0.009030
prejud,0.015986
prescrib,0.004800
prescript,0.010360
present,0.007862
presentday,0.004415
press,0.011568
price,0.002910
primari,0.005189
primarili,0.002687
princip,0.003070
principia,0.005456
principl,0.061354
prior,0.005938
priorit,0.006007
prioriti,0.004145
prison,0.004172
problem,0.006307
problemat,0.004737
proceed,0.003597
process,0.001858
produc,0.008181
product,0.002048
profession,0.009556
profitmaxim,0.007380
program,0.002472
project,0.004864
proletarian,0.007023
promin,0.003082
promis,0.011081
promisekeep,0.009404
promot,0.011217
propag,0.004380
proper,0.007053
properli,0.004133
properti,0.004760
propon,0.012357
proport,0.003250
propos,0.007276
proposit,0.013554
propound,0.005982
protect,0.002620
proteinseg,0.009404
proud,0.006442
proven,0.004152
provid,0.005232
prudenc,0.007043
psycholog,0.033508
public,0.043555
publish,0.013091
pursu,0.003575
pursuit,0.031024
push,0.003738
qualif,0.024976
qualit,0.004557
quantiti,0.003201
question,0.059247
questionsuch,0.009404
r,0.002630
rais,0.002899
rang,0.011798
ration,0.016939
rawl,0.006719
rc,0.006492
read,0.004330
real,0.005175
realism,0.004863
realist,0.004284
realiti,0.010173
realiz,0.010458
reallif,0.006336
realm,0.011815
realworld,0.005180
reason,0.015663
rebel,0.004529
reckless,0.006735
recogn,0.002673
recognis,0.003849
recommend,0.003675
record,0.007883
recours,0.006179
refer,0.014960
referenc,0.005356
reflect,0.005358
reform,0.006099
regard,0.011959
regardless,0.003768
regim,0.003633
regul,0.005903
reject,0.012293
rel,0.004470
relat,0.020172
relationship,0.014278
relativ,0.006122
relativist,0.010295
relev,0.019565
reli,0.003004
religi,0.009553
remain,0.004123
remaind,0.004626
remark,0.007647
renew,0.003645
reopen,0.005667
repair,0.004438
reproduct,0.004235
requir,0.003925
research,0.024271
reserv,0.003315
resign,0.004260
resist,0.025845
resolv,0.007242
resourc,0.005048
respect,0.009483
respond,0.003362
respons,0.008649
rest,0.002920
result,0.015629
retract,0.006382
retreat,0.004815
retriev,0.003704
return,0.005046
revolt,0.004539
richard,0.003080
right,0.096202
rigor,0.004198
rna,0.005135
robot,0.004621
rockford,0.008886
roger,0.004180
roland,0.005990
role,0.021840
rome,0.008513
rosemont,0.009251
routledg,0.004442
rule,0.031861
rushworth,0.009404
russian,0.003650
s,0.008841
sacrific,0.005078
said,0.012808
sam,0.005537
sanction,0.004680
sander,0.005660
santa,0.004940
saw,0.006101
say,0.008103
scholar,0.003166
scholarli,0.004413
school,0.010146
scienc,0.012581
scientif,0.005017
scottish,0.004785
search,0.003191
second,0.006138
secondari,0.003550
sector,0.013074
secur,0.005297
seek,0.008392
seen,0.014677
seldom,0.005660
select,0.002711
self,0.004284
selfawar,0.012014
selfgratif,0.009404
selfknowledg,0.014816
selfmasteri,0.008531
selfreal,0.007497
selfrealization,0.009404
selfserv,0.007299
sens,0.012826
sensit,0.004015
sentient,0.005941
separ,0.002277
seren,0.015058
seri,0.002483
serv,0.002481
servic,0.004858
set,0.013519
sever,0.007235
sex,0.004316
sexual,0.004096
shape,0.002971
sharehold,0.005041
shelter,0.004860
shepherd,0.006394
short,0.002658
sick,0.004895
sidgwick,0.007248
sign,0.008570
similar,0.004143
similarli,0.013148
simpl,0.005513
simpler,0.004626
simpli,0.002831
simulacra,0.007901
sinc,0.005205
singer,0.016696
singl,0.002322
sinologist,0.007858
situat,0.026714
skeptic,0.004569
slave,0.004099
slaveri,0.004572
smith,0.003676
social,0.024280
societi,0.006521
sociobiolog,0.006314
sociolog,0.004111
socrat,0.021426
soldier,0.003948
sole,0.003522
solidar,0.005337
solomon,0.010656
someon,0.012159
someth,0.010008
sometim,0.006776
sophist,0.003992
sort,0.010918
sought,0.006760
sourc,0.004365
space,0.002675
speak,0.003327
special,0.006510
species,0.008261
specif,0.012456
spectrum,0.004103
sphere,0.003882
spirit,0.003920
spiritu,0.015991
splendor,0.007437
st,0.008391
stabil,0.003235
stakehold,0.005576
stanc,0.004783
stand,0.003260
standalon,0.006140
standard,0.011685
standpoint,0.005525
stanford,0.008060
start,0.002196
state,0.025809
statement,0.003185
statu,0.005795
stephen,0.003854
stoic,0.012262
stoicism,0.006658
stolen,0.005828
storytel,0.006314
straightforwardli,0.007594
strang,0.005147
strong,0.002521
strove,0.006982
structur,0.004054
structuralist,0.006505
stuart,0.009624
student,0.002953
studi,0.033006
stuff,0.006229
style,0.003575
subarea,0.007023
subbranch,0.006658
subject,0.006621
subtop,0.006944
success,0.002301
suffer,0.006333
suggest,0.004858
suit,0.004033
summari,0.004175
summum,0.008531
support,0.006189
surest,0.007993
sustain,0.003393
symbol,0.003150
systemat,0.003314
taken,0.007621
talent,0.010256
talk,0.014934
tan,0.006041
target,0.003230
tast,0.004870
teach,0.006798
technic,0.003085
technolog,0.002501
tell,0.003908
temptat,0.006467
tend,0.005698
tension,0.003941
term,0.019674
termin,0.008130
text,0.002993
th,0.011937
themselv,0.015442
theoret,0.005690
theori,0.069149
theoris,0.006467
theorist,0.004044
therapi,0.008838
therefor,0.014150
thi,0.038934
thiko,0.018809
thing,0.038652
think,0.009027
thinker,0.012583
thiqu,0.009404
tho,0.007946
thought,0.007377
threat,0.007278
thu,0.006084
time,0.007676
today,0.004985
togeth,0.002392
told,0.004400
tomorrow,0.006209
tool,0.005556
topic,0.013765
torr,0.006281
total,0.002420
trade,0.005020
tradit,0.006554
transcendent,0.005542
translat,0.005974
treat,0.018229
trend,0.003314
tri,0.002731
true,0.002809
truli,0.017392
truth,0.022150
truthtel,0.008531
turn,0.007196
type,0.004172
typic,0.004655
ultim,0.009003
unborn,0.007130
unchalleng,0.007152
unchang,0.004626
uncomfort,0.006492
unconquer,0.008610
uncontest,0.007248
understand,0.014131
understood,0.009768
undertaken,0.004471
une,0.006572
unenforc,0.023840
unequivoc,0.006417
uneth,0.006394
unfair,0.005771
unhappi,0.012170
uniqu,0.002958
univers,0.019767
universit,0.006614
unless,0.003888
unlik,0.008668
unpleas,0.006199
unproblemat,0.007816
unreal,0.006467
unto,0.012499
upset,0.005864
urbaniana,0.009251
urg,0.004579
use,0.024102
usual,0.002088
util,0.009417
utilitarian,0.093476
vagu,0.005131
vain,0.006586
valid,0.006626
valiz,0.009404
valu,0.037806
valuebear,0.009404
valuefre,0.007816
vari,0.002557
variou,0.005925
vendemiati,0.009404
veri,0.013870
verifi,0.004386
veritati,0.009116
version,0.006070
versu,0.004050
vice,0.008034
victori,0.004018
video,0.003818
view,0.024462
violat,0.003839
violenc,0.008264
virtu,0.118705
vol,0.003729
volum,0.002972
vote,0.003290
wa,0.042680
wallach,0.007737
war,0.009859
warfar,0.008801
watch,0.004423
way,0.014842
wealth,0.017865
weaponri,0.011899
weight,0.003497
welfar,0.011989
wendel,0.006719
western,0.005220
whi,0.003192
wide,0.004469
wildlif,0.004944
wiley,0.004245
william,0.013901
wise,0.005420
wish,0.034528
word,0.016859
work,0.006804
world,0.010554
worldcan,0.009251
worldinde,0.009251
worri,0.005112
wors,0.009543
worth,0.007857
worthwhil,0.006303
write,0.013564
written,0.002747
wrong,0.081620
wrote,0.005912
xiao,0.007816
xin,0.006558
ye,0.005537
year,0.001751
york,0.005344
zoologist,0.006067
zygmunt,0.007901
