absolut,0.032608
accord,0.019223
accus,0.038554
adher,0.038887
advoc,0.033000
age,0.024076
air,0.029532
alon,0.032876
anaxagora,0.067880
ancestr,0.050258
ancient,0.055707
antiochu,0.161059
aristotl,0.039630
arm,0.030653
armi,0.033067
asebeia,0.101136
asia,0.033009
aspect,0.025266
assert,0.099077
athen,0.053137
athenian,0.063544
bce,0.042540
belief,0.031030
believ,0.023975
born,0.032745
bought,0.044293
bribe,0.059321
calynd,0.101136
caunian,0.101136
certain,0.021249
cf,0.052356
character,0.029447
charg,0.029960
christian,0.030088
claim,0.023567
common,0.018775
condemn,0.043736
convers,0.032036
crete,0.061659
cult,0.050737
cyren,0.069290
death,0.054393
decid,0.030262
declar,0.029992
decre,0.133785
deni,0.035998
determin,0.021564
diopith,0.101136
disregard,0.053601
divin,0.041301
drink,0.046049
drive,0.033364
dure,0.017875
easili,0.032029
ecclesiam,0.093397
enforc,0.035049
entiti,0.063441
epiphan,0.086631
epithet,0.063290
error,0.035550
essenti,0.025988
establish,0.019951
exampl,0.050230
exclud,0.035169
exclus,0.063876
exclusiv,0.593364
exist,0.037181
extra,0.042817
forbad,0.060824
foreign,0.104096
form,0.015280
frontier,0.044067
god,0.314906
golden,0.040508
graeca,0.084766
greec,0.037788
greek,0.056618
group,0.018032
guilti,0.053654
ha,0.013330
hellen,0.057538
hellenist,0.050819
hemlock,0.075430
herodotu,0.057919
hi,0.035849
histor,0.022456
iconographi,0.066799
idea,0.022437
identifi,0.024166
impieti,0.150861
indiffer,0.055243
interpretatio,0.085659
introduc,0.023450
introduct,0.026501
islam,0.033278
israel,0.040940
iv,0.043393
jew,0.046998
kind,0.053256
law,0.020134
longer,0.027564
make,0.016994
mandatori,0.051365
mankind,0.048230
march,0.027713
member,0.021322
mental,0.036162
minor,0.030926
new,0.014927
nulla,0.085659
old,0.027651
olympian,0.227427
opinion,0.035518
opposit,0.027497
order,0.018416
organ,0.018228
origin,0.018520
pantheon,0.117279
peopl,0.018425
period,0.019856
philosoph,0.029332
plato,0.044022
poli,0.062920
possess,0.030030
practic,0.041005
protagora,0.069727
punish,0.084312
recognis,0.037523
refus,0.035466
rel,0.021791
religi,0.062089
religion,0.092862
ruler,0.040606
salu,0.081771
seen,0.047693
selucid,0.091677
sent,0.033686
settl,0.034541
socrat,0.104432
spear,0.060429
state,0.014799
stilpo,0.090186
strike,0.037623
syncret,0.060333
templ,0.044713
tendenc,0.037981
theodoru,0.078893
theophrastu,0.059498
thi,0.012651
think,0.029332
took,0.026423
trait,0.040076
treat,0.029617
true,0.054773
use,0.013820
wa,0.041605
wherebi,0.038217
worship,0.183347
writer,0.034714
youth,0.042658
zeu,0.065201
