aberdeen,0.036467
academ,0.015154
academi,0.019491
accept,0.025405
account,0.011916
achiev,0.038185
addit,0.010236
age,0.025342
analyt,0.036893
ancient,0.014659
andrew,0.020548
anglican,0.060486
april,0.030957
aquina,0.056930
aquinass,0.043392
aristotelian,0.026249
attempt,0.023082
author,0.011392
ayer,0.068631
bbc,0.092073
becam,0.011151
befor,0.010419
began,0.012182
bertrand,0.079727
best,0.013446
biographi,0.023532
bishop,0.024970
born,0.017234
britain,0.017187
british,0.013622
broadcast,0.047343
c,0.011675
calcuttaand,0.053227
california,0.018715
career,0.020044
cathol,0.019728
caus,0.043624
cbe,0.081540
celebr,0.042118
chain,0.018255
charl,0.031299
clara,0.068020
clarifi,0.024644
classic,0.013500
clear,0.030418
colleg,0.124171
complet,0.022573
concept,0.011404
continu,0.009902
contribut,0.011995
convert,0.016659
copleston,0.787891
debat,0.060860
degre,0.026767
deliv,0.019263
describ,0.010059
despit,0.013858
die,0.015659
disappear,0.020779
discuss,0.013335
distinct,0.012587
doctor,0.039008
educ,0.025070
effect,0.009558
eighteen,0.029204
end,0.010757
england,0.017073
ess,0.037722
exist,0.019568
exposit,0.026966
express,0.012748
extern,0.007693
faith,0.019670
faithhi,0.053227
famili,0.013624
father,0.017298
fba,0.042382
februari,0.031971
fellow,0.044493
fieri,0.036467
follow,0.016832
forth,0.021388
fr,0.025977
frederick,0.094944
friend,0.041795
germani,0.015842
gifford,0.037722
given,0.010552
god,0.055245
good,0.011697
graduat,0.019715
great,0.023716
gregorian,0.068020
ha,0.007015
help,0.011518
heythrop,0.245776
hi,0.150940
highli,0.013850
histori,0.052580
historian,0.017729
honorari,0.081376
hospit,0.020747
imposs,0.017790
includ,0.014607
influenti,0.050764
initi,0.011431
instead,0.012323
institut,0.022266
intend,0.016287
j,0.026426
januari,0.015015
jesuit,0.147365
john,0.023934
just,0.012268
known,0.008790
languag,0.026443
lectur,0.076504
legaci,0.022117
life,0.011307
link,0.007648
logic,0.034047
london,0.029621
make,0.017888
manag,0.012596
marlborough,0.041794
meaning,0.045720
media,0.032265
mediev,0.018759
membership,0.019373
moder,0.020149
modern,0.021099
month,0.015539
monument,0.025181
motion,0.017748
multivolum,0.119097
near,0.014461
noviti,0.044177
number,0.008798
object,0.012023
offer,0.026157
offici,0.013352
omnipres,0.034474
ordain,0.032118
origin,0.009747
outbreak,0.023933
oxford,0.049576
perenni,0.030165
person,0.023017
philosoph,0.046313
philosophi,0.119794
pontif,0.034555
popular,0.025166
positiv,0.057283
present,0.010084
priest,0.047760
professor,0.036050
professorship,0.032566
publish,0.011194
radio,0.020647
rais,0.014876
receiv,0.012220
reestablish,0.024363
refer,0.006396
reginald,0.034555
religi,0.032677
religion,0.016291
remain,0.010578
resettl,0.030442
respect,0.012164
rest,0.014985
retir,0.021764
return,0.025890
roehampton,0.050226
role,0.011205
roman,0.017157
rome,0.043678
royal,0.016877
russel,0.067259
saint,0.021388
santa,0.050698
schopenhau,0.034085
second,0.010497
set,0.009908
sever,0.009280
signific,0.011363
sinc,0.008901
sj,0.036816
societi,0.011153
somerset,0.037316
spent,0.019676
st,0.057401
stay,0.019485
stephen,0.019774
stress,0.018255
studi,0.028223
summa,0.033310
taunton,0.046773
teach,0.034877
textbook,0.020065
theme,0.019715
theologica,0.038310
theori,0.010434
think,0.015437
thoma,0.031847
train,0.015371
travel,0.015718
true,0.014413
uncl,0.028465
univers,0.082979
uppsala,0.036137
veri,0.010166
visit,0.035770
vs,0.021493
wa,0.094887
want,0.016435
war,0.025291
way,0.009518
work,0.017454
write,0.013918
year,0.035936
youtub,0.056255
