abduct,0.051301
absolut,0.056399
accord,0.016625
acknowledg,0.032059
addit,0.016819
algorithm,0.033330
alway,0.022356
analog,0.029707
analysi,0.020041
ani,0.014652
appear,0.038513
appli,0.017773
approach,0.019133
attempt,0.018964
avoid,0.024833
background,0.028553
bay,0.037545
bayesian,0.046219
becaus,0.015090
believ,0.020734
bia,0.038226
black,0.135275
brodi,0.062217
bynum,0.070716
carl,0.033521
carrol,0.050856
case,0.033575
certainti,0.042379
chicago,0.032723
citat,0.039987
claim,0.020381
close,0.017966
compar,0.019861
compet,0.027685
conceiv,0.035259
conduc,0.050640
confid,0.034351
confirm,0.086852
conjectur,0.127229
continu,0.016271
contraposit,0.069642
contrari,0.105350
corrobor,0.368212
critic,0.019753
data,0.021431
deduc,0.040105
deduct,0.038855
deductivenomolog,0.068227
descript,0.024548
dictionari,0.032558
direct,0.017832
discuss,0.021912
disproven,0.059207
distinguish,0.023841
doctrin,0.032205
doe,0.036341
drug,0.031673
e,0.021761
ed,0.022633
effect,0.015706
einstein,0.038981
embed,0.037600
equival,0.026042
evid,0.088188
exactli,0.031673
exampl,0.043439
experi,0.019881
experiment,0.054011
explanan,0.077993
explanandum,0.074919
explanatori,0.045568
extrem,0.023192
fals,0.032790
falsif,0.165534
falsifi,0.188845
famou,0.026709
follow,0.027659
form,0.026429
formul,0.027685
forth,0.070290
given,0.017339
godfreysmith,0.075839
green,0.059464
hempel,0.067798
hodgson,0.059207
hold,0.020824
holism,0.107806
hous,0.023192
howev,0.028062
hypothes,0.034377
hypothesi,0.331255
hypotheticodeduct,0.120220
ignor,0.029987
immun,0.037842
implic,0.030122
incomplet,0.037673
incorpor,0.023740
induct,0.038285
infer,0.066449
inquiri,0.103451
introduct,0.022918
invent,0.028130
investig,0.024225
isbn,0.081749
la,0.028853
logic,0.027973
look,0.023864
lui,0.044997
maintain,0.020152
mean,0.015916
meant,0.029643
method,0.107395
methodolog,0.030591
model,0.072010
moder,0.033108
modifi,0.028199
nassim,0.059036
new,0.025818
nichola,0.038876
nonblack,0.230569
nonfalsifi,0.076856
nonraven,0.247594
note,0.016662
observ,0.114446
onli,0.026607
order,0.015926
origin,0.016016
outcom,0.059093
oxford,0.054308
paradox,0.036959
particular,0.018089
pea,0.049566
peter,0.052706
philosoph,0.050734
philosophi,0.073816
physic,0.018911
physicist,0.034208
point,0.016764
popper,0.047361
porter,0.048774
possibl,0.033806
potenti,0.021456
pragmat,0.040395
predict,0.048496
press,0.019504
probabl,0.118901
problemat,0.079880
proce,0.040346
progress,0.022587
propos,0.040893
prove,0.076729
provid,0.014703
qualif,0.042111
quantifi,0.037239
quotat,0.044020
rais,0.024444
random,0.031613
raven,0.286663
reach,0.021359
realiti,0.028589
reason,0.056590
refer,0.010510
repeat,0.030336
resolut,0.032152
respect,0.019988
result,0.014640
right,0.018860
roy,0.043099
rule,0.019185
run,0.046194
said,0.021595
save,0.059693
scienc,0.053031
scientif,0.126900
sean,0.054734
sequenc,0.029178
shift,0.025471
simpl,0.023241
singl,0.019575
sometim,0.019042
springer,0.035405
statement,0.026853
stratagem,0.067798
stringent,0.049316
strong,0.042508
substanti,0.027154
swan,0.052601
taken,0.021418
taleb,0.058381
test,0.143477
theorem,0.032790
theoret,0.023984
theori,0.068582
therefor,0.019881
thi,0.120350
thing,0.069825
thoma,0.026165
time,0.012942
tree,0.060262
tri,0.023024
truth,0.031121
type,0.017586
underdetermin,0.068676
univers,0.015149
valu,0.018747
veri,0.016704
verifi,0.073953
verlag,0.046965
view,0.018747
weak,0.029056
wf,0.063744
wrong,0.034404
