accord,0.030136
actual,0.019285
aldin,0.145249
alishrq,0.079274
alshirazi,0.065190
amin,0.045708
ancient,0.043665
angel,0.036137
anim,0.021092
anoth,0.014493
approach,0.034684
arab,0.055665
argu,0.020046
aristotl,0.031064
avicenn,0.134286
avicenna,0.042524
base,0.013130
becam,0.016608
bodi,0.036466
caus,0.016242
ce,0.033344
centuri,0.015626
confront,0.033624
contemporari,0.023808
continu,0.029495
corbin,0.066442
count,0.055519
countri,0.016017
critiqu,0.030923
develop,0.012173
disciplin,0.022428
discurs,0.054655
distinct,0.018746
draw,0.024951
duski,0.068738
earli,0.014656
east,0.022530
encyclopedia,0.025238
enlighten,0.031997
exist,0.014572
experi,0.018020
extern,0.011458
follow,0.025069
form,0.011977
gave,0.022801
henri,0.025256
hi,0.070250
hierarchi,0.031932
hikmati,0.079274
histori,0.013051
hosein,0.073208
hossein,0.057056
human,0.015096
ibn,0.068226
idea,0.017587
ikmat,0.079274
illumin,0.184081
illumination,0.071859
illuminationist,0.127190
immateri,0.093989
import,0.013364
imposs,0.026495
includ,0.010877
infin,0.040965
influenc,0.017259
intellect,0.042014
intellectu,0.026882
introduc,0.018381
intuit,0.033530
iranian,0.039517
ishraqi,0.079274
ishrq,0.079274
islam,0.156509
john,0.017823
kurdish,0.053206
languag,0.019691
larg,0.013806
later,0.015580
latin,0.049246
left,0.020883
level,0.015665
life,0.016840
light,0.086390
like,0.013992
link,0.011391
make,0.013320
mehdi,0.062673
metaphys,0.033514
modifi,0.025559
mulla,0.064095
mystic,0.038633
nasr,0.107963
neoplaton,0.091166
new,0.035102
note,0.015102
onli,0.012057
oper,0.016525
origin,0.014516
peripatet,0.161945
persia,0.078011
persian,0.131644
perspect,0.023439
philosoph,0.068976
philosophi,0.245319
pi,0.037652
pioneer,0.027363
platonist,0.051836
point,0.015194
present,0.015019
principl,0.072123
produc,0.015628
question,0.037725
qutb,0.058838
razavi,0.067904
read,0.016545
realiti,0.025912
reason,0.017097
remain,0.031510
reviv,0.030274
sadra,0.069660
school,0.058144
second,0.015634
seyi,0.065794
shahab,0.130381
shahrzouri,0.079274
sina,0.101754
soul,0.034230
spiritu,0.030548
stanford,0.030796
studi,0.014011
substanc,0.027873
substanti,0.024611
successor,0.029781
suffici,0.024510
suhravardi,0.079274
suhrawardi,0.694343
suhrewardi,0.079274
teacher,0.030382
theolog,0.032319
thinker,0.032050
thought,0.018789
tradit,0.016695
translat,0.045649
tri,0.041736
turn,0.018328
twelfth,0.046361
type,0.015939
unknown,0.082348
version,0.023191
wa,0.032612
walbridg,0.079274
way,0.014175
west,0.045529
western,0.019943
wisdom,0.035104
work,0.025994
world,0.013441
write,0.020729
