abil,0.044190
abl,0.023182
access,0.006348
accord,0.013764
accur,0.007817
acknowledg,0.026542
acquir,0.029893
adapt,0.021918
adequ,0.009625
adopt,0.006331
adult,0.008982
advoc,0.007876
age,0.005746
agreement,0.007003
albeit,0.011597
allow,0.009125
alreadi,0.020053
alway,0.006169
amhernt,0.024137
analog,0.008198
anamnesi,0.020675
ancient,0.006647
ani,0.008087
anim,0.064222
anoth,0.022065
antagonist,0.013349
anyth,0.009067
appar,0.007832
appl,0.011948
appli,0.009810
archetyp,0.013444
argu,0.036622
argument,0.023126
aris,0.007485
ascertain,0.026427
ask,0.007584
aspect,0.012060
assent,0.101120
assert,0.015764
associ,0.004482
assum,0.012712
attack,0.022192
attempt,0.005233
attitud,0.009419
attribut,0.007132
automat,0.009366
awar,0.016602
barbara,0.012148
barbon,0.020230
base,0.003997
basic,0.005565
becaus,0.029152
becom,0.008857
befor,0.009450
behavior,0.006489
behaviour,0.008529
belief,0.044435
believ,0.011444
belong,0.007817
benefici,0.020305
benefit,0.026854
better,0.006238
birth,0.040759
blackwel,0.011565
blank,0.040985
block,0.016483
blue,0.029584
bodi,0.011103
born,0.054706
boy,0.032706
brain,0.035412
bring,0.013755
brown,0.009387
bruce,0.011367
build,0.011708
byron,0.015422
california,0.008487
cambridg,0.022015
carl,0.009251
carruth,0.019515
case,0.004632
catalyst,0.012099
categor,0.009419
central,0.005194
centuri,0.009516
certain,0.055787
chanc,0.008919
chang,0.025065
characterist,0.012773
child,0.008899
children,0.007620
chomski,0.121733
circuit,0.041815
cite,0.007750
claim,0.011249
classic,0.006122
classicalliber,0.024137
cognit,0.052712
cogniz,0.016486
combin,0.005284
come,0.010600
common,0.004481
comparison,0.007771
complex,0.032537
compon,0.006382
composit,0.007682
concept,0.041374
concern,0.010405
conclus,0.016515
conflict,0.006902
consist,0.009920
constant,0.022103
constantli,0.010331
construct,0.017216
contact,0.007776
contain,0.010633
contemporari,0.007249
controversi,0.014606
convey,0.011189
convinc,0.009865
correct,0.007463
correctli,0.010648
cost,0.026063
cottingham,0.021524
creat,0.004533
critic,0.010902
critiqu,0.018831
cultur,0.011144
debat,0.027598
decomposit,0.012099
deliv,0.008735
deni,0.008591
depart,0.012996
deriv,0.039445
descart,0.115976
despit,0.006284
determin,0.020586
develop,0.014826
devoid,0.014200
did,0.011003
differ,0.015715
direct,0.004921
disadvantag,0.021980
discours,0.010148
discov,0.013053
diseas,0.023290
display,0.008422
doctrin,0.017775
doe,0.005014
doesnt,0.011081
drawn,0.008746
durat,0.010555
e,0.006005
earli,0.004462
eat,0.020824
edit,0.013967
effect,0.004334
els,0.009188
embed,0.010376
emphas,0.007830
empir,0.024903
empiric,0.048320
empiricist,0.057597
enabl,0.007076
encyclopedia,0.007684
end,0.004878
enquiri,0.013509
entir,0.005787
entireti,0.012755
environ,0.076890
epistemolog,0.031813
equal,0.012152
equip,0.007977
eraspecif,0.024137
essay,0.034586
essenti,0.031012
establish,0.009523
event,0.005806
everybodi,0.014075
everyon,0.010301
evid,0.042591
evolut,0.007244
evolutionari,0.008790
evolv,0.058591
exampl,0.019980
excess,0.008622
exclus,0.007622
exhibit,0.008422
exist,0.017747
experi,0.142659
explain,0.012013
express,0.023124
extend,0.005885
extern,0.003488
extra,0.010219
extraordinari,0.011646
fact,0.033991
factor,0.005657
faculti,0.030919
faith,0.008919
far,0.006050
field,0.009745
fifti,0.011308
fitra,0.021524
fodor,0.031803
follow,0.003816
forgotten,0.012598
form,0.003646
foundat,0.006221
framework,0.006835
fundament,0.018329
gain,0.034828
gather,0.033271
gener,0.013713
genet,0.032415
genotyp,0.013714
geometri,0.019461
given,0.009570
god,0.033403
goe,0.008586
gottfri,0.037761
grammar,0.011867
grammat,0.028938
ground,0.006942
guess,0.026762
ha,0.028632
handicap,0.015075
har,0.013303
hear,0.030183
heard,0.011345
hi,0.029945
highli,0.006281
histor,0.005359
hold,0.011493
hors,0.020613
howev,0.038722
human,0.078145
humanitythat,0.024137
humboldt,0.013592
hurt,0.012507
idea,0.219553
ideasknowledg,0.024137
ident,0.006831
identifi,0.005767
immedi,0.014027
impli,0.007417
implic,0.008313
import,0.008138
imposs,0.008067
imprint,0.027683
inborn,0.067455
incorrect,0.011359
increas,0.004588
independ,0.004900
indetermin,0.014309
individu,0.029528
infant,0.011464
influenc,0.005255
inform,0.056920
inherit,0.008847
innat,0.669049
input,0.008643
inputoutput,0.014848
inquir,0.028110
instanc,0.012923
instead,0.005588
instinct,0.012622
introduct,0.006325
invari,0.010549
irrelev,0.011850
issu,0.010239
item,0.008752
jerri,0.039424
john,0.043414
jung,0.014768
just,0.011126
kaldi,0.020444
key,0.006071
knew,0.022475
know,0.028915
knowledg,0.282031
languag,0.023983
later,0.014231
lead,0.004759
learn,0.180923
learner,0.015291
leibniz,0.130938
level,0.014309
life,0.015382
light,0.013152
like,0.034084
linguist,0.046885
link,0.003468
local,0.005402
lock,0.175633
longer,0.006578
longrun,0.012988
look,0.013171
lost,0.006931
m,0.005704
main,0.005049
mainli,0.006621
make,0.008112
manchest,0.012518
martin,0.008442
mass,0.006541
massachusett,0.010459
math,0.012364
mathemat,0.012540
mean,0.004392
medit,0.012118
melodi,0.048335
memori,0.016593
meno,0.036185
mentor,0.013170
mere,0.007846
metaphys,0.010204
mind,0.120345
mindthat,0.021880
modern,0.004784
moral,0.015958
moreov,0.009149
music,0.008765
nativ,0.082438
nativist,0.035497
natur,0.012774
necess,0.009994
necessari,0.006356
necessarili,0.007807
need,0.019178
network,0.006667
neuron,0.069926
neuroscientist,0.014492
new,0.017813
newborn,0.014015
noam,0.081557
nonlearn,0.081776
notabl,0.012240
note,0.013795
noth,0.016880
notion,0.030184
nurtur,0.026311
o,0.008410
object,0.010904
observ,0.005264
obtain,0.012398
obvious,0.012742
occas,0.009920
occur,0.015202
onc,0.005959
onli,0.022028
oppos,0.013330
opposit,0.006562
order,0.008790
organ,0.017401
origin,0.008840
otherwis,0.007586
outweigh,0.027085
owner,0.009021
oxford,0.007493
paper,0.006581
parallel,0.008264
peopl,0.008794
percept,0.016979
perhap,0.007414
period,0.004739
person,0.010437
peter,0.007272
phenotyp,0.012290
phil,0.014565
philosoph,0.063006
philosophi,0.054324
phrase,0.019220
pinker,0.015561
place,0.004510
plato,0.084053
poor,0.007886
possess,0.014334
possibl,0.009329
powerpoint,0.018597
pp,0.007456
prais,0.010694
predetermin,0.026197
predisposit,0.015783
preexist,0.012451
present,0.018292
press,0.016148
previou,0.006896
previous,0.013944
principl,0.021960
prior,0.013815
priori,0.036777
problem,0.004891
proce,0.011134
process,0.008647
produc,0.004758
product,0.004766
program,0.005753
prohibit,0.018664
project,0.011318
promin,0.007171
proper,0.008205
properli,0.009617
propos,0.011285
prove,0.028233
provid,0.008115
psycholinguist,0.034745
psycholog,0.038979
psychologist,0.010480
puberti,0.016641
pure,0.007232
quandari,0.018710
question,0.028717
racial,0.011230
rais,0.013491
ran,0.010238
rare,0.007526
rasa,0.066355
rat,0.036415
ration,0.015764
rationalist,0.052914
realiz,0.008110
reason,0.010411
recal,0.044867
receiv,0.005541
recent,0.005022
reckon,0.014353
refer,0.008701
rel,0.005200
relat,0.003910
reli,0.006989
remain,0.004797
ren,0.011367
rene,0.016155
repli,0.011930
repres,0.004758
requir,0.009132
research,0.009411
respect,0.005516
respons,0.005030
rest,0.013591
result,0.004040
return,0.005870
reveal,0.007629
rich,0.008317
richer,0.013860
ridl,0.022776
right,0.005205
risk,0.007137
rnd,0.021880
root,0.007327
s,0.004113
said,0.023838
samet,0.024137
santa,0.011495
say,0.012568
scenario,0.073546
scientif,0.023347
scientist,0.006632
seamlessli,0.019082
second,0.004760
select,0.006307
sens,0.017905
sensori,0.056224
sentenc,0.019832
serv,0.005773
sever,0.008416
shape,0.006913
share,0.005652
sheet,0.010490
short,0.006184
signal,0.008346
signifi,0.011704
similar,0.014461
simpli,0.019761
situat,0.031076
slate,0.027990
slave,0.019077
sociobiologist,0.019677
socrat,0.024924
sole,0.008194
someon,0.009429
someth,0.038807
somewhat,0.008557
sourc,0.015233
spark,0.010682
specul,0.016797
stabl,0.007944
stanford,0.009377
state,0.010596
static,0.010326
statu,0.006742
steven,0.010171
stimul,0.018067
stimuli,0.012353
stomach,0.013525
structur,0.004716
stuart,0.011196
studi,0.004266
success,0.010706
suggest,0.079119
suit,0.009384
support,0.009599
supposedli,0.012321
surfac,0.007309
surround,0.014785
surviv,0.006962
symptom,0.011487
synonym,0.010074
syntax,0.012780
tabula,0.061691
taken,0.005910
term,0.011443
test,0.013198
text,0.006963
th,0.004628
theorem,0.009049
theori,0.033122
theoriz,0.010983
therefor,0.016460
thi,0.072466
thing,0.012846
think,0.007000
thinker,0.009758
thought,0.011442
thu,0.004718
time,0.010715
took,0.012612
tradit,0.005083
translat,0.013899
transmit,0.009890
trigger,0.019639
true,0.032681
truism,0.079397
truth,0.008588
type,0.004853
uncov,0.011479
understand,0.016438
unger,0.017669
univers,0.058534
unless,0.009046
unlock,0.016436
unnecessari,0.011921
unwit,0.020929
usag,0.008467
use,0.003298
vari,0.005951
variabl,0.007379
veri,0.009220
versu,0.028268
view,0.015521
von,0.024562
vs,0.009746
wa,0.016549
walk,0.010311
wasnt,0.013381
way,0.030214
western,0.006072
wilhelm,0.030486
wilson,0.010083
window,0.011345
wolfgang,0.012259
word,0.005603
work,0.007914
write,0.012623
york,0.006217
yorkmanchest,0.024137
young,0.007495
zain,0.020675
