abandon,0.009727
abil,0.007164
absolut,0.017664
abstain,0.016290
accord,0.015621
account,0.006132
acknowledg,0.010041
acquaint,0.045720
act,0.005951
actual,0.006664
addit,0.005268
admonish,0.020236
affair,0.034440
alexiu,0.022332
allow,0.005178
alreadi,0.007586
alter,0.009340
altogeth,0.012909
alway,0.007002
amalgam,0.015133
amend,0.010980
analog,0.009304
analysi,0.006277
analyt,0.028480
analyz,0.008752
ani,0.022946
appar,0.008889
appli,0.005566
aristotl,0.010734
assert,0.008945
associ,0.005086
atom,0.446163
atomismu,0.027393
atomist,0.016475
austrianborn,0.021812
awar,0.018842
away,0.007932
bar,0.011770
basi,0.006486
bear,0.009744
becam,0.005739
becaus,0.009453
becom,0.010052
befor,0.005362
belief,0.084050
believ,0.025976
belong,0.008871
bertrand,0.054709
bival,0.020332
book,0.011934
bradley,0.016164
breach,0.014207
britain,0.008845
british,0.021031
broke,0.010767
broken,0.010469
career,0.010316
carnap,0.018001
casewis,0.027393
caus,0.011225
central,0.005894
centuri,0.005400
certain,0.011511
character,0.007976
circl,0.020266
claim,0.006383
clean,0.012310
clearli,0.009455
coexist,0.013292
coin,0.017417
colleagu,0.011367
collect,0.006134
colleg,0.018258
color,0.020953
combin,0.005997
come,0.006015
commonli,0.006984
complementari,0.012269
complex,0.067699
compon,0.007243
concept,0.005869
concern,0.017714
conclus,0.009371
congruent,0.018386
connect,0.006924
consid,0.004905
consist,0.022517
construct,0.013026
contact,0.008825
contain,0.006033
contemporari,0.008227
content,0.008299
contrari,0.010998
contrast,0.007104
controversi,0.008288
convent,0.008144
coordin,0.008916
correspond,0.045812
counterpart,0.011278
critic,0.006186
crossov,0.016914
crucial,0.020477
culmin,0.011144
daili,0.009837
data,0.013425
dealt,0.012606
decidedli,0.018490
declin,0.007985
decod,0.017010
defi,0.015905
defin,0.023089
definit,0.006650
deliv,0.009914
deni,0.009750
denot,0.030789
depreci,0.015030
describ,0.010354
descript,0.023065
determin,0.005841
devalu,0.014325
develop,0.008413
did,0.018731
differ,0.031212
directli,0.006758
dismiss,0.011206
disposit,0.014325
divorc,0.014130
doctrin,0.020173
domin,0.020764
e,0.013631
earli,0.010129
easili,0.008675
effect,0.014758
element,0.012880
enabl,0.008030
encyclopedia,0.008721
enorm,0.010906
entiti,0.034368
entitl,0.020908
epistemolog,0.072209
equal,0.006896
escap,0.010166
especi,0.005880
espous,0.014379
essay,0.009813
establish,0.010808
ethic,0.018639
eventu,0.007197
everi,0.025346
everyth,0.010083
exact,0.028981
exactli,0.019840
exampl,0.004535
exclus,0.008650
exemplifi,0.012900
exist,0.035248
experi,0.006227
explain,0.006816
explan,0.008913
explicitli,0.010308
expon,0.014365
express,0.006561
extern,0.003959
f,0.007459
fact,0.167166
fals,0.020540
familiar,0.010714
fiction,0.010800
field,0.005530
follow,0.004331
form,0.008277
foundat,0.014122
free,0.006185
fundament,0.020802
furthermor,0.009279
g,0.007325
gave,0.007879
gener,0.003890
german,0.007647
given,0.010861
grass,0.013645
greater,0.006820
green,0.037249
h,0.007521
hand,0.006709
handl,0.009846
hegel,0.014786
help,0.005928
henc,0.008448
hi,0.087392
highli,0.007128
hold,0.006522
holismi,0.027393
howev,0.013183
human,0.005216
ian,0.013369
idea,0.012154
ideal,0.017621
ideat,0.019965
identifi,0.006545
immedi,0.007959
impli,0.016836
import,0.004618
indiana,0.013677
indirect,0.011765
individu,0.005585
inequ,0.011393
inferior,0.013180
influenc,0.011928
initi,0.005883
inspect,0.013529
instead,0.006342
interact,0.006756
internet,0.008882
interpret,0.007224
interwork,0.025849
introductori,0.012909
investig,0.022762
isnt,0.014694
item,0.009932
j,0.006800
jeff,0.016091
judgement,0.013688
judgment,0.011475
kevin,0.014207
kind,0.007212
klement,0.026524
know,0.016408
knowledg,0.013620
known,0.031669
lack,0.006902
languag,0.040827
later,0.026919
layer,0.010420
leaf,0.058718
lectur,0.039373
led,0.005842
lend,0.011630
life,0.011638
like,0.014506
limit,0.005528
line,0.006479
linguist,0.010642
link,0.007872
logic,0.280365
logico,0.026524
logicophilosophicu,0.062592
logischen,0.023465
longterm,0.009526
lost,0.007866
ludwig,0.049719
m,0.006474
maintain,0.012623
make,0.004603
man,0.008009
mani,0.024548
manner,0.017472
match,0.009626
mcgill,0.018653
mctaggart,0.021657
mean,0.014955
meinong,0.024071
mental,0.009795
met,0.009256
metaphys,0.057906
method,0.005606
methodolog,0.009581
mind,0.008536
mirror,0.012222
mistak,0.012458
misunderstood,0.034564
molecular,0.009461
monism,0.015928
moor,0.024431
natur,0.014497
nearli,0.007884
necessit,0.014576
need,0.005441
neg,0.023547
nomenclatur,0.012850
nonexist,0.014056
nonsens,0.015605
note,0.005218
object,0.068066
onli,0.004166
ontolog,0.012401
openli,0.013709
oper,0.005710
ordinari,0.029612
origin,0.015049
ourselv,0.014620
overburden,0.020431
overview,0.009069
p,0.013819
paradox,0.011576
parallel,0.009379
particular,0.067990
particularli,0.012696
peopl,0.004990
perfect,0.010113
perhap,0.008414
perspect,0.008099
peter,0.008253
philosoph,0.047670
philosophi,0.107892
philosophicu,0.027393
philpap,0.016502
pictur,0.010133
pla,0.037653
plato,0.023848
plot,0.011093
point,0.005250
posit,0.026822
positiv,0.029480
possess,0.024402
possibl,0.005294
posthum,0.014786
practic,0.005553
princip,0.008108
principl,0.043615
prison,0.011016
process,0.004906
product,0.005409
project,0.006422
proop,0.027393
properti,0.006284
proposit,0.238602
propound,0.015794
protect,0.006917
prove,0.008010
proven,0.010963
psycholog,0.008847
publish,0.011522
pupil,0.027080
qualifi,0.010915
qualiti,0.007733
question,0.006518
rang,0.006230
react,0.011501
realism,0.012842
realiti,0.071635
recal,0.012730
receiv,0.006289
recept,0.013028
recogn,0.007058
refer,0.016459
reflect,0.007074
regardless,0.009951
reject,0.024345
relat,0.013315
relationship,0.025134
replac,0.006708
repres,0.005400
respect,0.012520
respons,0.005709
rudolf,0.013529
russel,0.507694
sake,0.013753
say,0.014264
schult,0.021657
scienc,0.005536
sec,0.032041
second,0.005402
section,0.008156
selfcontain,0.018001
semant,0.012202
sens,0.020320
seri,0.006557
set,0.010198
shape,0.007846
share,0.006414
shift,0.007977
sign,0.007543
signifi,0.026566
simpl,0.007279
simultan,0.009601
singl,0.012262
skeptic,0.012066
socrat,0.014143
someth,0.017617
sound,0.009646
speak,0.008784
special,0.005729
specif,0.005481
stanc,0.012629
star,0.010160
state,0.020043
statement,0.067285
structur,0.010705
subject,0.011656
subsum,0.015313
sun,0.010163
t,0.007971
talk,0.009858
task,0.016998
teacher,0.010499
tend,0.007523
term,0.008658
th,0.005253
themselv,0.006795
theori,0.096661
thi,0.075389
think,0.007945
thought,0.006493
thu,0.005355
tier,0.016394
time,0.004053
togeth,0.006317
topdown,0.016394
tractatu,0.133971
true,0.029671
truth,0.019495
truthindepend,0.054787
typic,0.006146
ultim,0.015848
unconvolut,0.027393
understand,0.012437
unhing,0.024428
unifi,0.009589
univers,0.042705
untru,0.038410
use,0.011230
valu,0.005871
variou,0.005215
version,0.024042
vienna,0.026216
view,0.005871
viewpoint,0.012060
wa,0.045077
war,0.006508
way,0.009797
wheaton,0.046930
wherea,0.007949
wide,0.005900
wittgenstein,0.411236
word,0.006359
work,0.022456
world,0.023224
year,0.004623
