abil,0.004235
absorb,0.006153
academ,0.009221
accord,0.006156
accordingli,0.006927
achiev,0.003872
action,0.015128
activ,0.003071
actual,0.003939
ad,0.003928
adapt,0.004901
addit,0.006228
adher,0.006226
advic,0.006699
affair,0.005089
affect,0.004022
aim,0.004395
aka,0.033563
albeit,0.007780
almostperfect,0.016193
alon,0.005264
amazon,0.008806
analect,0.012552
analysi,0.003710
ancestor,0.006615
ancient,0.004459
angel,0.014763
ani,0.002712
annot,0.008429
anoth,0.002960
ansai,0.014440
ao,0.022258
appeal,0.005732
arai,0.014954
argu,0.024569
aris,0.005021
aros,0.006112
assert,0.005287
associ,0.009021
assum,0.004264
attempt,0.014044
attract,0.004952
author,0.003465
banzan,0.015280
bari,0.010868
base,0.021457
basi,0.003834
becam,0.013570
becaus,0.002794
began,0.007412
belief,0.014905
believ,0.023033
benjamin,0.007038
berkeley,0.014498
better,0.004185
birth,0.005469
book,0.028220
borrow,0.018480
branch,0.011841
brought,0.004575
buddha,0.008704
buddhism,0.083141
buddhist,0.126915
bureaucrat,0.024673
c,0.003552
california,0.017081
came,0.012193
canon,0.026999
catalyst,0.008117
categor,0.018957
caus,0.003318
center,0.003964
centuri,0.019152
ceremoni,0.006862
chan,0.047705
chang,0.008407
character,0.004714
chen,0.009085
cheng,0.064855
chengzhu,0.062717
chikuzan,0.015679
china,0.028656
chines,0.106871
chinesewrit,0.016193
ching,0.011129
chose,0.006992
chu,0.010302
civil,0.008528
class,0.008246
codifi,0.008163
columbia,0.020743
combin,0.003545
commentari,0.007167
commonli,0.004128
commun,0.003250
compet,0.015378
compil,0.006414
complex,0.003638
concentr,0.004865
concept,0.010409
concern,0.003490
conclus,0.005539
condemn,0.007002
conduct,0.008522
conflict,0.004630
confucian,0.189869
confucianist,0.012138
confuciu,0.030052
connot,0.008217
consid,0.002899
contamin,0.007932
content,0.004906
continu,0.003012
contrast,0.012600
contribut,0.003649
copi,0.005994
core,0.005280
countri,0.003272
craig,0.008816
creat,0.006082
creativ,0.006424
creed,0.009584
critic,0.010972
critiqu,0.006316
cultur,0.022431
curriculum,0.007701
daehwan,0.015280
daeseung,0.015679
daeyong,0.016193
daoism,0.011393
daoist,0.036057
death,0.004354
decad,0.004519
decri,0.011751
deepli,0.007020
defend,0.005563
degre,0.012215
deiti,0.007955
deni,0.005763
denounc,0.008053
denunci,0.011702
depend,0.003280
despit,0.004216
develop,0.024866
diametr,0.011094
did,0.011072
differ,0.018451
direct,0.003301
discipl,0.008309
disillus,0.010463
distinguish,0.004414
divers,0.004782
divid,0.011828
divis,0.004309
doctrin,0.011925
dogmat,0.009311
dojeon,0.015280
domin,0.012274
dongpo,0.015280
drink,0.007373
dualism,0.008651
duanli,0.016193
dub,0.007998
dunyi,0.044037
dure,0.020034
dynasti,0.148702
earli,0.008982
eclect,0.009645
ed,0.004190
edit,0.004685
educ,0.007627
edward,0.005445
ekiken,0.015280
ekken,0.015679
element,0.003807
elman,0.012266
embrac,0.006752
emerg,0.011509
emot,0.006149
emphas,0.005253
empti,0.007136
encourag,0.004920
encyclopedia,0.010311
end,0.003272
engag,0.004740
english,0.004169
enlighten,0.006536
entir,0.003882
entireti,0.008557
eonjeok,0.015280
essay,0.011601
essenti,0.012483
establish,0.006389
esteem,0.029566
ethic,0.022037
everi,0.003745
evidenti,0.011519
evil,0.014562
examin,0.023426
excess,0.005784
exclud,0.005631
exclus,0.005113
execut,0.004534
exist,0.014883
explain,0.004029
expon,0.008492
express,0.007757
extern,0.004681
face,0.004492
faction,0.014140
failur,0.005208
fall,0.004086
famili,0.008289
famou,0.004945
follow,0.010242
forebear,0.011962
foreigninfluenc,0.016193
form,0.012233
formul,0.010252
foundat,0.008348
framework,0.009172
franci,0.006129
fujiwara,0.026186
function,0.003277
funer,0.008759
furthermor,0.010970
gan,0.011563
gave,0.004657
gener,0.013800
gentri,0.010369
geun,0.015679
gewu,0.016193
gil,0.010899
goilpil,0.016193
good,0.010676
goryeo,0.051963
gradual,0.005145
great,0.010822
greater,0.004031
greatli,0.005241
greenwood,0.008966
group,0.005774
gu,0.010780
guid,0.004525
gw,0.011060
gwangjo,0.047038
gwon,0.015679
gyeongdeok,0.015280
h,0.004446
ha,0.004268
hakuseki,0.014954
half,0.004406
han,0.044779
hang,0.008574
hao,0.037211
happen,0.005059
harmoni,0.014931
hayashi,0.012019
heartmind,0.014440
heat,0.005644
heaven,0.007666
heihachir,0.014954
heo,0.013715
heresi,0.009629
hero,0.007591
heterogen,0.008047
heunghyo,0.016193
hi,0.031570
high,0.003241
histori,0.002666
hon,0.011275
hong,0.014967
hopelessli,0.012019
howev,0.010391
hu,0.019609
huang,0.010036
huliu,0.032387
human,0.009251
humanist,0.015550
humankind,0.008875
hwang,0.050528
hyang,0.061122
hyanggyo,0.016193
hyoon,0.016193
hyu,0.015679
hyungwang,0.016193
idea,0.043111
ideal,0.005208
ideolog,0.018139
ik,0.011393
ikpil,0.016193
immort,0.008476
imper,0.008660
imperi,0.006235
import,0.010920
includ,0.008888
incorpor,0.004395
increasingli,0.004718
inde,0.005442
individu,0.006603
industri,0.003653
influenc,0.021153
influenti,0.005148
inhu,0.015679
inji,0.016193
innat,0.007874
insight,0.005937
insist,0.006531
inspir,0.010592
instal,0.006316
instanc,0.004335
instead,0.003749
instruct,0.006026
intellectu,0.021965
intern,0.002804
internet,0.005250
interpret,0.025622
introduc,0.011264
intuit,0.027397
invas,0.005836
investig,0.004485
isbn,0.011351
ishin,0.015280
issu,0.003434
jae,0.014229
jang,0.028880
jangsaeng,0.016193
japan,0.021173
japanes,0.036601
jar,0.009788
jega,0.016193
jeong,0.065465
jian,0.012476
jingzuo,0.015280
jinsai,0.014954
jishan,0.016193
jiuyuan,0.045841
jiwon,0.015679
jngzu,0.016193
jo,0.030465
jongjik,0.016193
joseon,0.065965
journal,0.004117
kaibara,0.015280
karma,0.009614
khuyn,0.015679
ki,0.010641
kim,0.053675
kindl,0.011393
know,0.009699
knowledg,0.004025
known,0.008023
korea,0.051681
korean,0.044579
kumazawa,0.015280
l,0.009422
land,0.004050
lao,0.009130
larg,0.002820
later,0.003182
lead,0.003192
learn,0.026973
led,0.003453
li,0.091244
lie,0.005243
lifetim,0.006852
like,0.002858
lineag,0.007920
ling,0.011519
link,0.002326
liter,0.024614
literatur,0.004781
liu,0.018699
live,0.003460
lixu,0.014954
lo,0.014678
logic,0.005179
long,0.003474
longer,0.004413
low,0.004101
lu,0.055945
luwang,0.048580
lxu,0.016193
mainstream,0.019481
maintain,0.003731
mair,0.012333
major,0.002838
mani,0.024186
masteri,0.009645
matter,0.008050
mean,0.005893
mediev,0.011414
medit,0.016260
meiji,0.010537
menciu,0.024532
mengzi,0.015280
metaphys,0.041077
method,0.003314
middl,0.004411
millennium,0.006678
ming,0.045827
minor,0.004951
mistakenli,0.009212
model,0.009999
modern,0.019257
mok,0.014679
mongju,0.015679
mongol,0.008406
moral,0.010706
moreov,0.006138
motif,0.008855
motoori,0.014041
mou,0.023708
movement,0.003689
mystic,0.023675
n,0.004805
naka,0.013572
nakai,0.014440
nam,0.008421
nation,0.002965
natur,0.002856
necessari,0.004264
need,0.003216
neoconfucian,0.767920
neoconfucianist,0.113839
new,0.028681
newli,0.011259
nguyn,0.012552
nh,0.008875
nobil,0.008345
noh,0.013440
nonconfucian,0.015280
nonetheless,0.006693
nonexist,0.008309
norinaga,0.014041
note,0.003085
number,0.002676
object,0.003657
observ,0.007063
occasion,0.006036
occup,0.005575
offer,0.003978
offici,0.004062
officiallyrecogn,0.015280
ogi,0.014229
old,0.008854
oneself,0.008375
onli,0.004926
oppos,0.017886
order,0.002948
organ,0.005837
origin,0.014827
orthodox,0.021616
ouyang,0.013093
overal,0.004897
overli,0.008565
overthrow,0.007770
overthrown,0.008633
paint,0.013591
park,0.012507
pass,0.004156
pen,0.025722
peninsula,0.007118
peopl,0.002950
period,0.006358
persecut,0.007712
person,0.010504
phan,0.014041
philosoph,0.028180
philosophi,0.059223
phng,0.014679
pinyin,0.088216
pioneer,0.011179
place,0.006052
point,0.003103
poison,0.007479
polit,0.010075
popular,0.007656
pp,0.005002
practic,0.013131
precept,0.009599
predica,0.010930
predominantli,0.006811
prefer,0.004698
press,0.028890
prevent,0.004386
previous,0.004677
princeton,0.013548
principl,0.007366
prior,0.004634
probabl,0.004402
process,0.002900
produc,0.003192
prolif,0.008750
promin,0.024057
promot,0.004377
proper,0.005504
provid,0.008167
pure,0.009703
purifi,0.017463
pursu,0.005580
pursuit,0.006917
q,0.006871
qi,0.020228
qing,0.019169
qu,0.012403
question,0.003853
quiet,0.008987
radic,0.011249
rank,0.005180
rapid,0.005317
ration,0.021151
rationalist,0.035500
razan,0.014229
reaction,0.004989
read,0.006759
realiti,0.026466
realiz,0.005441
reason,0.010477
refer,0.001945
reflect,0.004181
reform,0.009520
regard,0.011200
regardless,0.005882
reincarn,0.009629
reject,0.019189
rel,0.003489
relationship,0.003714
reli,0.004689
relic,0.009691
religi,0.014912
religion,0.014868
remain,0.003218
rememb,0.014288
renaiss,0.006434
repres,0.006384
reput,0.006771
resembl,0.012277
restrict,0.004510
result,0.002710
return,0.007876
revolution,0.008170
rise,0.003915
ritual,0.007257
role,0.006817
routledg,0.006934
rule,0.003552
ryu,0.014229
ryun,0.016193
s,0.002759
saek,0.016193
sagehood,0.015280
samurai,0.022952
sarim,0.016193
saw,0.004762
scholar,0.044477
scholastic,0.009324
school,0.114816
scienc,0.003272
second,0.009581
secular,0.006734
seek,0.008733
seen,0.007636
seika,0.029358
selfhood,0.012894
sens,0.004004
seo,0.012632
seondo,0.016193
seong,0.013871
seongil,0.016193
seongryong,0.032387
seowon,0.016193
seri,0.003876
servic,0.003791
sever,0.002823
sh,0.009961
shao,0.014679
sheath,0.010588
shi,0.027859
shinto,0.010641
shio,0.014954
shorten,0.008224
shortli,0.006056
shouren,0.031358
signific,0.006914
sik,0.014440
sit,0.007159
siuchi,0.015679
siyeol,0.031358
slightli,0.005869
slogan,0.009261
sngmng,0.016193
social,0.006890
societi,0.003393
socioeconom,0.007824
sok,0.013572
song,0.071823
songgy,0.016193
soon,0.014898
sorai,0.014954
sought,0.005276
sourcebook,0.010302
specul,0.005634
sphere,0.006060
spirit,0.012238
spiritu,0.006240
stage,0.004729
standard,0.003647
start,0.003428
state,0.009478
statecraft,0.011313
stress,0.005553
strongli,0.010439
studi,0.008586
style,0.005580
su,0.016647
subfact,0.015280
subsequ,0.004226
sukja,0.016193
superstiti,0.011393
suprem,0.005546
symbol,0.004916
t,0.004712
taiji,0.012632
taijitu,0.014954
taken,0.007931
tang,0.017500
tao,0.029169
taoism,0.055569
taoist,0.070659
taylor,0.006814
teach,0.021221
term,0.002559
terminolog,0.006377
th,0.015527
theodor,0.007412
theoret,0.004440
theori,0.012697
theorist,0.006312
therefor,0.003681
thi,0.016205
thing,0.017237
think,0.009393
thinker,0.019641
thought,0.030706
threeschool,0.016193
tian,0.011702
time,0.011981
tin,0.008452
tju,0.015679
today,0.007781
toegy,0.031358
togeth,0.003734
tokugawa,0.011164
took,0.004230
topic,0.004297
tradit,0.020462
tran,0.008309
transcrib,0.018216
transform,0.013299
true,0.008770
tu,0.020474
twentieth,0.006389
twobranch,0.015280
twoschool,0.016193
tzu,0.010695
ultim,0.004684
unconnect,0.021798
understood,0.010165
univers,0.025244
unless,0.006069
unlik,0.009020
unorthodox,0.021230
unreal,0.010094
use,0.006638
vener,0.008966
veri,0.003092
victor,0.007289
vietnam,0.014678
view,0.010413
vinegar,0.011519
visit,0.005441
vn,0.011129
volum,0.004639
vs,0.006539
wa,0.057735
wang,0.131534
way,0.011583
wed,0.009153
weim,0.029909
western,0.004073
westport,0.010133
wherea,0.004699
william,0.004339
wingtsit,0.042689
winter,0.006711
wipe,0.008768
wonjin,0.015679
world,0.013728
worship,0.007339
write,0.012703
writer,0.016675
wrote,0.004614
wufeng,0.016193
xi,0.083459
xiangshan,0.014954
xiu,0.012333
yakyong,0.015280
yamaga,0.015280
yamazaki,0.014041
yang,0.008935
yangm,0.151586
yanj,0.016193
ye,0.008642
yi,0.151710
yin,0.009872
ymeigaku,0.016193
yong,0.011608
york,0.016684
youth,0.006830
yu,0.039286
yuan,0.027784
yulgok,0.015679
yun,0.023405
zai,0.028083
zazen,0.013201
zen,0.009771
zhang,0.027567
zhou,0.028889
zhu,0.113570
zongsan,0.015280
zongzhou,0.016193
