abduct,0.008482
absorpt,0.013382
abstract,0.004837
absurdum,0.009938
accid,0.006627
accuraci,0.005961
achil,0.010002
activ,0.002742
ad,0.007016
address,0.004139
advantag,0.004266
affin,0.006753
affirm,0.006634
aim,0.007850
aleph,0.010450
aleth,0.011789
algebra,0.100352
alpha,0.006363
alphabet,0.006619
ambigu,0.006459
analys,0.005374
analysi,0.006627
analyt,0.020046
analyticsynthet,0.010733
ani,0.002422
anoth,0.002643
answer,0.004894
anteced,0.015729
antinomi,0.011514
antipsycholog,0.013354
antisymmetr,0.010210
apparatu,0.006841
appeal,0.005119
argument,0.069275
aristotelian,0.007131
aristotl,0.017000
arithmet,0.020135
art,0.004205
articl,0.006534
assert,0.004722
associ,0.002685
asymmetr,0.007520
atom,0.024033
attack,0.008863
author,0.003095
axiolog,0.010138
axiom,0.020564
axiomat,0.015138
bach,0.009502
baralipton,0.013645
baroco,0.013108
base,0.002395
basic,0.010003
beginn,0.008816
begriffsschrift,0.010785
belief,0.013310
bia,0.025281
bibliographi,0.004820
bicondit,0.047568
biject,0.029631
binari,0.013238
bival,0.010733
book,0.003150
boolean,0.200390
booleanvalu,0.034544
bound,0.004959
bracket,0.007907
branch,0.007049
bunch,0.009433
calculu,0.024782
canon,0.012055
cantor,0.035204
cardin,0.014556
case,0.002775
categor,0.011286
categori,0.004235
causal,0.006180
charl,0.004251
church,0.010031
churchtur,0.019877
classic,0.014671
classifi,0.008981
claus,0.014789
closur,0.007169
codomain,0.011892
cogenc,0.011789
cognit,0.005263
colleg,0.004819
come,0.003175
commut,0.014751
complement,0.006546
complet,0.018398
composit,0.009205
comput,0.036790
concept,0.006196
conceptu,0.005344
concurr,0.006845
condit,0.024853
confirm,0.004786
congruenc,0.009576
conjunct,0.031023
connect,0.025589
consequ,0.026428
consid,0.002589
consist,0.002971
constant,0.008828
construct,0.003438
constructiv,0.009031
conting,0.006448
continuum,0.019881
contradict,0.017792
contraposit,0.011514
contrari,0.005806
convention,0.010408
convers,0.013742
core,0.004715
coreflex,0.013645
correct,0.008942
correspond,0.008061
countabl,0.009014
counterpart,0.005953
cover,0.007311
credibl,0.013820
criteria,0.005560
critic,0.016330
cyclic,0.006896
decid,0.008654
decidophobia,0.013645
decis,0.011230
deduct,0.051394
defin,0.006094
definit,0.007021
deflationari,0.009877
degre,0.007272
demonstrandum,0.012539
deni,0.005147
dens,0.006320
denumer,0.013108
deontic,0.011209
depend,0.005859
deriv,0.003376
descript,0.008117
design,0.003261
destruct,0.005255
deviant,0.009679
diagon,0.008303
diagram,0.006108
dialeth,0.012002
dialog,0.008755
dictionari,0.005383
dilemma,0.015068
direct,0.002948
discours,0.006079
discoveri,0.004158
discret,0.005236
discuss,0.003622
disjoint,0.018561
disjunct,0.047756
disposit,0.007562
distinct,0.010259
distribut,0.003663
doe,0.003004
domain,0.017346
doubl,0.019663
doxast,0.012539
dozen,0.006210
dual,0.006259
dualiti,0.007619
easi,0.005428
effect,0.007790
element,0.003399
elimin,0.023114
emot,0.016474
empti,0.019119
end,0.002922
english,0.003723
entail,0.024952
enthymem,0.012895
entscheidungsproblem,0.010539
enumer,0.038628
epistem,0.008494
equival,0.012917
erat,0.012248
escher,0.010248
essenti,0.003716
euclidean,0.007472
evalu,0.004631
everi,0.003345
evid,0.003645
exclud,0.015086
exclus,0.004566
existenti,0.007243
expert,0.005280
explan,0.004705
explanatori,0.007534
exploit,0.004976
explos,0.005925
express,0.013854
extens,0.003609
extension,0.011354
extern,0.002090
fact,0.003394
fallaci,0.106370
faulti,0.017172
featur,0.003615
fiction,0.011403
field,0.008757
finit,0.005528
finitari,0.010839
firstord,0.024050
follow,0.002286
foral,0.009761
forc,0.002865
form,0.015294
formal,0.075115
format,0.007797
formula,0.034941
foundat,0.007454
free,0.009795
function,0.067311
fuzzi,0.016630
game,0.019620
gate,0.006919
gdel,0.040976
gener,0.010270
grown,0.005504
guid,0.004041
ha,0.001906
halt,0.006513
hierarchi,0.005825
higherord,0.017423
histori,0.009523
hoc,0.007998
holism,0.008912
homogen,0.006438
hypothesi,0.014937
hypothet,0.012855
idea,0.009624
idempot,0.021907
ident,0.012278
identifi,0.003455
illuminationist,0.011600
immedi,0.004201
implic,0.019921
includ,0.001984
incomplet,0.012457
incorrect,0.013611
independ,0.002935
index,0.009081
induct,0.006330
infer,0.060426
infin,0.007472
infinit,0.005597
infinitari,0.011014
inform,0.011367
inject,0.014115
inquiri,0.005701
instanc,0.003871
instanti,0.009388
instruct,0.005381
intens,0.004747
intension,0.012002
interlocutor,0.010408
intermedi,0.005617
interpret,0.026694
interpretation,0.011354
intersect,0.006441
intransit,0.011600
introduct,0.030315
introductori,0.006814
intuitionist,0.009260
invalid,0.007175
invers,0.018107
investig,0.008010
involut,0.010103
involv,0.002771
journal,0.011029
justif,0.006679
lambda,0.007830
languag,0.039513
larg,0.005037
law,0.040305
led,0.003084
level,0.002857
limit,0.002918
linear,0.010169
linguist,0.016853
link,0.002077
list,0.037201
listen,0.006749
liter,0.010990
literatur,0.004269
logic,0.855644
logician,0.025409
logicophilosophicu,0.011014
lwenheimskolem,0.023201
machin,0.009227
magnu,0.008338
major,0.007605
make,0.002429
manyvalu,0.012002
map,0.008743
materi,0.013394
math,0.007407
mathemat,0.105182
mathematica,0.022707
matrix,0.005998
mean,0.007894
merit,0.006819
metalanguag,0.022028
metalinguist,0.012895
metalog,0.034544
metamag,0.012539
metasyntact,0.013645
metatheorem,0.025414
metatheori,0.021266
metavari,0.013108
method,0.008878
methodolog,0.005057
middl,0.019699
mind,0.004506
minim,0.010086
minor,0.008844
misconcept,0.008396
modal,0.030334
model,0.017859
modu,0.029117
monad,0.019815
monoton,0.008546
morgan,0.020351
multiset,0.011514
nand,0.010895
narr,0.006288
natur,0.005102
nave,0.008785
necess,0.005987
necessari,0.003808
neg,0.016574
negat,0.030420
newal,0.010366
nomin,0.004987
non,0.006886
nonaristotelian,0.010733
noncantorian,0.013645
nonclass,0.018603
noncommut,0.009705
noncomput,0.021266
noncontradict,0.022419
nonfirstorderiz,0.013108
nonimpl,0.025414
nonlinguist,0.010733
nonmonoton,0.010585
nonstandard,0.008626
normal,0.011426
notat,0.012841
novum,0.010585
null,0.007805
number,0.004781
object,0.009799
obscur,0.006619
obvers,0.010633
occam,0.018361
occurr,0.006180
onetoon,0.008494
onlin,0.004182
open,0.006542
oper,0.006029
opinion,0.005078
opposit,0.003931
order,0.010532
organ,0.002606
organon,0.020070
organum,0.010682
origin,0.005296
outlin,0.009302
overview,0.004787
pair,0.005092
paraconsist,0.011432
paradox,0.036665
pariti,0.006877
partial,0.013186
partit,0.006619
pattern,0.004076
paul,0.004153
pd,0.009410
pedagogi,0.008928
peirc,0.008259
peopl,0.002634
peter,0.004357
philosoph,0.025165
philosophi,0.040682
pierc,0.008227
plural,0.006145
point,0.002771
polish,0.012911
polylog,0.013354
polysyllog,0.027291
ponen,0.010682
ponendo,0.013645
portroy,0.025078
possibl,0.002794
post,0.009274
posterior,0.008640
posteriori,0.009789
power,0.005608
practic,0.002931
pragmat,0.006679
precis,0.009027
predic,0.090746
preintuition,0.013354
premis,0.019283
preorder,0.011209
prepar,0.004443
presumpt,0.008640
presupposit,0.009067
prewellord,0.013108
primit,0.006063
principia,0.022815
principl,0.009867
prior,0.008277
priori,0.007344
probabl,0.011795
problem,0.011721
procedur,0.004771
product,0.002855
program,0.003446
project,0.003390
proof,0.055868
propaganda,0.014652
proper,0.009831
properti,0.003317
proposit,0.094467
provabl,0.009260
provid,0.002431
prudenc,0.009818
pseudophilosophi,0.012120
psycholog,0.004670
quantif,0.039153
quantifi,0.024628
quantum,0.011053
quasitransit,0.012895
queri,0.008103
question,0.013763
quod,0.011209
ramism,0.013108
rang,0.006578
razor,0.017145
read,0.003018
reason,0.043664
recurs,0.083340
reduct,0.005000
reductio,0.010002
redund,0.007687
refer,0.001737
reflex,0.007641
refut,0.006864
regardless,0.005253
rel,0.003115
relat,0.067949
relationship,0.003317
relev,0.013635
research,0.002819
residu,0.006707
resolut,0.005316
result,0.002420
rhetor,0.026914
rich,0.004983
right,0.003118
rigour,0.010138
ring,0.005885
rule,0.031721
russel,0.006091
s,0.002464
said,0.003570
sander,0.007890
satisfi,0.005155
scienc,0.005845
scientif,0.003496
scope,0.005108
second,0.002852
secondord,0.008626
selfrefer,0.010494
selftaught,0.011432
semant,0.025766
sentenc,0.035646
sententi,0.010248
sequenc,0.004824
sequent,0.010895
sequenti,0.007527
sequitur,0.011892
set,0.094218
sheffer,0.011600
simpl,0.003842
simplif,0.007952
singleton,0.009847
singular,0.006373
skill,0.004659
skolem,0.011141
social,0.003076
socrat,0.022398
sophism,0.011280
sophist,0.005564
sorit,0.012387
sound,0.005092
sourc,0.006084
special,0.003024
squar,0.005124
statement,0.008879
strict,0.016859
string,0.012848
stroke,0.007725
structur,0.008477
studi,0.025559
suber,0.011354
subset,0.012132
substitut,0.005374
substructur,0.009601
suffici,0.008942
sum,0.009648
superset,0.021365
support,0.002875
surject,0.031618
syllog,0.056876
syllogist,0.010682
symbol,0.035126
symmetr,0.013773
synonym,0.006035
syntact,0.008469
syntax,0.022970
tabl,0.009309
tautolog,0.018645
taxonomi,0.006957
techniqu,0.003716
tempor,0.012746
term,0.027423
ternari,0.010210
test,0.007907
tetralemma,0.012895
thema,0.011432
themselv,0.003587
theorem,0.075901
theori,0.113393
therefor,0.003287
thesi,0.017955
thi,0.003617
think,0.012582
tip,0.006745
toler,0.006119
tollen,0.024496
topic,0.030698
tortois,0.009456
total,0.003374
tractatu,0.010103
tradit,0.003045
transform,0.003958
transit,0.004210
translat,0.008327
transposit,0.009601
trichotomi,0.011514
trigger,0.005883
trivial,0.007220
true,0.003915
truth,0.082331
tupl,0.010174
ture,0.014628
twoelement,0.011514
type,0.008723
typetoken,0.012387
ultrafinit,0.012895
uncount,0.019305
undecid,0.017695
unif,0.006877
union,0.007187
univers,0.002504
use,0.007904
usement,0.013354
vagu,0.007153
valid,0.023091
valu,0.009299
variabl,0.039789
venn,0.010733
veri,0.002761
wellform,0.010210
wellfound,0.010839
win,0.005438
workbook,0.010633
world,0.002451
x,0.004282
zermelofraenkel,0.009789
zerothord,0.012895
