academ,0.020948
adorno,0.050567
aesthet,0.746272
aesthetician,0.061669
alexand,0.026797
appareil,0.064656
appli,0.014951
architectur,0.026381
archiv,0.025742
area,0.013891
art,0.235367
arthur,0.057062
articl,0.016622
avantgard,0.051231
axiolog,0.103168
baumgarten,0.063800
beauti,0.096131
bell,0.032651
bernard,0.032847
board,0.024329
bore,0.037854
bosanquet,0.056689
branch,0.053803
bullough,0.059490
camp,0.030560
classic,0.018662
clive,0.045515
colleg,0.024520
collingwood,0.054611
comedi,0.042194
commun,0.014771
complet,0.015602
concept,0.031530
concern,0.015860
creativ,0.029190
critic,0.016617
cultur,0.016986
curt,0.056689
cute,0.062319
cycleback,0.076871
danto,0.058170
david,0.060205
describ,0.013905
dewey,0.041914
dewitt,0.061669
discord,0.047767
disgust,0.047655
dreyfu,0.048473
ducass,0.069429
duve,0.061067
ecstasi,0.050892
educ,0.034655
edward,0.024743
eleg,0.040553
emot,0.027940
encyclopedia,0.070275
entertain,0.033443
entri,0.052618
erotic,0.066697
extern,0.010635
f,0.020034
film,0.027585
follow,0.023268
fri,0.043550
friedrich,0.059496
fun,0.046515
g,0.039351
gasset,0.064656
gastronomi,0.058587
gaze,0.049247
georg,0.020961
goodman,0.047544
gottlieb,0.047435
guid,0.020563
gyrgi,0.055437
h,0.020203
harmoni,0.033921
hegel,0.039716
heidegg,0.043893
histori,0.060569
historian,0.024507
historic,0.049523
hubert,0.045515
hume,0.037854
humour,0.046419
immanuel,0.036707
implement,0.020249
indiana,0.036736
internet,0.047717
interpret,0.019403
introduct,0.019280
irv,0.039190
jacqu,0.033738
jeanfranoi,0.050103
jo,0.034605
john,0.033085
joseph,0.023966
judgment,0.030822
kant,0.035183
kitsch,0.065612
klee,0.058170
langer,0.049808
link,0.010572
lipp,0.062319
literari,0.030492
look,0.020075
lukc,0.053396
lyotard,0.056358
manifesto,0.038334
margoli,0.057396
maritain,0.057396
martin,0.025735
mathemat,0.038226
mediev,0.025932
merit,0.034695
modern,0.014583
movement,0.016765
munro,0.057035
music,0.053441
natur,0.012979
nelson,0.036736
new,0.010860
nietzsch,0.041081
object,0.016620
old,0.020116
onlin,0.021279
ontolog,0.033309
ortega,0.054353
outlin,0.094660
overview,0.024361
paint,0.092634
parker,0.043222
paul,0.021133
pdf,0.028139
pepper,0.043157
percept,0.051757
perspect,0.021755
philosoph,0.021340
philosophi,0.206995
philpap,0.044325
poetri,0.033921
postmodern,0.037592
postscript,0.052541
prall,0.073578
pretenti,0.056039
prethcenturi,0.069429
problem,0.014910
project,0.017250
provid,0.012369
psychoanalyt,0.044251
r,0.018656
rasa,0.050567
refer,0.008841
relat,0.011921
revu,0.049247
richard,0.043687
roger,0.029650
romantic,0.042542
routledg,0.031508
santayana,0.055733
schiller,0.048981
schopenhau,0.047117
sculptur,0.039758
singer,0.039469
state,0.010767
stephen,0.027335
style,0.025355
sublim,0.042968
susann,0.054877
symbol,0.022340
tast,0.034539
technic,0.021885
theodor,0.067358
theori,0.057695
thierri,0.054103
thing,0.019580
thoma,0.022012
topic,0.019524
tragedi,0.041383
type,0.014794
version,0.021525
w,0.041294
washington,0.027092
wollheim,0.064656
y,0.026205
