aaronson,0.082169
accord,0.016552
aim,0.023636
ak,0.050561
alexand,0.031714
algorithm,0.033184
ammon,0.069857
analyz,0.027823
aris,0.027004
artifici,0.027952
assist,0.024680
associ,0.032339
attempt,0.018881
automat,0.033791
b,0.021924
blackwel,0.041724
care,0.025112
christian,0.025906
church,0.030203
colburn,0.078935
common,0.016165
compet,0.027564
complex,0.019563
comput,0.487382
computerassist,0.059120
concept,0.037315
concern,0.018770
content,0.026381
deal,0.021538
den,0.047940
despit,0.022671
develop,0.040115
dewdney,0.074590
disciplin,0.024636
draft,0.034506
eden,0.054280
editor,0.102799
encyclopedia,0.027723
enquist,0.078935
excurs,0.057081
explor,0.024526
extern,0.012586
filosofi,0.084314
floridi,0.216818
focu,0.023614
franci,0.032963
gdel,0.049349
guid,0.024336
h,0.023910
herik,0.087079
implement,0.023964
inform,0.085561
informat,0.049802
informatica,0.069337
inquiri,0.034332
intellig,0.026856
intern,0.015083
introduct,0.022818
isbn,0.040695
j,0.021616
jaap,0.065610
jan,0.037827
jongeneel,0.087079
just,0.020070
leeuwen,0.066699
like,0.015370
link,0.012512
london,0.024229
luciano,0.201275
machin,0.027783
mainten,0.034520
mathemat,0.067861
matti,0.132644
mean,0.015846
metaact,0.087079
method,0.017820
methodolog,0.060914
mind,0.027135
moschovaki,0.076519
new,0.025705
newslett,0.051542
nia,0.064946
object,0.019669
ollongren,0.087079
omnibu,0.065272
page,0.028208
philosoph,0.075767
philosophi,0.538948
philpap,0.052458
physic,0.018828
press,0.019419
program,0.020755
proof,0.033642
question,0.041440
rapaport,0.069857
ray,0.035743
read,0.018174
refer,0.010464
routledg,0.074579
schmid,0.068375
scienc,0.246395
scott,0.038726
shape,0.024941
sharp,0.035367
springer,0.035250
stanford,0.033829
studi,0.030781
survey,0.027993
taylor,0.036644
technolog,0.020997
tedr,0.236805
timothi,0.046521
topic,0.023106
ture,0.044043
turn,0.020133
turner,0.046759
understand,0.019768
understood,0.027331
unlimit,0.043581
van,0.095570
version,0.025474
viewpoint,0.038336
w,0.024435
whi,0.026796
william,0.023336
worldview,0.044682
x,0.051571
y,0.031013
york,0.022430
