abov,0.028434
absolut,0.018836
access,0.007682
accord,0.022209
actual,0.007106
acut,0.014572
adam,0.022537
adopt,0.007662
agnost,0.035193
agnostic,0.019394
alnawawi,0.026478
alston,0.044495
altern,0.007134
alvin,0.034267
analyt,0.091108
ancient,0.008044
ani,0.014680
annot,0.015204
answer,0.019773
antoni,0.016470
apath,0.025021
appear,0.006431
applic,0.013262
approach,0.012780
appropri,0.008900
arab,0.010255
archiv,0.010219
argument,0.074631
aristotl,0.022892
array,0.012116
articl,0.013198
ask,0.018358
aspect,0.021893
assert,0.019077
associ,0.005424
assumpt,0.009460
atheism,0.016865
atheist,0.015149
attempt,0.025334
australasian,0.018875
author,0.006251
avail,0.006787
avatar,0.019343
avoid,0.008293
base,0.009676
basi,0.006916
basic,0.013471
becam,0.006119
becaus,0.010079
belief,0.179248
believ,0.027698
birth,0.009865
brace,0.017904
branch,0.007120
brought,0.008253
buddhism,0.013633
buddhist,0.013466
canon,0.012175
care,0.008423
caricatur,0.019951
carri,0.007228
categori,0.017112
cathol,0.010826
caus,0.005985
center,0.007152
central,0.006285
centuri,0.005758
certain,0.006137
certainti,0.014153
characterist,0.054103
choos,0.009646
classic,0.014817
coexist,0.014174
cognit,0.010631
coin,0.009286
collaps,0.009878
come,0.012827
commentari,0.025856
commit,0.009399
compani,0.007081
compar,0.006633
complet,0.012388
concept,0.031293
concern,0.012592
conclus,0.009993
confucian,0.016309
confus,0.030283
consequ,0.015252
consid,0.015691
consider,0.015074
construal,0.025021
contain,0.006434
contempl,0.030962
context,0.023668
contrari,0.011728
convict,0.012997
cool,0.012563
cosmo,0.045530
cover,0.007384
creat,0.005485
critic,0.006597
cultur,0.013487
current,0.011483
d,0.029042
dame,0.017538
daoism,0.020551
date,0.007495
dealt,0.013442
death,0.007855
debat,0.016699
defens,0.009844
defin,0.024620
deism,0.018747
deiti,0.215268
depend,0.005917
describ,0.005520
design,0.006587
desir,0.008441
develop,0.004485
did,0.006657
differ,0.009509
disciplin,0.008264
discours,0.036843
discuss,0.014636
disinterest,0.019831
dismiss,0.011949
dispassion,0.021895
distinguish,0.007962
divin,0.011929
doe,0.012137
dr,0.011127
du,0.012676
dz,0.023259
earli,0.005400
earliest,0.018050
ed,0.007559
elucid,0.015028
encompass,0.010108
encyclopedia,0.027899
enter,0.007893
entiti,0.018323
epistemolog,0.038499
epistemologist,0.020270
especi,0.012540
etern,0.013651
ethic,0.029814
europ,0.007321
everyth,0.010752
evid,0.007363
evidentialist,0.025328
evil,0.105075
evolutionari,0.021277
examin,0.016902
exampl,0.009671
exclus,0.009224
exhaust,0.012625
exist,0.150346
experi,0.013280
extern,0.004222
faith,0.032383
falsiti,0.019008
familiar,0.011424
favor,0.008918
fideism,0.047626
field,0.017690
firsthand,0.018664
flew,0.033592
florida,0.014174
focu,0.007921
form,0.026480
forth,0.011737
forti,0.014416
franklin,0.013208
franoi,0.014277
free,0.006595
fulli,0.008705
function,0.005911
gener,0.008298
god,0.454764
good,0.006419
govern,0.010981
grammat,0.017510
grappl,0.019054
grasp,0.014405
greater,0.007272
ground,0.025205
guid,0.008163
ha,0.038500
hadith,0.018390
harcourt,0.017626
hard,0.009476
harri,0.012143
head,0.007454
hegel,0.015767
henolog,0.026975
henoth,0.022374
heterogen,0.014516
hi,0.010354
hindu,0.013386
histori,0.009618
hostil,0.011974
howev,0.009372
httpwwwdegruytercomviewjopthissueopthopthxmlformatint,0.027563
human,0.005562
hume,0.015028
identifi,0.006979
illumin,0.013565
imman,0.035873
implic,0.010060
imposs,0.009763
includ,0.020040
independ,0.005930
index,0.009172
indiana,0.014584
individu,0.005955
info,0.018002
inher,0.022130
initi,0.006273
inspir,0.009553
interfer,0.011785
intern,0.005059
internet,0.009471
interplay,0.015973
interpret,0.030812
introduc,0.006773
introduct,0.007654
introductori,0.027530
investig,0.024272
involv,0.005597
isbn,0.006825
islam,0.009611
issu,0.018587
j,0.007251
jame,0.008143
job,0.009970
john,0.006567
journal,0.007426
justif,0.013491
justifi,0.034834
k,0.008753
kai,0.038586
kierkegaard,0.017808
kind,0.007690
know,0.008748
knowledg,0.029047
known,0.014472
l,0.008498
label,0.010387
lack,0.014721
languag,0.021767
larg,0.005087
later,0.005741
law,0.005815
lead,0.011519
lectur,0.010496
life,0.012410
like,0.020624
link,0.004197
list,0.010735
liter,0.011100
literatur,0.008624
logic,0.037369
london,0.008127
ludwig,0.013254
macki,0.042957
main,0.006110
major,0.010241
malcolm,0.016640
mani,0.017451
manuscript,0.013097
mean,0.015947
meaningless,0.016250
mechan,0.007127
merrihew,0.024740
metaphys,0.086446
miracl,0.030136
miracul,0.018466
monoth,0.017425
moral,0.009656
motion,0.019479
movement,0.006655
mover,0.019551
multipl,0.022271
mutual,0.010181
mystic,0.014235
natur,0.092752
necessari,0.007692
necessarili,0.009448
new,0.004311
newal,0.020940
nielsen,0.038391
nineteenth,0.012073
nonbeliev,0.021895
nonexist,0.044966
norman,0.013599
notabl,0.014812
note,0.016694
notr,0.018875
number,0.004828
object,0.019794
offer,0.007177
omnibenevol,0.072063
omnipot,0.054625
omnipres,0.018919
omnisci,0.057025
onli,0.008886
onlin,0.016895
ontolog,0.013223
open,0.013215
origin,0.005349
outsid,0.007363
pali,0.018103
panenth,0.019445
pantheism,0.018103
para,0.018035
particular,0.012083
particularli,0.006769
passag,0.011499
paul,0.008390
perhap,0.017945
person,0.012631
peter,0.017602
phanja,0.027563
phenomenolog,0.014595
phillip,0.134432
philosoph,0.152496
philosophi,0.427319
philosophicallysophist,0.026975
philpap,0.017596
pioneer,0.010082
place,0.010917
plantinga,0.088035
plenti,0.015176
point,0.011197
polyth,0.018747
posit,0.017161
positiv,0.015718
positivist,0.016409
possess,0.008673
possibilian,0.027563
power,0.005664
predic,0.015275
preoccupi,0.018280
print,0.010394
prior,0.008359
problem,0.041435
project,0.013697
promin,0.008679
prompt,0.012116
proof,0.022570
proper,0.009929
proposit,0.012721
proven,0.023380
provid,0.009821
psycholog,0.009434
publish,0.012286
question,0.041703
radic,0.010146
ration,0.038154
reaction,0.009000
read,0.018289
realm,0.011088
reason,0.018899
reconcil,0.013801
refer,0.007020
reflect,0.007543
reform,0.017172
regard,0.026938
reject,0.034613
rel,0.006293
relat,0.009465
relationship,0.013400
relentlessli,0.022374
religi,0.116564
religion,0.438078
remark,0.010766
renew,0.010264
reopen,0.015955
repeatedli,0.012490
repres,0.005758
respond,0.018934
respons,0.006088
rest,0.008224
rev,0.015685
revel,0.014074
rhee,0.022936
richard,0.008671
robert,0.007718
root,0.008867
row,0.013574
rule,0.006407
rush,0.015332
sacr,0.013442
sake,0.014666
salvat,0.015163
say,0.007605
school,0.007141
scienc,0.011807
scientif,0.007063
scope,0.010319
searchabl,0.018428
seek,0.007876
select,0.007633
sens,0.007222
separ,0.012826
sever,0.005092
share,0.006840
shaw,0.016575
shift,0.008506
shokhin,0.026478
shrewd,0.020940
similarli,0.009255
simpl,0.007762
simpli,0.007971
simplic,0.014133
singl,0.013075
solv,0.008990
speak,0.009367
special,0.006109
sren,0.018583
stanford,0.022695
statement,0.008968
strand,0.013930
strictli,0.011521
student,0.008315
studi,0.030976
subject,0.031073
suffici,0.018063
suggest,0.006839
suprem,0.010004
swansea,0.043572
swinburn,0.021786
sympathet,0.015621
tend,0.008022
term,0.023081
theism,0.036071
theist,0.020012
theistic,0.072009
theme,0.021639
themselv,0.007246
theodici,0.021680
theolog,0.166723
theori,0.011452
therefor,0.013280
thi,0.032886
thing,0.023320
think,0.016944
thought,0.013847
time,0.004322
timeless,0.019293
today,0.007018
togeth,0.006736
topic,0.015502
tradit,0.030758
transcend,0.027638
translat,0.008410
treat,0.008554
treatment,0.008986
true,0.007909
truth,0.020788
typic,0.013108
ultim,0.008449
understand,0.006631
uniqu,0.008329
univers,0.015179
unknow,0.057025
unknown,0.010114
unlik,0.008135
unmov,0.021578
upanishad,0.018353
use,0.011975
usual,0.005878
valid,0.009328
valu,0.018784
varieti,0.007335
veri,0.016737
view,0.012522
virtual,0.009661
vladimir,0.013901
wa,0.012016
wainwright,0.021289
walli,0.017481
warrant,0.030136
way,0.005223
weaker,0.013911
whatev,0.012026
william,0.023484
winch,0.045286
wit,0.011898
wittgenstein,0.067463
wittgensteinian,0.121218
word,0.006781
work,0.019157
world,0.004952
worldview,0.014988
write,0.015276
x,0.017299
y,0.020806
year,0.004930
z,0.071513
