abil,0.010509
abl,0.004824
absorb,0.015269
absorpt,0.009296
abus,0.008215
accept,0.014384
accommod,0.008868
account,0.008996
accumul,0.014653
accur,0.006506
acknowledg,0.007364
activist,0.009111
adapt,0.012163
adequ,0.008012
admit,0.008053
advoc,0.026223
affect,0.004990
affirm,0.009218
agenc,0.006008
agre,0.005758
alan,0.008096
albani,0.013012
albrecht,0.012728
alexand,0.007317
alfr,0.007825
altern,0.029445
alternativ,0.017421
alyssa,0.017655
analog,0.006824
analys,0.007466
analysi,0.009207
andersen,0.013339
anderson,0.019907
andr,0.009969
ani,0.006731
anoth,0.022040
anotherthat,0.020091
anthropologist,0.009798
antirealist,0.028806
antireduction,0.055663
antireductionist,0.056876
antiriduzionismo,0.020091
antisci,0.016379
anyth,0.007547
appar,0.006519
appli,0.020414
applic,0.009122
approach,0.043953
appropri,0.006122
area,0.018966
argu,0.030484
argument,0.038499
aris,0.012461
aristotl,0.015746
arithmet,0.018650
arrang,0.006226
articl,0.004539
aspect,0.015058
assembl,0.005962
atom,0.006678
atomist,0.012083
attain,0.007731
attempt,0.034851
attitud,0.007840
attribut,0.005937
author,0.008600
averag,0.005704
avoid,0.005704
away,0.005817
axiom,0.038095
axiomat,0.042066
base,0.019966
basi,0.004757
basic,0.013898
becaus,0.006933
becom,0.011059
behavior,0.005401
belief,0.018493
believ,0.009525
benefici,0.008451
best,0.005075
better,0.005193
bgh,0.020091
biolog,0.076464
biologist,0.008616
blackburn,0.013170
blank,0.011371
blind,0.009425
bodi,0.004621
boil,0.020601
book,0.017507
boundari,0.006429
break,0.012695
brigandt,0.018958
built,0.005740
burnett,0.013723
c,0.004407
capra,0.015060
case,0.007712
categori,0.005885
caus,0.004116
causal,0.051523
causat,0.033375
causeandeffect,0.014292
cell,0.013266
cellular,0.008534
center,0.004919
centr,0.006341
central,0.004323
centuri,0.007921
certain,0.029550
chain,0.006890
chang,0.006954
check,0.007996
chemic,0.023491
chemistri,0.060840
chicago,0.007517
christiansen,0.016675
churchland,0.014403
civil,0.005290
claim,0.051502
classic,0.005096
clau,0.013681
clear,0.005740
clearli,0.013870
cognit,0.007312
cohen,0.010153
coin,0.006387
combin,0.004398
common,0.011189
commonli,0.010245
companion,0.008897
compat,0.008850
complessit,0.020091
complet,0.012781
complex,0.049653
compon,0.015937
compos,0.023409
composit,0.006395
compris,0.006310
comput,0.005111
concept,0.034439
conceptu,0.014849
concern,0.004330
concis,0.009395
concret,0.008451
condit,0.004316
confer,0.006072
conflict,0.005745
connect,0.015237
conscious,0.031432
consid,0.021585
consist,0.008257
constitu,0.007223
constraint,0.015318
construct,0.019108
contain,0.004425
contest,0.008116
context,0.016280
continuum,0.009207
contrast,0.005211
control,0.008197
controversi,0.006078
core,0.006551
cosenza,0.017916
cover,0.005079
creat,0.003773
creativ,0.007971
crise,0.009517
critic,0.027226
cultur,0.009276
cybernet,0.011023
danger,0.007246
daniel,0.023018
darwin,0.008633
darwinian,0.011767
data,0.004923
david,0.005479
dawkin,0.024674
dawkinss,0.018958
debat,0.005743
decemb,0.016983
deem,0.008348
defin,0.004233
definit,0.009755
degre,0.005052
delin,0.010596
della,0.012063
deni,0.042908
denial,0.010648
dennett,0.038265
deriv,0.009381
descart,0.019307
describ,0.037970
descript,0.005639
determin,0.008568
determinist,0.029547
develop,0.018511
di,0.009600
differ,0.026162
difficult,0.005380
direct,0.004096
disciplin,0.011368
disconnect,0.011947
discours,0.016894
disord,0.007952
distinct,0.009502
distinguish,0.010953
disun,0.028074
divers,0.011866
divid,0.004891
divis,0.010693
doe,0.033392
dogma,0.010546
doubt,0.007961
downward,0.029702
draw,0.006323
dream,0.008906
drive,0.006628
dualist,0.023784
dupr,0.033350
earli,0.003714
ecolog,0.027995
ecologist,0.021622
econom,0.008129
ecosystem,0.008424
ed,0.010398
edit,0.005813
educ,0.004731
edward,0.006756
effect,0.003608
effici,0.005815
electron,0.006215
elementari,0.008378
elimination,0.020091
eliminationist,0.040183
eliminativ,0.017916
embrac,0.008378
emerg,0.066640
emergent,0.047653
emmech,0.017655
emphas,0.006518
empir,0.005182
empiric,0.020110
employ,0.004926
encyclopedia,0.012793
energi,0.005199
enhanc,0.006879
enlighten,0.008109
enter,0.005429
entir,0.014452
entiti,0.050413
environ,0.004923
epiphenomena,0.064472
epiphenomenon,0.034034
epistemolog,0.026480
equiti,0.008498
eric,0.008822
erik,0.011164
ernest,0.009555
ernst,0.009004
especi,0.012938
evalu,0.006435
event,0.014499
everi,0.023237
everyth,0.022187
evid,0.005064
evolutionari,0.014634
exampl,0.053220
exert,0.017044
exhibit,0.007011
exist,0.040626
expect,0.005102
explain,0.064997
explan,0.091529
explanatori,0.010467
explic,0.012185
explor,0.016976
express,0.009624
extend,0.004898
exterior,0.010974
extern,0.002904
f,0.005470
fact,0.014146
factor,0.004709
fallaci,0.021112
falsifi,0.010845
far,0.005036
favor,0.006134
featur,0.010045
feedback,0.018038
feel,0.006943
field,0.012167
final,0.004803
finnemann,0.020091
focus,0.005170
forc,0.003980
forese,0.011616
form,0.021249
formal,0.009939
formul,0.006359
foundat,0.031073
fragment,0.062489
frame,0.007589
framework,0.022760
frazer,0.015138
free,0.022682
frequent,0.011166
freud,0.010648
friedrich,0.008123
fritjof,0.015302
fundament,0.030514
furthermor,0.006805
ga,0.006681
galilean,0.012292
galileo,0.019554
galison,0.016839
gase,0.008854
gate,0.009613
gdel,0.022772
gender,0.008514
gene,0.007705
gener,0.017122
genet,0.006745
genuin,0.009212
georg,0.011447
german,0.011217
given,0.011949
global,0.010548
good,0.004415
govern,0.003776
grasp,0.009908
great,0.004476
greedi,0.013942
group,0.003582
guid,0.005615
h,0.005516
ha,0.023833
happi,0.008781
hard,0.006518
harm,0.007656
harvard,0.007759
heisenberg,0.011633
held,0.004695
hi,0.021365
hierarch,0.027333
hierarchi,0.056652
higher,0.023607
histor,0.004461
hold,0.009567
holism,0.074295
holist,0.061226
howev,0.006446
httpidrinfoidrccaarchivereportsintrapdfsvnehtm,0.020091
httpwwwbioregionalanimismcomispolyphasicconsciousnessnecessaryhtml,0.020091
httpwwwondwellecomosmpdf,0.020091
human,0.022957
hypothes,0.007897
hypothesi,0.006917
idea,0.053488
ideolog,0.007501
idrc,0.018554
iia,0.014580
il,0.011073
ill,0.007711
illus,0.009805
illusori,0.012837
immanuel,0.010023
impli,0.024697
implic,0.006919
import,0.010161
impos,0.006830
imposs,0.006715
improp,0.011716
inappropri,0.020935
includ,0.011027
incomplet,0.008654
independ,0.008158
individu,0.004096
influenc,0.013122
influenti,0.012774
inform,0.007896
ingo,0.014842
inher,0.007610
inner,0.007983
insist,0.008103
inspir,0.006570
instanc,0.005378
instead,0.013955
insul,0.021622
intellectu,0.006813
intend,0.006148
interact,0.004955
interconnected,0.013765
intern,0.003480
internet,0.006515
interpret,0.005298
interview,0.008212
introduc,0.009317
introduct,0.005264
intuit,0.016996
ippocr,0.017916
irreduc,0.011584
isol,0.006447
issu,0.004261
itali,0.007147
item,0.065565
j,0.004987
jackson,0.010273
jame,0.016803
joel,0.011600
john,0.009034
jone,0.017635
jorgensen,0.016522
jouko,0.020091
just,0.009261
justifi,0.007986
kant,0.009607
karl,0.007469
kauffman,0.013989
kelli,0.011371
kepler,0.021381
key,0.005053
kim,0.011099
kind,0.010579
kinet,0.017978
knowledg,0.024974
known,0.003318
kukla,0.018958
kurt,0.010458
l,0.005845
laboratori,0.006738
languag,0.014972
larg,0.006998
larger,0.005241
largerscal,0.013897
laughlin,0.014707
laureat,0.010282
law,0.027999
lay,0.007471
led,0.004285
lepton,0.013681
level,0.091318
lexicon,0.011892
librari,0.006237
life,0.004268
light,0.005473
limit,0.028384
linear,0.014129
linguist,0.015610
link,0.005774
live,0.004292
logic,0.006425
loop,0.018285
lopez,0.013170
loss,0.005807
lot,0.008177
love,0.015764
lower,0.024529
lumpkin,0.020091
macroscop,0.019022
major,0.003522
make,0.003376
mani,0.021005
marx,0.009279
masculinis,0.018554
materi,0.009304
mathemat,0.041753
matter,0.019976
maureen,0.015302
mean,0.003656
measur,0.004348
mechan,0.024513
mechanist,0.011073
medicina,0.015673
medium,0.007568
melbourn,0.011929
member,0.004235
meme,0.014520
memori,0.006906
mental,0.021552
met,0.006789
metaphys,0.025482
method,0.028782
methodolog,0.042164
michael,0.012219
microscop,0.008570
mind,0.025043
mindbrain,0.016379
minim,0.007007
minimum,0.014483
misplac,0.014186
mit,0.008066
mode,0.007474
model,0.020677
modern,0.007964
molecul,0.007168
molecular,0.020817
monica,0.013765
monism,0.011682
monocultur,0.013897
monophas,0.020091
monopoli,0.008506
moral,0.006641
motion,0.020097
multipl,0.010212
murphi,0.011855
nagel,0.026822
nancey,0.019453
natur,0.046075
nd,0.006177
necess,0.008319
necessari,0.010581
need,0.015964
nel,0.015060
network,0.005550
neural,0.008920
neurobiolog,0.011286
neurophilosophi,0.015776
new,0.014827
newer,0.009749
newtonian,0.020547
ney,0.016839
niel,0.011328
nobel,0.007728
nonetheless,0.008304
nonlinear,0.009095
nonreductionist,0.017655
nonreligi,0.012782
north,0.005271
note,0.003827
noth,0.042152
notion,0.006281
noumen,0.033679
nuanc,0.011784
nugget,0.014842
number,0.026570
ny,0.009607
obey,0.009474
object,0.018153
observ,0.008763
offer,0.004936
old,0.005493
ole,0.013765
olistico,0.017916
ondwel,0.018958
onli,0.015280
ontolog,0.163721
oper,0.012564
opium,0.011947
opposit,0.010925
oppress,0.009791
organ,0.028970
organiz,0.008697
ought,0.009530
outcom,0.013574
outlin,0.006462
owe,0.008080
oxford,0.012475
pantheon,0.011649
paper,0.005477
paradigm,0.008044
particl,0.014272
particular,0.016622
patricia,0.011445
peder,0.017017
pejor,0.023169
penguin,0.009984
pensiero,0.017210
peopl,0.007320
perceiv,0.020029
percept,0.007066
perceptu,0.010617
perhap,0.006171
permit,0.006761
person,0.013032
perspect,0.011881
peter,0.012107
phenomen,0.023074
phenomena,0.101421
phenomenon,0.020512
philosoph,0.052445
philosophi,0.050870
phrase,0.007999
physic,0.060818
physicist,0.007858
physicochem,0.013074
physiolog,0.007819
pinker,0.012953
planet,0.007532
point,0.015404
polkinghorn,0.016675
polyphas,0.017210
pona,0.018958
pope,0.009336
popper,0.010879
popular,0.004749
pose,0.016173
posit,0.019672
possibl,0.011648
postenlighten,0.015574
postul,0.008191
potenti,0.004928
power,0.015583
pp,0.006206
practic,0.008146
preced,0.014425
preclud,0.010914
predict,0.016710
prefer,0.005829
presenc,0.005757
press,0.022403
pretheoret,0.019453
previou,0.005740
primarili,0.005203
primit,0.008424
principl,0.009139
process,0.021593
processor,0.010744
program,0.009577
progress,0.005188
promot,0.005430
propens,0.011837
properti,0.041484
propos,0.009393
proposit,0.026250
prove,0.017626
provid,0.030399
psycholog,0.058402
psychophys,0.012475
pubblisfera,0.017916
publish,0.004225
pursuit,0.008583
pw,0.014135
quark,0.011568
question,0.004780
radic,0.006978
rais,0.005615
ration,0.006560
rationalist,0.011011
read,0.004193
real,0.010022
realiti,0.059107
realiz,0.006751
realli,0.015535
realm,0.015253
realmand,0.020091
reconcili,0.010103
recurs,0.010526
reduc,0.045739
reduct,0.097259
reduction,0.755517
reductionist,0.234836
refer,0.009657
reflect,0.005188
regard,0.009264
reinforc,0.008222
reinvent,0.012083
reject,0.011904
relat,0.013021
relationship,0.004608
relev,0.012630
religi,0.012334
religion,0.073792
replac,0.009840
replic,0.008522
report,0.004640
requir,0.007601
research,0.003916
reserv,0.006421
result,0.003363
review,0.005409
richard,0.023858
riduzionismo,0.020091
right,0.008665
rigor,0.008129
ritschl,0.017017
robert,0.015926
role,0.004229
romant,0.010273
root,0.012198
rosen,0.012548
rosenberg,0.012598
roughli,0.006772
rr,0.012866
ruse,0.029970
said,0.014882
saw,0.005908
say,0.010461
scale,0.016394
scerri,0.014520
scheme,0.007266
schleiermach,0.014460
schuster,0.011649
scienc,0.105579
sciencean,0.017210
scientif,0.043726
scientism,0.040343
scientist,0.016563
scienza,0.016675
search,0.006179
secondord,0.011985
seen,0.009474
select,0.010500
selfconsist,0.012866
selfish,0.011314
selforgan,0.011733
semiconductor,0.010536
sens,0.009936
senseless,0.015998
sensibl,0.010680
separ,0.008822
set,0.026180
sever,0.007006
shed,0.010291
shiva,0.013485
shown,0.005822
sigh,0.015998
sigmund,0.011204
similar,0.004012
simon,0.008073
simpler,0.008959
simplifi,0.007825
singl,0.008993
slate,0.011649
small,0.004111
smaller,0.034281
smallerscal,0.014912
smallest,0.008745
social,0.008549
societi,0.004209
sociobiolog,0.012228
sociolog,0.015923
sometim,0.013122
sort,0.007047
sourc,0.004226
spatial,0.007855
speak,0.006443
speaker,0.008628
speci,0.006179
special,0.004202
specif,0.004020
spirit,0.015184
spiritu,0.007742
squar,0.007119
stage,0.005868
stanford,0.015610
statement,0.012337
statist,0.005512
stem,0.007553
steven,0.025400
stop,0.006638
strategi,0.006259
strong,0.004882
stronger,0.008089
strongli,0.012952
structur,0.011777
stuart,0.009319
studi,0.028408
stump,0.014347
subset,0.008427
substanc,0.035322
substanti,0.006237
success,0.008912
suggest,0.014112
sullantica,0.020091
sum,0.053622
summar,0.008558
supertheori,0.020091
suppos,0.007383
surviv,0.011590
sven,0.014520
symmetri,0.018708
systemat,0.006419
tackl,0.010345
talk,0.007230
tara,0.013723
techniqu,0.005163
technolog,0.004844
temperatur,0.006792
tendenc,0.007545
term,0.076203
terrestri,0.009148
th,0.003852
themselv,0.004984
theolog,0.016382
theologian,0.009938
theorem,0.007532
theoret,0.022038
theori,0.114220
theorythat,0.018958
therebi,0.006955
therefor,0.009134
thermodynam,0.008624
thesi,0.008315
thi,0.040213
thing,0.042773
think,0.017481
thoma,0.006010
thought,0.004762
thu,0.011784
token,0.033943
toki,0.017421
took,0.005249
traill,0.017655
translat,0.005784
trattato,0.017421
tri,0.005289
true,0.005440
truth,0.007149
turn,0.004645
twentieth,0.007927
tylor,0.014912
type,0.044439
ulanowicz,0.033679
ultim,0.005811
unanswer,0.015776
uncertainti,0.007819
unchang,0.008959
unclear,0.008826
undecid,0.024585
undermin,0.008906
underpin,0.009798
understand,0.036489
unifi,0.007033
unit,0.003389
univers,0.017401
universalit,0.020091
unobserv,0.011521
usag,0.014095
use,0.041184
usual,0.024261
v,0.005991
valid,0.012833
vandana,0.016379
veri,0.015349
version,0.005877
view,0.034453
viewpoint,0.008845
vike,0.011272
vital,0.007504
vnnen,0.020091
voetmann,0.020091
vol,0.007221
w,0.005638
wa,0.016530
walmsley,0.018958
war,0.004773
warrant,0.010364
watchmak,0.015138
way,0.032335
weinberg,0.024857
welldevelop,0.011177
wherea,0.005830
whi,0.006182
whitehead,0.011073
william,0.010768
work,0.016470
world,0.027253
worldth,0.015673
worri,0.009900
write,0.005253
wrong,0.007903
york,0.005175
zermelo,0.027363
zermelofraenkel,0.013600
