abil,0.003559
absolut,0.074602
absoluterel,0.012137
absolutist,0.009085
abstract,0.004552
absurd,0.007434
academ,0.003875
accept,0.012992
accord,0.007761
accordingli,0.011645
account,0.027424
accus,0.010377
accustom,0.008735
achiev,0.006509
act,0.005913
actor,0.005964
actual,0.006622
address,0.003896
adequatio,0.013610
adult,0.010129
advanc,0.003195
advoc,0.026646
aesthet,0.006274
afford,0.005555
age,0.003240
agnostic,0.018073
ahelperofman,0.013610
albeit,0.006539
aleth,0.022191
algorithm,0.005186
alik,0.006971
allegedli,0.006662
alway,0.013916
ambigu,0.006079
analyt,0.004716
andrew,0.005254
anekantavada,0.011658
angloamerican,0.007959
ani,0.009120
ann,0.006059
anoth,0.017418
antholog,0.007346
anthropolog,0.023462
anthropologist,0.039826
anybodi,0.016398
anyth,0.010226
aphor,0.008640
appar,0.004416
appeal,0.004818
appear,0.011986
appli,0.030424
applic,0.009269
apprehend,0.034003
approxim,0.003525
april,0.003958
apt,0.008419
arbor,0.008435
argu,0.017208
argument,0.039121
aris,0.004220
aristotl,0.026667
arriv,0.004164
aspect,0.010201
assert,0.013333
assess,0.008813
assign,0.004647
associ,0.005054
assum,0.007168
atheism,0.007858
attack,0.004171
attain,0.005237
attempt,0.005902
attitud,0.015933
attribut,0.004021
audienc,0.005839
august,0.003931
author,0.002913
avert,0.008435
avoid,0.003864
awar,0.004680
away,0.003941
axi,0.005933
baghramian,0.013610
bahud,0.012843
barbar,0.008921
bart,0.009268
barzilai,0.011095
base,0.006763
basi,0.006445
basic,0.003138
basil,0.007847
battl,0.004886
bbc,0.005885
bc,0.009230
becam,0.005703
becaus,0.021135
becom,0.009989
bed,0.006737
beg,0.008158
begin,0.006083
behavior,0.007318
belief,0.037584
believ,0.012906
benedict,0.023950
berlin,0.011111
bernard,0.012152
besid,0.005337
best,0.006876
better,0.014071
bias,0.006464
bibl,0.006255
bibliographi,0.004537
binari,0.006229
bival,0.020204
blackwel,0.019565
blai,0.013610
blunt,0.008774
boat,0.006218
boghossian,0.012337
book,0.017789
boston,0.005751
bracket,0.007442
brand,0.006305
bring,0.003878
british,0.003483
broader,0.005201
buddhism,0.012705
buddhist,0.006274
bugbear,0.012337
build,0.003301
burian,0.012843
bypass,0.007234
c,0.002985
california,0.004785
cambridg,0.008276
capac,0.008662
cardin,0.006850
career,0.005125
carri,0.003368
case,0.005224
catastroph,0.006200
categori,0.003986
cathol,0.020178
caus,0.002788
central,0.005857
centuri,0.005365
certain,0.017158
certainli,0.005964
cf,0.007046
challeng,0.011197
chang,0.009422
changeabl,0.009414
chao,0.006046
chapter,0.004869
character,0.003962
characterist,0.003601
charl,0.004001
choic,0.008210
choos,0.004494
chosen,0.004774
christ,0.006667
christian,0.012147
christoph,0.005475
church,0.018883
claim,0.047575
class,0.003465
clear,0.007778
close,0.005591
closer,0.015510
code,0.008086
cognit,0.014861
coher,0.005759
coin,0.004326
collect,0.003048
collectiv,0.008158
color,0.005205
columbia,0.005811
come,0.008965
comment,0.010010
common,0.012633
commonsens,0.008388
commun,0.008197
communist,0.005154
compar,0.012362
complex,0.006115
complic,0.004735
comput,0.003462
concept,0.017497
conceptu,0.005029
concern,0.011735
conclav,0.010366
conclud,0.004273
conclus,0.004656
concret,0.011449
condemn,0.005885
condit,0.005847
conditionsalthough,0.013610
condon,0.009085
conduct,0.003581
conflict,0.015568
confluenc,0.008774
confus,0.004703
congeni,0.010425
conscienc,0.022937
consent,0.006413
consequ,0.003553
consid,0.014622
consider,0.003511
consist,0.002796
constantli,0.005825
constitut,0.006599
constru,0.008019
construct,0.009708
constructivist,0.008484
contempl,0.007213
contemporari,0.008175
contend,0.006023
content,0.004123
context,0.029409
continent,0.005565
conting,0.006069
continu,0.002532
contradict,0.022328
contradictori,0.007378
contrast,0.007060
contribut,0.003067
controversi,0.004118
convent,0.008093
convey,0.006309
convinc,0.005563
cooper,0.003994
correct,0.012624
correspond,0.007587
corrupt,0.005130
cosmo,0.007071
count,0.004766
counter,0.005650
countercount,0.013610
cours,0.003642
court,0.003963
creat,0.002556
createspac,0.010918
creator,0.012526
creed,0.008056
crick,0.032851
crisi,0.004312
criteria,0.005233
criterion,0.006274
critic,0.021517
criticis,0.006151
critiqu,0.005309
crude,0.006562
cultur,0.078554
culturespecif,0.011192
cun,0.009324
current,0.005350
daili,0.004887
dalla,0.008989
dame,0.016344
dawkin,0.016715
day,0.009460
debat,0.011671
decad,0.003798
deceit,0.009109
decre,0.006001
deed,0.007249
deepli,0.011801
defenc,0.005087
defend,0.014027
defens,0.004586
defin,0.002867
definit,0.006608
deflationari,0.009296
degre,0.010267
delus,0.016538
deni,0.014533
denial,0.036067
depend,0.008272
describ,0.007716
descript,0.045841
desir,0.011799
despit,0.003543
destini,0.007442
destroy,0.008740
destruct,0.004945
determin,0.002902
devalu,0.007117
develop,0.010450
dialogu,0.005834
dictatorship,0.020259
differ,0.028800
differenti,0.004231
difficulti,0.013540
digniti,0.007467
directli,0.006715
disagr,0.005942
disallow,0.008815
discern,0.006867
disciplin,0.003850
discov,0.003680
discredit,0.007271
disdain,0.009085
display,0.004749
disput,0.004203
dissatisfact,0.007713
distinct,0.022530
distinctli,0.007636
divin,0.005558
doctrin,0.025058
doe,0.025448
dont,0.005839
dordrecht,0.008119
doubt,0.010786
draw,0.008567
du,0.005906
dualiti,0.014343
dub,0.006722
dure,0.007216
e,0.006772
earli,0.002516
earlier,0.003717
ed,0.010566
educ,0.006410
effort,0.003484
ego,0.016062
elect,0.003710
element,0.003199
emancip,0.007199
embodi,0.005817
embrac,0.011351
emerg,0.003224
emic,0.030764
empir,0.014042
employ,0.003337
empti,0.005998
enabl,0.003990
encourag,0.004135
encycl,0.009796
encyclopedia,0.021665
end,0.008252
endors,0.005954
engag,0.011952
enlighten,0.005493
enslav,0.007199
enterpris,0.004735
entiti,0.008537
ephesian,0.010309
epistem,0.031980
epistemolog,0.041856
epistemologicaltruthvalu,0.013610
epithet,0.008517
equal,0.017131
equat,0.008369
ernest,0.006473
error,0.009568
escap,0.005051
especi,0.008764
essenti,0.017487
et,0.004324
etern,0.006360
ethic,0.041675
ethnocentr,0.009796
etic,0.031275
evalu,0.013078
evangelium,0.011296
everi,0.018890
everyday,0.005374
everyth,0.010020
evid,0.013723
evil,0.012239
evolut,0.004085
evolutionari,0.004957
exampl,0.013519
excess,0.004862
exclus,0.004298
exhaust,0.005882
exist,0.015011
experi,0.015469
experienc,0.004516
explain,0.003386
explan,0.004428
explicit,0.005493
explicitli,0.005121
express,0.022818
extent,0.008279
extern,0.003934
extrem,0.021654
face,0.007552
fact,0.019166
factor,0.006380
factual,0.007249
fail,0.003782
faith,0.040238
fals,0.045924
falsehood,0.008989
famou,0.004156
farewel,0.008989
fashion,0.005295
fatal,0.006539
father,0.004423
favour,0.004947
fear,0.009441
feminist,0.006594
feyerabend,0.046067
fieldwork,0.008500
final,0.006508
fish,0.004694
fix,0.003993
flux,0.006618
focu,0.003691
follow,0.008608
form,0.024677
forth,0.010938
foucault,0.007784
foundat,0.003508
frame,0.010282
framework,0.011563
frameworkrel,0.013610
free,0.003073
freedom,0.016988
freemasonri,0.010550
freshman,0.010617
friendship,0.013363
friesian,0.012337
fromthebroadmeadow,0.013610
function,0.002754
fundament,0.010335
fuzzi,0.015652
ga,0.004526
gad,0.009796
gellner,0.010617
gener,0.009666
genu,0.006795
georg,0.007754
given,0.005396
goal,0.018502
god,0.032961
good,0.026920
gospel,0.007563
grade,0.006274
grant,0.004124
granth,0.028937
grasp,0.006712
great,0.003032
greater,0.003388
green,0.004626
ground,0.007829
group,0.014561
grow,0.003449
guarantor,0.018767
guid,0.003803
guru,0.032125
h,0.003737
ha,0.026909
hamlet,0.017979
hand,0.006667
harm,0.005186
harr,0.011801
harvey,0.006822
heisenberg,0.007880
held,0.006361
help,0.005890
hermet,0.018828
hewilladd,0.013610
hi,0.048245
hide,0.006368
highest,0.004119
hilari,0.008312
hindu,0.006237
histor,0.006044
histori,0.006722
hold,0.016203
holi,0.005696
holli,0.009354
homili,0.010837
hour,0.004727
howev,0.024017
human,0.041472
humanum,0.013610
hymn,0.007948
hypothesi,0.004686
idea,0.009058
ideal,0.008755
ident,0.003852
identifi,0.013008
ideolog,0.015246
ii,0.010562
illumin,0.006321
imagin,0.005378
immedi,0.003954
impli,0.012547
implicit,0.006301
import,0.018356
impos,0.009253
imposs,0.009098
includ,0.003735
incommensur,0.009186
incompat,0.013711
incongru,0.018890
increas,0.002587
increment,0.013591
inde,0.009149
independ,0.008289
indian,0.008907
indisput,0.009109
individu,0.024975
individualist,0.007784
inevit,0.011854
influenc,0.002963
inher,0.010311
inquiri,0.005366
insid,0.004512
insidi,0.010309
inspir,0.004451
instanc,0.007287
instead,0.003151
instrument,0.004142
intellectu,0.004615
intellig,0.004197
intend,0.004164
internet,0.013240
interpret,0.028713
intrins,0.011392
intuit,0.005756
invari,0.023794
invariantvari,0.013610
investig,0.003769
invok,0.006460
ironi,0.008774
irrevers,0.007426
isaiah,0.017001
isbn,0.034984
isnt,0.014602
jack,0.006360
jainism,0.008158
januari,0.003839
john,0.009180
johnson,0.018442
jone,0.005973
joseph,0.017733
judg,0.004968
judgement,0.020402
judgment,0.005701
june,0.003919
just,0.006274
justif,0.025144
k,0.008157
kam,0.010550
kant,0.013016
karl,0.005059
keeper,0.008774
kind,0.010750
knight,0.006737
know,0.004076
knowabl,0.009135
knowledg,0.020301
known,0.013487
koran,0.010425
kosko,0.012137
krausz,0.054442
kuhn,0.039741
l,0.007919
label,0.014520
lakoff,0.028727
languag,0.003380
larg,0.002370
late,0.003114
later,0.008025
latest,0.006007
law,0.021677
lead,0.018785
leader,0.003933
learn,0.003778
leav,0.007618
lecomt,0.013178
left,0.003585
legal,0.003711
len,0.006822
leo,0.020197
lesser,0.005514
let,0.005039
level,0.002689
lewi,0.005645
liber,0.008110
libertin,0.010837
licens,0.005355
life,0.014456
like,0.012012
likewis,0.010654
limit,0.005493
linguist,0.010575
link,0.005867
lionel,0.008696
literari,0.005640
literatur,0.004018
littl,0.003442
live,0.005816
loath,0.010309
local,0.003046
locat,0.003306
lock,0.005825
logic,0.065296
logicapt,0.013610
london,0.007574
longer,0.011128
look,0.003713
lord,0.005323
lost,0.003908
lot,0.005539
luke,0.008240
lurch,0.011192
m,0.006433
madhyamaka,0.010054
mahavira,0.009509
mahayana,0.008254
mainli,0.003733
mainstream,0.005458
maintain,0.003136
major,0.004772
make,0.006861
man,0.015917
mani,0.036590
manyvalu,0.033888
margoli,0.053086
maria,0.006647
mark,0.007221
martin,0.004760
marxism,0.007033
mass,0.003688
massachusett,0.005897
massiv,0.004785
mathemat,0.003535
matter,0.003383
matur,0.005233
max,0.005496
mean,0.019815
meaning,0.005845
meant,0.009225
measur,0.014728
mechan,0.003321
mediat,0.005509
meiland,0.013610
membership,0.004953
men,0.004170
mere,0.008848
messag,0.011178
metaphor,0.012649
metaphys,0.017262
method,0.005570
methodolog,0.019042
michael,0.016555
michel,0.006165
michigan,0.006490
mid,0.004478
mind,0.021206
minut,0.005368
misinterpret,0.008212
mistaken,0.014852
mixtur,0.005623
mode,0.010126
monster,0.008031
month,0.003973
moral,0.067490
mostli,0.003837
movement,0.003101
mundi,0.008640
murder,0.005711
mutual,0.004744
mystic,0.006633
nagarjuna,0.009681
nanak,0.009877
natur,0.033613
nearer,0.008403
necess,0.005635
necessari,0.003584
need,0.010814
negat,0.007157
neutral,0.009845
new,0.008035
nijhoff,0.010837
noncontradict,0.021100
noriss,0.013610
norm,0.073030
normal,0.003584
notabl,0.006902
noth,0.019036
notion,0.029785
notr,0.017589
nouy,0.013610
novelti,0.007959
nozick,0.019151
number,0.002249
ny,0.006508
o,0.004742
object,0.021520
objectiv,0.018953
objectivist,0.009296
obscur,0.012459
observ,0.005936
obstacl,0.006490
obstruct,0.007626
obtain,0.003495
obviou,0.005680
occasion,0.005073
occur,0.002857
onc,0.003360
oneself,0.007039
onli,0.028983
onseem,0.013610
ontic,0.011407
ontolog,0.012323
open,0.006157
openended,0.013610
opinion,0.014340
oppon,0.005586
order,0.004956
origin,0.004984
ourselv,0.007263
ousiai,0.013610
outlook,0.006447
outsid,0.003430
overlap,0.004998
oxford,0.008451
p,0.003433
page,0.008818
paper,0.003710
paradigm,0.038145
paradox,0.005751
paraphras,0.008836
partial,0.004137
particip,0.003547
particular,0.005630
particularli,0.009462
passag,0.010715
path,0.009119
patholog,0.006393
paul,0.027365
peacemak,0.009414
peirc,0.007773
peopl,0.009918
perceiv,0.009045
percept,0.004787
perform,0.003161
perhap,0.008361
period,0.002672
person,0.017657
perspect,0.008048
pertain,0.006218
phenomena,0.004294
phenomenolog,0.006800
philosoph,0.086845
philosophi,0.038290
phrase,0.005418
physic,0.005885
pierr,0.005789
place,0.002543
plainli,0.009509
platform,0.005507
plato,0.011848
platon,0.007178
plausibl,0.006722
play,0.003247
plural,0.005784
point,0.013043
polit,0.033872
ponder,0.008677
pope,0.031624
popper,0.007370
popular,0.006435
posit,0.029319
positivist,0.007645
possibl,0.013152
postanarch,0.012569
postmarx,0.011801
postmodern,0.027815
postpositivist,0.010760
postscript,0.009719
poststructur,0.008551
potenti,0.003338
practic,0.011036
pragmat,0.012572
pragmatist,0.008944
precis,0.008496
prefer,0.003949
premis,0.012099
prerog,0.008240
presenc,0.003899
present,0.005157
press,0.015176
prestig,0.006817
presum,0.005756
presuppos,0.008081
previou,0.007778
primordi,0.007249
principl,0.030957
prior,0.007790
priori,0.006912
prison,0.005473
privileg,0.011771
probabl,0.003700
problem,0.008274
problematical,0.013610
process,0.009752
produc,0.002683
professor,0.004609
programm,0.004957
programmeexpect,0.013610
progress,0.014059
promin,0.004044
propag,0.005746
proper,0.004626
properti,0.006245
prophet,0.006768
propon,0.005404
proposit,0.029637
protagora,0.028151
prove,0.007960
provid,0.006864
psycholog,0.004395
public,0.002597
publish,0.011449
purchas,0.004386
purpos,0.003354
putnam,0.008007
puzzl,0.006867
quantum,0.005201
question,0.006477
quit,0.004358
r,0.003451
radic,0.004727
radio,0.005279
rang,0.003095
ration,0.013333
ratzing,0.011004
read,0.002840
real,0.010184
realism,0.012761
realist,0.016862
realiti,0.035592
realli,0.015786
reason,0.023483
recast,0.008517
recent,0.008496
recogn,0.010521
reduct,0.004706
refer,0.013084
referenti,0.009796
refus,0.004773
refut,0.006460
regard,0.018827
rei,0.008659
reiter,0.007902
reject,0.004032
rel,0.067449
relat,0.013231
relation,0.034975
relationalismth,0.013610
relationship,0.006244
relativ,0.811176
relativei,0.013610
relativismfor,0.013610
relativist,0.168831
religi,0.004177
religion,0.020828
relinquish,0.007510
remain,0.002705
remark,0.005016
rememb,0.006004
repeat,0.004720
repeatedli,0.005820
replac,0.003333
repres,0.002682
research,0.005306
resembl,0.005159
resolut,0.005003
resolv,0.004750
respect,0.006220
respons,0.002836
rest,0.003831
result,0.004556
retir,0.005565
return,0.003310
review,0.003664
revolut,0.020259
rich,0.004690
richard,0.012121
rig,0.007636
right,0.011740
righteous,0.009542
rigid,0.006086
rise,0.003291
risk,0.004024
rival,0.005404
robert,0.010788
robust,0.017773
role,0.005730
rom,0.009542
ronald,0.005842
root,0.004131
rorti,0.046481
routledg,0.005828
rule,0.002985
rulelik,0.013610
run,0.003594
s,0.002319
sage,0.006447
sahib,0.028527
said,0.016802
saint,0.005469
salvat,0.014130
sander,0.007426
sapirwhorf,0.011004
sat,0.007743
save,0.004644
saw,0.008005
say,0.038979
scarecrow,0.009036
school,0.006655
scienc,0.049515
scientif,0.032912
scientist,0.018700
season,0.005285
second,0.005368
sect,0.006850
secular,0.005660
seen,0.003209
self,0.005620
selfevid,0.008534
selfish,0.007664
selfreferenti,0.010102
semblanc,0.010366
sens,0.016827
separ,0.005976
seri,0.003258
serv,0.003255
set,0.007600
sever,0.002373
sexual,0.005374
shape,0.011695
sharpli,0.006434
shift,0.003963
short,0.006974
shut,0.006833
siegel,0.009414
signific,0.002905
sikh,0.017069
sikhism,0.007572
similar,0.005436
simpl,0.003616
simpli,0.014857
simultan,0.004770
sin,0.006473
sinc,0.004552
sinist,0.010309
sir,0.005137
situat,0.003504
skeptic,0.017985
small,0.002785
socal,0.013778
social,0.020270
societi,0.008555
sociolog,0.010786
socrat,0.014054
soft,0.005811
sole,0.004620
solidar,0.007002
solut,0.003894
solv,0.004189
someon,0.005317
someth,0.013129
sometim,0.002963
somewhat,0.004825
somewher,0.006971
son,0.004358
sophist,0.020948
sort,0.014323
sought,0.004434
soul,0.005877
speaker,0.005845
speci,0.004186
specif,0.008170
specul,0.004735
spenc,0.009268
sphere,0.010188
spiritu,0.010489
splendor,0.009757
spread,0.004023
sri,0.006623
stanc,0.006274
standard,0.012263
stanford,0.005287
stanley,0.005995
state,0.015933
statement,0.025073
steadili,0.006004
steven,0.005735
stick,0.006844
stirner,0.010425
strategi,0.004240
straw,0.008500
strictli,0.005368
strong,0.006615
structur,0.013297
struggl,0.004771
student,0.003874
studi,0.009622
stultifi,0.011527
subject,0.005791
subjectiv,0.018592
subsequ,0.003552
subset,0.005709
success,0.003018
suffer,0.004154
suggest,0.009560
sun,0.005049
sunyata,0.011004
superfici,0.007178
support,0.008119
suspend,0.005658
swear,0.009213
swept,0.007442
syncret,0.008119
taken,0.006666
talk,0.004898
task,0.008445
teach,0.008918
teacher,0.005216
tell,0.010254
tempt,0.008696
tend,0.003737
tendenc,0.005111
term,0.023660
terminolog,0.005360
tex,0.010918
th,0.005220
themselv,0.003376
theolog,0.005548
theologian,0.020197
theoret,0.007464
theori,0.034685
theoriesor,0.013610
theorist,0.005305
therefor,0.009281
thi,0.040862
thing,0.032597
think,0.023685
thoma,0.012215
thought,0.019356
thrown,0.007581
thu,0.005321
time,0.006042
tirthankara,0.010366
today,0.016350
togeth,0.003138
told,0.011546
topic,0.010834
toss,0.018767
total,0.003176
totalitarian,0.007467
tout,0.008735
trace,0.004364
tradit,0.008599
transcend,0.006439
tread,0.010102
tri,0.007165
trickeri,0.009919
true,0.084769
truefor,0.013610
truth,0.290584
type,0.008210
typic,0.009161
ubiquit,0.007178
uk,0.004172
ultim,0.027559
uncertain,0.006017
uncertainti,0.005297
unconnect,0.009160
undergo,0.005277
understand,0.009269
understood,0.004271
unexamin,0.010151
unidirect,0.009414
univers,0.033006
unobtain,0.011004
unsavouri,0.012137
untouch,0.008500
unusu,0.005518
use,0.013019
vadanti,0.013610
vagu,0.006732
vain,0.008640
valid,0.017387
valu,0.017504
valuejudg,0.011095
vari,0.020133
varieti,0.013671
variou,0.007774
various,0.007039
veda,0.007713
vedic,0.007784
vehicl,0.005168
veri,0.007798
veritati,0.011960
version,0.003981
verso,0.009509
versu,0.010626
view,0.043762
vipra,0.013610
virtuou,0.008031
vita,0.009186
w,0.003819
wa,0.011198
warm,0.005817
warrant,0.007020
wave,0.009181
way,0.017037
week,0.004784
weight,0.004588
westacott,0.027221
western,0.003424
wherea,0.015799
whi,0.004188
whim,0.009963
wholeheartedli,0.010617
wide,0.005863
wind,0.010816
wish,0.010066
word,0.003159
work,0.011157
world,0.039232
wrong,0.005353
wrote,0.003878
xiii,0.025211
xvi,0.024131
xxiv,0.010687
york,0.007011
youth,0.005740
zen,0.008212
