abl,0.003033
abov,0.003074
absolut,0.004073
accurs,0.011266
acrost,0.011266
acrostich,0.012634
act,0.005489
action,0.002950
activ,0.002396
actor,0.011072
actual,0.003073
adam,0.009748
adapt,0.003824
admir,0.011381
adopt,0.003314
aesthet,0.052423
aesthetic,0.010701
affect,0.009415
affin,0.011801
affinit,0.012634
aftermath,0.005985
ag,0.007245
ago,0.004653
agoni,0.009570
agre,0.003620
aiken,0.009570
ainsi,0.011452
albert,0.009762
aleksandr,0.008055
alexand,0.009203
alexandru,0.009677
alfr,0.009842
allait,0.012634
allan,0.013238
allegori,0.007598
alli,0.004435
allianc,0.004491
allow,0.004776
allud,0.007336
ambassador,0.005893
amber,0.007573
ambigu,0.005643
amd,0.009570
america,0.003365
american,0.002721
anagram,0.009855
ancient,0.006959
andrei,0.015352
ang,0.009057
angel,0.005759
anglophon,0.008577
ani,0.002116
anna,0.006856
announc,0.004033
anoth,0.002309
antholog,0.013639
anthologi,0.011452
antihero,0.010389
antiidealist,0.012634
anton,0.006963
antrieur,0.012634
apollinair,0.011266
appar,0.004099
appear,0.002781
appetit,0.007891
appli,0.002567
apprais,0.007206
apptit,0.011922
april,0.003674
arc,0.006455
archiv,0.004420
arghezi,0.012634
argu,0.003194
aristocrat,0.006625
arnold,0.006104
art,0.088180
arthur,0.034294
articl,0.005708
articul,0.005800
artist,0.040322
artmagick,0.012634
aspect,0.003156
associ,0.016422
atmospher,0.004704
attempt,0.008218
attract,0.003864
au,0.006886
august,0.007299
aujourdhui,0.012634
author,0.016224
avantgard,0.008797
avec,0.019468
avid,0.008410
avoid,0.007174
away,0.003658
axel,0.024326
axl,0.009920
ayant,0.012634
b,0.003181
babylonian,0.006529
bacovia,0.012634
bad,0.004926
bakst,0.012634
balakian,0.012634
bara,0.010701
barbar,0.008282
barbarian,0.007537
barbey,0.023844
base,0.002092
basil,0.007284
baudelair,0.083119
bear,0.004494
beata,0.011667
beatrix,0.010299
beauclair,0.012634
beaut,0.011667
beauti,0.011004
becam,0.010588
becaus,0.002179
becom,0.004636
bed,0.006254
befor,0.002473
began,0.008675
begin,0.005647
bel,0.008739
belfri,0.011922
belgian,0.006743
belgium,0.005684
beli,0.031768
believ,0.002995
bellelettrist,0.012634
beneath,0.006259
benjoin,0.012634
benzoin,0.011922
bernard,0.005640
best,0.003191
bird,0.004943
birth,0.004267
black,0.003908
blackwel,0.006053
blake,0.008433
blanc,0.018114
blanch,0.009248
bleu,0.010215
blind,0.005927
blok,0.009622
bloomington,0.008323
blow,0.006135
blue,0.015485
bndiction,0.012634
bonheur,0.011266
book,0.005504
borg,0.008683
borisovmusatov,0.012634
borrow,0.004806
bovari,0.012233
break,0.003991
broken,0.004828
bruge,0.009169
brugeslamort,0.012634
bussir,0.011922
byron,0.008072
came,0.006342
canon,0.005266
capit,0.003154
caragial,0.012634
career,0.004757
carl,0.004842
carrier,0.005824
case,0.002425
caspar,0.009208
castl,0.019729
catalogu,0.006613
caus,0.002588
cazali,0.012634
ce,0.010628
centuri,0.009962
certain,0.002654
cest,0.010135
cet,0.011452
cett,0.011102
chair,0.005447
chang,0.002186
chantent,0.012634
characterist,0.013372
charl,0.014858
chavann,0.035003
chekhov,0.010135
chercher,0.012634
chetlah,0.012634
children,0.007977
choic,0.003811
chose,0.010911
christ,0.006188
christina,0.008323
ciel,0.011922
cinema,0.006511
cinq,0.011922
cite,0.004056
citi,0.010048
clariti,0.006963
classic,0.003204
claud,0.006283
clearli,0.004361
close,0.002595
closer,0.009599
closest,0.005871
cloth,0.005070
clown,0.009519
collect,0.008488
colour,0.011072
come,0.005548
comm,0.039955
commit,0.004065
common,0.004691
companion,0.011189
compel,0.006062
complex,0.002838
compon,0.003340
compos,0.011040
composit,0.008042
concept,0.005414
concern,0.008170
conclud,0.003967
concret,0.005314
confound,0.007537
confus,0.004366
conqu,0.011922
conrad,0.007378
consequ,0.003298
consid,0.018098
constantin,0.007020
constitut,0.003063
contempl,0.013392
contemporain,0.010299
contemporari,0.015178
contempt,0.008055
context,0.003412
continu,0.009401
contrast,0.006553
copp,0.024466
corbir,0.011452
correspond,0.003521
corrompu,0.012634
corrupt,0.004762
count,0.004424
counterpart,0.005201
coup,0.005283
cowritten,0.009022
crane,0.007801
creat,0.004745
creation,0.003531
critic,0.014267
croix,0.008921
cultiv,0.004954
cultur,0.005833
curs,0.007598
curvilinear,0.009130
cut,0.004118
cygn,0.037903
cynic,0.007906
d,0.003140
da,0.005164
dador,0.012634
dail,0.012634
dan,0.012567
danc,0.006221
dannunzio,0.010822
dans,0.010955
dant,0.016217
daro,0.011102
dart,0.017654
daulton,0.012634
daurevilli,0.025269
dautr,0.011922
dautrefoi,0.012634
david,0.006892
dcadenc,0.011922
dchirer,0.012634
dead,0.004863
deal,0.003125
death,0.003397
debat,0.003611
debussi,0.022533
decad,0.045842
deciph,0.007178
declam,0.011266
declin,0.003683
defin,0.002662
definit,0.003067
delvail,0.011922
democrat,0.003801
demoisel,0.011452
denfant,0.012634
depict,0.009677
deris,0.008797
deriv,0.005899
desbordesvalmor,0.012634
descend,0.009390
describ,0.011938
descript,0.007092
design,0.002849
desir,0.007302
destin,0.005428
detach,0.006313
detect,0.004260
develop,0.001940
devil,0.006871
diabol,0.009920
diadem,0.011266
diadm,0.012634
did,0.002879
die,0.011151
differ,0.002056
difficult,0.003383
direct,0.002576
directli,0.009351
director,0.004664
disgust,0.008183
dissimilar,0.007716
distinct,0.008963
distinguish,0.003444
dliquesc,0.012634
dlivr,0.012634
dmitri,0.007549
doctrin,0.004652
doe,0.002624
dor,0.009169
dorian,0.009677
dostoyevski,0.009920
doux,0.012634
drama,0.019657
dream,0.044806
dreari,0.010701
dreyer,0.010822
driven,0.004516
drunken,0.008987
du,0.021931
dun,0.022949
dur,0.011102
dure,0.013398
dutton,0.026303
dyingth,0.012634
e,0.012574
earli,0.016351
earlier,0.006902
eastern,0.003876
eccentr,0.007744
ed,0.006539
edgar,0.013654
edit,0.003655
edmond,0.007676
edmund,0.011884
educ,0.002975
edvard,0.018941
effect,0.009075
element,0.002970
elena,0.009169
elev,0.005210
elihu,0.009988
eliot,0.031502
emblem,0.008656
embrac,0.010537
eminescu,0.012233
emphas,0.004098
emphasi,0.008472
empir,0.006517
employ,0.003097
en,0.011478
enamor,0.010589
end,0.002553
endeavor,0.006157
endow,0.005915
endur,0.005700
english,0.019516
englishspeak,0.006400
enthusiast,0.006657
ep,0.007573
equal,0.003180
escap,0.004689
esoter,0.007142
especi,0.002712
espoir,0.011667
essay,0.004525
esseint,0.012634
essenc,0.005275
est,0.006488
establish,0.004985
et,0.040147
etymolog,0.004971
eugen,0.005709
euxmm,0.012634
evid,0.003184
evok,0.014230
exampl,0.006275
exclaim,0.009622
exclus,0.003989
expans,0.003940
experi,0.008616
explor,0.003558
express,0.006052
expression,0.029032
extens,0.003153
extern,0.001826
extrem,0.006700
ezra,0.008388
faco,0.012634
faith,0.004669
fall,0.003188
fals,0.004736
familiar,0.004941
fantasi,0.013226
fantinlatour,0.011922
faun,0.021910
favour,0.004592
feed,0.005361
femm,0.010389
fentr,0.012634
fiction,0.014944
figaro,0.010955
film,0.018947
filth,0.010135
fin,0.014888
flaubert,0.011452
flemish,0.007815
flesh,0.006963
fleur,0.031458
fleurit,0.012634
flicien,0.011266
flight,0.005116
flix,0.007815
floupett,0.012634
flourish,0.005140
fluiditi,0.008480
fnon,0.011452
focus,0.003251
fog,0.008108
forest,0.004802
forgotten,0.006594
form,0.009544
fort,0.006157
fou,0.011452
frai,0.012634
franc,0.010725
franoi,0.006175
free,0.005705
freer,0.008857
french,0.053776
frequent,0.014043
fresh,0.005609
frida,0.011667
friedrich,0.010216
friend,0.004960
frost,0.007586
frozen,0.006625
fruit,0.004949
fui,0.011667
fyodor,0.018187
gabriel,0.018909
gain,0.003038
galleri,0.019267
gaston,0.008202
gautier,0.010060
gave,0.003634
gener,0.001794
geniu,0.013597
geograph,0.004061
georg,0.007198
german,0.017635
gertrud,0.008710
gift,0.005637
gild,0.008480
gippiu,0.012233
giraud,0.010060
girl,0.012332
given,0.005009
givr,0.012634
glacier,0.013058
glass,0.005505
goal,0.006870
godmen,0.012634
good,0.002776
gordon,0.005824
gorokhova,0.012634
gothic,0.007455
goubert,0.011667
gourmont,0.025269
grand,0.004851
grard,0.016605
grasp,0.006230
grave,0.006087
gray,0.006230
great,0.002814
greater,0.003145
greatest,0.008789
greatli,0.004089
greec,0.004720
greek,0.003536
green,0.008590
griffith,0.014888
gritti,0.009920
group,0.004505
guillaum,0.008090
gustav,0.044732
ha,0.003330
half,0.003437
halv,0.007178
hant,0.010486
happen,0.003947
happi,0.005522
hard,0.004098
hardsoul,0.012634
harlequin,0.010589
hart,0.007206
harvey,0.006333
hautboi,0.012233
headquart,0.005533
henri,0.008050
henrik,0.008090
hermet,0.008739
hermetic,0.018580
hero,0.005923
heseltin,0.011922
hi,0.044785
hierat,0.010822
hindranc,0.008366
hispan,0.007906
hitherto,0.007367
hitler,0.006805
homophon,0.010389
hope,0.004252
horror,0.007142
hospit,0.004924
host,0.004566
hostil,0.005179
hous,0.006700
houston,0.014865
humain,0.009423
human,0.002406
humbl,0.007954
huysman,0.034358
ibsen,0.020271
iconographi,0.008344
ide,0.008827
ideal,0.024381
identifi,0.009056
idiosyncrat,0.007801
il,0.006963
illustr,0.004259
imag,0.015382
imageri,0.047012
imagin,0.009985
imagist,0.022204
imit,0.005908
immedi,0.003671
import,0.012780
impression,0.009377
inaugur,0.005769
incens,0.008503
includ,0.012135
increas,0.002401
indiana,0.006308
indic,0.003072
indirect,0.005426
indirectli,0.010763
individu,0.005152
indol,0.009570
industri,0.002850
infini,0.011922
infinit,0.004890
influenc,0.057765
influenti,0.008033
initi,0.005427
innoc,0.006600
inscrib,0.007676
insist,0.005095
inspir,0.008264
instead,0.005850
intend,0.007732
intens,0.004147
interior,0.004901
intern,0.004377
internet,0.004096
intoler,0.007274
introduc,0.002929
intrud,0.007662
invent,0.004063
invest,0.003555
invit,0.005146
ion,0.005415
iron,0.004472
irrationalist,0.010822
isbn,0.017713
isol,0.004054
iurlioni,0.012634
ivr,0.011452
j,0.003136
jacek,0.009677
jack,0.005904
jaim,0.008577
jame,0.003522
jan,0.010976
jarri,0.011266
je,0.023403
jean,0.025897
joan,0.006791
john,0.002840
jorg,0.007410
joriskarl,0.022905
josphin,0.011667
journal,0.003212
joyc,0.007860
jule,0.021854
jullian,0.012634
junimea,0.011667
juxtaposit,0.008987
kahlo,0.011102
kahn,0.025440
keen,0.006878
kill,0.004122
kind,0.003326
klimt,0.011667
known,0.006259
koder,0.012634
konstantina,0.012634
l,0.003675
la,0.075025
lac,0.008857
laforgu,0.011452
lake,0.009849
lalbum,0.012634
lambr,0.012634
languag,0.006276
langueur,0.025269
languor,0.012634
laprsmidi,0.023844
larg,0.008801
lart,0.010299
late,0.014454
later,0.004966
latin,0.003924
lazi,0.008202
le,0.144238
lead,0.002491
learn,0.003507
lehmann,0.009093
lelian,0.025269
lempir,0.010389
lencen,0.012634
leonardo,0.006834
lermontov,0.010955
lesprit,0.010486
letter,0.004121
leur,0.009793
lexpans,0.011667
lhomm,0.009677
liber,0.003764
libr,0.008164
librari,0.003922
libretti,0.011922
libretto,0.010486
life,0.010735
like,0.011150
link,0.001815
lisleadam,0.010955
list,0.002321
literari,0.052360
literatorul,0.012634
literatur,0.048494
littl,0.006390
live,0.008098
lme,0.009855
loffrir,0.012634
lon,0.007478
london,0.003515
long,0.002710
longest,0.005985
lou,0.008683
love,0.009913
lpaul,0.012634
lugnpo,0.037903
lui,0.013000
lunair,0.012634
lurk,0.009248
luvr,0.023844
macedonski,0.012634
madam,0.008767
maeterlinck,0.022533
magazin,0.014501
magnific,0.007772
magnifiqu,0.012634
magritt,0.011102
mai,0.008710
main,0.002643
mainstream,0.005066
maintain,0.002911
major,0.006644
mal,0.027507
malczewski,0.012634
malign,0.007786
mallarm,0.101399
man,0.007387
manag,0.002990
mangent,0.012634
mani,0.015096
manifest,0.004802
manifesto,0.032912
manner,0.008058
marcel,0.007367
marcelin,0.011922
marina,0.008302
mario,0.007235
markovi,0.011266
martiro,0.011922
marvel,0.007623
mateiu,0.012634
matter,0.003140
matteroffact,0.011266
maudit,0.047688
mauric,0.012452
meadow,0.008388
mean,0.004598
media,0.003829
mediev,0.004452
menard,0.010486
mention,0.004041
mercur,0.009248
merezhkovski,0.024466
messag,0.005188
metaphor,0.005871
meur,0.012634
mexico,0.005208
meyerhold,0.011102
michel,0.005722
mid,0.004157
mihai,0.011266
mikaloju,0.011922
mikhail,0.019729
mind,0.003937
minski,0.007636
minulescu,0.012634
mire,0.008528
misanthrop,0.010589
misattribut,0.009793
misogynist,0.011922
mix,0.004015
mlisand,0.023844
mock,0.007845
mode,0.004700
modern,0.002504
modernist,0.022435
modifi,0.004073
mon,0.008038
mona,0.008889
mood,0.006582
mora,0.055492
morbid,0.017366
moreau,0.019039
morri,0.006631
mortal,0.005579
motion,0.004212
motto,0.007421
mourn,0.008221
movement,0.023030
munch,0.022204
musc,0.023844
music,0.022941
mutual,0.004403
mystic,0.030786
mysticit,0.012634
mytholog,0.005838
nabi,0.009920
nantucket,0.010060
napoleon,0.005693
narr,0.016482
nation,0.002313
natur,0.011144
naturalist,0.011374
ne,0.007054
neglect,0.005461
nerval,0.024466
nesterov,0.011922
network,0.003490
new,0.005594
nichola,0.005615
nietzsch,0.007054
nikolai,0.007410
nineteenth,0.005222
nineteenthcenturi,0.007346
noir,0.008433
nomin,0.004357
nonrealist,0.011452
nont,0.012634
noth,0.004417
nou,0.008456
nouveau,0.019355
novel,0.046206
number,0.006265
nutshel,0.008827
o,0.022012
object,0.011415
obo,0.010486
obscur,0.005783
obviou,0.005273
occultist,0.009519
octob,0.003610
odd,0.005889
odilon,0.022905
offer,0.003104
onc,0.003119
onegin,0.009920
onli,0.005765
open,0.008574
opera,0.021536
order,0.002300
ordinari,0.004552
ordur,0.012634
ore,0.005981
origin,0.006940
ornament,0.006987
orthodoxi,0.006995
oscar,0.014549
otherworldli,0.009855
oubli,0.012634
overal,0.003821
overshadow,0.007891
overwhelm,0.005597
owe,0.005081
oxford,0.023535
p,0.003186
pa,0.006505
pablo,0.007860
pain,0.005287
paint,0.026511
painter,0.044732
paladin,0.010486
paperback,0.007028
parfum,0.012634
pari,0.009130
parnass,0.011922
parnassian,0.065732
parodi,0.007689
particular,0.010452
pass,0.003243
passag,0.004973
passer,0.010135
paul,0.047176
pauper,0.009208
pauvr,0.011922
pella,0.020779
peopl,0.002301
percept,0.008887
perfum,0.016443
perhap,0.007761
period,0.017364
person,0.002731
pessim,0.016821
petersburg,0.022540
petit,0.006175
phaidon,0.010135
phenomena,0.003986
philipp,0.006676
philosoph,0.003664
philosophi,0.014217
phnomn,0.011452
physic,0.005463
picasso,0.009423
pictur,0.009347
piec,0.004610
pierr,0.016122
pierrot,0.011452
pladan,0.012634
plain,0.005455
play,0.012057
playwright,0.024326
pliad,0.011452
plume,0.008072
poe,0.025099
poem,0.067779
poet,0.155870
poetri,0.075722
polem,0.007970
polemic,0.011667
pome,0.011102
poor,0.004127
popular,0.005973
portant,0.012634
porter,0.007045
portrait,0.006770
portray,0.010868
posi,0.011667
pote,0.046671
potenti,0.003099
potteri,0.006564
pound,0.018003
pour,0.006283
power,0.002449
practic,0.002561
prairi,0.008282
prais,0.005597
praz,0.012634
prcieux,0.012634
preced,0.004535
precursor,0.010430
preraphaelit,0.010589
present,0.007181
press,0.014087
primari,0.003160
primarili,0.003272
primordi,0.006729
primordial,0.012634
privat,0.006865
privileg,0.010927
prize,0.004464
prlude,0.012634
produc,0.007472
profoundli,0.006932
programm,0.004601
prolif,0.006827
promin,0.003754
promot,0.006830
proper,0.004295
prose,0.013541
proust,0.009622
provid,0.002124
psycholog,0.004080
public,0.007232
publicli,0.005123
publish,0.015943
purpos,0.006228
pushkin,0.009677
puvi,0.035766
pym,0.009677
qualiti,0.003566
que,0.026049
qui,0.045110
quiet,0.007012
quit,0.004045
quixot,0.009677
random,0.004566
raptur,0.009423
reaction,0.007786
read,0.002636
reader,0.005177
real,0.003151
realism,0.005923
realiti,0.004129
reassembl,0.008603
reawaken,0.008987
reborn,0.008577
rebour,0.012634
recent,0.002629
reclus,0.009169
recognit,0.008323
reconcil,0.005969
record,0.003200
recov,0.004673
recreat,0.005864
red,0.004208
redon,0.021910
refer,0.006073
refug,0.019432
regard,0.002912
regardless,0.004589
reject,0.003742
relat,0.006141
relationship,0.002898
religi,0.003878
religion,0.003867
remain,0.005022
remedio,0.011922
rememb,0.005574
remi,0.011452
ren,0.005950
renaiss,0.005020
renatr,0.012634
repertoir,0.007938
repres,0.022415
reprsent,0.010135
resembl,0.004789
respons,0.002633
result,0.004229
retain,0.007985
retreat,0.005864
reunit,0.007045
rev,0.006784
reviv,0.004825
revu,0.016913
rich,0.008707
richard,0.011252
rimbaud,0.042358
rmi,0.010060
rodenbach,0.025269
rodin,0.010215
roerich,0.011452
roi,0.017259
role,0.002659
roman,0.004072
romania,0.006369
romanian,0.007346
romant,0.012921
romantic,0.021915
romoranka,0.012634
room,0.004924
rop,0.010955
rose,0.004607
rosicrucian,0.009855
rossetti,0.021402
roug,0.008388
routledg,0.005410
rubn,0.011266
russia,0.004462
russian,0.057786
rve,0.010955
s,0.019380
said,0.003119
sake,0.012687
salom,0.009988
salon,0.034518
samain,0.012634
san,0.004821
saryan,0.012634
satir,0.007054
sauraient,0.012634
sburtorul,0.012634
scatolog,0.011102
scene,0.010938
scent,0.008302
schoenberg,0.010389
school,0.003089
schopenhau,0.032362
scriabin,0.012634
sculptor,0.008302
se,0.031566
sea,0.003873
seek,0.010220
seen,0.005958
segher,0.011922
selfconsci,0.007598
selfdestruct,0.009208
sen,0.007274
sens,0.015620
sensibl,0.006716
sentiment,0.005900
sentt,0.012634
separ,0.002773
septemb,0.003661
serbian,0.007598
seren,0.009169
seri,0.012098
set,0.007055
seul,0.011452
sever,0.013217
sexual,0.014967
shard,0.009377
share,0.002958
short,0.003237
sicl,0.008889
sign,0.013916
signifi,0.006126
signific,0.005394
significantli,0.003896
silent,0.006293
similar,0.005046
sing,0.006995
singl,0.002827
sir,0.004769
sketch,0.006777
sky,0.006009
social,0.002688
societi,0.002647
soit,0.022905
sole,0.004289
soleil,0.010486
solovyov,0.022204
sometim,0.005501
song,0.011207
sont,0.011266
sotriqu,0.012634
sou,0.009677
sought,0.008232
soul,0.010911
sound,0.004449
sourc,0.005315
souvient,0.011922
space,0.003257
special,0.002642
spectat,0.008090
spiritu,0.014606
st,0.003406
stage,0.014760
stanislavski,0.011102
state,0.007395
static,0.010810
steep,0.006770
stein,0.007786
steven,0.005324
stock,0.004076
stori,0.008566
stphane,0.048969
strang,0.006268
strata,0.007336
strausss,0.010486
strife,0.013927
strindberg,0.010701
strong,0.003070
studi,0.006699
style,0.091430
styliz,0.008344
subject,0.013440
subscrib,0.006607
succeed,0.004319
success,0.002802
suckl,0.009677
suggest,0.002958
sui,0.007730
suicid,0.006058
sun,0.004687
superior,0.004703
surfac,0.003826
surreal,0.008710
surround,0.007739
swan,0.022795
sweet,0.006582
symbol,0.207154
symbolism,0.012634
symbolist,0.789638
symbolon,0.023844
symbolu,0.012634
symbolum,0.012634
symon,0.009855
sympathet,0.006756
synesthesia,0.011266
synonym,0.005273
t,0.007352
tableau,0.009169
tableaux,0.009855
taboo,0.007611
taken,0.003093
tast,0.005930
tear,0.006777
techniqu,0.009741
temporari,0.004983
tend,0.003469
tendenc,0.009489
term,0.009983
text,0.007290
th,0.004845
theatr,0.035816
theatrego,0.012233
theatric,0.007786
theda,0.010486
theme,0.028079
theodor,0.005783
thi,0.020546
thing,0.013448
thophil,0.010135
thought,0.002994
thtre,0.054777
thu,0.002470
time,0.001869
titl,0.007585
tobin,0.008857
today,0.003035
toorop,0.023844
topic,0.003352
tou,0.009570
touchston,0.008388
tourn,0.011452
town,0.004339
trace,0.004051
tradit,0.007982
tragic,0.007801
trait,0.005006
transit,0.003678
translat,0.007275
transpar,0.010815
transport,0.003622
trap,0.005536
tree,0.004352
trend,0.012108
tri,0.003325
triomphant,0.012634
tristan,0.017778
triumphant,0.008629
trope,0.008739
truth,0.004495
tsvetaeva,0.012634
tudor,0.016564
turn,0.014606
twentieth,0.004985
typic,0.002834
tyutchev,0.011922
tzara,0.011452
u,0.009860
ubu,0.010822
understood,0.003965
undisturb,0.008921
unfinish,0.007662
unifi,0.004422
uniqu,0.003602
unit,0.002131
univers,0.008754
use,0.013812
usher,0.006471
vallett,0.011452
valri,0.020972
valu,0.002708
vampyr,0.011452
variou,0.002405
varo,0.010822
vatil,0.012634
vautr,0.012634
vedder,0.010822
veri,0.007239
verlain,0.163350
vers,0.012442
versif,0.020430
vert,0.019587
vianu,0.012634
vicair,0.012634
victor,0.005687
vie,0.007744
vierg,0.012634
villier,0.009622
vinci,0.007206
virgin,0.012943
visionari,0.007987
visual,0.022291
vitr,0.012634
vivac,0.011922
vivant,0.010822
vladimir,0.012026
vogu,0.008656
voi,0.011452
vol,0.004541
vowel,0.016689
voyel,0.025269
vrubel,0.011922
vsevolod,0.009988
w,0.007090
wa,0.064104
wagner,0.015544
wagnrienn,0.012634
wallac,0.006460
walloni,0.011922
wallow,0.011102
wander,0.007080
want,0.003901
watch,0.005387
way,0.004518
white,0.012035
widespread,0.004059
wife,0.010895
wild,0.010841
william,0.003385
wilson,0.021113
window,0.005938
wing,0.005752
wish,0.004672
word,0.005866
work,0.022786
world,0.006426
worldweari,0.011922
write,0.009911
writer,0.056378
wrote,0.014400
year,0.004265
yeat,0.019355
yield,0.004127
york,0.006508
young,0.007847
zinaida,0.011452
zutiqu,0.012634
