aardvark,0.062956
abbrevi,0.011471
abl,0.005949
abov,0.018089
accept,0.005912
accord,0.037676
accordingli,0.010599
act,0.005382
actual,0.006027
ad,0.006010
adequ,0.009880
admit,0.019863
allen,0.010873
alon,0.008054
ambigu,0.022134
analys,0.064455
analysi,0.056774
andor,0.008241
ani,0.008301
anniversari,0.012490
annoy,0.113410
anoth,0.009059
anyth,0.037232
appar,0.008040
appear,0.010910
appli,0.005034
approach,0.016261
appropri,0.007549
architectur,0.008883
argu,0.043858
argument,0.007912
arrest,0.010350
articl,0.005597
assert,0.048545
attempt,0.010744
attribut,0.014642
augsburg,0.016629
avoid,0.007034
ax,0.016450
becaus,0.017099
becom,0.009092
believ,0.005873
bertolet,0.024776
bertrand,0.049482
better,0.006404
bodi,0.011397
book,0.010794
bradford,0.031732
bring,0.007059
broad,0.007627
brutal,0.012380
c,0.005435
cambridg,0.015065
case,0.019022
celebr,0.009802
centuri,0.004884
certain,0.005205
chapter,0.017729
chomski,0.013884
clariti,0.013656
classic,0.012568
clearli,0.008552
come,0.005440
commonli,0.006317
commun,0.004974
complet,0.010507
compon,0.013102
concern,0.005340
conjunct,0.010630
consid,0.004436
consider,0.006393
constitut,0.006006
construct,0.005890
contain,0.005457
context,0.046844
continu,0.004609
contradict,0.010161
contribut,0.005583
coref,0.045762
correct,0.015321
correctli,0.021861
correl,0.008867
counterexampl,0.016494
courtroom,0.018057
cover,0.012526
critic,0.016787
criticis,0.011197
current,0.082794
cutest,0.024776
d,0.024634
day,0.005740
debat,0.014164
defend,0.017023
definit,0.102259
deni,0.008819
denial,0.013131
denot,0.111392
describ,0.004682
descript,0.278165
develop,0.011414
dictionari,0.009223
did,0.005647
differ,0.020164
discov,0.006699
discover,0.027836
displaystyl,0.017428
distinct,0.017577
distinguish,0.006754
divid,0.006032
doe,0.030884
dog,0.125272
donnellan,0.152405
e,0.006164
ed,0.012823
edit,0.007168
emperor,0.252531
encyclopedia,0.015776
entiti,0.031084
epistemolog,0.010885
equal,0.006237
equival,0.014755
erni,0.020563
essay,0.008875
everi,0.017193
exampl,0.057427
exclud,0.025848
exist,0.031881
existenti,0.037230
express,0.071211
extens,0.012369
extern,0.003581
f,0.074212
fact,0.005815
fail,0.013772
failur,0.007968
fairli,0.010374
fals,0.055734
focus,0.006375
follow,0.035259
foral,0.016724
form,0.037435
forth,0.009956
forward,0.008693
frege,0.029802
frequent,0.006884
function,0.005014
furthermor,0.016785
g,0.039753
gari,0.012218
gener,0.010557
georg,0.007058
given,0.004912
gone,0.010868
gottlob,0.029802
grammar,0.012182
gray,0.146624
group,0.008835
gx,0.017625
ha,0.045719
hair,0.011660
harbor,0.012255
harmoni,0.011422
hi,0.021956
hidden,0.010784
howev,0.003974
huge,0.009108
ident,0.028050
import,0.004177
includ,0.003399
incomplet,0.010672
incorrect,0.011660
inde,0.008327
indefinit,0.069041
index,0.007780
indic,0.006024
individu,0.020206
influenti,0.007876
inform,0.024345
initi,0.005321
innoc,0.025889
insan,0.105740
insofar,0.013563
instanc,0.006632
instead,0.011472
introduct,0.019477
intuit,0.010479
involv,0.004747
irrelev,0.012163
issu,0.005255
jone,0.054369
journal,0.006299
keith,0.049289
kentucki,0.376985
kill,0.008084
kind,0.006523
kitten,0.019728
know,0.007420
known,0.008183
kripk,0.085141
languag,0.024618
larg,0.004315
later,0.004869
law,0.019730
leav,0.006933
lepor,0.020198
like,0.004373
likewis,0.009697
linguist,0.009625
link,0.003560
list,0.004552
listen,0.011564
logic,0.047546
london,0.006894
longer,0.006752
ludlow,0.042446
major,0.004343
make,0.016653
mathemat,0.006436
mean,0.049598
meaning,0.010641
meant,0.025192
metaphys,0.010475
middl,0.020250
midwest,0.015796
mind,0.038603
mislead,0.012380
miss,0.010327
mistak,0.011268
mit,0.019896
monarchi,0.010494
morn,0.118966
murder,0.124775
mysteri,0.032420
neal,0.076209
need,0.024608
new,0.003657
noam,0.013953
nonexist,0.038141
nongray,0.024776
nonref,0.047980
normal,0.006525
notabl,0.006282
note,0.014160
number,0.004095
object,0.016790
observ,0.005403
occurr,0.021179
onli,0.011306
onlin,0.014331
ontolog,0.011216
origin,0.004537
ostertag,0.024776
ought,0.011752
outsid,0.006245
oxford,0.007692
p,0.024999
paper,0.006755
particular,0.020498
particularli,0.011483
peopl,0.009027
person,0.021428
peter,0.007465
philosoph,0.050302
philosophi,0.069703
phrase,0.177564
planet,0.037156
point,0.009498
pp,0.038269
pragmat,0.011443
pragmatist,0.016281
predic,0.051826
present,0.009388
presid,0.006789
press,0.016576
pretend,0.014532
primari,0.006197
primarili,0.006417
problem,0.045188
problemat,0.011314
promis,0.008821
properti,0.039789
proposit,0.064742
provid,0.004165
publish,0.005210
quantifi,0.021098
quit,0.007934
rais,0.006924
read,0.015513
reader,0.010152
recent,0.005155
refer,0.053592
referenti,0.017832
relat,0.008029
remain,0.004924
remov,0.006874
report,0.028613
repres,0.019536
requir,0.004687
respons,0.010328
review,0.006671
reword,0.019588
rise,0.023965
rod,0.012873
rtd,0.087089
russel,0.407012
ryckman,0.022459
said,0.006117
satisfactori,0.013548
saul,0.043097
say,0.045155
scienc,0.005007
second,0.009773
secondari,0.008478
section,0.007377
seen,0.017526
semant,0.055184
sens,0.018379
sensedata,0.019876
sentenc,0.203580
sever,0.004319
short,0.006348
signific,0.005289
similar,0.004948
similarli,0.007850
sinc,0.029005
situat,0.006379
sky,0.035351
smith,0.131690
solv,0.038130
someon,0.009679
someth,0.023901
speak,0.007945
speaker,0.063846
speakerthat,0.024776
special,0.005182
specifi,0.008424
stand,0.007787
standard,0.005581
stanford,0.019250
star,0.110274
stephen,0.036819
strawson,0.171807
strictli,0.009772
studi,0.004379
subject,0.010542
subjectpred,0.061691
substitut,0.018415
suggest,0.011602
suppos,0.018210
symbol,0.015045
synonym,0.020683
syntact,0.014511
tabl,0.039874
talk,0.026750
text,0.007148
th,0.004751
themselv,0.006146
theori,0.087427
thi,0.061988
thing,0.052747
think,0.007186
thoma,0.007412
thought,0.005872
thu,0.043595
time,0.003666
took,0.006473
treat,0.007255
trial,0.009455
true,0.067093
truli,0.010383
truth,0.026449
unambigu,0.014005
uncontroversi,0.017692
underpin,0.012083
understand,0.011249
understood,0.007776
unfinish,0.015027
uniqu,0.042393
univers,0.012875
unknown,0.008579
unwin,0.015326
usa,0.009251
use,0.037244
utter,0.027312
valu,0.010622
variabl,0.030299
variou,0.004717
venu,0.037626
vicin,0.013374
violat,0.018336
vital,0.009254
wa,0.013590
want,0.007650
way,0.008861
wellreceiv,0.018057
whatev,0.010201
wikisourc,0.016241
word,0.005752
wrong,0.009746
x,0.190759
xdxland,0.024776
xfxland,0.024776
xyland,0.020985
y,0.114716
yfyrightarrow,0.024776
york,0.006382
zalta,0.016975
