abhinavagupta,0.025666
accept,0.006970
accredit,0.014063
adi,0.018543
advaita,0.038199
aesthet,0.013466
age,0.020860
aksapada,0.026477
allama,0.025019
alphabet,0.013369
aman,0.024019
amartya,0.019550
ambedkar,0.024019
anandavardhana,0.028281
ancient,0.032178
angira,0.028281
ao,0.020074
arjuna,0.024739
aruni,0.026974
asanga,0.024481
ashtavakra,0.052093
ashvapati,0.028281
astrolog,0.016062
atharva,0.024019
athaval,0.026477
atri,0.028281
aurobindo,0.022641
author,0.081269
avibhagdvaita,0.029209
badarayana,0.026046
banzan,0.027562
basaveshwara,0.029209
bce,0.516015
bceschool,0.029209
befor,0.005717
begin,0.006527
believ,0.006924
belsangbo,0.029209
bhaa,0.025327
bhagavad,0.021381
bhakti,0.042394
bhaktivedanta,0.025019
bharadwaja,0.028281
bhartrhari,0.026974
bhatta,0.026477
bhattacharya,0.044493
bhimrao,0.027562
bi,0.015700
bimal,0.023616
bodhidharma,0.025019
born,0.018914
brahma,0.019715
brajendranath,0.029209
buddhaghosa,0.022935
buddhism,0.040899
buddhist,0.040398
buhai,0.025666
bureaucrat,0.029669
c,0.339583
candrakirti,0.026974
categori,0.008555
cc,0.016347
ce,0.122860
centuri,0.138187
chaitanya,0.024019
chanakya,0.019497
chandra,0.018663
chang,0.010110
charact,0.009265
chaudhuri,0.024481
chen,0.032775
cheng,0.038994
chenghsieh,0.029209
chera,0.023616
chiao,0.025019
chien,0.023616
chines,0.038553
ching,0.040148
chiwon,0.029209
chndogya,0.055124
choi,0.067513
chokden,0.026974
chola,0.020337
chong,0.021288
chuni,0.026046
classic,0.007408
classifi,0.009070
coloni,0.009272
combinator,0.017209
comment,0.010741
commentari,0.025854
confederaci,0.017537
confucian,0.048924
confucianist,0.043788
confuciu,0.018068
contemporari,0.008772
contract,0.008996
contribut,0.013164
d,0.007260
damodar,0.027562
dao,0.021197
darma,0.029209
date,0.014991
delhi,0.015480
devendranath,0.029209
dgen,0.025327
dharmakirti,0.022246
die,0.051559
dignga,0.021894
divkara,0.027562
dojeon,0.027562
dolboba,0.026974
dolpopa,0.026477
dong,0.020337
dongsun,0.029209
dorj,0.073444
doseon,0.029209
dun,0.017685
dunyi,0.026477
dynasti,0.069970
earli,0.005400
earliest,0.009025
eastern,0.008961
econom,0.005908
edo,0.020011
ekaku,0.026046
ekiken,0.027562
element,0.006867
empir,0.030136
end,0.017710
eonjeok,0.027562
era,0.017061
establish,0.005762
expon,0.015317
exposit,0.014797
extern,0.004222
fall,0.007370
fang,0.020011
fazang,0.025327
feizi,0.022785
feminist,0.014153
feng,0.020203
field,0.005896
fl,0.016408
follow,0.004618
founder,0.151795
founderacharya,0.029209
fujiwara,0.023616
fukuan,0.029209
fuzhi,0.026974
g,0.007810
gadadhara,0.029209
gangea,0.028281
gaozi,0.029209
gaudapadacharya,0.029209
gautama,0.056237
ge,0.017342
georg,0.008321
gita,0.040955
glek,0.029209
golden,0.011699
gongsun,0.023616
gopinath,0.026477
gorampa,0.026477
goryeo,0.023432
grammar,0.014361
grammarian,0.019497
greatli,0.009454
gritsamada,0.028281
guan,0.022124
guo,0.019659
gupta,0.036854
guru,0.051707
gyan,0.023811
gyeltsap,0.026974
gyeongdeok,0.027562
h,0.008020
hajim,0.022504
hakuin,0.024242
ham,0.019830
han,0.034615
hangi,0.029209
hao,0.044745
hare,0.017655
harida,0.029209
heavili,0.009308
hedonist,0.020777
heian,0.022124
hi,0.005176
hnen,0.025666
hong,0.013498
hooker,0.019292
hsienchang,0.029209
hsiung,0.026477
hsu,0.021108
hsuehcheng,0.029209
hu,0.035370
huang,0.018102
huhung,0.029209
hui,0.019444
huineng,0.025666
human,0.005562
hung,0.018001
hwang,0.022785
identifi,0.006979
import,0.004924
indian,0.028672
indistinguish,0.016328
indochines,0.022504
influenc,0.012718
iqbal,0.021679
iskcon,0.024739
islam,0.009611
ito,0.021288
jaimini,0.026974
jain,0.107614
jainism,0.052527
jamadagni,0.028281
jamgn,0.053948
jamyang,0.026974
japanes,0.033010
jayanta,0.026477
je,0.018034
jedu,0.028281
jema,0.027562
jeong,0.070849
jeonghui,0.028281
jeu,0.022935
ji,0.018427
jia,0.020337
jiddu,0.025327
jinsai,0.026974
jinul,0.025666
jitendra,0.029209
jiuyuan,0.027562
jizang,0.025666
jo,0.013737
joseon,0.019830
ju,0.019659
kaibara,0.027562
kamakura,0.023092
kanada,0.021785
kang,0.021577
kanta,0.026046
kanva,0.026046
kapila,0.025666
karma,0.017342
kasyapa,0.026046
kaviraj,0.029209
kaydrup,0.026974
keiji,0.023257
khyents,0.026477
kim,0.016136
king,0.009195
kingdom,0.046077
kitaro,0.025327
kiyoshi,0.024739
kkai,0.023811
knowledg,0.007261
kongtrl,0.026974
korean,0.040204
krishna,0.072688
krishnamurti,0.048039
krishnananda,0.029209
kuki,0.029209
kumazawa,0.027562
kumrila,0.025666
kundakunda,0.025666
kushan,0.020939
languag,0.007255
laozi,0.021288
late,0.006683
later,0.017222
legal,0.007965
legalist,0.040276
li,0.014961
liang,0.041100
liezi,0.026477
limit,0.005894
lingayat,0.025019
lingusit,0.029209
linji,0.025327
link,0.004197
list,0.016101
liu,0.050594
live,0.006241
logic,0.009341
logician,0.017107
longchenpa,0.025666
longzi,0.025666
lu,0.016818
madhusdana,0.029209
madhvacharya,0.024242
madhyamaka,0.043154
mahabharata,0.037924
mahajanapada,0.021894
mahaprabhu,0.025327
maharaj,0.026046
maharshi,0.023811
mahavira,0.020406
main,0.012220
major,0.010241
male,0.010826
mao,0.017655
marahtha,0.029209
matil,0.023811
maurya,0.019194
mdhava,0.027562
menciu,0.022124
mention,0.028032
middl,0.015915
miki,0.024481
mikyo,0.029209
militari,0.007807
millennium,0.024093
mimamsa,0.022124
mimansa,0.058418
mind,0.009101
ming,0.016532
mipham,0.025327
mira,0.021022
miyamoto,0.023616
modern,0.023157
mohanti,0.025666
motokiyo,0.025666
motoori,0.025327
mou,0.021381
movement,0.006655
mozi,0.020550
mu,0.015303
mughalsrajput,0.029209
mundaka,0.026974
muromachi,0.026477
musashi,0.024739
mystic,0.014234
nagarjuna,0.020777
nakamoto,0.026477
nanak,0.021197
narayana,0.041878
nath,0.020337
natur,0.005152
naturalist,0.013148
navya,0.026974
naya,0.024242
nd,0.035920
nichiren,0.022124
nigamananda,0.026974
nimbarka,0.024242
nisargadatta,0.026477
nishi,0.026477
nishida,0.023811
nishitani,0.025666
nolini,0.029209
nondual,0.040406
norinaga,0.025327
nyaya,0.116982
nyya,0.046515
offici,0.007327
ogi,0.025666
ohsawa,0.029209
onli,0.004442
osho,0.025019
pandava,0.027562
pandita,0.024019
pandurang,0.026477
panini,0.024019
parashara,0.028281
parshva,0.026477
patanjali,0.023257
period,0.068817
pessimist,0.017935
phenonenolog,0.029209
philologist,0.020624
philosoph,0.254147
philosophi,0.082172
pingala,0.023616
pini,0.021197
pioneer,0.010082
polit,0.018172
portion,0.009698
possibl,0.005645
postcoloni,0.016639
prabhat,0.025019
prabhkara,0.029209
prakrit,0.021785
principl,0.006643
probabl,0.007941
promin,0.008678
prosodi,0.021679
pura,0.022935
purana,0.019497
purusha,0.023092
purva,0.023811
qichao,0.026477
qin,0.017625
qing,0.017288
qualifi,0.011638
rabindranath,0.021577
radhakrishnan,0.022007
raghunatha,0.024481
ramana,0.022785
ramanuja,0.021894
ramji,0.027562
rangjung,0.026477
ranjan,0.024481
rd,0.009910
refer,0.003509
religi,0.017931
renown,0.014974
reviv,0.011154
richard,0.008671
rig,0.032775
rinchen,0.024739
rishaba,0.028281
rishi,0.094465
ruan,0.024739
ryu,0.025666
sage,0.041509
sakurazawa,0.029209
sakya,0.045283
sandilya,0.028281
sankhya,0.024242
sanskrit,0.058151
sarasvat,0.029209
sarkar,0.022124
sarvep,0.023616
savarkar,0.026046
scholar,0.008913
school,0.049989
scienc,0.005903
seal,0.013163
sectarian,0.018172
seer,0.042045
seika,0.026477
sen,0.016818
sengzhao,0.025327
seo,0.022785
seokheon,0.029209
seungrang,0.029209
seven,0.009210
sever,0.005092
shaivism,0.020700
shang,0.019444
shankara,0.021197
shao,0.026477
shaoqi,0.029209
share,0.006839
shastri,0.023616
shen,0.034961
shi,0.016750
shih,0.022124
shihli,0.029209
shinran,0.024242
shiva,0.019604
shri,0.022935
shume,0.026974
shvetashvatara,0.026477
shz,0.029209
siddhartha,0.021477
siddhasena,0.025666
sik,0.026046
sikhism,0.016249
silla,0.023616
siromani,0.024481
skhya,0.023811
social,0.006214
song,0.012955
sorai,0.026974
sourc,0.006144
special,0.006109
sri,0.014214
ssutung,0.029209
state,0.004274
stop,0.009650
stra,0.019772
sukta,0.022641
sultan,0.028918
sun,0.021674
sutra,0.069048
suzuki,0.019392
swami,0.020074
synthes,0.012694
systemat,0.009332
t,0.008499
tagor,0.043154
tai,0.018622
tan,0.017008
tanab,0.026477
tang,0.031566
tao,0.017537
taoism,0.016705
taoist,0.018207
tattvrthastra,0.027562
te,0.017715
tetsuro,0.026974
textual,0.015346
th,0.117629
theori,0.005725
thi,0.003653
thinker,0.011809
thome,0.026046
thought,0.006923
thth,0.016308
tibetan,0.017032
tirthankara,0.022246
tominaga,0.029209
totalist,0.026477
tradit,0.012302
tsai,0.022785
tsongkhapa,0.023811
tsungchou,0.029209
tsungsan,0.029209
tzu,0.019292
u,0.011398
uddalaka,0.028281
uddyotakara,0.029209
udyanacharya,0.029209
uicheon,0.028281
uisang,0.026046
umasvami,0.026046
umsvti,0.027562
unifi,0.010225
upaniad,0.052954
upanishad,0.055056
updhyya,0.026974
usual,0.005878
vaisheshika,0.020203
vaishvanara,0.028281
vallabhacharya,0.026046
vasishtha,0.028281
vasubandhu,0.022007
vasugupta,0.025666
vatsyayana,0.025666
vcaspati,0.028281
veda,0.049659
vedanta,0.018207
vedic,0.066821
vednta,0.024242
vidya,0.024019
vidyranya,0.029209
vijaynagara,0.029209
vijnabhiku,0.029209
vinayak,0.029209
vishishtadvaita,0.022504
viswamitra,0.028281
viu,0.024481
vyasa,0.024481
vyasatirtha,0.029209
wang,0.079084
wangchuk,0.025019
wangpo,0.026974
war,0.006939
watsuji,0.027562
widerang,0.017057
wisdom,0.012934
woncheuk,0.027562
wonhyo,0.026046
work,0.014366
writer,0.010025
xi,0.015053
xiang,0.022372
xin,0.018465
xing,0.040955
xiong,0.022504
xu,0.018427
xuan,0.025327
xunzi,0.025327
y,0.010402
yajnavalkya,0.024739
yakyong,0.027562
yan,0.039661
yang,0.048352
yangm,0.022785
yatsen,0.021108
year,0.009860
yen,0.018582
yeongmo,0.029209
yi,0.109458
yinyang,0.022007
yixuan,0.026046
yog,0.082686
yoga,0.035678
yogacara,0.043788
youlan,0.026046
youwei,0.028281
yu,0.017715
yuan,0.050115
yukikazu,0.029209
yung,0.026974
zeami,0.025666
zedong,0.018465
zen,0.017625
zenji,0.026046
zhang,0.016574
zheng,0.019772
zhi,0.020550
zhiyi,0.025666
zhong,0.023811
zhongshu,0.023811
zhou,0.052108
zhu,0.037245
zhuang,0.024242
zhuangzi,0.020269
zongmi,0.026046
zongxi,0.028281
zou,0.023616
