abstrus,0.094956
academi,0.038993
amalgam,0.058826
aperu,0.100481
arcan,0.161318
believ,0.025243
bi,0.171719
black,0.032939
buddhism,0.049701
ce,0.044790
centuri,0.020990
chang,0.018429
chapter,0.038098
chines,0.175690
collect,0.023847
combin,0.023311
comment,0.039158
commentari,0.094257
compendiari,0.106485
compound,0.036840
confucian,0.059454
contemporari,0.031980
daodej,0.360763
daoism,0.074918
daoist,0.079035
dark,0.042279
develop,0.016351
doe,0.022122
editor,0.041903
element,0.025034
encyclopedia,0.033901
exist,0.019574
explain,0.026498
extern,0.015391
focal,0.059031
free,0.024042
french,0.028327
gong,0.070699
guo,0.071671
heshang,0.094956
hsanhseh,0.106485
hsuanhsueh,0.106485
influenti,0.033852
instanc,0.028506
jixia,0.103104
junp,0.106485
lacouperi,0.106485
laotzu,0.103104
laozi,0.077608
lead,0.020996
learn,0.118246
link,0.015301
liter,0.080930
liu,0.061483
magic,0.049062
mean,0.019378
medit,0.106928
metaphys,0.045019
modern,0.021105
mysteri,0.139337
mystic,0.051894
neodaoism,0.319457
neotaoism,0.280717
occur,0.022355
origin,0.019499
overview,0.035256
philosoph,0.092652
philosophi,0.059914
ping,0.079819
pinyin,0.072511
profound,0.092053
qin,0.064256
receiv,0.024447
refer,0.025592
reinterpret,0.059241
religion,0.032591
respect,0.024335
richard,0.031612
said,0.026292
scholar,0.032497
school,0.026034
shili,0.090190
simplifi,0.041476
sinologist,0.080659
sixth,0.047280
spiritu,0.041034
standard,0.023986
stanford,0.041368
studi,0.056462
taoism,0.060901
terrien,0.106485
textual,0.055947
thought,0.050479
tradit,0.022425
usag,0.037353
version,0.093456
wa,0.014602
wadegil,0.083613
wang,0.172988
wilhelm,0.044831
wonder,0.051597
world,0.018055
xiang,0.081563
xiong,0.082043
xuan,0.092334
xuanxu,0.374289
xue,0.096526
xunxu,0.106485
yije,0.086809
zhuangzi,0.147792
